# Rutile-100-old_PROSCA-AC
# h[nm],U(h)[kJ/mol]
0.149999999999999994,189.360482217480210920
0.150999999999999995,188.384725287636399571
0.151999999999999996,187.445567686843105548
0.152999999999999997,186.509139526252823771
0.153999999999999998,185.556725323720570486
0.154999999999999999,184.582069770334157965
0.156000000000000000,183.587098512722889154
0.157000000000000001,182.577918223131433706
0.158000000000000002,181.561801886247167204
0.159000000000000002,180.545270003674147574
0.160000000000000003,179.533109274238540820
0.161000000000000004,178.528080722019296900
0.162000000000000005,177.531070981192527825
0.163000000000000006,176.541482239973191781
0.164000000000000007,175.557709907841655195
0.165000000000000008,174.577608036132858160
0.166000000000000009,173.598884671336975316
0.167000000000000010,172.619400959353697544
0.168000000000000010,171.637369571359528209
0.169000000000000011,170.651461524634953548
0.170000000000000012,169.660837640159257944
0.171000000000000013,168.665123524962979218
0.172000000000000014,167.664346627566771986
0.173000000000000015,166.658851798472085193
0.174000000000000016,165.649208788707369422
0.175000000000000017,164.636121859309213278
0.176000000000000018,163.620348554687609521
0.177000000000000018,162.602631946468278556
0.178000000000000019,161.583648393186706471
0.179000000000000020,160.563971113122164525
0.180000000000000021,159.544048607087233904
0.181000000000000022,158.524196138640888876
0.182000000000000023,157.504598009756591637
0.183000000000000024,156.485318185582571004
0.184000000000000025,155.466316851163469437
0.185000000000000026,154.447470662060226232
0.186000000000000026,153.428594725549885425
0.187000000000000027,152.409464675572991155
0.188000000000000028,151.389837548742406170
0.189000000000000029,150.369470505374835057
0.190000000000000030,149.348136751205032624
0.191000000000000031,148.325638291151250314
0.192000000000000032,147.301815380283898094
0.193000000000000033,146.276552727004798271
0.194000000000000034,145.249782650253706606
0.195000000000000034,144.221485499218317727
0.196000000000000035,143.191687714693614453
0.197000000000000036,142.160457950796740079
0.198000000000000037,141.127901689339410041
0.199000000000000038,140.094154771863230735
0.200000000000000039,139.059376250967034139
0.201000000000000040,138.023740927449949822
0.202000000000000041,136.987431896813575349
0.203000000000000042,135.950633381096224639
0.204000000000000042,134.913524072585516933
0.205000000000000043,133.876271166863887174
0.206000000000000044,132.839025215596763019
0.207000000000000045,131.801915885722223720
0.208000000000000046,130.765048672132479624
0.209000000000000047,129.728502576078085440
0.210000000000000048,128.692328731658875540
0.211000000000000049,127.656549937928389227
0.212000000000000050,126.621161034212988739
0.213000000000000050,125.586130040971141852
0.214000000000000051,124.551399977543240993
0.215000000000000052,123.516891261055747009
0.216000000000000053,122.482504587096471482
0.217000000000000054,121.448124192101971630
0.218000000000000055,120.413621399242089183
0.219000000000000056,119.378858353492503852
0.220000000000000057,118.343691857143738844
0.221000000000000058,117.307977223810127043
0.222000000000000058,116.271572076724709177
0.223000000000000059,115.234340025422469012
0.224000000000000060,114.196154163549252303
0.225000000000000061,113.156900339256822008
0.226000000000000062,112.116480158251505372
0.227000000000000063,111.074813687898853232
0.228000000000000064,110.031841838718406734
0.229000000000000065,108.987528407029770960
0.230000000000000066,107.941861769362418499
0.231000000000000066,106.894856225468942057
0.232000000000000067,105.846552992352457068
0.233000000000000068,104.797020856625223928
0.234000000000000069,103.746356496757655918
0.235000000000000070,102.694684490374015695
0.236000000000000071,101.642157024721541347
0.237000000000000072,100.588953330823571264
0.238000000000000073,99.535278863655918258
0.239000000000000073,98.481364252006713400
0.240000000000000074,97.427464042531283894
0.241000000000000075,96.373855262950058886
0.242000000000000076,95.320835829395193173
0.243000000000000077,94.268722822644548387
0.244000000000000078,93.217850657428044769
0.245000000000000079,92.168569168197279851
0.246000000000000080,91.121241633753683686
0.247000000000000081,90.076242761969140815
0.248000000000000081,89.033956654543374043
0.249000000000000082,87.994774770355732585
0.250000000000000111,86.959093904512116069
0.251000000000000112,85.927314198689273894
0.252000000000000113,84.899837196859522237
0.253000000000000114,83.877063958962494894
0.254000000000000115,82.859393243589067879
0.255000000000000115,81.847219769276932766
0.256000000000000116,80.840932562596691469
0.257000000000000117,79.840913399842037279
0.258000000000000118,78.847535347839325937
0.259000000000000119,77.861161408162530506
0.260000000000000120,76.882143267888011451
0.261000000000000121,75.910820158951139547
0.262000000000000122,74.947517827176483252
0.263000000000000123,73.992547611144999564
0.264000000000000123,73.046205630236769935
0.265000000000000124,72.108772080443415575
0.266000000000000125,71.180510635881219628
0.267000000000000126,70.261667953348904803
0.268000000000000127,69.352473276761742227
0.269000000000000128,68.453138137854125489
0.270000000000000129,67.563856149168941556
0.271000000000000130,66.684802885042813614
0.272000000000000131,65.816135846048126723
0.273000000000000131,64.957994502157873740
0.274000000000000132,64.110500409758898854
0.275000000000000133,63.273757397542908620
0.276000000000000134,62.447851816255443680
0.277000000000000135,61.632852847269816721
0.278000000000000136,60.828812864977564345
0.279000000000000137,60.035767848041714956
0.280000000000000138,59.253737834643359861
0.281000000000000139,58.482727416959754407
0.282000000000000139,57.722726270241480506
0.283000000000000140,56.973709712004719563
0.284000000000000141,56.235639287017193055
0.285000000000000142,55.508463373933238927
0.286000000000000143,54.792117809618751778
0.287000000000000144,54.086526527402270403
0.288000000000000145,53.391602205687561877
0.289000000000000146,52.707246923568469299
0.290000000000000147,52.033352820291767671
0.291000000000000147,51.369802755622458790
0.292000000000000148,50.716470968370835237
0.293000000000000149,50.073223730546352783
0.294000000000000150,49.439919994803524617
0.295000000000000151,48.816412033043420138
0.296000000000000152,48.202546064225472833
0.297000000000000153,47.598162869632702154
0.298000000000000154,47.003098394012539529
0.299000000000000155,46.417184331190803448
0.300000000000000155,45.840248692921989004
0.301000000000000156,45.272116359900124394
0.302000000000000157,44.712609614004541925
0.303000000000000158,44.161548651001020005
0.304000000000000159,43.618752073053478568
0.305000000000000160,43.084037360530942351
0.306000000000000161,42.557221322714447354
0.307000000000000162,42.038120527121606074
0.308000000000000163,41.526551707271615044
0.309000000000000163,41.022332148810846775
0.310000000000000164,40.525280054009598985
0.311000000000000165,40.035214884723167472
0.312000000000000166,39.551957683986636027
0.313000000000000167,39.075331376482118628
0.314000000000000168,38.605161048179454042
0.315000000000000169,38.141274205508700845
0.316000000000000170,37.683501014472689405
0.317000000000000171,37.231674520153134722
0.318000000000000171,36.785630847103583108
0.319000000000000172,36.345209381156465156
0.320000000000000173,35.910252933201647352
0.321000000000000174,35.480607885518686828
0.322000000000000175,35.056124321266068478
0.323000000000000176,34.636656137747294792
0.324000000000000177,34.222061144087234652
0.325000000000000178,33.812201143961559069
0.326000000000000179,33.406942004028543636
0.327000000000000179,33.006153708716354345
0.328000000000000180,32.609710402019373987
0.329000000000000181,32.217490416955762100
0.330000000000000182,31.829376293334114223
0.331000000000000183,31.445254784471472931
0.332000000000000184,31.065016853496473459
0.333000000000000185,30.688557659862528482
0.334000000000000186,30.315776536684104769
0.335000000000000187,29.946576959497178905
0.336000000000000187,29.580866507031210233
0.337000000000000188,29.218556814565385338
0.338000000000000189,28.859563520426256389
0.339000000000000190,28.503806206167666915
0.340000000000000191,28.151208330957047110
0.341000000000000192,27.801697160674883946
0.342000000000000193,27.455203692215754074
0.343000000000000194,27.111662573462115944
0.344000000000000195,26.771012019383011449
0.345000000000000195,26.433193724691541604
0.346000000000000196,26.098152773476993360
0.347000000000000197,25.765837546208040010
0.348000000000000198,25.436199624486132365
0.349000000000000199,25.109193693909091394
0.350000000000000200,24.784777445387373263
0.351000000000000201,24.462911475237433478
0.352000000000000202,24.143559184359254743
0.353000000000000203,23.826686676787755204
0.354000000000000203,23.512262657891007223
0.355000000000000204,23.200258332471811684
0.356000000000000205,22.890647303013203384
0.357000000000000206,22.583405468292347962
0.358000000000000207,22.278510922572902331
0.359000000000000208,21.975943855570658769
0.360000000000000209,21.675686453373071316
0.361000000000000210,21.377722800479954657
0.362000000000000210,21.082038783118832725
0.363000000000000211,20.788621993976086344
0.364000000000000212,20.497461638472568524
0.365000000000000213,20.208548442700639214
0.366000000000000214,19.921874563128358915
0.367000000000000215,19.637433498165684398
0.368000000000000216,19.355220001677281516
0.369000000000000217,19.075229998516839203
0.370000000000000218,18.797460502148201300
0.371000000000000218,18.521909534410134768
0.372000000000000219,18.248576047472617745
0.373000000000000220,17.977459848025052480
0.374000000000000221,17.708561523729009934
0.375000000000000222,17.441882371961220599
0.376000000000000223,17.177424330865310509
0.377000000000000224,16.915189912725299592
0.378000000000000225,16.655182139667296326
0.379000000000000226,16.397404481690678324
0.380000000000000226,16.141860797024644825
0.381000000000000227,15.888555274801529293
0.382000000000000228,15.637492380033458872
0.383000000000000229,15.388676800875121131
0.384000000000000230,15.142113398151355597
0.385000000000000231,14.897807157124873356
0.386000000000000232,14.655763141476223055
0.387000000000000233,14.415986449464980979
0.388000000000000234,14.178482172238744852
0.389000000000000234,13.943255354253869527
0.390000000000000235,13.710310955769619667
0.391000000000000236,13.479653817375842451
0.392000000000000237,13.251288626511973590
0.393000000000000238,13.025219885934125941
0.394000000000000239,12.801451884085409461
0.395000000000000240,12.579988667323487306
0.396000000000000241,12.360834013958585942
0.397000000000000242,12.143991410054015390
0.398000000000000242,11.929464026940983956
0.399000000000000243,11.717254700398767042
0.400000000000000244,11.507365911450742502
0.401000000000000245,11.299799768726931148
0.402000000000000246,11.094557992343538899
0.403000000000000247,10.891641899249256298
0.404000000000000248,10.691052389989312843
0.405000000000000249,10.492789936837498388
0.406000000000000250,10.296854573247225417
0.407000000000000250,10.103245884572640279
0.408000000000000251,9.911963000011592584
0.409000000000000252,9.723004585722602400
0.410000000000000253,9.536368839068391168
0.411000000000000254,9.352053483939572587
0.412000000000000255,9.170055767112357259
0.413000000000000256,8.990372455595046830
0.414000000000000257,8.812999834918965547
0.415000000000000258,8.637933708329947891
0.416000000000000258,8.465169396837930904
0.417000000000000259,8.294701740082263797
0.418000000000000260,8.126525097972182365
0.419000000000000261,7.960633353061856710
0.420000000000000262,7.797019913621338283
0.421000000000000263,7.635677717364737660
0.422000000000000264,7.476599235798843779
0.423000000000000265,7.319776479155575721
0.424000000000000266,7.165201001873192865
0.425000000000000266,7.012863908592089857
0.426000000000000267,6.862755860631648552
0.427000000000000268,6.714867082916164520
0.428000000000000269,6.569187371318419011
0.429000000000000270,6.425706100390682352
0.430000000000000271,6.284412231453897490
0.431000000000000272,6.145294321016633532
0.432000000000000273,6.008340529496628335
0.433000000000000274,5.873538630218488876
0.434000000000000274,5.740876018662047997
0.435000000000000275,5.610339721937113389
0.436000000000000276,5.481916408460899781
0.437000000000000277,5.355592397815526873
0.438000000000000278,5.231353670763956742
0.439000000000000279,5.109185879403426611
0.440000000000000280,4.989074357436409812
0.441000000000000281,4.871004130540048216
0.442000000000000282,4.754959926815607751
0.443000000000000282,4.640926187300666861
0.444000000000000283,4.528887076527166933
0.445000000000000284,4.418826493109563991
0.446000000000000285,4.310728080347816515
0.447000000000000286,4.204575236830890184
0.448000000000000287,4.100351127027035858
0.449000000000000288,3.998038691847870751
0.450000000000000289,3.897620659174009461
0.451000000000000290,3.799079554330557329
0.452000000000000290,3.702397710501433181
0.453000000000000291,3.607557279072310941
0.454000000000000292,3.514540239892273377
0.455000000000000293,3.423328411445056840
0.456000000000000294,3.333903460921370687
0.457000000000000295,3.246246914184053534
0.458000000000000296,3.160340165618817476
0.459000000000000297,3.076164487863330521
0.460000000000000298,2.993701041408299179
0.461000000000000298,2.912930884064458326
0.462000000000000299,2.833834980289930972
0.463000000000000300,2.756394210372869136
0.464000000000000301,2.680589379464593414
0.465000000000000302,2.606401226459117204
0.466000000000000303,2.533810432715050798
0.467000000000000304,2.462797630616362365
0.468000000000000305,2.393343411969054646
0.469000000000000306,2.325428336230779269
0.470000000000000306,2.259032938570973759
0.471000000000000307,2.194137737759512596
0.472000000000000308,2.130723243881964102
0.473000000000000309,2.068769965879840189
0.474000000000000310,2.008258418914818488
0.475000000000000311,1.949169131555698486
0.476000000000000312,1.891482652787634944
0.477000000000000313,1.835179558842815695
0.478000000000000314,1.780240459852729717
0.479000000000000314,1.726646006321647109
0.480000000000000315,1.674376895421688882
0.481000000000000316,1.623413877109727066
0.482000000000000317,1.573737760066777014
0.483000000000000318,1.525329417460490111
0.484000000000000319,1.478169792531703219
0.485000000000000320,1.432239904006137987
0.486000000000000321,1.387520851332296301
0.487000000000000322,1.343993819746993612
0.488000000000000322,1.301640085170043593
0.489000000000000323,1.260441018929456369
0.490000000000000324,1.220378092319066576
0.491000000000000325,1.181432880990289203
0.492000000000000326,1.143587069179881288
0.493000000000000327,1.106822453775703208
0.494000000000000328,1.071120948222602731
0.495000000000000329,1.036464586270454236
0.496000000000000330,1.002835525566736496
0.497000000000000330,0.970216051095642462
0.498000000000000331,0.938588578466467260
0.499000000000000332,0.907935657053238976
0.500000000000000333,0.878239972988266060
0.501000000000000334,0.849484352012138011
0.502000000000000335,0.821651762182425416
0.503000000000000336,0.794725316443942287
0.504000000000000337,0.768688275062877180
0.505000000000000338,0.743524047927595189
0.506000000000000338,0.719216196718610368
0.507000000000000339,0.695748436950388238
0.508000000000000340,0.673104639887730505
0.509000000000000341,0.651268834339143510
0.510000000000000342,0.630225208330219666
0.511000000000000343,0.609958110659305608
0.512000000000000344,0.590452052338462874
0.513000000000000345,0.571691707922165615
0.514000000000000346,0.553661916726418069
0.515000000000000346,0.536347683941055697
0.516000000000000347,0.519734181637736881
0.517000000000000348,0.503806749676295906
0.518000000000000349,0.488550896512075283
0.519000000000000350,0.473952299906772179
0.520000000000000351,0.459996807545512199
0.521000000000000352,0.446670437562424472
0.522000000000000353,0.433959378977594734
0.523000000000000353,0.421849992047584610
0.524000000000000354,0.410328808532187561
0.525000000000000355,0.399382531879778235
0.526000000000000356,0.388998037333759761
0.527000000000000357,0.379162371962356359
0.528000000000000358,0.369862754614319111
0.529000000000000359,0.361086575802612997
0.530000000000000360,0.352821397518695623
0.531000000000000361,0.345054952979370277
0.532000000000000361,0.337775146308596119
0.533000000000000362,0.330970052156435268
0.534000000000000363,0.324627915257299005
0.535000000000000364,0.318737149929544550
0.536000000000000365,0.313286339518670409
0.537000000000000366,0.308264235785981666
0.538000000000000367,0.303659758244963496
0.539000000000000368,0.299461993447081187
0.540000000000000369,0.295660194219235284
0.541000000000000369,0.292243778854507974
0.542000000000000370,0.289202330258376106
0.543000000000000371,0.286525595051910942
0.544000000000000372,0.284203482634027504
0.545000000000000373,0.282226064204363136
0.546000000000000374,0.280583571748640181
0.547000000000000375,0.279266396988114729
0.548000000000000376,0.278265090294817552
0.549000000000000377,0.277570359574179693
0.550000000000000377,0.277173069116568138
0.551000000000000378,0.277064238419469977
0.552000000000000379,0.277235040981509251
0.553000000000000380,0.277676803070105893
0.554000000000000381,0.278381002464012817
0.555000000000000382,0.279339267172104111
0.556000000000000383,0.280543374130009626
0.557000000000000384,0.281985247875585210
0.558000000000000385,0.283656959204893755
0.559000000000000385,0.285550723809648521
0.560000000000000386,0.287658900897489023
0.561000000000000387,0.289973991796307284
0.562000000000000388,0.292488638543779489
0.563000000000000389,0.295195622463106710
0.564000000000000390,0.298087862726277131
0.565000000000000391,0.301158414905762728
0.566000000000000392,0.304400469515780925
0.567000000000000393,0.307807350544011538
0.568000000000000393,0.311372513974925880
0.569000000000000394,0.315089546305546087
0.570000000000000395,0.318952163054540716
0.571000000000000396,0.322954207265704785
0.572000000000000397,0.327089648006481104
0.573000000000000398,0.331352578862540437
0.574000000000000399,0.335737216429107810
0.575000000000000400,0.340237898799902960
0.576000000000000401,0.344849084054442312
0.577000000000000401,0.349565348744299231
0.578000000000000402,0.354381386379281127
0.579000000000000403,0.359292005914029267
0.580000000000000404,0.364292130235651657
0.581000000000000405,0.369376794653280660
0.582000000000000406,0.374541145389825914
0.583000000000000407,0.379780438076865345
0.584000000000000408,0.385090036252928147
0.585000000000000409,0.390465409865920321
0.586000000000000409,0.395902133780200560
0.587000000000000410,0.401395886288636927
0.588000000000000411,0.406942447630445070
0.589000000000000412,0.412537698514890028
0.590000000000000413,0.418177618651672134
0.591000000000000414,0.423858285288149617
0.592000000000000415,0.429575871753911709
0.593000000000000416,0.435326646013145691
0.594000000000000417,0.441106969225109780
0.595000000000000417,0.446913294312949183
0.596000000000000418,0.452742164541551861
0.597000000000000419,0.458590212104295347
0.598000000000000420,0.464454156719442790
0.599000000000000421,0.470330804236112954
0.600000000000000422,0.476217045250358406
0.601000000000000423,0.482109853731521654
0.602000000000000424,0.488006285659045802
0.603000000000000425,0.493903477670111168
0.604000000000000425,0.499798645718256496
0.605000000000000426,0.505689083743166123
0.606000000000000427,0.511572162351811466
0.607000000000000428,0.517445327511322772
0.608000000000000429,0.523306099253357693
0.609000000000000430,0.529152070390643159
0.610000000000000431,0.534980905245370009
0.611000000000000432,0.540790338389886327
0.612000000000000433,0.546578173399703160
0.613000000000000433,0.552342281618912190
0.614000000000000434,0.558080600938158589
0.615000000000000435,0.563791134585275300
0.616000000000000436,0.569471949928708532
0.617000000000000437,0.575121177293589803
0.618000000000000438,0.580737008790863984
0.619000000000000439,0.586317697159324358
0.620000000000000440,0.591861554620586316
0.621000000000000441,0.597366951747177022
0.622000000000000441,0.602832316343677177
0.623000000000000442,0.608256132341015499
0.624000000000000443,0.613636938703885582
0.625000000000000444,0.618973328351293040
0.626000000000000445,0.624263947090361482
0.627000000000000446,0.629507492563205706
0.628000000000000447,0.634702713207068392
0.629000000000000448,0.639848407227564975
0.630000000000000449,0.644943421585137955
0.631000000000000449,0.649986650994575976
0.632000000000000450,0.654977036937704482
0.633000000000000451,0.659913566689094955
0.634000000000000452,0.664795272354919309
0.635000000000000453,0.669621229924668215
0.636000000000000454,0.674390558335996704
0.637000000000000455,0.679102418552319120
0.638000000000000456,0.683756012653426559
0.639000000000000457,0.688350582938802580
0.640000000000000457,0.692885411043713373
0.641000000000000458,0.697359817068038734
0.642000000000000459,0.701773158717623580
0.643000000000000460,0.706124830458285335
0.644000000000000461,0.710414262682229514
0.645000000000000462,0.714640920886862707
0.646000000000000463,0.718804304865994004
0.647000000000000464,0.722903947913216660
0.648000000000000465,0.726939416037450492
0.649000000000000465,0.730910307190599573
0.650000000000000466,0.734816250507120516
0.651000000000000467,0.738656905555575727
0.652000000000000468,0.742431961601888069
0.653000000000000469,0.746141136884395650
0.654000000000000470,0.749784177900414628
0.655000000000000471,0.753360858704381853
0.656000000000000472,0.756870980217406952
0.657000000000000473,0.760314369548086288
0.658000000000000473,0.763690879324557037
0.659000000000000474,0.767000387037666487
0.660000000000000475,0.770242794395071373
0.661000000000000476,0.773418026686334970
0.662000000000000477,0.776526032158701862
0.663000000000000478,0.779566781403635334
0.664000000000000479,0.782540266753820490
0.665000000000000480,0.785446501690769461
0.666000000000000481,0.788285520262613337
0.667000000000000481,0.791057376512288579
0.668000000000000482,0.793762143915675233
0.669000000000000483,0.796399914829932110
0.670000000000000484,0.798970799951590815
0.671000000000000485,0.801474927784503022
0.672000000000000486,0.803912444117480640
0.673000000000000487,0.806283511511427520
0.674000000000000488,0.808588308796003519
0.675000000000000488,0.810827030575600238
0.676000000000000489,0.812999886744472766
0.677000000000000490,0.815107102011108475
0.678000000000000491,0.817148915431493483
0.679000000000000492,0.819125579951311300
0.680000000000000493,0.821037361956899359
0.681000000000000494,0.822884540834868061
0.682000000000000495,0.824667408540294966
0.683000000000000496,0.826386269173308152
0.684000000000000496,0.828041438564018129
0.685000000000000497,0.829633243865705028
0.686000000000000498,0.831162023156026941
0.687000000000000499,0.832628125046296574
0.688000000000000500,0.834031908298615621
0.689000000000000501,0.835373741450778917
0.690000000000000502,0.836654002448833589
0.691000000000000503,0.837873078287227679
0.692000000000000504,0.839031364656425915
0.693000000000000504,0.840129265597773012
0.694000000000000505,0.841167193165742844
0.695000000000000506,0.842145567097180470
0.696000000000000507,0.843064814487656689
0.697000000000000508,0.843925369474743947
0.698000000000000509,0.844727672928064721
0.699000000000000510,0.845472172146113032
0.700000000000000511,0.846159320559660477
0.701000000000000512,0.846789577441686037
0.702000000000000512,0.847363407623732079
0.703000000000000513,0.847881281218579752
0.704000000000000514,0.848343673349111427
0.705000000000000515,0.848751063883345092
0.706000000000000516,0.849103937175453183
0.707000000000000517,0.849402781812706897
0.708000000000000518,0.849648090368339992
0.709000000000000519,0.849840359159987457
0.710000000000000520,0.849980088013950308
0.711000000000000520,0.850067780034897025
0.712000000000000521,0.850103941381068928
0.713000000000000522,0.850089081044882677
0.714000000000000523,0.850023710638749486
0.715000000000000524,0.849908344186171782
0.716000000000000525,0.849743497917891388
0.717000000000000526,0.849529690073047350
0.718000000000000527,0.849267440705359533
0.719000000000000528,0.848957271494071519
0.720000000000000528,0.848599705559661244
0.721000000000000529,0.848195267284329146
0.722000000000000530,0.847744482136971733
0.723000000000000531,0.847247876502791764
0.724000000000000532,0.846705977517234087
0.725000000000000533,0.846119312904372256
0.726000000000000534,0.845488410819565828
0.727000000000000535,0.844813799696287449
0.728000000000000536,0.844096008097116046
0.729000000000000536,0.843335564568798213
0.730000000000000537,0.842532997501234449
0.731000000000000538,0.841688834990456103
0.732000000000000539,0.840803604705368413
0.733000000000000540,0.839877833758306935
0.734000000000000541,0.838912048579249392
0.735000000000000542,0.837906774793730991
0.736000000000000543,0.836862537104186677
0.737000000000000544,0.835779859174940354
0.738000000000000544,0.834659263520474703
0.739000000000000545,0.833501271397159016
0.740000000000000546,0.832306402698222536
0.741000000000000547,0.831075175851988535
0.742000000000000548,0.829808107723187804
0.743000000000000549,0.828505713517531772
0.744000000000000550,0.827168506689176297
0.745000000000000551,0.825796998851263675
0.746000000000000552,0.824391699689314805
0.747000000000000552,0.822953116877550350
0.748000000000000553,0.821481755997989338
0.749000000000000554,0.819978120462292237
0.750000000000000555,0.818442711436300763
0.751000000000000556,0.816876027767231228
0.752000000000000557,0.815278565913387432
0.753000000000000558,0.813650819876539089
0.754000000000000559,0.811993281136606293
0.755000000000000560,0.810306438588911049
0.756000000000000560,0.808590778483681660
0.757000000000000561,0.806846784368016379
0.758000000000000562,0.805074937030000548
0.759000000000000563,0.803275714445106814
0.760000000000000564,0.801449591724744281
0.761000000000000565,0.799597041066981151
0.762000000000000566,0.797718531709293743
0.763000000000000567,0.795814529883401400
0.764000000000000568,0.793885498772073372
0.765000000000000568,0.791931898467850948
0.766000000000000569,0.789954185933750108
0.767000000000000570,0.787952814965735882
0.768000000000000571,0.785928236157099946
0.769000000000000572,0.783880896864560306
0.770000000000000573,0.781811241176112226
0.771000000000000574,0.779719709880578593
0.772000000000000575,0.777606740438814836
0.773000000000000576,0.775472766956548876
0.774000000000000576,0.773318220158778824
0.775000000000000577,0.771143527365721781
0.776000000000000578,0.768949112470273866
0.777000000000000579,0.766735395916933737
0.778000000000000580,0.764502794682178632
0.779000000000000581,0.762251722256211628
0.780000000000000582,0.759982588626102018
0.781000000000000583,0.757695800260234309
0.782000000000000584,0.755391760094078157
0.783000000000000584,0.753070867517218745
0.784000000000000585,0.750733518361600294
0.785000000000000586,0.748380104891018028
0.786000000000000587,0.746011015791733345
0.787000000000000588,0.743626636164267163
0.788000000000000589,0.741227347516301815
0.789000000000000590,0.738813527756635446
0.790000000000000591,0.736385551190233967
0.791000000000000592,0.733943788514296314
0.792000000000000592,0.731488606815296927
0.793000000000000593,0.729020369567049853
0.794000000000000594,0.726539436629662250
0.795000000000000595,0.724046164249439572
0.796000000000000596,0.721540905059704807
0.797000000000000597,0.719024008082449706
0.798000000000000598,0.716495818730839562
0.799000000000000599,0.713956678812583734
0.800000000000000600,0.711406926534019268
0.801000000000000600,0.708846896505057500
0.802000000000000601,0.706276919744836862
0.803000000000000602,0.703697323688111664
0.804000000000000603,0.701108432192355080
0.805000000000000604,0.698510565545520268
0.806000000000000605,0.695904040474551455
0.807000000000000606,0.693289170154435253
0.808000000000000607,0.690666264217937198
0.809000000000000608,0.688035628765951701
0.810000000000000608,0.685397566378375678
0.811000000000000609,0.682752376125681071
0.812000000000000610,0.680100353580833206
0.813000000000000611,0.677441790831968427
0.814000000000000612,0.674776976495414238
0.815000000000000613,0.672106195729276656
0.816000000000000614,0.669429730247503074
0.817000000000000615,0.666747858334413079
0.818000000000000616,0.664060854859641614
0.819000000000000616,0.661368991293552311
0.820000000000000617,0.658672535723055619
0.821000000000000618,0.655971752867798630
0.822000000000000619,0.653266904096774570
0.823000000000000620,0.650558247445285232
0.824000000000000621,0.647846037632285876
0.825000000000000622,0.645130526078013133
0.826000000000000623,0.642411960921993819
0.827000000000000624,0.639690587041363279
0.828000000000000624,0.636966646069456410
0.829000000000000625,0.634240376414724416
0.830000000000000626,0.631512013279892370
0.831000000000000627,0.628781788681409770
0.832000000000000628,0.626049931469133569
0.833000000000000629,0.623316667346264341
0.834000000000000630,0.620582218889511594
0.835000000000000631,0.617846805569467916
0.836000000000000631,0.615110643771205945
0.837000000000000632,0.612373946815036874
0.838000000000000633,0.609636924977507211
0.839000000000000634,0.606899785512546308
0.840000000000000635,0.604162732672746783
0.841000000000000636,0.601425967730870314
0.842000000000000637,0.598689689001445369
0.843000000000000638,0.595954091862521351
0.844000000000000639,0.593219368777560208
0.845000000000000639,0.590485709317429608
0.846000000000000640,0.587753300182546345
0.847000000000000641,0.585022325225042161
0.848000000000000642,0.582292965471139623
0.849000000000000643,0.579565399143521676
0.850000000000000644,0.576839801683808329
0.851000000000000645,0.574116345775126269
0.852000000000000646,0.571395201364729655
0.853000000000000647,0.568676535686660989
0.854000000000000647,0.565960513284500255
0.855000000000000648,0.563247296034125822
0.856000000000000649,0.560537043166520976
0.857000000000000650,0.557829911290620317
0.858000000000000651,0.555126054416176462
0.859000000000000652,0.552425623976657731
0.860000000000000653,0.549728768852100202
0.861000000000000654,0.547035635392079334
0.862000000000000655,0.544346367438561796
0.863000000000000655,0.541661106348837462
0.864000000000000656,0.538979991018391003
0.865000000000000657,0.536303157903822991
0.866000000000000658,0.533630741045661661
0.867000000000000659,0.530962872091216842
0.868000000000000660,0.528299680317399267
0.869000000000000661,0.525641292653495462
0.870000000000000662,0.522987833703890681
0.871000000000000663,0.520339425770749653
0.872000000000000663,0.517696188876717978
0.873000000000000664,0.515058240787459765
0.874000000000000665,0.512425697034253114
0.875000000000000666,0.509798670936425502
0.876000000000000667,0.507177273623829139
0.877000000000000668,0.504561614059172991
0.878000000000000669,0.501951799060308512
0.879000000000000670,0.499347933322470183
0.880000000000000671,0.496750119440398819
0.881000000000000671,0.494158457930436501
0.882000000000000672,0.491573047252469142
0.883000000000000673,0.488993983831868539
0.884000000000000674,0.486421362081277231
0.885000000000000675,0.483855274422346604
0.886000000000000676,0.481295811307369370
0.887000000000000677,0.478743061240811230
0.888000000000000678,0.476197110800753887
0.889000000000000679,0.473658044660233535
0.890000000000000679,0.471125945608481422
0.891000000000000680,0.468600894572057336
0.892000000000000681,0.466082970635877225
0.893000000000000682,0.463572251064138130
0.894000000000000683,0.461068811321132421
0.895000000000000684,0.458572725091935474
0.896000000000000685,0.456084064302995085
0.897000000000000686,0.453602899142610760
0.898000000000000687,0.451129298081281049
0.899000000000000687,0.448663327891941077
0.900000000000000688,0.446205053670069074
0.901000000000000689,0.443754538853700364
0.902000000000000690,0.441311845243276324
0.903000000000000691,0.438877033021416896
0.904000000000000692,0.436450160772519191
0.905000000000000693,0.434031285502283537
0.906000000000000694,0.431620462657046233
0.907000000000000695,0.429217746143057854
0.908000000000000695,0.426823188345576032
0.909000000000000696,0.424436840147859873
0.910000000000000697,0.422058750949999173
0.911000000000000698,0.419688968687666475
0.912000000000000699,0.417327539850677387
0.913000000000000700,0.414974509501454147
0.914000000000000701,0.412629921293360458
0.915000000000000702,0.410293817488858792
0.916000000000000703,0.407966238977588325
0.917000000000000703,0.405647225294269886
0.918000000000000704,0.403336814636473917
0.919000000000000705,0.401035043882290498
0.920000000000000706,0.398741948607811980
0.921000000000000707,0.396457563104515409
0.922000000000000708,0.394181920396495467
0.923000000000000709,0.391915052257543861
0.924000000000000710,0.389656989228125805
0.925000000000000711,0.387407760632195897
0.926000000000000711,0.385167394593861012
0.927000000000000712,0.382935918053946556
0.928000000000000713,0.380713356786397117
0.929000000000000714,0.378499735414515093
0.930000000000000715,0.376295077427123814
0.931000000000000716,0.374099405194546875
0.932000000000000717,0.371912739984448959
0.933000000000000718,0.369735101977556657
0.934000000000000719,0.367566510283235837
0.935000000000000719,0.365406982954915693
0.936000000000000720,0.363256537005414160
0.937000000000000721,0.361115188422077293
0.938000000000000722,0.358982952181805259
0.939000000000000723,0.356859842265954352
0.940000000000000724,0.354745871675080759
0.941000000000000725,0.352641052443553982
0.942000000000000726,0.350545395654024650
0.943000000000000727,0.348458911451794084
0.944000000000000727,0.346381609058996953
0.945000000000000728,0.344313496788679785
0.946000000000000729,0.342254582058752921
0.947000000000000730,0.340204871405763942
0.948000000000000731,0.338164370498604039
0.949000000000000732,0.336133084152013206
0.950000000000000733,0.334111016340007116
0.951000000000000734,0.332098170209122190
0.952000000000000735,0.330094548091575957
0.953000000000000735,0.328100151518273764
0.954000000000000736,0.326114981231671430
0.955000000000000737,0.324139037198541646
0.956000000000000738,0.322172318622570397
0.957000000000000739,0.320214823956867900
0.958000000000000740,0.318266550916297908
0.959000000000000741,0.316327496489747617
0.960000000000000742,0.314397656952199955
0.961000000000000743,0.312477027876722990
0.962000000000000743,0.310565604146331053
0.963000000000000744,0.308663379965699369
0.964000000000000745,0.306770348872762111
0.965000000000000746,0.304886503750212312
0.966000000000000747,0.303011836836827531
0.967000000000000748,0.301146339738732394
0.968000000000000749,0.299290003440478292
0.969000000000000750,0.297442818316061897
0.970000000000000751,0.295604774139760995
0.971000000000000751,0.293775860096915920
0.972000000000000752,0.291956064794547387
0.973000000000000753,0.290145376271849220
0.974000000000000754,0.288343782010609062
0.975000000000000755,0.286551268945473114
0.976000000000000756,0.284767823474105841
0.977000000000000757,0.282993431467243872
0.978000000000000758,0.281228078278620730
0.979000000000000759,0.279471748754776983
0.980000000000000759,0.277724427244783523
0.981000000000000760,0.275986097609819958
0.982000000000000761,0.274256743232649813
0.983000000000000762,0.272536347027010850
0.984000000000000763,0.270824891446861393
0.985000000000000764,0.269122358495530067
0.986000000000000765,0.267428729734765613
0.987000000000000766,0.265743986293668910
0.988000000000000766,0.264068108877523244
0.989000000000000767,0.262401077776522995
0.990000000000000768,0.260742872874363540
0.991000000000000769,0.259093473656794304
0.992000000000000770,0.257452859220015096
0.993000000000000771,0.255821008278955153
0.994000000000000772,0.254197899175529485
0.995000000000000773,0.252583509886695146
0.996000000000000774,0.250977818032488975
0.997000000000000774,0.249380800883916010
0.998000000000000775,0.247792435370755154
0.999000000000000776,0.246212698089282395
1.000000000000000666,0.244641565309861614
1.001000000000000778,0.243079012984472959
1.002000000000000668,0.241525016754133681
1.003000000000000780,0.239979551956206738
1.004000000000000670,0.238442593631661565
1.005000000000000782,0.236914116532180252
1.006000000000000671,0.235394095127221981
1.007000000000000783,0.233882503610978260
1.008000000000000673,0.232379315909225642
1.009000000000000785,0.230884505686112851
1.010000000000000675,0.229398046350839019
1.011000000000000787,0.227919911064249192
1.012000000000000677,0.226450072745352393
1.013000000000000789,0.224988504077725610
1.014000000000000679,0.223535177515888028
1.015000000000000790,0.222090065291508154
1.016000000000000680,0.220653139419604238
1.017000000000000792,0.219224371704603405
1.018000000000000682,0.217803733746381623
1.019000000000000794,0.216391196946142145
1.020000000000000684,0.214986732512267492
1.021000000000000796,0.213590311466093252
1.022000000000000686,0.212201904647568135
1.023000000000000798,0.210821482720858544
1.024000000000000687,0.209449016179876268
1.025000000000000799,0.208084475353717713
1.026000000000000689,0.206727830412019975
1.027000000000000801,0.205379051370280730
1.028000000000000691,0.204038108095045218
1.029000000000000803,0.202704970309066257
1.030000000000000693,0.201379607596374577
1.031000000000000805,0.200061989407249674
1.032000000000000695,0.198752085063176792
1.033000000000000806,0.197449863761678834
1.034000000000000696,0.196155294581098039
1.035000000000000808,0.194868346485313648
1.036000000000000698,0.193588988328390083
1.037000000000000810,0.192317188859123633
1.038000000000000700,0.191052916725577504
1.039000000000000812,0.189796140479514208
1.040000000000000702,0.188546828580746451
1.041000000000000814,0.187304949401470688
1.042000000000000703,0.186070471230493695
1.043000000000000815,0.184843362277411077
1.044000000000000705,0.183623590676711912
1.045000000000000817,0.182411124491856064
1.046000000000000707,0.181205931719230384
1.047000000000000819,0.180007980292091252
1.048000000000000709,0.178817238084414853
1.049000000000000821,0.177633672914726398
1.050000000000000711,0.176457252549825833
1.051000000000000822,0.175287944708473087
1.052000000000000712,0.174125717065028190
1.053000000000000824,0.172970537253003181
1.054000000000000714,0.171822372868592449
1.055000000000000826,0.170681191474114480
1.056000000000000716,0.169546960601419605
1.057000000000000828,0.168419647755226082
1.058000000000000718,0.167299220416424255
1.059000000000000830,0.166185646045300561
1.060000000000000719,0.165078892084726370
1.061000000000000831,0.163978925963272626
1.062000000000000721,0.162885715098323447
1.063000000000000833,0.161799226899052545
1.064000000000000723,0.160719428769441480
1.065000000000000835,0.159646288111178397
1.066000000000000725,0.158579772326538304
1.067000000000000837,0.157519848821226216
1.068000000000000727,0.156466485007117156
1.069000000000000838,0.155419648305022584
1.070000000000000728,0.154379306147345990
1.071000000000000840,0.153345425980729810
1.072000000000000730,0.152317975268632194
1.073000000000000842,0.151296921493873304
1.074000000000000732,0.150282232161152246
1.075000000000000844,0.149273874799459527
1.076000000000000734,0.148271816964507558
1.077000000000000846,0.147276026241095481
1.078000000000000735,0.146286470245418743
1.079000000000000847,0.145303116627366113
1.080000000000000737,0.144325933072720791
1.081000000000000849,0.143354887305382928
1.082000000000000739,0.142389947089522739
1.083000000000000851,0.141431080231671530
1.084000000000000741,0.140478254582804551
1.085000000000000853,0.139531438040381567
1.086000000000000743,0.138590598550333510
1.087000000000000854,0.137655704109000854
1.088000000000000744,0.136726722765074304
1.089000000000000856,0.135803622621458481
1.090000000000000746,0.134886371837126762
1.091000000000000858,0.133974938628901918
1.092000000000000748,0.133069291273250873
1.093000000000000860,0.132169398107988056
1.094000000000000750,0.131275227534013522
1.095000000000000862,0.130386748016926790
1.096000000000000751,0.129503928088681747
1.097000000000000863,0.128626736349191390
1.098000000000000753,0.127755141467854078
1.099000000000000865,0.126889112185104763
1.100000000000000755,0.126028617313903080
1.101000000000000867,0.125173625741193201
1.102000000000000757,0.124324106429335418
1.103000000000000869,0.123480028417498972
1.104000000000000759,0.122641360823043402
1.105000000000000870,0.121808072842831211
1.106000000000000760,0.120980133754569022
1.107000000000000872,0.120157512918043621
1.108000000000000762,0.119340179776405070
1.109000000000000874,0.118528103857352712
1.110000000000000764,0.117721254774353315
1.111000000000000876,0.116919602227795141
1.112000000000000766,0.116123116006102547
1.113000000000000878,0.115331765986861318
1.114000000000000767,0.114545522137891181
1.115000000000000879,0.113764354518303995
1.116000000000000769,0.112988233279515432
1.117000000000000881,0.112217128666259880
1.118000000000000771,0.111451011017557389
1.119000000000000883,0.110689850767657610
1.120000000000000773,0.109933618446974316
1.121000000000000885,0.109182284682969533
1.122000000000000774,0.108435820201053107
1.123000000000000886,0.107694195825411926
1.124000000000000776,0.106957382479834523
1.125000000000000888,0.106225351188540568
1.126000000000000778,0.105498073076946433
1.127000000000000890,0.104775519372405104
1.128000000000000780,0.104057661404984764
1.129000000000000892,0.103344470608149469
1.130000000000000782,0.102635918519458011
1.131000000000000894,0.101931976781258010
1.132000000000000783,0.101232617141307574
1.133000000000000895,0.100537811453415407
1.134000000000000785,0.099847531678064136
1.135000000000000897,0.099161749882974867
1.136000000000000787,0.098480438243704810
1.137000000000000899,0.097803569044170563
1.138000000000000789,0.097131114677203714
1.139000000000000901,0.096463047645041475
1.140000000000000790,0.095799340559835466
1.141000000000000902,0.095139966144122512
1.142000000000000792,0.094484897231279924
1.143000000000000904,0.093834106765976186
1.144000000000000794,0.093187567804560612
1.145000000000000906,0.092545253515517234
1.146000000000000796,0.091907137179806392
1.147000000000000908,0.091273192191262537
1.148000000000000798,0.090643392056944869
1.149000000000000909,0.090017710397460163
1.150000000000000799,0.089396120947315888
1.151000000000000689,0.088778597555194461
1.152000000000000801,0.088165114184266258
1.153000000000000913,0.087555644912446176
1.154000000000000803,0.086950163932674115
1.155000000000000693,0.086348645553159936
1.156000000000000805,0.085751064197590404
1.157000000000000917,0.085157394405386486
1.158000000000000806,0.084567610831867562
1.159000000000000696,0.083981688248464831
1.160000000000000808,0.083399601542896676
1.161000000000000920,0.082821325719323755
1.162000000000000810,0.082246835898496337
1.163000000000000700,0.081676107317893515
1.164000000000000812,0.081109115331861173
1.165000000000000924,0.080545835411708525
1.166000000000000814,0.079986243145797747
1.167000000000000703,0.079430314239664165
1.168000000000000815,0.078878024516052525
1.169000000000000927,0.078329349915010588
1.170000000000000817,0.077784266493932858
1.171000000000000707,0.077242750427593071
1.172000000000000819,0.076704778008174615
1.173000000000000931,0.076170325645303488
1.174000000000000821,0.075639369866047995
1.175000000000000711,0.075111887314914652
1.176000000000000822,0.074587854753830674
1.177000000000000934,0.074067249062137894
1.178000000000000824,0.073550047236537061
1.179000000000000714,0.073036226391075071
1.180000000000000826,0.072525763757057604
1.181000000000000938,0.072018636683025661
1.182000000000000828,0.071514822634652364
1.183000000000000718,0.071014299194672031
1.184000000000000830,0.070517044062803041
1.185000000000000941,0.070023035055644306
1.186000000000000831,0.069532250106561333
1.187000000000000721,0.069044667265581811
1.188000000000000833,0.068560264699266904
1.189000000000000945,0.068079020690582900
1.190000000000000835,0.067600913638757032
1.191000000000000725,0.067125922059144291
1.192000000000000837,0.066654024583050892
1.193000000000000949,0.066185199957598653
1.194000000000000838,0.065719427045532824
1.195000000000000728,0.065256684825062167
1.196000000000000840,0.064796952389666013
1.197000000000000952,0.064340208947901351
1.198000000000000842,0.063886433823219541
1.199000000000000732,0.063435606453739274
1.200000000000000844,0.062987706392069603
1.201000000000000956,0.062542713305059477
1.202000000000000846,0.062100606973585971
1.203000000000000735,0.061661367292341854
1.204000000000000847,0.061224974269583302
1.205000000000000959,0.060791408026878935
1.206000000000000849,0.060360648798887494
1.207000000000000739,0.059932676933095584
1.208000000000000851,0.059507472889547261
1.209000000000000963,0.059085017240607753
1.210000000000000853,0.058665290670658878
1.211000000000000743,0.058248273975865794
1.212000000000000854,0.057833948063858255
1.213000000000000966,0.057422293953489023
1.214000000000000856,0.057013292774496981
1.215000000000000746,0.056606925767258322
1.216000000000000858,0.056203174282465608
1.217000000000000970,0.055802019780826738
1.218000000000000860,0.055403443832766609
1.219000000000000750,0.055007428118114335
1.220000000000000862,0.054613954425773679
1.221000000000000973,0.054223004653430294
1.222000000000000863,0.053834560807203093
1.223000000000000753,0.053448605001336670
1.224000000000000865,0.053065119457861430
1.225000000000000977,0.052684086506255855
1.226000000000000867,0.052305488583116545
1.227000000000000757,0.051929308231816816
1.228000000000000869,0.051555528102157834
1.229000000000000981,0.051184130950012660
1.230000000000000870,0.050815099637003258
1.231000000000000760,0.050448417130114845
1.232000000000000872,0.050084066501341097
1.233000000000000984,0.049722030927358052
1.234000000000000874,0.049362293689118000
1.235000000000000764,0.049004838171507623
1.236000000000000876,0.048649647862974175
1.237000000000000988,0.048296706355156149
1.238000000000000878,0.047945997342498624
1.239000000000000767,0.047597504621898386
1.240000000000000879,0.047251212092305754
1.241000000000000991,0.046907103754348076
1.242000000000000881,0.046565163709953797
1.243000000000000771,0.046225376161964295
1.244000000000000883,0.045887725413736709
1.245000000000000995,0.045552195868769296
1.246000000000000885,0.045218772030296769
1.247000000000000774,0.044887438500913333
1.248000000000000886,0.044558179982158455
1.249000000000000998,0.044230981274136202
1.250000000000000888,0.043905827275106037
1.251000000000000778,0.043582702981088288
1.252000000000000890,0.043261593485459125
1.253000000000001002,0.042942483978556267
1.254000000000000892,0.042625359747254482
1.255000000000000782,0.042310206174584898
1.256000000000000894,0.041997008739314938
1.257000000000001005,0.041685753015534323
1.258000000000000895,0.041376424672259424
1.259000000000000785,0.041069009473006152
1.260000000000000897,0.040763493275399999
1.261000000000001009,0.040459862030734442
1.262000000000000899,0.040158101783588578
1.263000000000000789,0.039858198671385708
1.264000000000000901,0.039560138923996735
1.265000000000001013,0.039263908863315294
1.266000000000000902,0.038969494902834842
1.267000000000000792,0.038676883547248818
1.268000000000000904,0.038386061392012817
1.269000000000001016,0.038097015122940073
1.270000000000000906,0.037809731515768566
1.271000000000000796,0.037524197435754414
1.272000000000000908,0.037240399837245960
1.273000000000001020,0.036958325763258457
1.274000000000000909,0.036677962345054271
1.275000000000000799,0.036399296801733885
1.276000000000000911,0.036122316439790844
1.277000000000001023,0.035847008652708200
1.278000000000000913,0.035573360920538658
1.279000000000000803,0.035301360809457019
1.280000000000000915,0.035030995971362465
1.281000000000001027,0.034762254143451313
1.282000000000000917,0.034495123147785620
1.283000000000000806,0.034229590890877980
1.284000000000000918,0.033965645363258370
1.285000000000001030,0.033703274639070482
1.286000000000000920,0.033442466875633146
1.287000000000000810,0.033183210313020718
1.288000000000000922,0.032925493273643781
1.289000000000001034,0.032669304161825646
1.290000000000000924,0.032414631463386454
1.291000000000000814,0.032161463745206266
1.292000000000000925,0.031909789654829622
1.293000000000001037,0.031659597920009379
1.294000000000000927,0.031410877348312709
1.295000000000000817,0.031163616826710622
1.296000000000000929,0.030917805321115842
1.297000000000001041,0.030673431876004464
1.298000000000000931,0.030430485613982761
1.299000000000000821,0.030188955735357841
1.300000000000000933,0.029948831517745134
1.301000000000001044,0.029710102315627245
1.302000000000000934,0.029472757559952718
1.303000000000000824,0.029236786757702426
1.304000000000000936,0.029002179491503834
1.305000000000001048,0.028768925419188164
1.306000000000000938,0.028537014273390910
1.307000000000000828,0.028306435861133815
1.308000000000000940,0.028077180063416966
1.309000000000001052,0.027849236834797463
1.310000000000000941,0.027622596202999027
1.311000000000000831,0.027397248268470169
1.312000000000000943,0.027173183204009087
1.313000000000001055,0.026950391254327723
1.314000000000000945,0.026728862735667325
1.315000000000000835,0.026508588035375081
1.316000000000000947,0.026289557611500231
1.317000000000001059,0.026071761992398190
1.318000000000000949,0.025855191776330964
1.319000000000000838,0.025639837631033779
1.320000000000000950,0.025425690293353214
1.321000000000001062,0.025212740568822500
1.322000000000000952,0.025000979331261768
1.323000000000000842,0.024790397522398259
1.324000000000000954,0.024580986151444918
1.325000000000001066,0.024372736294719081
1.326000000000000956,0.024165639095241845
1.327000000000000846,0.023959685762342527
1.328000000000000957,0.023754867571267869
1.329000000000001069,0.023551175862792848
1.330000000000000959,0.023348602042821891
1.331000000000000849,0.023147137582000810
1.332000000000000961,0.022946774015341266
1.333000000000001073,0.022747502941818484
1.334000000000000963,0.022549316023984172
1.335000000000000853,0.022352204987590434
1.336000000000000965,0.022156161621206660
1.337000000000001076,0.021961177775824663
1.338000000000000966,0.021767245364491927
1.339000000000000856,0.021574356361925010
1.340000000000000968,0.021382502804124136
1.341000000000001080,0.021191676788012516
1.342000000000000970,0.021001870471045521
1.343000000000000860,0.020813076070834918
1.344000000000000972,0.020625285864792654
1.345000000000001084,0.020438492189740379
1.346000000000000973,0.020252687441542034
1.347000000000000863,0.020067864074741169
1.348000000000000975,0.019884014602191240
1.349000000000001087,0.019701131594688108
1.350000000000000977,0.019519207680591677
1.351000000000000867,0.019338235545479303
1.352000000000000979,0.019158207931787848
1.353000000000001091,0.018979117638422256
1.354000000000000981,0.018800957520427049
1.355000000000000870,0.018623720488610749
1.356000000000000982,0.018447399509196587
1.357000000000001094,0.018271987603460164
1.358000000000000984,0.018097477847377648
1.359000000000000874,0.017923863371277684
1.360000000000000986,0.017751137359489771
1.361000000000001098,0.017579293049977077
1.362000000000000988,0.017408323734011306
1.363000000000000878,0.017238222755816386
1.364000000000000989,0.017068983512213538
1.365000000000001101,0.016900599452295453
1.366000000000000991,0.016733064077069197
1.367000000000000881,0.016566370939115983
1.368000000000000993,0.016400513642259851
1.369000000000001105,0.016235485841219515
1.370000000000000995,0.016071281241277470
1.371000000000000885,0.015907893597945550
1.372000000000000997,0.015745316716626948
1.373000000000001108,0.015583544452283327
1.374000000000000998,0.015422570709108584
1.375000000000000888,0.015262389440197885
1.376000000000001000,0.015102994647206765
1.377000000000001112,0.014944380380057335
1.378000000000001002,0.014786540736572340
1.379000000000000892,0.014629469862183039
1.380000000000001004,0.014473161949593999
1.381000000000001116,0.014317611238458820
1.382000000000001005,0.014162812015069848
1.383000000000000895,0.014008758612040340
1.384000000000001007,0.013855445407982794
1.385000000000001119,0.013702866827198124
1.386000000000001009,0.013551017339356588
1.387000000000000899,0.013399891459204932
1.388000000000001011,0.013249483746223973
1.389000000000001123,0.013099788804353285
1.390000000000001013,0.012950801281668669
1.391000000000000902,0.012802515870068093
1.392000000000001014,0.012654927304992842
1.393000000000001126,0.012508030365098580
1.394000000000001016,0.012361819871966474
1.395000000000000906,0.012216290689807178
1.396000000000001018,0.012071437725158007
1.397000000000001130,0.011927255926585620
1.398000000000001020,0.011783740284393881
1.399000000000000909,0.011640885830326299
1.400000000000001021,0.011498687637282720
1.401000000000001133,0.011357140819015859
1.402000000000001023,0.011216240529856949
1.403000000000000913,0.011075981964420788
1.404000000000001025,0.010936360357309483
1.405000000000001137,0.010797370982855234
1.406000000000001027,0.010659009154808866
1.407000000000000917,0.010521270226070415
1.408000000000001029,0.010384149588415575
1.409000000000001140,0.010247642672207171
1.410000000000001030,0.010111744946120101
1.411000000000000920,0.009976451916873462
1.412000000000001032,0.009841759128942008
1.413000000000001144,0.009707662164296289
1.414000000000001034,0.009574156642131831
1.415000000000000924,0.009441238218591833
1.416000000000001036,0.009308902586492375
1.417000000000001148,0.009177145475078058
1.418000000000001037,0.009045962649742962
1.419000000000000927,0.008915349911765803
1.420000000000001039,0.008785303098047500
1.421000000000001151,0.008655818080855240
1.422000000000001041,0.008526890767566714
1.423000000000000931,0.008398517100397053
1.424000000000001043,0.008270693056153274
1.425000000000001155,0.008143414645984554
1.426000000000001044,0.008016677915111852
1.427000000000000934,0.007890478942594455
1.428000000000001046,0.007764813841063948
1.429000000000001158,0.007639678756488186
1.430000000000001048,0.007515069867902900
1.431000000000000938,0.007390983387198744
1.432000000000001050,0.007267415558841360
1.433000000000001162,0.007144362659644793
1.434000000000001052,0.007021820998532984
1.435000000000000941,0.006899786916285672
1.436000000000001053,0.006778256785316618
1.437000000000001165,0.006657227009417154
1.438000000000001055,0.006536694023529887
1.439000000000000945,0.006416654293514758
1.440000000000001057,0.006297104315907176
1.441000000000001169,0.006178040617694246
1.442000000000001059,0.006059459756077652
1.443000000000000949,0.005941358318248683
1.444000000000001060,0.005823732921154987
1.445000000000001172,0.005706580211280297
1.446000000000001062,0.005589896864408478
1.447000000000000952,0.005473679585408727
1.448000000000001064,0.005357925108009331
1.449000000000001176,0.005242630194574776
1.450000000000001066,0.005127791635888716
1.451000000000000956,0.005013406250933478
1.452000000000001068,0.004899470886671038
1.453000000000001180,0.004785982417827189
1.454000000000001069,0.004672937746684389
1.455000000000000959,0.004560333802853318
1.456000000000001071,0.004448167543068123
1.457000000000001183,0.004336435950984897
1.458000000000001073,0.004225136036954457
1.459000000000000963,0.004114264837828641
1.460000000000001075,0.004003819416746418
1.461000000000001187,0.003893796862927354
1.462000000000001076,0.003784194291469424
1.463000000000000966,0.003675008843148896
1.464000000000001078,0.003566237684207977
1.465000000000001190,0.003457878006173701
1.466000000000001080,0.003349927025626679
1.467000000000000970,0.003242381984041987
1.468000000000001082,0.003135240147559566
1.469000000000001194,0.003028498806813711
1.470000000000001084,0.002922155276715241
1.471000000000000973,0.002816206896276129
1.472000000000001085,0.002710651028406415
1.473000000000001197,0.002605485059740244
1.474000000000001087,0.002500706400418878
1.475000000000000977,0.002396312483931618
1.476000000000001089,0.002292300766911969
1.477000000000001201,0.002188668728949668
1.478000000000001091,0.002085413872419084
1.479000000000000981,0.001982533722291212
1.480000000000001092,0.001880025825938444
1.481000000000001204,0.001777887752976070
1.482000000000001094,0.001676117095062429
1.483000000000000984,0.001574711465726529
1.484000000000001096,0.001473668500207115
1.485000000000001208,0.001372985855247859
1.486000000000001098,0.001272661208939729
1.487000000000000988,0.001172692260547357
1.488000000000001100,0.001073076730330546
1.489000000000001211,0.000973812359371767
1.490000000000001101,0.000874896909413040
1.491000000000000991,0.000776328162676424
1.492000000000001103,0.000678103921711292
1.493000000000001215,0.000580222009202865
1.494000000000001105,0.000482680267834516
1.495000000000000995,0.000385476560101839
1.496000000000001107,0.000288608768157549
1.497000000000001219,0.000192074793644603
1.498000000000001108,0.000095872557543912
1.499000000000000998,0.000000000000000000
