# grapheneoxide_CS-61465-AC
# h[nm],U(h)[kJ/mol]
0.149999999999999994,110.709789243024786742
0.150999999999999995,108.312865336108416159
0.151999999999999996,106.622054201763290848
0.152999999999999997,105.080330987757022854
0.153999999999999998,103.483509422439141190
0.154999999999999999,101.794861179568044918
0.156000000000000000,100.044027843094625041
0.157000000000000001,98.275979165523395409
0.158000000000000002,96.528512298047843387
0.159000000000000002,94.825103198202100430
0.160000000000000003,93.175269260920259740
0.161000000000000004,91.577977905568928918
0.162000000000000005,90.025716889514740160
0.163000000000000006,88.508085450134785788
0.164000000000000007,87.014476297787979320
0.165000000000000008,85.535798689539419115
0.166000000000000009,84.065373755702140102
0.167000000000000010,82.599199157469428201
0.168000000000000010,81.135783843421577899
0.169000000000000011,79.675727334451252659
0.170000000000000012,78.221180449455118833
0.171000000000000013,76.775286080172946868
0.172000000000000014,75.341664702245864760
0.173000000000000015,73.923981828667223226
0.174000000000000016,72.525613871235620422
0.175000000000000017,71.149414265641524935
0.176000000000000018,69.797572231905874673
0.177000000000000018,68.471551083452240505
0.178000000000000019,67.172090529691416805
0.179000000000000020,65.899257044538444461
0.180000000000000021,64.652527369601159535
0.181000000000000022,63.430892022707723754
0.182000000000000023,62.232967873426034089
0.183000000000000024,61.057111133939905301
0.184000000000000025,59.901524301622451674
0.185000000000000026,58.764352560592612917
0.186000000000000026,57.643766841638637288
0.187000000000000027,56.538032131460624896
0.188000000000000028,55.445560718664978594
0.189000000000000029,54.364950887876695163
0.190000000000000030,53.295012156876701681
0.191000000000000031,52.234778531225870779
0.192000000000000032,51.183511463348956738
0.193000000000000033,50.140694283584032576
0.194000000000000034,49.106019851007616239
0.195000000000000034,48.079373079595441709
0.196000000000000035,47.060809853846727435
0.197000000000000036,46.050533676524672444
0.198000000000000037,45.048871204858770056
0.199000000000000038,44.056247642107720708
0.200000000000000039,43.073162767443307075
0.201000000000000040,42.100168214759719376
0.202000000000000041,41.137846454206517421
0.203000000000000042,40.186791791266941232
0.204000000000000042,39.247593578016264360
0.205000000000000043,38.320821729775914832
0.206000000000000044,37.407014556979333975
0.207000000000000045,36.506668855452424793
0.208000000000000046,35.620232146936004369
0.209000000000000047,34.748096923823844406
0.210000000000000048,33.890596725983996862
0.211000000000000049,33.048003861422891703
0.212000000000000050,32.220528574765403107
0.213000000000000050,31.408319466514704743
0.214000000000000051,30.611464970408455599
0.215000000000000052,29.829995704655818400
0.216000000000000053,29.063887524326140976
0.217000000000000054,28.313065115730779553
0.218000000000000055,27.577405988502988521
0.219000000000000056,26.856744736590030698
0.220000000000000057,26.150877454993565863
0.221000000000000058,25.459566214424175001
0.222000000000000058,24.782543510744400095
0.223000000000000059,24.119516619940032598
0.224000000000000060,23.470171802212448142
0.225000000000000061,22.834178310527853739
0.226000000000000062,22.211192169538541918
0.227000000000000063,21.600859700194085633
0.228000000000000064,21.002820773605368032
0.229000000000000065,20.416711784851763412
0.230000000000000066,19.842168343493945315
0.231000000000000066,19.278827682639963825
0.232000000000000067,18.726330792593309127
0.233000000000000068,18.184324288469184694
0.234000000000000069,17.652462023787048651
0.235000000000000070,17.130406464015287327
0.236000000000000071,16.617829835441661146
0.237000000000000072,16.114415065645225411
0.238000000000000073,15.619856532327606402
0.239000000000000073,15.133860637388920622
0.240000000000000074,14.656146222967317172
0.241000000000000075,14.186444845758240163
0.242000000000000076,13.724500925337954627
0.243000000000000077,13.270071781479259698
0.244000000000000078,12.822927574605476053
0.245000000000000079,12.382851162612290352
0.246000000000000080,11.949637886327201031
0.247000000000000081,11.523095294892868878
0.248000000000000081,11.103042821377998806
0.249000000000000082,10.689311417949857841
0.250000000000000111,10.281743159001042187
0.251000000000000112,9.880190819719681272
0.252000000000000113,9.484517436732794238
0.253000000000000114,9.094595856646098042
0.254000000000000115,8.710308277548941547
0.255000000000000115,8.331545787856892815
0.256000000000000116,7.958207906224478378
0.257000000000000117,7.590202125677526723
0.258000000000000118,7.227443464588257704
0.259000000000000119,6.869854026642454592
0.260000000000000120,6.517362571526740922
0.261000000000000121,6.169904097691309097
0.262000000000000122,5.827419438216143277
0.263000000000000123,5.489854870524608188
0.264000000000000123,5.157161740442724351
0.265000000000000124,4.829296100893353483
0.266000000000000125,4.506218365337812948
0.267000000000000126,4.187892975930400219
0.268000000000000127,3.874288086230202932
0.269000000000000128,3.565375258217755139
0.270000000000000129,3.261129173287331984
0.271000000000000130,2.961527356826972213
0.272000000000000131,2.666549915956095251
0.273000000000000131,2.376179289960858032
0.274000000000000132,2.090400012950092812
0.275000000000000133,1.809198488246288594
0.276000000000000134,1.532562774025957086
0.277000000000000135,1.260482379730639924
0.278000000000000136,0.992948072780755253
0.279000000000000137,0.729951695140501955
0.280000000000000138,0.471485989300886033
0.281000000000000139,0.217544433268230447
0.282000000000000139,-0.031878915831785815
0.283000000000000140,-0.276789569901924326
0.284000000000000141,-0.517192750117068556
0.285000000000000142,-0.753093519585101179
0.286000000000000143,-0.984496908724023512
0.287000000000000144,-1.211408033632797032
0.288000000000000145,-1.433832207713704232
0.289000000000000146,-1.651775046784280665
0.290000000000000147,-1.865242567900218473
0.291000000000000147,-2.074241282093788996
0.292000000000000148,-2.278778281218536428
0.293000000000000149,-2.478861319077243941
0.294000000000000150,-2.674498886999210345
0.295000000000000151,-2.865700284022423716
0.296000000000000152,-3.052475681827744314
0.297000000000000153,-3.234836184564529926
0.298000000000000154,-3.412793883701324749
0.299000000000000155,-3.586361908029842116
0.300000000000000155,-3.755554468946743718
0.301000000000000156,-3.920386901134363278
0.302000000000000157,-4.080875698759685477
0.303000000000000158,-4.237038547308964453
0.304000000000000159,-4.388894351174903008
0.305000000000000160,-4.536463257112702152
0.306000000000000161,-4.679766673681701405
0.307000000000000162,-4.818827286789749920
0.308000000000000163,-4.953669071458254081
0.309000000000000163,-5.084317299926956579
0.310000000000000164,-5.210798546218756044
0.311000000000000165,-5.333140687285995440
0.312000000000000166,-5.451372900861217730
0.313000000000000167,-5.565525660136520614
0.314000000000000168,-5.675630725396930920
0.315000000000000169,-5.781721132734406687
0.316000000000000170,-5.883831179970147929
0.317000000000000171,-5.981996409913557855
0.318000000000000171,-6.076253591086990369
0.319000000000000172,-6.166640696045996961
0.320000000000000173,-6.253196877424684885
0.321000000000000174,-6.335962441836088033
0.322000000000000175,-6.414978821757093108
0.323000000000000176,-6.490288545526934350
0.324000000000000177,-6.561935205587635878
0.325000000000000178,-6.629963425093552409
0.326000000000000179,-6.694418823016309084
0.327000000000000179,-6.755347977869528897
0.328000000000000180,-6.812798390176274310
0.329000000000000181,-6.866818443800288385
0.330000000000000182,-6.917457366259540663
0.331000000000000183,-6.964765188138850149
0.332000000000000184,-7.008792701715234053
0.333000000000000185,-7.049591418907304785
0.334000000000000186,-7.087213528656983286
0.335000000000000187,-7.121711853848793794
0.336000000000000187,-7.153139807869001388
0.337000000000000188,-7.181551350903175646
0.338000000000000189,-7.207000946067910085
0.339000000000000190,-7.229543515468587422
0.340000000000000191,-7.249234396271506675
0.341000000000000192,-7.266129296875400989
0.342000000000000193,-7.280284253263306304
0.343000000000000194,-7.291755585612439639
0.344000000000000195,-7.300599855235513580
0.345000000000000195,-7.306873821923827172
0.346000000000000196,-7.310634401758099088
0.347000000000000197,-7.311938625449688978
0.348000000000000198,-7.310843597271025729
0.349000000000000199,-7.307406454630291925
0.350000000000000200,-7.301684328341986330
0.351000000000000201,-7.293734303641133287
0.352000000000000202,-7.283613381985583501
0.353000000000000203,-7.271378443687271265
0.354000000000000203,-7.257086211409985665
0.355000000000000204,-7.240793214567641023
0.356000000000000205,-7.222555754654109705
0.357000000000000206,-7.202429871532378236
0.358000000000000207,-7.180471310707477350
0.359000000000000208,-7.156735491605101807
0.360000000000000209,-7.131277476874570809
0.361000000000000210,-7.104151942732181979
0.362000000000000210,-7.075413150358211389
0.363000000000000211,-7.045114918358322598
0.364000000000000212,-7.013310596297634092
0.365000000000000213,-6.980053039313199648
0.366000000000000214,-6.945394583808588429
0.367000000000000215,-6.909387024231857133
0.368000000000000216,-6.872081590936344853
0.369000000000000217,-6.833528929121557738
0.370000000000000218,-6.793779078849732755
0.371000000000000218,-6.752881456131764715
0.372000000000000219,-6.710884835074573118
0.373000000000000220,-6.667837331080508356
0.374000000000000221,-6.623786385087813144
0.375000000000000222,-6.578778748839748225
0.376000000000000223,-6.532860471168992156
0.377000000000000224,-6.486076885282391125
0.378000000000000225,-6.438472597030290956
0.379000000000000226,-6.390091474143516415
0.380000000000000226,-6.340976636420373680
0.381000000000000227,-6.291170446844800423
0.382000000000000228,-6.240714503616549891
0.383000000000000229,-6.189649633073178059
0.384000000000000230,-6.138015883483130430
0.385000000000000231,-6.085852519688877749
0.386000000000000232,-6.033198018578182165
0.387000000000000233,-5.980090065361615359
0.388000000000000234,-5.926565550633649870
0.389000000000000234,-5.872660568194797648
0.390000000000000235,-5.818410413611696086
0.391000000000000236,-5.763849583492067552
0.392000000000000237,-5.709011775451235948
0.393000000000000238,-5.653929888746970001
0.394000000000000239,-5.598636025559121876
0.395000000000000240,-5.543161492890886777
0.396000000000000241,-5.487536805068305767
0.397000000000000242,-5.431791686814757547
0.398000000000000242,-5.375955076877543704
0.399000000000000243,-5.320055132183512114
0.400000000000000244,-5.264119232501047740
0.401000000000000245,-5.208173985586091348
0.402000000000000246,-5.152245232789774754
0.403000000000000247,-5.096358055105864260
0.404000000000000248,-5.040536779636359377
0.405000000000000249,-4.984804986453944764
0.406000000000000250,-4.929185515840268650
0.407000000000000250,-4.873700475879570782
0.408000000000000251,-4.818371250387338378
0.409000000000000252,-4.763218507154216574
0.410000000000000253,-4.708262206485755996
0.411000000000000254,-4.653521610018986898
0.412000000000000255,-4.599015289797252493
0.413000000000000256,-4.544761137585204835
0.414000000000000257,-4.490776374406195259
0.415000000000000258,-4.437077560284932609
0.416000000000000258,-4.383680604178533891
0.417000000000000259,-4.330600774079702120
0.418000000000000260,-4.277852707276163180
0.419000000000000261,-4.225450420750948233
0.420000000000000262,-4.173407321708610951
0.421000000000000263,-4.121736218212933345
0.422000000000000264,-4.070449329922093185
0.423000000000000265,-4.019558298907712768
0.424000000000000266,-3.969074200544873143
0.425000000000000266,-3.919007554460263609
0.426000000000000267,-3.869368335526465863
0.427000000000000268,-3.820165984890587563
0.428000000000000269,-3.771409421025941899
0.429000000000000270,-3.723107050796075956
0.430000000000000271,-3.675266780520556331
0.431000000000000272,-3.627896027032721626
0.432000000000000273,-3.581001728719733990
0.433000000000000274,-3.534590356535879607
0.434000000000000274,-3.488667924980296764
0.435000000000000275,-3.443240003030912710
0.436000000000000276,-3.398311725026577967
0.437000000000000277,-3.353887801489860543
0.438000000000000278,-3.309972529883343562
0.439000000000000279,-3.266569805292631745
0.440000000000000280,-3.223683131029559945
0.441000000000000281,-3.181315629149561897
0.442000000000000282,-3.139470050877458451
0.443000000000000282,-3.098148786936150145
0.444000000000000283,-3.057353877773255846
0.445000000000000284,-3.017087023680816937
0.446000000000000285,-2.977349594803568866
0.447000000000000286,-2.938142641031780133
0.448000000000000287,-2.899466901774537586
0.449000000000000288,-2.861322815610087389
0.450000000000000289,-2.823710529809752678
0.451000000000000290,-2.786629909732433408
0.452000000000000290,-2.750080548086892840
0.453000000000000291,-2.714061774059188359
0.454000000000000292,-2.678572662303030594
0.455000000000000293,-2.643612041790850409
0.456000000000000294,-2.609178504523820941
0.457000000000000295,-2.575270414099100069
0.458000000000000296,-2.541885914132855362
0.459000000000000297,-2.509022936537831150
0.460000000000000298,-2.476679209654379044
0.461000000000000298,-2.444852266234075699
0.462000000000000299,-2.413539451275234171
0.463000000000000300,-2.382737929709712432
0.464000000000000301,-2.352444693940738851
0.465000000000000302,-2.322656571231453970
0.466000000000000303,-2.293370230944105082
0.467000000000000304,-2.264582191629981534
0.468000000000000305,-2.236288827970282167
0.469000000000000306,-2.208486377568202208
0.470000000000000306,-2.181170947592784071
0.471000000000000307,-2.154338521274950402
0.472000000000000308,-2.127984964256535161
0.473000000000000309,-2.102106030792989966
0.474000000000000310,-2.076697369810693417
0.475000000000000311,-2.051754530819777766
0.476000000000000312,-2.027272969683634685
0.477000000000000313,-2.003248054246081544
0.478000000000000314,-1.979675069817524058
0.479000000000000314,-1.956549224521388464
0.480000000000000315,-1.933865654502091802
0.481000000000000316,-1.911619428996103043
0.482000000000000317,-1.889805555267447090
0.483000000000000318,-1.868418983409273482
0.484000000000000319,-1.847454611013015224
0.485000000000000320,-1.826907287706832417
0.486000000000000321,-1.806771819564937598
0.487000000000000322,-1.787042973389606715
0.488000000000000322,-1.767715480867512401
0.489000000000000323,-1.748784042602299582
0.490000000000000324,-1.730243332025110048
0.491000000000000325,-1.712087999184947806
0.492000000000000326,-1.694312674420712650
0.493000000000000327,-1.676911971916836830
0.494000000000000328,-1.659880493144385127
0.495000000000000329,-1.643212830189550999
0.496000000000000330,-1.626903568971470593
0.497000000000000330,-1.610947292351327942
0.498000000000000331,-1.595338583134626731
0.499000000000000332,-1.580072026968685872
0.500000000000000333,-1.565142215137237169
0.501000000000000334,-1.550543747254093052
0.502000000000000335,-1.536271233857898100
0.503000000000000336,-1.522319298909861729
0.504000000000000337,-1.508682582196464228
0.505000000000000338,-1.495355741639060820
0.506000000000000338,-1.482333455512362841
0.507000000000000339,-1.469610424573671192
0.508000000000000340,-1.457181374104839611
0.509000000000000341,-1.445041055868879543
0.510000000000000342,-1.433184249983054492
0.511000000000000343,-1.421605766710425156
0.512000000000000344,-1.410300448171649235
0.513000000000000345,-1.399263169978945509
0.514000000000000346,-1.388488842794058487
0.515000000000000346,-1.377972413811998420
0.516000000000000347,-1.367708868172421877
0.517000000000000348,-1.357693230300435205
0.518000000000000349,-1.347920565178522434
0.519000000000000350,-1.338385979551439009
0.520000000000000351,-1.329084623065721837
0.521000000000000352,-1.320011689345572670
0.522000000000000353,-1.311162417006762171
0.523000000000000353,-1.302532090610218463
0.524000000000000354,-1.294116041556975460
0.525000000000000355,-1.285909648926049975
0.526000000000000356,-1.277908340256841413
0.527000000000000357,-1.270107592277679220
0.528000000000000358,-1.262502931581956700
0.529000000000000359,-1.255089935253492550
0.530000000000000360,-1.247864231442497029
0.531000000000000361,-1.240821499893702828
0.532000000000000361,-1.233957472428036883
0.533000000000000362,-1.227267933379320164
0.534000000000000363,-1.220748719987311048
0.535000000000000364,-1.214395722748534023
0.536000000000000365,-1.208204885726187339
0.537000000000000366,-1.202172206820480982
0.538000000000000367,-1.196293738000661078
0.539000000000000368,-1.190565585500052759
0.540000000000000369,-1.184983909975278804
0.541000000000000369,-1.179544926630966106
0.542000000000000370,-1.174244905311048859
0.543000000000000371,-1.169080170557899256
0.544000000000000372,-1.164047101640406368
0.545000000000000373,-1.159142132552125837
0.546000000000000374,-1.154361751980590212
0.547000000000000375,-1.149702503248863472
0.548000000000000376,-1.145160984230396917
0.549000000000000377,-1.140733847238190268
0.550000000000000377,-1.136417798889263198
0.551000000000000378,-1.132209599945438905
0.552000000000000379,-1.128106065131369684
0.553000000000000380,-1.124104062930757264
0.554000000000000381,-1.120200515361652327
0.555000000000000382,-1.116392397731773345
0.556000000000000383,-1.112676738374634100
0.557000000000000384,-1.109050618367421803
0.558000000000000385,-1.105511171231352119
0.559000000000000385,-1.102055582615386609
0.560000000000000386,-1.098681089964042679
0.561000000000000387,-1.095384982170081845
0.562000000000000388,-1.092164599212809950
0.563000000000000389,-1.089017331782728748
0.564000000000000390,-1.085940620893209640
0.565000000000000391,-1.082931957479910334
0.566000000000000392,-1.079988881988570792
0.567000000000000393,-1.077108983951859056
0.568000000000000393,-1.074289901555870230
0.569000000000000394,-1.071529321196913020
0.570000000000000395,-1.068824977029166456
0.571000000000000396,-1.066174650503765253
0.572000000000000397,-1.063576169899926427
0.573000000000000398,-1.061027409848581460
0.574000000000000399,-1.058526290849119977
0.575000000000000400,-1.056070778779686137
0.576000000000000401,-1.053658884401561302
0.577000000000000401,-1.051288662858123724
0.578000000000000402,-1.048958213168803555
0.579000000000000403,-1.046665677718502607
0.580000000000000404,-1.044409241742952021
0.581000000000000405,-1.042187132810351802
0.582000000000000406,-1.039997620299777159
0.583000000000000407,-1.037839014876680732
0.584000000000000408,-1.035709667965911240
0.585000000000000409,-1.033607971222601396
0.586000000000000409,-1.031532356001269690
0.587000000000000410,-1.029481292823503757
0.588000000000000411,-1.027453290844513312
0.589000000000000412,-1.025446897318926798
0.590000000000000413,-1.023460697066070901
0.591000000000000414,-1.021493311935085080
0.592000000000000415,-1.019543400270130684
0.593000000000000416,-1.017609656375948246
0.594000000000000417,-1.015690809984065357
0.595000000000000417,-1.013785625719891392
0.596000000000000418,-1.011892902570901809
0.597000000000000419,-1.010011473356228873
0.598000000000000420,-1.008140204197781165
0.599000000000000421,-1.006277993993193398
0.600000000000000422,-1.004423773890755767
0.601000000000000423,-1.002576506766532649
0.602000000000000424,-1.000735186703867852
0.603000000000000425,-0.998898838475454021
0.604000000000000425,-0.997066517028112775
0.605000000000000426,-0.995237306970470526
0.606000000000000427,-0.993410322063711049
0.607000000000000428,-0.991584704715449128
0.608000000000000429,-0.989759625477041993
0.609000000000000430,-0.987934282544251419
0.610000000000000431,-0.986107901261598974
0.611000000000000432,-0.984279733630377462
0.612000000000000433,-0.982449057820489857
0.613000000000000433,-0.980615177686254169
0.614000000000000434,-0.978777422286212895
0.615000000000000435,-0.976935145407077599
0.616000000000000436,-0.975087725091883462
0.617000000000000437,-0.973234563172474365
0.618000000000000438,-0.971375084806334721
0.619000000000000439,-0.969508738017877514
0.620000000000000440,-0.967634993244274710
0.621000000000000441,-0.965753342885848687
0.622000000000000441,-0.963863300861116934
0.623000000000000442,-0.961964402166517907
0.624000000000000443,-0.960056202440894735
0.625000000000000444,-0.958138277534773097
0.626000000000000445,-0.956210223084438260
0.627000000000000446,-0.954271654090915744
0.628000000000000447,-0.952322204503832426
0.629000000000000448,-0.950361526810202029
0.630000000000000449,-0.948389291628177533
0.631000000000000449,-0.946405187305765727
0.632000000000000450,-0.944408919524543422
0.633000000000000451,-0.942400210908395208
0.634000000000000452,-0.940378800637243217
0.635000000000000453,-0.938344444065842831
0.636000000000000454,-0.936296912347584276
0.637000000000000455,-0.934235992063366161
0.638000000000000456,-0.932161484855480005
0.639000000000000457,-0.930073207066556051
0.640000000000000457,-0.927970989383551603
0.641000000000000458,-0.925854676486731920
0.642000000000000459,-0.923724126703722725
0.643000000000000460,-0.921579211668525522
0.644000000000000461,-0.919419815985563105
0.645000000000000462,-0.917245836898689992
0.646000000000000463,-0.915057183965164000
0.647000000000000464,-0.912853778734572407
0.648000000000000465,-0.910635554432685068
0.649000000000000465,-0.908402455650191287
0.650000000000000466,-0.906154438036341547
0.651000000000000467,-0.903891467997411602
0.652000000000000468,-0.901613522400023015
0.653000000000000469,-0.899320588279226008
0.654000000000000470,-0.897012662551385787
0.655000000000000471,-0.894689751731783445
0.656000000000000472,-0.892351871656919982
0.657000000000000473,-0.889999047211499472
0.658000000000000473,-0.887631312060047639
0.659000000000000474,-0.885248708383130078
0.660000000000000475,-0.882851286618139830
0.661000000000000476,-0.880439105204592898
0.662000000000000477,-0.878012230333948596
0.663000000000000478,-0.875570735703837477
0.664000000000000479,-0.873114702276757249
0.665000000000000480,-0.870644218043062801
0.666000000000000481,-0.868159377788373043
0.667000000000000481,-0.865660282865179931
0.668000000000000482,-0.863147040968788248
0.669000000000000483,-0.860619765917384427
0.670000000000000484,-0.858078577436318546
0.671000000000000485,-0.855523600946478502
0.672000000000000486,-0.852954967356732929
0.673000000000000487,-0.850372812860439864
0.674000000000000488,-0.847777278735889817
0.675000000000000488,-0.845168511150715007
0.676000000000000489,-0.842546660970212358
0.677000000000000490,-0.839911883569468998
0.678000000000000491,-0.837264338649336914
0.679000000000000492,-0.834604190056137840
0.680000000000000493,-0.831931605605086388
0.681000000000000494,-0.829246756907397242
0.682000000000000495,-0.826549819200981917
0.683000000000000496,-0.823840971184751192
0.684000000000000496,-0.821120394856427405
0.685000000000000497,-0.818388275353841399
0.686000000000000498,-0.815644800799682712
0.687000000000000499,-0.812890162149612072
0.688000000000000500,-0.810124553043741868
0.689000000000000501,-0.807348169661407433
0.690000000000000502,-0.804561210579196606
0.691000000000000503,-0.801763876632180406
0.692000000000000504,-0.798956370778302061
0.693000000000000504,-0.796138897965911307
0.694000000000000505,-0.793311665004319044
0.695000000000000506,-0.790474880437442295
0.696000000000000507,-0.787628754420378163
0.697000000000000508,-0.784773498598944297
0.698000000000000509,-0.781909325992109050
0.699000000000000510,-0.779036450877266029
0.700000000000000511,-0.776155088678314842
0.701000000000000512,-0.773265455856513961
0.702000000000000512,-0.770367769804039426
0.703000000000000513,-0.767462248740230946
0.704000000000000514,-0.764549111610468790
0.705000000000000515,-0.761628577987637612
0.706000000000000516,-0.758700867976143889
0.707000000000000517,-0.755766202118453689
0.708000000000000518,-0.752824801304058266
0.709000000000000519,-0.749876886680924892
0.710000000000000520,-0.746922679569273051
0.711000000000000520,-0.743962401377736726
0.712000000000000521,-0.740996273521818072
0.713000000000000522,-0.738024517344588737
0.714000000000000523,-0.735047354039662593
0.715000000000000524,-0.732065004576295086
0.716000000000000525,-0.729077689626694059
0.717000000000000526,-0.726085629495395901
0.718000000000000527,-0.723089044050730823
0.719000000000000528,-0.720088152658321823
0.720000000000000528,-0.717083174116607380
0.721000000000000529,-0.714074326594264286
0.722000000000000530,-0.711061827569641314
0.723000000000000531,-0.708045893772004442
0.724000000000000532,-0.705026741124693435
0.725000000000000533,-0.702004584690079758
0.726000000000000534,-0.698979638616299637
0.727000000000000535,-0.695952116085757355
0.728000000000000536,-0.692922229265338308
0.729000000000000536,-0.689890189258307585
0.730000000000000537,-0.686856206057872232
0.731000000000000538,-0.683820488502339785
0.732000000000000539,-0.680783244231895290
0.733000000000000540,-0.677744679646909765
0.734000000000000541,-0.674704999867790756
0.735000000000000542,-0.671664408696310389
0.736000000000000543,-0.668623108578424108
0.737000000000000544,-0.665581300568491185
0.738000000000000544,-0.662539184294933303
0.739000000000000545,-0.659496957927240279
0.740000000000000546,-0.656454818144339258
0.741000000000000547,-0.653412960104267304
0.742000000000000548,-0.650371577415177593
0.743000000000000549,-0.647330862107536986
0.744000000000000550,-0.644291004607617235
0.745000000000000551,-0.641252193712177343
0.746000000000000552,-0.638214616564322212
0.747000000000000552,-0.635178458630535792
0.748000000000000553,-0.632143903678814345
0.749000000000000554,-0.629111133757937591
0.750000000000000555,-0.626080329177805317
0.751000000000000556,-0.623051668490824495
0.752000000000000557,-0.620025328474358761
0.753000000000000558,-0.617001484114132248
0.754000000000000559,-0.613980308588680801
0.755000000000000560,-0.610961973254716573
0.756000000000000560,-0.607946647633470838
0.757000000000000561,-0.604934499397916658
0.758000000000000562,-0.601925694360909813
0.759000000000000563,-0.598920396464207805
0.760000000000000564,-0.595918767768329416
0.761000000000000565,-0.592920968443250151
0.762000000000000566,-0.589927156759906923
0.763000000000000567,-0.586937489082501762
0.764000000000000568,-0.583952119861560481
0.765000000000000568,-0.580971201627773604
0.766000000000000569,-0.577994884986531066
0.767000000000000570,-0.575023318613212764
0.768000000000000571,-0.572056649249123916
0.769000000000000572,-0.569095021698163395
0.770000000000000573,-0.566138578824108563
0.771000000000000574,-0.563187461548568136
0.772000000000000575,-0.560241808849543110
0.773000000000000576,-0.557301757760603311
0.774000000000000576,-0.554367443370652357
0.775000000000000577,-0.551438998824277049
0.776000000000000578,-0.548516555322628996
0.777000000000000579,-0.545600242124893109
0.778000000000000580,-0.542690186550230935
0.779000000000000581,-0.539786513980283322
0.780000000000000582,-0.536889347862134936
0.781000000000000583,-0.533998809711792033
0.782000000000000584,-0.531115019118104437
0.783000000000000584,-0.528238093747147142
0.784000000000000585,-0.525368149347060998
0.785000000000000586,-0.522505299753289854
0.786000000000000587,-0.519649656894262013
0.787000000000000588,-0.516801330797451053
0.788000000000000589,-0.513960429595823109
0.789000000000000590,-0.511127059534693062
0.790000000000000591,-0.508301324978895908
0.791000000000000592,-0.505483328420345712
0.792000000000000592,-0.502673170485918197
0.793000000000000593,-0.499870949945662502
0.794000000000000594,-0.497076763721332082
0.795000000000000595,-0.494290706895234688
0.796000000000000596,-0.491512872719335914
0.797000000000000597,-0.488743352624701033
0.798000000000000598,-0.485982236231168485
0.799000000000000599,-0.483229611357305466
0.800000000000000600,-0.480485564030620260
0.801000000000000600,-0.477750178498003997
0.802000000000000601,-0.475023537236417492
0.803000000000000602,-0.472305720963799580
0.804000000000000603,-0.469596808650194320
0.805000000000000604,-0.466896877529088150
0.806000000000000605,-0.464206003108918630
0.807000000000000606,-0.461524259184820373
0.808000000000000607,-0.458851717850506158
0.809000000000000608,-0.456188449510343208
0.810000000000000608,-0.453534522891609893
0.811000000000000609,-0.450890005056855725
0.812000000000000610,-0.448254961416485465
0.813000000000000611,-0.445629455741409775
0.814000000000000612,-0.443013550175891002
0.815000000000000613,-0.440407305250489045
0.816000000000000614,-0.437810779895117519
0.817000000000000615,-0.435224031452237425
0.818000000000000616,-0.432647115690151352
0.819000000000000616,-0.430080086816383822
0.820000000000000617,-0.427522997491168177
0.821000000000000618,-0.424975898841024047
0.822000000000000619,-0.422438840472417809
0.823000000000000620,-0.419911870485484617
0.824000000000000621,-0.417395035487827748
0.825000000000000622,-0.414888380608395502
0.826000000000000623,-0.412391949511405287
0.827000000000000624,-0.409905784410318219
0.828000000000000624,-0.407429926081876559
0.829000000000000625,-0.404964413880164575
0.830000000000000626,-0.402509285750732027
0.831000000000000627,-0.400064578244730185
0.832000000000000628,-0.397630326533104816
0.833000000000000629,-0.395206564420771955
0.834000000000000630,-0.392793324360854401
0.835000000000000631,-0.390390637468917334
0.836000000000000631,-0.387998533537208368
0.837000000000000632,-0.385617041048928855
0.838000000000000633,-0.383246187192477883
0.839000000000000634,-0.380885997875719140
0.840000000000000635,-0.378536497740247557
0.841000000000000636,-0.376197710175616318
0.842000000000000637,-0.373869657333601446
0.843000000000000638,-0.371552360142404225
0.844000000000000639,-0.369245838320868380
0.845000000000000639,-0.366950110392664286
0.846000000000000640,-0.364665193700439982
0.847000000000000641,-0.362391104419976962
0.848000000000000642,-0.360127857574271792
0.849000000000000643,-0.357875467047610418
0.850000000000000644,-0.355633945599625412
0.851000000000000645,-0.353403304879257141
0.852000000000000646,-0.351183555438739581
0.853000000000000647,-0.348974706747497698
0.854000000000000647,-0.346776767206011527
0.855000000000000648,-0.344589744159639888
0.856000000000000649,-0.342413643912382937
0.857000000000000650,-0.340248471740603797
0.858000000000000651,-0.338094231906674036
0.859000000000000652,-0.335950927672578781
0.860000000000000653,-0.333818561313473927
0.861000000000000654,-0.331697134131140436
0.862000000000000655,-0.329586646467431521
0.863000000000000655,-0.327487097717599762
0.864000000000000656,-0.325398486343608406
0.865000000000000657,-0.323320809887326199
0.866000000000000658,-0.321254064983695575
0.867000000000000659,-0.319198247373809918
0.868000000000000660,-0.317153351917907111
0.869000000000000661,-0.315119372608306747
0.870000000000000662,-0.313096302582267283
0.871000000000000663,-0.311084134134774426
0.872000000000000663,-0.309082858731220267
0.873000000000000664,-0.307092467020049775
0.874000000000000665,-0.305112948845281562
0.875000000000000666,-0.303144293258989783
0.876000000000000667,-0.301186488533662200
0.877000000000000668,-0.299239522174505279
0.878000000000000669,-0.297303380931660866
0.879000000000000670,-0.295378050812314608
0.880000000000000671,-0.293463517092753534
0.881000000000000671,-0.291559764330300064
0.882000000000000672,-0.289666776375196000
0.883000000000000673,-0.287784536382364731
0.884000000000000674,-0.285913026823108318
0.885000000000000675,-0.284052229496695063
0.886000000000000676,-0.282202125541880955
0.887000000000000677,-0.280362695448317267
0.888000000000000678,-0.278533919067873836
0.889000000000000679,-0.276715775625884841
0.890000000000000679,-0.274908243732280178
0.891000000000000680,-0.273111301392643169
0.892000000000000681,-0.271324926019162860
0.893000000000000682,-0.269549094441497550
0.894000000000000683,-0.267783782917540958
0.895000000000000684,-0.266028967144108341
0.896000000000000685,-0.264284622267510705
0.897000000000000686,-0.262550722894042576
0.898000000000000687,-0.260827243100380746
0.899000000000000687,-0.259114156443875698
0.900000000000000688,-0.257411435972762281
0.901000000000000689,-0.255719054236259846
0.902000000000000690,-0.254036983294601615
0.903000000000000691,-0.252365194728936426
0.904000000000000692,-0.250703659651166144
0.905000000000000693,-0.249052348713665384
0.906000000000000694,-0.247411232118927599
0.907000000000000695,-0.245780279629088050
0.908000000000000695,-0.244159460575388121
0.909000000000000696,-0.242548743867505440
0.910000000000000697,-0.240948098002826683
0.911000000000000698,-0.239357491075594148
0.912000000000000699,-0.237776890785981632
0.913000000000000700,-0.236206264449068726
0.914000000000000701,-0.234645579003700977
0.915000000000000702,-0.233094801021300396
0.916000000000000703,-0.231553896714536467
0.917000000000000703,-0.230022831945935369
0.918000000000000704,-0.228501572236380346
0.919000000000000705,-0.226990082773517676
0.920000000000000706,-0.225488328420092310
0.921000000000000707,-0.223996273722156580
0.922000000000000708,-0.222513882917215466
0.923000000000000709,-0.221041119942276598
0.924000000000000710,-0.219577948441786297
0.925000000000000711,-0.218124331775507219
0.926000000000000711,-0.216680233026281449
0.927000000000000712,-0.215245615007712304
0.928000000000000713,-0.213820440271758366
0.929000000000000714,-0.212404671116240479
0.930000000000000715,-0.210998269592245657
0.931000000000000716,-0.209601197511454590
0.932000000000000717,-0.208213416453387229
0.933000000000000718,-0.206834887772540277
0.934000000000000719,-0.205465572605460778
0.935000000000000719,-0.204105431877715848
0.936000000000000720,-0.202754426310782943
0.937000000000000721,-0.201412516428852356
0.938000000000000722,-0.200079662565555871
0.939000000000000723,-0.198755824870586684
0.940000000000000724,-0.197440963316259488
0.941000000000000725,-0.196135037703971948
0.942000000000000726,-0.194838007670594393
0.943000000000000727,-0.193549832694758228
0.944000000000000727,-0.192270472103086731
0.945000000000000728,-0.190999885076331699
0.946000000000000729,-0.189738030655412893
0.947000000000000730,-0.188484867747417267
0.948000000000000731,-0.187240355131470360
0.949000000000000732,-0.186004451464573700
0.950000000000000733,-0.184777115287321991
0.951000000000000734,-0.183558305029583868
0.952000000000000735,-0.182347979016064587
0.953000000000000735,-0.181146095471814428
0.954000000000000736,-0.179952612527659983
0.955000000000000737,-0.178767488225554050
0.956000000000000738,-0.177590680523851491
0.957000000000000739,-0.176422147302506216
0.958000000000000740,-0.175261846368206187
0.959000000000000741,-0.174109735459414910
0.960000000000000742,-0.172965772251365058
0.961000000000000743,-0.171829914360955710
0.962000000000000743,-0.170702119351589909
0.963000000000000744,-0.169582344737937707
0.964000000000000745,-0.168470547990638875
0.965000000000000746,-0.167366686540912302
0.966000000000000747,-0.166270717785120536
0.967000000000000748,-0.165182599089242543
0.968000000000000749,-0.164102287793307877
0.969000000000000750,-0.163029741215726609
0.970000000000000751,-0.161964916657587998
0.971000000000000751,-0.160907771406858580
0.972000000000000752,-0.159858262742536034
0.973000000000000753,-0.158816347938747160
0.974000000000000754,-0.157781984268743375
0.975000000000000755,-0.156755129008872257
0.976000000000000756,-0.155735739442460330
0.977000000000000757,-0.154723772863642667
0.978000000000000758,-0.153719186581124545
0.979000000000000759,-0.152721937921899975
0.980000000000000759,-0.151731984234868417
0.981000000000000760,-0.150749282894436204
0.982000000000000761,-0.149773791304037063
0.983000000000000762,-0.148805466899583960
0.984000000000000763,-0.147844267152876074
0.985000000000000764,-0.146890149574950335
0.986000000000000765,-0.145943071719360773
0.987000000000000766,-0.145002991185409297
0.988000000000000766,-0.144069865621318904
0.989000000000000767,-0.143143652727356352
0.990000000000000768,-0.142224310258894426
0.991000000000000769,-0.141311796029405468
0.992000000000000770,-0.140406067913424110
0.993000000000000771,-0.139507083849456454
0.994000000000000772,-0.138614801842800117
0.995000000000000773,-0.137729179968365645
0.996000000000000774,-0.136850176373396748
0.997000000000000774,-0.135977749280170701
0.998000000000000775,-0.135111856988635398
0.999000000000000776,-0.134252457878994563
1.000000000000000666,-0.133399510414248967
1.001000000000000778,-0.132552973142689573
1.002000000000000668,-0.131712804700329866
1.003000000000000780,-0.130878963813305271
1.004000000000000670,-0.130051409300212084
1.005000000000000782,-0.129230100074413323
1.006000000000000671,-0.128414995146287042
1.007000000000000783,-0.127606053625422045
1.008000000000000673,-0.126803234722792202
1.009000000000000785,-0.126006497752862712
1.010000000000000675,-0.125215802135661969
1.011000000000000787,-0.124431107398803517
1.012000000000000677,-0.123652373179479552
1.013000000000000789,-0.122879559226392820
1.014000000000000679,-0.122112625401648980
1.015000000000000790,-0.121351531682625399
1.016000000000000680,-0.120596238163778666
1.017000000000000792,-0.119846705058414840
1.018000000000000682,-0.119102892700425442
1.019000000000000794,-0.118364761545978789
1.020000000000000684,-0.117632272175177716
1.021000000000000796,-0.116905385293670006
1.022000000000000686,-0.116184061734221605
1.023000000000000798,-0.115468262458263429
1.024000000000000687,-0.114757948557381001
1.025000000000000799,-0.114053081254785665
1.026000000000000689,-0.113353621906740851
1.027000000000000801,-0.112659532003946489
1.028000000000000691,-0.111970773172902521
1.029000000000000803,-0.111287307177221642
1.030000000000000693,-0.110609095918915351
1.031000000000000805,-0.109936101439652739
1.032000000000000695,-0.109268285921960695
1.033000000000000806,-0.108605611690428261
1.034000000000000696,-0.107948041212840254
1.035000000000000808,-0.107295537101300381
1.036000000000000698,-0.106648062113315040
1.037000000000000810,-0.106005579152861990
1.038000000000000700,-0.105368051271387597
1.039000000000000812,-0.104735441668816071
1.040000000000000702,-0.104107713694508927
1.041000000000000814,-0.103484830848197290
1.042000000000000703,-0.102866756780871232
1.043000000000000815,-0.102253455295669843
1.044000000000000705,-0.101644890348717570
1.045000000000000817,-0.101041026049931967
1.046000000000000707,-0.100441826663825062
1.047000000000000819,-0.099847256610255883
1.048000000000000709,-0.099257280465161024
1.049000000000000821,-0.098671862961266510
1.050000000000000711,-0.098090968988756660
1.051000000000000822,-0.097514563595942613
1.052000000000000712,-0.096942611989877026
1.053000000000000824,-0.096375079536958036
1.054000000000000714,-0.095811931763513852
1.055000000000000826,-0.095253134356345526
1.056000000000000716,-0.094698653163264881
1.057000000000000828,-0.094148454193589928
1.058000000000000718,-0.093602503618631275
1.059000000000000830,-0.093060767772146238
1.060000000000000719,-0.092523213150780687
1.061000000000000831,-0.091989806414470882
1.062000000000000721,-0.091460514386839650
1.063000000000000833,-0.090935304055569322
1.064000000000000723,-0.090414142572737818
1.065000000000000835,-0.089896997255150463
1.066000000000000725,-0.089383835584650184
1.067000000000000837,-0.088874625208384295
1.068000000000000727,-0.088369333939094200
1.069000000000000838,-0.087867929755333238
1.070000000000000728,-0.087370380801711361
1.071000000000000840,-0.086876655389089175
1.072000000000000730,-0.086386721994770821
1.073000000000000842,-0.085900549262670683
1.074000000000000732,-0.085418106003453786
1.075000000000000844,-0.084939361194681873
1.076000000000000734,-0.084464283980919236
1.077000000000000846,-0.083992843673825757
1.078000000000000735,-0.083525009752244764
1.079000000000000847,-0.083060751862254562
1.080000000000000737,-0.082600039817227591
1.081000000000000849,-0.082142843597844836
1.082000000000000739,-0.081689133352118720
1.083000000000000851,-0.081238879395385016
1.084000000000000741,-0.080792052210293203
1.085000000000000853,-0.080348622446760859
1.086000000000000743,-0.079908560921933075
1.087000000000000854,-0.079471838620117641
1.088000000000000744,-0.079038426692712965
1.089000000000000856,-0.078608296458102342
1.090000000000000746,-0.078181419401559871
1.091000000000000858,-0.077757767175129333
1.092000000000000748,-0.077337311597486996
1.093000000000000860,-0.076920024653801475
1.094000000000000750,-0.076505878495565102
1.095000000000000862,-0.076094845440432157
1.096000000000000751,-0.075686897972032402
1.097000000000000863,-0.075282008739763151
1.098000000000000753,-0.074880150558597078
1.099000000000000865,-0.074481296408852538
1.100000000000000755,-0.074085419435959893
1.101000000000000867,-0.073692492950219637
1.102000000000000757,-0.073302490426551875
1.103000000000000869,-0.072915385504227687
1.104000000000000759,-0.072531151986584108
1.105000000000000870,-0.072149763840756206
1.106000000000000760,-0.071771195197356724
1.107000000000000872,-0.071395420350187797
1.108000000000000762,-0.071022413755914254
1.109000000000000874,-0.070652150033739106
1.110000000000000764,-0.070284603965063946
1.111000000000000876,-0.069919750493143903
1.112000000000000766,-0.069557564722737039
1.113000000000000878,-0.069198021919733760
1.114000000000000767,-0.068841097510791482
1.115000000000000879,-0.068486767082943059
1.116000000000000769,-0.068135006383217206
1.117000000000000881,-0.067785791318234284
1.118000000000000771,-0.067439097953801902
1.119000000000000883,-0.067094902514502675
1.120000000000000773,-0.066753181383273172
1.121000000000000885,-0.066413911100970502
1.122000000000000774,-0.066077068365939101
1.123000000000000886,-0.065742630033565924
1.124000000000000776,-0.065410573115837950
1.125000000000000888,-0.065080874780867132
1.126000000000000778,-0.064753512352441117
1.127000000000000890,-0.064428463309556733
1.128000000000000780,-0.064105705285922840
1.129000000000000892,-0.063785216069496109
1.130000000000000782,-0.063466973601985555
1.131000000000000894,-0.063150955978354545
1.132000000000000783,-0.062837141446323283
1.133000000000000895,-0.062525508405866653
1.134000000000000785,-0.062216035408686830
1.135000000000000897,-0.061908701157719660
1.136000000000000787,-0.061603484506588167
1.137000000000000899,-0.061300364459094814
1.138000000000000789,-0.060999320168671066
1.139000000000000901,-0.060700330937862736
1.140000000000000790,-0.060403376217767368
1.141000000000000902,-0.060108435607493425
1.142000000000000792,-0.059815488853619356
1.143000000000000904,-0.059524515849625238
1.144000000000000794,-0.059235496635348592
1.145000000000000906,-0.058948411396400793
1.146000000000000796,-0.058663240463623999
1.147000000000000908,-0.058379964312502489
1.148000000000000798,-0.058098563562596552
1.149000000000000909,-0.057819018976964107
1.150000000000000799,-0.057541311461573499
1.151000000000000689,-0.057265422064727289
1.152000000000000801,-0.056991331976470896
1.153000000000000913,-0.056719022528001296
1.154000000000000803,-0.056448475191074654
1.155000000000000693,-0.056179671577403258
1.156000000000000805,-0.055912593438070722
1.157000000000000917,-0.055647222662913352
1.158000000000000806,-0.055383541279926396
1.159000000000000696,-0.055121531454654427
1.160000000000000808,-0.054861175489576405
1.161000000000000920,-0.054602455823503829
1.162000000000000810,-0.054345355030960128
1.163000000000000700,-0.054089855821566300
1.164000000000000812,-0.053835941039424073
1.165000000000000924,-0.053583593662492643
1.166000000000000814,-0.053332796801973795
1.167000000000000703,-0.053083533701681174
1.168000000000000815,-0.052835787737423180
1.169000000000000927,-0.052589542416367194
1.170000000000000817,-0.052344781376423045
1.171000000000000707,-0.052101488385599956
1.172000000000000819,-0.051859647341393332
1.173000000000000931,-0.051619242270138886
1.174000000000000821,-0.051380257326382107
1.175000000000000711,-0.051142676792250749
1.176000000000000822,-0.050906485076818234
1.177000000000000934,-0.050671666715460993
1.178000000000000824,-0.050438206369232665
1.179000000000000714,-0.050206088824215248
1.180000000000000826,-0.049975298990894770
1.181000000000000938,-0.049745821903509069
1.182000000000000828,-0.049517642719417998
1.183000000000000718,-0.049290746718461710
1.184000000000000830,-0.049065119302321998
1.185000000000000941,-0.048840745993873391
1.186000000000000831,-0.048617612436558225
1.187000000000000721,-0.048395704393730074
1.188000000000000833,-0.048175007748025349
1.189000000000000945,-0.047955508500716025
1.190000000000000835,-0.047737192771072259
1.191000000000000725,-0.047520046795711868
1.192000000000000837,-0.047304056927980252
1.193000000000000949,-0.047089209637282900
1.194000000000000838,-0.046875491508470604
1.195000000000000728,-0.046662889241179187
1.196000000000000840,-0.046451389649201716
1.197000000000000952,-0.046240979659848788
1.198000000000000842,-0.046031646313300659
1.199000000000000732,-0.045823376761982712
1.200000000000000844,-0.045616158269909099
1.201000000000000956,-0.045409978212064918
1.202000000000000846,-0.045204824073755784
1.203000000000000735,-0.045000683449979609
1.204000000000000847,-0.044797544044780958
1.205000000000000959,-0.044595393670635398
1.206000000000000849,-0.044394220247795234
1.207000000000000739,-0.044194011803667450
1.208000000000000851,-0.043994756472181311
1.209000000000000963,-0.043796442493154751
1.210000000000000853,-0.043599058211667284
1.211000000000000743,-0.043402592077426715
1.212000000000000854,-0.043207032644146375
1.213000000000000966,-0.043012368568911170
1.214000000000000856,-0.042818588611564803
1.215000000000000746,-0.042625681634066930
1.216000000000000858,-0.042433636599888774
1.217000000000000970,-0.042242442573376934
1.218000000000000860,-0.042052088719138701
1.219000000000000750,-0.041862564301423301
1.220000000000000862,-0.041673858683503609
1.221000000000000973,-0.041485961327053886
1.222000000000000863,-0.041298861791545585
1.223000000000000753,-0.041112549733621086
1.224000000000000865,-0.040927014906490075
1.225000000000000977,-0.040742247159318533
1.226000000000000867,-0.040558236436613895
1.227000000000000757,-0.040374972777621865
1.228000000000000869,-0.040192446315714704
1.229000000000000981,-0.040010647277804665
1.230000000000000870,-0.039829565983710860
1.231000000000000760,-0.039649192845584866
1.232000000000000872,-0.039469518367305653
1.233000000000000984,-0.039290533143865901
1.234000000000000874,-0.039112227860800305
1.235000000000000764,-0.038934593293571469
1.236000000000000876,-0.038757620306990079
1.237000000000000988,-0.038581299854617036
1.238000000000000878,-0.038405622978182306
1.239000000000000767,-0.038230580806988587
1.240000000000000879,-0.038056164557335986
1.241000000000000991,-0.037882365531933387
1.242000000000000881,-0.037709175119317630
1.243000000000000771,-0.037536584793277830
1.244000000000000883,-0.037364586112273709
1.245000000000000995,-0.037193170718866284
1.246000000000000885,-0.037022330339141186
1.247000000000000774,-0.036852056782135705
1.248000000000000886,-0.036682341939273486
1.249000000000000998,-0.036513177783797222
1.250000000000000888,-0.036344556370203222
1.251000000000000778,-0.036176469833675950
1.252000000000000890,-0.036008910389533820
1.253000000000001002,-0.035841870332659093
1.254000000000000892,-0.035675342036959587
1.255000000000000782,-0.035509317954796109
1.256000000000000894,-0.035343790616438622
1.257000000000001005,-0.035178752629519042
1.258000000000000895,-0.035014196678479083
1.259000000000000785,-0.034850115524025074
1.260000000000000897,-0.034686502002584461
1.261000000000001009,-0.034523349025770547
1.262000000000000899,-0.034360649579831259
1.263000000000000789,-0.034198396725126132
1.264000000000000901,-0.034036583595583911
1.265000000000001013,-0.033875203398170656
1.266000000000000902,-0.033714249412363083
1.267000000000000792,-0.033553714989620433
1.268000000000000904,-0.033393593552854664
1.269000000000001016,-0.033233878595913466
1.270000000000000906,-0.033074563683057882
1.271000000000000796,-0.032915642448441612
1.272000000000000908,-0.032757108595594581
1.273000000000001020,-0.032598955896913744
1.274000000000000909,-0.032441178193148935
1.275000000000000799,-0.032283769392889017
1.276000000000000911,-0.032126723472067034
1.277000000000001023,-0.031970034473442557
1.278000000000000913,-0.031813696506106728
1.279000000000000803,-0.031657703744983640
1.280000000000000915,-0.031502050430332211
1.281000000000001027,-0.031346730867241421
1.282000000000000917,-0.031191739425155518
1.283000000000000806,-0.031037070537368074
1.284000000000000918,-0.030882718700544244
1.285000000000001030,-0.030728678474227351
1.286000000000000920,-0.030574944480364064
1.287000000000000810,-0.030421511402814395
1.288000000000000922,-0.030268373986884027
1.289000000000001034,-0.030115527038839168
1.290000000000000924,-0.029962965425433814
1.291000000000000814,-0.029810684073447689
1.292000000000000925,-0.029658677969203257
1.293000000000001037,-0.029506942158113579
1.294000000000000927,-0.029355471744209927
1.295000000000000817,-0.029204261889678229
1.296000000000000929,-0.029053307814408541
1.297000000000001041,-0.028902604795528447
1.298000000000000931,-0.028752148166956992
1.299000000000000821,-0.028601933318949595
1.300000000000000933,-0.028451955697643371
1.301000000000001044,-0.028302210804618318
1.302000000000000934,-0.028152694196444013
1.303000000000000824,-0.028003401484249919
1.304000000000000936,-0.027854328333265933
1.305000000000001048,-0.027705470462403143
1.306000000000000938,-0.027556823643811200
1.307000000000000828,-0.027408383702439858
1.308000000000000940,-0.027260146515615154
1.309000000000001052,-0.027112108012615228
1.310000000000000941,-0.026964264174233438
1.311000000000000831,-0.026816611032362592
1.312000000000000943,-0.026669144669566908
1.313000000000001055,-0.026521861218679277
1.314000000000000945,-0.026374756862363329
1.315000000000000835,-0.026227827832713248
1.316000000000000947,-0.026081070410839530
1.317000000000001059,-0.025934480926460574
1.318000000000000949,-0.025788055757488292
1.319000000000000838,-0.025641791329636964
1.320000000000000950,-0.025495684116010071
1.321000000000001062,-0.025349730636700846
1.322000000000000952,-0.025203927458403060
1.323000000000000842,-0.025058271194006037
1.324000000000000954,-0.024912758502209621
1.325000000000001066,-0.024767386087124189
1.326000000000000956,-0.024622150697896413
1.327000000000000846,-0.024477049128307039
1.328000000000000957,-0.024332078216402545
1.329000000000001069,-0.024187234844098467
1.330000000000000959,-0.024042515936815743
1.331000000000000849,-0.023897918463094324
1.332000000000000961,-0.023753439434217111
1.333000000000001073,-0.023609075903844073
1.334000000000000963,-0.023464824967641129
1.335000000000000853,-0.023320683762907364
1.336000000000000965,-0.023176649468216466
1.337000000000001076,-0.023032719303049221
1.338000000000000966,-0.022888890527431656
1.339000000000000856,-0.022745160441581074
1.340000000000000968,-0.022601526385545839
1.341000000000001080,-0.022457985738849998
1.342000000000000970,-0.022314535920146088
1.343000000000000860,-0.022171174386860049
1.344000000000000972,-0.022027898634846700
1.345000000000001084,-0.021884706198047825
1.346000000000000973,-0.021741594648138948
1.347000000000000863,-0.021598561594198103
1.348000000000000975,-0.021455604682359353
1.349000000000001087,-0.021312721595483277
1.350000000000000977,-0.021169910052818895
1.351000000000000867,-0.021027167809672405
1.352000000000000979,-0.020884492657068827
1.353000000000001091,-0.020741882421440139
1.354000000000000981,-0.020599334964289163
1.355000000000000870,-0.020456848181861602
1.356000000000000982,-0.020314420004832533
1.357000000000001094,-0.020172048397987898
1.358000000000000984,-0.020029731359898766
1.359000000000000874,-0.019887466922610779
1.360000000000000986,-0.019745253151331292
1.361000000000001098,-0.019603088144120675
1.362000000000000988,-0.019460970031575341
1.363000000000000878,-0.019318896976526227
1.364000000000000989,-0.019176867173738121
1.365000000000001101,-0.019034878849595052
1.366000000000000991,-0.018892930261808605
1.367000000000000881,-0.018751019699116446
1.368000000000000993,-0.018609145480986678
1.369000000000001105,-0.018467305957321316
1.370000000000000995,-0.018325499508162833
1.371000000000000885,-0.018183724543405100
1.372000000000000997,-0.018041979502504489
1.373000000000001108,-0.017900262854195811
1.374000000000000998,-0.017758573096195239
1.375000000000000888,-0.017616908754936690
1.376000000000001000,-0.017475268385275612
1.377000000000001112,-0.017333650570216616
1.378000000000001002,-0.017192053920633943
1.379000000000000892,-0.017050477074998072
1.380000000000001004,-0.016908918699100866
1.381000000000001116,-0.016767377485789863
1.382000000000001005,-0.016625852154689379
1.383000000000000895,-0.016484341451940318
1.384000000000001007,-0.016342844149932582
1.385000000000001119,-0.016201359047041924
1.386000000000001009,-0.016059884967368331
1.387000000000000899,-0.015918420760469263
1.388000000000001011,-0.015776965301121128
1.389000000000001123,-0.015635517489036455
1.390000000000001013,-0.015494076248629562
1.391000000000000902,-0.015352640528756007
1.392000000000001014,-0.015211209302462350
1.393000000000001126,-0.015069781566738740
1.394000000000001016,-0.014928356342272988
1.395000000000000906,-0.014786932673203180
1.396000000000001018,-0.014645509626870700
1.397000000000001130,-0.014504086293586196
1.398000000000001020,-0.014362661786386149
1.399000000000000909,-0.014221235240793568
1.400000000000001021,-0.014079805814578902
1.401000000000001133,-0.013938372687535899
1.402000000000001023,-0.013796935061235596
1.403000000000000913,-0.013655492158802573
1.404000000000001025,-0.013514043224686545
1.405000000000001137,-0.013372587524427836
1.406000000000001027,-0.013231124344437193
1.407000000000000917,-0.013089652991774555
1.408000000000001029,-0.012948172793912197
1.409000000000001140,-0.012806683098530664
1.410000000000001030,-0.012665183273288177
1.411000000000000920,-0.012523672705607152
1.412000000000001032,-0.012382150802456592
1.413000000000001144,-0.012240616990141100
1.414000000000001034,-0.012099070714082494
1.415000000000000924,-0.011957511438611340
1.416000000000001036,-0.011815938646761026
1.417000000000001148,-0.011674351840055559
1.418000000000001037,-0.011532750538301790
1.419000000000000927,-0.011391134279388411
1.420000000000001039,-0.011249502619080157
1.421000000000001151,-0.011107855130820150
1.422000000000001041,-0.010966191405524687
1.423000000000000931,-0.010824511051387454
1.424000000000001043,-0.010682813693682097
1.425000000000001155,-0.010541098974568171
1.426000000000001044,-0.010399366552893943
1.427000000000000934,-0.010257616104009434
1.428000000000001046,-0.010115847319568818
1.429000000000001158,-0.009974059907343279
1.430000000000001048,-0.009832253591041677
1.431000000000000938,-0.009690428110106944
1.432000000000001050,-0.009548583219548013
1.433000000000001162,-0.009406718689747871
1.434000000000001052,-0.009264834306280608
1.435000000000000941,-0.009122929869737209
1.436000000000001053,-0.008981005195540107
1.437000000000001165,-0.008839060113766613
1.438000000000001055,-0.008697094468978371
1.439000000000000945,-0.008555108120040355
1.440000000000001057,-0.008413100939950121
1.441000000000001169,-0.008271072815661355
1.442000000000001059,-0.008129023647919634
1.443000000000000949,-0.007986953351094507
1.444000000000001060,-0.007844861853003208
1.445000000000001172,-0.007702749094746095
1.446000000000001062,-0.007560615030553358
1.447000000000000952,-0.007418459627603004
1.448000000000001064,-0.007276282865871636
1.449000000000001176,-0.007134084737971382
1.450000000000001066,-0.006991865248983290
1.451000000000000956,-0.006849624416306968
1.452000000000001068,-0.006707362269498652
1.453000000000001180,-0.006565078850117411
1.454000000000001069,-0.006422774211569898
1.455000000000000959,-0.006280448418958530
1.456000000000001071,-0.006138101548924045
1.457000000000001183,-0.005995733689505763
1.458000000000001073,-0.005853344939981438
1.459000000000000963,-0.005710935410723685
1.460000000000001075,-0.005568505223051712
1.461000000000001187,-0.005426054509085771
1.462000000000001076,-0.005283583411609036
1.463000000000000966,-0.005141092083912514
1.464000000000001078,-0.004998580689660135
1.465000000000001190,-0.004856049402752019
1.466000000000001080,-0.004713498407173596
1.467000000000000970,-0.004570927896867237
1.468000000000001082,-0.004428338075592338
1.469000000000001194,-0.004285729156784410
1.470000000000001084,-0.004143101363427010
1.471000000000000973,-0.004000454927913953
1.472000000000001085,-0.003857790091920949
1.473000000000001197,-0.003715107106267327
1.474000000000001087,-0.003572406230792985
1.475000000000000977,-0.003429687734222466
1.476000000000001089,-0.003286951894043713
1.477000000000001201,-0.003144198996377851
1.478000000000001091,-0.003001429335851937
1.479000000000000981,-0.002858643215477113
1.480000000000001092,-0.002715840946522346
1.481000000000001204,-0.002573022848395647
1.482000000000001094,-0.002430189248518826
1.483000000000000984,-0.002287340482212229
1.484000000000001096,-0.002144476892569182
1.485000000000001208,-0.002001598830338997
1.486000000000001098,-0.001858706653817075
1.487000000000000988,-0.001715800728719674
1.488000000000001100,-0.001572881428071920
1.489000000000001211,-0.001429949132097878
1.490000000000001101,-0.001287004228102054
1.491000000000000991,-0.001144047110358710
1.492000000000001103,-0.001001078180004796
1.493000000000001215,-0.000858097844926224
1.494000000000001105,-0.000715106519646737
1.495000000000000995,-0.000572104625226292
1.496000000000001107,-0.000429092589149906
1.497000000000001219,-0.000286070845221378
1.498000000000001108,-0.000143039833461668
1.499000000000000998,0.000000000000000000
