# grapheneoxide_BSAIV6
# h[nm],U(h)[kJ/mol]
0.149999999999999994,112.559019800423385504
0.150999999999999995,109.591595047404396723
0.151999999999999996,107.602692116759072860
0.152999999999999997,105.841971752298519505
0.153999999999999998,104.027498519176376135
0.154999999999999999,102.102167882496289053
0.156000000000000000,100.099936503537350063
0.157000000000000001,98.077601163382908567
0.158000000000000002,96.084206218538824373
0.159000000000000002,94.150866873216884301
0.160000000000000003,92.290712375249910338
0.161000000000000004,90.503041386569847759
0.162000000000000005,88.778502491345264502
0.163000000000000006,87.103749337758145543
0.164000000000000007,85.464963652898546798
0.165000000000000008,83.850150115978721033
0.166000000000000009,82.250355001077096517
0.167000000000000010,80.660055277152437725
0.168000000000000010,79.076975705331776112
0.169000000000000011,77.501560919808724748
0.170000000000000012,75.936282665084050336
0.171000000000000013,74.384913346631975628
0.172000000000000014,72.851852988319507176
0.173000000000000015,71.341560576269600347
0.174000000000000016,69.858113222579078183
0.175000000000000017,68.404896960796193639
0.176000000000000018,66.984420073582583655
0.177000000000000018,65.598232269106944159
0.178000000000000019,64.246929439283206875
0.179000000000000020,62.930222987536637902
0.180000000000000021,61.647053849700135686
0.181000000000000022,60.395733599771048716
0.182000000000000023,59.174097872179139301
0.183000000000000024,57.979660344231966462
0.184000000000000025,56.809758437277579901
0.185000000000000026,55.661684545289247694
0.186000000000000026,54.532798893714968358
0.187000000000000027,53.420622033159837372
0.188000000000000028,52.322906483118003962
0.189000000000000029,51.237688186208103502
0.190000000000000030,50.163319253058752167
0.191000000000000031,49.098484018846548338
0.192000000000000032,48.042200742893314214
0.193000000000000033,46.993811409285996206
0.194000000000000034,45.952962071917092146
0.195000000000000034,44.919576069300170218
0.196000000000000035,43.893822245117675607
0.197000000000000036,42.876080076290392640
0.198000000000000037,41.866903352774968994
0.199000000000000038,40.866983788918489040
0.200000000000000039,39.877115687493436269
0.201000000000000040,38.898162533423892739
0.202000000000000041,37.931026170678343590
0.203000000000000042,36.976619016445567922
0.204000000000000042,36.035839593245789558
0.205000000000000043,35.109551512348083691
0.206000000000000044,34.198565919983899164
0.207000000000000045,33.303627319844224530
0.208000000000000046,32.425402609209044158
0.209000000000000047,31.564473109479685320
0.210000000000000048,30.721329332441193571
0.211000000000000049,29.896368198840654884
0.212000000000000050,29.089892413473563693
0.213000000000000050,28.302111698721716948
0.214000000000000051,27.533145594352255614
0.215000000000000052,26.783027543553686201
0.216000000000000053,26.051710002046245762
0.217000000000000054,25.339070327271379313
0.218000000000000055,24.644917226959101697
0.219000000000000056,23.968997569806017367
0.220000000000000057,23.311003384760930146
0.221000000000000058,22.670578898871006857
0.222000000000000058,22.047327486277417563
0.223000000000000059,21.440818422398947973
0.224000000000000060,20.850593357328257582
0.225000000000000061,20.276172440814338671
0.226000000000000062,19.717060047812928758
0.227000000000000063,19.172750068413680680
0.228000000000000064,18.642730739009085283
0.229000000000000065,18.126489002901763570
0.230000000000000066,17.623514398234270573
0.231000000000000066,17.133302479264525431
0.232000000000000067,16.655357783716702613
0.233000000000000068,16.189196364331973399
0.234000000000000069,15.734347906953917828
0.235000000000000070,15.290357460635439324
0.236000000000000071,14.856786807474239964
0.237000000000000072,14.433215501289447857
0.238000000000000073,14.019241604959628233
0.239000000000000073,13.614482156357340159
0.240000000000000074,13.218573392434274538
0.241000000000000075,12.831170760226722649
0.242000000000000076,12.451948742441825146
0.243000000000000077,12.080600523924111656
0.244000000000000078,11.716837523753621753
0.245000000000000079,11.360388816046427252
0.246000000000000080,11.011000460764968523
0.247000000000000081,10.668434764039485430
0.248000000000000081,10.332469485689045996
0.249000000000000082,10.002897009839657017
0.250000000000000111,9.679523492790726991
0.251000000000000112,9.362168000600153306
0.252000000000000113,9.050661647254660380
0.253000000000000114,8.744846742780300275
0.254000000000000115,8.444575959231528373
0.255000000000000115,8.149711521184807239
0.256000000000000116,7.860124426154179389
0.257000000000000117,7.575693699243478463
0.258000000000000118,7.296305685351784476
0.259000000000000119,7.021853381351910173
0.260000000000000120,6.752235809863608829
0.261000000000000121,6.487357435539425232
0.262000000000000122,6.227127624165690101
0.263000000000000123,5.971460144350341004
0.264000000000000123,5.720272711115382158
0.265000000000000124,5.473486570330934775
0.266000000000000125,5.231026122612498774
0.267000000000000126,4.992818585048562241
0.268000000000000127,4.758793688925311294
0.269000000000000128,4.528883411464459385
0.270000000000000129,4.303021739482826291
0.271000000000000130,4.081144462813516505
0.272000000000000131,3.863188995294137840
0.273000000000000131,3.649094221122007209
0.274000000000000132,3.438800364396532139
0.275000000000000133,3.232248879710267975
0.276000000000000134,3.029382361709599625
0.277000000000000135,2.830144471620458457
0.278000000000000136,2.634479878820033427
0.279000000000000137,2.442334215630922234
0.280000000000000138,2.253654043616354130
0.281000000000000139,2.068386829761732493
0.282000000000000139,1.886480931037951336
0.283000000000000140,1.707885585953026419
0.284000000000000141,1.532550911810051542
0.285000000000000142,1.360427906499529938
0.286000000000000143,1.191468453762157154
0.287000000000000144,1.025625330963265469
0.288000000000000145,0.862852218521068748
0.289000000000000146,0.703103710228530687
0.290000000000000147,0.546335323800454242
0.291000000000000147,0.392503511065454669
0.292000000000000148,0.241565667304183412
0.293000000000000149,0.093480139312591443
0.294000000000000150,-0.051793768159784939
0.295000000000000151,-0.194295787880285842
0.296000000000000152,-0.334064687735355581
0.297000000000000153,-0.471138270632001865
0.298000000000000154,-0.605553376815618494
0.299000000000000155,-0.737345888675830841
0.300000000000000155,-0.866550738071332538
0.301000000000000156,-0.993201916168423571
0.302000000000000157,-1.117332485756432625
0.303000000000000158,-1.238974595975068649
0.304000000000000159,-1.358159499365157341
0.305000000000000160,-1.474917571133651517
0.306000000000000161,-1.589278330506956438
0.307000000000000162,-1.701270464032673901
0.308000000000000163,-1.810921850678698375
0.309000000000000163,-1.918259588570278451
0.310000000000000164,-2.023310023199473839
0.311000000000000165,-2.126098776937553225
0.312000000000000166,-2.226650779678836400
0.313000000000000167,-2.324990300444281122
0.314000000000000168,-2.421140979774266455
0.315000000000000169,-2.515125862742791263
0.316000000000000170,-2.606967432429057929
0.317000000000000171,-2.696687643687215807
0.318000000000000171,-2.784307957060735639
0.319000000000000172,-2.869849372694462275
0.320000000000000173,-2.953332464104245325
0.321000000000000174,-3.034777411671667924
0.322000000000000175,-3.114204035739317256
0.323000000000000176,-3.191631829190174408
0.324000000000000177,-3.267079989403105067
0.325000000000000178,-3.340567449484788565
0.326000000000000179,-3.412112908687200186
0.327000000000000179,-3.481734861927864522
0.328000000000000180,-3.549451628338805342
0.329000000000000181,-3.615281378778229193
0.330000000000000182,-3.679242162246945558
0.331000000000000183,-3.741351931159651478
0.332000000000000184,-3.801628565428494255
0.333000000000000185,-3.860089895323787434
0.334000000000000186,-3.916753723083830074
0.335000000000000187,-3.971637843252276756
0.336000000000000187,-4.024760061728136051
0.337000000000000188,-4.076138213519108433
0.338000000000000189,-4.125790179195081286
0.339000000000000190,-4.173733900043631984
0.340000000000000191,-4.219987391934281185
0.341000000000000192,-4.264568757903190566
0.342000000000000193,-4.307496199473840548
0.343000000000000194,-4.348788026733519274
0.344000000000000195,-4.388462667188575139
0.345000000000000195,-4.426538673425195469
0.346000000000000196,-4.463034729604832940
0.347000000000000197,-4.497969656826395379
0.348000000000000198,-4.531362417389464881
0.349000000000000199,-4.563232117994830084
0.350000000000000200,-4.593598011920478008
0.351000000000000201,-4.622479500212526737
0.352000000000000202,-4.649896131931926746
0.353000000000000203,-4.675867603498721436
0.354000000000000203,-4.700413757176475471
0.355000000000000204,-4.723554578739933341
0.356000000000000205,-4.745310194369462664
0.357000000000000206,-4.765700866816102277
0.358000000000000207,-4.784746990880693218
0.359000000000000208,-4.802469088250899354
0.360000000000000209,-4.818887801739332843
0.361000000000000210,-4.834023888965621296
0.362000000000000210,-4.847898215524823584
0.363000000000000211,-4.860531747683806358
0.364000000000000212,-4.871945544646584025
0.365000000000000213,-4.882160750428598206
0.366000000000000214,-4.891198585379178176
0.367000000000000215,-4.899080337390238071
0.368000000000000216,-4.905827352828419308
0.369000000000000217,-4.911461027226490472
0.370000000000000218,-4.916002795768974920
0.371000000000000218,-4.919474123605453109
0.372000000000000219,-4.921896496023999035
0.373000000000000220,-4.923291408515874323
0.374000000000000221,-4.923680356761249044
0.375000000000000222,-4.923084826564456229
0.376000000000000223,-4.921526283766151089
0.377000000000000224,-4.919026164158182723
0.378000000000000225,-4.915605863425843935
0.379000000000000226,-4.911286727140836916
0.380000000000000226,-4.906090040827051801
0.381000000000000227,-4.900037020119809128
0.382000000000000228,-4.893148801038242013
0.383000000000000229,-4.885446430388987515
0.384000000000000230,-4.876950856318263305
0.385000000000000231,-4.867682919028297306
0.386000000000000232,-4.857663341672686208
0.387000000000000233,-4.846912721444398997
0.388000000000000234,-4.835451520868741859
0.389000000000000234,-4.823300059312843224
0.390000000000000235,-4.810478504721858783
0.391000000000000236,-4.797006865591348479
0.392000000000000237,-4.782904983184105951
0.393000000000000238,-4.768192523998945553
0.394000000000000239,-4.752888972497850695
0.395000000000000240,-4.737013624097257569
0.396000000000000241,-4.720585578428197593
0.397000000000000242,-4.703623732869274932
0.398000000000000242,-4.686146776355875510
0.399000000000000243,-4.668173183467915877
0.400000000000000244,-4.649721208798082372
0.401000000000000245,-4.630808881601737426
0.402000000000000246,-4.611454000728882896
0.403000000000000247,-4.591674129838253293
0.404000000000000248,-4.571486592892853196
0.405000000000000249,-4.550908469935821543
0.406000000000000250,-4.529956593144913057
0.407000000000000250,-4.508647543163558424
0.408000000000000251,-4.486997645705907090
0.409000000000000252,-4.465022968432923456
0.410000000000000253,-4.442739318096184498
0.411000000000000254,-4.420162237945725714
0.412000000000000255,-4.397307005397882662
0.413000000000000256,-4.374188629958917218
0.414000000000000257,-4.350821851399720330
0.415000000000000258,-4.327221138176922111
0.416000000000000258,-4.303400686095228522
0.417000000000000259,-4.279374417205834114
0.418000000000000260,-4.255155978935416528
0.419000000000000261,-4.230758743440162561
0.420000000000000262,-4.206195807179055279
0.421000000000000263,-4.181479990700629479
0.422000000000000264,-4.156623838637150570
0.423000000000000265,-4.131639619900225213
0.424000000000000266,-4.106539328071756145
0.425000000000000266,-4.081334681983969759
0.426000000000000267,-4.056037126482396005
0.427000000000000268,-4.030657833365509646
0.428000000000000269,-4.005207702494760547
0.429000000000000270,-3.979697363068820604
0.430000000000000271,-3.954137175055641329
0.431000000000000272,-3.928537230776266931
0.432000000000000273,-3.902907356634061298
0.433000000000000274,-3.877257114983274189
0.434000000000000274,-3.851595806130784894
0.435000000000000275,-3.825932470464992186
0.436000000000000276,-3.800275890705871351
0.437000000000000277,-3.774634594270231069
0.438000000000000278,-3.749016855746354793
0.439000000000000279,-3.723430699472318306
0.440000000000000280,-3.697883902212220075
0.441000000000000281,-3.672383995924790590
0.442000000000000282,-3.646938270618985456
0.443000000000000282,-3.621553777291019571
0.444000000000000283,-3.596237330937750443
0.445000000000000284,-3.570995513641159302
0.446000000000000285,-3.545834677718862959
0.447000000000000286,-3.520760948935861112
0.448000000000000287,-3.495780229772519565
0.449000000000000288,-3.470898202744300498
0.450000000000000289,-3.446120333768477373
0.451000000000000290,-3.421451875573527701
0.452000000000000290,-3.396897871146826731
0.453000000000000291,-3.372463157216396556
0.454000000000000292,-3.348152367762723181
0.455000000000000293,-3.323969937556591425
0.456000000000000294,-3.299920105719158947
0.457000000000000295,-3.276006919300578524
0.458000000000000296,-3.252234236873491113
0.459000000000000297,-3.228605732138054130
0.460000000000000298,-3.205124897535034822
0.461000000000000298,-3.181795047863853476
0.462000000000000299,-3.158619323902394971
0.463000000000000300,-3.135600696025636402
0.464000000000000301,-3.112741967820228162
0.465000000000000302,-3.090045779692265349
0.466000000000000303,-3.067514612465586765
0.467000000000000304,-3.045150790968121690
0.468000000000000305,-3.022956487603805975
0.469000000000000306,-3.000933725907795058
0.470000000000000306,-2.979084384082793413
0.471000000000000307,-2.957410198514290656
0.472000000000000308,-2.935912767262848888
0.473000000000000309,-2.914593553531433567
0.474000000000000310,-2.893453889106025745
0.475000000000000311,-2.872494977767793944
0.476000000000000312,-2.851717898675272256
0.477000000000000313,-2.831123609714909950
0.478000000000000314,-2.810712950818648803
0.479000000000000314,-2.790486647247181651
0.480000000000000315,-2.770445312837540364
0.481000000000000316,-2.750589453213959867
0.482000000000000317,-2.730919468960800511
0.483000000000000318,-2.711435658756586875
0.484000000000000319,-2.692138222468156705
0.485000000000000320,-2.673027264204098419
0.486000000000000321,-2.654102795326626740
0.487000000000000322,-2.635364737421195258
0.488000000000000322,-2.616812925223110931
0.489000000000000323,-2.598447109500662933
0.490000000000000324,-2.580266959894098822
0.491000000000000325,-2.562272067710043011
0.492000000000000326,-2.544461948670874385
0.493000000000000327,-2.526836045618757520
0.494000000000000328,-2.509393731173948261
0.495000000000000329,-2.492134310347153381
0.496000000000000330,-2.475057023105679210
0.497000000000000330,-2.458161046893284851
0.498000000000000331,-2.441445499103485517
0.499000000000000332,-2.424909439506381936
0.500000000000000333,-2.408551872628866608
0.501000000000000334,-2.392371750088233107
0.502000000000000335,-2.376367972879268819
0.503000000000000336,-2.360539393614881742
0.504000000000000337,-2.344884818720367914
0.505000000000000338,-2.329403010581486022
0.506000000000000338,-2.314092689646516376
0.507000000000000339,-2.298952536482499642
0.508000000000000340,-2.283981193785892039
0.509000000000000341,-2.269177268347963849
0.510000000000000342,-2.254539332975114441
0.511000000000000343,-2.240065928364564307
0.512000000000000344,-2.225755564935620434
0.513000000000000345,-2.211606724616987041
0.514000000000000346,-2.197617862590472093
0.515000000000000346,-2.183787408991450185
0.516000000000000347,-2.170113770566537426
0.517000000000000348,-2.156595332288957056
0.518000000000000349,-2.143230458931930205
0.519000000000000350,-2.130017496600694393
0.520000000000000351,-2.116954774223522850
0.521000000000000352,-2.104040605002321040
0.522000000000000353,-2.091273287823232074
0.523000000000000353,-2.078651108627817212
0.524000000000000354,-2.066172341745333263
0.525000000000000355,-2.053835251186610478
0.526000000000000356,-2.041638091900094043
0.527000000000000357,-2.029579110990625157
0.528000000000000358,-2.017656548901442193
0.529000000000000359,-2.005868640560068084
0.530000000000000360,-1.994213616488546226
0.531000000000000361,-1.982689703878675491
0.532000000000000361,-1.971295127632774369
0.533000000000000362,-1.960028111370572201
0.534000000000000363,-1.948886878402794398
0.535000000000000364,-1.937869652672035370
0.536000000000000365,-1.926974659661490064
0.537000000000000366,-1.916200127272146503
0.538000000000000367,-1.905544286668976017
0.539000000000000368,-1.895005373096792400
0.540000000000000369,-1.884581626666243181
0.541000000000000369,-1.874271293110643111
0.542000000000000370,-1.864072624514105048
0.543000000000000371,-1.853983880011638163
0.544000000000000372,-1.844003326461746584
0.545000000000000373,-1.834129239092106456
0.546000000000000374,-1.824359902118882548
0.547000000000000375,-1.814693609340255920
0.548000000000000376,-1.805128664704745534
0.549000000000000377,-1.795663382854829182
0.550000000000000377,-1.786296089646465024
0.551000000000000378,-1.777025122645027766
0.552000000000000379,-1.767848831598235693
0.553000000000000380,-1.758765578886565262
0.554000000000000381,-1.749773739951707707
0.555000000000000382,-1.740871703703624096
0.556000000000000383,-1.732057872906631157
0.557000000000000384,-1.723330664545158042
0.558000000000000385,-1.714688510169551261
0.559000000000000385,-1.706129856222539987
0.560000000000000386,-1.697653164346788701
0.561000000000000387,-1.689256911674061667
0.562000000000000388,-1.680939591096462182
0.563000000000000389,-1.672699711520243770
0.564000000000000390,-1.664535798102644737
0.565000000000000391,-1.656446392472220364
0.566000000000000392,-1.648430052933118173
0.567000000000000393,-1.640485354653781203
0.568000000000000393,-1.632610889840450330
0.569000000000000394,-1.624805267895979011
0.570000000000000395,-1.617067115564352564
0.571000000000000396,-1.609395077061305246
0.572000000000000397,-1.601787814191530046
0.573000000000000398,-1.594244006452784301
0.574000000000000399,-1.586762351127395609
0.575000000000000400,-1.579341563361470024
0.576000000000000401,-1.571980376232240406
0.577000000000000401,-1.564677540803948386
0.578000000000000402,-1.557431826172570588
0.579000000000000403,-1.550242019499793011
0.580000000000000404,-1.543106926036615700
0.581000000000000405,-1.536025369136878149
0.582000000000000406,-1.528996190261094679
0.583000000000000407,-1.522018248970919974
0.584000000000000408,-1.515090422914578294
0.585000000000000409,-1.508211607803578991
0.586000000000000409,-1.501380717381022745
0.587000000000000410,-1.494596683381848035
0.588000000000000411,-1.487858455485247644
0.589000000000000412,-1.481165001259649561
0.590000000000000413,-1.474515306100449008
0.591000000000000414,-1.467908373160853763
0.592000000000000415,-1.461343223276090564
0.593000000000000416,-1.454818894881225066
0.594000000000000417,-1.448334443922882908
0.595000000000000417,-1.441888943765160747
0.596000000000000418,-1.435481485089869613
0.597000000000000419,-1.429111175791518917
0.598000000000000420,-1.422777140867110601
0.599000000000000421,-1.416478522301123366
0.600000000000000422,-1.410214478945815531
0.601000000000000423,-1.403984186397111422
0.602000000000000424,-1.397786836866294902
0.603000000000000425,-1.391621639047702086
0.604000000000000425,-1.385487817982613334
0.605000000000000426,-1.379384614919570984
0.606000000000000427,-1.373311287171329997
0.607000000000000428,-1.367267107968521689
0.608000000000000429,-1.361251366310427091
0.609000000000000430,-1.355263366812778703
0.610000000000000431,-1.349302429553010940
0.611000000000000432,-1.343367889912952640
0.612000000000000433,-1.337459098419201187
0.613000000000000433,-1.331575420581355917
0.614000000000000434,-1.325716236728221809
0.615000000000000435,-1.319880941842145106
0.616000000000000436,-1.314068945391640320
0.617000000000000437,-1.308279671162472457
0.618000000000000438,-1.302512557087275535
0.619000000000000439,-1.296767055073868802
0.620000000000000440,-1.291042630832438087
0.621000000000000441,-1.285338763701640685
0.622000000000000441,-1.279654946473809840
0.623000000000000442,-1.273990685219339003
0.624000000000000443,-1.268345499110380636
0.625000000000000444,-1.262718920243986798
0.626000000000000445,-1.257110493464737022
0.627000000000000446,-1.251519776187032917
0.628000000000000447,-1.245946338217103655
0.629000000000000448,-1.240389761574842709
0.630000000000000449,-1.234849640315558439
0.631000000000000449,-1.229325580351736891
0.632000000000000450,-1.223817199274896961
0.633000000000000451,-1.218324126177632305
0.634000000000000452,-1.212846001475888391
0.635000000000000453,-1.207382476731604815
0.636000000000000454,-1.201933214475727096
0.637000000000000455,-1.196497888031746504
0.638000000000000456,-1.191076181339741469
0.639000000000000457,-1.185667788781059828
0.640000000000000457,-1.180272415003686071
0.641000000000000458,-1.174889774748307136
0.642000000000000459,-1.169519592675229536
0.643000000000000460,-1.164161603192092942
0.644000000000000461,-1.158815550282530138
0.645000000000000462,-1.153481187335763103
0.646000000000000463,-1.148158276977201186
0.647000000000000464,-1.142846590900091996
0.648000000000000465,-1.137545909698283175
0.649000000000000465,-1.132256022700088849
0.650000000000000466,-1.126976727803367329
0.651000000000000467,-1.121707831311779868
0.652000000000000468,-1.116449147772330397
0.653000000000000469,-1.111200499814157805
0.654000000000000470,-1.105961717988682702
0.655000000000000471,-1.100732640611069790
0.656000000000000472,-1.095513113603082456
0.657000000000000473,-1.090302990337327360
0.658000000000000473,-1.085102131482954535
0.659000000000000474,-1.079910404852777228
0.660000000000000475,-1.074727685251896547
0.661000000000000476,-1.069553854327791376
0.662000000000000477,-1.064388800421957271
0.663000000000000478,-1.059232418423046163
0.664000000000000479,-1.054084609621594115
0.665000000000000480,-1.048945281566259435
0.666000000000000481,-1.043814347921713015
0.667000000000000481,-1.038691728328032360
0.668000000000000482,-1.033577348261796258
0.669000000000000483,-1.028471138898710446
0.670000000000000484,-1.023373036977903938
0.671000000000000485,-1.018282984667842950
0.672000000000000486,-1.013200929433873076
0.673000000000000487,-1.008126823907438796
0.674000000000000488,-1.003060625756910573
0.675000000000000488,-0.998002297560085849
0.676000000000000489,-0.992951806678370019
0.677000000000000490,-0.987909125132566679
0.678000000000000491,-0.982874229480373174
0.679000000000000492,-0.977847100695518834
0.680000000000000493,-0.972827724048559772
0.681000000000000494,-0.967816088989353007
0.682000000000000495,-0.962812189031163612
0.683000000000000496,-0.957816021636457293
0.684000000000000496,-0.952827588104325995
0.685000000000000497,-0.947846893459567186
0.686000000000000498,-0.942873946343418368
0.687000000000000499,-0.937908758905921403
0.688000000000000500,-0.932951346699922190
0.689000000000000501,-0.928001728576707152
0.690000000000000502,-0.923059926583261303
0.691000000000000503,-0.918125965861137816
0.692000000000000504,-0.913199874546921975
0.693000000000000504,-0.908281683674339591
0.694000000000000505,-0.903371427077887645
0.695000000000000506,-0.898469141298119944
0.696000000000000507,-0.893574865488454106
0.697000000000000508,-0.888688641323557293
0.698000000000000509,-0.883810512909298795
0.699000000000000510,-0.878940526694220403
0.700000000000000511,-0.874078731382558538
0.701000000000000512,-0.869225177848780617
0.702000000000000512,-0.864379919053622436
0.703000000000000513,-0.859543009961636906
0.704000000000000514,-0.854714507460222372
0.705000000000000515,-0.849894470280118219
0.706000000000000516,-0.845082958917368843
0.707000000000000517,-0.840280035556743576
0.708000000000000518,-0.835485763996556385
0.709000000000000519,-0.830700209574969706
0.710000000000000520,-0.825923439097637768
0.711000000000000520,-0.821155520766797542
0.712000000000000521,-0.816396524111721256
0.713000000000000522,-0.811646519920522835
0.714000000000000523,-0.806905580173359005
0.715000000000000524,-0.802173777976918911
0.716000000000000525,-0.797451187500288206
0.717000000000000526,-0.792737883912096430
0.718000000000000527,-0.788033943318960151
0.719000000000000528,-0.783339442705220934
0.720000000000000528,-0.778654459873969640
0.721000000000000529,-0.773979073389264749
0.722000000000000530,-0.769313362519670751
0.723000000000000531,-0.764657407182946058
0.724000000000000532,-0.760011287891995679
0.725000000000000533,-0.755375085701999849
0.726000000000000534,-0.750748882158707387
0.727000000000000535,-0.746132759247925215
0.728000000000000536,-0.741526799346135301
0.729000000000000536,-0.736931085172256251
0.730000000000000537,-0.732345699740543199
0.731000000000000538,-0.727770726314555083
0.732000000000000539,-0.723206248362258997
0.733000000000000540,-0.718652349512181932
0.734000000000000541,-0.714109113510638993
0.735000000000000542,-0.709576624179998006
0.736000000000000543,-0.705054965378003606
0.737000000000000544,-0.700544220958080666
0.738000000000000544,-0.696044474730689089
0.739000000000000545,-0.691555810425627193
0.740000000000000546,-0.687078311655336504
0.741000000000000547,-0.682612061879151244
0.742000000000000548,-0.678157144368534470
0.743000000000000549,-0.673713642173179528
0.744000000000000550,-0.669281638088090824
0.745000000000000551,-0.664861214621543462
0.746000000000000552,-0.660452453963941255
0.747000000000000552,-0.656055437957551946
0.748000000000000553,-0.651670248067096169
0.749000000000000554,-0.647296965351197962
0.750000000000000555,-0.642935670434673145
0.751000000000000556,-0.638586443481624300
0.752000000000000557,-0.634249364169378049
0.753000000000000558,-0.629924511663166875
0.754000000000000559,-0.625611964591654246
0.755000000000000560,-0.621311801023177956
0.756000000000000560,-0.617024098442798263
0.757000000000000561,-0.612748933730037804
0.758000000000000562,-0.608486383137392117
0.759000000000000563,-0.604236522269554710
0.760000000000000564,-0.599999426063335117
0.761000000000000565,-0.595775168768275964
0.762000000000000566,-0.591563823927956256
0.763000000000000567,-0.587365464361964240
0.764000000000000568,-0.583180162148511094
0.765000000000000568,-0.579007988607729063
0.766000000000000569,-0.574849014285555904
0.767000000000000570,-0.570703308938284803
0.768000000000000571,-0.566570941517681836
0.769000000000000572,-0.562451980156747688
0.770000000000000573,-0.558346492156030272
0.771000000000000574,-0.554254543970541080
0.772000000000000575,-0.550176201197220771
0.773000000000000576,-0.546111528562959969
0.774000000000000576,-0.542060589913173962
0.775000000000000577,-0.538023448200910748
0.776000000000000578,-0.534000165476460897
0.777000000000000579,-0.529990802877516431
0.778000000000000580,-0.525995420619791765
0.779000000000000581,-0.522014077988169678
0.780000000000000582,-0.518046833328303480
0.781000000000000583,-0.514093744038718548
0.782000000000000584,-0.510154866563346188
0.783000000000000584,-0.506230256384528010
0.784000000000000585,-0.502319968016469165
0.785000000000000586,-0.498424054999097144
0.786000000000000587,-0.494542569892383876
0.787000000000000588,-0.490675564271049303
0.788000000000000589,-0.486823088719679109
0.789000000000000590,-0.482985192828263687
0.790000000000000591,-0.479161925188087978
0.791000000000000592,-0.475353333388027544
0.792000000000000592,-0.471559464011205798
0.793000000000000593,-0.467780362632011282
0.794000000000000594,-0.464016073813476981
0.795000000000000595,-0.460266641105008589
0.796000000000000596,-0.456532107040425572
0.797000000000000597,-0.452812513136369721
0.798000000000000598,-0.449107899891007467
0.799000000000000599,-0.445418306783052498
0.800000000000000600,-0.441743772271112334
0.801000000000000600,-0.438084333793309522
0.802000000000000601,-0.434440027767205028
0.803000000000000602,-0.430810889590014123
0.804000000000000603,-0.427196953639087718
0.805000000000000604,-0.423598253272681968
0.806000000000000605,-0.420014820830951929
0.807000000000000606,-0.416446687637257895
0.808000000000000607,-0.412893883999675748
0.809000000000000608,-0.409356439212766321
0.810000000000000608,-0.405834381559605606
0.811000000000000609,-0.402327738313981331
0.812000000000000610,-0.398836535742903786
0.813000000000000611,-0.395360799109242822
0.814000000000000612,-0.391900552674642744
0.815000000000000613,-0.388455819702624605
0.816000000000000614,-0.385026622461866530
0.817000000000000615,-0.381612982229702635
0.818000000000000616,-0.378214919295813634
0.819000000000000616,-0.374832452966079366
0.820000000000000617,-0.371465601566615955
0.821000000000000618,-0.368114382447997934
0.822000000000000619,-0.364778811989644458
0.823000000000000620,-0.361458905604344516
0.824000000000000621,-0.358154677742957783
0.825000000000000622,-0.354866141899272791
0.826000000000000623,-0.351593310614999599
0.827000000000000624,-0.348336195484899913
0.828000000000000624,-0.345094807162072359
0.829000000000000625,-0.341869155363345834
0.830000000000000626,-0.338659248874822516
0.831000000000000627,-0.335465095557530735
0.832000000000000628,-0.332286702353210228
0.833000000000000629,-0.329124075290184670
0.834000000000000630,-0.325977219489376968
0.835000000000000631,-0.322846139170408442
0.836000000000000631,-0.319730837657804745
0.837000000000000632,-0.316631317387314870
0.838000000000000633,-0.313547579912292096
0.839000000000000634,-0.310479625910193180
0.840000000000000635,-0.307427455189162646
0.841000000000000636,-0.304391066694671864
0.842000000000000637,-0.301370458516278805
0.843000000000000638,-0.298365627894424834
0.844000000000000639,-0.295376571227326357
0.845000000000000639,-0.292403284077930592
0.846000000000000640,-0.289445761180922578
0.847000000000000641,-0.286503996449828657
0.848000000000000642,-0.283577982984132893
0.849000000000000643,-0.280667713076476588
0.850000000000000644,-0.277773178219925865
0.851000000000000645,-0.274894369115239345
0.852000000000000646,-0.272031275678231821
0.853000000000000647,-0.269183887047159232
0.854000000000000647,-0.266352191590135345
0.855000000000000648,-0.263536176912608555
0.856000000000000649,-0.260735829864863267
0.857000000000000650,-0.257951136549553817
0.858000000000000651,-0.255182082329263260
0.859000000000000652,-0.252428651834098905
0.860000000000000653,-0.249690828969322126
0.861000000000000654,-0.246968596922963801
0.862000000000000655,-0.244261938173513160
0.863000000000000655,-0.241570834497574521
0.864000000000000656,-0.238895266977581316
0.865000000000000657,-0.236235216009485827
0.866000000000000658,-0.233590661310495523
0.867000000000000659,-0.230961581926803772
0.868000000000000660,-0.228347956241314931
0.869000000000000661,-0.225749761981396013
0.870000000000000662,-0.223166976226622044
0.871000000000000663,-0.220599575416535659
0.872000000000000663,-0.218047535358372319
0.873000000000000664,-0.215510831234833861
0.874000000000000665,-0.212989437611808524
0.875000000000000666,-0.210483328446129520
0.876000000000000667,-0.207992477093289579
0.877000000000000668,-0.205516856315170360
0.878000000000000669,-0.203056438287760654
0.879000000000000670,-0.200611194608842608
0.880000000000000671,-0.198181096305694748
0.881000000000000671,-0.195766113842747808
0.882000000000000672,-0.193366217129261109
0.883000000000000673,-0.190981375526944219
0.884000000000000674,-0.188611557857590179
0.885000000000000675,-0.186256732410664261
0.886000000000000676,-0.183916866950897345
0.887000000000000677,-0.181591928725831464
0.888000000000000678,-0.179281884473351499
0.889000000000000679,-0.176986700429204058
0.890000000000000679,-0.174706342334471521
0.891000000000000680,-0.172440775443029742
0.892000000000000681,-0.170189964528976473
0.893000000000000682,-0.167953873894025468
0.894000000000000683,-0.165732467374875236
0.895000000000000684,-0.163525708350549276
0.896000000000000685,-0.161333559749698568
0.897000000000000686,-0.159155984057873068
0.898000000000000687,-0.156992943324761269
0.899000000000000687,-0.154844399171394115
0.900000000000000688,-0.152710312797311287
0.901000000000000689,-0.150590644987692424
0.902000000000000690,-0.148485356120461598
0.903000000000000691,-0.146394406173333630
0.904000000000000692,-0.144317754730839104
0.905000000000000693,-0.142255360991303537
0.906000000000000694,-0.140207183773793681
0.907000000000000695,-0.138173181525004768
0.908000000000000695,-0.136153312326139198
0.909000000000000696,-0.134147533899705379
0.910000000000000697,-0.132155803616312767
0.911000000000000698,-0.130178078501388905
0.912000000000000699,-0.128214315241881427
0.913000000000000700,-0.126264470192909178
0.914000000000000701,-0.124328499384347646
0.915000000000000702,-0.122406358527408471
0.916000000000000703,-0.120498003021143857
0.917000000000000703,-0.118603387958917228
0.918000000000000704,-0.116722468134831142
0.919000000000000705,-0.114855198050094739
0.920000000000000706,-0.113001531919371428
0.921000000000000707,-0.111161423677048732
0.922000000000000708,-0.109334826983482319
0.923000000000000709,-0.107521695231196673
0.924000000000000710,-0.105721981551009619
0.925000000000000711,-0.103935638818145895
0.926000000000000711,-0.102162619658275625
0.927000000000000712,-0.100402876453515796
0.928000000000000713,-0.098656361348380003
0.929000000000000714,-0.096923026255695460
0.930000000000000715,-0.095202822862436892
0.931000000000000716,-0.093495702635541383
0.932000000000000717,-0.091801616827670657
0.933000000000000718,-0.090120516482907378
0.934000000000000719,-0.088452352442423637
0.935000000000000719,-0.086797075350084379
0.936000000000000720,-0.085154635658005878
0.937000000000000721,-0.083524983632065952
0.938000000000000722,-0.081908069357371049
0.939000000000000723,-0.080303842743658510
0.940000000000000724,-0.078712253530658721
0.941000000000000725,-0.077133251293410240
0.942000000000000726,-0.075566785447522225
0.943000000000000727,-0.074012805254378006
0.944000000000000727,-0.072471259826307241
0.945000000000000728,-0.070942098131696510
0.946000000000000729,-0.069425269000040840
0.947000000000000730,-0.067920721126976558
0.948000000000000731,-0.066428403079222847
0.949000000000000732,-0.064948263299515946
0.950000000000000733,-0.063480250111455985
0.951000000000000734,-0.062024311724339573
0.952000000000000735,-0.060580396237914377
0.953000000000000735,-0.059148451647092218
0.954000000000000736,-0.057728425846626241
0.955000000000000737,-0.056320266635724626
0.956000000000000738,-0.054923921722621658
0.957000000000000739,-0.053539338729093534
0.958000000000000740,-0.052166465194939018
0.959000000000000741,-0.050805248582390425
0.960000000000000742,-0.049455636280503354
0.961000000000000743,-0.048117575609471580
0.962000000000000743,-0.046791013824909508
0.963000000000000744,-0.045475898122081512
0.964000000000000745,-0.044172175640092660
0.965000000000000746,-0.042879793466011271
0.966000000000000747,-0.041598698638965717
0.967000000000000748,-0.040328838154179383
0.968000000000000749,-0.039070158966971469
0.969000000000000750,-0.037822607996694638
0.970000000000000751,-0.036586132130646085
0.971000000000000751,-0.035360678227909732
0.972000000000000752,-0.034146193123162846
0.973000000000000753,-0.032942623630455137
0.974000000000000754,-0.031749916546902360
0.975000000000000755,-0.030568018656369482
0.976000000000000756,-0.029396876733090282
0.977000000000000757,-0.028236437545246972
0.978000000000000758,-0.027086647858502549
0.979000000000000759,-0.025947454439500965
0.980000000000000759,-0.024818804059294170
0.981000000000000760,-0.023700643496757996
0.982000000000000761,-0.022592919541948347
0.983000000000000762,-0.021495578999406944
0.984000000000000763,-0.020408568691432531
0.985000000000000764,-0.019331835461317413
0.986000000000000765,-0.018265326176520318
0.987000000000000766,-0.017208987731811631
0.988000000000000766,-0.016162767052369870
0.989000000000000767,-0.015126611096844522
0.990000000000000768,-0.014100466860369415
0.991000000000000769,-0.013084281377527257
0.992000000000000770,-0.012078001725286969
0.993000000000000771,-0.011081575025904422
0.994000000000000772,-0.010094948449750712
0.995000000000000773,-0.009118069218144847
0.996000000000000774,-0.008150884606105958
0.997000000000000774,-0.007193341945090637
0.998000000000000775,-0.006245388625682235
0.999000000000000776,-0.005306972100237495
1.000000000000000666,-0.004378039885499679
1.001000000000000778,-0.003458539565175034
1.002000000000000668,-0.002548418792459523
1.003000000000000780,-0.001647625292537352
1.004000000000000670,-0.000756106865038958
1.005000000000000782,0.000126188613537942
1.006000000000000671,0.000999313187443535
1.007000000000000783,0.001863318819341353
1.008000000000000673,0.002718257387986472
1.009000000000000785,0.003564180685959856
1.010000000000000675,0.004401140417431745
1.011000000000000787,0.005229188195963070
1.012000000000000677,0.006048375542336354
1.013000000000000789,0.006858753882428487
1.014000000000000679,0.007660374545123930
1.015000000000000790,0.008453288760243937
1.016000000000000680,0.009237547656525952
1.017000000000000792,0.010013202259635628
1.018000000000000682,0.010780303490211324
1.019000000000000794,0.011538902161935788
1.020000000000000684,0.012289048979644852
1.021000000000000796,0.013030794537476898
1.022000000000000686,0.013764189317048797
1.023000000000000798,0.014489283685655765
1.024000000000000687,0.015206127894521396
1.025000000000000799,0.015914772077064931
1.026000000000000689,0.016615266247202158
1.027000000000000801,0.017307660297688474
1.028000000000000691,0.017992003998476912
1.029000000000000803,0.018668346995119520
1.030000000000000693,0.019336738807195518
1.031000000000000805,0.019997228826760600
1.032000000000000695,0.020649866316845365
1.033000000000000806,0.021294700409960760
1.034000000000000696,0.021931780106650131
1.035000000000000808,0.022561154274065572
1.036000000000000698,0.023182871644570016
1.037000000000000810,0.023796980814357410
1.038000000000000700,0.024403530242133372
1.039000000000000812,0.025002568247791492
1.040000000000000702,0.025594143011124660
1.041000000000000814,0.026178302570574206
1.042000000000000703,0.026755094822004593
1.043000000000000815,0.027324567517486485
1.044000000000000705,0.027886768264128337
1.045000000000000817,0.028441744522929257
1.046000000000000707,0.028989543607642415
1.047000000000000819,0.029530212683684547
1.048000000000000709,0.030063798767060067
1.049000000000000821,0.030590348723310852
1.050000000000000711,0.031109909266497326
1.051000000000000822,0.031622526958188853
1.052000000000000712,0.032128248206498719
1.053000000000000824,0.032627119265130990
1.054000000000000714,0.033119186232448736
1.055000000000000826,0.033604495050575445
1.056000000000000716,0.034083091504511248
1.057000000000000828,0.034555021221277064
1.058000000000000718,0.035020329669081911
1.059000000000000830,0.035479062156509159
1.060000000000000719,0.035931263831723639
1.061000000000000831,0.036376979681709269
1.062000000000000721,0.036816254531523103
1.063000000000000833,0.037249133043561443
1.064000000000000723,0.037675659716868960
1.065000000000000835,0.038095878886451807
1.066000000000000725,0.038509834722608674
1.067000000000000837,0.038917571230308187
1.068000000000000727,0.039319132248544240
1.069000000000000838,0.039714561449757858
1.070000000000000728,0.040103902339241548
1.071000000000000840,0.040487198254585341
1.072000000000000730,0.040864492365131469
1.073000000000000842,0.041235827671451453
1.074000000000000732,0.041601247004850635
1.075000000000000844,0.041960793026870932
1.076000000000000734,0.042314508228828721
1.077000000000000846,0.042662434931372027
1.078000000000000735,0.043004615284040107
1.079000000000000847,0.043341091264862477
1.080000000000000737,0.043671904679946763
1.081000000000000849,0.043997097163119656
1.082000000000000739,0.044316710175554871
1.083000000000000851,0.044630785005431071
1.084000000000000741,0.044939362767602478
1.085000000000000853,0.045242484403295299
1.086000000000000743,0.045540190679807163
1.087000000000000854,0.045832522190228306
1.088000000000000744,0.046119519353177776
1.089000000000000856,0.046401222412564461
1.090000000000000746,0.046677671437347260
1.091000000000000858,0.046948906321318748
1.092000000000000748,0.047214966782908332
1.093000000000000860,0.047475892364989294
1.094000000000000750,0.047731722434716531
1.095000000000000862,0.047982496183355476
1.096000000000000751,0.048228252626147584
1.097000000000000863,0.048469030602182717
1.098000000000000753,0.048704868774273678
1.099000000000000865,0.048935805628860830
1.100000000000000755,0.049161879475925277
1.101000000000000867,0.049383128448910019
1.102000000000000757,0.049599590504655081
1.103000000000000869,0.049811303423351376
1.104000000000000759,0.050018304808509349
1.105000000000000870,0.050220632086920916
1.106000000000000760,0.050418322508664362
1.107000000000000872,0.050611413147089876
1.108000000000000762,0.050799940898840067
1.109000000000000874,0.050983942483870025
1.110000000000000764,0.051163454445487512
1.111000000000000876,0.051338513150398203
1.112000000000000766,0.051509154788761814
1.113000000000000878,0.051675415374263990
1.114000000000000767,0.051837330744194297
1.115000000000000879,0.051994936559543903
1.116000000000000769,0.052148268305100373
1.117000000000000881,0.052297361289564880
1.118000000000000771,0.052442250645673524
1.119000000000000883,0.052582971330327896
1.120000000000000773,0.052719558124740606
1.121000000000000885,0.052852045634588299
1.122000000000000774,0.052980468290175643
1.123000000000000886,0.053104860346602931
1.124000000000000776,0.053225255883946089
1.125000000000000888,0.053341688807458633
1.126000000000000778,0.053454192847761185
1.127000000000000890,0.053562801561045134
1.128000000000000780,0.053667548329307826
1.129000000000000892,0.053768466360562497
1.130000000000000782,0.053865588689078557
1.131000000000000894,0.053958948175627131
1.132000000000000783,0.054048577507727957
1.133000000000000895,0.054134509199905770
1.134000000000000785,0.054216775593973088
1.135000000000000897,0.054295408859280726
1.136000000000000787,0.054370440993023593
1.137000000000000899,0.054441903820514261
1.138000000000000789,0.054509828995494038
1.139000000000000901,0.054574248000421190
1.140000000000000790,0.054635192146799280
1.141000000000000902,0.054692692575490767
1.142000000000000792,0.054746780257037254
1.143000000000000904,0.054797485992000163
1.144000000000000794,0.054844840411290487
1.145000000000000906,0.054888873976531215
1.146000000000000796,0.054929616980387633
1.147000000000000908,0.054967099546944141
1.148000000000000798,0.055001351632059062
1.149000000000000909,0.055032403023737998
1.150000000000000799,0.055060283342514851
1.151000000000000689,0.055085022041826900
1.152000000000000801,0.055106648408406803
1.153000000000000913,0.055125191562674300
1.154000000000000803,0.055140680459140071
1.155000000000000693,0.055153143886808496
1.156000000000000805,0.055162610469580507
1.157000000000000917,0.055169108666682141
1.158000000000000806,0.055172666773070624
1.159000000000000696,0.055173312919869176
1.160000000000000808,0.055171075074795482
1.161000000000000920,0.055165981042591607
1.162000000000000810,0.055158058465466106
1.163000000000000700,0.055147334823539361
1.164000000000000812,0.055133837435288567
1.165000000000000924,0.055117593458006750
1.166000000000000814,0.055098629888249019
1.167000000000000703,0.055076973562304746
1.168000000000000815,0.055052651156652324
1.169000000000000927,0.055025689188438864
1.170000000000000817,0.054996114015942531
1.171000000000000707,0.054963951839060200
1.172000000000000819,0.054929228699774513
1.173000000000000931,0.054891970482649800
1.174000000000000821,0.054852202915315430
1.175000000000000711,0.054809951568954754
1.176000000000000822,0.054765241858798983
1.177000000000000934,0.054718099044630278
1.178000000000000824,0.054668548231274948
1.179000000000000714,0.054616614369115891
1.180000000000000826,0.054562322254588166
1.181000000000000938,0.054505696530700275
1.182000000000000828,0.054446761687539480
1.183000000000000718,0.054385542062786993
1.184000000000000830,0.054322061842239353
1.185000000000000941,0.054256345060331432
1.186000000000000831,0.054188415600649464
1.187000000000000721,0.054118297196469524
1.188000000000000833,0.054046013431274818
1.189000000000000945,0.053971587739291803
1.190000000000000835,0.053895043406019180
1.191000000000000725,0.053816403568772854
1.192000000000000837,0.053735691217201807
1.193000000000000949,0.053652929193853713
1.194000000000000838,0.053568140194692158
1.195000000000000728,0.053481346769655679
1.196000000000000840,0.053392571323194429
1.197000000000000952,0.053301836114815801
1.198000000000000842,0.053209163259640688
1.199000000000000732,0.053114574728938699
1.200000000000000844,0.053018092350700520
1.201000000000000956,0.052919737810169051
1.202000000000000846,0.052819532650408382
1.203000000000000735,0.052717498272851181
1.204000000000000847,0.052613655937866002
1.205000000000000959,0.052508026765298754
1.206000000000000849,0.052400631735049365
1.207000000000000739,0.052291491687624737
1.208000000000000851,0.052180627324698678
1.209000000000000963,0.052068059209680405
1.210000000000000853,0.051953807768270813
1.211000000000000743,0.051837893289037748
1.212000000000000854,0.051720335923970004
1.213000000000000966,0.051601155689055912
1.214000000000000856,0.051480372464836520
1.215000000000000746,0.051358005996990030
1.216000000000000858,0.051234075896883481
1.217000000000000970,0.051108601642157650
1.218000000000000860,0.050981602577286858
1.219000000000000750,0.050853097914153003
1.220000000000000862,0.050723106732614265
1.221000000000000973,0.050591647981082954
1.222000000000000863,0.050458740477087330
1.223000000000000753,0.050324402907853970
1.224000000000000865,0.050188653830872634
1.225000000000000977,0.050051511674471014
1.226000000000000867,0.049912994738390913
1.227000000000000757,0.049773121194356715
1.228000000000000869,0.049631909086655823
1.229000000000000981,0.049489376332696670
1.230000000000000870,0.049345540723604739
1.231000000000000760,0.049200419924777132
1.232000000000000872,0.049054031476457517
1.233000000000000984,0.048906392794328277
1.234000000000000874,0.048757521170055627
1.235000000000000764,0.048607433771885894
1.236000000000000876,0.048456147645205075
1.237000000000000988,0.048303679713119531
1.238000000000000878,0.048150046777018597
1.239000000000000767,0.047995265517159824
1.240000000000000879,0.047839352493227967
1.241000000000000991,0.047682324144915127
1.242000000000000881,0.047524196792488496
1.243000000000000771,0.047364986637360065
1.244000000000000883,0.047204709762659960
1.245000000000000995,0.047043382133802041
1.246000000000000885,0.046881019599054601
1.247000000000000774,0.046717637890112032
1.248000000000000886,0.046553252622658740
1.249000000000000998,0.046387879296938730
1.250000000000000888,0.046221533298318303
1.251000000000000778,0.046054229897859567
1.252000000000000890,0.045885984252878001
1.253000000000001002,0.045716811407516079
1.254000000000000892,0.045546726293294718
1.255000000000000782,0.045375743729687626
1.256000000000000894,0.045203878424680231
1.257000000000001005,0.045031144975326988
1.258000000000000895,0.044857557868316265
1.259000000000000785,0.044683131480530013
1.260000000000000897,0.044507880079601041
1.261000000000001009,0.044331817824468558
1.262000000000000899,0.044154958765942484
1.263000000000000789,0.043977316847251272
1.264000000000000901,0.043798905904599360
1.265000000000001013,0.043619739667725463
1.266000000000000902,0.043439831760447814
1.267000000000000792,0.043259195701221463
1.268000000000000904,0.043077844903687532
1.269000000000001016,0.042895792677221482
1.270000000000000906,0.042713052227481368
1.271000000000000796,0.042529636656956839
1.272000000000000908,0.042345558965515971
1.273000000000001020,0.042160832050945098
1.274000000000000909,0.041975468709498052
1.275000000000000799,0.041789481636437600
1.276000000000000911,0.041602883426570023
1.277000000000001023,0.041415686574795947
1.278000000000000913,0.041227903476641230
1.279000000000000803,0.041039546428795128
1.280000000000000915,0.040850627629644462
1.281000000000001027,0.040661159179818974
1.282000000000000917,0.040471153082709599
1.283000000000000806,0.040280621245011541
1.284000000000000918,0.040089575477246571
1.285000000000001030,0.039898027494301026
1.286000000000000920,0.039705988915944269
1.287000000000000810,0.039513471267363612
1.288000000000000922,0.039320485979679597
1.289000000000001034,0.039127044390478469
1.290000000000000924,0.038933157744332168
1.291000000000000814,0.038738837193309394
1.292000000000000925,0.038544093797512211
1.293000000000001037,0.038348938525573084
1.294000000000000927,0.038153382255186191
1.295000000000000817,0.037957435773616842
1.296000000000000929,0.037761109778211101
1.297000000000001041,0.037564414876913518
1.298000000000000931,0.037367361588769833
1.299000000000000821,0.037169960344438521
1.300000000000000933,0.036972221486700041
1.301000000000001044,0.036774155270955851
1.302000000000000934,0.036575771865738141
1.303000000000000824,0.036377081353202396
1.304000000000000936,0.036178093729641647
1.305000000000001048,0.035978818905969524
1.306000000000000938,0.035779266708225219
1.307000000000000828,0.035579446878070721
1.308000000000000940,0.035379369073280743
1.309000000000001052,0.035179042868229780
1.310000000000000941,0.034978477754392598
1.311000000000000831,0.034777683140823905
1.312000000000000943,0.034576668354656011
1.313000000000001055,0.034375442641565293
1.314000000000000945,0.034174015166274420
1.315000000000000835,0.033972395013025437
1.316000000000000947,0.033770591186060059
1.317000000000001059,0.033568612610095763
1.318000000000000949,0.033366468130812420
1.319000000000000838,0.033164166515309748
1.320000000000000950,0.032961716452596601
1.321000000000001062,0.032759126554055620
1.322000000000000952,0.032556405353909787
1.323000000000000842,0.032353561309696265
1.324000000000000954,0.032150602802727149
1.325000000000001066,0.031947538138558981
1.326000000000000956,0.031744375547447766
1.327000000000000846,0.031541123184818103
1.328000000000000957,0.031337789131714103
1.329000000000001069,0.031134381395265653
1.330000000000000959,0.030930907909131521
1.331000000000000849,0.030727376533963534
1.332000000000000961,0.030523795057855695
1.333000000000001073,0.030320171196793106
1.334000000000000963,0.030116512595095603
1.335000000000000853,0.029912826825873338
1.336000000000000965,0.029709121391463374
1.337000000000001076,0.029505403723876007
1.338000000000000966,0.029301681185237006
1.339000000000000856,0.029097961068221073
1.340000000000000968,0.028894250596495759
1.341000000000001080,0.028690556925153671
1.342000000000000970,0.028486887141146132
1.343000000000000860,0.028283248263714728
1.344000000000000972,0.028079647244823990
1.345000000000001084,0.027876090969583128
1.346000000000000973,0.027672586256681186
1.347000000000000863,0.027469139858804049
1.348000000000000975,0.027265758463064359
1.349000000000001087,0.027062448691414737
1.350000000000000977,0.026859217101071219
1.351000000000000867,0.026656070184927542
1.352000000000000979,0.026453014371980398
1.353000000000001091,0.026250056027727221
1.354000000000000981,0.026047201454588099
1.355000000000000870,0.025844456892317309
1.356000000000000982,0.025641828518404481
1.357000000000001094,0.025439322448483785
1.358000000000000984,0.025236944736741467
1.359000000000000874,0.025034701376314590
1.360000000000000986,0.024832598299695165
1.361000000000001098,0.024630641379120986
1.362000000000000988,0.024428836426987503
1.363000000000000878,0.024227189196230989
1.364000000000000989,0.024025705380720255
1.365000000000001101,0.023824390615664447
1.366000000000000991,0.023623250477985192
1.367000000000000881,0.023422290486714535
1.368000000000000993,0.023221516103376853
1.369000000000001105,0.023020932732376636
1.370000000000000995,0.022820545721379582
1.371000000000000885,0.022620360361693230
1.372000000000000997,0.022420381888647554
1.373000000000001108,0.022220615481964506
1.374000000000000998,0.022021066266152793
1.375000000000000888,0.021821739310855962
1.376000000000001000,0.021622639631242689
1.377000000000001112,0.021423772188371444
1.378000000000001002,0.021225141889557073
1.379000000000000892,0.021026753588738855
1.380000000000001004,0.020828612086847855
1.381000000000001116,0.020630722132160266
1.382000000000001005,0.020433088420671867
1.383000000000000895,0.020235715596448919
1.384000000000001007,0.020038608251986591
1.385000000000001119,0.019841770928567027
1.386000000000001009,0.019645208116609712
1.387000000000000899,0.019448924256034079
1.388000000000001011,0.019252923736588649
1.389000000000001123,0.019057210898226512
1.390000000000001013,0.018861790031432214
1.391000000000000902,0.018666665377576559
1.392000000000001014,0.018471841129257476
1.393000000000001126,0.018277321430641782
1.394000000000001016,0.018083110377803528
1.395000000000000906,0.017889212019065601
1.396000000000001018,0.017695630355337427
1.397000000000001130,0.017502369340443226
1.398000000000001020,0.017309432881460633
1.399000000000000909,0.017116824839051577
1.400000000000001021,0.016924549027790559
1.401000000000001133,0.016732609216491265
1.402000000000001023,0.016541009128537128
1.403000000000000913,0.016349752442203984
1.404000000000001025,0.016158842790979309
1.405000000000001137,0.015968283763889136
1.406000000000001027,0.015778078905815528
1.407000000000000917,0.015588231717807887
1.408000000000001029,0.015398745657413468
1.409000000000001140,0.015209624138976563
1.410000000000001030,0.015020870533960836
1.411000000000000920,0.014832488171257652
1.412000000000001032,0.014644480337494766
1.413000000000001144,0.014456850277343886
1.414000000000001034,0.014269601193829284
1.415000000000000924,0.014082736248632047
1.416000000000001036,0.013896258562386332
1.417000000000001148,0.013710171214988826
1.418000000000001037,0.013524477245896527
1.419000000000000927,0.013339179654421367
1.420000000000001039,0.013154281400030516
1.421000000000001151,0.012969785402634937
1.422000000000001041,0.012785694542891562
1.423000000000000931,0.012602011662486210
1.424000000000001043,0.012418739564428505
1.425000000000001155,0.012235881013338872
1.426000000000001044,0.012053438735733942
1.427000000000000934,0.011871415420311917
1.428000000000001046,0.011689813718237654
1.429000000000001158,0.011508636243426356
1.430000000000001048,0.011327885572815726
1.431000000000000938,0.011147564246655110
1.432000000000001050,0.010967674768775092
1.433000000000001162,0.010788219606865646
1.434000000000001052,0.010609201192753343
1.435000000000000941,0.010430621922666521
1.436000000000001053,0.010252484157514299
1.437000000000001165,0.010074790223153560
1.438000000000001055,0.009897542410650587
1.439000000000000945,0.009720742976556829
1.440000000000001057,0.009544394143167026
1.441000000000001169,0.009368498098789913
1.442000000000001059,0.009193056998001799
1.443000000000000949,0.009018072961909389
1.444000000000001060,0.008843548078411829
1.445000000000001172,0.008669484402458457
1.446000000000001062,0.008495883956295521
1.447000000000000952,0.008322748729734668
1.448000000000001064,0.008150080680394472
1.449000000000001176,0.007977881733954367
1.450000000000001066,0.007806153784411546
1.451000000000000956,0.007634898694320265
1.452000000000001068,0.007464118295043756
1.453000000000001180,0.007293814386998545
1.454000000000001069,0.007123988739901622
1.455000000000000959,0.006954643093006234
1.456000000000001071,0.006785779155352696
1.457000000000001183,0.006617398605998409
1.458000000000001073,0.006449503094262840
1.459000000000000963,0.006282094239964194
1.460000000000001075,0.006115173633653127
1.461000000000001187,0.005948742836848891
1.462000000000001076,0.005782803382265654
1.463000000000000966,0.005617356774055436
1.464000000000001078,0.005452404488029979
1.465000000000001190,0.005287947971888808
1.466000000000001080,0.005123988645453490
1.467000000000000970,0.004960527900886735
1.468000000000001082,0.004797567102918394
1.469000000000001194,0.004635107589073982
1.470000000000001084,0.004473150669889568
1.471000000000000973,0.004311697629136324
1.472000000000001085,0.004150749724035761
1.473000000000001197,0.003990308185485053
1.474000000000001087,0.003830374218264419
1.475000000000000977,0.003670949001261985
1.476000000000001089,0.003512033687678652
1.477000000000001201,0.003353629405244286
1.478000000000001091,0.003195737256432646
1.479000000000000981,0.003038358318665313
1.480000000000001092,0.002881493644525209
1.481000000000001204,0.002725144261960980
1.482000000000001094,0.002569311174494125
1.483000000000000984,0.002413995361421512
1.484000000000001096,0.002259197778025033
1.485000000000001208,0.002104919355769688
1.486000000000001098,0.001951161002501572
1.487000000000000988,0.001797923602654752
1.488000000000001100,0.001645208017445906
1.489000000000001211,0.001493015085070183
1.490000000000001101,0.001341345620899674
1.491000000000000991,0.001190200417679380
1.492000000000001103,0.001039580245716197
1.493000000000001215,0.000889485853074471
1.494000000000001105,0.000739917965770630
1.495000000000000995,0.000590877287955266
1.496000000000001107,0.000442364502107790
1.497000000000001219,0.000294380269221952
1.498000000000001108,0.000146925228991761
1.499000000000000998,0.000000000000000000
