# SS304-111_CYSSCA-JS
# h[nm],U(h)[kJ/mol]
0.149999999999999994,68.968711600100633063
0.150999999999999995,68.999546551675095429
0.151999999999999996,66.008025872704251924
0.152999999999999997,62.389310431789716915
0.153999999999999998,59.075237100980437788
0.154999999999999999,56.277445706680268245
0.156000000000000000,53.903747239103211086
0.157000000000000001,51.776058923618371921
0.158000000000000002,49.732116720311204006
0.159000000000000002,47.662516947943103673
0.160000000000000003,45.514530786838079734
0.161000000000000004,43.281165106919893049
0.162000000000000005,40.985749934314235077
0.163000000000000006,38.667296218250392315
0.164000000000000007,36.368883918369306230
0.165000000000000008,34.129665910101259385
0.166000000000000009,31.980212257750149973
0.167000000000000010,29.940546696161543849
0.168000000000000010,28.020132961820600315
0.169000000000000011,26.219120863291003332
0.170000000000000012,24.530280120226542806
0.171000000000000013,22.941187063890680520
0.172000000000000014,21.436359771774185390
0.173000000000000015,19.999148925629334883
0.174000000000000016,18.613280421342029314
0.175000000000000017,17.264011792379672983
0.176000000000000018,15.938910393614838412
0.177000000000000018,14.628290524297216990
0.178000000000000019,13.325362893133853248
0.179000000000000020,12.026156414044896437
0.180000000000000021,10.729272161582390055
0.181000000000000022,9.435524764919467344
0.182000000000000023,8.147519409884420583
0.183000000000000024,6.869204312859348072
0.184000000000000025,5.605429996088210132
0.185000000000000026,4.361538578584493564
0.186000000000000026,3.142998998559713542
0.187000000000000027,1.955097812983685568
0.188000000000000028,0.802690053182934404
0.189000000000000029,-0.309989465163514111
0.190000000000000030,-1.379457051232138465
0.191000000000000031,-2.403058117088625156
0.192000000000000032,-3.378998483592693169
0.193000000000000033,-4.306336049081457062
0.194000000000000034,-5.184940126015645134
0.195000000000000034,-6.015425632906319819
0.196000000000000035,-6.799068926659020740
0.197000000000000036,-7.537711462923819106
0.198000000000000037,-8.233656753099612757
0.199000000000000038,-8.889565306067224171
0.200000000000000039,-9.508351447299450143
0.201000000000000040,-10.093085133025294198
0.202000000000000041,-10.646901148060525344
0.203000000000000042,-11.172917409937287658
0.204000000000000042,-11.674163509499987157
0.205000000000000043,-12.153520104216660513
0.206000000000000044,-12.613669345959511503
0.207000000000000045,-13.057056167680372027
0.208000000000000046,-13.485859968770506967
0.209000000000000047,-13.901976020967969916
0.210000000000000048,-14.307005758582409527
0.211000000000000049,-14.702255011229137693
0.212000000000000050,-15.088739176820018528
0.213000000000000050,-15.467194310056134654
0.214000000000000051,-15.838093110313547385
0.215000000000000052,-16.201664826329533753
0.216000000000000053,-16.557918147806734765
0.217000000000000054,-16.906666220918456389
0.218000000000000055,-17.247553001327744937
0.219000000000000056,-17.580080240966744043
0.220000000000000057,-17.903634490304646931
0.221000000000000058,-18.217513583560027257
0.222000000000000058,-18.520952158202483417
0.223000000000000059,-18.813145840502738082
0.224000000000000060,-19.093273804604276478
0.225000000000000061,-19.360519482724932061
0.226000000000000062,-19.614089268074078376
0.227000000000000063,-19.853229109566207455
0.228000000000000064,-20.077238948305428323
0.229000000000000065,-20.285484990162085950
0.230000000000000066,-20.477409846744709654
0.231000000000000066,-20.652540608979769843
0.232000000000000067,-20.810494943709723970
0.233000000000000068,-20.950985324626088868
0.234000000000000069,-21.073821524918372461
0.235000000000000070,-21.178911510710079824
0.236000000000000071,-21.266260882142006494
0.237000000000000072,-21.335971013316619604
0.238000000000000073,-21.388236043685658672
0.239000000000000073,-21.423338872276200817
0.240000000000000074,-21.441646302813435199
0.241000000000000075,-21.443603482684419959
0.242000000000000076,-21.429727772142619813
0.243000000000000077,-21.400602172489481489
0.244000000000000078,-21.356868433468598312
0.245000000000000079,-21.299219951018653063
0.246000000000000080,-21.228394557074246052
0.247000000000000081,-21.145167293468524861
0.248000000000000081,-21.050343252341995992
0.249000000000000082,-20.944750555936582970
0.250000000000000111,-20.829233539368374295
0.251000000000000112,-20.704646191018710510
0.252000000000000113,-20.571845896639068485
0.253000000000000114,-20.431687525184241139
0.254000000000000115,-20.285017886816994803
0.255000000000000115,-20.132670586490839071
0.256000000000000116,-19.975461290035948281
0.257000000000000117,-19.814183413751997875
0.258000000000000118,-19.649604243150324834
0.259000000000000119,-19.482461481677400883
0.260000000000000120,-19.313460225978353435
0.261000000000000121,-19.143270360503226613
0.262000000000000122,-18.972524360997628179
0.263000000000000123,-18.801815493627128006
0.264000000000000123,-18.631696394133719252
0.265000000000000124,-18.462678009482573316
0.266000000000000125,-18.295228882900222089
0.267000000000000126,-18.129774761997559551
0.268000000000000127,-17.966698508785775346
0.269000000000000128,-17.806340289797848442
0.270000000000000129,-17.648998024195812206
0.271000000000000130,-17.494928067644146097
0.272000000000000131,-17.344346109838546965
0.273000000000000131,-17.197428263868012266
0.274000000000000132,-17.054312326035891090
0.275000000000000133,-16.915099185347010291
0.276000000000000134,-16.779854362564034176
0.277000000000000135,-16.648609659526407256
0.278000000000000136,-16.521364900291967359
0.279000000000000137,-16.398089746588052407
0.280000000000000138,-16.278725571031209540
0.281000000000000139,-16.163187372578228462
0.282000000000000139,-16.051365719694963730
0.283000000000000140,-15.943128707761720975
0.284000000000000141,-15.838323918265933443
0.285000000000000142,-15.736780368355999471
0.286000000000000143,-15.638310440336795182
0.287000000000000144,-15.542711781671934901
0.288000000000000145,-15.449769167014869353
0.289000000000000146,-15.359256314715455716
0.290000000000000147,-15.270937651138050128
0.291000000000000147,-15.184570016977527729
0.292000000000000148,-15.099904310569808530
0.293000000000000149,-15.016687063960750592
0.294000000000000150,-14.934661948221201300
0.295000000000000151,-14.853571205176161030
0.296000000000000152,-14.773157003351226280
0.297000000000000153,-14.693162716531077194
0.298000000000000154,-14.613334123872345316
0.299000000000000155,-14.533420531018023780
0.300000000000000155,-14.453175812123230770
0.301000000000000156,-14.372359373124364623
0.302000000000000157,-14.290737036965964535
0.303000000000000158,-14.208081851844564625
0.304000000000000159,-14.124174823836980863
0.305000000000000160,-14.038805575553897853
0.306000000000000161,-13.951772932700610141
0.307000000000000162,-13.862885440635931644
0.308000000000000163,-13.771961813200286784
0.309000000000000163,-13.678831316236578886
0.310000000000000164,-13.583334088353709035
0.311000000000000165,-13.485321401584977608
0.312000000000000166,-13.384655864673808523
0.313000000000000167,-13.281211571778339220
0.314000000000000168,-13.174874199426586330
0.315000000000000169,-13.065541054576755187
0.316000000000000170,-12.953121076643904885
0.317000000000000171,-12.837534796346442789
0.318000000000000171,-12.718714254205050196
0.319000000000000172,-12.596602881493938142
0.320000000000000173,-12.471155346401351593
0.321000000000000174,-12.342337368103496686
0.322000000000000175,-12.210125501395632241
0.323000000000000176,-12.074506894456181527
0.324000000000000177,-11.935479022245814917
0.325000000000000178,-11.793049397964228575
0.326000000000000179,-11.647235264904120200
0.327000000000000179,-11.498063270954551385
0.328000000000000180,-11.345569127916093066
0.329000000000000181,-11.189797257698685939
0.330000000000000182,-11.030800427378764539
0.331000000000000183,-10.868639374998883440
0.332000000000000184,-10.703382427897468077
0.333000000000000185,-10.535105115262144437
0.334000000000000186,-10.363889776505635254
0.335000000000000187,-10.189825166969905368
0.336000000000000187,-10.013006062372280525
0.337000000000000188,-9.833532863316417405
0.338000000000000189,-9.651511201102490389
0.339000000000000190,-9.467051545983895977
0.340000000000000191,-9.280268818933285146
0.341000000000000192,-9.091282007898879414
0.342000000000000193,-8.900213789451603574
0.343000000000000194,-8.707190156647547141
0.344000000000000195,-8.512340053855107058
0.345000000000000195,-8.315795019225369344
0.346000000000000196,-8.117688835415405535
0.347000000000000197,-7.918157189108457672
0.348000000000000198,-7.717337339812561758
0.349000000000000199,-7.515367798358932205
0.350000000000000200,-7.312388015465012714
0.351000000000000201,-7.108538080672606618
0.352000000000000202,-6.903958431920915295
0.353000000000000203,-6.698789575965705012
0.354000000000000203,-6.493171819810358514
0.355000000000000204,-6.287245013271994587
0.356000000000000205,-6.081148302765589264
0.357000000000000206,-5.875019896351541426
0.358000000000000207,-5.668996840057179298
0.359000000000000208,-5.463214805450292921
0.360000000000000209,-5.257807888412347808
0.361000000000000210,-5.052908419031542309
0.362000000000000210,-4.848646782509817399
0.363000000000000211,-4.645151250954746125
0.364000000000000212,-4.442547825905529990
0.365000000000000213,-4.240960091422752321
0.366000000000000214,-4.040509077554036210
0.367000000000000215,-3.841313133971655525
0.368000000000000216,-3.643487813564004973
0.369000000000000217,-3.447145765750280866
0.370000000000000218,-3.252396639276578405
0.371000000000000218,-3.059346994241959994
0.372000000000000219,-2.868100223094879997
0.373000000000000220,-2.678756480333213119
0.374000000000000221,-2.491412620635636621
0.375000000000000222,-2.306162145147185871
0.376000000000000223,-2.123095155638405451
0.377000000000000224,-1.942298316254988277
0.378000000000000225,-1.763854822573108105
0.379000000000000226,-1.587844377674893170
0.380000000000000226,-1.414343174958564209
0.381000000000000227,-1.243423887398522387
0.382000000000000228,-1.075155662972181236
0.383000000000000229,-0.909604125972502175
0.384000000000000230,-0.746831383927666792
0.385000000000000231,-0.586896039852898621
0.386000000000000232,-0.429853209562857941
0.387000000000000233,-0.275754543777266825
0.388000000000000234,-0.124648254757035865
0.389000000000000234,0.023420852786992508
0.390000000000000235,0.168411346765486247
0.391000000000000236,0.310285129009223448
0.392000000000000237,0.449007393036618130
0.393000000000000238,0.584546578525434013
0.394000000000000239,0.716874322718291546
0.395000000000000240,0.845965408985034584
0.396000000000000241,0.971797712758741383
0.397000000000000242,1.094352145055683456
0.398000000000000242,1.213612593782886107
0.399000000000000243,1.329565863030379047
0.400000000000000244,1.442201610538806023
0.401000000000000245,1.551512283525803504
0.402000000000000246,1.657493053048595844
0.403000000000000247,1.760141747073252549
0.404000000000000248,1.859458782414402211
0.405000000000000249,1.955447095702887550
0.406000000000000250,2.048112073532160515
0.407000000000000250,2.137461481927905194
0.408000000000000251,2.223505395279075092
0.409000000000000252,2.306256124862095191
0.410000000000000253,2.385728147084205997
0.411000000000000254,2.461938031565479967
0.412000000000000255,2.534904369173504257
0.413000000000000256,2.604647700118660758
0.414000000000000257,2.671190442212486360
0.415000000000000258,2.734556819385879578
0.416000000000000258,2.794772790558698539
0.417000000000000259,2.851865978946888980
0.418000000000000260,2.905865601888259597
0.419000000000000261,2.956802401263078917
0.420000000000000262,3.004708574580668756
0.421000000000000263,3.049617706798704475
0.422000000000000264,3.091564702937225739
0.423000000000000265,3.130585721545129818
0.424000000000000266,3.166718109072428788
0.425000000000000266,3.200000335197748846
0.426000000000000267,3.230471929156401245
0.427000000000000268,3.258173417110547199
0.428000000000000269,3.283146260599418831
0.429000000000000270,3.305432796103963344
0.430000000000000271,3.325076175756809249
0.431000000000000272,3.342120309225406150
0.432000000000000273,3.356609806792835826
0.433000000000000274,3.368589923658007912
0.434000000000000274,3.378106505473921661
0.435000000000000275,3.385205935140116029
0.436000000000000276,3.389935080862698236
0.437000000000000277,3.392341245492920709
0.438000000000000278,3.392472117152885325
0.439000000000000279,3.390375721154769817
0.440000000000000280,3.386100373217707293
0.441000000000000281,3.379694633984639207
0.442000000000000282,3.371207264839268358
0.443000000000000282,3.360687185021739687
0.444000000000000283,3.348183430039669783
0.445000000000000284,3.333745111369754710
0.446000000000000285,3.317421377443602104
0.447000000000000286,3.299261375909920080
0.448000000000000287,3.279314217164014167
0.449000000000000288,3.257628939134194379
0.450000000000000289,3.234254473313512790
0.451000000000000290,3.209239612024276767
0.452000000000000290,3.182632976901664801
0.453000000000000291,3.154482988581876146
0.454000000000000292,3.124837837579397259
0.455000000000000293,3.093745456337157140
0.456000000000000294,3.061253492432603807
0.457000000000000295,3.027409282922159939
0.458000000000000296,2.992259829805686167
0.459000000000000297,2.955851776592398839
0.460000000000000298,2.918231385948734324
0.461000000000000298,2.879444518408755815
0.462000000000000299,2.839536612126732251
0.463000000000000300,2.798552663651699302
0.464000000000000301,2.756537209703158631
0.465000000000000302,2.713534309927058796
0.466000000000000303,2.669587530610759707
0.467000000000000304,2.624739929335832223
0.468000000000000305,2.579034040547061757
0.469000000000000306,2.532511862016196602
0.470000000000000306,2.485214842178872008
0.471000000000000307,2.437183868322928326
0.472000000000000308,2.388459255606634191
0.473000000000000309,2.339080736885128520
0.474000000000000310,2.289087453323610966
0.475000000000000311,2.238517945775637230
0.476000000000000312,2.187410146905488073
0.477000000000000313,2.135801374033013733
0.478000000000000314,2.083728322680161504
0.479000000000000314,2.031227060798133977
0.480000000000000315,1.978333023654501588
0.481000000000000316,1.925081009359748352
0.482000000000000317,1.871505175012940558
0.483000000000000318,1.817639033446478702
0.484000000000000319,1.763515450550083852
0.485000000000000320,1.709166643154478304
0.486000000000000321,1.654624177455470857
0.487000000000000322,1.599918967959430338
0.488000000000000322,1.545081276931390857
0.489000000000000323,1.490140714327476745
0.490000000000000324,1.435126238193377146
0.491000000000000325,1.380066155511180837
0.492000000000000326,1.324988123476993573
0.493000000000000327,1.269919151192270057
0.494000000000000328,1.214885601751883870
0.495000000000000329,1.159913194712559603
0.496000000000000330,1.105027008925363097
0.497000000000000330,1.050251485716516608
0.498000000000000331,0.995610432400885537
0.499000000000000332,0.941127026113184550
0.500000000000000333,0.886823817941836068
0.501000000000000334,0.832722737351124898
0.502000000000000335,0.778845096877472720
0.503000000000000336,0.725211597086035331
0.504000000000000337,0.671842331774079371
0.505000000000000338,0.618756793408081318
0.506000000000000338,0.565973878781706463
0.507000000000000339,0.513511894882168418
0.508000000000000340,0.461388564952872282
0.509000000000000341,0.409621034740547618
0.510000000000000342,0.358225878915291951
0.511000000000000343,0.307219107652455858
0.512000000000000344,0.256616173365446287
0.513000000000000345,0.206431977578994591
0.514000000000000346,0.156680877932563023
0.515000000000000346,0.107376695304086084
0.516000000000000347,0.058532721044342081
0.517000000000000348,0.010161724312714549
0.518000000000000349,-0.037724040494758533
0.519000000000000350,-0.085112826233644787
0.520000000000000351,-0.131993385424317072
0.521000000000000352,-0.178354962598057221
0.522000000000000353,-0.224187286584082462
0.523000000000000353,-0.269480562745095520
0.524000000000000354,-0.314225465168615048
0.525000000000000355,-0.358413128821326921
0.526000000000000356,-0.402035141673133201
0.527000000000000357,-0.445083536797566626
0.528000000000000358,-0.487550784454963970
0.529000000000000359,-0.529429784164280437
0.530000000000000360,-0.570713856769666572
0.531000000000000361,-0.611396736507233585
0.532000000000000361,-0.651472563077535205
0.533000000000000362,-0.690935873728840910
0.534000000000000363,-0.729781595356272073
0.535000000000000364,-0.768005036621476123
0.536000000000000365,-0.805601880097428946
0.537000000000000366,-0.842568174442688167
0.538000000000000367,-0.878900326609288074
0.539000000000000368,-0.914595094088187066
0.540000000000000369,-0.949649577196110206
0.541000000000000369,-0.984061211407305292
0.542000000000000370,-1.017827759733707316
0.543000000000000371,-1.050947305156708200
0.544000000000000372,-1.083418243113644763
0.545000000000000373,-1.115239274041889939
0.546000000000000374,-1.146409395983362334
0.547000000000000375,-1.176927897252007860
0.548000000000000376,-1.206794349166755875
0.549000000000000377,-1.236008598852228690
0.550000000000000377,-1.264570762109427537
0.551000000000000378,-1.292481216358390750
0.552000000000000379,-1.319740593654753713
0.553000000000000380,-1.346349773781997383
0.554000000000000381,-1.372309877421032054
0.555000000000000382,-1.397622259398656475
0.556000000000000383,-1.422288502016326062
0.557000000000000384,-1.446310408460519170
0.558000000000000385,-1.469689996295925338
0.559000000000000385,-1.492429491042561285
0.560000000000000386,-1.514531319837756129
0.561000000000000387,-1.535998105183989049
0.562000000000000388,-1.556832658783314782
0.563000000000000389,-1.577037975459138819
0.564000000000000390,-1.596617227165926689
0.565000000000000391,-1.615573757087436446
0.566000000000000392,-1.633911073823914872
0.567000000000000393,-1.651632845668624228
0.568000000000000393,-1.668742894974040381
0.569000000000000394,-1.685245192607953246
0.570000000000000395,-1.701143852499618747
0.571000000000000396,-1.716443126276080644
0.572000000000000397,-1.731147397988695547
0.573000000000000398,-1.745261178929859325
0.574000000000000399,-1.758789102539786597
0.575000000000000400,-1.771735919403309323
0.576000000000000401,-1.784106492336399841
0.577000000000000401,-1.795905791562248499
0.578000000000000402,-1.807138889976571905
0.579000000000000403,-1.817810958501823837
0.580000000000000404,-1.827927261529910030
0.581000000000000405,-1.837493152453016920
0.582000000000000406,-1.846514069282054082
0.583000000000000407,-1.854995530352213873
0.584000000000000408,-1.862943130115146229
0.585000000000000409,-1.870362535017099148
0.586000000000000409,-1.877259479462502156
0.587000000000000410,-1.883639761862301087
0.588000000000000411,-1.889509240766380938
0.589000000000000412,-1.894873831079420201
0.590000000000000413,-1.899739500359402866
0.591000000000000414,-1.904112265198088849
0.592000000000000415,-1.907998187682657942
0.593000000000000416,-1.911403371937720364
0.594000000000000417,-1.914333960746940289
0.595000000000000417,-1.916796132253363094
0.596000000000000418,-1.918796096737688028
0.597000000000000419,-1.920340093473569709
0.598000000000000420,-1.921434387659092469
0.599000000000000421,-1.922085267423525368
0.600000000000000422,-1.922299040908469703
0.601000000000000423,-1.922082033422463310
0.602000000000000424,-1.921440584668137941
0.603000000000000425,-1.920381046041014672
0.604000000000000425,-1.918909777998937916
0.605000000000000426,-1.917033147501276291
0.606000000000000427,-1.914757525516884940
0.607000000000000428,-1.912089284599894912
0.608000000000000429,-1.909034796532356637
0.609000000000000430,-1.905600430032772241
0.610000000000000431,-1.901792548529566584
0.611000000000000432,-1.897617507998482278
0.612000000000000433,-1.893081654862967866
0.613000000000000433,-1.888191323956573964
0.614000000000000434,-1.882952836546369468
0.615000000000000435,-1.877372498416394864
0.616000000000000436,-1.871456598010245997
0.617000000000000437,-1.865211404631722969
0.618000000000000438,-1.858643166702642846
0.619000000000000439,-1.851758110076829000
0.620000000000000440,-1.844562436409309614
0.621000000000000441,-1.837062321579774560
0.622000000000000441,-1.829263914169339644
0.623000000000000442,-1.821173333989637211
0.624000000000000443,-1.812796670663346488
0.625000000000000444,-1.804139982255171359
0.626000000000000445,-1.795209293952333196
0.627000000000000446,-1.786010596793702110
0.628000000000000447,-1.776549846446589198
0.629000000000000448,-1.766832962030319809
0.630000000000000449,-1.756865824985636593
0.631000000000000449,-1.746654277989104997
0.632000000000000450,-1.736204123911561314
0.633000000000000451,-1.725521124819746177
0.634000000000000452,-1.714611001020263759
0.635000000000000453,-1.703479430144933415
0.636000000000000454,-1.692132046276782820
0.637000000000000455,-1.680574439115714913
0.638000000000000456,-1.668812153183090619
0.639000000000000457,-1.656850687064350014
0.640000000000000457,-1.644695492688870830
0.641000000000000458,-1.632351974646222725
0.642000000000000459,-1.619825489538056162
0.643000000000000460,-1.607121345364776799
0.644000000000000461,-1.594244800946262197
0.645000000000000462,-1.581201065375826387
0.646000000000000463,-1.567995297506650010
0.647000000000000464,-1.554632605469958850
0.648000000000000465,-1.541118046224166926
0.649000000000000465,-1.527456625134261170
0.650000000000000466,-1.513653295580712710
0.651000000000000467,-1.499712958597169132
0.652000000000000468,-1.485640462536255146
0.653000000000000469,-1.471440602762736249
0.654000000000000470,-1.457118121373440989
0.655000000000000471,-1.442677706943161775
0.656000000000000472,-1.428123994295951826
0.657000000000000473,-1.413461564301119688
0.658000000000000473,-1.398694943693282289
0.659000000000000474,-1.383828604915858351
0.660000000000000475,-1.368866965987347140
0.661000000000000476,-1.353814390389789235
0.662000000000000477,-1.338675186978823817
0.663000000000000478,-1.323453609914706064
0.664000000000000479,-1.308153858613729348
0.665000000000000480,-1.292780077719466014
0.666000000000000481,-1.277336357093269870
0.667000000000000481,-1.261826731823444403
0.668000000000000482,-1.246255182252589133
0.669000000000000483,-1.230625634022555648
0.670000000000000484,-1.214941958136460887
0.671000000000000485,-1.199207971037291376
0.672000000000000486,-1.183427434702533976
0.673000000000000487,-1.167604056754415698
0.674000000000000488,-1.151741490585130201
0.675000000000000488,-1.135843335496715456
0.676000000000000489,-1.119913136855010372
0.677000000000000490,-1.103954386257257392
0.678000000000000491,-1.087970521712917193
0.679000000000000492,-1.071964927837219417
0.680000000000000493,-1.055940936057016444
0.681000000000000494,-1.039901824828542098
0.682000000000000495,-1.023850819866608308
0.683000000000000496,-1.007791094384880237
0.684000000000000496,-0.991725769346775698
0.685000000000000497,-0.975657913726649006
0.686000000000000498,-0.959590544780809074
0.687000000000000499,-0.943526628328061667
0.688000000000000500,-0.927469079039351718
0.689000000000000501,-0.911420760736162072
0.690000000000000502,-0.895384486697344273
0.691000000000000503,-0.879363019973962934
0.692000000000000504,-0.863359073711892022
0.693000000000000504,-0.847375311481789240
0.694000000000000505,-0.831414347616115768
0.695000000000000506,-0.815478747552930150
0.696000000000000507,-0.799571028186078614
0.697000000000000508,-0.783693658221545575
0.698000000000000509,-0.767849058539642693
0.699000000000000510,-0.752039602562704745
0.700000000000000511,-0.736267616628106358
0.701000000000000512,-0.720535380366208011
0.702000000000000512,-0.704845127083072898
0.703000000000000513,-0.689199044147604911
0.704000000000000514,-0.673599273382899932
0.705000000000000515,-0.658047911461547952
0.706000000000000516,-0.642547010304640898
0.707000000000000517,-0.627098577484236364
0.708000000000000518,-0.611704576629080732
0.709000000000000519,-0.596366927833324678
0.710000000000000520,-0.581087508068028447
0.711000000000000520,-0.565868151595261937
0.712000000000000521,-0.550710650384538480
0.713000000000000522,-0.535616754531446526
0.714000000000000523,-0.520588172678225547
0.715000000000000524,-0.505626572436111421
0.716000000000000525,-0.490733580809289527
0.717000000000000526,-0.475910784620208971
0.718000000000000527,-0.461159730936176071
0.719000000000000528,-0.446481927496939712
0.720000000000000528,-0.431878843143216007
0.721000000000000529,-0.417351908245883307
0.722000000000000530,-0.402902515135784012
0.723000000000000531,-0.388532018533905177
0.724000000000000532,-0.374241735981830081
0.725000000000000533,-0.360032948272306697
0.726000000000000534,-0.345906899879784846
0.727000000000000535,-0.331864799390786669
0.728000000000000536,-0.317907819933996083
0.729000000000000536,-0.304037099609908101
0.730000000000000537,-0.290253741919954900
0.731000000000000538,-0.276558816194928503
0.732000000000000539,-0.262953358022666950
0.733000000000000540,-0.249438369674791993
0.734000000000000541,-0.236014820532487235
0.735000000000000542,-0.222683647511130234
0.736000000000000543,-0.209445755483747831
0.737000000000000544,-0.196302017703109677
0.738000000000000544,-0.183253276222479139
0.739000000000000545,-0.170300342314800263
0.740000000000000546,-0.157443996890357152
0.741000000000000547,-0.144684990912711975
0.742000000000000548,-0.132024045812930924
0.743000000000000549,-0.119461853901948994
0.744000000000000550,-0.106999078781024298
0.745000000000000551,-0.094636355750236850
0.746000000000000552,-0.082374292214895395
0.747000000000000552,-0.070213468089862965
0.748000000000000553,-0.058154436201667992
0.749000000000000554,-0.046197722688361476
0.750000000000000555,-0.034343827397107396
0.751000000000000556,-0.022593224279354517
0.752000000000000557,-0.010946361783623525
0.753000000000000558,0.000596336754191473
0.754000000000000559,0.012034472723042111
0.755000000000000560,0.023367671851519379
0.756000000000000560,0.034595583825252366
0.757000000000000561,0.045717881906984684
0.758000000000000562,0.056734262559338652
0.759000000000000563,0.067644445070316722
0.760000000000000564,0.078448171181590573
0.761000000000000565,0.089145204719591656
0.762000000000000566,0.099735331229464042
0.763000000000000567,0.110218357611859344
0.764000000000000568,0.120594111762678272
0.765000000000000568,0.130862442215719715
0.766000000000000569,0.141023217788292493
0.767000000000000570,0.151076327229818369
0.768000000000000571,0.161021678873432161
0.769000000000000572,0.170859200290622543
0.770000000000000573,0.180588837948889719
0.771000000000000574,0.190210556872506681
0.772000000000000575,0.199724340306324633
0.773000000000000576,0.209130189382705389
0.774000000000000576,0.218428122791533064
0.775000000000000577,0.227618176453360549
0.776000000000000578,0.236700403195703180
0.777000000000000579,0.245674872432431718
0.778000000000000580,0.254541669846361951
0.779000000000000581,0.263300897074965679
0.780000000000000582,0.271952671399270929
0.781000000000000583,0.280497125435893557
0.782000000000000584,0.288934406832285162
0.783000000000000584,0.297264677965113910
0.784000000000000585,0.305488115641837754
0.785000000000000586,0.313604910805457826
0.786000000000000587,0.321615268242430474
0.787000000000000588,0.329519406293760309
0.788000000000000589,0.337317556569273869
0.789000000000000590,0.345009963665032948
0.790000000000000591,0.352596884883948469
0.791000000000000592,0.360078589959506590
0.792000000000000592,0.367455360782697471
0.793000000000000593,0.374727491132039014
0.794000000000000594,0.381895286406780998
0.795000000000000595,0.388959063363208624
0.796000000000000596,0.395919149854091657
0.797000000000000597,0.402775884571213549
0.798000000000000598,0.409529616791037498
0.799000000000000599,0.416180706123439159
0.800000000000000600,0.422729522263517565
0.801000000000000600,0.429176444746497243
0.802000000000000601,0.435521862705646801
0.803000000000000602,0.441766174633273945
0.804000000000000603,0.447909788144727206
0.805000000000000604,0.453953119745417299
0.806000000000000605,0.459896594600839426
0.807000000000000606,0.465740646309564910
0.808000000000000607,0.471485716679231559
0.809000000000000608,0.477132255505448188
0.810000000000000608,0.482680720353657500
0.811000000000000609,0.488131576343912243
0.812000000000000610,0.493485295938558721
0.813000000000000611,0.498742358732789826
0.814000000000000612,0.503903251248077444
0.815000000000000613,0.508968466728438984
0.816000000000000614,0.513938504939554619
0.817000000000000615,0.518813871970667861
0.818000000000000616,0.523595080039296668
0.819000000000000616,0.528282647298711994
0.820000000000000617,0.532877097648160714
0.821000000000000618,0.537378960545833340
0.822000000000000619,0.541788770824534027
0.823000000000000620,0.546107068510038318
0.824000000000000621,0.550334398642136069
0.825000000000000622,0.554471311098319708
0.826000000000000623,0.558518360420093840
0.827000000000000624,0.562476105641903201
0.828000000000000624,0.566345110122633999
0.829000000000000625,0.570125941379711620
0.830000000000000626,0.573819170925702116
0.831000000000000627,0.577425374107467304
0.832000000000000628,0.580945129947804118
0.833000000000000629,0.584379020989576503
0.834000000000000630,0.587727633142293149
0.835000000000000631,0.590991555531122037
0.836000000000000631,0.594171380348327061
0.837000000000000632,0.597267702707084069
0.838000000000000633,0.600281120497682785
0.839000000000000634,0.603212234246046419
0.840000000000000635,0.606061646974608847
0.841000000000000636,0.608829964065475071
0.842000000000000637,0.611517793125861742
0.843000000000000638,0.614125743855803430
0.844000000000000639,0.616654427918080561
0.845000000000000639,0.619104458810383007
0.846000000000000640,0.621476451739638613
0.847000000000000641,0.623771023498527755
0.848000000000000642,0.625988792344128187
0.849000000000000643,0.628130377878710289
0.850000000000000644,0.630196400932589551
0.851000000000000645,0.632187483449112575
0.852000000000000646,0.634104248371649803
0.853000000000000647,0.635947319532658817
0.854000000000000647,0.637717321544734150
0.855000000000000648,0.639414879693673943
0.856000000000000649,0.641040619833485037
0.857000000000000650,0.642595168283363161
0.858000000000000651,0.644079151726581367
0.859000000000000652,0.645493197111282058
0.860000000000000653,0.646837931553161161
0.861000000000000654,0.648113982240001496
0.862000000000000655,0.649321976338040563
0.863000000000000655,0.650462540900178743
0.864000000000000656,0.651536302775953979
0.865000000000000657,0.652543888523303250
0.866000000000000658,0.653485924322091294
0.867000000000000659,0.654363035889340083
0.868000000000000660,0.655175848396199023
0.869000000000000661,0.655924986386592579
0.870000000000000662,0.656611073697534353
0.871000000000000663,0.657234733381098724
0.872000000000000663,0.657796587628012519
0.873000000000000664,0.658297257692870064
0.874000000000000665,0.658737363820912414
0.875000000000000666,0.659117525176400543
0.876000000000000667,0.659438359772516636
0.877000000000000668,0.659700484402800713
0.878000000000000669,0.659904514574103707
0.879000000000000670,0.660051064441017465
0.880000000000000671,0.660140746741774032
0.881000000000000671,0.660174172735605969
0.882000000000000672,0.660151952141532328
0.883000000000000673,0.660074693078549934
0.884000000000000674,0.659943002007229551
0.885000000000000675,0.659757483672671841
0.886000000000000676,0.659518741048840451
0.887000000000000677,0.659227375284199613
0.888000000000000678,0.658883985648714754
0.889000000000000679,0.658489169482107117
0.890000000000000679,0.658043522143429538
0.891000000000000680,0.657547636961875792
0.892000000000000681,0.657002105188863483
0.893000000000000682,0.656407515951330955
0.894000000000000683,0.655764456206249569
0.895000000000000684,0.655073510696329686
0.896000000000000685,0.654335261906908050
0.897000000000000686,0.653550290023997338
0.898000000000000687,0.652719172893456601
0.899000000000000687,0.651842485981337760
0.900000000000000688,0.650920802335285709
0.901000000000000689,0.649954692547076274
0.902000000000000690,0.648944724716208343
0.903000000000000691,0.647891464414560581
0.904000000000000692,0.646795474652106406
0.905000000000000693,0.645657315843648383
0.906000000000000694,0.644477545776566241
0.907000000000000695,0.643256719579572755
0.908000000000000695,0.641995389692440854
0.909000000000000696,0.640694105836713379
0.910000000000000697,0.639353414987355428
0.911000000000000698,0.637973861345350945
0.912000000000000699,0.636555986311220123
0.913000000000000700,0.635100328459443420
0.914000000000000701,0.633607423513798285
0.915000000000000702,0.632077804323548209
0.916000000000000703,0.630512000840522835
0.917000000000000703,0.628910540097032511
0.918000000000000704,0.627273946184644271
0.919000000000000705,0.625602740233751953
0.920000000000000706,0.623897440393987868
0.921000000000000707,0.622158561815410627
0.922000000000000708,0.620386616630498877
0.923000000000000709,0.618582113936891442
0.924000000000000710,0.616745559780911279
0.925000000000000711,0.614877457141817629
0.926000000000000711,0.612978305916806465
0.927000000000000712,0.611048602906713922
0.928000000000000713,0.609088841802446934
0.929000000000000714,0.607099513172101535
0.930000000000000715,0.605081104448765283
0.931000000000000716,0.603034099918995370
0.932000000000000717,0.600958980711938873
0.933000000000000718,0.598856224789153457
0.934000000000000719,0.596726306934995177
0.935000000000000719,0.594569698747687836
0.936000000000000720,0.592386868630979890
0.937000000000000721,0.590178281786413628
0.938000000000000722,0.587944400206188100
0.939000000000000723,0.585685682666599705
0.940000000000000724,0.583402584722054307
0.941000000000000725,0.581095558699645354
0.942000000000000726,0.578765053694278775
0.943000000000000727,0.576411515564331123
0.944000000000000727,0.574035386927853386
0.945000000000000728,0.571637107159275626
0.946000000000000729,0.569217112386636859
0.947000000000000730,0.566775835489307989
0.948000000000000731,0.564313706096199907
0.949000000000000732,0.561831150584462091
0.950000000000000733,0.559328592078652598
0.951000000000000734,0.556806450450350821
0.952000000000000735,0.554265142318257409
0.953000000000000735,0.551705081048698753
0.954000000000000736,0.549126676756597432
0.955000000000000737,0.546530336306854436
0.956000000000000738,0.543916463316147736
0.957000000000000739,0.541285458155136845
0.958000000000000740,0.538637717951091610
0.959000000000000741,0.535973636590866387
0.960000000000000742,0.533293604724309533
0.961000000000000743,0.530598009768012968
0.962000000000000743,0.527887235909433095
0.963000000000000744,0.525161664111392312
0.964000000000000745,0.522421672116905933
0.965000000000000746,0.519667634454367255
0.966000000000000747,0.516899922443066928
0.967000000000000748,0.514118904199039717
0.968000000000000749,0.511324944641232237
0.969000000000000750,0.508518405497986992
0.970000000000000751,0.505699645313826496
0.971000000000000751,0.502869019456548050
0.972000000000000752,0.500026880124605722
0.973000000000000753,0.497173576354770774
0.974000000000000754,0.494309454030089412
0.975000000000000755,0.491434855888091549
0.976000000000000756,0.488550121529286119
0.977000000000000757,0.485655587425894708
0.978000000000000758,0.482751586930866783
0.979000000000000759,0.479838450287103757
0.980000000000000759,0.476916504636955285
0.981000000000000760,0.473986074031947702
0.982000000000000761,0.471047479442712635
0.983000000000000762,0.468101038769169531
0.984000000000000763,0.465147066850919999
0.985000000000000764,0.462185875477824415
0.986000000000000765,0.459217773400830531
0.987000000000000766,0.456243066342963188
0.988000000000000766,0.453262057010521691
0.989000000000000767,0.450275045104468419
0.990000000000000768,0.447282327332006902
0.991000000000000769,0.444284197418319260
0.992000000000000770,0.441280946118489781
0.993000000000000771,0.438272861229602573
0.994000000000000772,0.435260227602983885
0.995000000000000773,0.432243327156618673
0.996000000000000774,0.429222438887715718
0.997000000000000774,0.426197838885418179
0.998000000000000775,0.423169800343665803
0.999000000000000776,0.420138593574178210
1.000000000000000666,0.417104486019599818
1.001000000000000778,0.414067742266755523
1.002000000000000668,0.411028624060037373
1.003000000000000780,0.407987390314917264
1.004000000000000670,0.404944297131564934
1.005000000000000782,0.401899597808594577
1.006000000000000671,0.398853542856916765
1.007000000000000783,0.395806380013680736
1.008000000000000673,0.392758354256340314
1.009000000000000785,0.389709707816800033
1.010000000000000675,0.386660680195667517
1.011000000000000787,0.383611508176579075
1.012000000000000677,0.380562425840626495
1.013000000000000789,0.377513664580865771
1.014000000000000679,0.374465453116887947
1.015000000000000790,0.371418017509489329
1.016000000000000680,0.368371581175391483
1.017000000000000792,0.365326364902047618
1.018000000000000682,0.362282586862494704
1.019000000000000794,0.359240462630291080
1.020000000000000684,0.356200205194493746
1.021000000000000796,0.353162024974695177
1.022000000000000686,0.350126129836121680
1.023000000000000798,0.347092725104765354
1.024000000000000687,0.344062013582587367
1.025000000000000799,0.341034195562721909
1.026000000000000689,0.338009468844783612
1.027000000000000801,0.334988028750141553
1.028000000000000691,0.331970068137287133
1.029000000000000803,0.328955777417198669
1.030000000000000693,0.325945344568755346
1.031000000000000805,0.322938955154161933
1.032000000000000695,0.319936792334417186
1.033000000000000806,0.316939036884781866
1.034000000000000696,0.313945867210282725
1.035000000000000808,0.310957459361236088
1.036000000000000698,0.307973987048762721
1.037000000000000810,0.304995621660343885
1.038000000000000700,0.302022532275373179
1.039000000000000812,0.299054885680709037
1.040000000000000702,0.296092846386251884
1.041000000000000814,0.293136576640504298
1.042000000000000703,0.290186236446156542
1.043000000000000815,0.287241983575641346
1.044000000000000705,0.284303973586715775
1.045000000000000817,0.281372359838014841
1.046000000000000707,0.278447293504615945
1.047000000000000819,0.275528923593579056
1.048000000000000709,0.272617396959506098
1.049000000000000821,0.269712858320032445
1.050000000000000711,0.266815450271374766
1.051000000000000822,0.263925313303801368
1.052000000000000712,0.261042585817128303
1.053000000000000824,0.258167404136172396
1.054000000000000714,0.255299902526190725
1.055000000000000826,0.252440213208303899
1.056000000000000716,0.249588466374882550
1.057000000000000828,0.246744790204921072
1.058000000000000718,0.243909310879377422
1.059000000000000830,0.241082152596489241
1.060000000000000719,0.238263437587050847
1.061000000000000831,0.235453286129680167
1.062000000000000721,0.232651816566022601
1.063000000000000833,0.229859145315946117
1.064000000000000723,0.227075386892698822
1.065000000000000835,0.224300653918014264
1.066000000000000725,0.221535057137194347
1.067000000000000837,0.218778705434150511
1.068000000000000727,0.216031705846400801
1.069000000000000838,0.213294163580031670
1.070000000000000728,0.210566182024610804
1.071000000000000840,0.207847862768063774
1.072000000000000730,0.205139305611502010
1.073000000000000842,0.202440608584008613
1.074000000000000732,0.199751867957373097
1.075000000000000844,0.197073178260783688
1.076000000000000734,0.194404632295475777
1.077000000000000846,0.191746321149314142
1.078000000000000735,0.189098334211342090
1.079000000000000847,0.186460759186279218
1.080000000000000737,0.183833682108950125
1.081000000000000849,0.181217187358689469
1.082000000000000739,0.178611357673658544
1.083000000000000851,0.176016274165141817
1.084000000000000741,0.173432016331762862
1.085000000000000853,0.170858662073662237
1.086000000000000743,0.168296287706605957
1.087000000000000854,0.165744967976047181
1.088000000000000744,0.163204776071121216
1.089000000000000856,0.160675783638594971
1.090000000000000746,0.158158060796738831
1.091000000000000858,0.155651676149157758
1.092000000000000748,0.153156696798552150
1.093000000000000860,0.150673188360418930
1.094000000000000750,0.148201214976690199
1.095000000000000862,0.145740839329322414
1.096000000000000751,0.143292122653799370
1.097000000000000863,0.140855124752597594
1.098000000000000753,0.138429904008574661
1.099000000000000865,0.136016517398287379
1.100000000000000755,0.133615020505277099
1.101000000000000867,0.131225467533241352
1.102000000000000757,0.128847911319192238
1.103000000000000869,0.126482403346505456
1.104000000000000759,0.124128993757938580
1.105000000000000870,0.121787731368555432
1.106000000000000760,0.119458663678612839
1.107000000000000872,0.117141836886343054
1.108000000000000762,0.114837295900709194
1.109000000000000874,0.112545084354067043
1.110000000000000764,0.110265244614767305
1.111000000000000876,0.107997817799691379
1.112000000000000766,0.105742843786718277
1.113000000000000878,0.103500361227120669
1.114000000000000767,0.101270407557894848
1.115000000000000879,0.099053019014020346
1.116000000000000769,0.096848230640659005
1.117000000000000881,0.094656076305265804
1.118000000000000771,0.092476588709649490
1.119000000000000883,0.090309799401959781
1.120000000000000773,0.088155738788589802
1.121000000000000885,0.086014436146036460
1.122000000000000774,0.083885919632661815
1.123000000000000886,0.081770216300404250
1.124000000000000776,0.079667352106412778
1.125000000000000888,0.077577351924612001
1.126000000000000778,0.075500239557192914
1.127000000000000890,0.073436037746042279
1.128000000000000780,0.071384768184093936
1.129000000000000892,0.069346451526608163
1.130000000000000782,0.067321107402395955
1.131000000000000894,0.065308754424945062
1.132000000000000783,0.063309410203510261
1.133000000000000895,0.061323091354098434
1.134000000000000785,0.059349813510409501
1.135000000000000897,0.057389591334694859
1.136000000000000787,0.055442438528543428
1.137000000000000899,0.053508367843605541
1.138000000000000789,0.051587391092248094
1.139000000000000901,0.049679519158112716
1.140000000000000790,0.047784762006645311
1.141000000000000902,0.045903128695530072
1.142000000000000792,0.044034627385050137
1.143000000000000904,0.042179265348383080
1.144000000000000794,0.040337048981845106
1.145000000000000906,0.038507983815033911
1.146000000000000796,0.036692074520921061
1.147000000000000908,0.034889324925871275
1.148000000000000798,0.033099738019591145
1.149000000000000909,0.031323315965005510
1.150000000000000799,0.029560060108070902
1.151000000000000689,0.027809970987511552
1.152000000000000801,0.026073048344492672
1.153000000000000913,0.024349291132225483
1.154000000000000803,0.022638697525495445
1.155000000000000693,0.020941264930129082
1.156000000000000805,0.019256989992387018
1.157000000000000917,0.017585868608297982
1.158000000000000806,0.015927895932914170
1.159000000000000696,0.014283066389500026
1.160000000000000808,0.012651373678658002
1.161000000000000920,0.011032810787385678
1.162000000000000810,0.009427369998060486
1.163000000000000700,0.007835042897365993
1.164000000000000812,0.006255820385134373
1.165000000000000924,0.004689692683145369
1.166000000000000814,0.003136649343843445
1.167000000000000703,0.001596679258980582
1.168000000000000815,0.000069770668218316
1.169000000000000927,-0.001444088832360621
1.170000000000000817,-0.002944912281796949
1.171000000000000707,-0.004432713345860090
1.172000000000000819,-0.005907506308729146
1.173000000000000931,-0.007369306064735836
1.174000000000000821,-0.008818128110159890
1.175000000000000711,-0.010253988535115005
1.176000000000000822,-0.011676904015473241
1.177000000000000934,-0.013086891804872703
1.178000000000000824,-0.014483969726770763
1.179000000000000714,-0.015868156166579737
1.180000000000000826,-0.017239470063860292
1.181000000000000938,-0.018597930904567080
1.182000000000000828,-0.019943558713372549
1.183000000000000718,-0.021276374046039707
1.184000000000000830,-0.022596397981875075
1.185000000000000941,-0.023903652116220871
1.186000000000000831,-0.025198158553035178
1.187000000000000721,-0.026479939897507621
1.188000000000000833,-0.027749019248756512
1.189000000000000945,-0.029005420192575439
1.190000000000000835,-0.030249166794249105
1.191000000000000725,-0.031480283591414658
1.192000000000000837,-0.032698795587015980
1.193000000000000949,-0.033904728242266806
1.194000000000000838,-0.035098107469728801
1.195000000000000728,-0.036278959626406038
1.196000000000000840,-0.037447311506922362
1.197000000000000952,-0.038603190336753995
1.198000000000000842,-0.039746623765507569
1.199000000000000732,-0.040877639860277315
1.200000000000000844,-0.041996267099038580
1.201000000000000956,-0.043102534364122445
1.202000000000000846,-0.044196470935721849
1.203000000000000735,-0.045278106485477962
1.204000000000000847,-0.046347471070108046
1.205000000000000959,-0.047404595125096163
1.206000000000000849,-0.048449509458438761
1.207000000000000739,-0.049482245244450704
1.208000000000000851,-0.050502834017613893
1.209000000000000963,-0.051511307666501450
1.210000000000000853,-0.052507698427732466
1.211000000000000743,-0.053492038880007399
1.212000000000000854,-0.054464361938171738
1.213000000000000966,-0.055424700847361619
1.214000000000000856,-0.056373089177172361
1.215000000000000746,-0.057309560815910508
1.216000000000000858,-0.058234149964877614
1.217000000000000970,-0.059146891132716317
1.218000000000000860,-0.060047819129801949
1.219000000000000750,-0.060936969062706306
1.220000000000000862,-0.061814376328681440
1.221000000000000973,-0.062680076610220653
1.222000000000000863,-0.063534105869662724
1.223000000000000753,-0.064376500343845039
1.224000000000000865,-0.065207296538805679
1.225000000000000977,-0.066026531224550808
1.226000000000000867,-0.066834241429848104
1.227000000000000757,-0.067630464437091836
1.228000000000000869,-0.068415237777197879
1.229000000000000981,-0.069188599224573225
1.230000000000000870,-0.069950586792106889
1.231000000000000760,-0.070701238726227758
1.232000000000000872,-0.071440593502005392
1.233000000000000984,-0.072168689818291040
1.234000000000000874,-0.072885566592929982
1.235000000000000764,-0.073591262957983600
1.236000000000000876,-0.074285818255037855
1.237000000000000988,-0.074969272030530207
1.238000000000000878,-0.075641664031134509
1.239000000000000767,-0.076303034199197664
1.240000000000000879,-0.076953422668208288
1.241000000000000991,-0.077592869758315378
1.242000000000000881,-0.078221415971904240
1.243000000000000771,-0.078839101989202243
1.244000000000000883,-0.079445968663930444
1.245000000000000995,-0.080042057019009100
1.246000000000000885,-0.080627408242305479
1.247000000000000774,-0.081202063682415129
1.248000000000000886,-0.081766064844492573
1.249000000000000998,-0.082319453386134070
1.250000000000000888,-0.082862271113286562
1.251000000000000778,-0.083394559976209467
1.252000000000000890,-0.083916362065482142
1.253000000000001002,-0.084427719608038826
1.254000000000000892,-0.084928674963263770
1.255000000000000782,-0.085419270619108992
1.256000000000000894,-0.085899549188275207
1.257000000000001005,-0.086369553404404401
1.258000000000000895,-0.086829326118343847
1.259000000000000785,-0.087278910294425111
1.260000000000000897,-0.087718349006802268
1.261000000000001009,-0.088147685435813222
1.262000000000000899,-0.088566962864392126
1.263000000000000789,-0.088976224674517393
1.264000000000000901,-0.089375514343698767
1.265000000000001013,-0.089764875441497888
1.266000000000000902,-0.090144351626090247
1.267000000000000792,-0.090513986640876565
1.268000000000000904,-0.090873824311107659
1.269000000000001016,-0.091223908540569817
1.270000000000000906,-0.091564283308292374
1.271000000000000796,-0.091894992665301212
1.272000000000000908,-0.092216080731399044
1.273000000000001020,-0.092527591691996633
1.274000000000000909,-0.092829569794962458
1.275000000000000799,-0.093122059347520297
1.276000000000000911,-0.093405104713181614
1.277000000000001023,-0.093678750308704470
1.278000000000000913,-0.093943040601097386
1.279000000000000803,-0.094198020104649866
1.280000000000000915,-0.094443733378007086
1.281000000000001027,-0.094680225021259959
1.282000000000000917,-0.094907539673096925
1.283000000000000806,-0.095125722007963404
1.284000000000000918,-0.095334816733264702
1.285000000000001030,-0.095534868586608562
1.286000000000000920,-0.095725922333071492
1.287000000000000810,-0.095908022762493619
1.288000000000000922,-0.096081214686823346
1.289000000000001034,-0.096245542937473880
1.290000000000000924,-0.096401052362722950
1.291000000000000814,-0.096547787825146392
1.292000000000000925,-0.096685794199068420
1.293000000000001037,-0.096815116368062643
1.294000000000000927,-0.096935799222465827
1.295000000000000817,-0.097047887656936310
1.296000000000000929,-0.097151426568031524
1.297000000000001041,-0.097246460851816902
1.298000000000000931,-0.097333035401522355
1.299000000000000821,-0.097411195105197967
1.300000000000000933,-0.097480984843418744
1.301000000000001044,-0.097542449487021982
1.302000000000000934,-0.097595633894855108
1.303000000000000824,-0.097640582911569754
1.304000000000000936,-0.097677341365429979
1.305000000000001048,-0.097705954066166986
1.306000000000000938,-0.097726465802838017
1.307000000000000828,-0.097738921341728763
1.308000000000000940,-0.097743365424282663
1.309000000000001052,-0.097739842765048740
1.310000000000000941,-0.097728398049670234
1.311000000000000831,-0.097709075932875603
1.312000000000000943,-0.097681921036523026
1.313000000000001055,-0.097646977947661792
1.314000000000000945,-0.097604291216610364
1.315000000000000835,-0.097553905355062767
1.316000000000000947,-0.097495864834238291
1.317000000000001059,-0.097430214083032721
1.318000000000000949,-0.097356997486206673
1.319000000000000838,-0.097276259382598568
1.320000000000000950,-0.097188044063364259
1.321000000000001062,-0.097092395770227463
1.322000000000000952,-0.096989358693771219
1.323000000000000842,-0.096878976971748312
1.324000000000000954,-0.096761294687409183
1.325000000000001066,-0.096636355867858542
1.326000000000000956,-0.096504204482437517
1.327000000000000846,-0.096364884441121915
1.328000000000000957,-0.096218439592949900
1.329000000000001069,-0.096064913724470097
1.330000000000000959,-0.095904350558214904
1.331000000000000849,-0.095736793751185725
1.332000000000000961,-0.095562286893375245
1.333000000000001073,-0.095380873506301908
1.334000000000000963,-0.095192597041568086
1.335000000000000853,-0.094997500879436675
1.336000000000000965,-0.094795628327444134
1.337000000000001076,-0.094587022619008726
1.338000000000000966,-0.094371726912084369
1.339000000000000856,-0.094149784287821725
1.340000000000000968,-0.093921237749248515
1.341000000000001080,-0.093686130219981706
1.342000000000000970,-0.093444504542950169
1.343000000000000860,-0.093196403479136908
1.344000000000000972,-0.092941869706349045
1.345000000000001084,-0.092680945818003055
1.346000000000000973,-0.092413674321919936
1.347000000000000863,-0.092140097639160271
1.348000000000000975,-0.091860258102856973
1.349000000000001087,-0.091574197957083797
1.350000000000000977,-0.091281959355731010
1.351000000000000867,-0.090983584361404787
1.352000000000000979,-0.090679114944345010
1.353000000000001091,-0.090368592981357604
1.354000000000000981,-0.090052060254776176
1.355000000000000870,-0.089729558451415600
1.356000000000000982,-0.089401129161578580
1.357000000000001094,-0.089066813878053569
1.358000000000000984,-0.088726653995131494
1.359000000000000874,-0.088380690807661116
1.360000000000000986,-0.088028965510093204
1.361000000000001098,-0.087671519195562819
1.362000000000000988,-0.087308392854970232
1.363000000000000878,-0.086939627376102696
1.364000000000000989,-0.086565263542746351
1.365000000000001101,-0.086185342033825316
1.366000000000000991,-0.085799903422566992
1.367000000000000881,-0.085408988175665862
1.368000000000000993,-0.085012636652472079
1.369000000000001105,-0.084610889104192150
1.370000000000000995,-0.084203785673112944
1.371000000000000885,-0.083791366391831379
1.372000000000000997,-0.083373671182499470
1.373000000000001108,-0.082950739856095773
1.374000000000000998,-0.082522612111686960
1.375000000000000888,-0.082089327535744605
1.376000000000001000,-0.081650925601429808
1.377000000000001112,-0.081207445667926842
1.378000000000001002,-0.080758926979772896
1.379000000000000892,-0.080305408666213635
1.380000000000001004,-0.079846929740556336
1.381000000000001116,-0.079383529099556482
1.382000000000001005,-0.078915245522804989
1.383000000000000895,-0.078442117672126360
1.384000000000001007,-0.077964184091010469
1.385000000000001119,-0.077481483204024343
1.386000000000001009,-0.076994053316270947
1.387000000000000899,-0.076501932612835194
1.388000000000001011,-0.076005159158263239
1.389000000000001123,-0.075503770896030248
1.390000000000001013,-0.074997805648048532
1.391000000000000902,-0.074487301114162657
1.392000000000001014,-0.073972294871677308
1.393000000000001126,-0.073452824374881667
1.394000000000001016,-0.072928926954595019
1.395000000000000906,-0.072400639817720686
1.396000000000001018,-0.071868000046809127
1.397000000000001130,-0.071331044599642804
1.398000000000001020,-0.070789810308820131
1.399000000000000909,-0.070244333881354162
1.400000000000001021,-0.069694651898287857
1.401000000000001133,-0.069140800814319975
1.402000000000001023,-0.068582816957431736
1.403000000000000913,-0.068020736528533882
1.404000000000001025,-0.067454595601122658
1.405000000000001137,-0.066884430120949648
1.406000000000001027,-0.066310275905684474
1.407000000000000917,-0.065732168644625458
1.408000000000001029,-0.065150143898366847
1.409000000000001140,-0.064564237098529736
1.410000000000001030,-0.063974483547470679
1.411000000000000920,-0.063380918418006527
1.412000000000001032,-0.062783576753147344
1.413000000000001144,-0.062182493465859690
1.414000000000001034,-0.061577703338802983
1.415000000000000924,-0.060969241024103893
1.416000000000001036,-0.060357141043132868
1.417000000000001148,-0.059741437786284469
1.418000000000001037,-0.059122165512772565
1.419000000000000927,-0.058499358350429367
1.420000000000001039,-0.057873050295518910
1.421000000000001151,-0.057243275212559085
1.422000000000001041,-0.056610066834147307
1.423000000000000931,-0.055973458760795805
1.424000000000001043,-0.055333484460778751
1.425000000000001155,-0.054690177269991633
1.426000000000001044,-0.054043570391807225
1.427000000000000934,-0.053393696896949103
1.428000000000001046,-0.052740589723368078
1.429000000000001158,-0.052084281676131348
1.430000000000001048,-0.051424805427314826
1.431000000000000938,-0.050762193515910180
1.432000000000001050,-0.050096478347729609
1.433000000000001162,-0.049427692195329234
1.434000000000001052,-0.048755867197924636
1.435000000000000941,-0.048081035361338044
1.436000000000001053,-0.047403228557926239
1.437000000000001165,-0.046722478526533676
1.438000000000001055,-0.046038816872448721
1.439000000000000945,-0.045352275067358477
1.440000000000001057,-0.044662884449326534
1.441000000000001169,-0.043970676222760310
1.442000000000001059,-0.043275681458394569
1.443000000000000949,-0.042577931093294372
1.444000000000001060,-0.041877455930829047
1.445000000000001172,-0.041174286640686800
1.446000000000001062,-0.040468453758889127
1.447000000000000952,-0.039759987687790856
1.448000000000001064,-0.039048918696114765
1.449000000000001176,-0.038335276918975342
1.450000000000001066,-0.037619092357910729
1.451000000000000956,-0.036900394880925086
1.452000000000001068,-0.036179214222533257
1.453000000000001180,-0.035455579983815114
1.454000000000001069,-0.034729521632473462
1.455000000000000959,-0.034001068502893098
1.456000000000001071,-0.033270249796213028
1.457000000000001183,-0.032537094580406836
1.458000000000001073,-0.031801631790352017
1.459000000000000963,-0.031063890227926116
1.460000000000001075,-0.030323898562093492
1.461000000000001187,-0.029581685328999508
1.462000000000001076,-0.028837278932082117
1.463000000000000966,-0.028090707642163482
1.464000000000001078,-0.027341999597576605
1.465000000000001190,-0.026591182804281310
1.466000000000001080,-0.025838285135969408
1.467000000000000970,-0.025083334334215474
1.468000000000001082,-0.024326358008594465
1.469000000000001194,-0.023567383636820677
1.470000000000001084,-0.022806438564890463
1.471000000000000973,-0.022043550007227280
1.472000000000001085,-0.021278745046834704
1.473000000000001197,-0.020512050635450332
1.474000000000001087,-0.019743493593699389
1.475000000000000977,-0.018973100611267522
1.476000000000001089,-0.018200898247066988
1.477000000000001201,-0.017426912929402585
1.478000000000001091,-0.016651170956154454
1.479000000000000981,-0.015873698494958666
1.480000000000001092,-0.015094521583384892
1.481000000000001204,-0.014313666129139580
1.482000000000001094,-0.013531157910238276
1.483000000000000984,-0.012747022575222255
1.484000000000001096,-0.011961285643348894
1.485000000000001208,-0.011173972504788767
1.486000000000001098,-0.010385108420850216
1.487000000000000988,-0.009594718524178630
1.488000000000001100,-0.008802827818974115
1.489000000000001211,-0.008009461181208899
1.490000000000001101,-0.007214643358857358
1.491000000000000991,-0.006418398972106392
1.492000000000001103,-0.005620752513602504
1.493000000000001215,-0.004821728348664725
1.494000000000001105,-0.004021350715535452
1.495000000000000995,-0.003219643725611829
1.496000000000001107,-0.002416631363690381
1.497000000000001219,-0.001612337488205210
1.498000000000001108,-0.000806785831486802
1.499000000000000998,0.000000000000000000
