# SS304-111_GLY
# h[nm],U(h)[kJ/mol]
0.149999999999999994,55.287009424671524016
0.150999999999999995,52.177259847094852319
0.151999999999999996,48.610666745548122947
0.152999999999999997,44.974237756128800925
0.153999999999999998,41.462147323231398843
0.154999999999999999,38.146174202162093536
0.156000000000000000,35.028463939295917839
0.157000000000000001,32.078024043276421651
0.158000000000000002,29.253921491996003112
0.159000000000000002,26.518478263771299908
0.160000000000000003,23.843473550638499603
0.161000000000000004,21.211823456520594533
0.162000000000000005,18.616619823855760529
0.163000000000000006,16.058869804489411592
0.164000000000000007,13.544829055293496012
0.165000000000000008,11.083473583495409898
0.166000000000000009,8.684401113481861501
0.167000000000000010,6.356277871509171007
0.168000000000000010,4.105834374308345858
0.169000000000000011,1.937348493897224300
0.170000000000000012,-0.147477761066812707
0.171000000000000013,-2.149350595748259707
0.172000000000000014,-4.071023924928673487
0.173000000000000015,-5.916831263251067341
0.174000000000000016,-7.692178914645813492
0.175000000000000017,-9.403052334862506356
0.176000000000000018,-11.055571614464046348
0.177000000000000018,-12.655618195054389119
0.178000000000000019,-14.208543616514708319
0.179000000000000020,-15.718962353930114872
0.180000000000000021,-17.190624466523090064
0.181000000000000022,-18.626359547395519911
0.182000000000000023,-20.028080977269745233
0.183000000000000024,-21.396838385333744270
0.184000000000000025,-22.732906165591561631
0.185000000000000026,-24.035896586540363984
0.186000000000000026,-25.304887210728157498
0.187000000000000027,-26.538553801870627069
0.188000000000000028,-27.735301479312436612
0.189000000000000029,-28.893388462177306053
0.190000000000000030,-30.011038243236423995
0.191000000000000031,-31.086537389220644911
0.192000000000000032,-32.118317347328002143
0.193000000000000033,-33.105019632506810012
0.194000000000000034,-34.045544575714892233
0.195000000000000034,-34.939084438379026665
0.196000000000000035,-35.785142157685285724
0.197000000000000036,-36.583537299941859544
0.198000000000000037,-37.334400985719277344
0.199000000000000038,-38.038161631794210393
0.200000000000000039,-38.695523351401547529
0.201000000000000040,-39.307438784803451881
0.202000000000000041,-39.875078013712247582
0.203000000000000042,-40.399795060541848102
0.204000000000000042,-40.883093299519998709
0.205000000000000043,-41.326590921931469325
0.206000000000000044,-41.731987410726567589
0.207000000000000045,-42.101031797110529453
0.208000000000000046,-42.435493298574144205
0.209000000000000047,-42.737134777740820368
0.210000000000000048,-43.007689316780037814
0.211000000000000049,-43.248840074336854400
0.212000000000000050,-43.462203481499649627
0.213000000000000050,-43.649315740155742560
0.214000000000000051,-43.811622510559523391
0.215000000000000052,-43.950471614072817772
0.216000000000000053,-44.067108530599327310
0.217000000000000054,-44.162674436821895085
0.218000000000000055,-44.238206509481969420
0.219000000000000056,-44.294640206109015423
0.220000000000000057,-44.332813232335745113
0.221000000000000058,-44.353470908802364647
0.222000000000000058,-44.357272660336505510
0.223000000000000059,-44.344799364365428573
0.224000000000000060,-44.316561313271691347
0.225000000000000061,-44.273006565657723854
0.226000000000000062,-44.214529483372700724
0.227000000000000063,-44.141479273938479366
0.228000000000000064,-44.054168381057650095
0.229000000000000065,-43.952880588675128593
0.230000000000000066,-43.837878726171680910
0.231000000000000066,-43.709411883357226714
0.232000000000000067,-43.567722063751190831
0.233000000000000068,-43.413050222999785888
0.234000000000000069,-43.245641656065160419
0.235000000000000070,-43.065750711956283681
0.236000000000000071,-42.873644828230744963
0.237000000000000072,-42.669607889291590652
0.238000000000000073,-42.453942922672617044
0.239000000000000073,-42.226974156114046366
0.240000000000000074,-41.989048465360085061
0.241000000000000075,-41.740536248357329896
0.242000000000000076,-41.481831765999572781
0.243000000000000077,-41.213352992865040392
0.244000000000000078,-40.935541023636169200
0.245000000000000079,-40.648859082193339987
0.246000000000000080,-40.353791180844957864
0.247000000000000081,-40.050840476902791920
0.248000000000000081,-39.740527372937137329
0.249000000000000082,-39.423387405647389414
0.250000000000000111,-39.099968966452443908
0.251000000000000112,-38.770830894721456161
0.252000000000000113,-38.436539982111483482
0.253000000000000114,-38.097668423816614336
0.254000000000000115,-37.754791249732406300
0.255000000000000115,-37.408483765649677366
0.256000000000000116,-37.059319031663982003
0.257000000000000117,-36.707865402064534521
0.258000000000000118,-36.354684148081616968
0.259000000000000119,-36.000327182058768472
0.260000000000000120,-35.645334898899008635
0.261000000000000121,-35.290234148032809003
0.262000000000000122,-34.935536346688103038
0.263000000000000123,-34.581735742919036625
0.264000000000000123,-34.229307834681840461
0.265000000000000124,-33.878707949236741115
0.266000000000000125,-33.530369985309178560
0.267000000000000126,-33.184705318761771764
0.268000000000000127,-32.842101871008409830
0.269000000000000128,-32.502923338042968737
0.270000000000000129,-32.167508576750478255
0.271000000000000130,-31.836171144113695419
0.272000000000000131,-31.509198984017906753
0.273000000000000131,-31.186854255580794160
0.274000000000000132,-30.869373296288308950
0.275000000000000133,-30.556966712691188803
0.276000000000000134,-30.249819591002221841
0.277000000000000135,-29.948091819624199417
0.278000000000000136,-29.651918515421947120
0.279000000000000137,-29.361410545423638041
0.280000000000000138,-29.076655135585419032
0.281000000000000139,-28.797716558273485532
0.282000000000000139,-28.524636890200660844
0.283000000000000140,-28.257436832692384598
0.284000000000000141,-27.996116586344090393
0.285000000000000142,-27.740656772360399174
0.286000000000000143,-27.491019393130660120
0.287000000000000144,-27.247148824889698915
0.288000000000000145,-27.008972835631205101
0.289000000000000146,-26.776403621779031994
0.290000000000000147,-26.549338857475113684
0.291000000000000147,-26.327662750705922434
0.292000000000000148,-26.111247100860612846
0.293000000000000149,-25.899952352687819257
0.294000000000000150,-25.693628641992962258
0.295000000000000151,-25.492116828790269523
0.296000000000000152,-25.295249513991386436
0.297000000000000153,-25.102852036073521447
0.298000000000000154,-24.914743444522351012
0.299000000000000155,-24.730737447186918132
0.300000000000000155,-24.550643329014867788
0.301000000000000156,-24.374266839954028541
0.302000000000000157,-24.201411050111310885
0.303000000000000158,-24.031877170550451694
0.304000000000000159,-23.865465338386066207
0.305000000000000160,-23.701975365092195602
0.306000000000000161,-23.541207447189570701
0.307000000000000162,-23.382962838706184527
0.308000000000000163,-23.227044485020492459
0.309000000000000163,-23.073257617897443339
0.310000000000000164,-22.921410311711685637
0.311000000000000165,-22.771314001023348794
0.312000000000000166,-22.622783959827778233
0.313000000000000167,-22.475639742942782107
0.314000000000000168,-22.329705590125893622
0.315000000000000169,-22.184810793629935688
0.316000000000000170,-22.040790030008782452
0.317000000000000171,-21.897483657076900698
0.318000000000000171,-21.754737977006040950
0.319000000000000172,-21.612405466612973015
0.320000000000000173,-21.470344975950474975
0.321000000000000174,-21.328421896364677224
0.322000000000000175,-21.186508299221873841
0.323000000000000176,-21.044483046541028415
0.324000000000000177,-20.902231874792398969
0.325000000000000178,-20.759647453140058104
0.326000000000000179,-20.616629417417087211
0.327000000000000179,-20.473084381125808306
0.328000000000000180,-20.328925924754678078
0.329000000000000181,-20.184074564696810938
0.330000000000000182,-20.038457703043263791
0.331000000000000183,-19.892009559509197913
0.332000000000000184,-19.744671086731138132
0.333000000000000185,-19.596389870150744628
0.334000000000000186,-19.447120013674510375
0.335000000000000187,-19.296822012269888802
0.336000000000000187,-19.145462612627667909
0.337000000000000188,-18.993014662986965391
0.338000000000000189,-18.839456953184615884
0.339000000000000190,-18.684774045954707589
0.340000000000000191,-18.528956100466011492
0.341000000000000192,-18.371998689047948972
0.342000000000000193,-18.213902608015352769
0.343000000000000194,-18.054673683464308453
0.344000000000000195,-17.894322572870606791
0.345000000000000195,-17.732864563283349923
0.346000000000000196,-17.570319366866119282
0.347000000000000197,-17.406710914498916054
0.348000000000000198,-17.242067148115136632
0.349000000000000199,-17.076419812408733634
0.350000000000000200,-16.909804246509601455
0.351000000000000201,-16.742259176186934155
0.352000000000000202,-16.573826507104662653
0.353000000000000203,-16.404551119616819221
0.354000000000000203,-16.234480665556159096
0.355000000000000204,-16.063665367435596920
0.356000000000000205,-15.892157820449165584
0.357000000000000206,-15.720012797627557433
0.358000000000000207,-15.547287058472500476
0.359000000000000208,-15.374039161365024242
0.360000000000000209,-15.200329280013951561
0.361000000000000210,-15.026219024183841810
0.362000000000000210,-14.851771264915488047
0.363000000000000211,-14.677049964427050455
0.364000000000000212,-14.502120010860171107
0.365000000000000213,-14.327047058012562175
0.366000000000000214,-14.151897370177163538
0.367000000000000215,-13.976737672187386607
0.368000000000000216,-13.801635004748636248
0.369000000000000217,-13.626656585117999043
0.370000000000000218,-13.451869673176782172
0.371000000000000218,-13.277341442924301518
0.372000000000000219,-13.103138859406120886
0.373000000000000220,-12.929328561075797310
0.374000000000000221,-12.755976747575800800
0.375000000000000222,-12.583149072910948973
0.376000000000000223,-12.410910543976166664
0.377000000000000224,-12.239325424389877028
0.378000000000000225,-12.068457143574375934
0.379000000000000226,-11.898368211015704077
0.380000000000000226,-11.729120135627203680
0.381000000000000227,-11.560773350133347392
0.382000000000000228,-11.393387140383973488
0.383000000000000229,-11.227019579502513835
0.384000000000000230,-11.061727466766543060
0.385000000000000231,-10.897566271114188297
0.386000000000000232,-10.734590079165373666
0.387000000000000233,-10.572851547643352887
0.388000000000000234,-10.412401860078677629
0.389000000000000234,-10.253290687675063353
0.390000000000000235,-10.095566154214193233
0.391000000000000236,-9.939274804875068980
0.392000000000000237,-9.784461578841463947
0.393000000000000238,-9.631169785570783404
0.394000000000000239,-9.479441084596320621
0.395000000000000240,-9.329315468734970196
0.396000000000000241,-9.180831250572357050
0.397000000000000242,-9.034025052097508279
0.398000000000000242,-8.888931797360054787
0.399000000000000243,-8.745584708023512732
0.400000000000000244,-8.604015301689205586
0.401000000000000245,-8.464253392867099990
0.402000000000000246,-8.326327096470812705
0.403000000000000247,-8.190262833715788560
0.404000000000000248,-8.056085340301835984
0.405000000000000249,-7.923817676762659801
0.406000000000000250,-7.793481240867531135
0.407000000000000250,-7.665095781962175003
0.408000000000000251,-7.538679417138451910
0.409000000000000252,-7.414248649124831836
0.410000000000000253,-7.291818385791924761
0.411000000000000254,-7.171401961170317918
0.412000000000000255,-7.053011157880139770
0.413000000000000256,-6.936656230874831408
0.414000000000000257,-6.822345932404042301
0.415000000000000258,-6.710087538103502780
0.416000000000000258,-6.599886874122458558
0.417000000000000259,-6.491748345201931336
0.418000000000000260,-6.385674963620052935
0.419000000000000261,-6.281668378923290774
0.420000000000000262,-6.179728908365436091
0.421000000000000263,-6.079855567978812658
0.422000000000000264,-5.982046104204948200
0.423000000000000265,-5.886297026014768008
0.424000000000000266,-5.792603637451120058
0.425000000000000266,-5.700960070528991785
0.426000000000000267,-5.611359318431476950
0.427000000000000268,-5.523793268942331025
0.428000000000000269,-5.438252738058293012
0.429000000000000270,-5.354727503727021443
0.430000000000000271,-5.273206339659014752
0.431000000000000272,-5.193677049164185711
0.432000000000000273,-5.116126498966309555
0.433000000000000274,-5.040540652950824096
0.434000000000000274,-4.966904605803721395
0.435000000000000275,-4.895202616501611814
0.436000000000000276,-4.825418141615135603
0.437000000000000277,-4.757533868389977272
0.438000000000000278,-4.691531747571994870
0.439000000000000279,-4.627393025944764204
0.440000000000000280,-4.565098278549927890
0.441000000000000281,-4.504627440562593677
0.442000000000000282,-4.445959838795876529
0.443000000000000282,-4.389074222810417147
0.444000000000000283,-4.333948795606523241
0.445000000000000284,-4.280561243878150179
0.446000000000000285,-4.228888767809530158
0.447000000000000286,-4.178908110397026476
0.448000000000000287,-4.130595586279922848
0.449000000000000288,-4.083927110065657118
0.450000000000000289,-4.038878224136185580
0.451000000000000290,-3.995424125923528802
0.452000000000000290,-3.953539694643894986
0.453000000000000291,-3.913199517480936862
0.454000000000000292,-3.874377915209954004
0.455000000000000293,-3.837048967255852538
0.456000000000000294,-3.801186536178937647
0.457000000000000295,-3.766764291583409197
0.458000000000000296,-3.733755733444712011
0.459000000000000297,-3.702134214852500715
0.460000000000000298,-3.671872964167194109
0.461000000000000298,-3.642945106588625581
0.462000000000000299,-3.615323685136446308
0.463000000000000300,-3.588981681042377581
0.464000000000000301,-3.563892033555375427
0.465000000000000302,-3.540027659161315121
0.466000000000000303,-3.517361470219575459
0.467000000000000304,-3.495866393019307683
0.468000000000000305,-3.475515385259072332
0.469000000000000306,-3.456281452953742672
0.470000000000000306,-3.438137666773268819
0.471000000000000307,-3.421057177818346506
0.472000000000000308,-3.405013232838479897
0.473000000000000309,-3.389979188898256446
0.474000000000000310,-3.375928527498159415
0.475000000000000311,-3.362834868156586943
0.476000000000000312,-3.350671981459971249
0.477000000000000313,-3.339413801588282382
0.478000000000000314,-3.329034438323523748
0.479000000000000314,-3.319508188548974115
0.480000000000000315,-3.310809547247214546
0.481000000000000316,-3.302913218005225637
0.482000000000000317,-3.295794123034988310
0.483000000000000318,-3.289427412718177290
0.484000000000000319,-3.283788474683714043
0.485000000000000320,-3.278852942427127548
0.486000000000000321,-3.274596703480649129
0.487000000000000322,-3.270995907143186887
0.488000000000000322,-3.268026971779408374
0.489000000000000323,-3.265666591697073073
0.490000000000000324,-3.263891743612036489
0.491000000000000325,-3.262679692710208634
0.492000000000000326,-3.262007998315815449
0.493000000000000327,-3.261854519175372502
0.494000000000000328,-3.262197418366741708
0.495000000000000329,-3.263015167842615138
0.496000000000000330,-3.264286552617792214
0.497000000000000330,-3.265990674609510425
0.498000000000000331,-3.268106956140216290
0.499000000000000332,-3.270615143111804457
0.500000000000000333,-3.273495307860662784
0.501000000000000334,-3.276727851702527339
0.502000000000000335,-3.280293507176168077
0.503000000000000336,-3.284173339994865159
0.504000000000000337,-3.288348750714515489
0.505000000000000338,-3.292801476127125593
0.506000000000000338,-3.297513590388354565
0.507000000000000339,-3.302467505887662469
0.508000000000000340,-3.307645973869522749
0.509000000000000341,-3.313032084813992473
0.510000000000000342,-3.318609268584933325
0.511000000000000343,-3.324361294353893381
0.512000000000000344,-3.330272270307735649
0.513000000000000345,-3.336326643147732973
0.514000000000000346,-3.342509197387980358
0.515000000000000346,-3.348805054460633812
0.516000000000000347,-3.355199671635453740
0.517000000000000348,-3.361678840761011422
0.518000000000000349,-3.368228686834689789
0.519000000000000350,-3.374835666408569690
0.520000000000000351,-3.381486565838129454
0.521000000000000352,-3.388168499380474596
0.522000000000000353,-3.394868907148776316
0.523000000000000353,-3.401575552929415380
0.524000000000000354,-3.408276521868148556
0.525000000000000355,-3.414960218031559691
0.526000000000000356,-3.421615361849813297
0.527000000000000357,-3.428230987446686306
0.528000000000000358,-3.434796439862695561
0.529000000000000359,-3.441301372176837070
0.530000000000000360,-3.447735742532668013
0.531000000000000361,-3.454089811073905558
0.532000000000000361,-3.460354136794931090
0.533000000000000362,-3.466519574311190954
0.534000000000000363,-3.472577270554579432
0.535000000000000364,-3.478518661398518841
0.536000000000000365,-3.484335468217557352
0.537000000000000366,-3.490019694385967597
0.538000000000000367,-3.495563621719860237
0.539000000000000368,-3.500959806867067758
0.540000000000000369,-3.506201077649058195
0.541000000000000369,-3.511280529358870695
0.542000000000000370,-3.516191521019099042
0.543000000000000371,-3.520927671603662823
0.544000000000000372,-3.525482856227151185
0.545000000000000373,-3.529851202305243962
0.546000000000000374,-3.534027085689765979
0.547000000000000375,-3.538005126781647469
0.548000000000000376,-3.541780186625120841
0.549000000000000377,-3.545347362986218887
0.550000000000000377,-3.548701986418628884
0.551000000000000378,-3.551839616319850901
0.552000000000000379,-3.554756036980429634
0.553000000000000380,-3.557447253629012263
0.554000000000000381,-3.559909488475835992
0.555000000000000382,-3.562139176757165959
0.556000000000000383,-3.564132962783104652
0.557000000000000384,-3.565887695991097672
0.558000000000000385,-3.567400427007382469
0.559000000000000385,-3.568668403718534332
0.560000000000000386,-3.569689067355123147
0.561000000000000387,-3.570460048589516155
0.562000000000000388,-3.570979163649698140
0.563000000000000389,-3.571244410450865381
0.564000000000000390,-3.571253964746595955
0.565000000000000391,-3.571006176301194213
0.566000000000000392,-3.570499565084826799
0.567000000000000393,-3.569732817492880628
0.568000000000000393,-3.568704782591048286
0.569000000000000394,-3.567414468387432258
0.570000000000000395,-3.565861038133024685
0.571000000000000396,-3.564043806651690627
0.572000000000000397,-3.561962236700897844
0.573000000000000398,-3.559615935364246919
0.574000000000000399,-3.557004650476813801
0.575000000000000400,-3.554128267084339932
0.576000000000000401,-3.550986803937086655
0.577000000000000401,-3.547580410019313568
0.578000000000000402,-3.543909361115107792
0.579000000000000403,-3.539974056411349324
0.580000000000000404,-3.535775015138490573
0.581000000000000405,-3.531312873249830009
0.582000000000000406,-3.526588380139818124
0.583000000000000407,-3.521602395402021024
0.584000000000000408,-3.516355885627196809
0.585000000000000409,-3.510849921241955940
0.586000000000000409,-3.505085673388445233
0.587000000000000410,-3.499064410845417861
0.588000000000000411,-3.492787496991032192
0.589000000000000412,-3.486256386807676133
0.590000000000000413,-3.479472623929090958
0.591000000000000414,-3.472437837730019794
0.592000000000000415,-3.465153740458559728
0.593000000000000416,-3.457622124411390274
0.594000000000000417,-3.449844859152030985
0.595000000000000417,-3.441823888772161499
0.596000000000000418,-3.433561229196128384
0.597000000000000419,-3.425058965528670285
0.598000000000000420,-3.416319249445838757
0.599000000000000421,-3.407344296629132963
0.600000000000000422,-3.398136384242809616
0.601000000000000423,-3.388697848454265138
0.602000000000000424,-3.379031081997447838
0.603000000000000425,-3.369138531779173995
0.604000000000000425,-3.359022696528188412
0.605000000000000426,-3.348686124486869975
0.606000000000000427,-3.338131411145363270
0.607000000000000428,-3.327361197017971506
0.608000000000000429,-3.316378165461587368
0.609000000000000430,-3.305185040535961516
0.610000000000000431,-3.293784584905536938
0.611000000000000432,-3.282179597782598712
0.612000000000000433,-3.270372912911497565
0.613000000000000433,-3.258367396593624399
0.614000000000000434,-3.246165945752851112
0.615000000000000435,-3.233771486041126852
0.616000000000000436,-3.221186969983927728
0.617000000000000437,-3.208415375165174055
0.618000000000000438,-3.195459702451330042
0.619000000000000439,-3.182322974254293335
0.620000000000000440,-3.169008232832723149
0.621000000000000441,-3.155518538631437053
0.622000000000000441,-3.141856968658490068
0.623000000000000442,-3.128026614899561686
0.624000000000000443,-3.114030582769232058
0.625000000000000444,-3.099871989598772526
0.626000000000000445,-3.085553963160026392
0.627000000000000446,-3.071079640224965601
0.628000000000000447,-3.056452165160532086
0.629000000000000448,-3.041674688558310802
0.630000000000000449,-3.026750365898599249
0.631000000000000449,-3.011682356248493786
0.632000000000000450,-2.996473820993517556
0.633000000000000451,-2.981127922602349933
0.634000000000000452,-2.965647823424262697
0.635000000000000453,-2.950036684518743790
0.636000000000000454,-2.934297664516970272
0.637000000000000455,-2.918433918514574010
0.638000000000000456,-2.902448596995350627
0.639000000000000457,-2.886344844785397434
0.640000000000000457,-2.870125800037262920
0.641000000000000458,-2.853794593243652589
0.642000000000000459,-2.837354346280257289
0.643000000000000460,-2.820808171477227955
0.644000000000000461,-2.804159170718873106
0.645000000000000462,-2.787410434571132356
0.646000000000000463,-2.770565041436352516
0.647000000000000464,-2.753626056734964411
0.648000000000000465,-2.736596532113581670
0.649000000000000465,-2.719479504679100046
0.650000000000000466,-2.702277996258341641
0.651000000000000467,-2.684995012682831916
0.652000000000000468,-2.667633543098242299
0.653000000000000469,-2.650196559298080512
0.654000000000000470,-2.632687015081213389
0.655000000000000471,-2.615107845632757222
0.656000000000000472,-2.597461966927942623
0.657000000000000473,-2.579752275158518682
0.658000000000000473,-2.561981646181269667
0.659000000000000474,-2.544152934988244574
0.660000000000000475,-2.526268975198277200
0.661000000000000476,-2.508332578569368643
0.662000000000000477,-2.490346534531574729
0.663000000000000478,-2.472313609739937856
0.664000000000000479,-2.454236547647094646
0.665000000000000480,-2.436118068095176170
0.666000000000000481,-2.417960866926584185
0.667000000000000481,-2.399767615613245031
0.668000000000000482,-2.381540960904002358
0.669000000000000483,-2.363283524489744103
0.670000000000000484,-2.344997902685858726
0.671000000000000485,-2.326686666131705827
0.672000000000000486,-2.308352359506677054
0.673000000000000487,-2.289997501262558632
0.674000000000000488,-2.271624583371726569
0.675000000000000488,-2.253236071090930714
0.676000000000000489,-2.234834402740255133
0.677000000000000490,-2.216421989496911493
0.678000000000000491,-2.198001215203551961
0.679000000000000492,-2.179574436190745423
0.680000000000000493,-2.161143981113273771
0.681000000000000494,-2.142712150799941817
0.682000000000000495,-2.124281218116566006
0.683000000000000496,-2.105853427841828829
0.684000000000000496,-2.087430996555662333
0.685000000000000497,-2.069016112539896479
0.686000000000000498,-2.050610935690794445
0.687000000000000499,-2.032217597443257695
0.688000000000000500,-2.013838200706331794
0.689000000000000501,-1.995474819809756939
0.690000000000000502,-1.977129500461275002
0.691000000000000503,-1.958804259714387985
0.692000000000000504,-1.940501085946306770
0.693000000000000504,-1.922221938845822153
0.694000000000000505,-1.903968749410787087
0.695000000000000506,-1.885743419954999833
0.696000000000000507,-1.867547824124176969
0.697000000000000508,-1.849383806920785744
0.698000000000000509,-1.831253184737491768
0.699000000000000510,-1.813157745398909615
0.700000000000000511,-1.795099248211525778
0.701000000000000512,-1.777079424021415832
0.702000000000000512,-1.759099975279642347
0.703000000000000513,-1.741162576115015570
0.704000000000000514,-1.723268872414034814
0.705000000000000515,-1.705420481907764296
0.706000000000000516,-1.687618994265441374
0.707000000000000517,-1.669865971194563370
0.708000000000000518,-1.652162946547309330
0.709000000000000519,-1.634511426433006065
0.710000000000000520,-1.616912889336495684
0.711000000000000520,-1.599368786242181262
0.712000000000000521,-1.581880540763543674
0.713000000000000522,-1.564449549277959983
0.714000000000000523,-1.547077181066624174
0.715000000000000524,-1.529764778459364205
0.716000000000000525,-1.512513656984220578
0.717000000000000526,-1.495325105521545739
0.718000000000000527,-1.478200386462518834
0.719000000000000528,-1.461140735871840235
0.720000000000000528,-1.444147363654493255
0.721000000000000529,-1.427221453726350786
0.722000000000000530,-1.410364164188539160
0.723000000000000531,-1.393576627505326515
0.724000000000000532,-1.376859950685433320
0.725000000000000533,-1.360215215466599847
0.726000000000000534,-1.343643478503247612
0.727000000000000535,-1.327145771557118659
0.728000000000000536,-1.310723101690723258
0.729000000000000536,-1.294376451463483679
0.730000000000000537,-1.278106779130424808
0.731000000000000538,-1.261915018843262848
0.732000000000000539,-1.245802080853824378
0.733000000000000540,-1.229768851719577283
0.734000000000000541,-1.213816194511236679
0.735000000000000542,-1.197944949022277550
0.736000000000000543,-1.182155931980260366
0.737000000000000544,-1.166449937259815162
0.738000000000000544,-1.150827736097240539
0.739000000000000545,-1.135290077306536416
0.740000000000000546,-1.119837687496817669
0.741000000000000547,-1.104471271290974554
0.742000000000000548,-1.089191511545487545
0.743000000000000549,-1.073999069571309750
0.744000000000000550,-1.058894585355685258
0.745000000000000551,-1.043878677784868758
0.746000000000000552,-1.028951944867577240
0.747000000000000552,-1.014114963959174220
0.748000000000000553,-0.999368291986415413
0.749000000000000554,-0.984712465672721415
0.750000000000000555,-0.970148001763895373
0.751000000000000556,-0.955675397254173498
0.752000000000000557,-0.941295129612557901
0.753000000000000558,-0.927007657009359276
0.754000000000000559,-0.912813418542848587
0.755000000000000560,-0.898712834465971611
0.756000000000000560,-0.884706306413048260
0.757000000000000561,-0.870794217626385980
0.758000000000000562,-0.856976933182742817
0.759000000000000563,-0.843254800219592537
0.760000000000000564,-0.829628148161094314
0.761000000000000565,-0.816097288943749555
0.762000000000000566,-0.802662517241640172
0.763000000000000567,-0.789324110691268177
0.764000000000000568,-0.776082330115828389
0.765000000000000568,-0.762937419748976664
0.766000000000000569,-0.749889607457971508
0.767000000000000570,-0.736939104966158665
0.768000000000000571,-0.724086108074752155
0.769000000000000572,-0.711330796883873018
0.770000000000000573,-0.698673336012787805
0.771000000000000574,-0.686113874819302638
0.772000000000000575,-0.673652547618294184
0.773000000000000576,-0.661289473899290270
0.774000000000000576,-0.649024758543126468
0.775000000000000577,-0.636858492037590040
0.776000000000000578,-0.624790750692006736
0.777000000000000579,-0.612821596850816053
0.778000000000000580,-0.600951079105984443
0.779000000000000581,-0.589179232508326600
0.780000000000000582,-0.577506078777638043
0.781000000000000583,-0.565931626511657626
0.782000000000000584,-0.554455871393772837
0.783000000000000584,-0.543078796399510844
0.784000000000000585,-0.531800372001730581
0.785000000000000586,-0.520620556374513432
0.786000000000000587,-0.509539295595745734
0.787000000000000588,-0.498556523848335320
0.788000000000000589,-0.487672163620058274
0.789000000000000590,-0.476886125902031277
0.790000000000000591,-0.466198310385746495
0.791000000000000592,-0.455608605658709087
0.792000000000000592,-0.445116889398590287
0.793000000000000593,-0.434723028565947078
0.794000000000000594,-0.424426879595445228
0.795000000000000595,-0.414228288585583304
0.796000000000000596,-0.404127091486914225
0.797000000000000597,-0.394123114288748910
0.798000000000000598,-0.384216173204300016
0.799000000000000599,-0.374406074854301274
0.800000000000000600,-0.364692616449054319
0.801000000000000600,-0.355075585968912422
0.802000000000000601,-0.345554762343175337
0.803000000000000602,-0.336129915627410292
0.804000000000000603,-0.326800807179161268
0.805000000000000604,-0.317567189832062613
0.806000000000000605,-0.308428808068344995
0.807000000000000606,-0.299385398189722207
0.808000000000000607,-0.290436688486640060
0.809000000000000608,-0.281582399405932493
0.810000000000000608,-0.272822243716816015
0.811000000000000609,-0.264155926675264108
0.812000000000000610,-0.255583146186734389
0.813000000000000611,-0.247103592967266472
0.814000000000000612,-0.238716950702927588
0.815000000000000613,-0.230422896207628902
0.816000000000000614,-0.222221099579267417
0.817000000000000615,-0.214111224354259944
0.818000000000000616,-0.206092927660410041
0.819000000000000616,-0.198165860368128305
0.820000000000000617,-0.190329667240019207
0.821000000000000618,-0.182583987078816179
0.822000000000000619,-0.174928452873692297
0.823000000000000620,-0.167362691944910991
0.824000000000000621,-0.159886326086859099
0.825000000000000622,-0.152498971709431747
0.826000000000000623,-0.145200239977802681
0.827000000000000624,-0.137989736950561909
0.828000000000000624,-0.130867063716233911
0.829000000000000625,-0.123831816528172142
0.830000000000000626,-0.116883586937851391
0.831000000000000627,-0.110021961926548298
0.832000000000000628,-0.103246524035425183
0.833000000000000629,-0.096556851494002519
0.834000000000000630,-0.089952518347064164
0.835000000000000631,-0.083433094579961592
0.836000000000000631,-0.076998146242349047
0.837000000000000632,-0.070647235570349257
0.838000000000000633,-0.064379921107141996
0.839000000000000634,-0.058195757822024706
0.840000000000000635,-0.052094297227896477
0.841000000000000636,-0.046075087497211523
0.842000000000000637,-0.040137673576414658
0.843000000000000638,-0.034281597298820424
0.844000000000000639,-0.028506397496011842
0.845000000000000639,-0.022811610107703603
0.846000000000000640,-0.017196768290120679
0.847000000000000641,-0.011661402522880782
0.848000000000000642,-0.006205040714407700
0.849000000000000643,-0.000827208305845689
0.850000000000000644,0.004472571626447252
0.851000000000000645,0.009694778269906732
0.852000000000000646,0.014839892976169097
0.853000000000000647,0.019908399162939690
0.854000000000000647,0.024900782217272679
0.855000000000000648,0.029817529400274101
0.856000000000000649,0.034659129753190375
0.857000000000000650,0.039426074004913769
0.858000000000000651,0.044118854480851045
0.859000000000000652,0.048737965013171958
0.860000000000000653,0.053283900852424682
0.861000000000000654,0.057757158580493927
0.862000000000000655,0.062158236024899359
0.863000000000000655,0.066487632174438732
0.864000000000000656,0.070745847096129286
0.865000000000000657,0.074933381853468525
0.866000000000000658,0.079050738425999176
0.867000000000000659,0.083098419630142653
0.868000000000000660,0.087076929041324580
0.869000000000000661,0.090986770917352883
0.870000000000000662,0.094828450123058808
0.871000000000000663,0.098602472056171772
0.872000000000000663,0.102309342574427406
0.873000000000000664,0.105949567923899285
0.874000000000000665,0.109523654668532713
0.875000000000000666,0.113032109620887236
0.876000000000000667,0.116475439774044065
0.877000000000000668,0.119854152234708716
0.878000000000000669,0.123168754157473123
0.879000000000000670,0.126419752680219044
0.880000000000000671,0.129607654860672522
0.881000000000000671,0.132732967614083985
0.882000000000000672,0.135796197652031186
0.883000000000000673,0.138797851422322233
0.884000000000000674,0.141738435049999556
0.885000000000000675,0.144618454279427044
0.886000000000000676,0.147438414417452035
0.887000000000000677,0.150198820277617995
0.888000000000000678,0.152900176125458642
0.889000000000000679,0.155542985624790908
0.890000000000000679,0.158127751785070131
0.891000000000000680,0.160654976909740344
0.892000000000000681,0.163125162545607633
0.893000000000000682,0.165538809433201262
0.894000000000000683,0.167896417458117259
0.895000000000000684,0.170198485603340777
0.896000000000000685,0.172445511902524357
0.897000000000000686,0.174637993394230834
0.898000000000000687,0.176776426077094262
0.899000000000000687,0.178861304865939180
0.900000000000000688,0.180893123548797913
0.901000000000000689,0.182872374744845578
0.902000000000000690,0.184799549863228829
0.903000000000000691,0.186675139062781659
0.904000000000000692,0.188499631212628083
0.905000000000000693,0.190273513853635889
0.906000000000000694,0.191997273160738030
0.907000000000000695,0.193671393906093697
0.908000000000000695,0.195296359423081461
0.909000000000000696,0.196872651571126850
0.910000000000000697,0.198400750701336503
0.911000000000000698,0.199881135622940687
0.912000000000000699,0.201314283570526109
0.913000000000000700,0.202700670172052982
0.914000000000000701,0.204040769417656170
0.915000000000000702,0.205335053629199626
0.916000000000000703,0.206583993430584256
0.917000000000000703,0.207788057718809233
0.918000000000000704,0.208947713635766752
0.919000000000000705,0.210063426540754300
0.920000000000000706,0.211135659983710866
0.921000000000000707,0.212164875679151266
0.922000000000000708,0.213151533480813615
0.923000000000000709,0.214096091356969775
0.924000000000000710,0.214999005366437068
0.925000000000000711,0.215860729635239501
0.926000000000000711,0.216681716333949559
0.927000000000000712,0.217462415655657576
0.928000000000000713,0.218203275794601970
0.929000000000000714,0.218904742925418727
0.930000000000000715,0.219567261183027357
0.931000000000000716,0.220191272643120189
0.932000000000000717,0.220777217303252643
0.933000000000000718,0.221325533064564428
0.934000000000000719,0.221836655714043207
0.935000000000000719,0.222311018907404678
0.936000000000000720,0.222749054152523523
0.937000000000000721,0.223151190793441312
0.938000000000000722,0.223517855994924741
0.939000000000000723,0.223849474727565223
0.940000000000000724,0.224146469753429306
0.941000000000000725,0.224409261612228350
0.942000000000000726,0.224638268608022745
0.943000000000000727,0.224833906796426147
0.944000000000000727,0.224996589972333849
0.945000000000000728,0.225126729658138458
0.946000000000000729,0.225224735092439537
0.947000000000000730,0.225291013219245440
0.948000000000000731,0.225325968677635602
0.949000000000000732,0.225330003791907207
0.950000000000000733,0.225303518562179284
0.951000000000000734,0.225246910655445109
0.952000000000000735,0.225160575397077484
0.953000000000000735,0.225044905762773251
0.954000000000000736,0.224900292370930094
0.955000000000000737,0.224727123475449042
0.956000000000000738,0.224525784958952535
0.957000000000000739,0.224296660326415875
0.958000000000000740,0.224040130699217382
0.959000000000000741,0.223756574809557518
0.960000000000000742,0.223446368995295686
0.961000000000000743,0.223109887195168388
0.962000000000000743,0.222747500944368515
0.963000000000000744,0.222359579370517035
0.964000000000000745,0.221946489189989743
0.965000000000000746,0.221508594704602629
0.966000000000000747,0.221046257798661466
0.967000000000000748,0.220559837936340486
0.968000000000000749,0.220049692159418248
0.969000000000000750,0.219516175085337911
0.970000000000000751,0.218959638905602633
0.971000000000000751,0.218380433384485734
0.972000000000000752,0.217778905858072303
0.973000000000000753,0.217155401233591838
0.974000000000000754,0.216510261989077024
0.975000000000000755,0.215843828173305774
0.976000000000000756,0.215156437406050227
0.977000000000000757,0.214448424878601662
0.978000000000000758,0.213720123354597724
0.979000000000000759,0.212971863171103420
0.980000000000000759,0.212203972239982747
0.981000000000000760,0.211416776049538624
0.982000000000000761,0.210610597666397059
0.983000000000000762,0.209785757737667333
0.984000000000000763,0.208942574493349520
0.985000000000000764,0.208081363748976178
0.986000000000000765,0.207202438908520470
0.987000000000000766,0.206306110967518691
0.988000000000000766,0.205392688516437605
0.989000000000000767,0.204462477744259047
0.990000000000000768,0.203515782442314969
0.991000000000000769,0.202552904008295620
0.992000000000000770,0.201574141450511168
0.993000000000000771,0.200579791392349494
0.994000000000000772,0.199570148076927578
0.995000000000000773,0.198545503371960474
0.996000000000000774,0.197506146774819868
0.997000000000000774,0.196452365417778829
0.998000000000000775,0.195384444073456981
0.999000000000000776,0.194302665160429877
1.000000000000000666,0.193207308749039713
1.001000000000000778,0.192098652567365635
1.002000000000000668,0.190976972007371293
1.003000000000000780,0.189842540131224730
1.004000000000000670,0.188695627677760630
1.005000000000000782,0.187536503069134525
1.006000000000000671,0.186365432417605253
1.007000000000000783,0.185182679532484379
1.008000000000000673,0.183988505927228319
1.009000000000000785,0.182783170826673835
1.010000000000000675,0.181566931174425544
1.011000000000000787,0.180340041640359883
1.012000000000000677,0.179102754628286259
1.013000000000000789,0.177855320283729801
1.014000000000000679,0.176597986501826176
1.015000000000000790,0.175330998935376070
1.016000000000000680,0.174054601002976789
1.017000000000000792,0.172769033897316598
1.018000000000000682,0.171474536593533372
1.019000000000000794,0.170171345857735273
1.020000000000000684,0.168859696255591302
1.021000000000000796,0.167539820161044017
1.022000000000000686,0.166211947765125267
1.023000000000000798,0.164876307084856288
1.024000000000000687,0.163533123972268685
1.025000000000000799,0.162182622123485498
1.026000000000000689,0.160825023087933949
1.027000000000000801,0.159460546277598342
1.028000000000000691,0.158089408976402279
1.029000000000000803,0.156711826349638456
1.030000000000000693,0.155328011453502585
1.031000000000000805,0.153938175244689557
1.032000000000000695,0.152542526590067812
1.033000000000000806,0.151141272276426708
1.034000000000000696,0.149734617020287064
1.035000000000000808,0.148322763477795799
1.036000000000000698,0.146905912254656962
1.037000000000000810,0.145484261916150631
1.038000000000000700,0.144058008997198173
1.039000000000000812,0.142627348012482530
1.040000000000000702,0.141192471466635272
1.041000000000000814,0.139753569864461691
1.042000000000000703,0.138310831721234678
1.043000000000000815,0.136864443573013278
1.044000000000000705,0.135414589987031930
1.045000000000000817,0.133961453572111061
1.046000000000000707,0.132505214989130343
1.047000000000000819,0.131046052961521720
1.048000000000000709,0.129584144285834924
1.049000000000000821,0.128119663842278603
1.050000000000000711,0.126652784605365443
1.051000000000000822,0.125183677654535974
1.052000000000000712,0.123712512184842777
1.053000000000000824,0.122239455517653223
1.054000000000000714,0.120764673111373136
1.055000000000000826,0.119288328572211055
1.056000000000000716,0.117810583664944485
1.057000000000000828,0.116331598323731272
1.058000000000000718,0.114851530662924375
1.059000000000000830,0.113370536987906709
1.060000000000000719,0.111888771805947029
1.061000000000000831,0.110406387837080275
1.062000000000000721,0.108923536024968778
1.063000000000000833,0.107440365547814692
1.064000000000000723,0.105957023829259978
1.065000000000000835,0.104473656549303517
1.066000000000000725,0.102990407655213861
1.067000000000000837,0.101507419372468252
1.068000000000000727,0.100024832215677414
1.069000000000000838,0.098542784999525929
1.070000000000000728,0.097061414849710009
1.071000000000000840,0.095580857213871551
1.072000000000000730,0.094101245872543759
1.073000000000000842,0.092622712950079747
1.074000000000000732,0.091145388925591125
1.075000000000000844,0.089669402643870952
1.076000000000000734,0.088194881326327468
1.077000000000000846,0.086721950581888071
1.078000000000000735,0.085250734417916085
1.079000000000000847,0.083781355251107442
1.080000000000000737,0.082313933918380738
1.081000000000000849,0.080848589687760999
1.082000000000000739,0.079385440269233915
1.083000000000000851,0.077924601825613254
1.084000000000000741,0.076466188983368266
1.085000000000000853,0.075010314843455328
1.086000000000000743,0.073557090992119906
1.087000000000000854,0.072106627511691446
1.088000000000000744,0.070659032991351040
1.089000000000000856,0.069214414537892011
1.090000000000000746,0.067772877786442393
1.091000000000000858,0.066334526911186353
1.092000000000000748,0.064899464636053561
1.093000000000000860,0.063467792245389371
1.094000000000000750,0.062039609594588388
1.095000000000000862,0.060615015120737359
1.096000000000000751,0.059194105853192402
1.097000000000000863,0.057776977424158639
1.098000000000000753,0.056363724079234123
1.099000000000000865,0.054954438687923435
1.100000000000000755,0.053549212754139743
1.101000000000000867,0.052148136426647597
1.102000000000000757,0.050751298509510878
1.103000000000000869,0.049358786472486968
1.104000000000000759,0.047970686461404233
1.105000000000000870,0.046587083308498381
1.106000000000000760,0.045208060542726712
1.107000000000000872,0.043833700400039630
1.108000000000000762,0.042464083833630470
1.109000000000000874,0.041099290524144114
1.110000000000000764,0.039739398889854990
1.111000000000000876,0.038384486096805462
1.112000000000000766,0.037034628068924332
1.113000000000000878,0.035689899498088332
1.114000000000000767,0.034350373854160197
1.115000000000000879,0.033016123394991541
1.116000000000000769,0.031687219176389794
1.117000000000000881,0.030363731062032374
1.118000000000000771,0.029045727733361382
1.119000000000000883,0.027733276699436239
1.120000000000000773,0.026426444306735398
1.121000000000000885,0.025125295748938653
1.122000000000000774,0.023829895076651599
1.123000000000000886,0.022540305207098890
1.124000000000000776,0.021256587933782448
1.125000000000000888,0.019978803936086333
1.126000000000000778,0.018707012788849987
1.127000000000000890,0.017441272971902542
1.128000000000000780,0.016181641879544247
1.129000000000000892,0.014928175829994145
1.130000000000000782,0.013680930074803449
1.131000000000000894,0.012439958808199184
1.132000000000000783,0.011205315176424457
1.133000000000000895,0.009977051286996847
1.134000000000000785,0.008755218217953947
1.135000000000000897,0.007539866027035947
1.136000000000000787,0.006331043760831881
1.137000000000000899,0.005128799463886513
1.138000000000000789,0.003933180187755877
1.139000000000000901,0.002744232000014296
1.140000000000000790,0.001561999993232241
1.141000000000000902,0.000386528293900240
1.142000000000000792,-0.000782139928696149
1.143000000000000904,-0.001943962453649073
1.144000000000000794,-0.003098897999618905
1.145000000000000906,-0.004246906216109269
1.146000000000000796,-0.005387947674761573
1.147000000000000908,-0.006521983860702943
1.148000000000000798,-0.007648977163940413
1.149000000000000909,-0.008768890870800145
1.150000000000000799,-0.009881689155413681
1.151000000000000689,-0.010987337071246861
1.152000000000000801,-0.012085800542684183
1.153000000000000913,-0.013177046356642828
1.154000000000000803,-0.014261042154250040
1.155000000000000693,-0.015337756422563154
1.156000000000000805,-0.016407158486326061
1.157000000000000917,-0.017469218499783726
1.158000000000000806,-0.018523907438539787
1.159000000000000696,-0.019571197091458031
1.160000000000000808,-0.020611060052616176
1.161000000000000920,-0.021643469713301246
1.162000000000000810,-0.022668400254055719
1.163000000000000700,-0.023685826636763226
1.164000000000000812,-0.024695724596801874
1.165000000000000924,-0.025698070635211102
1.166000000000000814,-0.026692842010932728
1.167000000000000703,-0.027680016733096037
1.168000000000000815,-0.028659573553332641
1.169000000000000927,-0.029631491958156175
1.170000000000000817,-0.030595752161386391
1.171000000000000707,-0.031552335096604822
1.172000000000000819,-0.032501222409678419
1.173000000000000931,-0.033442396451319800
1.174000000000000821,-0.034375840269688825
1.175000000000000711,-0.035301537603056821
1.176000000000000822,-0.036219472872498749
1.177000000000000934,-0.037129631174648611
1.178000000000000824,-0.038031998274486119
1.179000000000000714,-0.038926560598188553
1.180000000000000826,-0.039813305226013472
1.181000000000000938,-0.040692219885232285
1.182000000000000828,-0.041563292943115428
1.183000000000000718,-0.042426513399953347
1.184000000000000830,-0.043281870882136683
1.185000000000000941,-0.044129355635275133
1.186000000000000831,-0.044968958517362899
1.187000000000000721,-0.045800670991989714
1.188000000000000833,-0.046624485121601708
1.189000000000000945,-0.047440393560804137
1.190000000000000835,-0.048248389549711848
1.191000000000000725,-0.049048466907341159
1.192000000000000837,-0.049840620025063211
1.193000000000000949,-0.050624843860073543
1.194000000000000838,-0.051401133928938289
1.195000000000000728,-0.052169486301165434
1.196000000000000840,-0.052929897592827936
1.197000000000000952,-0.053682364960233687
1.198000000000000842,-0.054426886093633497
1.199000000000000732,-0.055163459210985408
1.200000000000000844,-0.055892083051746741
1.201000000000000956,-0.056612756870735345
1.202000000000000846,-0.057325480432002182
1.203000000000000735,-0.058030254002784477
1.204000000000000847,-0.058727078347474329
1.205000000000000959,-0.059415954721642961
1.206000000000000849,-0.060096884866110999
1.207000000000000739,-0.060769871001061168
1.208000000000000851,-0.061434915820184746
1.209000000000000963,-0.062092022484892005
1.210000000000000853,-0.062741194618541024
1.211000000000000743,-0.063382436300730802
1.212000000000000854,-0.064015752061623160
1.213000000000000966,-0.064641146876319250
1.214000000000000856,-0.065258626159264255
1.215000000000000746,-0.065868195758709530
1.216000000000000858,-0.066469861951211739
1.217000000000000970,-0.067063631436162924
1.218000000000000860,-0.067649511330381412
1.219000000000000750,-0.068227509162736816
1.220000000000000862,-0.068797632868807371
1.221000000000000973,-0.069359890785594000
1.222000000000000863,-0.069914291646265322
1.223000000000000753,-0.070460844574949832
1.224000000000000865,-0.070999559081564481
1.225000000000000977,-0.071530445056686640
1.226000000000000867,-0.072053512766467875
1.227000000000000757,-0.072568772847587198
1.228000000000000869,-0.073076236302234809
1.229000000000000981,-0.073575914493160283
1.230000000000000870,-0.074067819138736127
1.231000000000000760,-0.074551962308073288
1.232000000000000872,-0.075028356416170311
1.233000000000000984,-0.075497014219107636
1.234000000000000874,-0.075957948809286455
1.235000000000000764,-0.076411173610680547
1.236000000000000876,-0.076856702374165392
1.237000000000000988,-0.077294549172851168
1.238000000000000878,-0.077724728397476267
1.239000000000000767,-0.078147254751832415
1.240000000000000879,-0.078562143248225108
1.241000000000000991,-0.078969409202967827
1.242000000000000881,-0.079369068231934986
1.243000000000000771,-0.079761136246128572
1.244000000000000883,-0.080145629447286176
1.245000000000000995,-0.080522564323541809
1.246000000000000885,-0.080891957645111229
1.247000000000000774,-0.081253826460013195
1.248000000000000886,-0.081608188089829128
1.249000000000000998,-0.081955060125504159
1.250000000000000888,-0.082294460423181365
1.251000000000000778,-0.082626407100063595
1.252000000000000890,-0.082950918530330903
1.253000000000001002,-0.083268013341067662
1.254000000000000892,-0.083577710408249309
1.255000000000000782,-0.083880028852751060
1.256000000000000894,-0.084174988036394047
1.257000000000001005,-0.084462607558026578
1.258000000000000895,-0.084742907249643312
1.259000000000000785,-0.085015907172526287
1.260000000000000897,-0.085281627613448222
1.261000000000001009,-0.085540089080869797
1.262000000000000899,-0.085791312301209829
1.263000000000000789,-0.086035318215121240
1.264000000000000901,-0.086272127973820792
1.265000000000001013,-0.086501762935433019
1.266000000000000902,-0.086724244661378888
1.267000000000000792,-0.086939594912803730
1.268000000000000904,-0.087147835647016766
1.269000000000001016,-0.087348989013987632
1.270000000000000906,-0.087543077352851439
1.271000000000000796,-0.087730123188470663
1.272000000000000908,-0.087910149228005108
1.273000000000001020,-0.088083178357534125
1.274000000000000909,-0.088249233638691610
1.275000000000000799,-0.088408338305349499
1.276000000000000911,-0.088560515760324060
1.277000000000001023,-0.088705789572107216
1.278000000000000913,-0.088844183471645438
1.279000000000000803,-0.088975721349126652
1.280000000000000915,-0.089100427250824468
1.281000000000001027,-0.089218325375943805
1.282000000000000917,-0.089329440073521435
1.283000000000000806,-0.089433795839340274
1.284000000000000918,-0.089531417312879280
1.285000000000001030,-0.089622329274293686
1.286000000000000920,-0.089706556641427376
1.287000000000000810,-0.089784124466836618
1.288000000000000922,-0.089855057934872543
1.289000000000001034,-0.089919382358762262
1.290000000000000924,-0.089977123177741203
1.291000000000000814,-0.090028305954202192
1.292000000000000925,-0.090072956370869123
1.293000000000001037,-0.090111100228014274
1.294000000000000927,-0.090142763440684531
1.295000000000000817,-0.090167972035976332
1.296000000000000929,-0.090186752150307928
1.297000000000001041,-0.090199130026749619
1.298000000000000931,-0.090205132012371417
1.299000000000000821,-0.090204784555602185
1.300000000000000933,-0.090198114203633772
1.301000000000001044,-0.090185147599849483
1.302000000000000934,-0.090165911481265737
1.303000000000000824,-0.090140432676013932
1.304000000000000936,-0.090108738100841537
1.305000000000001048,-0.090070854758645180
1.306000000000000938,-0.090026809736018273
1.307000000000000828,-0.089976630200829424
1.308000000000000940,-0.089920343399832431
1.309000000000001052,-0.089857976656292499
1.310000000000000941,-0.089789557367644462
1.311000000000000831,-0.089715113003160776
1.312000000000000943,-0.089634671101664357
1.313000000000001055,-0.089548259269258704
1.314000000000000945,-0.089455905177072720
1.315000000000000835,-0.089357636559036502
1.316000000000000947,-0.089253481209683752
1.317000000000001059,-0.089143466981976241
1.318000000000000949,-0.089027621785146560
1.319000000000000838,-0.088905973582569159
1.320000000000000950,-0.088778550389656971
1.321000000000001062,-0.088645380271769575
1.322000000000000952,-0.088506491342157101
1.323000000000000842,-0.088361911759923278
1.324000000000000954,-0.088211669728004163
1.325000000000001066,-0.088055793491173762
1.326000000000000956,-0.087894311334078365
1.327000000000000846,-0.087727251579279034
1.328000000000000957,-0.087554642585324471
1.329000000000001069,-0.087376512744847673
1.330000000000000959,-0.087192890482681154
1.331000000000000849,-0.087003804253984157
1.332000000000000961,-0.086809282542409744
1.333000000000001073,-0.086609353858276519
1.334000000000000963,-0.086404046736769657
1.335000000000000853,-0.086193389736156464
1.336000000000000965,-0.085977411436033491
1.337000000000001076,-0.085756140435577055
1.338000000000000966,-0.085529605351830323
1.339000000000000856,-0.085297834818004459
1.340000000000000968,-0.085060857481786864
1.341000000000001080,-0.084818702003695484
1.342000000000000970,-0.084571397055429029
1.343000000000000860,-0.084318971318246144
1.344000000000000972,-0.084061453481364207
1.345000000000001084,-0.083798872240382336
1.346000000000000973,-0.083531256295702266
1.347000000000000863,-0.083258634350995592
1.348000000000000975,-0.082981035111670015
1.349000000000001087,-0.082698487283365402
1.350000000000000977,-0.082411019570456795
1.351000000000000867,-0.082118660674589852
1.352000000000000979,-0.081821439293221387
1.353000000000001091,-0.081519384118182034
1.354000000000000981,-0.081212523834266553
1.355000000000000870,-0.080900887117817288
1.356000000000000982,-0.080584502635357255
1.357000000000001094,-0.080263399042213052
1.358000000000000984,-0.079937604981163993
1.359000000000000874,-0.079607149081123652
1.360000000000000986,-0.079272059955807064
1.361000000000001098,-0.078932366202447146
1.362000000000000988,-0.078588096400495827
1.363000000000000878,-0.078239279110378118
1.364000000000000989,-0.077885942872230843
1.365000000000001101,-0.077528116204664432
1.366000000000000991,-0.077165827603562484
1.367000000000000881,-0.076799105540864138
1.368000000000000993,-0.076427978463389404
1.369000000000001105,-0.076052474791660885
1.370000000000000995,-0.075672622918756052
1.371000000000000885,-0.075288451209168120
1.372000000000000997,-0.074899987997675804
1.373000000000001108,-0.074507261588245430
1.374000000000000998,-0.074110300252918843
1.375000000000000888,-0.073709132230758839
1.376000000000001000,-0.073303785726763798
1.377000000000001112,-0.072894288910833160
1.378000000000001002,-0.072480669916719392
1.379000000000000892,-0.072062956841021569
1.380000000000001004,-0.071641177742161902
1.381000000000001116,-0.071215360639410280
1.382000000000001005,-0.070785533511893275
1.383000000000000895,-0.070351724297632562
1.384000000000001007,-0.069913960892601643
1.385000000000001119,-0.069472271149776083
1.386000000000001009,-0.069026682878219225
1.387000000000000899,-0.068577223842163471
1.388000000000001011,-0.068123921760125550
1.389000000000001123,-0.067666804304005346
1.390000000000001013,-0.067205899098230243
1.391000000000000902,-0.066741233718884574
1.392000000000001014,-0.066272835692875093
1.393000000000001126,-0.065800732497089981
1.394000000000001016,-0.065324951557580363
1.395000000000000906,-0.064845520248756158
1.396000000000001018,-0.064362465892582349
1.397000000000001130,-0.063875815757805793
1.398000000000001020,-0.063385597059177998
1.399000000000000909,-0.062891836956692232
1.400000000000001021,-0.062394562554844567
1.401000000000001133,-0.061893800901891727
1.402000000000001023,-0.061389578989131902
1.403000000000000913,-0.060881923750186952
1.404000000000001025,-0.060370862060300158
1.405000000000001137,-0.059856420735659777
1.406000000000001027,-0.059338626532698224
1.407000000000000917,-0.058817506147450335
1.408000000000001029,-0.058293086214871913
1.409000000000001140,-0.057765393308212142
1.410000000000001030,-0.057234453938373342
1.411000000000000920,-0.056700294553284424
1.412000000000001032,-0.056162941537285946
1.413000000000001144,-0.055622421210537634
1.414000000000001034,-0.055078759828415813
1.415000000000000924,-0.054531983580930268
1.416000000000001036,-0.053982118592161489
1.417000000000001148,-0.053429190919691269
1.418000000000001037,-0.052873226554053687
1.419000000000000927,-0.052314251418192605
1.420000000000001039,-0.051752291366926627
1.421000000000001151,-0.051187372186434765
1.422000000000001041,-0.050619519593734431
1.423000000000000931,-0.050048759236183571
1.424000000000001043,-0.049475116690982091
1.425000000000001155,-0.048898617464696106
1.426000000000001044,-0.048319286992771868
1.427000000000000934,-0.047737150639081606
1.428000000000001046,-0.047152233695454723
1.429000000000001158,-0.046564561381237025
1.430000000000001048,-0.045974158842845933
1.431000000000000938,-0.045381051153351705
1.432000000000001050,-0.044785263312043279
1.433000000000001162,-0.044186820244021471
1.434000000000001052,-0.043585746799791429
1.435000000000000941,-0.042982067754870547
1.436000000000001053,-0.042375807809400381
1.437000000000001165,-0.041766991587762092
1.438000000000001055,-0.041155643638215146
1.439000000000000945,-0.040541788432524414
1.440000000000001057,-0.039925450365611778
1.441000000000001169,-0.039306653755203494
1.442000000000001059,-0.038685422841496141
1.443000000000000949,-0.038061781786829396
1.444000000000001060,-0.037435754675349917
1.445000000000001172,-0.036807365512704457
1.446000000000001062,-0.036176638225733540
1.447000000000000952,-0.035543596662160830
1.448000000000001064,-0.034908264590308338
1.449000000000001176,-0.034270665698811389
1.450000000000001066,-0.033630823596327929
1.451000000000000956,-0.032988761811281728
1.452000000000001068,-0.032344503791587279
1.453000000000001180,-0.031698072904397981
1.454000000000001069,-0.031049492435852671
1.455000000000000959,-0.030398785590832044
1.456000000000001071,-0.029745975492719234
1.457000000000001183,-0.029091085183180591
1.458000000000001073,-0.028434137621925641
1.459000000000000963,-0.027775155686504238
1.460000000000001075,-0.027114162172086832
1.461000000000001187,-0.026451179791265544
1.462000000000001076,-0.025786231173856883
1.463000000000000966,-0.025119338866704255
1.464000000000001078,-0.024450525333497654
1.465000000000001190,-0.023779812954603619
1.466000000000001080,-0.023107224026865471
1.467000000000000970,-0.022432780763467990
1.468000000000001082,-0.021756505293758249
1.469000000000001194,-0.021078419663094212
1.470000000000001084,-0.020398545832695784
1.471000000000000973,-0.019716905679502662
1.472000000000001085,-0.019033520996036019
1.473000000000001197,-0.018348413490268983
1.474000000000001087,-0.017661604785493092
1.475000000000000977,-0.016973116420203736
1.476000000000001089,-0.016282969847986134
1.477000000000001201,-0.015591186437398170
1.478000000000001091,-0.014897787471870264
1.479000000000000981,-0.014202794149608632
1.480000000000001092,-0.013506227583490701
1.481000000000001204,-0.012808108800991822
1.482000000000001094,-0.012108458744084255
1.483000000000000984,-0.011407298269171317
1.484000000000001096,-0.010704648147009404
1.485000000000001208,-0.010000529062631668
1.486000000000001098,-0.009294961615296405
1.487000000000000988,-0.008587966318417923
1.488000000000001100,-0.007879563599516273
1.489000000000001211,-0.007169773800162647
1.490000000000001101,-0.006458617175945211
1.491000000000000991,-0.005746113896411771
1.492000000000001103,-0.005032284045049530
1.493000000000001215,-0.004317147619240494
1.494000000000001105,-0.003600724530243113
1.495000000000000995,-0.002883034603163809
1.496000000000001107,-0.002164097576942653
1.497000000000001219,-0.001443933104333052
1.498000000000001108,-0.000722560751899582
1.499000000000000998,0.000000000000000000
