# SS304-111_ALA-AC
# h[nm],U(h)[kJ/mol]
0.149999999999999994,55.276993839125807995
0.150999999999999995,51.682355610734703077
0.151999999999999996,48.217420540174863675
0.152999999999999997,44.797191455010938910
0.153999999999999998,41.442036587531148939
0.154999999999999999,38.191928552709150324
0.156000000000000000,35.073659266008078816
0.157000000000000001,32.093964982825511356
0.158000000000000002,29.243537767254075277
0.159000000000000002,26.504113434743970856
0.160000000000000003,23.854999006325588340
0.161000000000000004,21.277700361752145852
0.162000000000000005,18.758482682889521698
0.163000000000000006,16.289216692685908328
0.164000000000000007,13.867026499790332750
0.165000000000000008,11.493237297999446156
0.166000000000000009,9.172026261273568792
0.167000000000000010,6.909064444695292018
0.168000000000000010,4.710329954169919731
0.169000000000000011,2.581185209810056502
0.170000000000000012,0.525746767593605391
0.171000000000000013,-1.453466823241811978
0.172000000000000014,-3.355648980684517113
0.173000000000000015,-5.181632627183113016
0.174000000000000016,-6.933685503612322165
0.175000000000000017,-8.615223780093666406
0.176000000000000018,-10.230487305487537597
0.177000000000000018,-11.784211093120019243
0.178000000000000019,-13.281318665834993098
0.179000000000000020,-14.726654532396191044
0.180000000000000021,-16.124765824550703286
0.181000000000000022,-17.479737206864882637
0.182000000000000023,-18.795078612947737184
0.183000000000000024,-20.073662077335150400
0.184000000000000025,-21.317701769821763236
0.185000000000000026,-22.528770114510034972
0.186000000000000026,-23.707842398705487597
0.187000000000000027,-24.855362365818010062
0.188000000000000028,-25.971321779308386368
0.189000000000000029,-27.055347702702441381
0.190000000000000030,-28.106792150018094389
0.191000000000000031,-29.124819732039810560
0.192000000000000032,-30.108489889245458215
0.193000000000000033,-31.056831213639696898
0.194000000000000034,-31.968906187275440089
0.195000000000000034,-32.843865386022244479
0.196000000000000035,-33.680990804642867431
0.197000000000000036,-34.479728452741142064
0.198000000000000037,-35.239710755518366625
0.199000000000000038,-35.960769577193772761
0.200000000000000039,-36.642940879402132737
0.201000000000000040,-37.286462144054311807
0.202000000000000041,-37.891763742510001123
0.203000000000000042,-38.459455432610454295
0.204000000000000042,-38.990309123525555890
0.205000000000000043,-39.485238975798054639
0.206000000000000044,-39.945279809526951453
0.207000000000000045,-40.371564685148761953
0.208000000000000046,-40.765302405320383627
0.209000000000000047,-41.127755568339338765
0.210000000000000048,-41.460219687603760974
0.211000000000000049,-41.764003781057780884
0.212000000000000050,-42.040412731755246512
0.213000000000000050,-42.290731627206909593
0.214000000000000051,-42.516212202026672173
0.215000000000000052,-42.718061436007033649
0.216000000000000053,-42.897432298157248454
0.217000000000000054,-43.055416576135783657
0.218000000000000055,-43.193039689353049937
0.219000000000000056,-43.311257352098252227
0.220000000000000057,-43.410953929521433281
0.221000000000000058,-43.492942313279591815
0.222000000000000058,-43.557965134215592684
0.223000000000000059,-43.606697125655216496
0.224000000000000060,-43.639748451900565840
0.225000000000000061,-43.657668821421978578
0.226000000000000062,-43.660952212327970301
0.227000000000000063,-43.650042048211204815
0.228000000000000064,-43.625336674789025437
0.229000000000000065,-43.587195001316985099
0.230000000000000066,-43.535942185058772225
0.231000000000000066,-43.471875251729834133
0.232000000000000067,-43.395268559439273304
0.233000000000000068,-43.306379027946341864
0.234000000000000069,-43.205451068790694080
0.235000000000000070,-43.092721164868017070
0.236000000000000071,-42.968422060168769860
0.237000000000000072,-42.832786531584233103
0.238000000000000073,-42.686050724848172422
0.239000000000000073,-42.528457045795462932
0.240000000000000074,-42.360256606176498906
0.241000000000000075,-42.181711230280562575
0.242000000000000076,-41.993095034628382223
0.243000000000000077,-41.794695598035687567
0.244000000000000078,-41.586814743483365930
0.245000000000000079,-41.369768956516409730
0.246000000000000080,-41.143889467400363458
0.247000000000000081,-40.909522026062525413
0.248000000000000081,-40.667026400002029618
0.249000000000000082,-40.416775625943955674
0.250000000000000111,-40.159155046101375319
0.251000000000000112,-39.894561159566713116
0.252000000000000113,-39.623400318639440343
0.253000000000000114,-39.346087298872468807
0.254000000000000115,-39.063043770340023286
0.255000000000000115,-38.774696696144367536
0.256000000000000116,-38.481476682537405054
0.257000000000000117,-38.183816303274269899
0.258000000000000118,-37.882148418980726490
0.259000000000000119,-37.576904510435227280
0.260000000000000120,-37.268513042772198673
0.261000000000000121,-36.957397875726670122
0.262000000000000122,-36.643976733189269623
0.263000000000000123,-36.328659743537080828
0.264000000000000123,-36.011848060470583732
0.265000000000000124,-35.693932572427684136
0.266000000000000125,-35.375292707076184229
0.267000000000000126,-35.056295335909723576
0.268000000000000127,-34.737293782597291170
0.269000000000000128,-34.418626937464345872
0.270000000000000129,-34.100618479316885612
0.271000000000000130,-33.783576204758077210
0.272000000000000131,-33.467791464190135287
0.273000000000000131,-33.153538702838957875
0.274000000000000132,-32.841075104383044447
0.275000000000000133,-32.530640334108866796
0.276000000000000134,-32.222456377945128736
0.277000000000000135,-31.916727473247441083
0.278000000000000136,-31.613640126804067876
0.279000000000000137,-31.313363215209971457
0.280000000000000138,-31.016048162504336716
0.281000000000000139,-30.721829189779420233
0.282000000000000139,-30.430823631343280056
0.283000000000000140,-30.143132311946736479
0.284000000000000141,-29.858839979564557154
0.285000000000000142,-29.578015788243440909
0.286000000000000143,-29.300713825593327044
0.287000000000000144,-29.026973679596199673
0.288000000000000145,-28.756821039536340834
0.289000000000000146,-28.490268326011261024
0.290000000000000147,-28.227315345160651106
0.291000000000000147,-27.967949962447740120
0.292000000000000148,-27.712148791539721771
0.293000000000000149,-27.459877894058678294
0.294000000000000150,-27.211093486207850844
0.295000000000000151,-26.965742648519089641
0.296000000000000152,-26.723764035211367229
0.297000000000000153,-26.485088579897659855
0.298000000000000154,-26.249640194623271583
0.299000000000000155,-26.017336459464395659
0.300000000000000155,-25.788089300157089667
0.301000000000000156,-25.561805651464020173
0.302000000000000157,-25.338388104217568042
0.303000000000000158,-25.117735534202658698
0.304000000000000159,-24.899743711259571199
0.305000000000000160,-24.684305887195410634
0.306000000000000161,-24.471313361292963862
0.307000000000000162,-24.260656022396119624
0.308000000000000163,-24.052222866731419515
0.309000000000000163,-23.845902490796852646
0.310000000000000164,-23.641583558809426080
0.311000000000000165,-23.439155244354090257
0.312000000000000166,-23.238507646017446007
0.313000000000000167,-23.039532176920435091
0.314000000000000168,-22.842121928185214585
0.315000000000000169,-22.646172006482807149
0.316000000000000170,-22.451579845910256239
0.317000000000000171,-22.258245494538513753
0.318000000000000171,-22.066071876056657430
0.319000000000000172,-21.874965027013352881
0.320000000000000173,-21.684834310223624954
0.321000000000000174,-21.495592604968855710
0.322000000000000175,-21.307156474669639579
0.323000000000000176,-21.119446312756245732
0.324000000000000177,-20.932386467499703997
0.325000000000000178,-20.745905346598355834
0.326000000000000179,-20.559935502341112112
0.327000000000000179,-20.374413698188561739
0.328000000000000180,-20.189280957628902513
0.329000000000000181,-20.004482596176035969
0.330000000000000182,-19.819968237382838083
0.331000000000000183,-19.635691813745161483
0.332000000000000184,-19.451611553369673402
0.333000000000000185,-19.267689953273833936
0.334000000000000186,-19.083893740177543918
0.335000000000000187,-18.900193819634864667
0.336000000000000187,-18.716565214340437961
0.337000000000000188,-18.532986992429027140
0.338000000000000189,-18.349442186568598601
0.339000000000000190,-18.165917704627382534
0.340000000000000191,-17.982404232673861344
0.341000000000000192,-17.798896131046308966
0.342000000000000193,-17.615391324203780954
0.343000000000000194,-17.431891185046673343
0.344000000000000195,-17.248400414368454392
0.345000000000000195,-17.064926916074789176
0.346000000000000196,-16.881481668779240835
0.347000000000000197,-16.698078594357927074
0.348000000000000198,-16.514734424018783443
0.349000000000000199,-16.331468562413483880
0.350000000000000200,-16.148302950293793145
0.351000000000000201,-15.965261926186439467
0.352000000000000202,-15.782372087534849214
0.353000000000000203,-15.599662151729358328
0.354000000000000203,-15.417162817421797172
0.355000000000000204,-15.234906626495140713
0.356000000000000205,-15.052927827034050523
0.357000000000000206,-14.871262237617846935
0.358000000000000207,-14.689947113233964515
0.359000000000000208,-14.509021013087027185
0.360000000000000209,-14.328523670556375436
0.361000000000000210,-14.148495865533501359
0.362000000000000210,-13.968979299349907564
0.363000000000000211,-13.790016472486124499
0.364000000000000212,-13.611650565233281540
0.365000000000000213,-13.433925321460113977
0.366000000000000214,-13.256884935620780297
0.367000000000000215,-13.080573943121830638
0.368000000000000216,-12.905037114150687216
0.369000000000000217,-12.730319351052553856
0.370000000000000218,-12.556465589328263732
0.371000000000000218,-12.383520702311574979
0.372000000000000219,-12.211529409571573623
0.373000000000000220,-12.040536189073378637
0.374000000000000221,-11.870585193118849077
0.375000000000000222,-11.701720168078050932
0.376000000000000223,-11.533984377911952635
0.377000000000000224,-11.367420531477472778
0.378000000000000225,-11.202070713596928186
0.379000000000000226,-11.037976319865679287
0.380000000000000226,-10.875177995164333922
0.381000000000000227,-10.713715575834360294
0.382000000000000228,-10.553628035469964530
0.383000000000000229,-10.394953434272796500
0.384000000000000230,-10.237728871910533712
0.385000000000000231,-10.081990443815936231
0.386000000000000232,-9.927773200857890501
0.387000000000000233,-9.775111112312396600
0.388000000000000234,-9.624037032057685792
0.389000000000000234,-9.474582667914749123
0.390000000000000235,-9.326778554051285752
0.391000000000000236,-9.180654026365528964
0.392000000000000237,-9.036237200763428845
0.393000000000000238,-8.893554954241929877
0.394000000000000239,-8.752632908688948277
0.395000000000000240,-8.613495417310103264
0.396000000000000241,-8.476165553591247459
0.397000000000000242,-8.340665102705312250
0.398000000000000242,-8.207014555271925360
0.399000000000000243,-8.075233103377973620
0.400000000000000244,-7.945338638767490025
0.401000000000000245,-7.817347753109912034
0.402000000000000246,-7.691275740256014792
0.403000000000000247,-7.567136600391497048
0.404000000000000248,-7.444943045999568021
0.405000000000000249,-7.324706509544355981
0.406000000000000250,-7.206437152788529588
0.407000000000000250,-7.090143877659636829
0.408000000000000251,-6.975834338581057281
0.409000000000000252,-6.863514956185207794
0.410000000000000253,-6.753190932327763463
0.411000000000000254,-6.644866266323933068
0.412000000000000255,-6.538543772329004966
0.413000000000000256,-6.434225097787606096
0.414000000000000257,-6.331910742877640885
0.415000000000000258,-6.231600080877095493
0.416000000000000258,-6.133291379383573272
0.417000000000000259,-6.036981822318499447
0.418000000000000260,-5.942667532650018458
0.419000000000000261,-5.850343595770348237
0.420000000000000262,-5.760004083465774194
0.421000000000000263,-5.671642078419134592
0.422000000000000264,-5.585249699186881855
0.423000000000000265,-5.500818125594743258
0.424000000000000266,-5.418337624498176908
0.425000000000000266,-5.337797575855633525
0.426000000000000267,-5.259186499064717246
0.427000000000000268,-5.182492079513435712
0.428000000000000269,-5.107701195300509589
0.429000000000000270,-5.034799944080711853
0.430000000000000271,-4.963773669993237547
0.431000000000000272,-4.894606990632757615
0.432000000000000273,-4.827283824024889647
0.433000000000000274,-4.761787415569495252
0.434000000000000274,-4.698100364917036309
0.435000000000000275,-4.636204652744999599
0.436000000000000276,-4.576081667403093967
0.437000000000000277,-4.517712231397539746
0.438000000000000278,-4.461076627686525242
0.439000000000000279,-4.406154625760410504
0.440000000000000280,-4.352925507481806733
0.441000000000000281,-4.301368092662220199
0.442000000000000282,-4.251460764353417687
0.443000000000000282,-4.203181493833037408
0.444000000000000283,-4.156507865265455237
0.445000000000000284,-4.111417100020156923
0.446000000000000285,-4.067886080631195611
0.447000000000000286,-4.025891374382718269
0.448000000000000287,-3.985409256506444287
0.449000000000000288,-3.946415732978537871
0.450000000000000289,-3.908886562904141382
0.451000000000000290,-3.872797280479095772
0.452000000000000290,-3.838123216519363723
0.453000000000000291,-3.804839519549722660
0.454000000000000292,-3.772921176444239855
0.455000000000000293,-3.742343032611964215
0.456000000000000294,-3.713079811722229895
0.457000000000000295,-3.685106134964697411
0.458000000000000296,-3.658396539840286010
0.459000000000000297,-3.632925498479681270
0.460000000000000298,-3.608667435487096675
0.461000000000000298,-3.585596745307436883
0.462000000000000299,-3.563687809116014016
0.463000000000000300,-3.542915011230209466
0.464000000000000301,-3.523252755043466689
0.465000000000000302,-3.504675478482346396
0.466000000000000303,-3.487157668988070558
0.467000000000000304,-3.470673878024302272
0.468000000000000305,-3.455198735113754971
0.469000000000000306,-3.440706961406279074
0.470000000000000306,-3.427173382781830036
0.471000000000000307,-3.414572942491966412
0.472000000000000308,-3.402880713344020425
0.473000000000000309,-3.392071909432305965
0.474000000000000310,-3.382121897421204615
0.475000000000000311,-3.373006207385270905
0.476000000000000312,-3.364700543211665895
0.477000000000000313,-3.357180792570628736
0.478000000000000314,-3.350423036459929449
0.479000000000000314,-3.344403558329419379
0.480000000000000315,-3.339098852792023564
0.481000000000000316,-3.334485633927776860
0.482000000000000317,-3.330540843187594469
0.483000000000000318,-3.327241656903660694
0.484000000000000319,-3.324565493413459194
0.485000000000000320,-3.322490019804650530
0.486000000000000321,-3.320993158287964153
0.487000000000000322,-3.320053092205532685
0.488000000000000322,-3.319648271682102525
0.489000000000000323,-3.319757418926568615
0.490000000000000324,-3.320359533191492574
0.491000000000000325,-3.321433895398143044
0.492000000000000326,-3.322960072434723688
0.493000000000000327,-3.324917921135451593
0.494000000000000328,-3.327287591948175471
0.495000000000000329,-3.330049532298198223
0.496000000000000330,-3.333184489655991456
0.497000000000000330,-3.336673514316433220
0.498000000000000331,-3.340497961897266777
0.499000000000000332,-3.344639495564278864
0.500000000000000333,-3.349080087990853549
0.501000000000000334,-3.353802023059413440
0.502000000000000335,-3.358787897312132120
0.503000000000000336,-3.364020621158429147
0.504000000000000337,-3.369483419846519556
0.505000000000000338,-3.375159834206323151
0.506000000000000338,-3.381033721170928708
0.507000000000000339,-3.387089254083729628
0.508000000000000340,-3.393310922798296048
0.509000000000000341,-3.399683533577861905
0.510000000000000342,-3.406192208801401389
0.511000000000000343,-3.412822386482937898
0.512000000000000344,-3.419559819610876961
0.513000000000000345,-3.426390575313809084
0.514000000000000346,-3.433301033859373685
0.515000000000000346,-3.440277887492455111
0.516000000000000347,-3.447308139118996362
0.517000000000000348,-3.454379100841628691
0.518000000000000349,-3.461478392353060762
0.519000000000000350,-3.468593939193225673
0.520000000000000351,-3.475713970876030512
0.521000000000000352,-3.482827018891291537
0.522000000000000353,-3.489921914587566842
0.523000000000000353,-3.496987786941309739
0.524000000000000354,-3.504014060217682580
0.525000000000000355,-3.510990451528331224
0.526000000000000356,-3.517906968291191649
0.527000000000000357,-3.524753905597360237
0.528000000000000358,-3.531521843490003310
0.529000000000000359,-3.538201644159888026
0.530000000000000360,-3.544784449062480469
0.531000000000000361,-3.551261675960914577
0.532000000000000361,-3.557625015899442023
0.533000000000000362,-3.563866430111572559
0.534000000000000363,-3.569978146867241797
0.535000000000000364,-3.575952658262994355
0.536000000000000365,-3.581782716959253321
0.537000000000000366,-3.587461332868524977
0.538000000000000367,-3.592981769798355263
0.539000000000000368,-3.598337542052645777
0.540000000000000369,-3.603522410994970837
0.541000000000000369,-3.608530381577268464
0.542000000000000370,-3.613355698837365626
0.543000000000000371,-3.617992844368487226
0.544000000000000372,-3.622436532763993799
0.545000000000000373,-3.626681708040322860
0.546000000000000374,-3.630723540041175479
0.547000000000000375,-3.634557420825729857
0.548000000000000376,-3.638178961043718740
0.549000000000000377,-3.641583986299994358
0.550000000000000377,-3.644768533511187236
0.551000000000000378,-3.647728847256956008
0.552000000000000379,-3.650461376128225854
0.553000000000000380,-3.652962769074720395
0.554000000000000381,-3.655229871754070992
0.555000000000000382,-3.657259722884583564
0.556000000000000383,-3.659049550603794554
0.557000000000000384,-3.660596768834753156
0.558000000000000385,-3.661898973662006007
0.559000000000000385,-3.662953939719046481
0.560000000000000386,-3.663759616589023160
0.561000000000000387,-3.664314125220411889
0.562000000000000388,-3.664615754359235922
0.563000000000000389,-3.664662956999378274
0.564000000000000390,-3.664454346852476618
0.565000000000000391,-3.663988694838809401
0.566000000000000392,-3.663264925600513866
0.567000000000000393,-3.662282114038396763
0.568000000000000393,-3.661039481873590518
0.569000000000000394,-3.659536394235173073
0.570000000000000395,-3.657772356274902936
0.571000000000000396,-3.655747009810041526
0.572000000000000397,-3.653460129995297567
0.573000000000000398,-3.650911622024829661
0.574000000000000399,-3.648101517865116161
0.575000000000000400,-3.645029973019629388
0.576000000000000401,-3.641697263325972322
0.577000000000000401,-3.638103781786281132
0.578000000000000402,-3.634250035431566772
0.579000000000000403,-3.630136642220588961
0.580000000000000404,-3.625764327973885592
0.581000000000000405,-3.621133923343518912
0.582000000000000406,-3.616246360818972327
0.583000000000000407,-3.611102671769756967
0.584000000000000408,-3.605703983525084588
0.585000000000000409,-3.600051516491001191
0.586000000000000409,-3.594146581305360577
0.587000000000000410,-3.587990576030935408
0.588000000000000411,-3.581584983386926435
0.589000000000000412,-3.574931368019153233
0.590000000000000413,-3.568031373809096518
0.591000000000000414,-3.560886721222030538
0.592000000000000415,-3.553499204694333002
0.593000000000000416,-3.545870690060153319
0.594000000000000417,-3.538003112017506169
0.595000000000000417,-3.529898471633851731
0.596000000000000418,-3.521558833891238471
0.597000000000000419,-3.512986325271000965
0.598000000000000420,-3.504183131378003857
0.599000000000000421,-3.495151494604425757
0.600000000000000422,-3.485893711833014663
0.601000000000000423,-3.476412132179748316
0.602000000000000424,-3.466709154775800439
0.603000000000000425,-3.456787226588735162
0.604000000000000425,-3.446648840282720894
0.605000000000000426,-3.436296532117725011
0.606000000000000427,-3.425732879887421145
0.607000000000000428,-3.414960500895695361
0.608000000000000429,-3.403982049971509660
0.609000000000000430,-3.392800217521963813
0.610000000000000431,-3.381417727623259317
0.611000000000000432,-3.369837336149386520
0.612000000000000433,-3.358061828938248450
0.613000000000000433,-3.346094019994981572
0.614000000000000434,-3.333936749732160365
0.615000000000000435,-3.321592883246631267
0.616000000000000436,-3.309065308632682445
0.617000000000000437,-3.296356935331206106
0.618000000000000438,-3.283470692514561584
0.619000000000000439,-3.270409527506830560
0.620000000000000440,-3.257176404239093159
0.621000000000000441,-3.243774301739404287
0.622000000000000441,-3.230206212657137144
0.623000000000000442,-3.216475141821305783
0.624000000000000443,-3.202584104832537637
0.625000000000000444,-3.188536126688306549
0.626000000000000445,-3.174334240441070598
0.627000000000000446,-3.159981485888927910
0.628000000000000447,-3.145480908298430300
0.629000000000000448,-3.130835557159132865
0.630000000000000449,-3.116048484969519361
0.631000000000000449,-3.101122746053910362
0.632000000000000450,-3.086061395409951835
0.633000000000000451,-3.070867487586281364
0.634000000000000452,-3.055544075590000741
0.635000000000000453,-3.040094209823498872
0.636000000000000454,-3.024520937050292790
0.637000000000000455,-3.008827299389413845
0.638000000000000456,-2.993016333337994883
0.639000000000000457,-2.977091068821599684
0.640000000000000457,-2.961054528271919839
0.641000000000000458,-2.944909725731422068
0.642000000000000459,-2.928659665984547189
0.643000000000000460,-2.912307343715031749
0.644000000000000461,-2.895855742688979717
0.645000000000000462,-2.879307834963246382
0.646000000000000463,-2.862666580118744974
0.647000000000000464,-2.845934924518278564
0.648000000000000465,-2.829115800588481111
0.649000000000000465,-2.812212126125467559
0.650000000000000466,-2.795226803623812373
0.651000000000000467,-2.778162719628431976
0.652000000000000468,-2.761022744108991844
0.653000000000000469,-2.743809729856439894
0.654000000000000470,-2.726526511901284699
0.655000000000000471,-2.709175906953203317
0.656000000000000472,-2.691760712861626992
0.657000000000000473,-2.674283708096888201
0.658000000000000473,-2.656747651251569309
0.659000000000000474,-2.639155280561669148
0.660000000000000475,-2.621509313447206502
0.661000000000000476,-2.603812446071888775
0.662000000000000477,-2.586067352921487039
0.663000000000000478,-2.568276686400538633
0.664000000000000479,-2.550443076447010515
0.665000000000000480,-2.532569130164589843
0.666000000000000481,-2.514657431472220761
0.667000000000000481,-2.496710540770527231
0.668000000000000482,-2.478730994624806172
0.669000000000000483,-2.460721305464227626
0.670000000000000484,-2.442683961296877815
0.671000000000000485,-2.424621425440354194
0.672000000000000486,-2.406536136267523940
0.673000000000000487,-2.388430506967183398
0.674000000000000488,-2.370306925319201952
0.675000000000000488,-2.352167753483917600
0.676000000000000489,-2.334015327805404105
0.677000000000000490,-2.315851958628321938
0.678000000000000491,-2.297679930128030623
0.679000000000000492,-2.279501500153675142
0.680000000000000493,-2.261318900083901351
0.681000000000000494,-2.243134334694949938
0.682000000000000495,-2.224949982040800300
0.683000000000000496,-2.206767993345096102
0.684000000000000496,-2.188590492904528784
0.685000000000000497,-2.170419578003463190
0.686000000000000498,-2.152257318839429612
0.687000000000000499,-2.134105758459313051
0.688000000000000500,-2.115966912705878222
0.689000000000000501,-2.097842770174419336
0.690000000000000502,-2.079735292179261563
0.691000000000000503,-2.061646412729820632
0.692000000000000504,-2.043578038516016271
0.693000000000000504,-2.025532048902764615
0.694000000000000505,-2.007510295933279565
0.695000000000000506,-1.989514604340990589
0.696000000000000507,-1.971546771569782752
0.697000000000000508,-1.953608567802368912
0.698000000000000509,-1.935701735996551154
0.699000000000000510,-1.917827991929087705
0.700000000000000511,-1.899989024247071612
0.701000000000000512,-1.882186494526429499
0.702000000000000512,-1.864422037337486682
0.703000000000000513,-1.846697260317274658
0.704000000000000514,-1.829013744248416895
0.705000000000000515,-1.811373043144391959
0.706000000000000516,-1.793776684340958827
0.707000000000000517,-1.776226168593531884
0.708000000000000518,-1.758722970180363721
0.709000000000000519,-1.741268537011283257
0.710000000000000520,-1.723864290741838445
0.711000000000000520,-1.706511626892654121
0.712000000000000521,-1.689211914973816508
0.713000000000000522,-1.671966498614118946
0.714000000000000523,-1.654776695694988309
0.715000000000000524,-1.637643798488914282
0.716000000000000525,-1.620569073802247129
0.717000000000000526,-1.603553763122141707
0.718000000000000527,-1.586599082767565339
0.719000000000000528,-1.569706224044135290
0.720000000000000528,-1.552876353402696585
0.721000000000000529,-1.536110612601429892
0.722000000000000530,-1.519410118871407978
0.723000000000000531,-1.502775965085398457
0.724000000000000532,-1.486209219929792935
0.725000000000000533,-1.469710928079548395
0.726000000000000534,-1.453282110375958114
0.727000000000000535,-1.436923764007161042
0.728000000000000536,-1.420636862691230684
0.729000000000000536,-1.404422356861745547
0.730000000000000537,-1.388281173855693051
0.731000000000000538,-1.372214218103584127
0.732000000000000539,-1.356222371321698539
0.733000000000000540,-1.340306492706282437
0.734000000000000541,-1.324467419129643719
0.735000000000000542,-1.308705965338001320
0.736000000000000543,-1.293022924151001618
0.737000000000000544,-1.277419066662753844
0.738000000000000544,-1.261895142444358298
0.739000000000000545,-1.246451879747734859
0.740000000000000546,-1.231089985710738244
0.741000000000000547,-1.215810146563399474
0.742000000000000548,-1.200613027835242930
0.743000000000000549,-1.185499274563572403
0.744000000000000550,-1.170469511502615800
0.745000000000000551,-1.155524343333502291
0.746000000000000552,-1.140664354874902475
0.747000000000000552,-1.125890111294344242
0.748000000000000553,-1.111202158320043321
0.749000000000000554,-1.096601022453199459
0.750000000000000555,-1.082087211180726039
0.751000000000000556,-1.067661213188254354
0.752000000000000557,-1.053323498573408123
0.753000000000000558,-1.039074519059262958
0.754000000000000559,-1.024914708207902203
0.755000000000000560,-1.010844481634024294
0.756000000000000560,-0.996864237218529681
0.757000000000000561,-0.982974355322028814
0.758000000000000562,-0.969175198998195375
0.759000000000000563,-0.955467114206943746
0.760000000000000564,-0.941850430027317720
0.761000000000000565,-0.928325458870091547
0.762000000000000566,-0.914892496689977519
0.763000000000000567,-0.901551823197454638
0.764000000000000568,-0.888303702070075474
0.765000000000000568,-0.875148381163294409
0.766000000000000569,-0.862086092720716679
0.767000000000000570,-0.849117053583729797
0.768000000000000571,-0.836241465400481720
0.769000000000000572,-0.823459514834165796
0.770000000000000573,-0.810771373770560189
0.771000000000000574,-0.798177199524780834
0.772000000000000575,-0.785677135047228581
0.773000000000000576,-0.773271309128652495
0.774000000000000576,-0.760959836604354956
0.775000000000000577,-0.748742818557449397
0.776000000000000578,-0.736620342521133842
0.777000000000000579,-0.724592482680028183
0.778000000000000580,-0.712659300070424440
0.779000000000000581,-0.700820842779519948
0.780000000000000582,-0.689077146143546315
0.781000000000000583,-0.677428232944810693
0.782000000000000584,-0.665874113607560103
0.783000000000000584,-0.654414786392721104
0.784000000000000585,-0.643050237591429985
0.785000000000000586,-0.631780441717345598
0.786000000000000587,-0.620605361697750491
0.787000000000000588,-0.609524949063376731
0.788000000000000589,-0.598539144136956303
0.789000000000000590,-0.587647876220492749
0.790000000000000591,-0.576851063781191664
0.791000000000000592,-0.566148614636093783
0.792000000000000592,-0.555540426135319843
0.793000000000000593,-0.545026385343986952
0.794000000000000594,-0.534606369222722200
0.795000000000000595,-0.524280244806787699
0.796000000000000596,-0.514047869383799760
0.797000000000000597,-0.503909090670038418
0.798000000000000598,-0.493863746985299668
0.799000000000000599,-0.483911667426326020
0.800000000000000600,-0.474052672038778322
0.801000000000000600,-0.464286571987738206
0.802000000000000601,-0.454613169726744815
0.803000000000000602,-0.445032259165346833
0.804000000000000603,-0.435543625835169479
0.805000000000000604,-0.426147047054478090
0.806000000000000605,-0.416842292091249234
0.807000000000000606,-0.407629122324734916
0.808000000000000607,-0.398507291405489961
0.809000000000000608,-0.389476545413922015
0.810000000000000608,-0.380536623017284803
0.811000000000000609,-0.371687255625163249
0.812000000000000610,-0.362928167543419555
0.813000000000000611,-0.354259076126620776
0.814000000000000612,-0.345679691928918231
0.815000000000000613,-0.337189718853414866
0.816000000000000614,-0.328788854299960742
0.817000000000000615,-0.320476789311452237
0.818000000000000616,-0.312253208718571373
0.819000000000000616,-0.304117791282989658
0.820000000000000617,-0.296070209839042531
0.821000000000000618,-0.288110131433865990
0.822000000000000619,-0.280237217466008104
0.823000000000000620,-0.272451123822497698
0.824000000000000621,-0.264751501014394708
0.825000000000000622,-0.257137994310802032
0.826000000000000623,-0.249610243871367793
0.827000000000000624,-0.242167884877262291
0.828000000000000624,-0.234810547660640578
0.829000000000000625,-0.227537857832583679
0.830000000000000626,-0.220349436409545962
0.831000000000000627,-0.213244899938289295
0.832000000000000628,-0.206223860619328653
0.833000000000000629,-0.199285926428867194
0.834000000000000630,-0.192430701239264618
0.835000000000000631,-0.185657784938008552
0.836000000000000631,-0.178966773545216618
0.837000000000000632,-0.172357259329667556
0.838000000000000633,-0.165828830923358428
0.839000000000000634,-0.159381073434630344
0.840000000000000635,-0.153013568559815794
0.841000000000000636,-0.146725894693454068
0.842000000000000637,-0.140517627037085951
0.843000000000000638,-0.134388337706584593
0.844000000000000639,-0.128337595838109941
0.845000000000000639,-0.122364967692609405
0.846000000000000640,-0.116470016758941378
0.847000000000000641,-0.110652303855586179
0.848000000000000642,-0.104911387230985254
0.849000000000000643,-0.099246822662472006
0.850000000000000644,-0.093658163553871465
0.851000000000000645,-0.088144961031691338
0.852000000000000646,-0.082706764039999936
0.853000000000000647,-0.077343119433935056
0.854000000000000647,-0.072053572071885119
0.855000000000000648,-0.066837664906338773
0.856000000000000649,-0.061694939073429600
0.857000000000000650,-0.056624933981155978
0.858000000000000651,-0.051627187396313182
0.859000000000000652,-0.046701235530141022
0.860000000000000653,-0.041846613122674639
0.861000000000000654,-0.037062853525845478
0.862000000000000655,-0.032349488785317917
0.863000000000000655,-0.027706049721061988
0.864000000000000656,-0.023132066006705081
0.865000000000000657,-0.018627066247652875
0.866000000000000658,-0.014190578057966951
0.867000000000000659,-0.009822128136069242
0.868000000000000660,-0.005521242339217552
0.869000000000000661,-0.001287445756809274
0.870000000000000662,0.002879737217503181
0.871000000000000663,0.006980782814860554
0.872000000000000663,0.011016167821397716
0.873000000000000664,0.014986369509610787
0.874000000000000665,0.018891865570835154
0.875000000000000666,0.022733134048880155
0.876000000000000667,0.026510653274749794
0.877000000000000668,0.030224901802490000
0.878000000000000669,0.033876358346130897
0.879000000000000670,0.037465501717704262
0.880000000000000671,0.040992810766338962
0.881000000000000671,0.044458764318425416
0.882000000000000672,0.047863841118832053
0.883000000000000673,0.051208519773161446
0.884000000000000674,0.054493278691043458
0.885000000000000675,0.057718596030448620
0.886000000000000676,0.060884949643017050
0.887000000000000677,0.063992817020377332
0.888000000000000678,0.067042675241483912
0.889000000000000679,0.070035000920899412
0.890000000000000679,0.072970270158077638
0.891000000000000680,0.075848958487586521
0.892000000000000681,0.078671540830295733
0.893000000000000682,0.081438491445496961
0.894000000000000683,0.084150283883953098
0.895000000000000684,0.086807390941869483
0.896000000000000685,0.089410284615772842
0.897000000000000686,0.091959436058294292
0.898000000000000687,0.094455315534821976
0.899000000000000687,0.096898392381068260
0.900000000000000688,0.099289134961472209
0.901000000000000689,0.101628010628476900
0.902000000000000690,0.103915485682652825
0.903000000000000691,0.106152025333654226
0.904000000000000692,0.108338093662024543
0.905000000000000693,0.110474153581793466
0.906000000000000694,0.112560666803906834
0.907000000000000695,0.114598093800446138
0.908000000000000695,0.116586893769634020
0.909000000000000696,0.118527524601633877
0.910000000000000697,0.120420442845110290
0.911000000000000698,0.122266103674555815
0.912000000000000699,0.124064960858368711
0.913000000000000700,0.125817466727666860
0.914000000000000701,0.127524072145856315
0.915000000000000702,0.129185226478900322
0.916000000000000703,0.130801377566314880
0.917000000000000703,0.132372971692869046
0.918000000000000704,0.133900453560989202
0.919000000000000705,0.135384266263835401
0.920000000000000706,0.136824851259072261
0.921000000000000707,0.138222648343299032
0.922000000000000708,0.139578095627154869
0.923000000000000709,0.140891629511056937
0.924000000000000710,0.142163684661602424
0.925000000000000711,0.143394693988588229
0.926000000000000711,0.144585088622677410
0.927000000000000712,0.145735297893659993
0.928000000000000713,0.146845749309343743
0.929000000000000714,0.147916868535035662
0.930000000000000715,0.148949079373623672
0.931000000000000716,0.149942803746234810
0.932000000000000717,0.150898461673467099
0.933000000000000718,0.151816471257216701
0.934000000000000719,0.152697248663029195
0.935000000000000719,0.153541208103026627
0.936000000000000720,0.154348761819369379
0.937000000000000721,0.155120320068262207
0.938000000000000722,0.155856291104485400
0.939000000000000723,0.156557081166444123
0.940000000000000724,0.157223094461737017
0.941000000000000725,0.157854733153226651
0.942000000000000726,0.158452397345615614
0.943000000000000727,0.159016485072499297
0.944000000000000727,0.159547392283922590
0.945000000000000728,0.160045512834395248
0.946000000000000729,0.160511238471385737
0.947000000000000730,0.160944958824279477
0.948000000000000731,0.161347061393780022
0.949000000000000732,0.161717931541772331
0.950000000000000733,0.162057952481622303
0.951000000000000734,0.162367505268903506
0.952000000000000735,0.162646968792563490
0.953000000000000735,0.162896719766499609
0.954000000000000736,0.163117132721558256
0.955000000000000737,0.163308579997935632
0.956000000000000738,0.163471431737978484
0.957000000000000739,0.163606055879379264
0.958000000000000740,0.163712818148775696
0.959000000000000741,0.163792082055696564
0.960000000000000742,0.163844208886918585
0.961000000000000743,0.163869557701177337
0.962000000000000743,0.163868485324233759
0.963000000000000744,0.163841346344311606
0.964000000000000745,0.163788493107877020
0.965000000000000746,0.163710275715764131
0.966000000000000747,0.163607042019646876
0.967000000000000748,0.163479137618829873
0.968000000000000749,0.163326905857381771
0.969000000000000750,0.163150687821580070
0.970000000000000751,0.162950822337677409
0.971000000000000751,0.162727645969972856
0.972000000000000752,0.162481493019199924
0.973000000000000753,0.162212695521193995
0.974000000000000754,0.161921583245879797
0.975000000000000755,0.161608483696522282
0.976000000000000756,0.161273722109281065
0.977000000000000757,0.160917621453027737
0.978000000000000758,0.160540502429455334
0.979000000000000759,0.160142683473432551
0.980000000000000759,0.159724480753635933
0.981000000000000760,0.159286208173449101
0.982000000000000761,0.158828177372087043
0.983000000000000762,0.158350697725994694
0.984000000000000763,0.157854076350484124
0.985000000000000764,0.157338618101594496
0.986000000000000765,0.156804625578212370
0.987000000000000766,0.156252399124401725
0.988000000000000766,0.155682236831965304
0.989000000000000767,0.155094434543223636
0.990000000000000768,0.154489285854029823
0.991000000000000769,0.153867082116958764
0.992000000000000770,0.153228112444738385
0.993000000000000771,0.152572663713871931
0.994000000000000772,0.151901020568449452
0.995000000000000773,0.151213465424171023
0.996000000000000774,0.150510278472552078
0.997000000000000774,0.149791737685314258
0.998000000000000775,0.149058118818966079
0.999000000000000776,0.148309695419547416
1.000000000000000666,0.147546738827572049
1.001000000000000778,0.146769518183119396
1.002000000000000668,0.145978300431104685
1.003000000000000780,0.145173350326717632
1.004000000000000670,0.144354930440995732
1.005000000000000782,0.143523301166592010
1.006000000000000671,0.142678720723662750
1.007000000000000783,0.141821445165920490
1.008000000000000673,0.140951728386828928
1.009000000000000785,0.140069822125936355
1.010000000000000675,0.139175975975358690
1.011000000000000787,0.138270437386378675
1.012000000000000677,0.137353451676197585
1.013000000000000789,0.136425262034806927
1.014000000000000679,0.135486109531974569
1.015000000000000790,0.134536233124380039
1.016000000000000680,0.133575869662836660
1.017000000000000792,0.132605253899664766
1.018000000000000682,0.131624618496135964
1.019000000000000794,0.130634194030073036
1.020000000000000684,0.129634209003521877
1.021000000000000796,0.128624889850543600
1.022000000000000686,0.127606460945108413
1.023000000000000798,0.126579144609078181
1.024000000000000687,0.125543161120300423
1.025000000000000799,0.124498728720770571
1.026000000000000689,0.123446063624924426
1.027000000000000801,0.122385380027966395
1.028000000000000691,0.121316890114330486
1.029000000000000803,0.120240804066191753
1.030000000000000693,0.119157330072076295
1.031000000000000805,0.118066674335538788
1.032000000000000695,0.116969041083918923
1.033000000000000806,0.115864632577166726
1.034000000000000696,0.114753649116738757
1.035000000000000808,0.113636289054574416
1.036000000000000698,0.112512748802111817
1.037000000000000810,0.111383222839392990
1.038000000000000700,0.110247903724215890
1.039000000000000812,0.109106982101343397
1.040000000000000702,0.107960646711780031
1.041000000000000814,0.106809084402089360
1.042000000000000703,0.105652480133781965
1.043000000000000815,0.104491016992728253
1.044000000000000705,0.103324876198645124
1.045000000000000817,0.102154237114605556
1.046000000000000707,0.100979277256616304
1.047000000000000819,0.099800172303208895
1.048000000000000709,0.098617096105116112
1.049000000000000821,0.097430220694918274
1.050000000000000711,0.096239716296799574
1.051000000000000822,0.095045751336285483
1.052000000000000712,0.093848492450041704
1.053000000000000824,0.092648104495695965
1.054000000000000714,0.091444750561681082
1.055000000000000826,0.090238591977124666
1.056000000000000716,0.089029788321741507
1.057000000000000828,0.087818497435772885
1.058000000000000718,0.086604875429934197
1.059000000000000830,0.085389076695387950
1.060000000000000719,0.084171253913732508
1.061000000000000831,0.082951558067029696
1.062000000000000721,0.081730138447807604
1.063000000000000833,0.080507142669120901
1.064000000000000723,0.079282716674604820
1.065000000000000835,0.078057004748542311
1.066000000000000725,0.076830149525939334
1.067000000000000837,0.075602292002623209
1.068000000000000727,0.074373571545332723
1.069000000000000838,0.073144125901826854
1.070000000000000728,0.071914091210995054
1.071000000000000840,0.070683602012967098
1.072000000000000730,0.069452791259236243
1.073000000000000842,0.068221790322775491
1.074000000000000732,0.066990729008156696
1.075000000000000844,0.065759735561670016
1.076000000000000734,0.064528936681448573
1.077000000000000846,0.063298457527572086
1.078000000000000735,0.062068421732185394
1.079000000000000847,0.060838951409601362
1.080000000000000737,0.059610167166400732
1.081000000000000849,0.058382188111531411
1.082000000000000739,0.057155131866378231
1.083000000000000851,0.055929114574854347
1.084000000000000741,0.054704250913454808
1.085000000000000853,0.053480654101317603
1.086000000000000743,0.052258435910259325
1.087000000000000854,0.051037706674811265
1.088000000000000744,0.049818575302226734
1.089000000000000856,0.048601149282490930
1.090000000000000746,0.047385534698292028
1.091000000000000858,0.046171836235000145
1.092000000000000748,0.044960157190614941
1.093000000000000860,0.043750599485698975
1.094000000000000750,0.042543263673282553
1.095000000000000862,0.041338248948773956
1.096000000000000751,0.040135653159817333
1.097000000000000863,0.038935572816151356
1.098000000000000753,0.037738103099439403
1.099000000000000865,0.036543337873071263
1.100000000000000755,0.035351369691961329
1.101000000000000867,0.034162289812287291
1.102000000000000757,0.032976188201243532
1.103000000000000869,0.031793153546739603
1.104000000000000759,0.030613273267091328
1.105000000000000870,0.029436633520670739
1.106000000000000760,0.028263319215543925
1.107000000000000872,0.027093414019063955
1.108000000000000762,0.025927000367451318
1.109000000000000874,0.024764159475336566
1.110000000000000764,0.023604971345273812
1.111000000000000876,0.022449514777225892
1.112000000000000766,0.021297867378024617
1.113000000000000878,0.020150105570786343
1.114000000000000767,0.019006304604306135
1.115000000000000879,0.017866538562418884
1.116000000000000769,0.016730880373331168
1.117000000000000881,0.015599401818905623
1.118000000000000771,0.014472173543928773
1.119000000000000883,0.013349265065338844
1.120000000000000773,0.012230744781413300
1.121000000000000885,0.011116679980936151
1.122000000000000774,0.010007136852312692
1.123000000000000886,0.008902180492659173
1.124000000000000776,0.007801874916861506
1.125000000000000888,0.006706283066583035
1.126000000000000778,0.005615466819248039
1.127000000000000890,0.004529486996986515
1.128000000000000780,0.003448403375535680
1.129000000000000892,0.002372274693109294
1.130000000000000782,0.001301158659235224
1.131000000000000894,0.000235111963531132
1.132000000000000783,-0.000825809715519488
1.133000000000000895,-0.001881551701871148
1.134000000000000785,-0.002932060313227547
1.135000000000000897,-0.003977282852409053
1.136000000000000787,-0.005017167598755768
1.137000000000000899,-0.006051663799563556
1.138000000000000789,-0.007080721661567285
1.139000000000000901,-0.008104292342469458
1.140000000000000790,-0.009122327942493231
1.141000000000000902,-0.010134781495981343
1.142000000000000792,-0.011141606963048436
1.143000000000000904,-0.012142759221267965
1.144000000000000794,-0.013138194057377534
1.145000000000000906,-0.014127868159062296
1.146000000000000796,-0.015111739106756335
1.147000000000000908,-0.016089765365489308
1.148000000000000798,-0.017061906276780191
1.149000000000000909,-0.018028122050565299
1.150000000000000799,-0.018988373757178049
1.151000000000000689,-0.019942623319357367
1.152000000000000801,-0.020890833504314900
1.153000000000000913,-0.021832967915823794
1.154000000000000803,-0.022768990986370231
1.155000000000000693,-0.023698867969339014
1.156000000000000805,-0.024622564931235290
1.157000000000000917,-0.025540048743958644
1.158000000000000806,-0.026451287077115072
1.159000000000000696,-0.027356248390373296
1.160000000000000808,-0.028254901925863919
1.161000000000000920,-0.029147217700618622
1.162000000000000810,-0.030033166499058885
1.163000000000000700,-0.030912719865513482
1.164000000000000812,-0.031785850096806900
1.165000000000000924,-0.032652530234854087
1.166000000000000814,-0.033512734059323770
1.167000000000000703,-0.034366436080345779
1.168000000000000815,-0.035213611531242063
1.169000000000000927,-0.036054236361318312
1.170000000000000817,-0.036888287228697123
1.171000000000000707,-0.037715741493179668
1.172000000000000819,-0.038536577209168643
1.173000000000000931,-0.039350773118628599
1.174000000000000821,-0.040158308644078489
1.175000000000000711,-0.040959163881647817
1.176000000000000822,-0.041753319594154389
1.177000000000000934,-0.042540757204243572
1.178000000000000824,-0.043321458787551267
1.179000000000000714,-0.044095407065933713
1.180000000000000826,-0.044862585400720079
1.181000000000000938,-0.045622977786016192
1.182000000000000828,-0.046376568842051380
1.183000000000000718,-0.047123343808562548
1.184000000000000830,-0.047863288538231165
1.185000000000000941,-0.048596389490155316
1.186000000000000831,-0.049322633723366427
1.187000000000000721,-0.050042008890386278
1.188000000000000833,-0.050754503230832151
1.189000000000000945,-0.051460105565057632
1.190000000000000835,-0.052158805287842148
1.191000000000000725,-0.052850592362113188
1.192000000000000837,-0.053535457312732203
1.193000000000000949,-0.054213391220286768
1.194000000000000838,-0.054884385714964200
1.195000000000000728,-0.055548432970437857
1.196000000000000840,-0.056205525697809768
1.197000000000000952,-0.056855657139592529
1.198000000000000842,-0.057498821063726370
1.199000000000000732,-0.058135011757651234
1.200000000000000844,-0.058764224022400710
1.201000000000000956,-0.059386453166764407
1.202000000000000846,-0.060001695001455482
1.203000000000000735,-0.060609945833361753
1.204000000000000847,-0.061211202459798594
1.205000000000000959,-0.061805462162826050
1.206000000000000849,-0.062392722703600259
1.207000000000000739,-0.062972982316768178
1.208000000000000851,-0.063546239704892621
1.209000000000000963,-0.064112494032937103
1.210000000000000853,-0.064671744922766658
1.211000000000000743,-0.065223992447710835
1.212000000000000854,-0.065769237127149577
1.213000000000000966,-0.066307479921155862
1.214000000000000856,-0.066838722225158340
1.215000000000000746,-0.067362965864659757
1.216000000000000858,-0.067880213089993882
1.217000000000000970,-0.068390466571103120
1.218000000000000860,-0.068893729392379990
1.219000000000000750,-0.069390005047538325
1.220000000000000862,-0.069879297434511309
1.221000000000000973,-0.070361610850407111
1.222000000000000863,-0.070836949986491704
1.223000000000000753,-0.071305319923213345
1.224000000000000865,-0.071766726125264163
1.225000000000000977,-0.072221174436682481
1.226000000000000867,-0.072668671075989774
1.227000000000000757,-0.073109222631370568
1.228000000000000869,-0.073542836055875138
1.229000000000000981,-0.073969518662686418
1.230000000000000870,-0.074389278120400040
1.231000000000000760,-0.074802122448350966
1.232000000000000872,-0.075208060011975664
1.233000000000000984,-0.075607099518212026
1.234000000000000874,-0.075999250010944985
1.235000000000000764,-0.076384520866460720
1.236000000000000876,-0.076762921788975036
1.237000000000000988,-0.077134462806165940
1.238000000000000878,-0.077499154264760811
1.239000000000000767,-0.077857006826155845
1.240000000000000879,-0.078208031462065036
1.241000000000000991,-0.078552239450205119
1.242000000000000881,-0.078889642370030655
1.243000000000000771,-0.079220252098487237
1.244000000000000883,-0.079544080805797251
1.245000000000000995,-0.079861140951302229
1.246000000000000885,-0.080171445279321879
1.247000000000000774,-0.080475006815051001
1.248000000000000886,-0.080771838860488832
1.249000000000000998,-0.081061954990411522
1.250000000000000888,-0.081345369048372002
1.251000000000000778,-0.081622095142727072
1.252000000000000890,-0.081892147642717045
1.253000000000001002,-0.082155541174554175
1.254000000000000892,-0.082412290617566913
1.255000000000000782,-0.082662411100364680
1.256000000000000894,-0.082905917997039058
1.257000000000001005,-0.083142826923394558
1.258000000000000895,-0.083373153733219824
1.259000000000000785,-0.083596914514575099
1.260000000000000897,-0.083814125586140681
1.261000000000001009,-0.084024803493559619
1.262000000000000899,-0.084228965005847256
1.263000000000000789,-0.084426627111806693
1.264000000000000901,-0.084617807016497931
1.265000000000001013,-0.084802522137715358
1.266000000000000902,-0.084980790102510390
1.267000000000000792,-0.085152628743750708
1.268000000000000904,-0.085318056096690506
1.269000000000001016,-0.085477090395592509
1.270000000000000906,-0.085629750070361665
1.271000000000000796,-0.085776053743228026
1.272000000000000908,-0.085916020225440801
1.273000000000001020,-0.086049668514009553
1.274000000000000909,-0.086177017788458724
1.275000000000000799,-0.086298087407625526
1.276000000000000911,-0.086412896906483086
1.277000000000001023,-0.086521465992983701
1.278000000000000913,-0.086623814544949829
1.279000000000000803,-0.086719962606967502
1.280000000000000915,-0.086809930387342235
1.281000000000001027,-0.086893738255047689
1.282000000000000917,-0.086971406736731496
1.283000000000000806,-0.087042956513731812
1.284000000000000918,-0.087108408419128508
1.285000000000001030,-0.087167783434822274
1.286000000000000920,-0.087221102688643720
1.287000000000000810,-0.087268387451474735
1.288000000000000922,-0.087309659134423484
1.289000000000001034,-0.087344939286000650
1.290000000000000924,-0.087374249589338843
1.291000000000000814,-0.087397611859435329
1.292000000000000925,-0.087415048040411822
1.293000000000001037,-0.087426580202818654
1.294000000000000927,-0.087432230540944483
1.295000000000000817,-0.087432021370177027
1.296000000000000929,-0.087425975124355765
1.297000000000001041,-0.087414114353182401
1.298000000000000931,-0.087396461719648572
1.299000000000000821,-0.087373039997471230
1.300000000000000933,-0.087343872068574080
1.301000000000001044,-0.087308980920589099
1.302000000000000934,-0.087268389644374028
1.303000000000000824,-0.087222121431561966
1.304000000000000936,-0.087170199572137397
1.305000000000001048,-0.087112647452034953
1.306000000000000938,-0.087049488550756504
1.307000000000000828,-0.086980746439015738
1.308000000000000940,-0.086906444776411809
1.309000000000001052,-0.086826607309121256
1.310000000000000941,-0.086741257867617910
1.311000000000000831,-0.086650420364400085
1.312000000000000943,-0.086554118791766443
1.313000000000001055,-0.086452377219602375
1.314000000000000945,-0.086345219793184061
1.315000000000000835,-0.086232670731006697
1.316000000000000947,-0.086114754322646092
1.317000000000001059,-0.085991494926634840
1.318000000000000949,-0.085862916968356601
1.319000000000000838,-0.085729044937969387
1.320000000000000950,-0.085589903388352512
1.321000000000001062,-0.085445516933062765
1.322000000000000952,-0.085295910244326520
1.323000000000000842,-0.085141108051049491
1.324000000000000954,-0.084981135136840386
1.325000000000001066,-0.084816016338061490
1.326000000000000956,-0.084645776541905846
1.327000000000000846,-0.084470440684481160
1.328000000000000957,-0.084290033748926393
1.329000000000001069,-0.084104580763544309
1.330000000000000959,-0.083914106799959143
1.331000000000000849,-0.083718636971279750
1.332000000000000961,-0.083518196430304531
1.333000000000001073,-0.083312810367728168
1.334000000000000963,-0.083102504010378150
1.335000000000000853,-0.082887302619462366
1.336000000000000965,-0.082667231488852383
1.337000000000001076,-0.082442315943362571
1.338000000000000966,-0.082212581337069254
1.339000000000000856,-0.081978053051642366
1.340000000000000968,-0.081738756494680473
1.341000000000001080,-0.081494717098096262
1.342000000000000970,-0.081245960316490534
1.343000000000000860,-0.080992511625559621
1.344000000000000972,-0.080734396520519322
1.345000000000001084,-0.080471640514550760
1.346000000000000973,-0.080204269137245335
1.347000000000000863,-0.079932307933096775
1.348000000000000975,-0.079655782459984822
1.349000000000001087,-0.079374718287695600
1.350000000000000977,-0.079089140996442639
1.351000000000000867,-0.078799076175422436
1.352000000000000979,-0.078504549421374026
1.353000000000001091,-0.078205586337156213
1.354000000000000981,-0.077902212530358242
1.355000000000000870,-0.077594453611896416
1.356000000000000982,-0.077282335194663321
1.357000000000001094,-0.076965882892164841
1.358000000000000984,-0.076645122317183831
1.359000000000000874,-0.076320079080471476
1.360000000000000986,-0.075990778789430696
1.361000000000001098,-0.075657247046840029
1.362000000000000988,-0.075319509449567584
1.363000000000000878,-0.074977591587334233
1.364000000000000989,-0.074631519041460898
1.365000000000001101,-0.074281317383639897
1.366000000000000991,-0.073927012174740139
1.367000000000000881,-0.073568628963599766
1.368000000000000993,-0.073206193285853816
1.369000000000001105,-0.072839730662764390
1.370000000000000995,-0.072469266600076437
1.371000000000000885,-0.072094826586884556
1.372000000000000997,-0.071716436094504038
1.373000000000001108,-0.071334120575377510
1.374000000000000998,-0.070947905461964014
1.375000000000000888,-0.070557816165689527
1.376000000000001000,-0.070163878075857000
1.377000000000001112,-0.069766116558616781
1.378000000000001002,-0.069364556955917672
1.379000000000000892,-0.068959224584498019
1.380000000000001004,-0.068550144734863122
1.381000000000001116,-0.068137342670305953
1.382000000000001005,-0.067720843625915170
1.383000000000000895,-0.067300672807610026
1.384000000000001007,-0.066876855391192924
1.385000000000001119,-0.066449416521396104
1.386000000000001009,-0.066018381310962909
1.387000000000000899,-0.065583774839723330
1.388000000000001011,-0.065145622153703425
1.389000000000001123,-0.064703948264218172
1.390000000000001013,-0.064258778147009823
1.391000000000000902,-0.063810136741366930
1.392000000000001014,-0.063358048949286788
1.393000000000001126,-0.062902539634622154
1.394000000000001016,-0.062443633622255801
1.395000000000000906,-0.061981355697286425
1.396000000000001018,-0.061515730604215758
1.397000000000001130,-0.061046783046164135
1.398000000000001020,-0.060574537684084696
1.399000000000000909,-0.060099019135986344
1.400000000000001021,-0.059620251976185722
1.401000000000001133,-0.059138260734551952
1.402000000000001023,-0.058653069895774609
1.403000000000000913,-0.058164703898633832
1.404000000000001025,-0.057673187135285110
1.405000000000001137,-0.057178543950567276
1.406000000000001027,-0.056680798641289810
1.407000000000000917,-0.056179975455573940
1.408000000000001029,-0.055676098592159287
1.409000000000001140,-0.055169192199758285
1.410000000000001030,-0.054659280376401512
1.411000000000000920,-0.054146387168795197
1.412000000000001032,-0.053630536571688439
1.413000000000001144,-0.053111752527264758
1.414000000000001034,-0.052590058924523467
1.415000000000000924,-0.052065479598676245
1.416000000000001036,-0.051538038330567845
1.417000000000001148,-0.051007758846090170
1.418000000000001037,-0.050474664815610769
1.419000000000000927,-0.049938779853414557
1.420000000000001039,-0.049400127517147806
1.421000000000001151,-0.048858731307284381
1.422000000000001041,-0.048314614666585542
1.423000000000000931,-0.047767800979577960
1.424000000000001043,-0.047218313572038532
1.425000000000001155,-0.046666175710494910
1.426000000000001044,-0.046111410601720554
1.427000000000000934,-0.045554041392256203
1.428000000000001046,-0.044994091167922606
1.429000000000001158,-0.044431582953353706
1.430000000000001048,-0.043866539711534328
1.431000000000000938,-0.043298984343353886
1.432000000000001050,-0.042728939687152231
1.433000000000001162,-0.042156428518288984
1.434000000000001052,-0.041581473548712014
1.435000000000000941,-0.041004097426543526
1.436000000000001053,-0.040424322735664299
1.437000000000001165,-0.039842171995308338
1.438000000000001055,-0.039257667659676199
1.439000000000000945,-0.038670832117535879
1.440000000000001057,-0.038081687691851003
1.441000000000001169,-0.037490256639403634
1.442000000000001059,-0.036896561150432571
1.443000000000000949,-0.036300623348281935
1.444000000000001060,-0.035702465289038900
1.445000000000001172,-0.035102108961201015
1.446000000000001062,-0.034499576285343211
1.447000000000000952,-0.033894889113779782
1.448000000000001064,-0.033288069230256054
1.449000000000001176,-0.032679138349631431
1.450000000000001066,-0.032068118117567393
1.451000000000000956,-0.031455030110237071
1.452000000000001068,-0.030839895834029019
1.453000000000001180,-0.030222736725262933
1.454000000000001069,-0.029603574149910605
1.455000000000000959,-0.028982429403323417
1.456000000000001071,-0.028359323709965821
1.457000000000001183,-0.027734278223165952
1.458000000000001073,-0.027107314024849328
1.459000000000000963,-0.026478452125303885
1.460000000000001075,-0.025847713462936944
1.461000000000001187,-0.025215118904040369
1.462000000000001076,-0.024580689242569821
1.463000000000000966,-0.023944445199914784
1.464000000000001078,-0.023306407424689934
1.465000000000001190,-0.022666596492534757
1.466000000000001080,-0.022025032905885297
1.467000000000000970,-0.021381737093807772
1.468000000000001082,-0.020736729411789584
1.469000000000001194,-0.020090030141558031
1.470000000000001084,-0.019441659490901861
1.471000000000000973,-0.018791637593495926
1.472000000000001085,-0.018139984508736155
1.473000000000001197,-0.017486720221576890
1.474000000000001087,-0.016831864642366690
1.475000000000000977,-0.016175437606703702
1.476000000000001089,-0.015517458875290610
1.477000000000001201,-0.014857948133786030
1.478000000000001091,-0.014196924992673004
1.479000000000000981,-0.013534408987132030
1.480000000000001092,-0.012870419576903496
1.481000000000001204,-0.012204976146184555
1.482000000000001094,-0.011538098003494720
1.483000000000000984,-0.010869804381580462
1.484000000000001096,-0.010200114437304439
1.485000000000001208,-0.009529047251536065
1.486000000000001098,-0.008856621829070580
1.487000000000000988,-0.008182857098526652
1.488000000000001100,-0.007507771912262784
1.489000000000001211,-0.006831385046293596
1.490000000000001101,-0.006153715200220186
1.491000000000000991,-0.005474780997141950
1.492000000000001103,-0.004794600983606503
1.493000000000001215,-0.004113193629526992
1.494000000000001105,-0.003430577328136561
1.495000000000000995,-0.002746770395925242
1.496000000000001107,-0.002061791072592758
1.497000000000001219,-0.001375657520996250
1.498000000000001108,-0.000688387827114994
1.499000000000000998,0.000000000000000000
