# Cu110_GLNSCA-AC
# h[nm],U(h)[kJ/mol]
0.149999999999999994,96.993943414776069289
0.150999999999999995,93.928752373752786298
0.151999999999999996,90.758672240065209280
0.152999999999999997,87.618217362356418221
0.153999999999999998,84.579543729368637628
0.154999999999999999,81.668372322575152111
0.156000000000000000,78.881342346912191488
0.157000000000000001,76.200504276730200104
0.158000000000000002,73.603652406786181928
0.159000000000000002,71.070672620606416103
0.160000000000000003,68.586692246197657141
0.161000000000000004,66.142964093288910021
0.162000000000000005,63.736334374142778358
0.163000000000000006,61.367971006299896430
0.164000000000000007,59.041838770005696801
0.165000000000000008,56.763237134916053606
0.166000000000000009,54.537579586154983247
0.167000000000000010,52.369492318339382564
0.168000000000000010,50.262241649811009836
0.169000000000000011,48.217457463764709757
0.170000000000000012,46.235097997043318685
0.171000000000000013,44.313593517372069641
0.172000000000000014,42.450107980904391525
0.173000000000000015,40.640864845557111096
0.174000000000000016,38.881493037327757634
0.175000000000000017,37.167359688123987382
0.176000000000000018,35.493866431304596176
0.177000000000000018,33.856695023031811331
0.178000000000000019,32.251995499260054601
0.179000000000000020,30.676515885086626412
0.180000000000000021,29.127676717996440203
0.181000000000000022,27.603596499913873430
0.182000000000000023,26.103075873582991306
0.183000000000000024,24.625549058882061360
0.184000000000000025,23.171011107841529508
0.185000000000000026,21.739929045112614148
0.186000000000000026,20.333144126581309763
0.187000000000000027,18.951771415103106477
0.188000000000000028,17.597101751237293144
0.189000000000000029,16.270510073123613637
0.190000000000000030,14.973372973909935268
0.191000000000000031,13.706997417795856009
0.192000000000000032,12.472561690756533537
0.193000000000000033,11.271068950434191436
0.194000000000000034,10.103313162929778102
0.195000000000000034,8.969856766712767993
0.196000000000000035,7.871019075325929926
0.197000000000000036,6.806874207842612989
0.198000000000000037,5.777257204544251401
0.199000000000000038,4.781776930064062903
0.200000000000000039,3.819834372742371364
0.201000000000000040,2.890645003563576232
0.202000000000000041,1.993263948491672322
0.203000000000000042,1.126612843467775793
0.204000000000000042,0.289507372500925730
0.205000000000000043,-0.519315371566552386
0.206000000000000044,-1.301170423197929527
0.207000000000000045,-2.057399959197508288
0.208000000000000046,-2.789350244051972627
0.209000000000000047,-3.498350836104103134
0.210000000000000048,-4.185696275701870306
0.211000000000000049,-4.852630379628234181
0.212000000000000050,-5.500333182263797305
0.213000000000000050,-6.129910493005761296
0.214000000000000051,-6.742385981039726417
0.215000000000000052,-7.338695651921905316
0.216000000000000053,-7.919684544677158655
0.217000000000000054,-8.486105452223720036
0.218000000000000055,-9.038619450802034549
0.219000000000000056,-9.577798014593174258
0.220000000000000057,-10.104126488764428871
0.221000000000000058,-10.618008696706690230
0.222000000000000058,-11.119772464244281451
0.223000000000000059,-11.609675854170422582
0.224000000000000060,-12.087913917763351890
0.225000000000000061,-12.554625785218263445
0.226000000000000062,-13.009901933533015495
0.227000000000000063,-13.453791487744686250
0.228000000000000064,-13.886309429044439767
0.229000000000000065,-14.307443600800032968
0.230000000000000066,-14.717161420555617823
0.231000000000000066,-15.115416222400085644
0.232000000000000067,-15.502153169492236984
0.233000000000000068,-15.877314690859344992
0.234000000000000069,-16.240845409741414329
0.235000000000000070,-16.592696542677003890
0.236000000000000071,-16.932829759189704788
0.237000000000000072,-17.261220501340908129
0.238000000000000073,-17.577860770586390515
0.239000000000000073,-17.882761396355846273
0.240000000000000074,-18.175953806626054643
0.241000000000000075,-18.457491325543337268
0.242000000000000076,-18.727450026950585027
0.243000000000000077,-18.985929175566003124
0.244000000000000078,-19.233051289630680003
0.245000000000000079,-19.468961860172043998
0.246000000000000080,-19.693828762705372526
0.247000000000000081,-19.907841397295936048
0.248000000000000081,-20.111209592507087507
0.249000000000000082,-20.304162307938948828
0.250000000000000111,-20.486946168887442354
0.251000000000000112,-20.659823865187195935
0.252000000000000113,-20.823072444605248421
0.253000000000000114,-20.976981529275029459
0.254000000000000115,-21.121851481656200633
0.255000000000000115,-21.257991544411716234
0.256000000000000116,-21.385717976452873756
0.257000000000000117,-21.505352205246065722
0.258000000000000118,-21.617219013331048671
0.259000000000000119,-21.721644774894610208
0.260000000000000120,-21.818955756196881879
0.261000000000000121,-21.909476491674425347
0.262000000000000122,-21.993528245662375298
0.263000000000000123,-22.071427567893902477
0.264000000000000123,-22.143484949260408001
0.265000000000000124,-22.210003582753348184
0.266000000000000125,-22.271278233063590335
0.267000000000000126,-22.327594216986920372
0.268000000000000127,-22.379226495576496347
0.269000000000000128,-22.426438877891108348
0.270000000000000129,-22.469483335212025565
0.271000000000000130,-22.508599423735589085
0.272000000000000131,-22.544013812990524315
0.273000000000000131,-22.575939916572583144
0.274000000000000132,-22.604577621229946516
0.275000000000000133,-22.630113109864915089
0.276000000000000134,-22.652718773634333616
0.277000000000000135,-22.672553208028205063
0.278000000000000136,-22.689761287575439752
0.279000000000000137,-22.704474313662981189
0.280000000000000138,-22.716810229852704595
0.281000000000000139,-22.726873899034121251
0.282000000000000139,-22.734757436754438942
0.283000000000000140,-22.740540595115284361
0.284000000000000141,-22.744291191712044053
0.285000000000000142,-22.746065578213297442
0.286000000000000143,-22.745909143327978086
0.287000000000000144,-22.743856845083882945
0.288000000000000145,-22.739933767538296649
0.289000000000000146,-22.734155697255289397
0.290000000000000147,-22.726529715112658181
0.291000000000000147,-22.717054799239996044
0.292000000000000148,-22.705722435135964332
0.293000000000000149,-22.692517229264048240
0.294000000000000150,-22.677417522680407558
0.295000000000000151,-22.660396001502128627
0.296000000000000152,-22.641420301277122462
0.297000000000000153,-22.620453602567529572
0.298000000000000154,-22.597455215303945408
0.299000000000000155,-22.572381149707744896
0.300000000000000155,-22.545184671811632882
0.301000000000000156,-22.515816841834073614
0.302000000000000157,-22.484227033879555790
0.303000000000000158,-22.450363435644398180
0.304000000000000159,-22.414173527005601727
0.305000000000000160,-22.375604536557922586
0.306000000000000161,-22.334603875342232016
0.307000000000000162,-22.291119547175373583
0.308000000000000163,-22.245100535148196741
0.309000000000000163,-22.196497164005268843
0.310000000000000164,-22.145261438255310793
0.311000000000000165,-22.091347355987174694
0.312000000000000166,-22.034711198482433758
0.313000000000000167,-21.975311795820754668
0.314000000000000168,-21.913110768771577597
0.315000000000000169,-21.848072747352205170
0.316000000000000170,-21.780165566511492159
0.317000000000000171,-21.709360439467872084
0.318000000000000171,-21.635632109292391334
0.319000000000000172,-21.558958979381987575
0.320000000000000173,-21.479323223514590779
0.321000000000000174,-21.396710876217802877
0.322000000000000175,-21.311111904216424762
0.323000000000000176,-21.222520259751213700
0.324000000000000177,-21.130933916582876009
0.325000000000000178,-21.036354889511507338
0.326000000000000179,-20.938789238253207259
0.327000000000000179,-20.838247056521851164
0.328000000000000180,-20.734742447166823354
0.329000000000000181,-20.628293484216197129
0.330000000000000182,-20.518922162669309017
0.331000000000000183,-20.406654336875536870
0.332000000000000184,-20.291519648323951941
0.333000000000000185,-20.173551443655775017
0.334000000000000186,-20.052786683695039471
0.335000000000000187,-19.929265844275111164
0.336000000000000187,-19.803032809618883903
0.337000000000000188,-19.674134759008765627
0.338000000000000189,-19.542622047460493917
0.339000000000000190,-19.408548081090277293
0.340000000000000191,-19.271969187840280568
0.341000000000000192,-19.132944484202216273
0.342000000000000193,-18.991535738551942103
0.343000000000000194,-18.847807231682345730
0.344000000000000195,-18.701825615094065824
0.345000000000000195,-18.553659767577482143
0.346000000000000196,-18.403380650591657286
0.347000000000000197,-18.251061162919519631
0.348000000000000198,-18.096775995051739727
0.349000000000000199,-17.940601483725068022
0.350000000000000200,-17.782615467015293831
0.351000000000000201,-17.622897140358738000
0.352000000000000202,-17.461526913851656673
0.353000000000000203,-17.298586271151901173
0.354000000000000203,-17.134157630283350926
0.355000000000000204,-16.968324206620295058
0.356000000000000205,-16.801169878306286165
0.357000000000000206,-16.632779054340037561
0.358000000000000207,-16.463236545539594147
0.359000000000000208,-16.292627438575866705
0.360000000000000209,-16.121036973246567925
0.361000000000000210,-15.948550423143109001
0.362000000000000210,-15.775252979844438528
0.363000000000000211,-15.601229640754928241
0.364000000000000212,-15.426565100686769227
0.365000000000000213,-15.251343647271379922
0.366000000000000214,-15.075649060269807222
0.367000000000000215,-14.899564514837578599
0.368000000000000216,-14.723172488786280709
0.369000000000000217,-14.546554673871430197
0.370000000000000218,-14.369791891124284788
0.371000000000000218,-14.192964010234081940
0.372000000000000219,-14.016149872976660262
0.373000000000000220,-13.839427220675762698
0.374000000000000221,-13.662872625674086891
0.375000000000000222,-13.486561426782618156
0.376000000000000223,-13.310567668669119001
0.377000000000000224,-13.134964045139252420
0.378000000000000225,-12.959821846257188582
0.379000000000000226,-12.785210909246474742
0.380000000000000226,-12.611199573106484095
0.381000000000000227,-12.437854636874392966
0.382000000000000228,-12.265241321458589141
0.383000000000000229,-12.093423234964941315
0.384000000000000230,-11.922462341433806898
0.385000000000000231,-11.752418932902820359
0.386000000000000232,-11.583351604707186056
0.387000000000000233,-11.415317233927293472
0.388000000000000234,-11.248370960891078241
0.389000000000000234,-11.082566173637356854
0.390000000000000235,-10.917954495244362789
0.391000000000000236,-10.754585773927441750
0.392000000000000237,-10.592508075808444445
0.393000000000000238,-10.431767680259438791
0.394000000000000239,-10.272409077722706172
0.395000000000000240,-10.114474969909434066
0.396000000000000241,-9.958006272279428472
0.397000000000000242,-9.803042118704796692
0.398000000000000242,-9.649619868221291696
0.399000000000000243,-9.497775113771655953
0.400000000000000244,-9.347541692846252914
0.401000000000000245,-9.198951699927850001
0.402000000000000246,-9.052035500648161204
0.403000000000000247,-8.906821747565381031
0.404000000000000248,-8.763337397473639712
0.405000000000000249,-8.621607730156670257
0.406000000000000250,-8.481656368499759679
0.407000000000000250,-8.343505299875968007
0.408000000000000251,-8.207174898724289847
0.409000000000000252,-8.072683950239506245
0.410000000000000253,-7.940049675095343318
0.411000000000000254,-7.809287755124683983
0.412000000000000255,-7.680412359882547335
0.413000000000000256,-7.553436174019743987
0.414000000000000257,-7.428370425397085697
0.415000000000000258,-7.305224913872375048
0.416000000000000258,-7.184008040694353170
0.417000000000000259,-7.064726838440057222
0.418000000000000260,-6.947387001434165654
0.419000000000000261,-6.831992916591005383
0.420000000000000262,-6.718547694622157174
0.421000000000000263,-6.607053201554637489
0.422000000000000264,-6.497510090506774638
0.423000000000000265,-6.389917833670915925
0.424000000000000266,-6.284274754454473921
0.425000000000000266,-6.180578059732392049
0.426000000000000267,-6.078823872166553954
0.427000000000000268,-5.979007262549451696
0.428000000000000269,-5.881122282131374668
0.429000000000000270,-5.785161994892441761
0.430000000000000271,-5.691118509722463692
0.431000000000000272,-5.598983012473739862
0.432000000000000273,-5.508745797853419113
0.433000000000000274,-5.420396301124116967
0.434000000000000274,-5.333923129582880840
0.435000000000000275,-5.249314093790606428
0.436000000000000276,-5.166556238525426004
0.437000000000000277,-5.085635873435210286
0.438000000000000278,-5.006538603366008644
0.439000000000000279,-4.929249358344649501
0.440000000000000280,-4.853752423195152765
0.441000000000000281,-4.780031466770155113
0.442000000000000282,-4.708069570779858104
0.443000000000000282,-4.637849258202232150
0.444000000000000283,-4.569352521259753885
0.445000000000000284,-4.502560848948942152
0.446000000000000285,-4.437455254110189706
0.447000000000000286,-4.374016300026844384
0.448000000000000287,-4.312224126543073410
0.449000000000000288,-4.252058475691676165
0.450000000000000289,-4.193498716823592432
0.451000000000000290,-4.136523871232135718
0.452000000000000290,-4.081112636265759264
0.453000000000000291,-4.027243408924165102
0.454000000000000292,-3.974894308933405451
0.455000000000000293,-3.924043201296406380
0.456000000000000294,-3.874667718316263887
0.457000000000000295,-3.826745281090263351
0.458000000000000296,-3.780253120473453521
0.459000000000000297,-3.735168297511131552
0.460000000000000298,-3.691467723340426055
0.461000000000000298,-3.649128178561602542
0.462000000000000299,-3.608126332080477283
0.463000000000000300,-3.568438759423732343
0.464000000000000301,-3.530041960529561429
0.465000000000000302,-3.492912377016530456
0.466000000000000303,-3.457026408933999484
0.467000000000000304,-3.422360430997839931
0.468000000000000305,-3.388890808315811576
0.469000000000000306,-3.356593911607011815
0.470000000000000306,-3.325446131920494430
0.471000000000000307,-3.295423894858257263
0.472000000000000308,-3.266503674308322225
0.473000000000000309,-3.238662005693667911
0.474000000000000310,-3.211875498743322677
0.475000000000000311,-3.186120849791951315
0.476000000000000312,-3.161374853614664637
0.477000000000000313,-3.137614414803814533
0.478000000000000314,-3.114816558694907034
0.479000000000000314,-3.092958441848871143
0.480000000000000315,-3.072017362097933635
0.481000000000000316,-3.051970768162814984
0.482000000000000317,-3.032796268848694243
0.483000000000000318,-3.014471641827841442
0.484000000000000319,-2.996974842016635332
0.485000000000000320,-2.980284009555028035
0.486000000000000321,-2.964377477396291205
0.487000000000000322,-2.949233778515203852
0.488000000000000322,-2.934831652742699859
0.489000000000000323,-2.921150053235111343
0.490000000000000324,-2.908168152586132482
0.491000000000000325,-2.895865348589663935
0.492000000000000326,-2.884221269661619846
0.493000000000000327,-2.873215779928902869
0.494000000000000328,-2.862828983993609633
0.495000000000000329,-2.853041231380546883
0.496000000000000330,-2.843833120676150017
0.497000000000000330,-2.835185503366739912
0.498000000000000331,-2.827079487384161371
0.499000000000000332,-2.819496440366611623
0.500000000000000333,-2.812417992642578746
0.501000000000000334,-2.805826039945611416
0.502000000000000335,-2.799702745867633791
0.503000000000000336,-2.794030544058437648
0.504000000000000337,-2.788792140178865342
0.505000000000000338,-2.783970513615165565
0.506000000000000338,-2.779548918961868509
0.507000000000000339,-2.775510887280431493
0.508000000000000340,-2.771840227140879076
0.509000000000000341,-2.768521025453440032
0.510000000000000342,-2.765537648097205370
0.511000000000000343,-2.762874740352632585
0.512000000000000344,-2.760517227144678731
0.513000000000000345,-2.758450313103165907
0.514000000000000346,-2.756659482446979226
0.515000000000000346,-2.755130498698441066
0.516000000000000347,-2.753849404234212095
0.517000000000000348,-2.752802519678922089
0.518000000000000349,-2.751976443147550633
0.519000000000000350,-2.751358049342554679
0.520000000000000351,-2.750934488511600939
0.521000000000000352,-2.750693185271555485
0.522000000000000353,-2.750621837304406458
0.523000000000000353,-2.750708413930543106
0.524000000000000354,-2.750941154564806812
0.525000000000000355,-2.751308567060539723
0.526000000000000356,-2.751799425946724220
0.527000000000000357,-2.752402770563310064
0.528000000000000358,-2.753107903099532017
0.529000000000000359,-2.753904386540050098
0.530000000000000360,-2.754782042523559848
0.531000000000000361,-2.755730949118415651
0.532000000000000361,-2.756741438519701770
0.533000000000000362,-2.757804094672067219
0.534000000000000363,-2.758909750822551743
0.535000000000000364,-2.760049487007446789
0.536000000000000365,-2.761214627477245553
0.537000000000000366,-2.762396738063507051
0.538000000000000367,-2.763587623491416956
0.539000000000000368,-2.764779324641731151
0.540000000000000369,-2.765964115765621845
0.541000000000000369,-2.767134501655910572
0.542000000000000370,-2.768283214778043178
0.543000000000000371,-2.769403212364017541
0.544000000000000372,-2.770487673472491696
0.545000000000000373,-2.771529996018048614
0.546000000000000374,-2.772523793772635692
0.547000000000000375,-2.773462893342009572
0.548000000000000376,-2.774341331120009357
0.549000000000000377,-2.775153350223274806
0.550000000000000377,-2.775893397409038510
0.551000000000000378,-2.776556119978523807
0.552000000000000379,-2.777136362668302549
0.553000000000000380,-2.777629164532015693
0.554000000000000381,-2.778029755814658497
0.555000000000000382,-2.778333554821641904
0.556000000000000383,-2.778536164784677798
0.557000000000000384,-2.778633370726546037
0.558000000000000385,-2.778621136326651975
0.559000000000000385,-2.778495600789267606
0.560000000000000386,-2.778253075716186071
0.561000000000000387,-2.777890041985595637
0.562000000000000388,-2.777403146638752762
0.563000000000000389,-2.776789199776067640
0.564000000000000390,-2.776045171464109895
0.565000000000000391,-2.775168188654987045
0.566000000000000392,-2.774155532119487511
0.567000000000000393,-2.773004633395303120
0.568000000000000393,-2.771713071751601198
0.569000000000000394,-2.770278571171162163
0.570000000000000395,-2.768698997351223934
0.571000000000000396,-2.766972354724118510
0.572000000000000397,-2.765096783498773636
0.573000000000000398,-2.763070556724017024
0.574000000000000399,-2.760892077374669018
0.575000000000000400,-2.758559875461280342
0.576000000000000401,-2.756072605164349820
0.577000000000000401,-2.753429041993846305
0.578000000000000402,-2.750628079974741347
0.579000000000000403,-2.747668728859262277
0.580000000000000404,-2.744550111366552692
0.581000000000000405,-2.741271460450312336
0.582000000000000406,-2.737832116595019460
0.583000000000000407,-2.734231525141265884
0.584000000000000408,-2.730469233640698601
0.585000000000000409,-2.726544889241024006
0.586000000000000409,-2.722458236101516604
0.587000000000000410,-2.718209112839405250
0.588000000000000411,-2.713797450007495726
0.589000000000000412,-2.709223267603370289
0.590000000000000413,-2.704486672610430631
0.591000000000000414,-2.699587856571068922
0.592000000000000415,-2.694527093192192968
0.593000000000000416,-2.689304735983300887
0.594000000000000417,-2.683921215927309145
0.595000000000000417,-2.678377039184256070
0.596000000000000418,-2.672672784828010517
0.597000000000000419,-2.666809102616137572
0.598000000000000420,-2.660786710792904408
0.599000000000000421,-2.654606393925583951
0.600000000000000422,-2.648269000774014170
0.601000000000000423,-2.641775442193476042
0.602000000000000424,-2.635126689070843131
0.603000000000000425,-2.628323770294024087
0.604000000000000425,-2.621367770754599924
0.605000000000000426,-2.614259829383629885
0.606000000000000427,-2.607001137220554821
0.607000000000000428,-2.599592935515042669
0.608000000000000429,-2.592036513861766700
0.609000000000000430,-2.584333208367857182
0.610000000000000431,-2.576484399853042895
0.611000000000000432,-2.568491512082176964
0.612000000000000433,-2.560356010030072849
0.613000000000000433,-2.552079398178472402
0.614000000000000434,-2.543663218844902207
0.615000000000000435,-2.535109050543233877
0.616000000000000436,-2.526418506375790241
0.617000000000000437,-2.517593232456697638
0.618000000000000438,-2.508634906366297379
0.619000000000000439,-2.499545235636360108
0.620000000000000440,-2.490325956265869056
0.621000000000000441,-2.480978831267089291
0.622000000000000441,-2.471505649241690250
0.623000000000000442,-2.461908222986610273
0.624000000000000443,-2.452188388129424190
0.625000000000000444,-2.442348001792912893
0.626000000000000445,-2.432388941288519568
0.627000000000000446,-2.422313102838442589
0.628000000000000447,-2.412122400326041749
0.629000000000000448,-2.401818764074234558
0.630000000000000449,-2.391404139651606364
0.631000000000000449,-2.380880486705883925
0.632000000000000450,-2.370249777824503301
0.633000000000000451,-2.359513997421899045
0.634000000000000452,-2.348675140653238458
0.635000000000000453,-2.337735212354217218
0.636000000000000454,-2.326696226006661483
0.637000000000000455,-2.315560202729543882
0.638000000000000456,-2.304329170295105200
0.639000000000000457,-2.293005162169758027
0.640000000000000457,-2.281590216579419739
0.641000000000000458,-2.270086375598936446
0.642000000000000459,-2.258495684265290127
0.643000000000000460,-2.246820189714209270
0.644000000000000461,-2.235061940339884146
0.645000000000000462,-2.223222984977428318
0.646000000000000463,-2.211305372107736478
0.647000000000000464,-2.199311149084440142
0.648000000000000465,-2.187242361382588651
0.649000000000000465,-2.175101051868720159
0.650000000000000466,-2.162889260092027754
0.651000000000000467,-2.150609021596224135
0.652000000000000468,-2.138262367251816620
0.653000000000000469,-2.125851322608442562
0.654000000000000470,-2.113377907266951627
0.655000000000000471,-2.100844134270865915
0.656000000000000472,-2.088252009516936347
0.657000000000000473,-2.075603531184434747
0.658000000000000473,-2.062900689182879610
0.659000000000000474,-2.050145464617861180
0.660000000000000475,-2.037339829274650960
0.661000000000000476,-2.024485745119262159
0.662000000000000477,-2.011585163816682620
0.663000000000000478,-1.998640026265915637
0.664000000000000479,-1.985652262151573311
0.665000000000000480,-1.972623789511648074
0.666000000000000481,-1.959556514321246778
0.667000000000000481,-1.946452330091862803
0.668000000000000482,-1.933313117486019639
0.669000000000000483,-1.920140743946889827
0.670000000000000484,-1.906937063342621697
0.671000000000000485,-1.893703915625109202
0.672000000000000486,-1.880443126502868267
0.673000000000000487,-1.867156507127804677
0.674000000000000488,-1.853845853795484500
0.675000000000000488,-1.840512947658731635
0.676000000000000489,-1.827159554454235391
0.677000000000000490,-1.813787424241851243
0.678000000000000491,-1.800398291156412256
0.679000000000000492,-1.786993873171712988
0.680000000000000493,-1.773575871876411636
0.681000000000000494,-1.760145972261640379
0.682000000000000495,-1.746705842519989060
0.683000000000000496,-1.733257133855684584
0.684000000000000496,-1.719801480305644503
0.685000000000000497,-1.706340498571224717
0.686000000000000498,-1.692875787860353309
0.687000000000000499,-1.679408929739863110
0.688000000000000500,-1.665941487997742332
0.689000000000000501,-1.652475008515097654
0.690000000000000502,-1.639011019147600834
0.691000000000000503,-1.625551029616147947
0.692000000000000504,-1.612096531406563171
0.693000000000000504,-1.598648997678105754
0.694000000000000505,-1.585209883180517476
0.695000000000000506,-1.571780624179490271
0.696000000000000507,-1.558362638390236699
0.697000000000000508,-1.544957324919035369
0.698000000000000509,-1.531566064212521505
0.699000000000000510,-1.518190218014475734
0.700000000000000511,-1.504831129330012285
0.701000000000000512,-1.491490122396853968
0.702000000000000512,-1.478168502663600448
0.703000000000000513,-1.464867556774741786
0.704000000000000514,-1.451588552562252499
0.705000000000000515,-1.438332739043580499
0.706000000000000516,-1.425101346425853510
0.707000000000000517,-1.411895586116121093
0.708000000000000518,-1.398716650737455547
0.709000000000000519,-1.385565714150772010
0.710000000000000520,-1.372443931482135282
0.711000000000000520,-1.359352439155470549
0.712000000000000521,-1.346292354930440860
0.713000000000000522,-1.333264777945385671
0.714000000000000523,-1.320270788765152359
0.715000000000000524,-1.307311449433623762
0.716000000000000525,-1.294387803530887338
0.717000000000000526,-1.281500876234778374
0.718000000000000527,-1.268651674386764405
0.719000000000000528,-1.255841186561943434
0.720000000000000528,-1.243070383143088709
0.721000000000000529,-1.230340216398512876
0.722000000000000530,-1.217651620563748205
0.723000000000000531,-1.205005511926763084
0.724000000000000532,-1.192402788916703482
0.725000000000000533,-1.179844332195986834
0.726000000000000534,-1.167331004755601809
0.727000000000000535,-1.154863652013552011
0.728000000000000536,-1.142443101916259973
0.729000000000000536,-1.130070165042880603
0.730000000000000537,-1.117745634712360436
0.731000000000000538,-1.105470287093135440
0.732000000000000539,-1.093244881315413197
0.733000000000000540,-1.081070159585845847
0.734000000000000541,-1.068946847304570236
0.735000000000000542,-1.056875653184456088
0.736000000000000543,-1.044857269372510666
0.737000000000000544,-1.032892371573284063
0.738000000000000544,-1.020981619174256672
0.739000000000000545,-1.009125655373021235
0.740000000000000546,-0.997325107306267333
0.741000000000000547,-0.985580586180391904
0.742000000000000548,-0.973892687403730029
0.743000000000000549,-0.962261990720242211
0.744000000000000550,-0.950689060344615866
0.745000000000000551,-0.939174445098734600
0.746000000000000552,-0.927718678549343090
0.747000000000000552,-0.916322279146941865
0.748000000000000553,-0.904985750365730590
0.749000000000000554,-0.893709580844599949
0.750000000000000555,-0.882494244529089755
0.751000000000000556,-0.871340200814193722
0.752000000000000557,-0.860247894688020764
0.753000000000000558,-0.849217756876166185
0.754000000000000559,-0.838250203986797948
0.755000000000000560,-0.827345638656339921
0.756000000000000560,-0.816504449695740542
0.757000000000000561,-0.805727012237205775
0.758000000000000562,-0.795013687881397813
0.759000000000000563,-0.784364824845019570
0.760000000000000564,-0.773780758108711497
0.761000000000000565,-0.763261809565237814
0.762000000000000566,-0.752808288167879813
0.763000000000000567,-0.742420490079028772
0.764000000000000568,-0.732098698818859139
0.765000000000000568,-0.721843185414123623
0.766000000000000569,-0.711654208546934619
0.767000000000000570,-0.701532014703563522
0.768000000000000571,-0.691476838323134890
0.769000000000000572,-0.681488901946263770
0.770000000000000573,-0.671568416363516052
0.771000000000000574,-0.661715580763692190
0.772000000000000575,-0.651930582881882326
0.773000000000000576,-0.642213599147256953
0.774000000000000576,-0.632564794830564603
0.775000000000000577,-0.622984324191297012
0.776000000000000578,-0.613472330624452722
0.777000000000000579,-0.604028946806954070
0.778000000000000580,-0.594654294843567355
0.779000000000000581,-0.585348486412404667
0.780000000000000582,-0.576111622909890264
0.781000000000000583,-0.566943795595243327
0.782000000000000584,-0.557845085734361312
0.783000000000000584,-0.548815564743149631
0.784000000000000585,-0.539855294330247037
0.785000000000000586,-0.530964326639090101
0.786000000000000587,-0.522142704389355061
0.787000000000000588,-0.513390461017698918
0.788000000000000589,-0.504707620817783975
0.789000000000000590,-0.496094199079623266
0.790000000000000591,-0.487550202228121232
0.791000000000000592,-0.479075627960901140
0.792000000000000592,-0.470670465385307324
0.793000000000000593,-0.462334695154626218
0.794000000000000594,-0.454068289603475783
0.795000000000000595,-0.445871212882371915
0.796000000000000596,-0.437743421091402296
0.797000000000000597,-0.429684862413083846
0.798000000000000598,-0.421695477244284522
0.799000000000000599,-0.413775198327276772
0.800000000000000600,-0.405923950879868933
0.801000000000000600,-0.398141652724605888
0.802000000000000601,-0.390428214417040342
0.803000000000000602,-0.382783539373044601
0.804000000000000603,-0.375207523995173819
0.805000000000000604,-0.367700057798054036
0.806000000000000605,-0.360261023532771008
0.807000000000000606,-0.352890297310310685
0.808000000000000607,-0.345587748723952704
0.809000000000000608,-0.338353240970688252
0.810000000000000608,-0.331186630971630147
0.811000000000000609,-0.324087769491359257
0.812000000000000610,-0.317056501256294809
0.813000000000000611,-0.310092665071985518
0.814000000000000612,-0.303196093939394062
0.815000000000000613,-0.296366615170127468
0.816000000000000614,-0.289604050500591514
0.817000000000000615,-0.282908216205135010
0.818000000000000616,-0.276278923208107541
0.819000000000000616,-0.269715977194853740
0.820000000000000617,-0.263219178721655511
0.821000000000000618,-0.256788323324601886
0.822000000000000619,-0.250423201627394676
0.823000000000000620,-0.244123599448071715
0.824000000000000621,-0.237889297904660513
0.825000000000000622,-0.231720073519759817
0.826000000000000623,-0.225615698324051150
0.827000000000000624,-0.219575939958723543
0.828000000000000624,-0.213600561776832343
0.829000000000000625,-0.207689322943565902
0.830000000000000626,-0.201841978535459265
0.831000000000000627,-0.196058279638510857
0.832000000000000628,-0.190337973445254965
0.833000000000000629,-0.184680803350713796
0.834000000000000630,-0.179086509047327647
0.835000000000000631,-0.173554826618789876
0.836000000000000631,-0.168085488632811531
0.837000000000000632,-0.162678224232842533
0.838000000000000633,-0.157332759228694774
0.839000000000000634,-0.152048816186146102
0.840000000000000635,-0.146826114515460432
0.841000000000000636,-0.141664370558849451
0.842000000000000637,-0.136563297676917633
0.843000000000000638,-0.131522606334016051
0.844000000000000639,-0.126542004182587764
0.845000000000000639,-0.121621196146454641
0.846000000000000640,-0.116759884503072439
0.847000000000000641,-0.111957768964767473
0.848000000000000642,-0.107214546758929830
0.849000000000000643,-0.102529912707182841
0.850000000000000644,-0.097903559303572002
0.851000000000000645,-0.093335176791674551
0.852000000000000646,-0.088824453240778395
0.853000000000000647,-0.084371074621000311
0.854000000000000647,-0.079974724877434927
0.855000000000000648,-0.075635086003305263
0.856000000000000649,-0.071351838112135010
0.857000000000000650,-0.067124659508933537
0.858000000000000651,-0.062953226760402048
0.859000000000000652,-0.058837214764182889
0.860000000000000653,-0.054776296817147185
0.861000000000000654,-0.050770144682709052
0.862000000000000655,-0.046818428657219073
0.863000000000000655,-0.042920817635377903
0.864000000000000656,-0.039076979174749726
0.865000000000000657,-0.035286579559314593
0.866000000000000658,-0.031549283862115515
0.867000000000000659,-0.027864756006985559
0.868000000000000660,-0.024232658829350801
0.869000000000000661,-0.020652654136143044
0.870000000000000662,-0.017124402764813262
0.871000000000000663,-0.013647564641449773
0.872000000000000663,-0.010221798838013333
0.873000000000000664,-0.006846763628700184
0.874000000000000665,-0.003522116545426740
0.875000000000000666,-0.000247514432464962
0.876000000000000667,0.002977386499794589
0.877000000000000668,0.006152930621913725
0.878000000000000669,0.009279462833323652
0.879000000000000670,0.012357328511087038
0.880000000000000671,0.015386873459462325
0.881000000000000671,0.018368443860318905
0.882000000000000672,0.021302386224336382
0.883000000000000673,0.024189047343027941
0.884000000000000674,0.027028774241553106
0.885000000000000675,0.029821914132326981
0.886000000000000676,0.032568814369403412
0.887000000000000677,0.035269822403640919
0.888000000000000678,0.037925285738648569
0.889000000000000679,0.040535551887463175
0.890000000000000679,0.043100968330014054
0.891000000000000680,0.045621882471305331
0.892000000000000681,0.048098641600363076
0.893000000000000682,0.050531592849896570
0.894000000000000683,0.052921083156697989
0.895000000000000684,0.055267459222740442
0.896000000000000685,0.057571067477008728
0.897000000000000686,0.059832254038019714
0.898000000000000687,0.062051364677029749
0.899000000000000687,0.064228744781961472
0.900000000000000688,0.066364739321973815
0.901000000000000689,0.068459692812735992
0.902000000000000690,0.070513949282342864
0.903000000000000691,0.072527852237912138
0.904000000000000692,0.074501744632819875
0.905000000000000693,0.076435968834587004
0.906000000000000694,0.078330866593395443
0.907000000000000695,0.080186779011255524
0.908000000000000695,0.082004046511760312
0.909000000000000696,0.083783008810501922
0.910000000000000697,0.085524004886058269
0.911000000000000698,0.087227372951607332
0.912000000000000699,0.088893450427126250
0.913000000000000700,0.090522573912171084
0.914000000000000701,0.092115079159271127
0.915000000000000702,0.093671301047851360
0.916000000000000703,0.095191573558761913
0.917000000000000703,0.096676229749343159
0.918000000000000704,0.098125601729067494
0.919000000000000705,0.099540020635710408
0.920000000000000706,0.100919816612065547
0.921000000000000707,0.102265318783207590
0.922000000000000708,0.103576855234270404
0.923000000000000709,0.104854752988740738
0.924000000000000710,0.106099337987289807
0.925000000000000711,0.107310935067086513
0.926000000000000711,0.108489867941632068
0.927000000000000712,0.109636459181078297
0.928000000000000713,0.110751030193038752
0.929000000000000714,0.111833901203884950
0.930000000000000715,0.112885391240515706
0.931000000000000716,0.113905818112600324
0.932000000000000717,0.114895498395270509
0.933000000000000718,0.115854747412303949
0.934000000000000719,0.116783879219716974
0.935000000000000719,0.117683206589836081
0.936000000000000720,0.118553040995791531
0.937000000000000721,0.119393692596452966
0.938000000000000722,0.120205470221785377
0.939000000000000723,0.120988681358636607
0.940000000000000724,0.121743632136927044
0.941000000000000725,0.122470627316269565
0.942000000000000726,0.123169970272967472
0.943000000000000727,0.123841962987439075
0.944000000000000727,0.124486906032013428
0.945000000000000728,0.125105098559120165
0.946000000000000729,0.125696838289876267
0.947000000000000730,0.126262421503020278
0.948000000000000731,0.126802143024247638
0.949000000000000732,0.127316296215883445
0.950000000000000733,0.127805172966945130
0.951000000000000734,0.128269063683526141
0.952000000000000735,0.128708257279564725
0.953000000000000735,0.129123041167931468
0.954000000000000736,0.129513701251866398
0.955000000000000737,0.129880521916747038
0.956000000000000738,0.130223786022188481
0.957000000000000739,0.130543774894465808
0.958000000000000740,0.130840768319258172
0.959000000000000741,0.131115044534700187
0.960000000000000742,0.131366880224749905
0.961000000000000743,0.131596550512860982
0.962000000000000743,0.131804328955947181
0.963000000000000744,0.131990487538654555
0.964000000000000745,0.132155296667903654
0.965000000000000746,0.132299025167741779
0.966000000000000747,0.132421940274459166
0.967000000000000748,0.132524307631990246
0.968000000000000749,0.132606391287575565
0.969000000000000750,0.132668453687710158
0.970000000000000751,0.132710755674330827
0.971000000000000751,0.132733556481289178
0.972000000000000752,0.132737113731061840
0.973000000000000753,0.132721683431701015
0.974000000000000754,0.132687519974065860
0.975000000000000755,0.132634876129255674
0.976000000000000756,0.132564003046309914
0.977000000000000757,0.132475150250124962
0.978000000000000758,0.132368565639616631
0.979000000000000759,0.132244495486078029
0.980000000000000759,0.132103184431801968
0.981000000000000760,0.131944875488888252
0.982000000000000761,0.131769810038264962
0.983000000000000762,0.131578227828944627
0.984000000000000763,0.131370366977467429
0.985000000000000764,0.131146463967539900
0.986000000000000765,0.130906753649898511
0.987000000000000766,0.130651469242345497
0.988000000000000766,0.130380842329986091
0.989000000000000767,0.130095102865643908
0.990000000000000768,0.129794479170478982
0.991000000000000769,0.129479197934773083
0.992000000000000770,0.129149484218893440
0.993000000000000771,0.128805561454431644
0.994000000000000772,0.128447651445520672
0.995000000000000773,0.128075974370303824
0.996000000000000774,0.127690748782586738
0.997000000000000774,0.127292191613635947
0.998000000000000775,0.126880518174142226
0.999000000000000776,0.126455942156332990
1.000000000000000666,0.126018675636244554
1.001000000000000778,0.125568929076134483
1.002000000000000668,0.125106911327043852
1.003000000000000780,0.124632829631505099
1.004000000000000670,0.124146889626378099
1.005000000000000782,0.123649295345832425
1.006000000000000671,0.123140249224461026
1.007000000000000783,0.122619952100530033
1.008000000000000673,0.122088603219339939
1.009000000000000785,0.121546400236730662
1.010000000000000675,0.120993539222699287
1.011000000000000787,0.120430214665143337
1.012000000000000677,0.119856619473706585
1.013000000000000789,0.119272944983763021
1.014000000000000679,0.118679380960494379
1.015000000000000790,0.118076115603081802
1.016000000000000680,0.117463335549002929
1.017000000000000792,0.116841225878446142
1.018000000000000682,0.116209970118798259
1.019000000000000794,0.115569750249269257
1.020000000000000684,0.114920746705578697
1.021000000000000796,0.114263138384756630
1.022000000000000686,0.113597102650039930
1.023000000000000798,0.112922815335837728
1.024000000000000687,0.112240450752814261
1.025000000000000799,0.111550181693022971
1.026000000000000689,0.110852179435161791
1.027000000000000801,0.110146613749874472
1.028000000000000691,0.109433652905152806
1.029000000000000803,0.108713463671810673
1.030000000000000693,0.107986211329031925
1.031000000000000805,0.107252059669986827
1.032000000000000695,0.106511171007535071
1.033000000000000806,0.105763706179967359
1.034000000000000696,0.105009824556849513
1.035000000000000808,0.104249684044911903
1.036000000000000698,0.103483441094001719
1.037000000000000810,0.102711250703091575
1.038000000000000700,0.101933266426377497
1.039000000000000812,0.101149640379392045
1.040000000000000702,0.100360523245204392
1.041000000000000814,0.099566064280654148
1.042000000000000703,0.098766411322665990
1.043000000000000815,0.097961710794574192
1.044000000000000705,0.097152107712530439
1.045000000000000817,0.096337745691944601
1.046000000000000707,0.095518766953970269
1.047000000000000819,0.094695312332034015
1.048000000000000709,0.093867521278426722
1.049000000000000821,0.093035531870888741
1.050000000000000711,0.092199480819299448
1.051000000000000822,0.091359503472339412
1.052000000000000712,0.090515733824236805
1.053000000000000824,0.089668304521530517
1.054000000000000714,0.088817346869857913
1.055000000000000826,0.087962990840795646
1.056000000000000716,0.087105365078708002
1.057000000000000828,0.086244596907646853
1.058000000000000718,0.085380812338262058
1.059000000000000830,0.084514136074750348
1.060000000000000719,0.083644691521814363
1.061000000000000831,0.082772600791676004
1.062000000000000721,0.081897984711070154
1.063000000000000833,0.081020962828292492
1.064000000000000723,0.080141653420262665
1.065000000000000835,0.079260173499594341
1.066000000000000725,0.078376638821686773
1.067000000000000837,0.077491163891852344
1.068000000000000727,0.076603861972423998
1.069000000000000838,0.075714845089916369
1.070000000000000728,0.074824224042169790
1.071000000000000840,0.073932108405521779
1.072000000000000730,0.073038606541988307
1.073000000000000842,0.072143825606451245
1.074000000000000732,0.071247871553861281
1.075000000000000844,0.070350849146441019
1.076000000000000734,0.069452861960906054
1.077000000000000846,0.068554012395680805
1.078000000000000735,0.067654401678126946
1.079000000000000847,0.066754129871777312
1.080000000000000737,0.065853295883564283
1.081000000000000849,0.064951997471070236
1.082000000000000739,0.064050331249751208
1.083000000000000851,0.063148392700190889
1.084000000000000741,0.062246276175329372
1.085000000000000853,0.061344074907714395
1.086000000000000743,0.060441881016731300
1.087000000000000854,0.059539785515845489
1.088000000000000744,0.058637878319824123
1.089000000000000856,0.057736248251983514
1.090000000000000746,0.056834983051395990
1.091000000000000858,0.055934169380117194
1.092000000000000748,0.055033892830398320
1.093000000000000860,0.054134237931893703
1.094000000000000750,0.053235288158853478
1.095000000000000862,0.052337125937323800
1.096000000000000751,0.051439832652317594
1.097000000000000863,0.050543488654997623
1.098000000000000753,0.049648173269831196
1.099000000000000865,0.048753964801739096
1.100000000000000755,0.047860940543250081
1.101000000000000867,0.046969176781611881
1.102000000000000757,0.046078748805917780
1.103000000000000869,0.045189730914200942
1.104000000000000759,0.044302196420536191
1.105000000000000870,0.043416217662095836
1.106000000000000760,0.042531866006230643
1.107000000000000872,0.041649211857496801
1.108000000000000762,0.040768324664691914
1.109000000000000874,0.039889272927870423
1.110000000000000764,0.039012124205333613
1.111000000000000876,0.038136945120611936
1.112000000000000766,0.037263801369424809
1.113000000000000878,0.036392757726623412
1.114000000000000767,0.035523878053110206
1.115000000000000879,0.034657225302753142
1.116000000000000769,0.033792861529263675
1.117000000000000881,0.032930847893063490
1.118000000000000771,0.032071244668132055
1.119000000000000883,0.031214111248829706
1.120000000000000773,0.030359506156697452
1.121000000000000885,0.029507487047249738
1.122000000000000774,0.028658110716723049
1.123000000000000886,0.027811433108818857
1.124000000000000776,0.026967509321418549
1.125000000000000888,0.026126393613279730
1.126000000000000778,0.025288139410700732
1.127000000000000890,0.024452799314164209
1.128000000000000780,0.023620425104970796
1.129000000000000892,0.022791067751824545
1.130000000000000782,0.021964777417417133
1.131000000000000894,0.021141603464965363
1.132000000000000783,0.020321594464748415
1.133000000000000895,0.019504798200593487
1.134000000000000785,0.018691261676363584
1.135000000000000897,0.017881031122389320
1.136000000000000787,0.017074152001904742
1.137000000000000899,0.016270669017431922
1.138000000000000789,0.015470626117162984
1.139000000000000901,0.014674066501281202
1.140000000000000790,0.013881032628297740
1.141000000000000902,0.013091566221334911
1.142000000000000792,0.012305708274378295
1.143000000000000904,0.011523499058515293
1.144000000000000794,0.010744978128144518
1.145000000000000906,0.009970184327154998
1.146000000000000796,0.009199155795065386
1.147000000000000908,0.008431929973157162
1.148000000000000798,0.007668543610563903
1.149000000000000909,0.006909032770334556
1.150000000000000799,0.006153432835475329
1.151000000000000689,0.005401778514951117
1.152000000000000801,0.004654103849665340
1.153000000000000913,0.003910442218415427
1.154000000000000803,0.003170826343805176
1.155000000000000693,0.002435288298143627
1.156000000000000805,0.001703859509296886
1.157000000000000917,0.000976570766531118
1.158000000000000806,0.000253452226309226
1.159000000000000696,-0.000465466581936418
1.160000000000000808,-0.001180156750058038
1.161000000000000920,-0.001890589985481812
1.162000000000000810,-0.002596738605525064
1.163000000000000700,-0.003298575531736294
1.164000000000000812,-0.003996074284287537
1.165000000000000924,-0.004689208976361828
1.166000000000000814,-0.005377954308604521
1.167000000000000703,-0.006062285563588361
1.168000000000000815,-0.006742178600308674
1.169000000000000927,-0.007417609848711352
1.170000000000000817,-0.008088556304259959
1.171000000000000707,-0.008754995522511189
1.172000000000000819,-0.009416905613748963
1.173000000000000931,-0.010074265237628223
1.174000000000000821,-0.010727053597851524
1.175000000000000711,-0.011375250436892279
1.176000000000000822,-0.012018836030728407
1.177000000000000934,-0.012657791183618525
1.178000000000000824,-0.013292097222904531
1.179000000000000714,-0.013921735993844253
1.180000000000000826,-0.014546689854485878
1.181000000000000938,-0.015166941670551071
1.182000000000000828,-0.015782474810369547
1.183000000000000718,-0.016393273139832000
1.184000000000000830,-0.016999321017384550
1.185000000000000941,-0.017600603289034965
1.186000000000000831,-0.018197105283417364
1.187000000000000721,-0.018788812806858578
1.188000000000000833,-0.019375712138496971
1.189000000000000945,-0.019957790025420075
1.190000000000000835,-0.020535033677837163
1.191000000000000725,-0.021107430764272794
1.192000000000000837,-0.021674969406823119
1.193000000000000949,-0.022237638176384793
1.194000000000000838,-0.022795426087981234
1.195000000000000728,-0.023348322596060601
1.196000000000000840,-0.023896317589866406
1.197000000000000952,-0.024439401388817127
1.198000000000000842,-0.024977564737915792
1.199000000000000732,-0.025510798803205652
1.200000000000000844,-0.026039095167228448
1.201000000000000956,-0.026562445824550963
1.202000000000000846,-0.027080843177278120
1.203000000000000735,-0.027594280030638595
1.204000000000000847,-0.028102749588560440
1.205000000000000959,-0.028606245449312180
1.206000000000000849,-0.029104761601145817
1.207000000000000739,-0.029598292417986831
1.208000000000000851,-0.030086832655145456
1.209000000000000963,-0.030570377445065654
1.210000000000000853,-0.031048922293088421
1.211000000000000743,-0.031522463073262272
1.212000000000000854,-0.031990996024169105
1.213000000000000966,-0.032454517744792202
1.214000000000000856,-0.032913025190399361
1.215000000000000746,-0.033366515668462507
1.216000000000000858,-0.033814986834615458
1.217000000000000970,-0.034258436688614904
1.218000000000000860,-0.034696863570358290
1.219000000000000750,-0.035130266155918424
1.220000000000000862,-0.035558643453600304
1.221000000000000973,-0.035981994800034584
1.222000000000000863,-0.036400319856303702
1.223000000000000753,-0.036813618604083012
1.224000000000000865,-0.037221891341820662
1.225000000000000977,-0.037625138680948252
1.226000000000000867,-0.038023361542103264
1.227000000000000757,-0.038416561151400366
1.228000000000000869,-0.038804739036707434
1.229000000000000981,-0.039187897023985306
1.230000000000000870,-0.039566037233604967
1.231000000000000760,-0.039939162076739178
1.232000000000000872,-0.040307274251756328
1.233000000000000984,-0.040670376740639849
1.234000000000000874,-0.041028472805459008
1.235000000000000764,-0.041381565984830407
1.236000000000000876,-0.041729660090444168
1.237000000000000988,-0.042072759203583963
1.238000000000000878,-0.042410867671702754
1.239000000000000767,-0.042743990105001690
1.240000000000000879,-0.043072131373051395
1.241000000000000991,-0.043395296601427449
1.242000000000000881,-0.043713491168385424
1.243000000000000771,-0.044026720701554264
1.244000000000000883,-0.044334991074647986
1.245000000000000995,-0.044638308404224225
1.246000000000000885,-0.044936679046452585
1.247000000000000774,-0.045230109593910467
1.248000000000000886,-0.045518606872406213
1.249000000000000998,-0.045802177937834837
1.250000000000000888,-0.046080830073048237
1.251000000000000778,-0.046354570784753628
1.252000000000000890,-0.046623407800445105
1.253000000000001002,-0.046887349065344010
1.254000000000000892,-0.047146402739388707
1.255000000000000782,-0.047400577194221374
1.256000000000000894,-0.047649881010220635
1.257000000000001005,-0.047894322973547808
1.258000000000000895,-0.048133912073224150
1.259000000000000785,-0.048368657498222611
1.260000000000000897,-0.048598568634599146
1.261000000000001009,-0.048823655062632629
1.262000000000000899,-0.049043926553995712
1.263000000000000789,-0.049259393068953397
1.264000000000000901,-0.049470064753580213
1.265000000000001013,-0.049675951936997746
1.266000000000000902,-0.049877065128641478
1.267000000000000792,-0.050073415015555831
1.268000000000000904,-0.050265012459694794
1.269000000000001016,-0.050451868495265097
1.270000000000000906,-0.050633994326081976
1.271000000000000796,-0.050811401322948979
1.272000000000000908,-0.050984101021058791
1.273000000000001020,-0.051152105117425774
1.274000000000000909,-0.051315425468329325
1.275000000000000799,-0.051474074086782527
1.276000000000000911,-0.051628063140035360
1.277000000000001023,-0.051777404947076021
1.278000000000000913,-0.051922111976179908
1.279000000000000803,-0.052062196842458996
1.280000000000000915,-0.052197672305453857
1.281000000000001027,-0.052328551266718593
1.282000000000000917,-0.052454846767463592
1.283000000000000806,-0.052576571986187356
1.284000000000000918,-0.052693740236347417
1.285000000000001030,-0.052806364964046150
1.286000000000000920,-0.052914459745743880
1.287000000000000810,-0.053018038285977995
1.288000000000000922,-0.053117114415125434
1.289000000000001034,-0.053211702087160986
1.290000000000000924,-0.053301815377452974
1.291000000000000814,-0.053387468480581048
1.292000000000000925,-0.053468675708152710
1.293000000000001037,-0.053545451486670267
1.294000000000000927,-0.053617810355391302
1.295000000000000817,-0.053685766964227152
1.296000000000000929,-0.053749336071647245
1.297000000000001041,-0.053808532542611254
1.298000000000000931,-0.053863371346527134
1.299000000000000821,-0.053913867555210916
1.300000000000000933,-0.053960036340875893
1.301000000000001044,-0.054001892974147037
1.302000000000000934,-0.054039452822078823
1.303000000000000824,-0.054072731346210899
1.304000000000000936,-0.054101744100619763
1.305000000000001048,-0.054126506730014713
1.306000000000000938,-0.054147034967833865
1.307000000000000828,-0.054163344634354328
1.308000000000000940,-0.054175451634844461
1.309000000000001052,-0.054183371957716032
1.310000000000000941,-0.054187121672696181
1.311000000000000831,-0.054186716929014812
1.312000000000000943,-0.054182173953617740
1.313000000000001055,-0.054173509049406196
1.314000000000000945,-0.054160738593462751
1.315000000000000835,-0.054143879035321377
1.316000000000000947,-0.054122946895248991
1.317000000000001059,-0.054097958762543162
1.318000000000000949,-0.054068931293838295
1.319000000000000838,-0.054035881211445612
1.320000000000000950,-0.053998825301697570
1.321000000000001062,-0.053957780413305637
1.322000000000000952,-0.053912763455750620
1.323000000000000842,-0.053863791397675997
1.324000000000000954,-0.053810881265302368
1.325000000000001066,-0.053754050140852085
1.326000000000000956,-0.053693315161007747
1.327000000000000846,-0.053628693515358802
1.328000000000000957,-0.053560202444893491
1.329000000000001069,-0.053487859240480530
1.330000000000000959,-0.053411681241391361
1.331000000000000849,-0.053331685833814035
1.332000000000000961,-0.053247890449398705
1.333000000000001073,-0.053160312563812498
1.334000000000000963,-0.053068969695314119
1.335000000000000853,-0.052973879403329496
1.336000000000000965,-0.052875059287069669
1.337000000000001076,-0.052772526984131408
1.338000000000000966,-0.052666300169135406
1.339000000000000856,-0.052556396552374249
1.340000000000000968,-0.052442833878464087
1.341000000000001080,-0.052325629925026582
1.342000000000000970,-0.052204802501377157
1.343000000000000860,-0.052080369447222205
1.344000000000000972,-0.051952348631384780
1.345000000000001084,-0.051820757950535257
1.346000000000000973,-0.051685615327926683
1.347000000000000863,-0.051546938712166292
1.348000000000000975,-0.051404746075979127
1.349000000000001087,-0.051259055415003599
1.350000000000000977,-0.051109884746582790
1.351000000000000867,-0.050957252108585038
1.352000000000000979,-0.050801175558223312
1.353000000000001091,-0.050641673170902443
1.354000000000000981,-0.050478763039073879
1.355000000000000870,-0.050312463271087592
1.356000000000000982,-0.050142791990086963
1.357000000000001094,-0.049969767332897166
1.358000000000000984,-0.049793407448919913
1.359000000000000874,-0.049613730499063466
1.360000000000000986,-0.049430754654665891
1.361000000000001098,-0.049244498096439500
1.362000000000000988,-0.049054979013419195
1.363000000000000878,-0.048862215601938132
1.364000000000000989,-0.048666226064604801
1.365000000000001101,-0.048467028609284667
1.366000000000000991,-0.048264641448114778
1.367000000000000881,-0.048059082796511436
1.368000000000000993,-0.047850370872199878
1.369000000000001105,-0.047638523894249052
1.370000000000000995,-0.047423560082123457
1.371000000000000885,-0.047205497654744834
1.372000000000000997,-0.046984354829561162
1.373000000000001108,-0.046760149821640354
1.374000000000000998,-0.046532900842740407
1.375000000000000888,-0.046302626100450925
1.376000000000001000,-0.046069343797279443
1.377000000000001112,-0.045833072129797356
1.378000000000001002,-0.045593829287768249
1.379000000000000892,-0.045351633453305451
1.380000000000001004,-0.045106502800023887
1.381000000000001116,-0.044858455492220305
1.382000000000001005,-0.044607509684044817
1.383000000000000895,-0.044353683518696826
1.384000000000001007,-0.044096995127630267
1.385000000000001119,-0.043837462629758635
1.386000000000001009,-0.043575104130682545
1.387000000000000899,-0.043309937721915284
1.388000000000001011,-0.043041981480140851
1.389000000000001123,-0.042771253466440631
1.390000000000001013,-0.042497771725579170
1.391000000000000902,-0.042221554285259102
1.392000000000001014,-0.041942619155413904
1.393000000000001126,-0.041660984327489978
1.394000000000001016,-0.041376667773752693
1.395000000000000906,-0.041089687446593789
1.396000000000001018,-0.040800061277845412
1.397000000000001130,-0.040507807178117444
1.398000000000001020,-0.040212943036129781
1.399000000000000909,-0.039915486718055934
1.400000000000001021,-0.039615456066879946
1.401000000000001133,-0.039312868901766565
1.402000000000001023,-0.039007743017424892
1.403000000000000913,-0.038700096183495417
1.404000000000001025,-0.038389946143937648
1.405000000000001137,-0.038077310616434060
1.406000000000001027,-0.037762207291787635
1.407000000000000917,-0.037444653833355240
1.408000000000001029,-0.037124667876447845
1.409000000000001140,-0.036802267027785295
1.410000000000001030,-0.036477468864924527
1.411000000000000920,-0.036150290935714063
1.412000000000001032,-0.035820750757743318
1.413000000000001144,-0.035488865817820611
1.414000000000001034,-0.035154653571434921
1.415000000000000924,-0.034818131442238304
1.416000000000001036,-0.034479316821540464
1.417000000000001148,-0.034138227067800835
1.418000000000001037,-0.033794879506131803
1.419000000000000927,-0.033449291427811612
1.420000000000001039,-0.033101480089801315
1.421000000000001151,-0.032751462714277771
1.422000000000001041,-0.032399256488160992
1.423000000000000931,-0.032044878562656268
1.424000000000001043,-0.031688346052801644
1.425000000000001155,-0.031329676037030754
1.426000000000001044,-0.030968885556726101
1.427000000000000934,-0.030605991615796628
1.428000000000001046,-0.030241011180247808
1.429000000000001158,-0.029873961177767146
1.430000000000001048,-0.029504858497318674
1.431000000000000938,-0.029133719988735818
1.432000000000001050,-0.028760562462327312
1.433000000000001162,-0.028385402688487892
1.434000000000001052,-0.028008257397310832
1.435000000000000941,-0.027629143278221115
1.436000000000001053,-0.027248076979598041
1.437000000000001165,-0.026865075108410665
1.438000000000001055,-0.026480154229870639
1.439000000000000945,-0.026093330867070018
1.440000000000001057,-0.025704621500644603
1.441000000000001169,-0.025314042568427814
1.442000000000001059,-0.024921610465124106
1.443000000000000949,-0.024527341541989479
1.444000000000001060,-0.024131252106495676
1.445000000000001172,-0.023733358422021976
1.446000000000001062,-0.023333676707557170
1.447000000000000952,-0.022932223137378839
1.448000000000001064,-0.022529013840770523
1.449000000000001176,-0.022124064901728691
1.450000000000001066,-0.021717392358667272
1.451000000000000956,-0.021309012204149363
1.452000000000001068,-0.020898940384607351
1.453000000000001180,-0.020487192800073523
1.454000000000001069,-0.020073785303920878
1.455000000000000959,-0.019658733702599462
1.456000000000001071,-0.019242053755381943
1.457000000000001183,-0.018823761174130600
1.458000000000001073,-0.018403871623036062
1.459000000000000963,-0.017982400718390718
1.460000000000001075,-0.017559364028354934
1.461000000000001187,-0.017134777072726887
1.462000000000001076,-0.016708655322730463
1.463000000000000966,-0.016281014200782255
1.464000000000001078,-0.015851869080290248
1.465000000000001190,-0.015421235285452362
1.466000000000001080,-0.014989128091031945
1.467000000000000970,-0.014555562722183724
1.468000000000001082,-0.014120554354249488
1.469000000000001194,-0.013684118112568967
1.470000000000001084,-0.013246269072298511
1.471000000000000973,-0.012807022258230442
1.472000000000001085,-0.012366392644622828
1.473000000000001197,-0.011924395155024661
1.474000000000001087,-0.011481044662108751
1.475000000000000977,-0.011036355987512448
1.476000000000001089,-0.010590343901684840
1.477000000000001201,-0.010143023123726651
1.478000000000001091,-0.009694408321243625
1.479000000000000981,-0.009244514110206934
1.480000000000001092,-0.008793355054802325
1.481000000000001204,-0.008340945667309172
1.482000000000001094,-0.007887300407951325
1.483000000000000984,-0.007432433684784396
1.484000000000001096,-0.006976359853564045
1.485000000000001208,-0.006519093217618230
1.486000000000001098,-0.006060648027749166
1.487000000000000988,-0.005601038482105724
1.488000000000001100,-0.005140278726078468
1.489000000000001211,-0.004678382852197830
1.490000000000001101,-0.004215364900032601
1.491000000000000991,-0.003751238856085306
1.492000000000001103,-0.003286018653711661
1.493000000000001215,-0.002819718173014791
1.494000000000001105,-0.002352351240769461
1.495000000000000995,-0.001883931630335697
1.496000000000001107,-0.001414473061578147
1.497000000000001219,-0.000943989200788334
1.498000000000001108,-0.000472493660618292
1.499000000000000998,0.000000000000000000
