# Cu110_SERINEZWITTER
# h[nm],U(h)[kJ/mol]
0.149999999999999994,136.277522442473582487
0.150999999999999995,131.917435673631473492
0.151999999999999996,127.778524468151459814
0.152999999999999997,123.688288478036469087
0.153999999999999998,119.617568727423957853
0.154999999999999999,115.588483588503621036
0.156000000000000000,111.631278533316773860
0.157000000000000001,107.767552749357633957
0.158000000000000002,104.006631690156339687
0.159000000000000002,100.347632290655241150
0.160000000000000003,96.783268126600461301
0.161000000000000004,93.303495457558568660
0.162000000000000005,89.898253015824778345
0.163000000000000006,86.559152104668072525
0.164000000000000007,83.280254826686430647
0.165000000000000008,80.058178554774045210
0.166000000000000009,76.891770593707562398
0.167000000000000010,73.781559546347907030
0.168000000000000010,70.729138094753437827
0.169000000000000011,67.736580898185394517
0.170000000000000012,64.805958061105144452
0.171000000000000013,61.938971417353556603
0.172000000000000014,59.136717502391661583
0.173000000000000015,56.399566165011620456
0.174000000000000016,53.727135521519585382
0.175000000000000017,51.118340610851433325
0.176000000000000018,48.571493116347205898
0.177000000000000018,46.084431619478451125
0.178000000000000019,43.654665081774027158
0.179000000000000020,41.279515921532116352
0.180000000000000021,38.956252694078933985
0.181000000000000022,36.682205707676864392
0.182000000000000023,34.454861753831558246
0.183000000000000024,32.271936437696403743
0.184000000000000025,30.131424362601428868
0.185000000000000026,28.031628693683604325
0.186000000000000026,25.971172462740383935
0.187000000000000027,23.948994452950536527
0.188000000000000028,21.964332692130483338
0.189000000000000029,20.016698556290574373
0.190000000000000030,18.105844303251934946
0.191000000000000031,16.231726571587810071
0.192000000000000032,14.394468036199736360
0.193000000000000033,12.594319042300210043
0.194000000000000034,10.831620670028691222
0.195000000000000034,9.106770330716098982
0.196000000000000035,7.420190675236929323
0.197000000000000036,5.772302312318661421
0.198000000000000037,4.163500593634678282
0.199000000000000038,2.594136523587924792
0.200000000000000039,1.064501693381276537
0.201000000000000040,-0.425182981695153117
0.202000000000000041,-1.874775029711512886
0.203000000000000042,-3.284215059667077607
0.204000000000000042,-4.653528667047698519
0.205000000000000043,-5.982826017161162468
0.206000000000000044,-7.272299511560577301
0.207000000000000045,-8.522219925766279403
0.208000000000000046,-9.732931380148418299
0.209000000000000047,-10.904845473150277968
0.210000000000000048,-12.038434869484708756
0.211000000000000049,-13.134226597556303062
0.212000000000000050,-14.192795271790149769
0.213000000000000050,-15.214756418046516018
0.214000000000000051,-16.200760044830548878
0.215000000000000052,-17.151484570232284455
0.216000000000000053,-18.067631184897763319
0.217000000000000054,-18.949918705079820569
0.218000000000000055,-19.799078947033976306
0.219000000000000056,-20.615852634671821164
0.220000000000000057,-21.400985836335401302
0.221000000000000058,-22.155226913599268102
0.222000000000000058,-22.879323954909210670
0.223000000000000059,-23.574022659333962793
0.224000000000000060,-24.240064630458572736
0.225000000000000061,-24.878186037182892676
0.226000000000000062,-25.489116596617478194
0.227000000000000063,-26.073578834116698744
0.228000000000000064,-26.632287576492348791
0.229000000000000065,-27.165949636377483500
0.230000000000000066,-27.675263648337146805
0.231000000000000066,-28.160920020466853941
0.232000000000000067,-28.623600968706178094
0.233000000000000068,-29.063980604785136563
0.234000000000000069,-29.482725052489815454
0.235000000000000070,-29.880492570681667530
0.236000000000000071,-30.257933665147980662
0.237000000000000072,-30.615691174838634225
0.238000000000000073,-30.954400321301683618
0.239000000000000073,-31.274688713135930129
0.240000000000000074,-31.577176300008737542
0.241000000000000075,-31.862475273225697947
0.242000000000000076,-32.131189911982090734
0.243000000000000077,-32.383916376277333882
0.244000000000000078,-32.621242449038177824
0.245000000000000079,-32.843747231288325850
0.246000000000000080,-33.052000795235777275
0.247000000000000081,-33.246563800944890943
0.248000000000000081,-33.427987082834299315
0.249000000000000082,-33.596811212618817422
0.250000000000000111,-33.753566045512442884
0.251000000000000112,-33.898770256551848945
0.252000000000000113,-34.032930873808581396
0.253000000000000114,-34.156542815047899353
0.254000000000000115,-34.270088434090105523
0.255000000000000115,-34.374037082745253713
0.256000000000000116,-34.468844693747790586
0.257000000000000117,-34.554953389625922000
0.258000000000000118,-34.632791121913797383
0.259000000000000119,-34.702771344569221412
0.260000000000000120,-34.765292724903403609
0.261000000000000121,-34.820738894770933314
0.262000000000000122,-34.869478244220502461
0.263000000000000123,-34.911863759270985952
0.264000000000000123,-34.948232904964143586
0.265000000000000124,-34.978907554355842535
0.266000000000000125,-35.004193963648319254
0.267000000000000126,-35.024382793237542444
0.268000000000000127,-35.039749174056403547
0.269000000000000128,-35.050552818235175323
0.270000000000000129,-35.057038172778874241
0.271000000000000130,-35.059434614673975261
0.272000000000000131,-35.057956685587669199
0.273000000000000131,-35.052804364106407320
0.274000000000000132,-35.044163373280134977
0.275000000000000133,-35.032205521090361344
0.276000000000000134,-35.017089071342709872
0.277000000000000135,-34.998959142397083610
0.278000000000000136,-34.977948131088979267
0.279000000000000137,-34.954176159160468274
0.280000000000000138,-34.927751539508946621
0.281000000000000139,-34.898771259572612280
0.282000000000000139,-34.867321479201429213
0.283000000000000140,-34.833478040410753351
0.284000000000000141,-34.797306986477437363
0.285000000000000142,-34.758865087915907566
0.286000000000000143,-34.718200372959671540
0.287000000000000144,-34.675352660272636740
0.288000000000000145,-34.630354091722260534
0.289000000000000146,-34.583229663159329448
0.290000000000000147,-34.533997751269382093
0.291000000000000147,-34.482670634683088906
0.292000000000000148,-34.429255007659726573
0.293000000000000149,-34.373752484784034777
0.294000000000000150,-34.316160095246083017
0.295000000000000151,-34.256470765400401035
0.296000000000000152,-34.194673788426875660
0.297000000000000153,-34.130755280041142896
0.298000000000000154,-34.064698619322342665
0.299000000000000155,-33.996484873845844277
0.300000000000000155,-33.926093208421903569
0.301000000000000156,-33.853501276852696833
0.302000000000000157,-33.778685596225137999
0.303000000000000158,-33.701621903358628174
0.304000000000000159,-33.622285493122902267
0.305000000000000160,-33.540651538431369261
0.306000000000000161,-33.456695391802156792
0.307000000000000162,-33.370392868458033320
0.308000000000000163,-33.281720511012302666
0.309000000000000163,-33.190655835856453848
0.310000000000000164,-33.097177561430342507
0.311000000000000165,-33.001265818613504166
0.312000000000000166,-32.902902343531380325
0.313000000000000167,-32.802070653117723964
0.314000000000000168,-32.698756203819122845
0.315000000000000169,-32.592946533866424375
0.316000000000000170,-32.484631389572747651
0.317000000000000171,-32.373802836147781647
0.318000000000000171,-32.260455353544308821
0.319000000000000172,-32.144585917875232894
0.320000000000000173,-32.026194068957479999
0.321000000000000174,-31.905281964554365715
0.322000000000000175,-31.781854421899186747
0.323000000000000176,-31.655918947091549853
0.324000000000000177,-31.527485752963194443
0.325000000000000178,-31.396567766012765333
0.326000000000000179,-31.263180623009532155
0.327000000000000179,-31.127342657863561470
0.328000000000000180,-30.989074879355747782
0.329000000000000181,-30.848400940315336527
0.330000000000000182,-30.705347098823587260
0.331000000000000183,-30.559942172013897732
0.332000000000000184,-30.412217483026715570
0.333000000000000185,-30.262206801665751499
0.334000000000000186,-30.109946279288617887
0.335000000000000187,-29.955474378450094974
0.336000000000000187,-29.798831797801803134
0.337000000000000188,-29.640061392735127299
0.338000000000000189,-29.479208092238401662
0.339000000000000190,-29.316318812421769735
0.340000000000000191,-29.151442367145723011
0.341000000000000192,-28.984629376171987758
0.342000000000000193,-28.815932171236461556
0.343000000000000194,-28.645404700426968958
0.344000000000000195,-28.473102431229428078
0.345000000000000195,-28.299082252588497965
0.346000000000000196,-28.123402376310615125
0.347000000000000197,-27.946122238119194492
0.348000000000000198,-27.767302398654511109
0.349000000000000199,-27.587004444692961869
0.350000000000000200,-27.405290890843666318
0.351000000000000201,-27.222225081963138393
0.352000000000000202,-27.037871096512752445
0.353000000000000203,-26.852293651067633107
0.354000000000000203,-26.665558006169710836
0.355000000000000204,-26.477729873702919861
0.356000000000000205,-26.288875325953732442
0.357000000000000206,-26.099060706506026719
0.358000000000000207,-25.908352543105269916
0.359000000000000208,-25.716817462614660172
0.360000000000000209,-25.524522108172142509
0.361000000000000210,-25.331533058645888445
0.362000000000000210,-25.137916750473635830
0.363000000000000211,-24.943739401960510094
0.364000000000000212,-24.749066940099151424
0.365000000000000213,-24.553964929965825803
0.366000000000000214,-24.358498506736843581
0.367000000000000215,-24.162732310360091503
0.368000000000000216,-23.966730422908394615
0.369000000000000217,-23.770556308632798448
0.370000000000000218,-23.574272756726593059
0.371000000000000218,-23.377941826803418479
0.372000000000000219,-23.181624797086218592
0.373000000000000220,-22.985382115297497307
0.374000000000000221,-22.789273352235422720
0.375000000000000222,-22.593357158014729436
0.376000000000000223,-22.397691220946597923
0.377000000000000224,-22.202332229026730204
0.378000000000000225,-22.007335833996755525
0.379000000000000226,-21.812756617939818682
0.380000000000000226,-21.618648062368272633
0.381000000000000227,-21.425062519757059221
0.382000000000000228,-21.232051187474699105
0.383000000000000229,-21.039664084060056837
0.384000000000000230,-20.847950027791146255
0.385000000000000231,-20.656956617490479289
0.386000000000000232,-20.466730215508881940
0.387000000000000233,-20.277315932828859246
0.388000000000000234,-20.088757616226637026
0.389000000000000234,-19.901097837431635185
0.390000000000000235,-19.714377884220272819
0.391000000000000236,-19.528637753381286046
0.392000000000000237,-19.343916145488400105
0.393000000000000238,-19.160250461416524104
0.394000000000000239,-18.977676800536904977
0.395000000000000240,-18.796229960527078617
0.396000000000000241,-18.615943438731466841
0.397000000000000242,-18.436849435008394238
0.398000000000000242,-18.258978856000432245
0.399000000000000243,-18.082361320764654522
0.400000000000000244,-17.907025167700396651
0.401000000000000245,-17.732997462713104397
0.402000000000000246,-17.560304008553014654
0.403000000000000247,-17.388969355268649508
0.404000000000000248,-17.219016811716215898
0.405000000000000249,-17.050468458066639243
0.406000000000000250,-16.883345159253355661
0.407000000000000250,-16.717666579304871988
0.408000000000000251,-16.553451196507516840
0.409000000000000252,-16.390716319344981855
0.410000000000000253,-16.229478103162165326
0.411000000000000254,-16.069751567502869705
0.412000000000000255,-15.911550614071355625
0.413000000000000256,-15.754888045269828112
0.414000000000000257,-15.599775583264719359
0.415000000000000258,-15.446223889536497609
0.416000000000000258,-15.294242584868740664
0.417000000000000259,-15.143840269733772175
0.418000000000000260,-14.995024545033578178
0.419000000000000261,-14.847802033155977242
0.420000000000000262,-14.702178399307516798
0.421000000000000263,-14.558158373086019566
0.422000000000000264,-14.415745770256791047
0.423000000000000265,-14.274943514698140490
0.424000000000000266,-14.135753660483249661
0.425000000000000266,-13.998177414066407920
0.426000000000000267,-13.862215156543317818
0.427000000000000268,-13.727866465956301667
0.428000000000000269,-13.595130139616568243
0.429000000000000270,-13.464004216416935122
0.430000000000000271,-13.334485999109560339
0.431000000000000272,-13.206572076524704329
0.432000000000000273,-13.080258345707402867
0.433000000000000274,-12.955540033950338596
0.434000000000000274,-12.832411720702191715
0.435000000000000275,-12.710867359331981419
0.436000000000000276,-12.590900298730975493
0.437000000000000277,-12.472503304734519958
0.438000000000000278,-12.355668581347719837
0.439000000000000279,-12.240387791759435032
0.440000000000000280,-12.126652079130149531
0.441000000000000281,-12.014452087140330860
0.442000000000000282,-11.903777980286742277
0.443000000000000282,-11.794619463914969515
0.444000000000000283,-11.686965803977441780
0.445000000000000284,-11.580805846507006507
0.446000000000000285,-11.476128036796678700
0.447000000000000286,-11.372920438277608568
0.448000000000000287,-11.271170751087097983
0.449000000000000288,-11.170866330320263771
0.450000000000000289,-11.071994203958722025
0.451000000000000290,-10.974541090471014115
0.452000000000000290,-10.878493416079715317
0.453000000000000291,-10.783837331691012551
0.454000000000000292,-10.690558729483052858
0.455000000000000293,-10.598643259149824303
0.456000000000000294,-10.508076343798190777
0.457000000000000295,-10.418843195495750109
0.458000000000000296,-10.330928830468200985
0.459000000000000297,-10.244318083944941478
0.460000000000000298,-10.158995624652288114
0.461000000000000298,-10.074945968954168052
0.462000000000000299,-9.992153494640419353
0.463000000000000300,-9.910602454363237612
0.464000000000000301,-9.830276988722811637
0.465000000000000302,-9.751161139003366785
0.466000000000000303,-9.673238859561305247
0.467000000000000304,-9.596494029867237430
0.468000000000000305,-9.520910466204369982
0.469000000000000306,-9.446471933025506473
0.470000000000000306,-9.373162153971614785
0.471000000000000307,-9.300964822554808720
0.472000000000000308,-9.229863612509170423
0.473000000000000309,-9.159842187812625269
0.474000000000000310,-9.090884212383731011
0.475000000000000311,-9.022973359457013842
0.476000000000000312,-8.956093320641105748
0.477000000000000313,-8.890227814663500538
0.478000000000000314,-8.825360595806492015
0.479000000000000314,-8.761475462038673001
0.480000000000000315,-8.698556262846395271
0.481000000000000316,-8.636586906770086003
0.482000000000000317,-8.575551368649961148
0.483000000000000318,-8.515433696586125478
0.484000000000000319,-8.456218018617871479
0.485000000000000320,-8.397888549127316082
0.486000000000000321,-8.340429594972265548
0.487000000000000322,-8.283825561353491906
0.488000000000000322,-8.228060957421567068
0.489000000000000323,-8.173120401628427345
0.490000000000000324,-8.118988626828846478
0.491000000000000325,-8.065650485137101811
0.492000000000000326,-8.013090952543976186
0.493000000000000327,-7.961295133299468141
0.494000000000000328,-7.910248264066329860
0.495000000000000329,-7.859935717849782399
0.496000000000000330,-7.810343007708562268
0.497000000000000330,-7.761455790252549392
0.498000000000000331,-7.713259868932159868
0.499000000000000332,-7.665741197124677164
0.500000000000000333,-7.618885881022667839
0.501000000000000334,-7.572680182329554199
0.502000000000000335,-7.527110520767436697
0.503000000000000336,-7.482163476402209135
0.504000000000000337,-7.437825791790904972
0.505000000000000338,-7.394084373956218315
0.506000000000000338,-7.350926296193117437
0.507000000000000339,-7.308338799712333689
0.508000000000000340,-7.266309295125500611
0.509000000000000341,-7.224825363776727905
0.510000000000000342,-7.183874758925145265
0.511000000000000343,-7.143445406783124341
0.512000000000000344,-7.103525407414602810
0.513000000000000345,-7.064103035498050076
0.514000000000000346,-7.025166740958473710
0.515000000000000346,-6.986705149472685505
0.516000000000000347,-6.948707062852190752
0.517000000000000348,-6.911161459307910704
0.518000000000000349,-6.874057493600675528
0.519000000000000350,-6.837384497081740342
0.520000000000000351,-6.801131977627186131
0.521000000000000352,-6.765289619470071791
0.522000000000000353,-6.729847282934254160
0.523000000000000353,-6.694795004073507805
0.524000000000000354,-6.660122994219766390
0.525000000000000355,-6.625821639443901567
0.526000000000000356,-6.591881499932708444
0.527000000000000357,-6.558293309285512684
0.528000000000000358,-6.525047973733708595
0.529000000000000359,-6.492136571286589053
0.530000000000000360,-6.459550350806712693
0.531000000000000361,-6.427280731017887661
0.532000000000000361,-6.395319299448904538
0.533000000000000362,-6.363657811316011603
0.534000000000000363,-6.332288188347085622
0.535000000000000364,-6.301202517550296811
0.536000000000000365,-6.270393049930137686
0.537000000000000366,-6.239852199153503420
0.538000000000000367,-6.209572540168429633
0.539000000000000368,-6.179546807778181439
0.540000000000000369,-6.149767895173058108
0.541000000000000369,-6.120228852422510357
0.542000000000000370,-6.090922884929832470
0.543000000000000371,-6.061843351851784689
0.544000000000000372,-6.032983764485438272
0.545000000000000373,-6.004337784624349084
0.546000000000000374,-5.975899222886210893
0.547000000000000375,-5.947662037014065817
0.548000000000000376,-5.919620330153076537
0.549000000000000377,-5.891768349104758329
0.550000000000000377,-5.864100482560528960
0.551000000000000378,-5.836611259316507372
0.552000000000000379,-5.809295346471190058
0.553000000000000380,-5.782147547607796589
0.554000000000000381,-5.755162800962891012
0.555000000000000382,-5.728336177582924016
0.556000000000000383,-5.701662879470150713
0.557000000000000384,-5.675138237719527190
0.558000000000000385,-5.648757710647918984
0.559000000000000385,-5.622516881917098530
0.560000000000000386,-5.596411458651798121
0.561000000000000387,-5.570437269554147974
0.562000000000000388,-5.544590263015773957
0.563000000000000389,-5.518866505228657182
0.564000000000000390,-5.493262178296012266
0.565000000000000391,-5.467773578344230501
0.566000000000000392,-5.442397113636981310
0.567000000000000393,-5.417129302692480941
0.568000000000000393,-5.391966772404906294
0.569000000000000394,-5.366906256170915768
0.570000000000000395,-5.341944592022182192
0.571000000000000396,-5.317078720764748745
0.572000000000000397,-5.292305684126120013
0.573000000000000398,-5.267622622910807628
0.574000000000000399,-5.243026775165121833
0.575000000000000400,-5.218515474351915984
0.576000000000000401,-5.194086147535971421
0.577000000000000401,-5.169736313580691522
0.578000000000000402,-5.145463581356713334
0.579000000000000403,-5.121265647963011425
0.580000000000000404,-5.097140296961089057
0.581000000000000405,-5.073085396622794008
0.582000000000000406,-5.049098898192188045
0.583000000000000407,-5.025178834162042918
0.584000000000000408,-5.001323316565348343
0.585000000000000409,-4.977530535282264523
0.586000000000000409,-4.953798756362933986
0.587000000000000410,-4.930126320366511550
0.588000000000000411,-4.906511640716752609
0.589000000000000412,-4.882953202074508781
0.590000000000000413,-4.859449558727400031
0.591000000000000414,-4.835999332996973266
0.592000000000000415,-4.812601213663604049
0.593000000000000416,-4.789253954409344871
0.594000000000000417,-4.765956372278987274
0.595000000000000417,-4.742707346159533266
0.596000000000000418,-4.719505815278179028
0.597000000000000419,-4.696350777719132452
0.598000000000000420,-4.673241288959225415
0.599000000000000421,-4.650176460422590807
0.600000000000000422,-4.627155458054470039
0.601000000000000423,-4.604177500914224730
0.602000000000000424,-4.581241859787678727
0.603000000000000425,-4.558347855818836614
0.604000000000000425,-4.535494859161040004
0.605000000000000426,-4.512682287647590051
0.606000000000000427,-4.489909605481912536
0.607000000000000428,-4.467176321947180284
0.608000000000000429,-4.444481990135563443
0.609000000000000430,-4.421826205696881118
0.610000000000000431,-4.399208605606880873
0.611000000000000432,-4.376628866954909824
0.612000000000000433,-4.354086705751040398
0.613000000000000433,-4.331581875752631206
0.614000000000000434,-4.309114167310175603
0.615000000000000435,-4.286683406232428162
0.616000000000000436,-4.264289452670738889
0.617000000000000437,-4.241932200022498378
0.618000000000000438,-4.219611573853602415
0.619000000000000439,-4.197327530839821463
0.620000000000000440,-4.175080057727037719
0.621000000000000441,-4.152869170310138358
0.622000000000000441,-4.130694912430550758
0.623000000000000442,-4.108557354992211863
0.624000000000000443,-4.086456594995889091
0.625000000000000444,-4.064392754591722223
0.626000000000000445,-4.042365980149802418
0.627000000000000446,-4.020376441348703977
0.628000000000000447,-3.998424330281776573
0.629000000000000448,-3.976509860581062927
0.630000000000000449,-3.954633266558665206
0.631000000000000449,-3.932794802365433107
0.632000000000000450,-3.910994741166782696
0.633000000000000451,-3.889233374335492321
0.634000000000000452,-3.867511010661298432
0.635000000000000453,-3.845827975577095881
0.636000000000000454,-3.824184610401633044
0.637000000000000455,-3.802581271598435286
0.638000000000000456,-3.781018330050847087
0.639000000000000457,-3.759496170352974787
0.640000000000000457,-3.738015190116361630
0.641000000000000458,-3.716575799292164639
0.642000000000000459,-3.695178419508753365
0.643000000000000460,-3.673823483424380587
0.644000000000000461,-3.652511434094903642
0.645000000000000462,-3.631242724356234852
0.646000000000000463,-3.610017816221390952
0.647000000000000464,-3.588837180291942985
0.648000000000000465,-3.567701295183671739
0.649000000000000465,-3.546610646966205760
0.650000000000000466,-3.525565728616502525
0.651000000000000467,-3.504567039485924518
0.652000000000000468,-3.483615084780750326
0.653000000000000469,-3.462710375055896517
0.654000000000000470,-3.441853425721711268
0.655000000000000471,-3.421044756563567546
0.656000000000000472,-3.400284891274128363
0.657000000000000473,-3.379574356998043871
0.658000000000000473,-3.358913683888933299
0.659000000000000474,-3.338303404678418129
0.660000000000000475,-3.317744054257037334
0.661000000000000476,-3.297236169266837269
0.662000000000000477,-3.276780287705476358
0.663000000000000478,-3.256376948541616745
0.664000000000000479,-3.236026691341456818
0.665000000000000480,-3.215730055906154572
0.666000000000000481,-3.195487581920064546
0.667000000000000481,-3.175299808609439722
0.668000000000000482,-3.155167274411619704
0.669000000000000483,-3.135090516654325921
0.670000000000000484,-3.115070071245015004
0.671000000000000485,-3.095106472370055872
0.672000000000000486,-3.075200252203555973
0.673000000000000487,-3.055351940625704366
0.674000000000000488,-3.035562064950361183
0.675000000000000488,-3.015831149661809985
0.676000000000000489,-2.996159716160504694
0.677000000000000490,-2.976548282517526012
0.678000000000000491,-2.956997363237731768
0.679000000000000492,-2.937507469031332530
0.680000000000000493,-2.918079106593733929
0.681000000000000494,-2.898712778393548462
0.682000000000000495,-2.879408982468532052
0.683000000000000496,-2.860168212229351692
0.684000000000000496,-2.840990956270963430
0.685000000000000497,-2.821877698191525674
0.686000000000000498,-2.802828916418596883
0.687000000000000499,-2.783845084042553264
0.688000000000000500,-2.764926668656997766
0.689000000000000501,-2.746074132206085316
0.690000000000000502,-2.727287930838564911
0.691000000000000503,-2.708568514768392888
0.692000000000000504,-2.689916328141812585
0.693000000000000504,-2.671331808910748062
0.694000000000000505,-2.652815388712297384
0.695000000000000506,-2.634367492754330797
0.696000000000000507,-2.615988539706914473
0.697000000000000508,-2.597678941599509184
0.698000000000000509,-2.579439103723813353
0.699000000000000510,-2.561269424542036433
0.700000000000000511,-2.543170295600603925
0.701000000000000512,-2.525142101449040499
0.702000000000000512,-2.507185219563996981
0.703000000000000513,-2.489300020278251147
0.704000000000000514,-2.471486866714569075
0.705000000000000515,-2.453746114724327576
0.706000000000000516,-2.436078112830751596
0.707000000000000517,-2.418483202176668456
0.708000000000000518,-2.400961716476657237
0.709000000000000519,-2.383513981973505835
0.710000000000000520,-2.366140317398802040
0.711000000000000520,-2.348841033937638656
0.712000000000000521,-2.331616435197253701
0.713000000000000522,-2.314466817179515079
0.714000000000000523,-2.297392468257209774
0.715000000000000524,-2.280393669153904845
0.716000000000000525,-2.263470692927452177
0.717000000000000526,-2.246623804956861647
0.718000000000000527,-2.229853262932587121
0.719000000000000528,-2.213159316850046743
0.720000000000000528,-2.196542209006348223
0.721000000000000529,-2.180002174000018389
0.722000000000000530,-2.163539438733826703
0.723000000000000531,-2.147154222420408765
0.724000000000000532,-2.130846736590763957
0.725000000000000533,-2.114617185105472252
0.726000000000000534,-2.098465764168533809
0.727000000000000535,-2.082392662343802936
0.728000000000000536,-2.066398060573872097
0.729000000000000536,-2.050482132201396634
0.730000000000000537,-2.034645042992728303
0.731000000000000538,-2.018886951163788801
0.732000000000000539,-2.003208007408153080
0.733000000000000540,-1.987608354927207888
0.734000000000000541,-1.972088129462358008
0.735000000000000542,-1.956647459329189598
0.736000000000000543,-1.941286465453548660
0.737000000000000544,-1.926005261409406533
0.738000000000000544,-1.910803953458541926
0.739000000000000545,-1.895682640591865198
0.740000000000000546,-1.880641414572424397
0.741000000000000547,-1.865680359979940306
0.742000000000000548,-1.850799554256917556
0.743000000000000549,-1.835999067756133751
0.744000000000000550,-1.821278963789564553
0.745000000000000551,-1.806639298678663241
0.746000000000000552,-1.792080121805877724
0.747000000000000552,-1.777601475667450970
0.748000000000000553,-1.763203395927344319
0.749000000000000554,-1.748885911472316534
0.750000000000000555,-1.734649044468080659
0.751000000000000556,-1.720492810416455409
0.752000000000000557,-1.706417218213529541
0.753000000000000558,-1.692422270208715718
0.754000000000000559,-1.678507962264723208
0.755000000000000560,-1.664674283818337486
0.756000000000000560,-1.650921217942018515
0.757000000000000561,-1.637248741406221786
0.758000000000000562,-1.623656824742437221
0.759000000000000563,-1.610145432306916202
0.760000000000000564,-1.596714522344988119
0.761000000000000565,-1.583364047055991986
0.762000000000000566,-1.570093952658739189
0.763000000000000567,-1.556904179457512694
0.764000000000000568,-1.543794661908495680
0.765000000000000568,-1.530765328686706894
0.766000000000000569,-1.517816102753276164
0.767000000000000570,-1.504946901423150907
0.768000000000000571,-1.492157636433067314
0.769000000000000572,-1.479448214009928320
0.770000000000000573,-1.466818534939366980
0.771000000000000574,-1.454268494634614939
0.772000000000000575,-1.441797983205560740
0.773000000000000576,-1.429406885527995996
0.774000000000000576,-1.417095081313042737
0.775000000000000577,-1.404862445176707109
0.776000000000000578,-1.392708846709501236
0.777000000000000579,-1.380634150546230732
0.778000000000000580,-1.368638216435746902
0.779000000000000581,-1.356720899310797979
0.780000000000000582,-1.344882049357850828
0.781000000000000583,-1.333121512086935079
0.782000000000000584,-1.321439128401409757
0.783000000000000584,-1.309834734667702616
0.784000000000000585,-1.298308162784970632
0.785000000000000586,-1.286859240254641490
0.786000000000000587,-1.275487790249864917
0.787000000000000588,-1.264193631684813912
0.788000000000000589,-1.252976579283810787
0.789000000000000590,-1.241836443650334854
0.790000000000000591,-1.230773031335779200
0.791000000000000592,-1.219786144908050041
0.792000000000000592,-1.208875583019907385
0.793000000000000593,-1.198041140477092314
0.794000000000000594,-1.187282608306184706
0.795000000000000595,-1.176599773822221362
0.796000000000000596,-1.165992420695978415
0.797000000000000597,-1.155460329021027910
0.798000000000000598,-1.145003275380427121
0.799000000000000599,-1.134621032913121885
0.800000000000000600,-1.124313371380007309
0.801000000000000600,-1.114080057229642318
0.802000000000000601,-1.103920853663606483
0.803000000000000602,-1.093835520701497810
0.804000000000000603,-1.083823815245553268
0.805000000000000604,-1.073885491144883186
0.806000000000000605,-1.064020299259283764
0.807000000000000606,-1.054227987522704524
0.808000000000000607,-1.044508301006229267
0.809000000000000608,-1.034860981980685324
0.810000000000000608,-1.025285769978819150
0.811000000000000609,-1.015782401856997197
0.812000000000000610,-1.006350611856511534
0.813000000000000611,-0.996990131664382107
0.814000000000000612,-0.987700690473746645
0.815000000000000613,-0.978482015043772635
0.816000000000000614,-0.969333829759057464
0.817000000000000615,-0.960255856688617682
0.818000000000000616,-0.951247815644362005
0.819000000000000616,-0.942309424239064164
0.820000000000000617,-0.933440397943865796
0.821000000000000618,-0.924640450145280290
0.822000000000000619,-0.915909292201705805
0.823000000000000620,-0.907246633499400934
0.824000000000000621,-0.898652181507982872
0.825000000000000622,-0.890125641835404435
0.826000000000000623,-0.881666718282420492
0.827000000000000624,-0.873275112896532590
0.828000000000000624,-0.864950526025415778
0.829000000000000625,-0.856692656369815397
0.830000000000000626,-0.848501201035934516
0.831000000000000627,-0.840375855587278453
0.832000000000000628,-0.832316314096002152
0.833000000000000629,-0.824322269193668133
0.834000000000000630,-0.816393412121538375
0.835000000000000631,-0.808529432780295543
0.836000000000000631,-0.800730019779236968
0.837000000000000632,-0.792994860484952380
0.838000000000000633,-0.785323641069427092
0.839000000000000634,-0.777716046557656915
0.840000000000000635,-0.770171760874704736
0.841000000000000636,-0.762690466892200547
0.842000000000000637,-0.755271846474363517
0.843000000000000638,-0.747915580523418333
0.844000000000000639,-0.740621349024531694
0.845000000000000639,-0.733388831090190152
0.846000000000000640,-0.726217705004036373
0.847000000000000641,-0.719107648264204591
0.848000000000000642,-0.712058337626086280
0.849000000000000643,-0.705069449144575366
0.850000000000000644,-0.698140658215824272
0.851000000000000645,-0.691271639618383560
0.852000000000000646,-0.684462067553915920
0.853000000000000647,-0.677711615687309088
0.854000000000000647,-0.671019957186295035
0.855000000000000648,-0.664386764760542703
0.856000000000000649,-0.657811710700237362
0.857000000000000650,-0.651294466914131176
0.858000000000000651,-0.644834704967071626
0.859000000000000652,-0.638432096117031778
0.860000000000000653,-0.632086311351625962
0.861000000000000654,-0.625797021424092881
0.862000000000000655,-0.619563896888812637
0.863000000000000655,-0.613386608136267331
0.864000000000000656,-0.607264825427548671
0.865000000000000657,-0.601198218928329031
0.866000000000000658,-0.595186458742351099
0.867000000000000659,-0.589229214944432700
0.868000000000000660,-0.583326157612949370
0.869000000000000661,-0.577476956861857849
0.870000000000000662,-0.571681282872218866
0.871000000000000663,-0.565938805923245525
0.872000000000000663,-0.560249196422858975
0.873000000000000664,-0.554612124937781781
0.874000000000000665,-0.549027262223141355
0.875000000000000666,-0.543494279251622303
0.876000000000000667,-0.538012847242132941
0.877000000000000668,-0.532582637688020166
0.878000000000000669,-0.527203322384821704
0.879000000000000670,-0.521874573457546287
0.880000000000000671,-0.516596063387530280
0.881000000000000671,-0.511367465038806701
0.882000000000000672,-0.506188451684061458
0.883000000000000673,-0.501058697030118849
0.884000000000000674,-0.495977875243008293
0.885000000000000675,-0.490945660972569642
0.886000000000000676,-0.485961729376659879
0.887000000000000677,-0.481025756144899563
0.888000000000000678,-0.476137417521993289
0.889000000000000679,-0.471296390330663062
0.890000000000000679,-0.466502351994119213
0.891000000000000680,-0.461754980558151118
0.892000000000000681,-0.457053954712782928
0.893000000000000682,-0.452398953813530347
0.894000000000000683,-0.447789657902254834
0.895000000000000684,-0.443225747727620245
0.896000000000000685,-0.438706904765146066
0.897000000000000686,-0.434232811236868521
0.898000000000000687,-0.429803150130628531
0.899000000000000687,-0.425417605218943007
0.900000000000000688,-0.421075861077523927
0.901000000000000689,-0.416777603103403227
0.902000000000000690,-0.412522517532699251
0.903000000000000691,-0.408310291457995522
0.904000000000000692,-0.404140612845357183
0.905000000000000693,-0.400013170550994501
0.906000000000000694,-0.395927654337563328
0.907000000000000695,-0.391883754890091585
0.908000000000000695,-0.387881163831599207
0.909000000000000696,-0.383919573738311204
0.910000000000000697,-0.379998678154580605
0.911000000000000698,-0.376118171607433938
0.912000000000000699,-0.372277749620798071
0.913000000000000700,-0.368477108729403480
0.914000000000000701,-0.364715946492314924
0.915000000000000702,-0.360993961506198113
0.916000000000000703,-0.357310853418215557
0.917000000000000703,-0.353666322938631150
0.918000000000000704,-0.350060071853086296
0.919000000000000705,-0.346491803034567447
0.920000000000000706,-0.342961220455082205
0.921000000000000707,-0.339468029197004584
0.922000000000000708,-0.336011935464138878
0.923000000000000709,-0.332592646592496877
0.924000000000000710,-0.329209871060744896
0.925000000000000711,-0.325863318500407173
0.926000000000000711,-0.322552699705746293
0.927000000000000712,-0.319277726643387549
0.928000000000000713,-0.316038112461646037
0.929000000000000714,-0.312833571499599228
0.930000000000000715,-0.309663819295858622
0.931000000000000716,-0.306528572597099314
0.932000000000000717,-0.303427549366322657
0.933000000000000718,-0.300360468790831392
0.934000000000000719,-0.297327051289984157
0.935000000000000719,-0.294327018522668016
0.936000000000000720,-0.291360093394531394
0.937000000000000721,-0.288426000064963106
0.938000000000000722,-0.285524463953837127
0.939000000000000723,-0.282655211748000623
0.940000000000000724,-0.279817971407540722
0.941000000000000725,-0.277012472171800195
0.942000000000000726,-0.274238444565177708
0.943000000000000727,-0.271495620402682103
0.944000000000000727,-0.268783732795281227
0.945000000000000728,-0.266102516155016733
0.946000000000000729,-0.263451706199889391
0.947000000000000730,-0.260831039958558830
0.948000000000000731,-0.258240255774797700
0.949000000000000732,-0.255679093311763417
0.950000000000000733,-0.253147293556037101
0.951000000000000734,-0.250644598821491482
0.952000000000000735,-0.248170752752926133
0.953000000000000735,-0.245725500329516316
0.954000000000000736,-0.243308587868075937
0.955000000000000737,-0.240919763026123779
0.956000000000000738,-0.238558774804756762
0.957000000000000739,-0.236225373551335993
0.958000000000000740,-0.233919310961996807
0.959000000000000741,-0.231640340083973328
0.960000000000000742,-0.229388215317754135
0.961000000000000743,-0.227162692419042189
0.962000000000000743,-0.224963528500567472
0.963000000000000744,-0.222790482033711129
0.964000000000000745,-0.220643312849984952
0.965000000000000746,-0.218521782142320070
0.966000000000000747,-0.216425652466208429
0.967000000000000748,-0.214354687740686611
0.968000000000000749,-0.212308653249170781
0.969000000000000750,-0.210287315640109634
0.970000000000000751,-0.208290442927526576
0.971000000000000751,-0.206317804491375517
0.972000000000000752,-0.204369171077766282
0.973000000000000753,-0.202444314799072295
0.974000000000000754,-0.200543009133839517
0.975000000000000755,-0.198665028926613418
0.976000000000000756,-0.196810150387597554
0.977000000000000757,-0.194978151092187246
0.978000000000000758,-0.193168809980364259
0.979000000000000759,-0.191381907355990921
0.980000000000000759,-0.189617224885928637
0.981000000000000760,-0.187874545599071713
0.982000000000000761,-0.186153653885255649
0.983000000000000762,-0.184454335494018323
0.984000000000000763,-0.182776377533264228
0.985000000000000764,-0.181119568467822789
0.986000000000000765,-0.179483698117863383
0.987000000000000766,-0.177868557657218485
0.988000000000000766,-0.176273939611596320
0.989000000000000767,-0.174699637856691847
0.990000000000000768,-0.173145447616169568
0.991000000000000769,-0.171611165459565174
0.992000000000000770,-0.170096589300076401
0.993000000000000771,-0.168601518392265726
0.994000000000000772,-0.167125753329642274
0.995000000000000773,-0.165669096042181385
0.996000000000000774,-0.164231349793715509
0.997000000000000774,-0.162812319179262838
0.998000000000000775,-0.161411810122248311
0.999000000000000776,-0.160029629871646512
1.000000000000000666,-0.158665586999032715
1.001000000000000778,-0.157319491395556843
1.002000000000000668,-0.155991154268825510
1.003000000000000780,-0.154680388139705444
1.004000000000000670,-0.153387006839064199
1.005000000000000782,-0.152110825504409908
1.006000000000000671,-0.150851660576476476
1.007000000000000783,-0.149609329795707763
1.008000000000000673,-0.148383652198707389
1.009000000000000785,-0.147174448114588463
1.010000000000000675,-0.145981539161265494
1.011000000000000787,-0.144804748241672387
1.012000000000000677,-0.143643899539934838
1.013000000000000789,-0.142498818517449471
1.014000000000000679,-0.141369331908921037
1.015000000000000790,-0.140255267718333021
1.016000000000000680,-0.139156455214865998
1.017000000000000792,-0.138072724928728935
1.018000000000000682,-0.137003908646984085
1.019000000000000794,-0.135949839409263806
1.020000000000000684,-0.134910351503475523
1.021000000000000796,-0.133885280461428557
1.022000000000000686,-0.132874463054416025
1.023000000000000798,-0.131877737288761371
1.024000000000000687,-0.130894942401289599
1.025000000000000799,-0.129925918854784966
1.026000000000000689,-0.128970508333367206
1.027000000000000801,-0.128028553737855211
1.028000000000000691,-0.127099899181068898
1.029000000000000803,-0.126184389983095085
1.030000000000000693,-0.125281872666510252
1.031000000000000805,-0.124392194951571014
1.032000000000000695,-0.123515205751352358
1.033000000000000806,-0.122650755166874043
1.034000000000000696,-0.121798694482162698
1.035000000000000808,-0.120958876159289880
1.036000000000000698,-0.120131153833385393
1.037000000000000810,-0.119315382307622592
1.038000000000000700,-0.118511417548135212
1.039000000000000812,-0.117719116678950103
1.040000000000000702,-0.116938337976867437
1.041000000000000814,-0.116168940866320056
1.042000000000000703,-0.115410785914184230
1.043000000000000815,-0.114663734824607788
1.044000000000000705,-0.113927650433772870
1.045000000000000817,-0.113202396704651417
1.046000000000000707,-0.112487838721740507
1.047000000000000819,-0.111783842685775348
1.048000000000000709,-0.111090275908394084
1.049000000000000821,-0.110407006806842567
1.050000000000000711,-0.109733904898584506
1.051000000000000822,-0.109070840795962923
1.052000000000000712,-0.108417686200796989
1.053000000000000824,-0.107774313898972268
1.054000000000000714,-0.107140597755039840
1.055000000000000826,-0.106516412706761529
1.056000000000000716,-0.105901634759682867
1.057000000000000828,-0.105296140981649439
1.058000000000000718,-0.104699809497344698
1.059000000000000830,-0.104112519482802063
1.060000000000000719,-0.103534151159913573
1.061000000000000831,-0.102964585790903840
1.062000000000000721,-0.102403705672838255
1.063000000000000833,-0.101851394132086742
1.064000000000000723,-0.101307535518785727
1.065000000000000835,-0.100772015201303633
1.066000000000000725,-0.100244719560703063
1.067000000000000837,-0.099725535985167674
1.068000000000000727,-0.099214352864470806
1.069000000000000838,-0.098711059584388527
1.070000000000000728,-0.098215546521153316
1.071000000000000840,-0.097727705035875592
1.072000000000000730,-0.097247427468977563
1.073000000000000842,-0.096774607134619176
1.074000000000000732,-0.096309138315117837
1.075000000000000844,-0.095850916255385527
1.076000000000000734,-0.095399837157343653
1.077000000000000846,-0.094955798174351486
1.078000000000000735,-0.094518697405638147
1.079000000000000847,-0.094088433890722509
1.080000000000000737,-0.093664907603854569
1.081000000000000849,-0.093248019448432945
1.082000000000000739,-0.092837671251458462
1.083000000000000851,-0.092433765757961403
1.084000000000000741,-0.092036206625458000
1.085000000000000853,-0.091644898418387050
1.086000000000000743,-0.091259746602574729
1.087000000000000854,-0.090880657539686410
1.088000000000000744,-0.090507538481708449
1.089000000000000856,-0.090140297565397265
1.090000000000000746,-0.089778843806781361
1.091000000000000858,-0.089423087095642118
1.092000000000000748,-0.089072938190003934
1.093000000000000860,-0.088728308710647338
1.094000000000000750,-0.088389111135617690
1.095000000000000862,-0.088055258794744184
1.096000000000000751,-0.087726665864183123
1.097000000000000863,-0.087403247360943195
1.098000000000000753,-0.087084919137455488
1.099000000000000865,-0.086771597876129120
1.100000000000000755,-0.086463201083916516
1.101000000000000867,-0.086159647086912608
1.102000000000000757,-0.085860855024950222
1.103000000000000869,-0.085566744846207812
1.104000000000000759,-0.085277237301823586
1.105000000000000870,-0.084992253940549017
1.106000000000000760,-0.084711717103378520
1.107000000000000872,-0.084435549918223635
1.108000000000000762,-0.084163676294588582
1.109000000000000874,-0.083896020918250963
1.110000000000000764,-0.083632509245975761
1.111000000000000876,-0.083373067500227813
1.112000000000000766,-0.083117622663906626
1.113000000000000878,-0.082866102475097791
1.114000000000000767,-0.082618435421841385
1.115000000000000879,-0.082374550736899657
1.116000000000000769,-0.082134378392563476
1.117000000000000881,-0.081897849095463091
1.118000000000000771,-0.081664894281394979
1.119000000000000883,-0.081435446110169035
1.120000000000000773,-0.081209437460474460
1.121000000000000885,-0.080986801924748095
1.122000000000000774,-0.080767473804083362
1.123000000000000886,-0.080551388103141136
1.124000000000000776,-0.080338480525083092
1.125000000000000888,-0.080128687466515955
1.126000000000000778,-0.079921946012467132
1.127000000000000890,-0.079718193931373998
1.128000000000000780,-0.079517369670076235
1.129000000000000892,-0.079319412348855603
1.130000000000000782,-0.079124261756466308
1.131000000000000894,-0.078931858345209646
1.132000000000000783,-0.078742143225999012
1.133000000000000895,-0.078555058163482433
1.134000000000000785,-0.078370545571135264
1.135000000000000897,-0.078188548506428895
1.136000000000000787,-0.078009010665968020
1.137000000000000899,-0.077831876380682230
1.138000000000000789,-0.077657090611015334
1.139000000000000901,-0.077484598942166388
1.140000000000000790,-0.077314347579307149
1.141000000000000902,-0.077146283342843291
1.142000000000000792,-0.076980353663714141
1.143000000000000904,-0.076816506578683025
1.144000000000000794,-0.076654690725659197
1.145000000000000906,-0.076494855339035217
1.146000000000000796,-0.076336950245070520
1.147000000000000908,-0.076180925857257040
1.148000000000000798,-0.076026733171738706
1.149000000000000909,-0.075874323762732204
1.150000000000000799,-0.075723649777976673
1.151000000000000689,-0.075574663934208447
1.152000000000000801,-0.075427319512652691
1.153000000000000913,-0.075281570354531674
1.154000000000000803,-0.075137370856604505
1.155000000000000693,-0.074994675966719881
1.156000000000000805,-0.074853441179405150
1.157000000000000917,-0.074713622531449878
1.158000000000000806,-0.074575176597544604
1.159000000000000696,-0.074438060485913088
1.160000000000000808,-0.074302231833984114
1.161000000000000920,-0.074167648804077946
1.162000000000000810,-0.074034270079120376
1.163000000000000700,-0.073902054858361807
1.164000000000000812,-0.073770962853153349
1.165000000000000924,-0.073640954282699247
1.166000000000000814,-0.073511989869871758
1.167000000000000703,-0.073384030837025924
1.168000000000000815,-0.073257038901844984
1.169000000000000927,-0.073130976273197715
1.170000000000000817,-0.073005805647042177
1.171000000000000707,-0.072881490202310897
1.172000000000000819,-0.072757993596867507
1.173000000000000931,-0.072635279963448179
1.174000000000000821,-0.072513313905632912
1.175000000000000711,-0.072392060493859364
1.176000000000000822,-0.072271485261432455
1.177000000000000934,-0.072151554200570095
1.178000000000000824,-0.072032233758469427
1.179000000000000714,-0.071913490833393143
1.180000000000000826,-0.071795292770787639
1.181000000000000938,-0.071677607359403234
1.182000000000000828,-0.071560402827455821
1.183000000000000718,-0.071443647838804331
1.184000000000000830,-0.071327311489148240
1.185000000000000941,-0.071211363302244771
1.186000000000000831,-0.071095773226163853
1.187000000000000721,-0.070980511629540111
1.188000000000000833,-0.070865549297872213
1.189000000000000945,-0.070750857429827896
1.190000000000000835,-0.070636407633577342
1.191000000000000725,-0.070522171923136506
1.192000000000000837,-0.070408122714773244
1.193000000000000949,-0.070294232823365416
1.194000000000000838,-0.070180475458857486
1.195000000000000728,-0.070066824222675794
1.196000000000000840,-0.069953253104209953
1.197000000000000952,-0.069839736477293801
1.198000000000000842,-0.069726249096706577
1.199000000000000732,-0.069612766094718975
1.200000000000000844,-0.069499262977618312
1.201000000000000956,-0.069385715622313202
1.202000000000000846,-0.069272100272898735
1.203000000000000735,-0.069158393537300175
1.204000000000000847,-0.069044572383882979
1.205000000000000959,-0.068930614138139487
1.206000000000000849,-0.068816496479348427
1.207000000000000739,-0.068702197437288198
1.208000000000000851,-0.068587695388956038
1.209000000000000963,-0.068472969055320826
1.210000000000000853,-0.068357997498079026
1.211000000000000743,-0.068242760116445617
1.212000000000000854,-0.068127236643965777
1.213000000000000966,-0.068011407145340735
1.214000000000000856,-0.067895252013285237
1.215000000000000746,-0.067778751965381509
1.216000000000000858,-0.067661888041001955
1.217000000000000970,-0.067544641598188362
1.218000000000000860,-0.067426994310608973
1.219000000000000750,-0.067308928164508938
1.220000000000000862,-0.067190425455679520
1.221000000000000973,-0.067071468786456367
1.222000000000000863,-0.066952041062742412
1.223000000000000753,-0.066832125491033512
1.224000000000000865,-0.066711705575486502
1.225000000000000977,-0.066590765114991249
1.226000000000000867,-0.066469288200267165
1.227000000000000757,-0.066347259210986276
1.228000000000000869,-0.066224662812897822
1.229000000000000981,-0.066101483955013543
1.230000000000000870,-0.065977707866753096
1.231000000000000760,-0.065853320055162576
1.232000000000000872,-0.065728306302129419
1.233000000000000984,-0.065602652661606822
1.234000000000000874,-0.065476345456894194
1.235000000000000764,-0.065349371277884954
1.236000000000000876,-0.065221716978386773
1.237000000000000988,-0.065093369673419610
1.238000000000000878,-0.064964316736564692
1.239000000000000767,-0.064834545797305382
1.240000000000000879,-0.064704044738410765
1.241000000000000991,-0.064572801693316889
1.242000000000000881,-0.064440805043544810
1.243000000000000771,-0.064308043416135580
1.244000000000000883,-0.064174505681078714
1.245000000000000995,-0.064040180948805037
1.246000000000000885,-0.063905058567657769
1.247000000000000774,-0.063769128121399274
1.248000000000000886,-0.063632379426733943
1.249000000000000998,-0.063494802530853892
1.250000000000000888,-0.063356387708998207
1.251000000000000778,-0.063217125462023224
1.252000000000000890,-0.063077006514011311
1.253000000000001002,-0.062936021809869500
1.254000000000000892,-0.062794162512980853
1.255000000000000782,-0.062651420002840894
1.256000000000000894,-0.062507785872727692
1.257000000000001005,-0.062363251927393601
1.258000000000000895,-0.062217810180767420
1.259000000000000785,-0.062071452853664708
1.260000000000000897,-0.061924172371543448
1.261000000000001009,-0.061775961362247930
1.262000000000000899,-0.061626812653784613
1.263000000000000789,-0.061476719272113955
1.264000000000000901,-0.061325674438961919
1.265000000000001013,-0.061173671569635747
1.266000000000000902,-0.061020704270870696
1.267000000000000792,-0.060866766338692424
1.268000000000000904,-0.060711851756282700
1.269000000000001016,-0.060555954691880333
1.270000000000000906,-0.060399069496686941
1.271000000000000796,-0.060241190702790395
1.272000000000000908,-0.060082313021105963
1.273000000000001020,-0.059922431339338909
1.274000000000000909,-0.059761540719954362
1.275000000000000799,-0.059599636398165443
1.276000000000000911,-0.059436713779952369
1.277000000000001023,-0.059272768440065494
1.278000000000000913,-0.059107796120082420
1.279000000000000803,-0.058941792726447326
1.280000000000000915,-0.058774754328557180
1.281000000000001027,-0.058606677156823328
1.282000000000000917,-0.058437557600801049
1.283000000000000806,-0.058267392207282644
1.284000000000000918,-0.058096177678444591
1.285000000000001030,-0.057923910869984663
1.286000000000000920,-0.057750588789296065
1.287000000000000810,-0.057576208593628622
1.288000000000000922,-0.057400767588302780
1.289000000000001034,-0.057224263224896030
1.290000000000000924,-0.057046693099475868
1.291000000000000814,-0.056868054950844307
1.292000000000000925,-0.056688346658769630
1.293000000000001037,-0.056507566242277277
1.294000000000000927,-0.056325711857909765
1.295000000000000817,-0.056142781798039755
1.296000000000000929,-0.055958774489164601
1.297000000000001041,-0.055773688490236027
1.298000000000000931,-0.055587522491009358
1.299000000000000821,-0.055400275310381067
1.300000000000000933,-0.055211945894759598
1.301000000000001044,-0.055022533316450961
1.302000000000000934,-0.054832036772043867
1.303000000000000824,-0.054640455580829597
1.304000000000000936,-0.054447789183207564
1.305000000000001048,-0.054254037139138102
1.306000000000000938,-0.054059199126585578
1.307000000000000828,-0.053863274939965768
1.308000000000000940,-0.053666264488639072
1.309000000000001052,-0.053468167795399077
1.310000000000000941,-0.053268984994966115
1.311000000000000831,-0.053068716332500342
1.312000000000000943,-0.052867362162131185
1.313000000000001055,-0.052664922945515648
1.314000000000000945,-0.052461399250368877
1.315000000000000835,-0.052256791749036469
1.316000000000000947,-0.052051101217079274
1.317000000000001059,-0.051844328531866199
1.318000000000000949,-0.051636474671167068
1.319000000000000838,-0.051427540711783050
1.320000000000000950,-0.051217527828168255
1.321000000000001062,-0.051006437291065757
1.322000000000000952,-0.050794270466173241
1.323000000000000842,-0.050581028812799710
1.324000000000000954,-0.050366713882548632
1.325000000000001066,-0.050151327317996361
1.326000000000000956,-0.049934870851411829
1.327000000000000846,-0.049717346303449636
1.328000000000000957,-0.049498755581891082
1.329000000000001069,-0.049279100680366686
1.330000000000000959,-0.049058383677120496
1.331000000000000849,-0.048836606733753007
1.332000000000000961,-0.048613772094000640
1.333000000000001073,-0.048389882082515413
1.334000000000000963,-0.048164939103663693
1.335000000000000853,-0.047938945640317261
1.336000000000000965,-0.047711904252686795
1.337000000000001076,-0.047483817577134269
1.338000000000000966,-0.047254688325014491
1.339000000000000856,-0.047024519281532631
1.340000000000000968,-0.046793313304583549
1.341000000000001080,-0.046561073323640803
1.342000000000000970,-0.046327802338627488
1.343000000000000860,-0.046093503418806553
1.344000000000000972,-0.045858179701686333
1.345000000000001084,-0.045621834391938676
1.346000000000000973,-0.045384470760301922
1.347000000000000863,-0.045146092142531791
1.348000000000000975,-0.044906701938331892
1.349000000000001087,-0.044666303610319175
1.350000000000000977,-0.044424900682971412
1.351000000000000867,-0.044182496741616228
1.352000000000000979,-0.043939095431395223
1.353000000000001091,-0.043694700456273126
1.354000000000000981,-0.043449315578038064
1.355000000000000870,-0.043202944615296140
1.356000000000000982,-0.042955591442514388
1.357000000000001094,-0.042707259989045863
1.358000000000000984,-0.042457954238157680
1.359000000000000874,-0.042207678226098749
1.360000000000000986,-0.041956436041147432
1.361000000000001098,-0.041704231822690174
1.362000000000000988,-0.041451069760279922
1.363000000000000878,-0.041196954092745840
1.364000000000000989,-0.040941889107282615
1.365000000000001101,-0.040685879138540673
1.366000000000000991,-0.040428928567759252
1.367000000000000881,-0.040171041821879763
1.368000000000000993,-0.039912223372679342
1.369000000000001105,-0.039652477735909838
1.370000000000000995,-0.039391809470446265
1.371000000000000885,-0.039130223177448457
1.372000000000000997,-0.038867723499521986
1.373000000000001108,-0.038604315119903129
1.374000000000000998,-0.038340002761613909
1.375000000000000888,-0.038074791186696523
1.376000000000001000,-0.037808685195372428
1.377000000000001112,-0.037541689625278540
1.378000000000001002,-0.037273809350662546
1.379000000000000892,-0.037005049281623861
1.380000000000001004,-0.036735414363329895
1.381000000000001116,-0.036464909575274207
1.382000000000001005,-0.036193539930505357
1.383000000000000895,-0.035921310474893678
1.384000000000001007,-0.035648226286395926
1.385000000000001119,-0.035374292474320973
1.386000000000001009,-0.035099514178612568
1.387000000000000899,-0.034823896569126801
1.388000000000001011,-0.034547444844951203
1.389000000000001123,-0.034270164233668673
1.390000000000001013,-0.033992059990699701
1.391000000000000902,-0.033713137398597597
1.392000000000001014,-0.033433401766386116
1.393000000000001126,-0.033152858428879384
1.394000000000001016,-0.032871512746030014
1.395000000000000906,-0.032589370102266042
1.396000000000001018,-0.032306435905842971
1.397000000000001130,-0.032022715588212125
1.398000000000001020,-0.031738214603380950
1.399000000000000909,-0.031452938427281918
1.400000000000001021,-0.031166892557159147
1.401000000000001133,-0.030880082510956263
1.402000000000001023,-0.030592513826703777
1.403000000000000913,-0.030304192061922218
1.404000000000001025,-0.030015122793029075
1.405000000000001137,-0.029725311614756063
1.406000000000001027,-0.029434764139557403
1.407000000000000917,-0.029143485997058870
1.408000000000001029,-0.028851482833458807
1.409000000000001140,-0.028558760310998521
1.410000000000001030,-0.028265324107389033
1.411000000000000920,-0.027971179915267808
1.412000000000001032,-0.027676333441656091
1.413000000000001144,-0.027380790407428218
1.414000000000001034,-0.027084556546777709
1.415000000000000924,-0.026787637606686267
1.416000000000001036,-0.026490039346422817
1.417000000000001148,-0.026191767537021481
1.418000000000001037,-0.025892827960774405
1.419000000000000927,-0.025593226410736379
1.420000000000001039,-0.025292968690226243
1.421000000000001151,-0.024992060612348304
1.422000000000001041,-0.024690507999498852
1.423000000000000931,-0.024388316682893804
1.424000000000001043,-0.024085492502094637
1.425000000000001155,-0.023782041304551204
1.426000000000001044,-0.023477968945129223
1.427000000000000934,-0.023173281285670047
1.428000000000001046,-0.022867984194527347
1.429000000000001158,-0.022562083546127633
1.430000000000001048,-0.022255585220537059
1.431000000000000938,-0.021948495103024539
1.432000000000001050,-0.021640819083632763
1.433000000000001162,-0.021332563056756144
1.434000000000001052,-0.021023732920721093
1.435000000000000941,-0.020714334577380429
1.436000000000001053,-0.020404373931699884
1.437000000000001165,-0.020093856891349352
1.438000000000001055,-0.019782789366326731
1.439000000000000945,-0.019471177268543340
1.440000000000001057,-0.019159026511447262
1.441000000000001169,-0.018846343009632192
1.442000000000001059,-0.018533132678471276
1.443000000000000949,-0.018219401433740609
1.444000000000001060,-0.017905155191243308
1.445000000000001172,-0.017590399866448482
1.446000000000001062,-0.017275141374143956
1.447000000000000952,-0.016959385628060691
1.448000000000001064,-0.016643138540539261
1.449000000000001176,-0.016326406022186771
1.450000000000001066,-0.016009193981513938
1.451000000000000956,-0.015691508324623363
1.452000000000001068,-0.015373354954864814
1.453000000000001180,-0.015054739772509471
1.454000000000001069,-0.014735668674427337
1.455000000000000959,-0.014416147553768355
1.456000000000001071,-0.014096182299640363
1.457000000000001183,-0.013775778796816743
1.458000000000001073,-0.013454942925411096
1.459000000000000963,-0.013133680560579708
1.460000000000001075,-0.012811997572229903
1.461000000000001187,-0.012489899824715805
1.462000000000001076,-0.012167393176564229
1.463000000000000966,-0.011844483480167015
1.464000000000001078,-0.011521176581510081
1.465000000000001190,-0.011197478319908581
1.466000000000001080,-0.010873394527696541
1.467000000000000970,-0.010548931029994523
1.468000000000001082,-0.010224093644422848
1.469000000000001194,-0.009898888180838344
1.470000000000001084,-0.009573320441080951
1.471000000000000973,-0.009247396218713427
1.472000000000001085,-0.008921121298775647
1.473000000000001197,-0.008594501457532410
1.474000000000001087,-0.008267542462226826
1.475000000000000977,-0.007940250070836164
1.476000000000001089,-0.007612630031848605
1.477000000000001201,-0.007284688084014891
1.478000000000001091,-0.006956429956119409
1.479000000000000981,-0.006627861366763447
1.480000000000001092,-0.006298988024122323
1.481000000000001204,-0.005969815625748010
1.482000000000001094,-0.005640349858330890
1.483000000000000984,-0.005310596397502782
1.484000000000001096,-0.004980560907618462
1.485000000000001208,-0.004650249041538667
1.486000000000001098,-0.004319666440449636
1.487000000000000988,-0.003988818733640739
1.488000000000001100,-0.003657711538314729
1.489000000000001211,-0.003326350459395033
1.490000000000001101,-0.002994741089333417
1.491000000000000991,-0.002662889007914301
1.492000000000001103,-0.002330799782084576
1.493000000000001215,-0.001998478965753696
1.494000000000001105,-0.001665932099624943
1.495000000000000995,-0.001333164711015471
1.496000000000001107,-0.001000182313686302
1.497000000000001219,-0.000666990407662518
1.498000000000001108,-0.000333594479080093
1.499000000000000998,0.000000000000000000
