# hydroxyapatite-101-ph10_HSPSCA-AC
# h[nm],U(h)[kJ/mol]
0.149999999999999994,109.066125940273906281
0.150999999999999995,106.711595106257433940
0.151999999999999996,104.286317587467763701
0.152999999999999997,101.938782512837647687
0.153999999999999998,99.707092969845120933
0.154999999999999999,97.580843802455675018
0.156000000000000000,95.533996425249966933
0.157000000000000001,93.540696415948914932
0.158000000000000002,91.581518929123802764
0.159000000000000002,89.644710191188465842
0.160000000000000003,87.725116812734000860
0.161000000000000004,85.822311620062961879
0.162000000000000005,83.938698138812327443
0.163000000000000006,82.077945107010151560
0.164000000000000007,80.243859644668901865
0.165000000000000008,78.439681474385494653
0.166000000000000009,76.667724154749194554
0.167000000000000010,74.929272676275445519
0.168000000000000010,73.224651185889754856
0.169000000000000011,71.553388636175554893
0.170000000000000012,69.914427170381671317
0.171000000000000013,68.306334462646603356
0.172000000000000014,66.727495319663347573
0.173000000000000015,65.176269012507020761
0.174000000000000016,63.651107064936766733
0.175000000000000017,62.150631910216773690
0.176000000000000018,60.673680401998140610
0.177000000000000018,59.219318104204091924
0.178000000000000019,57.786831029206439325
0.179000000000000020,56.375701416544487188
0.180000000000000021,54.985573546768286235
0.181000000000000022,53.616214697361286312
0.182000000000000023,52.267475338916838723
0.183000000000000024,50.939251656928391299
0.184000000000000025,49.631452543597269766
0.185000000000000026,48.343972379219209756
0.186000000000000026,47.076670234938092108
0.187000000000000027,45.829355582481781539
0.188000000000000028,44.601780185507536203
0.189000000000000029,43.393635558260221785
0.190000000000000030,42.204555193686047687
0.191000000000000031,41.034120666930476773
0.192000000000000032,39.881870693500680147
0.193000000000000033,38.747312247718568301
0.194000000000000034,37.629932911678601215
0.195000000000000034,36.529213715069253965
0.196000000000000035,35.444641831391983544
0.197000000000000036,34.375722607850846657
0.198000000000000037,33.321990517933656406
0.199000000000000038,32.283018732587251520
0.200000000000000039,31.258427104485996040
0.201000000000000040,30.247888447989964789
0.202000000000000041,29.251133073761486969
0.203000000000000042,28.267951601204988066
0.204000000000000042,27.298196124051987255
0.205000000000000043,26.341779845109897451
0.206000000000000044,25.398675326296661581
0.207000000000000045,24.468911520664711645
0.208000000000000046,23.552569765337054264
0.209000000000000047,22.649778919342178796
0.210000000000000048,21.760709829422047790
0.211000000000000049,20.885569301130512798
0.212000000000000050,20.024593742980222544
0.213000000000000050,19.178042638989289514
0.214000000000000051,18.346191990561145246
0.215000000000000052,17.529327852938795473
0.216000000000000053,16.727740075131357855
0.217000000000000054,15.941716335736552779
0.218000000000000055,15.171536550903201856
0.219000000000000056,14.417467715129561157
0.220000000000000057,13.679759220928957575
0.221000000000000058,12.958638689809394151
0.222000000000000058,12.254308334623900123
0.223000000000000059,11.566941862239861649
0.224000000000000060,10.896681915671678098
0.225000000000000061,10.243638046323926716
0.226000000000000062,9.607885199767542517
0.227000000000000063,8.989462692467091287
0.228000000000000064,8.388373652022936611
0.229000000000000065,7.804584889704125672
0.230000000000000066,7.238027171240583257
0.231000000000000066,6.688595849917899905
0.232000000000000067,6.156151824883577817
0.233000000000000068,5.640522787132305815
0.234000000000000069,5.141504715799561254
0.235000000000000070,4.658863588068106409
0.236000000000000071,4.192337267099405906
0.237000000000000072,3.741637533861415399
0.238000000000000073,3.306452230467525233
0.239000000000000073,2.886447484602437275
0.240000000000000074,2.481269986729313981
0.241000000000000075,2.090549294000828784
0.242000000000000076,1.713900137085412778
0.243000000000000077,1.350924708430830234
0.244000000000000078,1.001214912786570821
0.245000000000000079,0.664354563064585291
0.246000000000000080,0.339921506811964869
0.247000000000000081,0.027489670677878754
0.248000000000000081,-0.273368987732535873
0.249000000000000082,-0.563082629326355666
0.250000000000000111,-0.842077791244037810
0.251000000000000112,-1.110777758111408442
0.252000000000000113,-1.369601050577816226
0.253000000000000114,-1.618960033501208429
0.254000000000000115,-1.859259644878693551
0.255000000000000115,-2.090896245483947702
0.256000000000000116,-2.314256588161311079
0.257000000000000117,-2.529716904833800406
0.258000000000000118,-2.737642108503622218
0.259000000000000119,-2.938385106854264794
0.260000000000000120,-3.132286223495664323
0.261000000000000121,-3.319672722421224798
0.262000000000000122,-3.500858430862483939
0.263000000000000123,-3.676143455425044060
0.264000000000000123,-3.845813986163069131
0.265000000000000124,-4.010142183090894541
0.266000000000000125,-4.169386139533843405
0.267000000000000126,-4.323789916678665080
0.268000000000000127,-4.473583643692361278
0.269000000000000128,-4.618983677829167966
0.270000000000000129,-4.760192819035125034
0.271000000000000130,-4.897400573682066494
0.272000000000000131,-5.030783462213094914
0.273000000000000131,-5.160505365655839505
0.274000000000000132,-5.286717906153007185
0.275000000000000133,-5.409560856869399359
0.276000000000000134,-5.529162576855736866
0.277000000000000135,-5.645640466680228009
0.278000000000000136,-5.759101440875989297
0.279000000000000137,-5.869642413492870858
0.280000000000000138,-5.977350793284335495
0.281000000000000139,-6.082304985301975719
0.282000000000000139,-6.184574895909340952
0.283000000000000140,-6.284222438462653493
0.284000000000000141,-6.381302037136345362
0.285000000000000142,-6.475861126595928496
0.286000000000000143,-6.567940645437869485
0.287000000000000144,-6.657575521525454398
0.288000000000000145,-6.744795147550966874
0.289000000000000146,-6.829623845345773603
0.290000000000000147,-6.912081317643322009
0.291000000000000147,-6.992183086172540030
0.292000000000000148,-7.069940915123027025
0.293000000000000149,-7.145363219176762648
0.294000000000000150,-7.218455455445211832
0.295000000000000151,-7.289220498785001112
0.296000000000000152,-7.357659000090134960
0.297000000000000153,-7.423769727274394548
0.298000000000000154,-7.487549888763953554
0.299000000000000155,-7.548995439418133557
0.300000000000000155,-7.608101368885419546
0.301000000000000156,-7.664861972482934327
0.302000000000000157,-7.719271104761167734
0.303000000000000158,-7.771322415981282816
0.304000000000000159,-7.821009571791516457
0.305000000000000160,-7.868326456440942529
0.306000000000000161,-7.913267359914966548
0.307000000000000162,-7.955827149416505151
0.308000000000000163,-7.996001425651096284
0.309000000000000163,-8.033786664403121947
0.310000000000000164,-8.069180343914551301
0.311000000000000165,-8.102181058596903185
0.312000000000000166,-8.132788619622839832
0.313000000000000167,-8.161004142955004426
0.314000000000000168,-8.186830125377792200
0.315000000000000169,-8.210270509102365111
0.316000000000000170,-8.231330735517019548
0.317000000000000171,-8.250017788653881468
0.318000000000000171,-8.266340228939544232
0.319000000000000172,-8.280308217791764847
0.320000000000000173,-8.291933533616516527
0.321000000000000174,-8.301229579750582843
0.322000000000000175,-8.308211384884033990
0.323000000000000176,-8.312895596484604965
0.324000000000000177,-8.315300467732939182
0.325000000000000178,-8.315445838462917294
0.326000000000000179,-8.313353110586779948
0.327000000000000179,-8.309045218468286365
0.328000000000000180,-8.302546594691122550
0.329000000000000181,-8.293883131653121410
0.330000000000000182,-8.283082139399173371
0.331000000000000183,-8.270172300089134509
0.332000000000000184,-8.255183619478913215
0.333000000000000185,-8.238147375775907832
0.334000000000000186,-8.219096066212305374
0.335000000000000187,-8.198063351662534970
0.336000000000000187,-8.175083999614066954
0.337000000000000188,-8.150193825783659918
0.338000000000000189,-8.123429634654829812
0.339000000000000190,-8.094829159195835899
0.340000000000000191,-8.064431000001452077
0.341000000000000192,-8.032274564086616664
0.342000000000000193,-7.998400003544484882
0.343000000000000194,-7.962848154267153866
0.344000000000000195,-7.925660474912698206
0.345000000000000195,-7.886878986288911264
0.346000000000000196,-7.846546211310423402
0.347000000000000197,-7.804705115673433724
0.348000000000000198,-7.761399049379969384
0.349000000000000199,-7.716671689231732856
0.350000000000000200,-7.670566982402613476
0.351000000000000201,-7.623129091187911044
0.352000000000000202,-7.574402339018325492
0.353000000000000203,-7.524431157816914961
0.354000000000000203,-7.473260036768058612
0.355000000000000204,-7.420933472558564503
0.356000000000000205,-7.367495921142935167
0.357000000000000206,-7.312991751076916458
0.358000000000000207,-7.257465198455922639
0.359000000000000208,-7.200960323488265757
0.360000000000000209,-7.143520968726406295
0.361000000000000210,-7.085190718973324309
0.362000000000000210,-7.026012862875577802
0.363000000000000211,-6.966030356209074625
0.364000000000000212,-6.905285786858863517
0.365000000000000213,-6.843821341489453758
0.366000000000000214,-6.781678773898109469
0.367000000000000215,-6.718899375039467436
0.368000000000000216,-6.655523944706480677
0.369000000000000217,-6.591592764849073305
0.370000000000000218,-6.527145574509231274
0.371000000000000218,-6.462221546348222212
0.372000000000000219,-6.396859264739342521
0.373000000000000220,-6.331096705397384561
0.374000000000000221,-6.264971216513903762
0.375000000000000222,-6.198519501365679751
0.376000000000000223,-6.131777602362261881
0.377000000000000224,-6.064780886497089796
0.378000000000000225,-5.997564032165449532
0.379000000000000226,-5.930161017311685434
0.380000000000000226,-5.862605108867223080
0.381000000000000227,-5.794928853440111993
0.382000000000000228,-5.727164069216654774
0.383000000000000229,-5.659341839034949473
0.384000000000000230,-5.591492504590020118
0.385000000000000231,-5.523645661730299139
0.386000000000000232,-5.455830156804807096
0.387000000000000233,-5.388074084020793464
0.388000000000000234,-5.320404783771509827
0.389000000000000234,-5.252848841894303789
0.390000000000000235,-5.185432089819252965
0.391000000000000236,-5.118179605569266322
0.392000000000000237,-5.051115715572743525
0.393000000000000238,-4.984263997250758749
0.394000000000000239,-4.917647282340922743
0.395000000000000240,-4.851287660921085987
0.396000000000000241,-4.785206486096482692
0.397000000000000242,-4.719424379314635765
0.398000000000000242,-4.653961236273281621
0.399000000000000243,-4.588836233387125318
0.400000000000000244,-4.524067834780081121
0.401000000000000245,-4.459673799770703440
0.402000000000000246,-4.395671190818994489
0.403000000000000247,-4.332076381903871010
0.404000000000000248,-4.268905067301426826
0.405000000000000249,-4.206172270734913177
0.406000000000000250,-4.143892354868259353
0.407000000000000250,-4.082079031115925183
0.408000000000000251,-4.020745369742647846
0.409000000000000252,-3.959903810227629606
0.410000000000000253,-3.899566171868501296
0.411000000000000254,-3.839743664601368067
0.412000000000000255,-3.780446900014030831
0.413000000000000256,-3.721685902530436518
0.414000000000000257,-3.663470120745080827
0.415000000000000258,-3.605808438887216916
0.416000000000000258,-3.548709188395243963
0.417000000000000259,-3.492180159582686461
0.418000000000000260,-3.436228613377906527
0.419000000000000261,-3.380861293120418054
0.420000000000000262,-3.326084436397573452
0.421000000000000263,-3.271903786906067868
0.422000000000000264,-3.218324606323423431
0.423000000000000265,-3.165351686175394086
0.424000000000000266,-3.112989359686006541
0.425000000000000266,-3.061241513597420028
0.426000000000000267,-3.010111599947717487
0.427000000000000268,-2.959602647795231078
0.428000000000000269,-2.909717274878656834
0.429000000000000270,-2.860457699202969550
0.430000000000000271,-2.811825750541485203
0.431000000000000272,-2.763822881845295232
0.432000000000000273,-2.716450180551623461
0.433000000000000274,-2.669708379783368279
0.434000000000000274,-2.623597869432466645
0.435000000000000275,-2.578118707120372388
0.436000000000000276,-2.533270629029359622
0.437000000000000277,-2.489053060598776845
0.438000000000000278,-2.445465127080960421
0.439000000000000279,-2.402505663951902459
0.440000000000000280,-2.360173227172101651
0.441000000000000281,-2.318466103293563840
0.442000000000000282,-2.277382319409301470
0.443000000000000282,-2.236919652941858239
0.444000000000000283,-2.197075641268073198
0.445000000000000284,-2.157847591177341151
0.446000000000000285,-2.119232588161046316
0.447000000000000286,-2.081227505531374256
0.448000000000000287,-2.043829013367544523
0.449000000000000288,-2.007033587288331145
0.450000000000000289,-1.970837517049552456
0.451000000000000290,-1.935236914965753341
0.452000000000000290,-1.900227724155469700
0.453000000000000291,-1.865805726609609305
0.454000000000000292,-1.831966551082893080
0.455000000000000293,-1.798705680808280416
0.456000000000000294,-1.766018461034739362
0.457000000000000295,-1.733900106388699403
0.458000000000000296,-1.702345708059854301
0.459000000000000297,-1.671350240812058630
0.460000000000000298,-1.640908569820266560
0.461000000000000298,-1.611015457334584511
0.462000000000000299,-1.581665569172668651
0.463000000000000300,-1.552853481041783779
0.464000000000000301,-1.524573684692033471
0.465000000000000302,-1.496820593902326690
0.466000000000000303,-1.469588550300748642
0.467000000000000304,-1.442871829021130869
0.468000000000000305,-1.416664644197716427
0.469000000000000306,-1.390961154299830138
0.470000000000000306,-1.365755467308646942
0.471000000000000307,-1.341041645738064059
0.472000000000000308,-1.316813711501970019
0.473000000000000309,-1.293065650630002450
0.474000000000000310,-1.269791417834162273
0.475000000000000311,-1.246984940928532515
0.476000000000000312,-1.224640125104563548
0.477000000000000313,-1.202750857064174950
0.478000000000000314,-1.181311009013231494
0.479000000000000314,-1.160314442517800471
0.480000000000000315,-1.139755012225631470
0.481000000000000316,-1.119626569455438370
0.482000000000000317,-1.099922965656400242
0.483000000000000318,-1.080638055740485992
0.484000000000000319,-1.061765701290058317
0.485000000000000320,-1.043299773643371342
0.486000000000000321,-1.025234156860421297
0.487000000000000322,-1.007562750571741272
0.488000000000000322,-0.990279472712608078
0.489000000000000323,-0.973378262145268236
0.490000000000000324,-0.956853081171616493
0.491000000000000325,-0.940697917938881689
0.492000000000000326,-0.924906788740750385
0.493000000000000327,-0.909473740216478532
0.494000000000000328,-0.894392851450368398
0.495000000000000329,-0.879658235974094760
0.496000000000000330,-0.865264043674261685
0.497000000000000330,-0.851204462607610624
0.498000000000000331,-0.837473720726197080
0.499000000000000332,-0.824066087514945478
0.500000000000000333,-0.810975875543832436
0.501000000000000334,-0.798197441937008256
0.502000000000000335,-0.785725189761121712
0.503000000000000336,-0.773553569335070024
0.504000000000000337,-0.761677079463357165
0.505000000000000338,-0.750090268595245191
0.506000000000000338,-0.738787735911826671
0.507000000000000339,-0.727764132343103221
0.508000000000000340,-0.717014161517155579
0.509000000000000341,-0.706532580643447483
0.510000000000000342,-0.696314201332232652
0.511000000000000343,-0.686353890352062068
0.512000000000000344,-0.676646570327293473
0.513000000000000345,-0.667187220377525647
0.514000000000000346,-0.657970876700822216
0.515000000000000346,-0.648992633102509764
0.516000000000000347,-0.640247641471377804
0.517000000000000348,-0.631731112205060619
0.518000000000000349,-0.623438314586239106
0.519000000000000350,-0.615364577111431110
0.520000000000000351,-0.607505287773983937
0.521000000000000352,-0.599855894302888881
0.522000000000000353,-0.592411904358992714
0.523000000000000353,-0.585168885690161344
0.524000000000000354,-0.578122466246916877
0.525000000000000355,-0.571268334259998234
0.526000000000000356,-0.564602238281303626
0.527000000000000357,-0.558119987189652278
0.528000000000000358,-0.551817450162677248
0.529000000000000359,-0.545690556616264422
0.530000000000000360,-0.539735296112794583
0.531000000000000361,-0.533947718239504154
0.532000000000000361,-0.528323932458178325
0.533000000000000362,-0.522860107927429874
0.534000000000000363,-0.517552473298712234
0.535000000000000364,-0.512397316487240628
0.536000000000000365,-0.507390984418935043
0.537000000000000366,-0.502529882754491064
0.538000000000000367,-0.497810475591612955
0.539000000000000368,-0.493229285146497554
0.540000000000000369,-0.488782891415496024
0.541000000000000369,-0.484467931818023168
0.542000000000000370,-0.480281100821584317
0.543000000000000371,-0.476219149549885035
0.544000000000000372,-0.472278885374925017
0.545000000000000373,-0.468457171493920299
0.546000000000000374,-0.464750926491909411
0.547000000000000375,-0.461157123890866660
0.548000000000000376,-0.457672791686133784
0.549000000000000377,-0.454295011870892274
0.550000000000000377,-0.451020919949465859
0.551000000000000378,-0.447847704440168470
0.552000000000000379,-0.444772606368376344
0.553000000000000380,-0.441792918750535057
0.554000000000000381,-0.438905986069717202
0.555000000000000382,-0.436109203743417440
0.556000000000000383,-0.433400017584130104
0.557000000000000384,-0.430775923253377102
0.558000000000000385,-0.428234465709693146
0.559000000000000385,-0.425773238651173114
0.560000000000000386,-0.423389883953067592
0.561000000000000387,-0.421082091100986156
0.562000000000000388,-0.418847596620178397
0.563000000000000389,-0.416684183501376260
0.564000000000000390,-0.414589680623661416
0.565000000000000391,-0.412561962174806673
0.566000000000000392,-0.410598947069506781
0.567000000000000393,-0.408698598365930033
0.568000000000000393,-0.406858922680956581
0.569000000000000394,-0.405077969604523247
0.570000000000000395,-0.403353831113402728
0.571000000000000396,-0.401684640984783736
0.572000000000000397,-0.400068574210012684
0.573000000000000398,-0.398503846408759244
0.574000000000000399,-0.396988713243993263
0.575000000000000400,-0.395521469837995521
0.576000000000000401,-0.394100450189729445
0.577000000000000401,-0.392724026593850528
0.578000000000000402,-0.391390609061580963
0.579000000000000403,-0.390098644743698930
0.580000000000000404,-0.388846617355933399
0.581000000000000405,-0.387633046606909337
0.582000000000000406,-0.386456487628917544
0.583000000000000407,-0.385315530411688312
0.584000000000000408,-0.384208799239367127
0.585000000000000409,-0.383134952130869899
0.586000000000000409,-0.382092680283810437
0.587000000000000410,-0.381080707522150453
0.588000000000000411,-0.380097789747720738
0.589000000000000412,-0.379142714395794278
0.590000000000000413,-0.378214299894811146
0.591000000000000414,-0.377311395130404348
0.592000000000000415,-0.376432878913870339
0.593000000000000416,-0.375577659455154367
0.594000000000000417,-0.374744673840497311
0.595000000000000417,-0.373932887514843992
0.596000000000000418,-0.373141293769067905
0.597000000000000419,-0.372368913232159593
0.598000000000000420,-0.371614793368408358
0.599000000000000421,-0.370878007979682345
0.600000000000000422,-0.370157656712868377
0.601000000000000423,-0.369452864572529294
0.602000000000000424,-0.368762781438840725
0.603000000000000425,-0.368086581590879702
0.604000000000000425,-0.367423463235263426
0.605000000000000426,-0.366772648040226967
0.606000000000000427,-0.366133380675184139
0.607000000000000428,-0.365504928355716685
0.608000000000000429,-0.364886580394181981
0.609000000000000430,-0.364277647755758216
0.610000000000000431,-0.363677462620153658
0.611000000000000432,-0.363085377948839383
0.612000000000000433,-0.362500767057883533
0.613000000000000433,-0.361923023196423610
0.614000000000000434,-0.361351559130713873
0.615000000000000435,-0.360785806733785908
0.616000000000000436,-0.360225216580737750
0.617000000000000437,-0.359669257549619814
0.618000000000000438,-0.359117416427914726
0.619000000000000439,-0.358569197524605143
0.620000000000000440,-0.358024122287822544
0.621000000000000441,-0.357481728928053577
0.622000000000000441,-0.356941572046890643
0.623000000000000442,-0.356403222271292286
0.624000000000000443,-0.355866265893354405
0.625000000000000444,-0.355330304515560136
0.626000000000000445,-0.354794954701460830
0.627000000000000446,-0.354259847631785529
0.628000000000000447,-0.353724628765952176
0.629000000000000448,-0.353188957508912105
0.630000000000000449,-0.352652506883331163
0.631000000000000449,-0.352114963207057596
0.632000000000000450,-0.351576025775835299
0.633000000000000451,-0.351035406551243989
0.634000000000000452,-0.350492829853797039
0.635000000000000453,-0.349948032061176195
0.636000000000000454,-0.349400761311565389
0.637000000000000455,-0.348850777212024787
0.638000000000000456,-0.348297850551867794
0.639000000000000457,-0.347741763020998074
0.640000000000000457,-0.347182306933177753
0.641000000000000458,-0.346619284954123585
0.642000000000000459,-0.346052509834468169
0.643000000000000460,-0.345481804147451665
0.644000000000000461,-0.344907000031371591
0.645000000000000462,-0.344327938936682454
0.646000000000000463,-0.343744471377723182
0.647000000000000464,-0.343156456689027112
0.648000000000000465,-0.342563762786149362
0.649000000000000465,-0.341966265930961466
0.650000000000000466,-0.341363850501378630
0.651000000000000467,-0.340756408765439833
0.652000000000000468,-0.340143840659720365
0.653000000000000469,-0.339526053571988951
0.654000000000000470,-0.338902962128102281
0.655000000000000471,-0.338274487983038885
0.656000000000000472,-0.337640559616049274
0.657000000000000473,-0.337001112129846847
0.658000000000000473,-0.336356087053824582
0.659000000000000474,-0.335705432151200800
0.660000000000000475,-0.335049101230066371
0.661000000000000476,-0.334387053958267955
0.662000000000000477,-0.333719255682099702
0.663000000000000478,-0.333045677248710814
0.664000000000000479,-0.332366294832221354
0.665000000000000480,-0.331681089763440184
0.666000000000000481,-0.330990048363210609
0.667000000000000481,-0.330293161779222744
0.668000000000000482,-0.329590425826370992
0.669000000000000483,-0.328881840830483274
0.670000000000000484,-0.328167411475456416
0.671000000000000485,-0.327447146653703169
0.672000000000000486,-0.326721059319866391
0.673000000000000487,-0.325989166347785519
0.674000000000000488,-0.325251488390595644
0.675000000000000488,-0.324508049743972293
0.676000000000000489,-0.323758878212459522
0.677000000000000490,-0.323004004978794668
0.678000000000000491,-0.322243464476236419
0.679000000000000492,-0.321477294263807500
0.680000000000000493,-0.320705534904410672
0.681000000000000494,-0.319928229845802825
0.682000000000000495,-0.319145425304320329
0.683000000000000496,-0.318357170151379154
0.684000000000000496,-0.317563515802634644
0.685000000000000497,-0.316764516109813932
0.686000000000000498,-0.315960227255139725
0.687000000000000499,-0.315150707648306827
0.688000000000000500,-0.314336017825977421
0.689000000000000501,-0.313516220353741770
0.690000000000000502,-0.312691379730513197
0.691000000000000503,-0.311861562295288275
0.692000000000000504,-0.311026836136254481
0.693000000000000504,-0.310187271002211218
0.694000000000000505,-0.309342938216205232
0.695000000000000506,-0.308493910591434828
0.696000000000000507,-0.307640262349281546
0.697000000000000508,-0.306782069039497174
0.698000000000000509,-0.305919407462487247
0.699000000000000510,-0.305052355593640412
0.700000000000000511,-0.304180992509674619
0.701000000000000512,-0.303305398316969566
0.702000000000000512,-0.302425654081826478
0.703000000000000513,-0.301541841762645979
0.704000000000000514,-0.300654044143959354
0.705000000000000515,-0.299762344772295686
0.706000000000000516,-0.298866827893840448
0.707000000000000517,-0.297967578393863120
0.708000000000000518,-0.297064681737840730
0.709000000000000519,-0.296158223914319840
0.710000000000000520,-0.295248291379374805
0.711000000000000520,-0.294334971002741974
0.712000000000000521,-0.293418350015511087
0.713000000000000522,-0.292498515959378036
0.714000000000000523,-0.291575556637443167
0.715000000000000524,-0.290649560066466972
0.716000000000000525,-0.289720614430636403
0.717000000000000526,-0.288788808036713585
0.718000000000000527,-0.287854229270624540
0.719000000000000528,-0.286916966555392672
0.720000000000000528,-0.285977108310453088
0.721000000000000529,-0.285034742912222083
0.722000000000000530,-0.284089958656023212
0.723000000000000531,-0.283142843719214332
0.724000000000000532,-0.282193486125575488
0.725000000000000533,-0.281241973710904536
0.726000000000000534,-0.280288394089761528
0.727000000000000535,-0.279332834623401693
0.728000000000000536,-0.278375382388802051
0.729000000000000536,-0.277416124148811671
0.730000000000000537,-0.276455146323372758
0.731000000000000538,-0.275492534961779056
0.732000000000000539,-0.274528375715985540
0.733000000000000540,-0.273562753814903858
0.734000000000000541,-0.272595754039687777
0.735000000000000542,-0.271627460699968515
0.736000000000000543,-0.270657957611041389
0.737000000000000544,-0.269687328071946286
0.738000000000000544,-0.268715654844461249
0.739000000000000545,-0.267743020132947651
0.740000000000000546,-0.266769505565059573
0.741000000000000547,-0.265795192173266304
0.742000000000000548,-0.264820160377227387
0.743000000000000549,-0.263844489966887585
0.744000000000000550,-0.262868260086403016
0.745000000000000551,-0.261891549218794872
0.746000000000000552,-0.260914435171330339
0.747000000000000552,-0.259936995061639364
0.748000000000000553,-0.258959305304498066
0.749000000000000554,-0.257981441599316519
0.750000000000000555,-0.257003478918279959
0.751000000000000556,-0.256025491495121382
0.752000000000000557,-0.255047552814556433
0.753000000000000558,-0.254069735602276858
0.754000000000000559,-0.253092111815595211
0.755000000000000560,-0.252114752634629236
0.756000000000000560,-0.251137728454076115
0.757000000000000561,-0.250161108875515181
0.758000000000000562,-0.249184962700251311
0.759000000000000563,-0.248209357922695217
0.760000000000000564,-0.247234361724223722
0.761000000000000565,-0.246260040467547764
0.762000000000000566,-0.245286459691553743
0.763000000000000567,-0.244313684106606477
0.764000000000000568,-0.243341777590305230
0.765000000000000568,-0.242370803183688421
0.766000000000000569,-0.241400823087840999
0.767000000000000570,-0.240431898660945942
0.768000000000000571,-0.239464090415698300
0.769000000000000572,-0.238497458017154690
0.770000000000000573,-0.237532060280916779
0.771000000000000574,-0.236567955171717553
0.772000000000000575,-0.235605199802337351
0.773000000000000576,-0.234643850432875445
0.774000000000000576,-0.233683962470355416
0.775000000000000577,-0.232725590468657595
0.776000000000000578,-0.231768788128746683
0.777000000000000579,-0.230813608299235973
0.778000000000000580,-0.229860102977206798
0.779000000000000581,-0.228908323309344242
0.780000000000000582,-0.227958319593319553
0.781000000000000583,-0.227010141279469613
0.782000000000000584,-0.226063836972705989
0.783000000000000584,-0.225119454434679206
0.784000000000000585,-0.224177040586195447
0.785000000000000586,-0.223236641509842848
0.786000000000000587,-0.222298302452860141
0.787000000000000588,-0.221362067830212089
0.788000000000000589,-0.220427981227857867
0.789000000000000590,-0.219496085406256286
0.790000000000000591,-0.218566422304020819
0.791000000000000592,-0.217639033041787139
0.792000000000000592,-0.216713957926249146
0.793000000000000593,-0.215791236454364987
0.794000000000000594,-0.214870907317725790
0.795000000000000595,-0.213953008407100576
0.796000000000000596,-0.213037576817088847
0.797000000000000597,-0.212124648850973319
0.798000000000000598,-0.211214260025667983
0.799000000000000599,-0.210306445076816562
0.800000000000000600,-0.209401237964023712
0.801000000000000600,-0.208498671876188812
0.802000000000000601,-0.207598779236973480
0.803000000000000602,-0.206701591710365090
0.804000000000000603,-0.205807140206360428
0.805000000000000604,-0.204915454886739651
0.806000000000000605,-0.204026565170921381
0.807000000000000606,-0.203140499741944869
0.808000000000000607,-0.202257286552498083
0.809000000000000608,-0.201376952831042955
0.810000000000000608,-0.200499525088035174
0.811000000000000609,-0.199625029122168007
0.812000000000000610,-0.198753490026739199
0.813000000000000611,-0.197884932196032343
0.814000000000000612,-0.197019379331790340
0.815000000000000613,-0.196156854449738738
0.816000000000000614,-0.195297379886134576
0.817000000000000615,-0.194440977304396995
0.818000000000000616,-0.193587667701767441
0.819000000000000616,-0.192737471416002115
0.820000000000000617,-0.191890408132109169
0.821000000000000618,-0.191046496889121620
0.822000000000000619,-0.190205756086905042
0.823000000000000620,-0.189368203492975257
0.824000000000000621,-0.188533856249348875
0.825000000000000622,-0.187702730879426127
0.826000000000000623,-0.186874843294874832
0.827000000000000624,-0.186050208802540362
0.828000000000000624,-0.185228842111366671
0.829000000000000625,-0.184410757339314391
0.830000000000000626,-0.183595968020312694
0.831000000000000627,-0.182784487111189053
0.832000000000000628,-0.181976326998628035
0.833000000000000629,-0.181171499506098288
0.834000000000000630,-0.180370015900806840
0.835000000000000631,-0.179571886900636024
0.836000000000000631,-0.178777122681072320
0.837000000000000632,-0.177985732882137870
0.838000000000000633,-0.177197726615291540
0.839000000000000634,-0.176413112470339806
0.840000000000000635,-0.175631898522325997
0.841000000000000636,-0.174854092338388251
0.842000000000000637,-0.174079700984632796
0.843000000000000638,-0.173308731032950358
0.844000000000000639,-0.172541188567840675
0.845000000000000639,-0.171777079193199012
0.846000000000000640,-0.171016408039080414
0.847000000000000641,-0.170259179768453617
0.848000000000000642,-0.169505398583901457
0.849000000000000643,-0.168755068234309358
0.850000000000000644,-0.168008192021541297
0.851000000000000645,-0.167264772807035889
0.852000000000000646,-0.166524813018427087
0.853000000000000647,-0.165788314656094921
0.854000000000000647,-0.165055279299689217
0.855000000000000648,-0.164325708114628793
0.856000000000000649,-0.163599601858556487
0.857000000000000650,-0.162876960887760575
0.858000000000000651,-0.162157785163545815
0.859000000000000652,-0.161442074258582785
0.860000000000000653,-0.160729827363214617
0.861000000000000654,-0.160021043291703191
0.862000000000000655,-0.159315720488469981
0.863000000000000655,-0.158613857034251321
0.864000000000000656,-0.157915450652253514
0.865000000000000657,-0.157220498714227441
0.866000000000000658,-0.156528998246526774
0.867000000000000659,-0.155840945936112113
0.868000000000000660,-0.155156338136496375
0.869000000000000661,-0.154475170873664303
0.870000000000000662,-0.153797439851935003
0.871000000000000663,-0.153123140459786727
0.872000000000000663,-0.152452267775616018
0.873000000000000664,-0.151784816573469372
0.874000000000000665,-0.151120781328713566
0.875000000000000666,-0.150460156223667180
0.876000000000000667,-0.149802935153172945
0.877000000000000668,-0.149149111730127071
0.878000000000000669,-0.148498679290965968
0.879000000000000670,-0.147851630901082026
0.880000000000000671,-0.147207959360218632
0.881000000000000671,-0.146567657207783753
0.882000000000000672,-0.145930716728143617
0.883000000000000673,-0.145297129955841153
0.884000000000000674,-0.144666888680781203
0.885000000000000675,-0.144039984453349701
0.886000000000000676,-0.143416408589498473
0.887000000000000677,-0.142796152175766966
0.888000000000000678,-0.142179206074249109
0.889000000000000679,-0.141565560927529310
0.890000000000000679,-0.140955207163543317
0.891000000000000680,-0.140348135000407853
0.892000000000000681,-0.139744334451184782
0.893000000000000682,-0.139143795328598330
0.894000000000000683,-0.138546507249700773
0.895000000000000684,-0.137952459640496017
0.896000000000000685,-0.137361641740496476
0.897000000000000686,-0.136774042607237523
0.898000000000000687,-0.136189651120747018
0.899000000000000687,-0.135608455987946908
0.900000000000000688,-0.135030445747021111
0.901000000000000689,-0.134455608771719165
0.902000000000000690,-0.133883933275626366
0.903000000000000691,-0.133315407316363016
0.904000000000000692,-0.132750018799748404
0.905000000000000693,-0.132187755483905794
0.906000000000000694,-0.131628604983328984
0.907000000000000695,-0.131072554772877548
0.908000000000000695,-0.130519592191755934
0.909000000000000696,-0.129969704447401774
0.910000000000000697,-0.129422878619366799
0.911000000000000698,-0.128879101663113504
0.912000000000000699,-0.128338360413784797
0.913000000000000700,-0.127800641589926961
0.914000000000000701,-0.127265931797134690
0.915000000000000702,-0.126734217531692284
0.916000000000000703,-0.126205485184130384
0.917000000000000703,-0.125679721042755849
0.918000000000000704,-0.125156911297123363
0.919000000000000705,-0.124637042041464044
0.920000000000000706,-0.124120099278075019
0.921000000000000707,-0.123606068920644324
0.922000000000000708,-0.123094936797545199
0.923000000000000709,-0.122586688655087733
0.924000000000000710,-0.122081310160701312
0.925000000000000711,-0.121578786906100647
0.926000000000000711,-0.121079104410386523
0.927000000000000712,-0.120582248123112620
0.928000000000000713,-0.120088203427301130
0.929000000000000714,-0.119596955642424646
0.930000000000000715,-0.119108490027329109
0.931000000000000716,-0.118622791783121698
0.932000000000000717,-0.118139846056027148
0.933000000000000718,-0.117659637940173048
0.934000000000000719,-0.117182152480363039
0.935000000000000719,-0.116707374674789574
0.936000000000000720,-0.116235289477708781
0.937000000000000721,-0.115765881802072229
0.938000000000000722,-0.115299136522132709
0.939000000000000723,-0.114835038475979728
0.940000000000000724,-0.114373572468066717
0.941000000000000725,-0.113914723271671736
0.942000000000000726,-0.113458475631342620
0.943000000000000727,-0.113004814265276046
0.944000000000000727,-0.112553723867684252
0.945000000000000728,-0.112105189111110823
0.946000000000000729,-0.111659194648692922
0.947000000000000730,-0.111215725116422082
0.948000000000000731,-0.110774765135327649
0.949000000000000732,-0.110336299313658112
0.950000000000000733,-0.109900312248991702
0.951000000000000734,-0.109466788530349746
0.952000000000000735,-0.109035712740233562
0.953000000000000735,-0.108607069456648150
0.954000000000000736,-0.108180843255092723
0.955000000000000737,-0.107757018710504984
0.956000000000000738,-0.107335580399177372
0.957000000000000739,-0.106916512900635891
0.958000000000000740,-0.106499800799487065
0.959000000000000741,-0.106085428687228409
0.960000000000000742,-0.105673381164033270
0.961000000000000743,-0.105263642840489946
0.962000000000000743,-0.104856198339317808
0.963000000000000744,-0.104451032297046192
0.964000000000000745,-0.104048129365673842
0.965000000000000746,-0.103647474214273602
0.966000000000000747,-0.103249051530586611
0.967000000000000748,-0.102852846022571054
0.968000000000000749,-0.102458842419940591
0.969000000000000750,-0.102067025475641948
0.970000000000000751,-0.101677379967339568
0.971000000000000751,-0.101289890698832069
0.972000000000000752,-0.100904542501464148
0.973000000000000753,-0.100521320235518852
0.974000000000000754,-0.100140208791544991
0.975000000000000755,-0.099761193091692874
0.976000000000000756,-0.099384258091001376
0.977000000000000757,-0.099009388778665802
0.978000000000000758,-0.098636570179269550
0.979000000000000759,-0.098265787354013409
0.980000000000000759,-0.097897025401876253
0.981000000000000760,-0.097530269460789645
0.982000000000000761,-0.097165504708773970
0.983000000000000762,-0.096802716365033875
0.984000000000000763,-0.096441889691044322
0.985000000000000764,-0.096083009991616120
0.986000000000000765,-0.095726062615918775
0.987000000000000766,-0.095371032958491156
0.988000000000000766,-0.095017906460225926
0.989000000000000767,-0.094666668609336840
0.990000000000000768,-0.094317304942291624
0.991000000000000769,-0.093969801044719262
0.992000000000000770,-0.093624142552309469
0.993000000000000771,-0.093280315151686652
0.994000000000000772,-0.092938304581242637
0.995000000000000773,-0.092598096631976795
0.996000000000000774,-0.092259677148288421
0.997000000000000774,-0.091923032028764756
0.998000000000000775,-0.091588147226941766
0.999000000000000776,-0.091255008752042024
1.000000000000000666,-0.090923602669697345
1.001000000000000778,-0.090593915102649775
1.002000000000000668,-0.090265932231428481
1.003000000000000780,-0.089939640295011933
1.004000000000000670,-0.089615025591467640
1.005000000000000782,-0.089292074478580258
1.006000000000000671,-0.088970773374451334
1.007000000000000783,-0.088651108758078120
1.008000000000000673,-0.088333067169930529
1.009000000000000785,-0.088016635212496336
1.010000000000000675,-0.087701799550809492
1.011000000000000787,-0.087388546912963300
1.012000000000000677,-0.087076864090614936
1.013000000000000789,-0.086766737939458757
1.014000000000000679,-0.086458155379683072
1.015000000000000790,-0.086151103396430617
1.016000000000000680,-0.085845569040220740
1.017000000000000792,-0.085541539427361077
1.018000000000000682,-0.085239001740353579
1.019000000000000794,-0.084937943228268711
1.020000000000000684,-0.084638351207123971
1.021000000000000796,-0.084340213060229360
1.022000000000000686,-0.084043516238524685
1.023000000000000798,-0.083748248260911540
1.024000000000000687,-0.083454396714551099
1.025000000000000799,-0.083161949255168802
1.026000000000000689,-0.082870893607333018
1.027000000000000801,-0.082581217564721393
1.028000000000000691,-0.082292908990376640
1.029000000000000803,-0.082005955816949361
1.030000000000000693,-0.081720346046918871
1.031000000000000805,-0.081436067752823388
1.032000000000000695,-0.081153109077444038
1.033000000000000806,-0.080871458234014745
1.034000000000000696,-0.080591103506388359
1.035000000000000808,-0.080312033249203357
1.036000000000000698,-0.080034235888041941
1.037000000000000810,-0.079757699919584216
1.038000000000000700,-0.079482413911715427
1.039000000000000812,-0.079208366503667221
1.040000000000000702,-0.078935546406121743
1.041000000000000814,-0.078663942401313830
1.042000000000000703,-0.078393543343105998
1.043000000000000815,-0.078124338157085610
1.044000000000000705,-0.077856315840624274
1.045000000000000817,-0.077589465462929358
1.046000000000000707,-0.077323776165104774
1.047000000000000819,-0.077059237160184618
1.048000000000000709,-0.076795837733155028
1.049000000000000821,-0.076533567240988240
1.050000000000000711,-0.076272415112636174
1.051000000000000822,-0.076012370849050520
1.052000000000000712,-0.075753424023162222
1.053000000000000824,-0.075495564279867505
1.054000000000000714,-0.075238781336011751
1.055000000000000826,-0.074983064980346542
1.056000000000000716,-0.074728405073498344
1.057000000000000828,-0.074474791547913810
1.058000000000000718,-0.074222214407803327
1.059000000000000830,-0.073970663729080496
1.060000000000000719,-0.073720129659291297
1.061000000000000831,-0.073470602417526690
1.062000000000000721,-0.073222072294345159
1.063000000000000833,-0.072974529651680262
1.064000000000000723,-0.072727964922730565
1.065000000000000835,-0.072482368611859832
1.066000000000000725,-0.072237731294488877
1.067000000000000837,-0.071994043616955605
1.068000000000000727,-0.071751296296416370
1.069000000000000838,-0.071509480120685934
1.070000000000000728,-0.071268585948116414
1.071000000000000840,-0.071028604707446166
1.072000000000000730,-0.070789527397649210
1.073000000000000842,-0.070551345087781631
1.074000000000000732,-0.070314048916811256
1.075000000000000844,-0.070077630093460033
1.076000000000000734,-0.069842079896028059
1.077000000000000846,-0.069607389672208406
1.078000000000000735,-0.069373550838917331
1.079000000000000847,-0.069140554882091615
1.080000000000000737,-0.068908393356510028
1.081000000000000849,-0.068677057885580567
1.082000000000000739,-0.068446540161149219
1.083000000000000851,-0.068216831943287495
1.084000000000000741,-0.067987925060085885
1.085000000000000853,-0.067759811407430467
1.086000000000000743,-0.067532482948789205
1.087000000000000854,-0.067305931714985709
1.088000000000000744,-0.067080149803976460
1.089000000000000856,-0.066855129380605546
1.090000000000000746,-0.066630862676382241
1.091000000000000858,-0.066407341989238325
1.092000000000000748,-0.066184559683279937
1.093000000000000860,-0.065962508188548361
1.094000000000000750,-0.065741180000763760
1.095000000000000862,-0.065520567681075656
1.096000000000000751,-0.065300663855809599
1.097000000000000863,-0.065081461216195652
1.098000000000000753,-0.064862952518121741
1.099000000000000865,-0.064645130581859681
1.100000000000000755,-0.064427988291793303
1.101000000000000867,-0.064211518596153816
1.102000000000000757,-0.063995714506745682
1.103000000000000869,-0.063780569098669720
1.104000000000000759,-0.063566075510036263
1.105000000000000870,-0.063352226941700174
1.106000000000000760,-0.063139016656957106
1.107000000000000872,-0.062926437981275091
1.108000000000000762,-0.062714484301999912
1.109000000000000874,-0.062503149068060787
1.110000000000000764,-0.062292425789683192
1.111000000000000876,-0.062082308038090936
1.112000000000000766,-0.061872789445214037
1.113000000000000878,-0.061663863703386293
1.114000000000000767,-0.061455524565051475
1.115000000000000879,-0.061247765842452992
1.116000000000000769,-0.061040581407338743
1.117000000000000881,-0.060833965190651637
1.118000000000000771,-0.060627911182225339
1.119000000000000883,-0.060422413430477030
1.120000000000000773,-0.060217466042100133
1.121000000000000885,-0.060013063181746581
1.122000000000000774,-0.059809199071723620
1.123000000000000886,-0.059605867991674687
1.124000000000000776,-0.059403064278275908
1.125000000000000888,-0.059200782324904146
1.126000000000000778,-0.058999016581334593
1.127000000000000890,-0.058797761553425955
1.128000000000000780,-0.058597011802787327
1.129000000000000892,-0.058396761946475251
1.130000000000000782,-0.058197006656666259
1.131000000000000894,-0.057997740660338450
1.132000000000000783,-0.057798958738949913
1.133000000000000895,-0.057600655728123298
1.134000000000000785,-0.057402826517308658
1.135000000000000897,-0.057205466049482491
1.136000000000000787,-0.057008569320803379
1.137000000000000899,-0.056812131380305456
1.138000000000000789,-0.056616147329558331
1.139000000000000901,-0.056420612322363520
1.140000000000000790,-0.056225521564411851
1.141000000000000902,-0.056030870312960127
1.142000000000000792,-0.055836653876519406
1.143000000000000904,-0.055642867614515881
1.144000000000000794,-0.055449506936977276
1.145000000000000906,-0.055256567304190138
1.146000000000000796,-0.055064044226397248
1.147000000000000908,-0.054871933263453375
1.148000000000000798,-0.054680230024509634
1.149000000000000909,-0.054488930167685266
1.150000000000000799,-0.054298029399739191
1.151000000000000689,-0.054107523475750673
1.152000000000000801,-0.053917408198793239
1.153000000000000913,-0.053727679419605878
1.154000000000000803,-0.053538333036272347
1.155000000000000693,-0.053349364993892867
1.156000000000000805,-0.053160771284270089
1.157000000000000917,-0.052972547945569201
1.158000000000000806,-0.052784691062011689
1.159000000000000696,-0.052597196763540674
1.160000000000000808,-0.052410061225502715
1.161000000000000920,-0.052223280668327418
1.162000000000000810,-0.052036851357205385
1.163000000000000700,-0.051850769601761840
1.164000000000000812,-0.051665031755747305
1.165000000000000924,-0.051479634216704408
1.166000000000000814,-0.051294573425660572
1.167000000000000703,-0.051109845866802305
1.168000000000000815,-0.050925448067161573
1.169000000000000927,-0.050741376596292562
1.170000000000000817,-0.050557628065964942
1.171000000000000707,-0.050374199129834450
1.172000000000000819,-0.050191086483143209
1.173000000000000931,-0.050008286862394800
1.174000000000000821,-0.049825797045041045
1.175000000000000711,-0.049643613849176517
1.176000000000000822,-0.049461734133221039
1.177000000000000934,-0.049280154795608246
1.178000000000000824,-0.049098872774479441
1.179000000000000714,-0.048917885047368811
1.180000000000000826,-0.048737188630903525
1.181000000000000938,-0.048556780580487208
1.182000000000000828,-0.048376657989998614
1.183000000000000718,-0.048196817991485827
1.184000000000000830,-0.048017257754863575
1.185000000000000941,-0.047837974487599966
1.186000000000000831,-0.047658965434430371
1.187000000000000721,-0.047480227877039524
1.188000000000000833,-0.047301759133773894
1.189000000000000945,-0.047123556559335408
1.190000000000000835,-0.046945617544487894
1.191000000000000725,-0.046767939515747980
1.192000000000000837,-0.046590519935113393
1.193000000000000949,-0.046413356299737182
1.194000000000000838,-0.046236446141662661
1.195000000000000728,-0.046059787027508764
1.196000000000000840,-0.045883376558191372
1.197000000000000952,-0.045707212368632386
1.198000000000000842,-0.045531292127461064
1.199000000000000732,-0.045355613536742445
1.200000000000000844,-0.045180174331668703
1.201000000000000956,-0.045004972280296027
1.202000000000000846,-0.044830005183245029
1.203000000000000735,-0.044655270873427091
1.204000000000000847,-0.044480767215752288
1.205000000000000959,-0.044306492106862980
1.206000000000000849,-0.044132443474841479
1.207000000000000739,-0.043958619278937516
1.208000000000000851,-0.043785017509293409
1.209000000000000963,-0.043611636186665671
1.210000000000000853,-0.043438473362152501
1.211000000000000743,-0.043265527116919549
1.212000000000000854,-0.043092795561929312
1.213000000000000966,-0.042920276837668934
1.214000000000000856,-0.042747969113889124
1.215000000000000746,-0.042575870589322010
1.216000000000000858,-0.042403979491433832
1.217000000000000970,-0.042232294076141486
1.218000000000000860,-0.042060812627560493
1.219000000000000750,-0.041889533457741469
1.220000000000000862,-0.041718454906406077
1.221000000000000973,-0.041547575340687794
1.222000000000000863,-0.041376893154879427
1.223000000000000753,-0.041206406770166584
1.224000000000000865,-0.041036114634382483
1.225000000000000977,-0.040866015221748618
1.226000000000000867,-0.040696107032622351
1.227000000000000757,-0.040526388593247073
1.228000000000000869,-0.040356858455496733
1.229000000000000981,-0.040187515196644305
1.230000000000000870,-0.040018357419090232
1.231000000000000760,-0.039849383750135213
1.232000000000000872,-0.039680592841733732
1.233000000000000984,-0.039511983370238112
1.234000000000000874,-0.039343554036177862
1.235000000000000764,-0.039175303563999252
1.236000000000000876,-0.039007230701841401
1.237000000000000988,-0.038839334221290059
1.238000000000000878,-0.038671612917148698
1.239000000000000767,-0.038504065607197165
1.240000000000000879,-0.038336691131965618
1.241000000000000991,-0.038169488354497592
1.242000000000000881,-0.038002456160120976
1.243000000000000771,-0.037835593456222075
1.244000000000000883,-0.037668899172012028
1.245000000000000995,-0.037502372258310067
1.246000000000000885,-0.037336011687311398
1.247000000000000774,-0.037169816452364994
1.248000000000000886,-0.037003785567754972
1.249000000000000998,-0.036837918068477707
1.250000000000000888,-0.036672213010026246
1.251000000000000778,-0.036506669468166345
1.252000000000000890,-0.036341286538727660
1.253000000000001002,-0.036176063337380070
1.254000000000000892,-0.036010998999433899
1.255000000000000782,-0.035846092679613591
1.256000000000000894,-0.035681343551854344
1.257000000000001005,-0.035516750809094791
1.258000000000000895,-0.035352313663065259
1.259000000000000785,-0.035188031344080328
1.260000000000000897,-0.035023903100839450
1.261000000000001009,-0.034859928200218791
1.262000000000000899,-0.034696105927069662
1.263000000000000789,-0.034532435584017480
1.264000000000000901,-0.034368916491266964
1.265000000000001013,-0.034205547986396329
1.266000000000000902,-0.034042329424164894
1.267000000000000792,-0.033879260176319766
1.268000000000000904,-0.033716339631395968
1.269000000000001016,-0.033553567194529135
1.270000000000000906,-0.033390942287263456
1.271000000000000796,-0.033228464347359592
1.272000000000000908,-0.033066132828605113
1.273000000000001020,-0.032903947200632944
1.274000000000000909,-0.032741906948730401
1.275000000000000799,-0.032580011573653291
1.276000000000000911,-0.032418260591452350
1.277000000000001023,-0.032256653533277516
1.278000000000000913,-0.032095189945209018
1.279000000000000803,-0.031933869388072203
1.280000000000000915,-0.031772691437265667
1.281000000000001027,-0.031611655682569920
1.282000000000000917,-0.031450761727993957
1.283000000000000806,-0.031290009191582105
1.284000000000000918,-0.031129397705254212
1.285000000000001030,-0.030968926914624634
1.286000000000000920,-0.030808596478842674
1.287000000000000810,-0.030648406070410882
1.288000000000000922,-0.030488355375033756
1.289000000000001034,-0.030328444091435848
1.290000000000000924,-0.030168671931203289
1.291000000000000814,-0.030009038618627575
1.292000000000000925,-0.029849543890526777
1.293000000000001037,-0.029690187496102267
1.294000000000000927,-0.029530969196766559
1.295000000000000817,-0.029371888765989285
1.296000000000000929,-0.029212945989140239
1.297000000000001041,-0.029054140663329387
1.298000000000000931,-0.028895472597259508
1.299000000000000821,-0.028736941611067147
1.300000000000000933,-0.028578547536168186
1.301000000000001044,-0.028420290215113442
1.302000000000000934,-0.028262169501432087
1.303000000000000824,-0.028104185259491044
1.304000000000000936,-0.027946337364334002
1.305000000000001048,-0.027788625701551255
1.306000000000000938,-0.027631050167126081
1.307000000000000828,-0.027473610667286697
1.308000000000000940,-0.027316307118370485
1.309000000000001052,-0.027159139446683946
1.310000000000000941,-0.027002107588356659
1.311000000000000831,-0.026845211489202513
1.312000000000000943,-0.026688451104580825
1.313000000000001055,-0.026531826399271839
1.314000000000000945,-0.026375337347323023
1.315000000000000835,-0.026218983931922901
1.316000000000000947,-0.026062766145269912
1.317000000000001059,-0.025906683988439001
1.318000000000000949,-0.025750737471242190
1.319000000000000838,-0.025594926612113444
1.320000000000000950,-0.025439251437968748
1.321000000000001062,-0.025283711984077306
1.322000000000000952,-0.025128308293943996
1.323000000000000842,-0.024973040419175287
1.324000000000000954,-0.024817908419361302
1.325000000000001066,-0.024662912361942124
1.326000000000000956,-0.024508052322101563
1.327000000000000846,-0.024353328382628155
1.328000000000000957,-0.024198740633810469
1.329000000000001069,-0.024044289173304551
1.330000000000000959,-0.023889974106028788
1.331000000000000849,-0.023735795544037586
1.332000000000000961,-0.023581753606406384
1.333000000000001073,-0.023427848419119653
1.334000000000000963,-0.023274080114959090
1.335000000000000853,-0.023120448833382410
1.336000000000000965,-0.022966954720422327
1.337000000000001076,-0.022813597928567009
1.338000000000000966,-0.022660378616653060
1.339000000000000856,-0.022507296949761207
1.340000000000000968,-0.022354353099100437
1.341000000000001080,-0.022201547241906490
1.342000000000000970,-0.022048879561336270
1.343000000000000860,-0.021896350246359709
1.344000000000000972,-0.021743959491658547
1.345000000000001084,-0.021591707497527222
1.346000000000000973,-0.021439594469760053
1.347000000000000863,-0.021287620619562464
1.348000000000000975,-0.021135786163440504
1.349000000000001087,-0.020984091323110788
1.350000000000000977,-0.020832536325397995
1.351000000000000867,-0.020681121402139659
1.352000000000000979,-0.020529846790081917
1.353000000000001091,-0.020378712730798946
1.354000000000000981,-0.020227719470589510
1.355000000000000870,-0.020076867260379060
1.356000000000000982,-0.019926156355637856
1.357000000000001094,-0.019775587016285009
1.358000000000000984,-0.019625159506593187
1.359000000000000874,-0.019474874095105073
1.360000000000000986,-0.019324731054540994
1.361000000000001098,-0.019174730661715593
1.362000000000000988,-0.019024873197441616
1.363000000000000878,-0.018875158946450456
1.364000000000000989,-0.018725588197310242
1.365000000000001101,-0.018576161242330018
1.366000000000000991,-0.018426878377483781
1.367000000000000881,-0.018277739902327755
1.368000000000000993,-0.018128746119916311
1.369000000000001105,-0.017979897336720462
1.370000000000000995,-0.017831193862547504
1.371000000000000885,-0.017682636010463069
1.372000000000000997,-0.017534224096710710
1.373000000000001108,-0.017385958440638994
1.374000000000000998,-0.017237839364608577
1.375000000000000888,-0.017089867193940990
1.376000000000001000,-0.016942042256821260
1.377000000000001112,-0.016794364884233942
1.378000000000001002,-0.016646835409885870
1.379000000000000892,-0.016499454170134233
1.380000000000001004,-0.016352221503912558
1.381000000000001116,-0.016205137752663627
1.382000000000001005,-0.016058203260260851
1.383000000000000895,-0.015911418372944502
1.384000000000001007,-0.015764783439251116
1.385000000000001119,-0.015618298809943009
1.386000000000001009,-0.015471964837943695
1.387000000000000899,-0.015325781878261852
1.388000000000001011,-0.015179750287944254
1.389000000000001123,-0.015033870425985488
1.390000000000001013,-0.014888142653281301
1.391000000000000902,-0.014742567332556250
1.392000000000001014,-0.014597144828302225
1.393000000000001126,-0.014451875506715273
1.394000000000001016,-0.014306759735635916
1.395000000000000906,-0.014161797884484456
1.396000000000001018,-0.014016990324198255
1.397000000000001130,-0.013872337427177977
1.398000000000001020,-0.013727839567226108
1.399000000000000909,-0.013583497119483982
1.400000000000001021,-0.013439310460378023
1.401000000000001133,-0.013295279967563287
1.402000000000001023,-0.013151406019862847
1.403000000000000913,-0.013007688997212283
1.404000000000001025,-0.012864129280608849
1.405000000000001137,-0.012720727252051627
1.406000000000001027,-0.012577483294487459
1.407000000000000917,-0.012434397791766858
1.408000000000001029,-0.012291471128572873
1.409000000000001140,-0.012148703690388642
1.410000000000001030,-0.012006095863432497
1.411000000000000920,-0.011863648034612363
1.412000000000001032,-0.011721360591471957
1.413000000000001144,-0.011579233922147986
1.414000000000001034,-0.011437268415312686
1.415000000000000924,-0.011295464460127806
1.416000000000001036,-0.011153822446200756
1.417000000000001148,-0.011012342763535094
1.418000000000001037,-0.010871025802478765
1.419000000000000927,-0.010729871953683887
1.420000000000001039,-0.010588881608057049
1.421000000000001151,-0.010448055156720214
1.422000000000001041,-0.010307392990958775
1.423000000000000931,-0.010166895502181817
1.424000000000001043,-0.010026563081877379
1.425000000000001155,-0.009886396121570733
1.426000000000001044,-0.009746395012780067
1.427000000000000934,-0.009606560146978244
1.428000000000001046,-0.009466891915547646
1.429000000000001158,-0.009327390709738899
1.430000000000001048,-0.009188056920637714
1.431000000000000938,-0.009048890939115062
1.432000000000001050,-0.008909893155796845
1.433000000000001162,-0.008771063961021109
1.434000000000001052,-0.008632403744797477
1.435000000000000941,-0.008493912896777688
1.436000000000001053,-0.008355591806208925
1.437000000000001165,-0.008217440861900276
1.438000000000001055,-0.008079460452194273
1.439000000000000945,-0.007941650964919661
1.440000000000001057,-0.007804012787364323
1.441000000000001169,-0.007666546306232942
1.442000000000001059,-0.007529251907620130
1.443000000000000949,-0.007392129976977880
1.444000000000001060,-0.007255180899073873
1.445000000000001172,-0.007118405057961415
1.446000000000001062,-0.006981802836956988
1.447000000000000952,-0.006845374618591119
1.448000000000001064,-0.006709120784591793
1.449000000000001176,-0.006573041715848509
1.450000000000001066,-0.006437137792377039
1.451000000000000956,-0.006301409393295275
1.452000000000001068,-0.006165856896793010
1.453000000000001180,-0.006030480680099143
1.454000000000001069,-0.005895281119456040
1.455000000000000959,-0.005760258590091626
1.456000000000001071,-0.005625413466184686
1.457000000000001183,-0.005490746120850853
1.458000000000001073,-0.005356256926101951
1.459000000000000963,-0.005221946252824679
1.460000000000001075,-0.005087814470755763
1.461000000000001187,-0.004953861948451486
1.462000000000001076,-0.004820089053272493
1.463000000000000966,-0.004686496151343869
1.464000000000001078,-0.004553083607539164
1.465000000000001190,-0.004419851785461073
1.466000000000001080,-0.004286801047402125
1.467000000000000970,-0.004153931754336999
1.468000000000001082,-0.004021244265891254
1.469000000000001194,-0.003888738940317558
1.470000000000001084,-0.003756416134478212
1.471000000000000973,-0.003624276203816988
1.472000000000001085,-0.003492319502346664
1.473000000000001197,-0.003360546382617040
1.474000000000001087,-0.003228957195701224
1.475000000000000977,-0.003097552291169237
1.476000000000001089,-0.002966332017075890
1.477000000000001201,-0.002835296719933845
1.478000000000001091,-0.002704446744694901
1.479000000000000981,-0.002573782434734879
1.480000000000001092,-0.002443304131828173
1.481000000000001204,-0.002313012176135979
1.482000000000001094,-0.002182906906182995
1.483000000000000984,-0.002052988658844556
1.484000000000001096,-0.001923257769324289
1.485000000000001208,-0.001793714571134468
1.486000000000001098,-0.001664359396090261
1.487000000000000988,-0.001535192574281927
1.488000000000001100,-0.001406214434060365
1.489000000000001211,-0.001277425302027902
1.490000000000001101,-0.001148825503015573
1.491000000000000991,-0.001020415360068568
1.492000000000001103,-0.000892195194436637
1.493000000000001215,-0.000764165325552690
1.494000000000001105,-0.000636326071019650
1.495000000000000995,-0.000508677746599569
1.496000000000001107,-0.000381220666197344
1.497000000000001219,-0.000253955141846053
1.498000000000001108,-0.000126881483696771
1.499000000000000998,0.000000000000000000
