# AlFCC100UCD_GLY-AC
# h[nm],U(h)[kJ/mol]
0.149999999999999994,135.916130841672440965
0.150999999999999995,134.408970127668993655
0.151999999999999996,130.597354970354530224
0.152999999999999997,126.332175541044875899
0.153999999999999998,122.336111858390424345
0.154999999999999999,118.774343681351709279
0.156000000000000000,115.575327968445805027
0.157000000000000001,112.599422406605157221
0.158000000000000002,109.718120248977314191
0.159000000000000002,106.843345359207688716
0.160000000000000003,103.930936008525890202
0.161000000000000004,100.972543124572055717
0.162000000000000005,97.983897843287380169
0.163000000000000006,94.993536700152546359
0.164000000000000007,92.033773456485192810
0.165000000000000008,89.134409076700265473
0.166000000000000009,86.318998455405221648
0.167000000000000010,83.603195898616419868
0.168000000000000010,80.994620652589020438
0.169000000000000011,78.493717609580158978
0.170000000000000012,76.095174636884763686
0.171000000000000013,73.789560388433002913
0.172000000000000014,71.564945034682608593
0.173000000000000015,69.408351413920044592
0.174000000000000016,67.306952155851064390
0.175000000000000017,65.248979344221453402
0.176000000000000018,63.224349063327295539
0.177000000000000018,61.225026273100787932
0.178000000000000019,59.245168591434833161
0.179000000000000020,57.281093260900675546
0.180000000000000021,55.331112027899848727
0.181000000000000022,53.395275656564898270
0.182000000000000023,51.475064738175682066
0.183000000000000024,49.573057388766784470
0.184000000000000025,47.692598103399063802
0.185000000000000026,45.837485962575676979
0.186000000000000026,44.011694881412815050
0.187000000000000027,42.219133828534040731
0.188000000000000028,40.463450987836736772
0.189000000000000029,38.747882688310163246
0.190000000000000030,37.075145533558647060
0.191000000000000031,35.447368443935800997
0.192000000000000032,33.866060186460153147
0.193000000000000033,32.332107313177615993
0.194000000000000034,30.845797162421114024
0.195000000000000034,29.406860611735417876
0.196000000000000035,28.014529528033072836
0.197000000000000036,26.667604272581417746
0.198000000000000037,25.364527129455211707
0.199000000000000038,24.103458090428762972
0.200000000000000039,22.882350010913143024
0.201000000000000040,21.699020723062620419
0.202000000000000041,20.551220233609790000
0.203000000000000042,19.436691631636989541
0.204000000000000042,18.353224776791435602
0.205000000000000043,17.298702226975816387
0.206000000000000044,16.271137195069155013
0.207000000000000045,15.268703597967322239
0.208000000000000046,14.289758481131670464
0.209000000000000047,13.332857272055942843
0.210000000000000048,12.396762441501055108
0.211000000000000049,11.480446237287710076
0.212000000000000050,10.583088207257793201
0.213000000000000050,9.704068251001073619
0.214000000000000051,8.842955939109149455
0.215000000000000052,7.999496818727398484
0.216000000000000053,7.173596389260966433
0.217000000000000054,6.365302386025630810
0.218000000000000055,5.574785955723692510
0.219000000000000056,4.802322248708981611
0.220000000000000057,4.048270891477408817
0.221000000000000058,3.313056740670899725
0.222000000000000058,2.597151258706208221
0.223000000000000059,1.901054792209718958
0.224000000000000060,1.225279978706798945
0.225000000000000061,0.570336455180609492
0.226000000000000062,-0.063283005349819635
0.227000000000000063,-0.675114845901037208
0.228000000000000064,-1.264735520963833348
0.229000000000000065,-1.831770723319358085
0.230000000000000066,-2.375903058885867836
0.231000000000000066,-2.896878210439874923
0.232000000000000067,-3.394509651040939158
0.233000000000000068,-3.868681984067090518
0.234000000000000069,-4.319352999256658165
0.235000000000000070,-4.746554543390701930
0.236000000000000071,-5.150392310578634003
0.237000000000000072,-5.531044660868832175
0.238000000000000073,-5.888760577423754583
0.239000000000000073,-6.223856872090736125
0.240000000000000074,-6.536714747165278894
0.241000000000000075,-6.827775817755897592
0.242000000000000076,-7.097537694677095388
0.243000000000000077,-7.346549222450056149
0.244000000000000078,-7.575405460989220963
0.245000000000000079,-7.784742493081817649
0.246000000000000080,-7.975232132992955414
0.247000000000000081,-8.147576604592488891
0.248000000000000081,-8.302503250425102621
0.249000000000000082,-8.440759326236541682
0.250000000000000111,-8.563106928714022459
0.251000000000000112,-8.670318097668545221
0.252000000000000113,-8.763170127639735796
0.253000000000000114,-8.842441117982007270
0.254000000000000115,-8.908905784931103966
0.255000000000000115,-8.963331553971418231
0.256000000000000116,-9.006474946045113228
0.257000000000000117,-9.039078266768113323
0.258000000000000118,-9.061866603847047230
0.259000000000000119,-9.075545134320542218
0.260000000000000120,-9.080796740067965445
0.261000000000000121,-9.078279927225029411
0.262000000000000122,-9.068627042704502372
0.263000000000000123,-9.052442778921010458
0.264000000000000123,-9.030302956043982476
0.265000000000000124,-9.002753569628925590
0.266000000000000125,-8.970310090285371629
0.267000000000000126,-8.933457001104873285
0.268000000000000127,-8.892647557875678288
0.269000000000000128,-8.848303756627755590
0.270000000000000129,-8.800816492763418708
0.271000000000000130,-8.750545895913212746
0.272000000000000131,-8.697821824695505910
0.273000000000000131,-8.642944505731275484
0.274000000000000132,-8.586185301556792382
0.275000000000000133,-8.527787592468808242
0.276000000000000134,-8.467967757813777752
0.277000000000000135,-8.406916242781372617
0.278000000000000136,-8.344798697368867479
0.279000000000000137,-8.281757174834963209
0.280000000000000138,-8.217911377649198101
0.281000000000000139,-8.153359939654738042
0.282000000000000139,-8.088181733890888125
0.283000000000000140,-8.022437196257666159
0.284000000000000141,-7.956169655942086472
0.285000000000000142,-7.889406664257997193
0.286000000000000143,-7.822161314272986665
0.287000000000000144,-7.754433544301891246
0.288000000000000145,-7.686211419034519210
0.289000000000000146,-7.617472382729358671
0.290000000000000147,-7.548184479545605896
0.291000000000000147,-7.478307536697866631
0.292000000000000148,-7.407794306701998899
0.293000000000000149,-7.336591565533720605
0.294000000000000150,-7.264641164044020272
0.295000000000000151,-7.191881030466359626
0.296000000000000152,-7.118246122309441759
0.297000000000000153,-7.043669326356988059
0.298000000000000154,-6.968082305891540429
0.299000000000000155,-6.891416294624638894
0.300000000000000155,-6.813602837150606106
0.301000000000000156,-6.734574476046479852
0.302000000000000157,-6.654265386018039408
0.303000000000000158,-6.572611955741452405
0.304000000000000159,-6.489553318273943994
0.305000000000000160,-6.405031831105032936
0.306000000000000161,-6.318993507095157725
0.307000000000000162,-6.231388397700615478
0.308000000000000163,-6.142170930014687613
0.309000000000000163,-6.051300199266322899
0.310000000000000164,-5.958740218510026665
0.311000000000000165,-5.864460127315643589
0.312000000000000166,-5.768434361326060689
0.313000000000000167,-5.670642784594550179
0.314000000000000168,-5.571070786643968376
0.315000000000000169,-5.469709346207699774
0.316000000000000170,-5.366555063618502430
0.317000000000000171,-5.261610163807135976
0.318000000000000171,-5.154882471859019155
0.319000000000000172,-5.046385363055028606
0.320000000000000173,-4.936137689293056852
0.321000000000000174,-4.824163683750251508
0.322000000000000175,-4.710492845604013823
0.323000000000000176,-4.595159806582286066
0.324000000000000177,-4.478204181061956390
0.325000000000000178,-4.359670401378810567
0.326000000000000179,-4.239607539953988535
0.327000000000000179,-4.118069119780703780
0.328000000000000180,-3.995112914751882016
0.329000000000000181,-3.870800741245351784
0.330000000000000182,-3.745198242316654991
0.331000000000000183,-3.618374665784412691
0.332000000000000184,-3.490402637425825905
0.333000000000000185,-3.361357930433949370
0.334000000000000186,-3.231319232222200633
0.335000000000000187,-3.100367909596127625
0.336000000000000187,-2.968587773248115180
0.337000000000000188,-2.836064842467143965
0.338000000000000189,-2.702887110893896772
0.339000000000000190,-2.569144314090666903
0.340000000000000191,-2.434927699636554532
0.341000000000000192,-2.300329800401518021
0.342000000000000193,-2.165444211596703195
0.343000000000000194,-2.030365372145799707
0.344000000000000195,-1.895188350869807525
0.345000000000000195,-1.760008637928716313
0.346000000000000196,-1.624921941915722146
0.347000000000000197,-1.490023992954359278
0.348000000000000198,-1.355410352105756111
0.349000000000000199,-1.221176227351735033
0.350000000000000200,-1.087416296380808944
0.351000000000000201,-0.954224536366607645
0.352000000000000202,-0.821694060893709777
0.353000000000000203,-0.689916964152718082
0.354000000000000203,-0.558984172495298304
0.355000000000000204,-0.428985303411142493
0.356000000000000205,-0.300008531961472813
0.357000000000000206,-0.172140464678400440
0.358000000000000207,-0.045466020915963669
0.359000000000000208,0.079931678383133059
0.360000000000000209,0.203971414561163578
0.361000000000000210,0.326573967834095924
0.362000000000000210,0.447662206686936348
0.363000000000000211,0.567161170182768348
0.364000000000000212,0.684998143306599916
0.365000000000000213,0.801102725477846889
0.366000000000000214,0.915406892376608106
0.367000000000000215,1.027845051239095753
0.368000000000000216,1.138354089786456358
0.369000000000000217,1.246873418959207003
0.370000000000000218,1.353345009636151675
0.371000000000000218,1.457713423522567719
0.372000000000000219,1.559925838397193232
0.373000000000000220,1.659932067911620290
0.374000000000000221,1.757684576138678567
0.375000000000000222,1.853138487068967333
0.376000000000000223,1.946251589256081882
0.377000000000000224,2.036984335812273450
0.378000000000000225,2.125299839956317882
0.379000000000000226,2.211163866315433602
0.380000000000000226,2.294544818181947221
0.381000000000000227,2.375413720924410832
0.382000000000000228,2.453744201750893694
0.383000000000000229,2.529512466020037653
0.384000000000000230,2.602697270293095944
0.385000000000000231,2.673279892316922091
0.386000000000000232,2.741244098124993478
0.387000000000000233,2.806576106439881535
0.388000000000000234,2.869264550556891891
0.389000000000000234,2.929300437884529984
0.390000000000000235,2.986677107313563617
0.391000000000000236,3.041390184581675538
0.392000000000000237,3.093437535796753401
0.393000000000000238,3.142819219276808074
0.394000000000000239,3.189537435860104075
0.395000000000000240,3.233596477834222327
0.396000000000000241,3.275002676627912557
0.397000000000000242,3.313764349404748621
0.398000000000000242,3.349891744692679030
0.399000000000000243,3.383396987178607596
0.400000000000000244,3.414294021792412259
0.401000000000000245,3.442598557199441522
0.402000000000000246,3.468328008816244701
0.403000000000000247,3.491501441458959132
0.404000000000000248,3.512139511729232222
0.405000000000000249,3.530264410237669015
0.406000000000000250,3.545899803760239166
0.407000000000000250,3.559070777418322784
0.408000000000000251,3.569803776968675457
0.409000000000000252,3.578126551284958712
0.410000000000000253,3.584068095108341900
0.411000000000000254,3.587658592140152258
0.412000000000000255,3.588929358545608128
0.413000000000000256,3.587912786933360021
0.414000000000000257,3.584642290871804526
0.415000000000000258,3.579152249999076219
0.416000000000000258,3.571477955780007818
0.417000000000000259,3.561655557959556795
0.418000000000000260,3.549722011758764673
0.419000000000000261,3.535715025855832749
0.420000000000000262,3.519673011191540635
0.421000000000000263,3.501635030635037449
0.422000000000000264,3.481640749543050362
0.423000000000000265,3.459730387242365701
0.424000000000000266,3.435944669462671186
0.425000000000000266,3.410324781744106026
0.426000000000000267,3.382912323841178015
0.427000000000000268,3.353749265142039970
0.428000000000000269,3.322877901119879684
0.429000000000000270,3.290340810830711948
0.430000000000000271,3.256180815469530643
0.431000000000000272,3.220440937994886177
0.432000000000000273,3.183164363829670496
0.433000000000000274,3.144394402644107522
0.434000000000000274,3.104174451224953835
0.435000000000000275,3.062547957433376489
0.436000000000000276,3.019558385252059551
0.437000000000000277,2.975249180920658709
0.438000000000000278,2.929663740157263607
0.439000000000000279,2.882845376461985243
0.440000000000000280,2.834837290497534745
0.441000000000000281,2.785682540540530994
0.442000000000000282,2.735424013995761516
0.443000000000000282,2.684104399965003385
0.444000000000000283,2.631766162860491143
0.445000000000000284,2.578451517052566810
0.446000000000000285,2.524202402539898582
0.447000000000000286,2.469060461629937198
0.448000000000000287,2.413067016616502691
0.449000000000000288,2.356263048440695229
0.450000000000000289,2.298689176320607430
0.451000000000000290,2.240385638334870144
0.452000000000000290,2.181392272944360222
0.453000000000000291,2.121748501436038659
0.454000000000000292,2.061493311272385220
0.455000000000000293,2.000665240329486227
0.456000000000000294,1.939302362006585012
0.457000000000000295,1.877442271189499134
0.458000000000000296,1.815122071050027985
0.459000000000000297,1.752378360663440660
0.460000000000000298,1.689247223425596856
0.461000000000000298,1.625764216251576855
0.462000000000000299,1.561964359537043601
0.463000000000000300,1.497882127863934043
0.464000000000000301,1.433551441431720308
0.465000000000000302,1.369005658195663111
0.466000000000000303,1.304277566693194501
0.467000000000000304,1.239399379539989576
0.468000000000000305,1.174402727576938421
0.469000000000000306,1.109318654649546154
0.470000000000000306,1.044177613001339600
0.471000000000000307,0.979009459262847770
0.472000000000000308,0.913843451018028552
0.473000000000000309,0.848708243929996220
0.474000000000000310,0.783631889408281546
0.475000000000000311,0.718641832799621794
0.476000000000000312,0.653764912085169847
0.477000000000000313,0.589027357066308266
0.478000000000000314,0.524454789022353318
0.479000000000000314,0.460072220823011080
0.480000000000000315,0.395904057479061988
0.481000000000000316,0.331974097114795252
0.482000000000000317,0.268305532346098996
0.483000000000000318,0.204920952048269905
0.484000000000000319,0.141842343497946111
0.485000000000000320,0.079091094873827178
0.486000000000000321,0.016687998101065381
0.487000000000000322,-0.045346747975385036
0.488000000000000322,-0.106993534103043436
0.489000000000000323,-0.168233336833884833
0.490000000000000324,-0.229047714450082485
0.491000000000000325,-0.289418802617004700
0.492000000000000326,-0.349329309776861385
0.493000000000000327,-0.408762512295953839
0.494000000000000328,-0.467702249378296908
0.495000000000000329,-0.526132917758004193
0.496000000000000330,-0.584039466182532663
0.497000000000000330,-0.641407389698675612
0.498000000000000331,-0.698222723752744856
0.499000000000000332,-0.754472038116146493
0.500000000000000333,-0.810142430647400991
0.501000000000000334,-0.865221520901104491
0.502000000000000335,-0.919697443594233777
0.503000000000000336,-0.973558841939802355
0.504000000000000337,-1.026794860857711100
0.505000000000000338,-1.079395140072152204
0.506000000000000338,-1.131349807104843563
0.507000000000000339,-1.182649470173021244
0.508000000000000340,-1.233285211000756165
0.509000000000000341,-1.283248577552026592
0.510000000000000342,-1.332531576693627207
0.511000000000000343,-1.381126666795777114
0.512000000000000344,-1.429026750277974100
0.513000000000000345,-1.476225166107407283
0.514000000000000346,-1.522715682257105074
0.515000000000000346,-1.568492488130474927
0.516000000000000347,-1.613550186958960353
0.517000000000000348,-1.657883788179090656
0.518000000000000349,-1.701488699795061121
0.519000000000000350,-1.744360720732668124
0.520000000000000351,-1.786496033190349664
0.521000000000000352,-1.827891194992677715
0.522000000000000353,-1.868543131951524217
0.523000000000000353,-1.908449130240005731
0.524000000000000354,-1.947606828783853716
0.525000000000000355,-1.986014211674952179
0.526000000000000356,-2.023669600611321506
0.527000000000000357,-2.060571647367816173
0.528000000000000358,-2.096719326301621944
0.529000000000000359,-2.132111926896173681
0.530000000000000360,-2.166749046347387520
0.531000000000000361,-2.200630582195529428
0.532000000000000361,-2.233756725006114774
0.533000000000000362,-2.266127951102892002
0.534000000000000363,-2.297745015355981302
0.535000000000000364,-2.328608944027951377
0.536000000000000365,-2.358721027680476201
0.537000000000000366,-2.388082814144146138
0.538000000000000367,-2.416696101553754694
0.539000000000000368,-2.444562931451359056
0.540000000000000369,-2.471685581959145672
0.541000000000000369,-2.498066561024125942
0.542000000000000370,-2.523708599736445901
0.543000000000000371,-2.548614645723079164
0.544000000000000372,-2.572787856618452995
0.545000000000000373,-2.596231593613495203
0.546000000000000374,-2.618949415084492749
0.547000000000000375,-2.640945070302954889
0.548000000000000376,-2.662222493227707432
0.549000000000000377,-2.682785796380176002
0.550000000000000377,-2.702639264803906372
0.551000000000000378,-2.721787350109052372
0.552000000000000379,-2.740234664602712922
0.553000000000000380,-2.757985975505696352
0.554000000000000381,-2.775046199256328450
0.555000000000000382,-2.791420395901851315
0.556000000000000383,-2.807113763577723908
0.557000000000000384,-2.822131633075303014
0.558000000000000385,-2.836479462498064041
0.559000000000000385,-2.850162832006646774
0.560000000000000386,-2.863187438652799344
0.561000000000000387,-2.875559091302331449
0.562000000000000388,-2.887283705647036403
0.563000000000000389,-2.898367299305611322
0.564000000000000390,-2.908815987013336990
0.565000000000000391,-2.918635975900477852
0.566000000000000392,-2.927833560859107287
0.567000000000000393,-2.936415119998110779
0.568000000000000393,-2.944387110186035272
0.569000000000000394,-2.951756062681447634
0.570000000000000395,-2.958528578850402990
0.571000000000000396,-2.964711325970486033
0.572000000000000397,-2.970311033121080690
0.573000000000000398,-2.975334487159224217
0.574000000000000399,-2.979788528780528800
0.575000000000000400,-2.983680048664594686
0.576000000000000401,-2.987015983704234490
0.577000000000000401,-2.989803313317927369
0.578000000000000402,-2.992049055844741901
0.579000000000000403,-2.993760265021062406
0.580000000000000404,-2.994944026538377102
0.581000000000000405,-2.995607454681334936
0.582000000000000406,-2.995757689045357441
0.583000000000000407,-2.995401891332883260
0.584000000000000408,-2.994547242227585837
0.585000000000000409,-2.993200938345560669
0.586000000000000409,-2.991370189262721802
0.587000000000000410,-2.989062214617538960
0.588000000000000411,-2.986284241288136521
0.589000000000000412,-2.983043500642994950
0.590000000000000413,-2.979347225864192872
0.591000000000000414,-2.975202649342378436
0.592000000000000415,-2.970617000142514730
0.593000000000000416,-2.965597501539391168
0.594000000000000417,-2.960151368622041534
0.595000000000000417,-2.954285805966091694
0.596000000000000418,-2.948008005372991569
0.597000000000000419,-2.941325143675329823
0.598000000000000420,-2.934244380607077485
0.599000000000000421,-2.926772856737938078
0.600000000000000422,-2.918917691470733100
0.601000000000000423,-2.910685981100888053
0.602000000000000424,-2.902084796937023370
0.603000000000000425,-2.893121183481718095
0.604000000000000425,-2.883802156671353867
0.605000000000000426,-2.874134702174214517
0.606000000000000427,-2.864125773745752390
0.607000000000000428,-2.853782291640054147
0.608000000000000429,-2.843111141076637871
0.609000000000000430,-2.832119170761449034
0.610000000000000431,-2.820813191461269298
0.611000000000000432,-2.809199974630412822
0.612000000000000433,-2.797286251088873410
0.613000000000000433,-2.785078709750924197
0.614000000000000434,-2.772583996403233719
0.615000000000000435,-2.759808712531516939
0.616000000000000436,-2.746759414194870352
0.617000000000000437,-2.733442610946815066
0.618000000000000438,-2.719864764802110368
0.619000000000000439,-2.706032289248446965
0.620000000000000440,-2.691951548302143671
0.621000000000000441,-2.677628855606887015
0.622000000000000441,-2.663070473574697949
0.623000000000000442,-2.648282612568143790
0.624000000000000443,-2.633271430123041323
0.625000000000000444,-2.618043030210716271
0.626000000000000445,-2.602603462538922052
0.627000000000000446,-2.586958721890704638
0.628000000000000447,-2.571114747500241382
0.629000000000000448,-2.555077422464901993
0.630000000000000449,-2.538852573192663442
0.631000000000000449,-2.522445968884131418
0.632000000000000450,-2.505863321048318326
0.633000000000000451,-2.489110283051403805
0.634000000000000452,-2.472192449697700578
0.635000000000000453,-2.455115356842044072
0.636000000000000454,-2.437884481032869921
0.637000000000000455,-2.420505239185211988
0.638000000000000456,-2.402982988282875265
0.639000000000000457,-2.385323025109071349
0.640000000000000457,-2.367530586004797488
0.641000000000000458,-2.349610846654212715
0.642000000000000459,-2.331568921896392865
0.643000000000000460,-2.313409865562678469
0.644000000000000461,-2.295138670339011533
0.645000000000000462,-2.276760267652574221
0.646000000000000463,-2.258279527582027324
0.647000000000000464,-2.239701258790788962
0.648000000000000465,-2.221030208482638990
0.649000000000000465,-2.202271062379057120
0.650000000000000466,-2.183428444717685490
0.651000000000000467,-2.164506918271276170
0.652000000000000468,-2.145510984386580500
0.653000000000000469,-2.126445083042512785
0.654000000000000470,-2.107313592927135382
0.655000000000000471,-2.088120831532763511
0.656000000000000472,-2.068871055268733272
0.657000000000000473,-2.049568459591237790
0.658000000000000473,-2.030217179149714113
0.659000000000000474,-2.010821287949262626
0.660000000000000475,-1.991384799528548744
0.661000000000000476,-1.971911667152707937
0.662000000000000477,-1.952405784020768253
0.663000000000000478,-1.932870983487051664
0.664000000000000479,-1.913311039296146987
0.665000000000000480,-1.893729665830894415
0.666000000000000481,-1.874130518373048115
0.667000000000000481,-1.854517193375992523
0.668000000000000482,-1.834893228749258087
0.669000000000000483,-1.815262104154274692
0.670000000000000484,-1.795627241310957078
0.671000000000000485,-1.775992004314774331
0.672000000000000486,-1.756359699963790266
0.673000000000000487,-1.736733578095412067
0.674000000000000488,-1.717116831932288701
0.675000000000000488,-1.697512598437127762
0.676000000000000489,-1.677923958676000193
0.677000000000000490,-1.658353938189711885
0.678000000000000491,-1.638805507372996573
0.679000000000000492,-1.619281581861090391
0.680000000000000493,-1.599785022923366995
0.681000000000000494,-1.580318637863746378
0.682000000000000495,-1.560885180427459940
0.683000000000000496,-1.541487351213963297
0.684000000000000496,-1.522127798095582518
0.685000000000000497,-1.502809116641667497
0.686000000000000498,-1.483533850547892330
0.687000000000000499,-1.464304492070473973
0.688000000000000500,-1.445123482464964582
0.689000000000000501,-1.425993212429389922
0.690000000000000502,-1.406916022551458756
0.691000000000000503,-1.387894203759523215
0.692000000000000504,-1.368929997777116325
0.693000000000000504,-1.350025597580784442
0.694000000000000505,-1.331183147860913740
0.695000000000000506,-1.312404745485429292
0.696000000000000507,-1.293692439966021901
0.697000000000000508,-1.275048233926738162
0.698000000000000509,-1.256474083574736778
0.699000000000000510,-1.237971899172892964
0.700000000000000511,-1.219543545514195859
0.701000000000000512,-1.201190842397576786
0.702000000000000512,-1.182915565105114863
0.703000000000000513,-1.164719444880318200
0.704000000000000514,-1.146604169407360541
0.705000000000000515,-1.128571383291067987
0.706000000000000516,-1.110622688537491687
0.707000000000000517,-1.092759645034869109
0.708000000000000518,-1.074983771034843105
0.709000000000000519,-1.057296543633781338
0.710000000000000520,-1.039699399253972478
0.711000000000000520,-1.022193734124656306
0.712000000000000521,-1.004780904762631710
0.713000000000000522,-0.987462228452386404
0.714000000000000523,-0.970238983725568049
0.715000000000000524,-0.953112410839653479
0.716000000000000525,-0.936083712255735612
0.717000000000000526,-0.919154053115240899
0.718000000000000527,-0.902324561715515672
0.719000000000000528,-0.885596329984107755
0.720000000000000528,-0.868970413951706155
0.721000000000000529,-0.852447834223514889
0.722000000000000530,-0.836029576449094369
0.723000000000000531,-0.819716591790446758
0.724000000000000532,-0.803509797388327840
0.725000000000000533,-0.787410076826655425
0.726000000000000534,-0.771418280594917904
0.727000000000000535,-0.755535226548518457
0.728000000000000536,-0.739761700366961761
0.729000000000000536,-0.724098456009778402
0.730000000000000537,-0.708546216170171328
0.731000000000000538,-0.693105672726205713
0.732000000000000539,-0.677777487189605288
0.733000000000000540,-0.662562291151944316
0.734000000000000541,-0.647460686728293267
0.735000000000000542,-0.632473246998145222
0.736000000000000543,-0.617600516443690073
0.737000000000000544,-0.602843011385208127
0.738000000000000544,-0.588201220413735681
0.739000000000000545,-0.573675604820728657
0.740000000000000546,-0.559266599024879074
0.741000000000000547,-0.544974610995862641
0.742000000000000548,-0.530800022675133931
0.743000000000000549,-0.516743190393562868
0.744000000000000550,-0.502804445285992552
0.745000000000000551,-0.488984093702653222
0.746000000000000552,-0.475282417617343911
0.747000000000000552,-0.461699675032422097
0.748000000000000553,-0.448236100380514313
0.749000000000000554,-0.434891904922916517
0.750000000000000555,-0.421667277144733343
0.751000000000000556,-0.408562383146600427
0.752000000000000557,-0.395577367033098815
0.753000000000000558,-0.382712351297718079
0.754000000000000559,-0.369967437204464955
0.755000000000000560,-0.357342705165985319
0.756000000000000560,-0.344838215118278169
0.757000000000000561,-0.332454006891898968
0.758000000000000562,-0.320190100579710535
0.759000000000000563,-0.308046496901136946
0.760000000000000564,-0.296023177562898809
0.761000000000000565,-0.284120105616235241
0.762000000000000566,-0.272337225810601102
0.763000000000000567,-0.260674464943838002
0.764000000000000568,-0.249131732208787982
0.765000000000000568,-0.237708919536384233
0.766000000000000569,-0.226405901935179704
0.767000000000000570,-0.215222537827330918
0.768000000000000571,-0.204158669381028085
0.769000000000000572,-0.193214122839372004
0.770000000000000573,-0.182388708845717534
0.771000000000000574,-0.171682222765439818
0.772000000000000575,-0.161094445004189957
0.773000000000000576,-0.150625141322566380
0.774000000000000576,-0.140274063147294126
0.775000000000000577,-0.130040947878858615
0.776000000000000578,-0.119925519195589136
0.777000000000000579,-0.109927487354288228
0.778000000000000580,-0.100046549487287056
0.779000000000000581,-0.090282389896053278
0.780000000000000582,-0.080634680341280768
0.781000000000000583,-0.071103080329538465
0.782000000000000584,-0.061687237396412561
0.783000000000000584,-0.052386787386228595
0.784000000000000585,-0.043201354728335431
0.785000000000000586,-0.034130552709934606
0.786000000000000587,-0.025173983745539790
0.787000000000000588,-0.016331239643018754
0.788000000000000589,-0.007601901866243738
0.789000000000000590,0.001014458205578950
0.790000000000000591,0.009518279021981053
0.791000000000000592,0.017910008608575834
0.792000000000000592,0.026190104317770101
0.793000000000000593,0.034359032582716616
0.794000000000000594,0.042417268674582877
0.795000000000000595,0.050365296463046091
0.796000000000000596,0.058203608180053303
0.797000000000000597,0.065932704186756300
0.798000000000000598,0.073553092743683310
0.799000000000000599,0.081065289784071431
0.800000000000000600,0.088469818690326676
0.801000000000000600,0.095767210073673614
0.802000000000000601,0.102958001556855194
0.803000000000000602,0.110042737559965104
0.804000000000000603,0.117021969089323941
0.805000000000000604,0.123896253529405781
0.806000000000000605,0.130666154437800719
0.807000000000000606,0.137332241343141814
0.808000000000000607,0.143895089546053290
0.809000000000000608,0.150355279923011953
0.810000000000000608,0.156713398733144382
0.811000000000000609,0.162970037427962205
0.812000000000000610,0.169125792463929170
0.813000000000000611,0.175181265117920482
0.814000000000000612,0.181137061305509162
0.815000000000000613,0.186993791402030290
0.816000000000000614,0.192752070066485093
0.817000000000000615,0.198412516068153549
0.818000000000000616,0.203975752115965220
0.819000000000000616,0.209442404690576567
0.820000000000000617,0.214813103879138684
0.821000000000000618,0.220088483212714736
0.822000000000000619,0.225269179506336348
0.823000000000000620,0.230355832701669871
0.824000000000000621,0.235349085712277695
0.825000000000000622,0.240249584271426231
0.826000000000000623,0.245057976782432851
0.827000000000000624,0.249774914171534190
0.828000000000000624,0.254401049743208096
0.829000000000000625,0.258937039038010464
0.830000000000000626,0.263383539692784663
0.831000000000000627,0.267741211303321125
0.832000000000000628,0.272010715289389471
0.833000000000000629,0.276192714762130920
0.834000000000000630,0.280287874393785996
0.835000000000000631,0.284296860289728115
0.836000000000000631,0.288220339862790109
0.837000000000000632,0.292058981709836019
0.838000000000000633,0.295813455490598176
0.839000000000000634,0.299484431808681117
0.840000000000000635,0.303072582094788934
0.841000000000000636,0.306578578492102571
0.842000000000000637,0.310003093743781877
0.843000000000000638,0.313346801082598658
0.844000000000000639,0.316610374122641036
0.845000000000000639,0.319794486753100626
0.846000000000000640,0.322899813034087546
0.847000000000000641,0.325927027094456645
0.848000000000000642,0.328876803031635356
0.849000000000000643,0.331749814813434241
0.850000000000000644,0.334546736181750015
0.851000000000000645,0.337268240558264432
0.852000000000000646,0.339915000951977742
0.853000000000000647,0.342487689868651635
0.854000000000000647,0.344986979222087264
0.855000000000000648,0.347413540247249408
0.856000000000000649,0.349768043415164820
0.857000000000000650,0.352051158349642401
0.858000000000000651,0.354263553745730486
0.859000000000000652,0.356405897289905405
0.860000000000000653,0.358478855581998657
0.861000000000000654,0.360483094058805242
0.862000000000000655,0.362419276919347166
0.863000000000000655,0.364288067051825704
0.864000000000000656,0.366090125962160173
0.865000000000000657,0.367826113704156910
0.866000000000000658,0.369496688811267182
0.867000000000000659,0.371102508229876005
0.868000000000000660,0.372644227254178118
0.869000000000000661,0.374122499462545943
0.870000000000000662,0.375537976655405892
0.871000000000000663,0.376891308794589819
0.872000000000000663,0.378183143944159583
0.873000000000000664,0.379414128212664736
0.874000000000000665,0.380584905696807918
0.875000000000000666,0.381696118426530839
0.876000000000000667,0.382748406311464895
0.877000000000000668,0.383742407088741744
0.878000000000000669,0.384678756272158417
0.879000000000000670,0.385558087102653491
0.880000000000000671,0.386381030500074107
0.881000000000000671,0.387148215016259345
0.882000000000000672,0.387860266789352148
0.883000000000000673,0.388517809499385303
0.884000000000000674,0.389121464325074051
0.885000000000000675,0.389671849901830292
0.886000000000000676,0.390169582280975591
0.887000000000000677,0.390615274890097175
0.888000000000000678,0.391009538494606845
0.889000000000000679,0.391352981160390967
0.890000000000000679,0.391646208217614200
0.891000000000000680,0.391889822225606532
0.892000000000000681,0.392084422938851929
0.893000000000000682,0.392230607274042797
0.894000000000000683,0.392328969278179784
0.895000000000000684,0.392380100097717233
0.896000000000000685,0.392384587948724384
0.897000000000000686,0.392343018088061601
0.898000000000000687,0.392255972785507723
0.899000000000000687,0.392124031296926467
0.900000000000000688,0.391947769838320803
0.901000000000000689,0.391727761560872356
0.902000000000000690,0.391464576526889096
0.903000000000000691,0.391158781686657409
0.904000000000000692,0.390810940856217093
0.905000000000000693,0.390421614695987518
0.906000000000000694,0.389991360690272293
0.907000000000000695,0.389520733127622254
0.908000000000000695,0.389010283082018793
0.909000000000000696,0.388460558394900624
0.910000000000000697,0.387872103657978917
0.911000000000000698,0.387245460196866120
0.912000000000000699,0.386581166055476155
0.913000000000000700,0.385879755981182349
0.914000000000000701,0.385141761410767336
0.915000000000000702,0.384367710457064804
0.916000000000000703,0.383558127896368339
0.917000000000000703,0.382713535156531559
0.918000000000000704,0.381834450305793494
0.919000000000000705,0.380921388042265163
0.920000000000000706,0.379974859684121147
0.921000000000000707,0.378995373160437410
0.922000000000000708,0.377983433002702984
0.923000000000000709,0.376939540336937662
0.924000000000000710,0.375864192876482317
0.925000000000000711,0.374757884915371486
0.926000000000000711,0.373621107322336221
0.927000000000000712,0.372454347535378427
0.928000000000000713,0.371258089556955884
0.929000000000000714,0.370032813949709771
0.930000000000000715,0.368778997832785116
0.931000000000000716,0.367497114878676090
0.932000000000000717,0.366187635310606163
0.933000000000000718,0.364851025900486403
0.934000000000000719,0.363487749967325635
0.935000000000000719,0.362098267376191107
0.936000000000000720,0.360683034537662539
0.937000000000000721,0.359242504407760621
0.938000000000000722,0.357777126488368680
0.939000000000000723,0.356287346828113638
0.940000000000000724,0.354773608023710219
0.941000000000000725,0.353236349221751733
0.942000000000000726,0.351676006120945295
0.943000000000000727,0.350093010974772190
0.944000000000000727,0.348487792594578738
0.945000000000000728,0.346860776353066447
0.946000000000000729,0.345212384188204713
0.947000000000000730,0.343543034607519837
0.948000000000000731,0.341853142692782941
0.949000000000000732,0.340143120105070751
0.950000000000000733,0.338413375090206192
0.951000000000000734,0.336664312484533323
0.952000000000000735,0.334896333721086348
0.953000000000000735,0.333109836836067263
0.954000000000000736,0.331305216475680675
0.955000000000000737,0.329482863903301115
0.956000000000000738,0.327643167006941016
0.957000000000000739,0.325786510307050969
0.958000000000000740,0.323913274964636122
0.959000000000000741,0.322023838789638972
0.960000000000000742,0.320118576249649567
0.961000000000000743,0.318197858478881879
0.962000000000000743,0.316262053287429956
0.963000000000000744,0.314311525170802797
0.964000000000000745,0.312346635319715071
0.965000000000000746,0.310367741630143190
0.966000000000000747,0.308375198713625842
0.967000000000000748,0.306369357907817608
0.968000000000000749,0.304350567287269391
0.969000000000000750,0.302319171674456988
0.970000000000000751,0.300275512651011378
0.971000000000000751,0.298219928569194936
0.972000000000000752,0.296152754563583254
0.973000000000000753,0.294074322562929924
0.974000000000000754,0.291984961302278523
0.975000000000000755,0.289884996335230127
0.976000000000000756,0.287774750046424166
0.977000000000000757,0.285654541664194073
0.978000000000000758,0.283524687273415954
0.979000000000000759,0.281385499828503138
0.980000000000000759,0.279237289166598845
0.981000000000000760,0.277080362020929394
0.982000000000000761,0.274915022034286138
0.983000000000000762,0.272741569772695258
0.984000000000000763,0.270560302739232317
0.985000000000000764,0.268371515387942294
0.986000000000000765,0.266175499137957350
0.987000000000000766,0.263972542387702014
0.988000000000000766,0.261762930529243876
0.989000000000000767,0.259546945962771836
0.990000000000000768,0.257324868111195149
0.991000000000000769,0.255096973434849772
0.992000000000000770,0.252863535446323562
0.993000000000000771,0.250624824725386608
0.994000000000000772,0.248381108934025402
0.995000000000000773,0.246132652831572152
0.996000000000000774,0.243879718289938763
0.997000000000000774,0.241622564308929672
0.998000000000000775,0.239361447031653324
0.999000000000000776,0.237096619759999211
1.000000000000000666,0.234828332970223153
1.001000000000000778,0.232556834328576378
1.002000000000000668,0.230282368707030172
1.003000000000000780,0.228005178199062047
1.004000000000000670,0.225725502135495665
1.005000000000000782,0.223443577100422175
1.006000000000000671,0.221159636947168309
1.007000000000000783,0.218873912814315258
1.008000000000000673,0.216586633141783613
1.009000000000000785,0.214298023686950057
1.010000000000000675,0.212008307540829305
1.011000000000000787,0.209717705144270905
1.012000000000000677,0.207426434304222168
1.013000000000000789,0.205134710210014448
1.014000000000000679,0.202842745449682310
1.015000000000000790,0.200550750026318836
1.016000000000000680,0.198258931374450276
1.017000000000000792,0.195967494376447615
1.018000000000000682,0.193676641378947967
1.019000000000000794,0.191386572209304773
1.020000000000000684,0.189097484192050996
1.021000000000000796,0.186809572165376331
1.022000000000000686,0.184523028497619673
1.023000000000000798,0.182238043103765929
1.024000000000000687,0.179954803461965296
1.025000000000000799,0.177673494630022688
1.026000000000000689,0.175394299261942083
1.027000000000000801,0.173117397624415637
1.028000000000000691,0.170842967613356461
1.029000000000000803,0.168571184770394455
1.030000000000000693,0.166302222299395619
1.031000000000000805,0.164036251082939871
1.032000000000000695,0.161773439698824045
1.033000000000000806,0.159513954436526689
1.034000000000000696,0.157257959313661239
1.035000000000000808,0.155005616092439846
1.036000000000000698,0.152757084296077983
1.037000000000000810,0.150512521225213025
1.038000000000000700,0.148272081974288567
1.039000000000000812,0.146035919447914220
1.040000000000000702,0.143804184377203520
1.041000000000000814,0.141577025336081991
1.042000000000000703,0.139354588757584719
1.043000000000000815,0.137137018950090395
1.044000000000000705,0.134924458113556411
1.045000000000000817,0.132717046355706719
1.046000000000000707,0.130514921708187043
1.047000000000000819,0.128318220142679074
1.048000000000000709,0.126127075587006698
1.049000000000000821,0.123941619941148121
1.050000000000000711,0.121761983093271839
1.051000000000000822,0.119588292935680990
1.052000000000000712,0.117420675380751738
1.053000000000000824,0.115259254376801318
1.054000000000000714,0.113104151923930307
1.055000000000000826,0.110955488089808679
1.056000000000000716,0.108813381025419709
1.057000000000000828,0.106677946980753585
1.058000000000000718,0.104549300320453981
1.059000000000000830,0.102427553539415378
1.060000000000000719,0.100312817278320532
1.061000000000000831,0.098205200339143067
1.062000000000000721,0.096104809700577970
1.063000000000000833,0.094011750533424587
1.064000000000000723,0.091926126215931575
1.065000000000000835,0.089848038349054901
1.066000000000000725,0.087777586771679711
1.067000000000000837,0.085714869575790928
1.068000000000000727,0.083659983121557674
1.069000000000000838,0.081613022052391765
1.070000000000000728,0.079574079309920262
1.071000000000000840,0.077543246148911144
1.072000000000000730,0.075520612152132363
1.073000000000000842,0.073506265245152622
1.074000000000000732,0.071500291711078037
1.075000000000000844,0.069502776205219913
1.076000000000000734,0.067513801769709739
1.077000000000000846,0.065533449848038716
1.078000000000000735,0.063561800299533761
1.079000000000000847,0.061598931413783517
1.080000000000000737,0.059644919924962847
1.081000000000000849,0.057699841026139273
1.082000000000000739,0.055763768383462822
1.083000000000000851,0.053836774150325131
1.084000000000000741,0.051918928981425604
1.085000000000000853,0.050010302046790300
1.086000000000000743,0.048110961045700867
1.087000000000000854,0.046220972220567709
1.088000000000000744,0.044340400370725480
1.089000000000000856,0.042469308866172853
1.090000000000000746,0.040607759661214660
1.091000000000000858,0.038755813308056407
1.092000000000000748,0.036913528970327139
1.093000000000000860,0.035080964436506865
1.094000000000000750,0.033258176133314207
1.095000000000000862,0.031445219138998060
1.096000000000000751,0.029642147196561552
1.097000000000000863,0.027849012726927431
1.098000000000000753,0.026065866842010049
1.099000000000000865,0.024292759357717807
1.100000000000000755,0.022529738806912208
1.101000000000000867,0.020776852452236601
1.102000000000000757,0.019034146298930736
1.103000000000000869,0.017301665107522589
1.104000000000000759,0.015579452406485316
1.105000000000000870,0.013867550504785386
1.106000000000000760,0.012166000504394158
1.107000000000000872,0.010474842312676303
1.108000000000000762,0.008794114654752733
1.109000000000000874,0.007123855085756886
1.110000000000000764,0.005464100003029948
1.111000000000000876,0.003814884658239182
1.112000000000000766,0.002176243169413927
1.113000000000000878,0.000548208532916122
1.114000000000000767,-0.001069187364668558
1.115000000000000879,-0.002675913734715438
1.116000000000000769,-0.004271940874811428
1.117000000000000881,-0.005857240157099886
1.118000000000000771,-0.007431784016684062
1.119000000000000883,-0.008995545940106625
1.120000000000000773,-0.010548500453917389
1.121000000000000885,-0.012090623113295651
1.122000000000000774,-0.013621890490766697
1.123000000000000886,-0.015142280164983471
1.124000000000000776,-0.016651770709585980
1.125000000000000888,-0.018150341682128417
1.126000000000000778,-0.019637973613093534
1.127000000000000890,-0.021114647994976189
1.128000000000000780,-0.022580347271430143
1.129000000000000892,-0.024035054826514142
1.130000000000000782,-0.025478754973982949
1.131000000000000894,-0.026911432946679865
1.132000000000000783,-0.028333074885978214
1.133000000000000895,-0.029743667831325270
1.134000000000000785,-0.031143199709827530
1.135000000000000897,-0.032531659325940099
1.136000000000000787,-0.033909036351207518
1.137000000000000899,-0.035275321314090127
1.138000000000000789,-0.036630505589851245
1.139000000000000901,-0.037974581390547726
1.140000000000000790,-0.039307541755051988
1.141000000000000902,-0.040629380539163006
1.142000000000000792,-0.041940092405811730
1.143000000000000904,-0.043239672815315627
1.144000000000000794,-0.044528118015701820
1.145000000000000906,-0.045805425033111337
1.146000000000000796,-0.047071591662287207
1.147000000000000908,-0.048326616457108187
1.148000000000000798,-0.049570498721214357
1.149000000000000909,-0.050803238498695259
1.150000000000000799,-0.052024836564845842
1.151000000000000689,-0.053235294417006730
1.152000000000000801,-0.054434614265457128
1.153000000000000913,-0.055622799024392613
1.154000000000000803,-0.056799852302962098
1.155000000000000693,-0.057965778396382173
1.156000000000000805,-0.059120582277125890
1.157000000000000917,-0.060264269586151852
1.158000000000000806,-0.061396846624245070
1.159000000000000696,-0.062518320343396147
1.160000000000000808,-0.063628698338257489
1.161000000000000920,-0.064727988837667103
1.162000000000000810,-0.065816200696249480
1.163000000000000700,-0.066893343386060428
1.164000000000000812,-0.067959426988333266
1.165000000000000924,-0.069014462185258418
1.166000000000000814,-0.070058460251851515
1.167000000000000703,-0.071091433047884151
1.168000000000000815,-0.072113393009875140
1.169000000000000927,-0.073124353143147719
1.170000000000000817,-0.074124327013965652
1.171000000000000707,-0.075113328741712018
1.172000000000000819,-0.076091372991157535
1.173000000000000931,-0.077058474964778384
1.174000000000000821,-0.078014650395132473
1.175000000000000711,-0.078959915537328215
1.176000000000000822,-0.079894287161523317
1.177000000000000934,-0.080817782545513778
1.178000000000000824,-0.081730419467362508
1.179000000000000714,-0.082632216198111258
1.180000000000000826,-0.083523191494553589
1.181000000000000938,-0.084403364592048932
1.182000000000000828,-0.085272755197427247
1.183000000000000718,-0.086131383481934429
1.184000000000000830,-0.086979270074250006
1.185000000000000941,-0.087816436053557767
1.186000000000000831,-0.088642902942694557
1.187000000000000721,-0.089458692701330597
1.188000000000000833,-0.090263827719240436
1.189000000000000945,-0.091058330809609123
1.190000000000000835,-0.091842225202421163
1.191000000000000725,-0.092615534537874050
1.192000000000000837,-0.093378282859908610
1.193000000000000949,-0.094130494609720380
1.194000000000000838,-0.094872194619403577
1.195000000000000728,-0.095603408105602902
1.196000000000000840,-0.096324160663243383
1.197000000000000952,-0.097034478259326831
1.198000000000000842,-0.097734387226748182
1.199000000000000732,-0.098423914258220807
1.200000000000000844,-0.099103086400202628
1.201000000000000956,-0.099771931046932480
1.202000000000000846,-0.100430475934477542
1.203000000000000735,-0.101078749134859952
1.204000000000000847,-0.101716779050230730
1.205000000000000959,-0.102344594407104750
1.206000000000000849,-0.102962224250638765
1.207000000000000739,-0.103569697938975039
1.208000000000000851,-0.104167045137629755
1.209000000000000963,-0.104754295813943660
1.210000000000000853,-0.105331480231573266
1.211000000000000743,-0.105898628945050616
1.212000000000000854,-0.106455772794376860
1.213000000000000966,-0.107002942899686454
1.214000000000000856,-0.107540170655952005
1.215000000000000746,-0.108067487727737443
1.216000000000000858,-0.108584926044017288
1.217000000000000970,-0.109092517793027866
1.218000000000000860,-0.109590295417177755
1.219000000000000750,-0.110078291608021767
1.220000000000000862,-0.110556539301253837
1.221000000000000973,-0.111025071671775596
1.222000000000000863,-0.111483922128807339
1.223000000000000753,-0.111933124311037482
1.224000000000000865,-0.112372712081833220
1.225000000000000977,-0.112802719524498718
1.226000000000000867,-0.113223180937569362
1.227000000000000757,-0.113634130830166907
1.228000000000000869,-0.114035603917385014
1.229000000000000981,-0.114427635115750534
1.230000000000000870,-0.114810259538695586
1.231000000000000760,-0.115183512492101681
1.232000000000000872,-0.115547429469885540
1.233000000000000984,-0.115902046149607890
1.234000000000000874,-0.116247398388175466
1.235000000000000764,-0.116583522217527658
1.236000000000000876,-0.116910453840417317
1.237000000000000988,-0.117228229626210156
1.238000000000000878,-0.117536886106734378
1.239000000000000767,-0.117836459972179203
1.240000000000000879,-0.118126988067026123
1.241000000000000991,-0.118408507386028553
1.242000000000000881,-0.118681055070239322
1.243000000000000771,-0.118944668403074605
1.244000000000000883,-0.119199384806412859
1.245000000000000995,-0.119445241836753133
1.246000000000000885,-0.119682277181405630
1.247000000000000774,-0.119910528654715881
1.248000000000000886,-0.120130034194340457
1.249000000000000998,-0.120340831857561809
1.250000000000000888,-0.120542959817640877
1.251000000000000778,-0.120736456360203775
1.252000000000000890,-0.120921359879686330
1.253000000000001002,-0.121097708875793006
1.254000000000000892,-0.121265541950019443
1.255000000000000782,-0.121424897802190929
1.256000000000000894,-0.121575815227065620
1.257000000000001005,-0.121718333110944446
1.258000000000000895,-0.121852490428348739
1.259000000000000785,-0.121978326238711632
1.260000000000000897,-0.122095879683127920
1.261000000000001009,-0.122205189981120843
1.262000000000000899,-0.122306296427460534
1.263000000000000789,-0.122399238389009499
1.264000000000000901,-0.122484055301616504
1.265000000000001013,-0.122560786667027119
1.266000000000000902,-0.122629472049844784
1.267000000000000792,-0.122690151074525966
1.268000000000000904,-0.122742863422405438
1.269000000000001016,-0.122787648828757784
1.270000000000000906,-0.122824547079894958
1.271000000000000796,-0.122853598010297244
1.272000000000000908,-0.122874841499773207
1.273000000000001020,-0.122888317470666794
1.274000000000000909,-0.122894065885081630
1.275000000000000799,-0.122892126742145599
1.276000000000000911,-0.122882540075316321
1.277000000000001023,-0.122865345949701860
1.278000000000000913,-0.122840584459429428
1.279000000000000803,-0.122808295725033670
1.280000000000000915,-0.122768519890896627
1.281000000000001027,-0.122721297122681386
1.282000000000000917,-0.122666667604847346
1.283000000000000806,-0.122604671538151161
1.284000000000000918,-0.122535349137206845
1.285000000000001030,-0.122458740628064874
1.286000000000000920,-0.122374886245824127
1.287000000000000810,-0.122283826232267148
1.288000000000000922,-0.122185600833543712
1.289000000000001034,-0.122080250297858628
1.290000000000000924,-0.121967814873205252
1.291000000000000814,-0.121848334805133643
1.292000000000000925,-0.121721850334517392
1.293000000000001037,-0.121588401695394338
1.294000000000000927,-0.121448029112789999
1.295000000000000817,-0.121300772800601073
1.296000000000000929,-0.121146672959492135
1.297000000000001041,-0.120985769774816121
1.298000000000000931,-0.120818103414586139
1.299000000000000821,-0.120643714027439675
1.300000000000000933,-0.120462641740650286
1.301000000000001044,-0.120274926658172701
1.302000000000000934,-0.120080608858692955
1.303000000000000824,-0.119879728393720256
1.304000000000000936,-0.119672325285695005
1.305000000000001048,-0.119458439526140700
1.306000000000000938,-0.119238111073812214
1.307000000000000828,-0.119011379852894630
1.308000000000000940,-0.118778285751212659
1.309000000000001052,-0.118538868618474402
1.310000000000000941,-0.118293168264534593
1.311000000000000831,-0.118041224457674038
1.312000000000000943,-0.117783076922916979
1.313000000000001055,-0.117518765340376155
1.314000000000000945,-0.117248329343598592
1.315000000000000835,-0.116971808517945974
1.316000000000000947,-0.116689242399017040
1.317000000000001059,-0.116400670471064199
1.318000000000000949,-0.116106132165442924
1.319000000000000838,-0.115805666859097212
1.320000000000000950,-0.115499313873049389
1.321000000000001062,-0.115187112470915620
1.322000000000000952,-0.114869101857452388
1.323000000000000842,-0.114545321177115952
1.324000000000000954,-0.114215809512650021
1.325000000000001066,-0.113880605883684094
1.326000000000000956,-0.113539749245368138
1.327000000000000846,-0.113193278487013327
1.328000000000000957,-0.112841232430763855
1.329000000000001069,-0.112483649830281696
1.330000000000000959,-0.112120569369465753
1.331000000000000849,-0.111752029661167679
1.332000000000000961,-0.111378069245947689
1.333000000000001073,-0.110998726590844268
1.334000000000000963,-0.110614040088163071
1.335000000000000853,-0.110224048054277921
1.336000000000000965,-0.109828788728469767
1.337000000000001076,-0.109428300271761841
1.338000000000000966,-0.109022620765791084
1.339000000000000856,-0.108611788211692789
1.340000000000000968,-0.108195840528992740
1.341000000000001080,-0.107774815554540201
1.342000000000000970,-0.107348751041440010
1.343000000000000860,-0.106917684658010215
1.344000000000000972,-0.106481653986753938
1.345000000000001084,-0.106040696523361747
1.346000000000000973,-0.105594849675702346
1.347000000000000863,-0.105144150762870175
1.348000000000000975,-0.104688637014209385
1.349000000000001087,-0.104228345568388073
1.350000000000000977,-0.103763313472471919
1.351000000000000867,-0.103293577681017906
1.352000000000000979,-0.102819175055178930
1.353000000000001091,-0.102340142361839706
1.354000000000000981,-0.101856516272757963
1.355000000000000870,-0.101368333363710386
1.356000000000000982,-0.100875630113685277
1.357000000000001094,-0.100378442904061213
1.358000000000000984,-0.099876808017810501
1.359000000000000874,-0.099370761638729113
1.360000000000000986,-0.098860339850662310
1.361000000000001098,-0.098345578636768058
1.362000000000000988,-0.097826513878761984
1.363000000000000878,-0.097303181356220944
1.364000000000000989,-0.096775616745864074
1.365000000000001101,-0.096243855620857882
1.366000000000000991,-0.095707933450151800
1.367000000000000881,-0.095167885597810711
1.368000000000000993,-0.094623747322359480
1.369000000000001105,-0.094075553776153065
1.370000000000000995,-0.093523340004758246
1.371000000000000885,-0.092967140946343216
1.372000000000000997,-0.092406991431077001
1.373000000000001108,-0.091842926180560697
1.374000000000000998,-0.091274979807236228
1.375000000000000888,-0.090703186813863676
1.376000000000001000,-0.090127581592949951
1.377000000000001112,-0.089548198426229894
1.378000000000001002,-0.088965071484151406
1.379000000000000892,-0.088378234825366067
1.380000000000001004,-0.087787722396232490
1.381000000000001116,-0.087193568030344420
1.382000000000001005,-0.086595805448055563
1.383000000000000895,-0.085994468256020057
1.384000000000001007,-0.085389589946758632
1.385000000000001119,-0.084781203898207619
1.386000000000001009,-0.084169343373315358
1.387000000000000899,-0.083554041519609712
1.388000000000001011,-0.082935331368824222
1.389000000000001123,-0.082313245836482390
1.390000000000001013,-0.081687817721540171
1.391000000000000902,-0.081059079706005094
1.392000000000001014,-0.080427064354590544
1.393000000000001126,-0.079791804114364553
1.394000000000001016,-0.079153331314415334
1.395000000000000906,-0.078511678165525761
1.396000000000001018,-0.077866876759857082
1.397000000000001130,-0.077218959070650378
1.398000000000001020,-0.076567956951929000
1.399000000000000909,-0.075913902138205952
1.400000000000001021,-0.075256826244221239
1.401000000000001133,-0.074596760764673198
1.402000000000001023,-0.073933737073958034
1.403000000000000913,-0.073267786425922243
1.404000000000001025,-0.072598939953636421
1.405000000000001137,-0.071927228669160181
1.406000000000001027,-0.071252683463315189
1.407000000000000917,-0.070575335105500736
1.408000000000001029,-0.069895214243459958
1.409000000000001140,-0.069212351403113243
1.410000000000001030,-0.068526776988368399
1.411000000000000920,-0.067838521280940769
1.412000000000001032,-0.067147614440183856
1.413000000000001144,-0.066454086502951759
1.414000000000001034,-0.065757967383425361
1.415000000000000924,-0.065059286872981209
1.416000000000001036,-0.064358074640064447
1.417000000000001148,-0.063654360230054774
1.418000000000001037,-0.062948173065150909
1.419000000000000927,-0.062239542444261962
1.420000000000001039,-0.061528497542904202
1.421000000000001151,-0.060815067413112746
1.422000000000001041,-0.060099280983345341
1.423000000000000931,-0.059381167058408860
1.424000000000001043,-0.058660754319385701
1.425000000000001155,-0.057938071323568319
1.426000000000001044,-0.057213146504405711
1.427000000000000934,-0.056486008171447978
1.428000000000001046,-0.055756684510304001
1.429000000000001158,-0.055025203582602170
1.430000000000001048,-0.054291593325965906
1.431000000000000938,-0.053555881553986787
1.432000000000001050,-0.052818095956208136
1.433000000000001162,-0.052078264098118533
1.434000000000001052,-0.051336413421135776
1.435000000000000941,-0.050592571242629447
1.436000000000001053,-0.049846764755910059
1.437000000000001165,-0.049099021030256651
1.438000000000001055,-0.048349367010936659
1.439000000000000945,-0.047597829519225171
1.440000000000001057,-0.046844435252448899
1.441000000000001169,-0.046089210784016808
1.442000000000001059,-0.045332182563466022
1.443000000000000949,-0.044573376916524347
1.444000000000001060,-0.043812820045145737
1.445000000000001172,-0.043050538027586696
1.446000000000001062,-0.042286556818476345
1.447000000000000952,-0.041520902248872775
1.448000000000001064,-0.040753600026358625
1.449000000000001176,-0.039984675735115827
1.450000000000001066,-0.039214154836014189
1.451000000000000956,-0.038442062666704531
1.452000000000001068,-0.037668424441722248
1.453000000000001180,-0.036893265252587445
1.454000000000001069,-0.036116610067913335
1.455000000000000959,-0.035338483733520248
1.456000000000001071,-0.034558910972553189
1.457000000000001183,-0.033777916385609424
1.458000000000001073,-0.032995524450857669
1.459000000000000963,-0.032211759524176167
1.460000000000001075,-0.031426645839292430
1.461000000000001187,-0.030640207507912777
1.462000000000001076,-0.029852468519882956
1.463000000000000966,-0.029063452743322820
1.464000000000001078,-0.028273183924792521
1.465000000000001190,-0.027481685689448355
1.466000000000001080,-0.026688981541193924
1.467000000000000970,-0.025895094862863711
1.468000000000001082,-0.025100048916383410
1.469000000000001194,-0.024303866842943344
1.470000000000001084,-0.023506571663183502
1.471000000000000973,-0.022708186277367350
1.472000000000001085,-0.021908733465578204
1.473000000000001197,-0.021108235887899621
1.474000000000001087,-0.020306716084610939
1.475000000000000977,-0.019504196476384884
1.476000000000001089,-0.018700699364492378
1.477000000000001201,-0.017896246930999136
1.478000000000001091,-0.017090861238974180
1.479000000000000981,-0.016284564232706612
1.480000000000001092,-0.015477377737909364
1.481000000000001204,-0.014669323461950975
1.482000000000001094,-0.013860422994057580
1.483000000000000984,-0.013050697805554656
1.484000000000001096,-0.012240169250083782
1.485000000000001208,-0.011428858563826728
1.486000000000001098,-0.010616786865756400
1.487000000000000988,-0.009803975157855511
1.488000000000001100,-0.008990444325361602
1.489000000000001211,-0.008176215137009054
1.490000000000001101,-0.007361308245277273
1.491000000000000991,-0.006545744186623517
1.492000000000001103,-0.005729543381753551
1.493000000000001215,-0.004912726135854474
1.494000000000001105,-0.004095312638860505
1.495000000000000995,-0.003277322965708465
1.496000000000001107,-0.002458777076601188
1.497000000000001219,-0.001639694817261287
1.498000000000001108,-0.000820095919204997
1.499000000000000998,0.000000000000000000
