# AlFCC100UCD_CS-5894-AC
# h[nm],U(h)[kJ/mol]
0.149999999999999994,130.391676006603091764
0.150999999999999995,128.090830872555159203
0.151999999999999996,123.859953052232100390
0.152999999999999997,119.266136494484797481
0.153999999999999998,114.933310945334326902
0.154999999999999999,111.010692060677982340
0.156000000000000000,107.440446080358498193
0.157000000000000001,104.101269539320583135
0.158000000000000002,100.877819523312709293
0.159000000000000002,97.687862248491981632
0.160000000000000003,94.486965374095660763
0.161000000000000004,91.262655970917649029
0.162000000000000005,88.024877358675681194
0.163000000000000006,84.796380975157291005
0.164000000000000007,81.604745507724487652
0.165000000000000008,78.476587039749901464
0.166000000000000009,75.433914205486644278
0.167000000000000010,72.492292741934534206
0.168000000000000010,69.660383632350203698
0.169000000000000011,66.940423909074610265
0.170000000000000012,64.329276152259808441
0.171000000000000013,61.819749725956015141
0.172000000000000014,59.401975464065003507
0.173000000000000015,57.064686243100609886
0.174000000000000016,54.796314472806784579
0.175000000000000017,52.585863034032627183
0.176000000000000018,50.423539408753711655
0.177000000000000018,48.301165357112800791
0.178000000000000019,46.212388483056955124
0.179000000000000020,44.152729355829251290
0.180000000000000021,42.119500288978720448
0.181000000000000022,40.111630922284426504
0.182000000000000023,38.129432618087363949
0.183000000000000024,36.174329312018251414
0.184000000000000025,34.248577547546332767
0.185000000000000026,32.354993469400973538
0.186000000000000026,30.496699883543918475
0.187000000000000027,28.676902313431241964
0.188000000000000028,26.898699399478640970
0.189000000000000029,25.164930036438647676
0.190000000000000030,23.478057308722092955
0.191000000000000031,21.840087521872415977
0.192000000000000032,20.252521376164306588
0.193000000000000033,18.716333513423290213
0.194000000000000034,17.231976216357729470
0.195000000000000034,15.799402879265477040
0.196000000000000035,14.418106933853911400
0.197000000000000036,13.087172145329239115
0.198000000000000037,11.805330541204636319
0.199000000000000038,10.571024655982132145
0.200000000000000039,9.382471234377502967
0.201000000000000040,8.237724006715685832
0.202000000000000041,7.134733611617053661
0.203000000000000042,6.071403177814943319
0.204000000000000042,5.045638478323406062
0.205000000000000043,4.055391929570635767
0.206000000000000044,3.098700022037482515
0.207000000000000045,2.173714036396653171
0.208000000000000046,1.278724121017614124
0.209000000000000047,0.412176985255318595
0.210000000000000048,-0.427312398603228338
0.211000000000000049,-1.240954589670358432
0.212000000000000050,-2.029784403928219128
0.213000000000000050,-2.794663963472066470
0.214000000000000051,-3.536289443583530812
0.215000000000000052,-4.255200892740481855
0.216000000000000053,-4.951794517594021450
0.217000000000000054,-5.626336854312504521
0.218000000000000055,-6.278980286430388524
0.219000000000000056,-6.909779414737519332
0.220000000000000057,-7.518707834461425321
0.221000000000000058,-8.105674927031763843
0.222000000000000058,-8.670542326422189916
0.223000000000000059,-9.213139772075235712
0.224000000000000060,-9.733280110661420181
0.225000000000000061,-10.230773256571968233
0.226000000000000062,-10.705438965484713520
0.227000000000000063,-11.157118316153042059
0.228000000000000064,-11.585683832485226930
0.229000000000000065,-11.991048210881377400
0.230000000000000066,-12.373171646658652989
0.231000000000000066,-12.732067778299256844
0.232000000000000067,-13.067808289341609651
0.233000000000000068,-13.380526225202578061
0.234000000000000069,-13.670418096303237121
0.235000000000000070,-13.937744849836121830
0.236000000000000071,-14.182831800637000441
0.237000000000000072,-14.406067617196274711
0.238000000000000073,-14.607902462149038314
0.239000000000000073,-14.788845387899765882
0.240000000000000074,-14.949461087639241086
0.241000000000000075,-15.090366100152326823
0.242000000000000076,-15.212224563737493099
0.243000000000000077,-15.315743610486100224
0.244000000000000078,-15.401668487304949196
0.245000000000000079,-15.470777484594359308
0.246000000000000080,-15.523876747583789992
0.247000000000000081,-15.561795039123603956
0.248000000000000081,-15.585378516365206991
0.249000000000000082,-15.595485577343941586
0.250000000000000111,-15.592981827107044168
0.251000000000000112,-15.578735206781313849
0.252000000000000113,-15.553611322921943483
0.253000000000000114,-15.518469008675785048
0.254000000000000115,-15.474156142776113398
0.255000000000000115,-15.421505747190357383
0.256000000000000116,-15.361332379394033509
0.257000000000000117,-15.294428830756363169
0.258000000000000118,-15.221563138405127091
0.259000000000000119,-15.143475914192851661
0.260000000000000120,-15.060877991010334753
0.261000000000000121,-14.974448383679424879
0.262000000000000122,-14.884832558995483964
0.263000000000000123,-14.792641007166100309
0.264000000000000123,-14.698448104892539945
0.265000000000000124,-14.602791258644575834
0.266000000000000125,-14.506170315271575078
0.267000000000000126,-14.409047225951269411
0.268000000000000127,-14.311845948584103638
0.269000000000000128,-14.214952573075203546
0.270000000000000129,-14.118715653487194928
0.271000000000000130,-14.023446730776544911
0.272000000000000131,-13.929421029724684544
0.273000000000000131,-13.836878313723648404
0.274000000000000132,-13.746023881258068400
0.275000000000000133,-13.657029688223548902
0.276000000000000134,-13.570035580619521198
0.277000000000000135,-13.485150622639313411
0.278000000000000136,-13.402454505735994061
0.279000000000000137,-13.321999024857523963
0.280000000000000138,-13.243809608707413972
0.281000000000000139,-13.167886891585752096
0.282000000000000139,-13.094208315091259820
0.283000000000000140,-13.022729748708556485
0.284000000000000141,-12.953387119058044519
0.285000000000000142,-12.886098038342442607
0.286000000000000143,-12.820763423276492432
0.287000000000000144,-12.757269096530274410
0.288000000000000145,-12.695487363447037765
0.289000000000000146,-12.635278557508321740
0.290000000000000147,-12.576492548710614727
0.291000000000000147,-12.518970209684354700
0.292000000000000148,-12.462544835026584167
0.293000000000000149,-12.407043509930456793
0.294000000000000150,-12.352288424776498132
0.295000000000000151,-12.298098132902033797
0.296000000000000152,-12.244288749284272910
0.297000000000000153,-12.190675088360237055
0.298000000000000154,-12.137071739661905667
0.299000000000000155,-12.083294080368659706
0.300000000000000155,-12.029159224270774331
0.301000000000000156,-11.974486906998819791
0.302000000000000157,-11.919100307704413311
0.303000000000000158,-11.862826807679033081
0.304000000000000159,-11.805498686670640396
0.305000000000000160,-11.746953757902897308
0.306000000000000161,-11.687035943021442108
0.307000000000000162,-11.625595788385703955
0.308000000000000163,-11.562490924294904104
0.309000000000000163,-11.497586468885028665
0.310000000000000164,-11.430755378559915414
0.311000000000000165,-11.361878746925986761
0.312000000000000166,-11.290846054288135036
0.313000000000000167,-11.217555369834414591
0.314000000000000168,-11.141913508691207113
0.315000000000000169,-11.063836146069439437
0.316000000000000170,-10.983247890747652065
0.317000000000000171,-10.900082320149984128
0.318000000000000171,-10.814281979277701851
0.319000000000000172,-10.725798345743292828
0.320000000000000173,-10.634591763136468145
0.321000000000000174,-10.540631344923376389
0.322000000000000175,-10.443894851044616345
0.323000000000000176,-10.344368539335073720
0.324000000000000177,-10.242046993839826641
0.325000000000000178,-10.136932932046658351
0.326000000000000179,-10.029036992997443889
0.327000000000000179,-9.918377508178265245
0.328000000000000180,-9.804980257022801737
0.329000000000000181,-9.688878208795904001
0.330000000000000182,-9.570111252553434866
0.331000000000000183,-9.448725916803699221
0.332000000000000184,-9.324775080422444518
0.333000000000000185,-9.198317676300273860
0.334000000000000186,-9.069418389127651636
0.335000000000000187,-8.938147348648834978
0.336000000000000187,-8.804579819643176819
0.337000000000000188,-8.668795889819238099
0.338000000000000189,-8.530880156735904052
0.339000000000000190,-8.390921414793925948
0.340000000000000191,-8.249012343272104530
0.341000000000000192,-8.105249196315243765
0.342000000000000193,-7.959731495714066796
0.343000000000000194,-7.812561727254362154
0.344000000000000195,-7.663845041349306442
0.345000000000000195,-7.513688958609558988
0.346000000000000196,-7.362203080947118394
0.347000000000000197,-7.209498808753137311
0.348000000000000198,-7.055689064636271546
0.349000000000000199,-6.900888024156219380
0.350000000000000200,-6.745210853938360174
0.351000000000000201,-6.588773457507718589
0.352000000000000202,-6.431692229136203309
0.353000000000000203,-6.274083815954240251
0.354000000000000203,-6.116064888537484201
0.355000000000000204,-5.957751920141308943
0.356000000000000205,-5.799260974719643968
0.357000000000000206,-5.640707503830766356
0.358000000000000207,-5.482206152500773477
0.359000000000000208,-5.323870574085759699
0.360000000000000209,-5.165813254145690259
0.361000000000000210,-5.008145343317004006
0.362000000000000210,-4.850976499146871568
0.363000000000000211,-4.694414736829681800
0.364000000000000212,-4.538566288765737866
0.365000000000000213,-4.383535472843020031
0.366000000000000214,-4.229424569325766825
0.367000000000000215,-4.076333706217494246
0.368000000000000216,-3.924360752951983500
0.369000000000000217,-3.773601222252545906
0.370000000000000218,-3.624148179988436969
0.371000000000000218,-3.476092162846808886
0.372000000000000219,-3.329521103629482948
0.373000000000000220,-3.184520263975834986
0.374000000000000221,-3.041172174306203679
0.375000000000000222,-2.899556580774226511
0.376000000000000223,-2.759750399011732913
0.377000000000000224,-2.621827674445714074
0.378000000000000225,-2.485859548963849530
0.379000000000000226,-2.351914233702578905
0.380000000000000226,-2.220056987730300246
0.381000000000000227,-2.090350102397182663
0.382000000000000228,-1.962852891123012311
0.383000000000000229,-1.837621684394826760
0.384000000000000230,-1.714709829746833503
0.385000000000000231,-1.594167696496906483
0.386000000000000232,-1.476042685015542810
0.387000000000000233,-1.360379240305682025
0.388000000000000234,-1.247218869674532771
0.389000000000000234,-1.136600164281711844
0.390000000000000235,-1.028558824351235801
0.391000000000000236,-0.923127687839075284
0.392000000000000237,-0.820336762351420945
0.393000000000000238,-0.720213260113643949
0.394000000000000239,-0.622781635793906885
0.395000000000000240,-0.528063626990308288
0.396000000000000241,-0.436078297195125753
0.397000000000000242,-0.346842081054614781
0.398000000000000242,-0.260368831747971652
0.399000000000000243,-0.176669870314103722
0.400000000000000244,-0.095754036759894010
0.401000000000000245,-0.017627742789423573
0.402000000000000246,0.057704974001800989
0.403000000000000247,0.130242394617777313
0.404000000000000248,0.199985061983027734
0.405000000000000249,0.266935723233485689
0.406000000000000250,0.331099271111587767
0.407000000000000250,0.392482684594705256
0.408000000000000251,0.451094968880895231
0.409000000000000252,0.506947094850598412
0.410000000000000253,0.560051938118107051
0.411000000000000254,0.610424217781239009
0.412000000000000255,0.658080434973022710
0.413000000000000256,0.703038811314018242
0.414000000000000257,0.745319227359388159
0.415000000000000258,0.784943161129865397
0.416000000000000258,0.821933626811382601
0.417000000000000259,0.856315113703450925
0.418000000000000260,0.888113525492089884
0.419000000000000261,0.917356119918787072
0.420000000000000262,0.944071448912722433
0.421000000000000263,0.968289299249484592
0.422000000000000264,0.990040633795565506
0.423000000000000265,1.009357533394028561
0.424000000000000266,1.026273139442935634
0.425000000000000266,1.040821597214732996
0.426000000000000267,1.053037999961073279
0.427000000000000268,1.062958333844245873
0.428000000000000269,1.070619423733153219
0.429000000000000270,1.076058879898623699
0.430000000000000271,1.079315045639674953
0.431000000000000272,1.080426945869629174
0.432000000000000273,1.079434236688000981
0.433000000000000274,1.076377155961453447
0.434000000000000274,1.071296474934457121
0.435000000000000275,1.064233450887914323
0.436000000000000276,1.055229780861504096
0.437000000000000277,1.044327556453282568
0.438000000000000278,1.031569219707919149
0.439000000000000279,1.016997520102802754
0.440000000000000280,1.000655472639320642
0.441000000000000281,0.982586317044778723
0.442000000000000282,0.962833478088438222
0.443000000000000282,0.941440527013756245
0.444000000000000283,0.918451144086960269
0.445000000000000284,0.893909082260835097
0.446000000000000285,0.867858131951029899
0.447000000000000286,0.840342086920778164
0.448000000000000287,0.811404711268794321
0.449000000000000288,0.781089707513763165
0.450000000000000289,0.749440685767724157
0.451000000000000290,0.716501133989696948
0.452000000000000290,0.682314389309742531
0.453000000000000291,0.646923610412841965
0.454000000000000292,0.610371750971057891
0.455000000000000293,0.572701534111653032
0.456000000000000294,0.533955427908097469
0.457000000000000295,0.494175621880261484
0.458000000000000296,0.453404004489298629
0.459000000000000297,0.411682141612437047
0.460000000000000298,0.369051255981981519
0.461000000000000298,0.325552207572824048
0.462000000000000299,0.281225474921822705
0.463000000000000300,0.236111137362470969
0.464000000000000301,0.190248858157629236
0.465000000000000302,0.143677868513017254
0.466000000000000303,0.096436952453626171
0.467000000000000304,0.048564432545365119
0.468000000000000305,0.000098156443679864
0.469000000000000306,-0.048924515749019279
0.470000000000000306,-0.098466723335436795
0.471000000000000307,-0.148492116103542932
0.472000000000000308,-0.198964864653217166
0.473000000000000309,-0.249849669987994266
0.474000000000000310,-0.301111772390365962
0.475000000000000311,-0.352716959599425117
0.476000000000000312,-0.404631574308985276
0.477000000000000313,-0.456822521005020299
0.478000000000000314,-0.509257272160476671
0.479000000000000314,-0.561903873805916332
0.480000000000000315,-0.614730950494020822
0.481000000000000316,-0.667707709676060412
0.482000000000000317,-0.720803945508107113
0.483000000000000318,-0.773990042104750087
0.484000000000000319,-0.827236976257800571
0.485000000000000320,-0.880516319637308698
0.486000000000000321,-0.933800240492042577
0.487000000000000322,-0.987061504866298400
0.488000000000000322,-1.040273477349788367
0.489000000000000323,-1.093410121376947153
0.490000000000000324,-1.146445999092007728
0.491000000000000325,-1.199356270795699952
0.492000000000000326,-1.252116693989335339
0.493000000000000327,-1.304703622031678112
0.494000000000000328,-1.357094002423836709
0.495000000000000329,-1.409265374737032728
0.496000000000000330,-1.461195868197897152
0.497000000000000330,-1.512864198945663929
0.498000000000000331,-1.564249666975316755
0.499000000000000332,-1.615332152780411423
0.500000000000000333,-1.666092113709211286
0.501000000000000334,-1.716510580047224455
0.502000000000000335,-1.766569150839122360
0.503000000000000336,-1.816249989462626502
0.504000000000000337,-1.865535818966787218
0.505000000000000338,-1.914409917186604249
0.506000000000000338,-1.962856111645824297
0.507000000000000339,-2.010858774259383974
0.508000000000000340,-2.058402815846657852
0.509000000000000341,-2.105473680466409370
0.510000000000000342,-2.152057339584106277
0.511000000000000343,-2.198140286081899042
0.512000000000000344,-2.243709528121345720
0.513000000000000345,-2.288752582868581520
0.514000000000000346,-2.333257470091609331
0.515000000000000346,-2.377212705638730217
0.516000000000000347,-2.420607294807227028
0.517000000000000348,-2.463430725610952887
0.518000000000000349,-2.505672961955251132
0.519000000000000350,-2.547324436727363750
0.520000000000000351,-2.588376044810317467
0.521000000000000352,-2.628819136027889414
0.522000000000000353,-2.668645508028052671
0.523000000000000353,-2.707847399112210507
0.524000000000000354,-2.746417481016966367
0.525000000000000355,-2.784348851655307655
0.526000000000000356,-2.821635027823535147
0.527000000000000357,-2.858269937880237421
0.528000000000000358,-2.894247914403408561
0.529000000000000359,-2.929563686831281544
0.530000000000000360,-2.964212374092719315
0.531000000000000361,-2.998189477232348299
0.532000000000000361,-3.031490872035720763
0.533000000000000362,-3.064112801659347962
0.534000000000000363,-3.096051869270504575
0.535000000000000364,-3.127305030701266197
0.536000000000000365,-3.157869587121213684
0.537000000000000366,-3.187743177733005417
0.538000000000000367,-3.216923772494793443
0.539000000000000368,-3.245409664873373679
0.540000000000000369,-3.273199464631723288
0.541000000000000369,-3.300292090654388666
0.542000000000000370,-3.326686763814111547
0.543000000000000371,-3.352382999882849823
0.544000000000000372,-3.377380602490212880
0.545000000000000373,-3.401679656132163387
0.546000000000000374,-3.425280519232769105
0.547000000000000375,-3.448183817261498696
0.548000000000000376,-3.470390435908585314
0.549000000000000377,-3.491901514320691291
0.550000000000000377,-3.512718438399112131
0.551000000000000378,-3.532842834162497780
0.552000000000000379,-3.552276561176083813
0.553000000000000380,-3.571021706049163136
0.554000000000000381,-3.589080576002519507
0.555000000000000382,-3.606455692507431365
0.556000000000000383,-3.623149784997586664
0.557000000000000384,-3.639165784655411073
0.558000000000000385,-3.654506818273934865
0.559000000000000385,-3.669176202195451708
0.560000000000000386,-3.683177436327922827
0.561000000000000387,-3.696514198240186566
0.562000000000000388,-3.709190337336769172
0.563000000000000389,-3.721209869113139668
0.564000000000000390,-3.732576969492038987
0.565000000000000391,-3.743295969241588583
0.566000000000000392,-3.753371348475648350
0.567000000000000393,-3.762807731236935016
0.568000000000000393,-3.771609880163250494
0.569000000000000394,-3.779782691237184800
0.570000000000000395,-3.787331188619561750
0.571000000000000396,-3.794260519566718948
0.572000000000000397,-3.800575949431897360
0.573000000000000398,-3.806282856750701882
0.574000000000000399,-3.811386728410666169
0.575000000000000400,-3.815893154904929307
0.576000000000000401,-3.819807825669843560
0.577000000000000401,-3.823136524506463019
0.578000000000000402,-3.825885125085631167
0.579000000000000403,-3.828059586536485703
0.580000000000000404,-3.829665949118085333
0.581000000000000405,-3.830710329973791239
0.582000000000000406,-3.831198918968107936
0.583000000000000407,-3.831137974605492325
0.584000000000000408,-3.830533820030792125
0.585000000000000409,-3.829392839110726587
0.586000000000000409,-3.827721472595974284
0.587000000000000410,-3.825526214363336841
0.588000000000000411,-3.822813607737311603
0.589000000000000412,-3.819590241890627791
0.590000000000000413,-3.815862748322951692
0.591000000000000414,-3.811637797417256390
0.592000000000000415,-3.806922095073103751
0.593000000000000416,-3.801722379416139663
0.594000000000000417,-3.796045417583147952
0.595000000000000417,-3.789898002581868042
0.596000000000000418,-3.783286950224820089
0.597000000000000419,-3.776219096136455899
0.598000000000000420,-3.768701292832706606
0.599000000000000421,-3.760740406872253860
0.600000000000000422,-3.752343316078656787
0.601000000000000423,-3.743516906832471847
0.602000000000000424,-3.734268071432611968
0.603000000000000425,-3.724603705526047914
0.604000000000000425,-3.714530705604949468
0.605000000000000426,-3.704055966570511949
0.606000000000000427,-3.693186379362493277
0.607000000000000428,-3.681928828653620478
0.608000000000000429,-3.670290190607996550
0.609000000000000430,-3.658277330702569774
0.610000000000000431,-3.645897101610837243
0.611000000000000432,-3.633156341147795843
0.612000000000000433,-3.620061870275322669
0.613000000000000433,-3.606620491167037645
0.614000000000000434,-3.592838985331754831
0.615000000000000435,-3.578724111794576057
0.616000000000000436,-3.564282605334808007
0.617000000000000437,-3.549521174779723509
0.618000000000000438,-3.534446501353273984
0.619000000000000439,-3.519065237078860431
0.620000000000000440,-3.503384003235276545
0.621000000000000441,-3.487409388864885162
0.622000000000000441,-3.471147949333182048
0.623000000000000442,-3.454606204938781566
0.624000000000000443,-3.437790639573018669
0.625000000000000444,-3.420707699428239490
0.626000000000000445,-3.403363791753863943
0.627000000000000446,-3.385765283659429858
0.628000000000000447,-3.367918500963674511
0.629000000000000448,-3.349829727088834197
0.630000000000000449,-3.331505201999246601
0.631000000000000449,-3.312951121183477454
0.632000000000000450,-3.294173634679081086
0.633000000000000451,-3.275178846139149780
0.634000000000000452,-3.255972811939840117
0.635000000000000453,-3.236561540328026787
0.636000000000000454,-3.216950990608303584
0.637000000000000455,-3.197147072368482945
0.638000000000000456,-3.177155644742800877
0.639000000000000457,-3.156982515712050130
0.640000000000000457,-3.136633441439840464
0.641000000000000458,-3.116114125644180888
0.642000000000000459,-3.095430219003693750
0.643000000000000460,-3.074587318597595598
0.644000000000000461,-3.053590967378768450
0.645000000000000462,-3.032446653679164772
0.646000000000000463,-3.011159810746745435
0.647000000000000464,-2.989735816313336514
0.648000000000000465,-2.968179992192595762
0.649000000000000465,-2.946497603907410223
0.650000000000000466,-2.924693860346047281
0.651000000000000467,-2.902773913446321963
0.652000000000000468,-2.880742857907164556
0.653000000000000469,-2.858605730926817134
0.654000000000000470,-2.836367511967144761
0.655000000000000471,-2.814033122543247778
0.656000000000000472,-2.791607426037846729
0.657000000000000473,-2.769095227539750681
0.658000000000000473,-2.746501273705806323
0.659000000000000474,-2.723830252645709216
0.660000000000000475,-2.701086793829056809
0.661000000000000476,-2.678275468014057470
0.662000000000000477,-2.655400787197327972
0.663000000000000478,-2.632467204584150178
0.664000000000000479,-2.609479114578677539
0.665000000000000480,-2.586440852793475464
0.666000000000000481,-2.563356696077918606
0.667000000000000481,-2.540230862564786474
0.668000000000000482,-2.517067511734670582
0.669000000000000483,-2.493870744497560299
0.670000000000000484,-2.470644603291119790
0.671000000000000485,-2.447393072195195085
0.672000000000000486,-2.424120077061967748
0.673000000000000487,-2.400829485661405638
0.674000000000000488,-2.377525107841343743
0.675000000000000488,-2.354210695701897116
0.676000000000000489,-2.330889943783675644
0.677000000000000490,-2.307566489269300192
0.678000000000000491,-2.284243912197876814
0.679000000000000492,-2.260925735691913907
0.680000000000000493,-2.237615426196281732
0.681000000000000494,-2.214316393728797294
0.682000000000000495,-2.191031992142018048
0.683000000000000496,-2.167765519395859375
0.684000000000000496,-2.144520217840598431
0.685000000000000497,-2.121299274509939270
0.686000000000000498,-2.098105821423680961
0.687000000000000499,-2.074942935899708463
0.688000000000000500,-2.051813640874855960
0.689000000000000501,-2.028720905234345562
0.690000000000000502,-2.005667644149444317
0.691000000000000503,-1.982656719422950742
0.692000000000000504,-1.959690939842238633
0.693000000000000504,-1.936773061539521112
0.694000000000000505,-1.913905788358945204
0.695000000000000506,-1.891091772230322876
0.696000000000000507,-1.868333613549075789
0.697000000000000508,-1.845633861562169242
0.698000000000000509,-1.822995014759743793
0.699000000000000510,-1.800419521272071055
0.700000000000000511,-1.777909779271702462
0.701000000000000512,-1.755468137380379545
0.702000000000000512,-1.733096895080572297
0.703000000000000513,-1.710798303131291664
0.704000000000000514,-1.688574563987980337
0.705000000000000515,-1.666427832226203609
0.706000000000000516,-1.644360214968915823
0.707000000000000517,-1.622373772317046603
0.708000000000000518,-1.600470517783193714
0.709000000000000519,-1.578652418728218931
0.710000000000000520,-1.556921396800452495
0.711000000000000520,-1.535279328377395558
0.712000000000000521,-1.513728045009621104
0.713000000000000522,-1.492269333866732994
0.714000000000000523,-1.470904938185169319
0.715000000000000524,-1.449636557717620899
0.716000000000000525,-1.428465849183954361
0.717000000000000526,-1.407394426723374670
0.718000000000000527,-1.386423862347714309
0.719000000000000528,-1.365555686395631962
0.720000000000000528,-1.344791387987610332
0.721000000000000529,-1.324132415481491520
0.722000000000000530,-1.303580176928526457
0.723000000000000531,-1.283136040529649247
0.724000000000000532,-1.262801335091933597
0.725000000000000533,-1.242577350485028376
0.726000000000000534,-1.222465338097437737
0.727000000000000535,-1.202466511292529017
0.728000000000000536,-1.182582045864127185
0.729000000000000536,-1.162813080491548412
0.730000000000000537,-1.143160717194007470
0.731000000000000538,-1.123626021784168483
0.732000000000000539,-1.104210024320873007
0.733000000000000540,-1.084913719560769874
0.734000000000000541,-1.065738067408884104
0.735000000000000542,-1.046683993367892418
0.736000000000000543,-1.027752388986139298
0.737000000000000544,-1.008944112304118068
0.738000000000000544,-0.990259988299533545
0.739000000000000545,-0.971700809330638959
0.740000000000000546,-0.953267335577941410
0.741000000000000547,-0.934960295484052795
0.742000000000000548,-0.916780386191715202
0.743000000000000549,-0.898728273979816583
0.744000000000000550,-0.880804594697382703
0.745000000000000551,-0.863009954195491091
0.746000000000000552,-0.845344928756953551
0.747000000000000552,-0.827810065523796546
0.748000000000000553,-0.810405882922390908
0.749000000000000554,-0.793132871086202118
0.750000000000000555,-0.775991492276142725
0.751000000000000556,-0.758982181298372915
0.752000000000000557,-0.742105345919593207
0.753000000000000558,-0.725361367279694469
0.754000000000000559,-0.708750600301792488
0.755000000000000560,-0.692273374099514061
0.756000000000000560,-0.675929992381580691
0.757000000000000561,-0.659720733853543573
0.758000000000000562,-0.643645852616720582
0.759000000000000563,-0.627705578564255129
0.760000000000000564,-0.611900117774245578
0.761000000000000565,-0.596229652899932128
0.762000000000000566,-0.580694343556895420
0.763000000000000567,-0.565294326707267092
0.764000000000000568,-0.550029717040847022
0.765000000000000568,-0.534900607353197333
0.766000000000000569,-0.519907068920603566
0.767000000000000570,-0.505049151871928670
0.768000000000000571,-0.490326885557309189
0.769000000000000572,-0.475740278913686421
0.770000000000000573,-0.461289320827165228
0.771000000000000574,-0.446973980492134992
0.772000000000000575,-0.432794207767204786
0.773000000000000576,-0.418749933527852503
0.774000000000000576,-0.404841070015870830
0.775000000000000577,-0.391067511185529237
0.776000000000000578,-0.377429133046427501
0.777000000000000579,-0.363925794003136072
0.778000000000000580,-0.350557335191462038
0.779000000000000581,-0.337323580811472401
0.780000000000000582,-0.324224338457169525
0.781000000000000583,-0.311259399442896156
0.782000000000000584,-0.298428539126371906
0.783000000000000584,-0.285731517228452969
0.784000000000000585,-0.273168078149560456
0.785000000000000586,-0.260737951282760227
0.786000000000000587,-0.248440851323568357
0.787000000000000588,-0.236276478576400162
0.788000000000000589,-0.224244519257702585
0.789000000000000590,-0.212344645795807641
0.790000000000000591,-0.200576517127422971
0.791000000000000592,-0.188939778990871943
0.792000000000000592,-0.177434064215981818
0.793000000000000593,-0.166058993010725603
0.794000000000000594,-0.154814173244545078
0.795000000000000595,-0.143699200728415410
0.796000000000000596,-0.132713659491625030
0.797000000000000597,-0.121857122055325243
0.798000000000000598,-0.111129149702795790
0.799000000000000599,-0.100529292746490403
0.800000000000000600,-0.090057090791874350
0.801000000000000600,-0.079712072998005007
0.802000000000000601,-0.069493758334952083
0.803000000000000602,-0.059401655838008917
0.804000000000000603,-0.049435264858733341
0.805000000000000604,-0.039594075312837339
0.806000000000000605,-0.029877567924910677
0.807000000000000606,-0.020285214470051736
0.808000000000000607,-0.010816478012336251
0.809000000000000608,-0.001470813140235650
0.810000000000000608,0.007752333801060285
0.811000000000000609,0.016853524480414283
0.812000000000000610,0.025833328354505008
0.813000000000000611,0.034692322444663845
0.814000000000000612,0.043431091116700092
0.815000000000000613,0.052050225863701262
0.816000000000000614,0.060550325091854498
0.817000000000000615,0.068931993909167530
0.818000000000000616,0.077195843917149523
0.819000000000000616,0.085342493005406458
0.820000000000000617,0.093372565149123912
0.821000000000000618,0.101286690209421409
0.822000000000000619,0.109085503736556191
0.823000000000000620,0.116769646775964644
0.824000000000000621,0.124339765677119046
0.825000000000000622,0.131796511905160951
0.826000000000000623,0.139140541855304750
0.827000000000000624,0.146372516670002367
0.828000000000000624,0.153493102058798653
0.829000000000000625,0.160502968120940531
0.830000000000000626,0.167402789170613991
0.831000000000000627,0.174193243564869593
0.832000000000000628,0.180875013534173151
0.833000000000000629,0.187448785015580738
0.834000000000000630,0.193915247488488929
0.835000000000000631,0.200275093812962407
0.836000000000000631,0.206529020070609720
0.837000000000000632,0.212677725407965257
0.838000000000000633,0.218721911882404862
0.839000000000000634,0.224662284310494037
0.840000000000000635,0.230499550118823671
0.841000000000000636,0.236234419197270507
0.842000000000000637,0.241867603754648636
0.843000000000000638,0.247399818176769815
0.844000000000000639,0.252831778886840386
0.845000000000000639,0.258164204208224557
0.846000000000000640,0.263397814229504090
0.847000000000000641,0.268533330671830883
0.848000000000000642,0.273571476758553811
0.849000000000000643,0.278512977087108926
0.850000000000000644,0.283358557503082031
0.851000000000000645,0.288108944976543380
0.852000000000000646,0.292764867480496183
0.853000000000000647,0.297327053871517033
0.854000000000000647,0.301796233772510358
0.855000000000000648,0.306173137457589561
0.856000000000000649,0.310458495739014129
0.857000000000000650,0.314653039856223615
0.858000000000000651,0.318757501366894513
0.859000000000000652,0.322772612040012508
0.860000000000000653,0.326699103750948738
0.861000000000000654,0.330537708378513595
0.862000000000000655,0.334289157703936968
0.863000000000000655,0.337954183311815204
0.864000000000000656,0.341533516492927514
0.865000000000000657,0.345027888148959350
0.866000000000000658,0.348438028699089686
0.867000000000000659,0.351764667988390678
0.868000000000000660,0.355008535198087394
0.869000000000000661,0.358170358757586516
0.870000000000000662,0.361250866258286840
0.871000000000000663,0.364250784369140990
0.872000000000000663,0.367170838753964113
0.873000000000000664,0.370011753990439396
0.874000000000000665,0.372774253490816276
0.875000000000000666,0.375459059424289754
0.876000000000000667,0.378066892641011731
0.877000000000000668,0.380598472597740989
0.878000000000000669,0.383054517285102758
0.879000000000000670,0.385435743156431310
0.880000000000000671,0.387742865058169017
0.881000000000000671,0.389976596161838329
0.882000000000000672,0.392137647897511710
0.883000000000000673,0.394226729888811411
0.884000000000000674,0.396244549889377407
0.885000000000000675,0.398191813720815413
0.886000000000000676,0.400069225212094259
0.887000000000000677,0.401877486140349904
0.888000000000000678,0.403617296173143014
0.889000000000000679,0.405289352812052250
0.890000000000000679,0.406894351337685367
0.891000000000000680,0.408432984756011142
0.892000000000000681,0.409905943746046275
0.893000000000000682,0.411313916608851637
0.894000000000000683,0.412657589217820864
0.895000000000000684,0.413937644970254481
0.896000000000000685,0.415154764740189919
0.897000000000000686,0.416309626832490676
0.898000000000000687,0.417402906938123597
0.899000000000000687,0.418435278090703300
0.900000000000000688,0.419407410624169696
0.901000000000000689,0.420319972131679098
0.902000000000000690,0.421173627425629582
0.903000000000000691,0.421969038498830773
0.904000000000000692,0.422706864486811829
0.905000000000000693,0.423387761631216886
0.906000000000000694,0.424012383244294688
0.907000000000000695,0.424581379674477066
0.908000000000000695,0.425095398272988256
0.909000000000000696,0.425555083361525199
0.910000000000000697,0.425961076200939093
0.911000000000000698,0.426314014960946341
0.912000000000000699,0.426614534690820058
0.913000000000000700,0.426863267291061887
0.914000000000000701,0.427060841486060938
0.915000000000000702,0.427207882797664307
0.916000000000000703,0.427305013519713506
0.917000000000000703,0.427352852693479002
0.918000000000000704,0.427352016084020903
0.919000000000000705,0.427303116157417950
0.920000000000000706,0.427206762058887524
0.921000000000000707,0.427063559591758790
0.922000000000000708,0.426874111197314110
0.923000000000000709,0.426639015935423083
0.924000000000000710,0.426358869466049506
0.925000000000000711,0.426034264031520560
0.926000000000000711,0.425665788439621717
0.927000000000000712,0.425254028047446997
0.928000000000000713,0.424799564746039415
0.929000000000000714,0.424302976945763355
0.930000000000000715,0.423764839562444706
0.931000000000000716,0.423185724004217723
0.932000000000000717,0.422566198159080031
0.933000000000000718,0.421906826383206979
0.934000000000000719,0.421208169489880102
0.935000000000000719,0.420470784739154113
0.936000000000000720,0.419695225828167484
0.937000000000000721,0.418882042882111727
0.938000000000000722,0.418031782445850264
0.939000000000000723,0.417144987476162910
0.940000000000000724,0.416222197334620625
0.941000000000000725,0.415263947781058018
0.942000000000000726,0.414270770967661961
0.943000000000000727,0.413243195433629307
0.944000000000000727,0.412181746100422131
0.945000000000000728,0.411086944267568921
0.946000000000000729,0.409959307609041257
0.947000000000000730,0.408799350170160114
0.948000000000000731,0.407607582365048848
0.949000000000000732,0.406384510974601043
0.950000000000000733,0.405130639144982152
0.951000000000000734,0.403846466386601488
0.952000000000000735,0.402532488573624114
0.953000000000000735,0.401189197943931319
0.954000000000000736,0.399817083099574977
0.955000000000000737,0.398416629007700585
0.956000000000000738,0.396988317001915336
0.957000000000000739,0.395532624784106168
0.958000000000000740,0.394050026426720990
0.959000000000000741,0.392540992375439268
0.960000000000000742,0.391005989452298641
0.961000000000000743,0.389445480859220650
0.962000000000000743,0.387859926181933601
0.963000000000000744,0.386249781394306380
0.964000000000000745,0.384615498863055294
0.965000000000000746,0.382957527352839833
0.966000000000000747,0.381276312031723463
0.967000000000000748,0.379572294477001360
0.968000000000000749,0.377845912681376683
0.969000000000000750,0.376097601059493969
0.970000000000000751,0.374327790454797027
0.971000000000000751,0.372536908146733126
0.972000000000000752,0.370725377858282301
0.973000000000000753,0.368893619763777270
0.974000000000000754,0.367042050497073835
0.975000000000000755,0.365171083159987753
0.976000000000000756,0.363281127331049725
0.977000000000000757,0.361372589074533568
0.978000000000000758,0.359445870949785973
0.979000000000000759,0.357501372020799513
0.980000000000000759,0.355539487866082304
0.981000000000000760,0.353560610588788071
0.982000000000000761,0.351565128827071471
0.983000000000000762,0.349553427764725533
0.984000000000000763,0.347525889142056565
0.985000000000000764,0.345482891266961523
0.986000000000000765,0.343424809026288969
0.987000000000000766,0.341352013897381901
0.988000000000000766,0.339264873959853552
0.989000000000000767,0.337163753907574359
0.990000000000000768,0.335049015060874145
0.991000000000000769,0.332921015378928320
0.992000000000000770,0.330780109472350037
0.993000000000000771,0.328626648615972905
0.994000000000000772,0.326460980761812958
0.995000000000000773,0.324283450552210140
0.996000000000000774,0.322094399333152259
0.997000000000000774,0.319894165167753597
0.998000000000000775,0.317683082849915088
0.999000000000000776,0.315461483918115015
1.000000000000000666,0.313229696669389546
1.001000000000000778,0.310988046173432342
1.002000000000000668,0.308736854286854490
1.003000000000000780,0.306476439667581979
1.004000000000000670,0.304207117789372539
1.005000000000000782,0.301929200956488564
1.006000000000000671,0.299642998318479015
1.007000000000000783,0.297348815885082385
1.008000000000000673,0.295046956541256677
1.009000000000000785,0.292737720062312023
1.010000000000000675,0.290421403129164868
1.011000000000000787,0.288098299343675424
1.012000000000000677,0.285768699244108637
1.013000000000000789,0.283432890320682918
1.014000000000000679,0.281091157031203520
1.015000000000000790,0.278743780816802178
1.016000000000000680,0.276391040117740572
1.017000000000000792,0.274033210389319382
1.018000000000000682,0.271670564117841185
1.019000000000000794,0.269303370836667333
1.020000000000000684,0.266931897142332453
1.021000000000000796,0.264556406710732883
1.022000000000000686,0.262177160313379454
1.023000000000000798,0.259794415833701386
1.024000000000000687,0.257408428283430857
1.025000000000000799,0.255019449818998933
1.026000000000000689,0.252627729758042874
1.027000000000000801,0.250233514595897044
1.028000000000000691,0.247837048022180151
1.029000000000000803,0.245438570937389577
1.030000000000000693,0.243038321469562751
1.031000000000000805,0.240636534990944007
1.032000000000000695,0.238233444134717892
1.033000000000000806,0.235829278811743842
1.034000000000000696,0.233424266227330340
1.035000000000000808,0.231018630898050414
1.036000000000000698,0.228612594668542973
1.037000000000000810,0.226206376728366854
1.038000000000000700,0.223800193628861610
1.039000000000000812,0.221394259300015245
1.040000000000000702,0.218988785067353364
1.041000000000000814,0.216583979668835080
1.042000000000000703,0.214180049271768119
1.043000000000000815,0.211777197489701197
1.044000000000000705,0.209375625399351423
1.045000000000000817,0.206975531557513248
1.046000000000000707,0.204577112017973517
1.047000000000000819,0.202180560348412974
1.048000000000000709,0.199786067647338472
1.049000000000000821,0.197393822560941123
1.050000000000000711,0.195004011300020152
1.051000000000000822,0.192616817656835221
1.052000000000000712,0.190232423021989616
1.053000000000000824,0.187851006401266118
1.054000000000000714,0.185472744432466502
1.055000000000000826,0.183097811402224975
1.056000000000000716,0.180726379262798831
1.057000000000000828,0.178358617648843143
1.058000000000000718,0.175994693894159976
1.059000000000000830,0.173634773048420232
1.060000000000000719,0.171279017893855967
1.061000000000000831,0.168927588961939573
1.062000000000000721,0.166580644550007623
1.063000000000000833,0.164238340737872190
1.064000000000000723,0.161900831404402756
1.065000000000000835,0.159568268244056177
1.066000000000000725,0.157240800783379070
1.067000000000000837,0.154918576397486379
1.068000000000000727,0.152601740326473528
1.069000000000000838,0.150290435691821267
1.070000000000000728,0.147984803512731633
1.071000000000000840,0.145684982722438849
1.072000000000000730,0.143391110184469817
1.073000000000000842,0.141103320708863056
1.074000000000000732,0.138821747068343881
1.075000000000000844,0.136546520014441203
1.076000000000000734,0.134277768293578265
1.077000000000000846,0.132015618663089807
1.078000000000000735,0.129760195907203724
1.079000000000000847,0.127511622852979400
1.080000000000000737,0.125270020386162584
1.081000000000000849,0.123035507467035482
1.082000000000000739,0.120808201146163280
1.083000000000000851,0.118588216580123168
1.084000000000000741,0.116375667047155323
1.085000000000000853,0.114170663962774394
1.086000000000000743,0.111973316895309136
1.087000000000000854,0.109783733581391887
1.088000000000000744,0.107602019941386101
1.089000000000000856,0.105428280094764640
1.090000000000000746,0.103262616375407235
1.091000000000000858,0.101105129346854755
1.092000000000000748,0.098955917817500155
1.093000000000000860,0.096815078855704700
1.094000000000000750,0.094682707804865582
1.095000000000000862,0.092558898298414877
1.096000000000000751,0.090443742274745831
1.097000000000000863,0.088337329992092803
1.098000000000000753,0.086239750043327540
1.099000000000000865,0.084151089370693016
1.100000000000000755,0.082071433280495931
1.101000000000000867,0.080000865457682230
1.102000000000000757,0.077939467980400856
1.103000000000000869,0.075887321334452529
1.104000000000000759,0.073844504427709026
1.105000000000000870,0.071811094604427958
1.106000000000000760,0.069787167659540156
1.107000000000000872,0.067772797852813621
1.108000000000000762,0.065768057923001902
1.109000000000000874,0.063773019101885348
1.110000000000000764,0.061787751128260716
1.111000000000000876,0.059812322261850279
1.112000000000000766,0.057846799297143189
1.113000000000000878,0.055891247577164793
1.114000000000000767,0.053945731007172114
1.115000000000000879,0.052010312068282237
1.116000000000000769,0.050085051831029258
1.117000000000000881,0.048170009968834124
1.118000000000000771,0.046265244771417954
1.119000000000000883,0.044370813158140121
1.120000000000000773,0.042486770691249232
1.121000000000000885,0.040613171589082224
1.122000000000000774,0.038750068739171813
1.123000000000000886,0.036897513711285274
1.124000000000000776,0.035055556770393202
1.125000000000000888,0.033224246889563908
1.126000000000000778,0.031403631762776246
1.127000000000000890,0.029593757817662898
1.128000000000000780,0.027794670228187400
1.129000000000000892,0.026006412927224543
1.130000000000000782,0.024229028619095865
1.131000000000000894,0.022462558791999480
1.132000000000000783,0.020707043730396012
1.133000000000000895,0.018962522527285405
1.134000000000000785,0.017229033096445582
1.135000000000000897,0.015506612184564363
1.136000000000000787,0.013795295383316577
1.137000000000000899,0.012095117141357550
1.138000000000000789,0.010406110776253997
1.139000000000000901,0.008728308486303845
1.140000000000000790,0.007061741362332531
1.141000000000000902,0.005406439399385812
1.142000000000000792,0.003762431508339328
1.143000000000000904,0.002129745527445616
1.144000000000000794,0.000508408233817558
1.145000000000000906,-0.001101554645181031
1.146000000000000796,-0.002700118420619269
1.147000000000000908,-0.004287259430743234
1.148000000000000798,-0.005862955029806660
1.149000000000000909,-0.007427183576972698
1.150000000000000799,-0.008979924425286999
1.151000000000000689,-0.010521157910730456
1.152000000000000801,-0.012050865341343125
1.153000000000000913,-0.013569028986420723
1.154000000000000803,-0.015075632065784061
1.155000000000000693,-0.016570658739129711
1.156000000000000805,-0.018054094095451782
1.157000000000000917,-0.019525924142520249
1.158000000000000806,-0.020986135796461622
1.159000000000000696,-0.022434716871393371
1.160000000000000808,-0.023871656069133742
1.161000000000000920,-0.025296942968986168
1.162000000000000810,-0.026710568017605150
1.163000000000000700,-0.028112522518910381
1.164000000000000812,-0.029502798624109244
1.165000000000000924,-0.030881389321752363
1.166000000000000814,-0.032248288427888488
1.167000000000000703,-0.033603490576286921
1.168000000000000815,-0.034946991208719698
1.169000000000000927,-0.036278786565321776
1.170000000000000817,-0.037598873675032306
1.171000000000000707,-0.038907250346084166
1.172000000000000819,-0.040203915156589873
1.173000000000000931,-0.041488867445180572
1.174000000000000821,-0.042762107301711989
1.175000000000000711,-0.044023635558065363
1.176000000000000822,-0.045273453778987074
1.177000000000000934,-0.046511564253021942
1.178000000000000824,-0.047737969983494902
1.179000000000000714,-0.048952674679579818
1.180000000000000826,-0.050155682747435815
1.181000000000000938,-0.051346999281392171
1.182000000000000828,-0.052526630055226453
1.183000000000000718,-0.053694581513494731
1.184000000000000830,-0.054850860762937048
1.185000000000000941,-0.055995475563942701
1.186000000000000831,-0.057128434322099839
1.187000000000000721,-0.058249746079785322
1.188000000000000833,-0.059359420507847246
1.189000000000000945,-0.060457467897335013
1.190000000000000835,-0.061543899151311934
1.191000000000000725,-0.062618725776706977
1.192000000000000837,-0.063681959876282487
1.193000000000000949,-0.064733614140594781
1.194000000000000838,-0.065773701840091667
1.195000000000000728,-0.066802236817225663
1.196000000000000840,-0.067819233478651694
1.197000000000000952,-0.068824706787495055
1.198000000000000842,-0.069818672255655773
1.199000000000000732,-0.070801145936215601
1.200000000000000844,-0.071772144415864852
1.201000000000000956,-0.072731684807438343
1.202000000000000846,-0.073679784742471027
1.203000000000000735,-0.074616462363845032
1.204000000000000847,-0.075541736318483849
1.205000000000000959,-0.076455625750118245
1.206000000000000849,-0.077358150292103939
1.207000000000000739,-0.078249330060308070
1.208000000000000851,-0.079129185646049052
1.209000000000000963,-0.079997738109109817
1.210000000000000853,-0.080855008970791495
1.211000000000000743,-0.081701020207046643
1.212000000000000854,-0.082535794241658716
1.213000000000000966,-0.083359353939488040
1.214000000000000856,-0.084171722599773610
1.215000000000000746,-0.084972923949492449
1.216000000000000858,-0.085762982136782948
1.217000000000000970,-0.086541921724417215
1.218000000000000860,-0.087309767683333483
1.219000000000000750,-0.088066545386242992
1.220000000000000862,-0.088812280601262034
1.221000000000000973,-0.089546999485625584
1.222000000000000863,-0.090270728579450829
1.223000000000000753,-0.090983494799551951
1.224000000000000865,-0.091685325433313911
1.225000000000000977,-0.092376248132629318
1.226000000000000867,-0.093056290907874484
1.227000000000000757,-0.093725482121954112
1.228000000000000869,-0.094383850484385828
1.229000000000000981,-0.095031425045465551
1.230000000000000870,-0.095668235190452339
1.231000000000000760,-0.096294310633831981
1.232000000000000872,-0.096909681413629142
1.233000000000000984,-0.097514377885750361
1.234000000000000874,-0.098108430718429174
1.235000000000000764,-0.098691870886659344
1.236000000000000876,-0.099264729666735704
1.237000000000000988,-0.099827038630812465
1.238000000000000878,-0.100378829641526779
1.239000000000000767,-0.100920134846675100
1.240000000000000879,-0.101450986673930044
1.241000000000000991,-0.101971417825610436
1.242000000000000881,-0.102481461273513236
1.243000000000000771,-0.102981150253781406
1.244000000000000883,-0.103470518261819189
1.245000000000000995,-0.103949599047270816
1.246000000000000885,-0.104418426609042700
1.247000000000000774,-0.104877035190361775
1.248000000000000886,-0.105325459273895000
1.249000000000000998,-0.105763733576916596
1.250000000000000888,-0.106191893046517855
1.251000000000000778,-0.106609972854858362
1.252000000000000890,-0.107018008394484276
1.253000000000001002,-0.107416035273665084
1.254000000000000892,-0.107804089311804269
1.255000000000000782,-0.108182206534872982
1.256000000000000894,-0.108550423170909710
1.257000000000001005,-0.108908775645543202
1.258000000000000895,-0.109257300577582470
1.259000000000000785,-0.109596034774630674
1.260000000000000897,-0.109925015228765494
1.261000000000001009,-0.110244279112240773
1.262000000000000899,-0.110553863773248343
1.263000000000000789,-0.110853806731716048
1.264000000000000901,-0.111144145675155986
1.265000000000001013,-0.111424918454540542
1.266000000000000902,-0.111696163080234695
1.267000000000000792,-0.111957917717971589
1.268000000000000904,-0.112210220684856976
1.269000000000001016,-0.112453110445428897
1.270000000000000906,-0.112686625607749377
1.271000000000000796,-0.112910804919544278
1.272000000000000908,-0.113125687264373331
1.273000000000001020,-0.113331311657858771
1.274000000000000909,-0.113527717243932319
1.275000000000000799,-0.113714943291135628
1.276000000000000911,-0.113893029188964420
1.277000000000001023,-0.114062014444234208
1.278000000000000913,-0.114221938677502008
1.279000000000000803,-0.114372841619517149
1.280000000000000915,-0.114514763107721421
1.281000000000001027,-0.114647743082762377
1.282000000000000917,-0.114771821585081965
1.283000000000000806,-0.114887038751508935
1.284000000000000918,-0.114993434811905715
1.285000000000001030,-0.115091050085849883
1.286000000000000920,-0.115179924979353143
1.287000000000000810,-0.115260099981603692
1.288000000000000922,-0.115331615661772260
1.289000000000001034,-0.115394512665822610
1.290000000000000924,-0.115448831713377581
1.291000000000000814,-0.115494613594623513
1.292000000000000925,-0.115531899167222327
1.293000000000001037,-0.115560729353300862
1.294000000000000927,-0.115581145136431765
1.295000000000000817,-0.115593187558680727
1.296000000000000929,-0.115596897717669261
1.297000000000001041,-0.115592316763672681
1.298000000000000931,-0.115579485896773984
1.299000000000000821,-0.115558446364013093
1.300000000000000933,-0.115529239456594171
1.301000000000001044,-0.115491906507129552
1.302000000000000934,-0.115446488886895460
1.303000000000000824,-0.115393028003137027
1.304000000000000936,-0.115331565296392435
1.305000000000001048,-0.115262142237871429
1.306000000000000938,-0.115184800326830622
1.307000000000000828,-0.115099581088008260
1.308000000000000940,-0.115006526069078310
1.309000000000001052,-0.114905676838137835
1.310000000000000941,-0.114797074981227668
1.311000000000000831,-0.114680762099867370
1.312000000000000943,-0.114556779808639458
1.313000000000001055,-0.114425169732805629
1.314000000000000945,-0.114285973505928923
1.315000000000000835,-0.114139232767536417
1.316000000000000947,-0.113984989160827666
1.317000000000001059,-0.113823284330387270
1.318000000000000949,-0.113654159919933218
1.319000000000000838,-0.113477657570106499
1.320000000000000950,-0.113293818916271036
1.321000000000001062,-0.113102685586345869
1.322000000000000952,-0.112904299198672550
1.323000000000000842,-0.112698701359903591
1.324000000000000954,-0.112485933662917953
1.325000000000001066,-0.112266037684762135
1.326000000000000956,-0.112039054984625894
1.327000000000000846,-0.111805027101830629
1.328000000000000957,-0.111563995553856099
1.329000000000001069,-0.111316001834386571
1.330000000000000959,-0.111061087411390466
1.331000000000000849,-0.110799293725208622
1.332000000000000961,-0.110530662186684475
1.333000000000001073,-0.110255234175314659
1.334000000000000963,-0.109973051037421457
1.335000000000000853,-0.109684154084346175
1.336000000000000965,-0.109388584590683596
1.337000000000001076,-0.109086383792516256
1.338000000000000966,-0.108777592885693372
1.339000000000000856,-0.108462253024125974
1.340000000000000968,-0.108140405318093921
1.341000000000001080,-0.107812090832601307
1.342000000000000970,-0.107477350585732129
1.343000000000000860,-0.107136225547040165
1.344000000000000972,-0.106788756635956467
1.345000000000001084,-0.106434984720230524
1.346000000000000973,-0.106074950614369362
1.347000000000000863,-0.105708695078129050
1.348000000000000975,-0.105336258815001707
1.349000000000001087,-0.104957682470743024
1.350000000000000977,-0.104573006631911228
1.351000000000000867,-0.104182271824432071
1.352000000000000979,-0.103785518512175101
1.353000000000001091,-0.103382787095567169
1.354000000000000981,-0.102974117910219529
1.355000000000000870,-0.102559551225557405
1.356000000000000982,-0.102139127243506891
1.357000000000001094,-0.101712886097170135
1.358000000000000984,-0.101280867849526585
1.359000000000000874,-0.100843112492175369
1.360000000000000986,-0.100399659944062303
1.361000000000001098,-0.099950550050263501
1.362000000000000988,-0.099495822580745782
1.363000000000000878,-0.099035517229195749
1.364000000000000989,-0.098569673611826975
1.365000000000001101,-0.098098331266214492
1.366000000000000991,-0.097621529650172151
1.367000000000000881,-0.097139308140616915
1.368000000000000993,-0.096651706032466839
1.369000000000001105,-0.096158762537552664
1.370000000000000995,-0.095660516783555513
1.371000000000000885,-0.095157007812952693
1.372000000000000997,-0.094648274581978192
1.373000000000001108,-0.094134355959619456
1.374000000000000998,-0.093615290726593997
1.375000000000000888,-0.093091117574400334
1.376000000000001000,-0.092561875104324773
1.377000000000001112,-0.092027601826503422
1.378000000000001002,-0.091488336158989297
1.379000000000000892,-0.090944116426837834
1.380000000000001004,-0.090394980861197752
1.381000000000001116,-0.089840967598439000
1.382000000000001005,-0.089282114679276950
1.383000000000000895,-0.088718460047917030
1.384000000000001007,-0.088150041551230685
1.385000000000001119,-0.087576896937915413
1.386000000000001009,-0.086999063857706088
1.387000000000000899,-0.086416579860563739
1.388000000000001011,-0.085829482395923723
1.389000000000001123,-0.085237808811907012
1.390000000000001013,-0.084641596354592563
1.391000000000000902,-0.084040882167273387
1.392000000000001014,-0.083435703289744922
1.393000000000001126,-0.082826096657596146
1.394000000000001016,-0.082212099101521385
1.395000000000000906,-0.081593747346642112
1.396000000000001018,-0.080971078011842557
1.397000000000001130,-0.080344127609125765
1.398000000000001020,-0.079712932542976123
1.399000000000000909,-0.079077529109729094
1.400000000000001021,-0.078437953496971580
1.401000000000001133,-0.077794241782944917
1.402000000000001023,-0.077146429935955912
1.403000000000000913,-0.076494553813806043
1.404000000000001025,-0.075838649163239624
1.405000000000001137,-0.075178751619397161
1.406000000000001027,-0.074514896705269229
1.407000000000000917,-0.073847119831204844
1.408000000000001029,-0.073175456294364533
1.409000000000001140,-0.072499941278252766
1.410000000000001030,-0.071820609852225339
1.411000000000000920,-0.071137496971009725
1.412000000000001032,-0.070450637474243294
1.413000000000001144,-0.069760066086039046
1.414000000000001034,-0.069065817414526026
1.415000000000000924,-0.068367925951429931
1.416000000000001036,-0.067666426071664745
1.417000000000001148,-0.066961352032915061
1.418000000000001037,-0.066252737975247777
1.419000000000000927,-0.065540617920725158
1.420000000000001039,-0.064825025773033479
1.421000000000001151,-0.064105995317123382
1.422000000000001041,-0.063383560218850804
1.423000000000000931,-0.062657754024638773
1.424000000000001043,-0.061928610161143594
1.425000000000001155,-0.061196161934936398
1.426000000000001044,-0.060460442532189962
1.427000000000000934,-0.059721485018375951
1.428000000000001046,-0.058979322337971742
1.429000000000001158,-0.058233987314176693
1.430000000000001048,-0.057485512648642587
1.431000000000000938,-0.056733930921209472
1.432000000000001050,-0.055979274589648333
1.433000000000001162,-0.055221575989420915
1.434000000000001052,-0.054460867333431362
1.435000000000000941,-0.053697180711817324
1.436000000000001053,-0.052930548091716004
1.437000000000001165,-0.052161001317060404
1.438000000000001055,-0.051388572108384122
1.439000000000000945,-0.050613292062616791
1.440000000000001057,-0.049835192652912162
1.441000000000001169,-0.049054305228461791
1.442000000000001059,-0.048270661014334575
1.443000000000000949,-0.047484291111324191
1.444000000000001060,-0.046695226495780881
1.445000000000001172,-0.045903498019480064
1.446000000000001062,-0.045109136409492864
1.447000000000000952,-0.044312172268041433
1.448000000000001064,-0.043512636072394958
1.449000000000001176,-0.042710558174753777
1.450000000000001066,-0.041905968802139891
1.451000000000000956,-0.041098898056304539
1.452000000000001068,-0.040289375913637911
1.453000000000001180,-0.039477432225088441
1.454000000000001069,-0.038663096716084602
1.455000000000000959,-0.037846398986467571
1.456000000000001071,-0.037027368510429162
1.457000000000001183,-0.036206034636464809
1.458000000000001073,-0.035382426587314483
1.459000000000000963,-0.034556573459930399
1.460000000000001075,-0.033728504225443254
1.461000000000001187,-0.032898247729127326
1.462000000000001076,-0.032065832690392607
1.463000000000000966,-0.031231287702752457
1.464000000000001078,-0.030394641233832211
1.465000000000001190,-0.029555921625364127
1.466000000000001080,-0.028715157093175576
1.467000000000000970,-0.027872375727222974
1.468000000000001082,-0.027027605491594171
1.469000000000001194,-0.026180874224531143
1.470000000000001084,-0.025332209638462815
1.471000000000000973,-0.024481639320035206
1.472000000000001085,-0.023629190730155829
1.473000000000001197,-0.022774891204034847
1.474000000000001087,-0.021918767951234423
1.475000000000000977,-0.021060848055728876
1.476000000000001089,-0.020201158475968935
1.477000000000001201,-0.019339726044940823
1.478000000000001091,-0.018476577470243605
1.479000000000000981,-0.017611739334167993
1.480000000000001092,-0.016745238093772846
1.481000000000001204,-0.015877100080984724
1.482000000000001094,-0.015007351502673738
1.483000000000000984,-0.014136018440769782
1.484000000000001096,-0.013263126852352859
1.485000000000001208,-0.012388702569757434
1.486000000000001098,-0.011512771300700010
1.487000000000000988,-0.010635358628381315
1.488000000000001100,-0.009756490011612797
1.489000000000001211,-0.008876190784941765
1.490000000000001101,-0.007994486158789029
1.491000000000000991,-0.007111401219565433
1.492000000000001103,-0.006226960929834584
1.493000000000001215,-0.005341190128435351
1.494000000000001105,-0.004454113530641209
1.495000000000000995,-0.003565755728308575
1.496000000000001107,-0.002676141190036301
1.497000000000001219,-0.001785294261316743
1.498000000000001108,-0.000893239164710051
1.499000000000000998,0.000000000000000000
