# hydroxyapatite-101-ph14_CS-6135-AC
# h[nm],U(h)[kJ/mol]
0.149999999999999994,83.362715965436478882
0.150999999999999995,82.104629921873609533
0.151999999999999996,80.420053707467076265
0.152999999999999997,78.668337064926930680
0.153999999999999998,76.982754154928983326
0.154999999999999999,75.388695378467744490
0.156000000000000000,73.868310690293455423
0.157000000000000001,72.393296621199823448
0.158000000000000002,70.939471716514418631
0.159000000000000002,69.491523270441405202
0.160000000000000003,68.042918978569304045
0.161000000000000004,66.593834113791260165
0.162000000000000005,65.148621385641519055
0.163000000000000006,63.713558437619496999
0.164000000000000007,62.295153955782794242
0.165000000000000008,60.899049843789569536
0.166000000000000009,59.529440445366425649
0.167000000000000010,58.188886812751171362
0.168000000000000010,56.878400884904998236
0.169000000000000011,55.597690610663804023
0.170000000000000012,54.345480477481316939
0.171000000000000013,53.119845926445293571
0.172000000000000014,51.918521426352569392
0.173000000000000015,50.739159213618620470
0.174000000000000016,49.579528678477551296
0.175000000000000017,48.437655474376427378
0.176000000000000018,47.311905284788771553
0.177000000000000018,46.201020500973349669
0.178000000000000019,45.104119505632112919
0.179000000000000020,44.020668390822400795
0.180000000000000021,42.950434226727836062
0.181000000000000022,41.893427798567977050
0.182000000000000023,40.849842305465372760
0.183000000000000024,39.819993051784265958
0.184000000000000025,38.804261779194263227
0.185000000000000026,37.803048058612006344
0.186000000000000026,36.816729121318239493
0.187000000000000027,35.845628668560124197
0.188000000000000028,34.889994552384600013
0.189000000000000029,33.949984750292159674
0.190000000000000030,33.025660739762429330
0.191000000000000031,32.116987190678344177
0.192000000000000032,31.223836809109503321
0.193000000000000033,30.345999161308554903
0.194000000000000034,29.483192361104734402
0.195000000000000034,28.635076599004047893
0.196000000000000035,27.801268612108184897
0.197000000000000036,26.981356328234063824
0.198000000000000037,26.174913055827708774
0.199000000000000038,25.381510726274647993
0.200000000000000039,24.600731821911629993
0.201000000000000040,23.832179738044331430
0.202000000000000041,23.075487428561380909
0.203000000000000042,22.330324271390026070
0.204000000000000042,21.596401161977063055
0.205000000000000043,20.873473900735778130
0.206000000000000044,20.161344984930082092
0.207000000000000045,19.459863948011932422
0.208000000000000046,18.768926411376490648
0.209000000000000047,18.088472026307137241
0.210000000000000048,17.418481488993098338
0.211000000000000049,16.758972810302523726
0.212000000000000050,16.109997015768243500
0.213000000000000050,15.471633441167721656
0.214000000000000051,14.843984776187278740
0.215000000000000052,14.227171993862890886
0.216000000000000053,13.621329287556022791
0.217000000000000054,13.026599120798238118
0.218000000000000055,12.443127478949001841
0.219000000000000056,11.871059395676805792
0.220000000000000057,11.310534812112365444
0.221000000000000058,10.761684812377882992
0.222000000000000058,10.224628266223048101
0.223000000000000059,9.699468897807383527
0.224000000000000060,9.186292789303005080
0.225000000000000061,8.685166318963446486
0.226000000000000062,8.196134525586257880
0.227000000000000063,7.719219884838032897
0.228000000000000064,7.254421477640017990
0.229000000000000065,6.801714526644450309
0.230000000000000066,6.361050273674851319
0.231000000000000066,5.932356168756305337
0.232000000000000067,5.515536339926760512
0.233000000000000068,5.110472312295570418
0.234000000000000069,4.717023944706417282
0.235000000000000070,4.335030552774716384
0.236000000000000071,3.964312187919875274
0.237000000000000072,3.604671043217749116
0.238000000000000073,3.255892958387647695
0.239000000000000073,2.917748997933797384
0.240000000000000074,2.589997078322563873
0.241000000000000075,2.272383622045045293
0.242000000000000076,1.964645218441072760
0.243000000000000077,1.666510273207312709
0.244000000000000078,1.377700630545922733
0.245000000000000079,1.097933153902288739
0.246000000000000080,0.826921253169254911
0.247000000000000081,0.564376348080742107
0.248000000000000081,0.310009259268032022
0.249000000000000082,0.063531520094699895
0.250000000000000111,-0.175343396085252845
0.251000000000000112,-0.406898937191243537
0.252000000000000113,-0.631414424858948053
0.253000000000000114,-0.849164099550110185
0.254000000000000115,-1.060416258770076281
0.255000000000000115,-1.265432487901148262
0.256000000000000116,-1.464466982340943302
0.257000000000000117,-1.657765958923036465
0.258000000000000118,-1.845567153986818809
0.259000000000000119,-2.028099404949360807
0.260000000000000120,-2.205582311807047446
0.261000000000000121,-2.378225974651821506
0.262000000000000122,-2.546230803020586908
0.263000000000000123,-2.709787392698419062
0.264000000000000123,-2.869076465461686265
0.265000000000000124,-3.024268867168210306
0.266000000000000125,-3.175525619573268621
0.267000000000000126,-3.322998021265618718
0.268000000000000127,-3.466827793172347238
0.269000000000000128,-3.607147264168761414
0.270000000000000129,-3.744079592445925364
0.271000000000000130,-3.877739018428840723
0.272000000000000131,-4.008231145198165812
0.273000000000000131,-4.135653242544652386
0.274000000000000132,-4.260094570973909534
0.275000000000000133,-4.381636722177208121
0.276000000000000134,-4.500353972688501791
0.277000000000000135,-4.616313647656013153
0.278000000000000136,-4.729576491867291566
0.279000000000000137,-4.840197045376279483
0.280000000000000138,-4.948224021288917918
0.281000000000000139,-5.053700683468442811
0.282000000000000139,-5.156665222121144865
0.283000000000000140,-5.257151125417533599
0.284000000000000141,-5.355187545491086887
0.285000000000000142,-5.450799657336780513
0.286000000000000143,-5.544009009303779933
0.287000000000000144,-5.634833864040106555
0.288000000000000145,-5.723289528902619772
0.289000000000000146,-5.809388674991305734
0.290000000000000147,-5.893141644104753496
0.291000000000000147,-5.974556743041494755
0.292000000000000148,-6.053640524791870980
0.293000000000000149,-6.130398056275270235
0.294000000000000150,-6.204833172380103790
0.295000000000000151,-6.276948716157388475
0.296000000000000152,-6.346746765104557042
0.297000000000000153,-6.414228843553890336
0.298000000000000154,-6.479396121250353247
0.299000000000000155,-6.542249598266745458
0.300000000000000155,-6.602790276460469343
0.301000000000000156,-6.661019317726006861
0.302000000000000157,-6.716938189341194132
0.303000000000000158,-6.770548796743147690
0.304000000000000159,-6.821853604102687818
0.305000000000000160,-6.870855743093381207
0.306000000000000161,-6.917559110274657641
0.307000000000000162,-6.961968453526884204
0.308000000000000163,-7.004089447990914152
0.309000000000000163,-7.043928761975687181
0.310000000000000164,-7.081494113305066840
0.311000000000000165,-7.116794316579418300
0.312000000000000166,-7.149839321829446703
0.313000000000000167,-7.180640245038844682
0.314000000000000168,-7.209209391009227197
0.315000000000000169,-7.235560269035898884
0.316000000000000170,-7.259707601856083770
0.317000000000000171,-7.281667328322646071
0.318000000000000171,-7.301456600246747364
0.319000000000000172,-7.319093773841700568
0.320000000000000173,-7.334598396188324543
0.321000000000000174,-7.347991187129096602
0.322000000000000175,-7.359294016984904374
0.323000000000000176,-7.368529880474021354
0.324000000000000177,-7.375722867198190258
0.325000000000000178,-7.380898129045775136
0.326000000000000179,-7.384081844846922316
0.327000000000000179,-7.385301182600088055
0.328000000000000180,-7.384584259574026532
0.329000000000000181,-7.381960100574221251
0.330000000000000182,-7.377458594647052337
0.331000000000000183,-7.371110450480395926
0.332000000000000184,-7.362947150744139080
0.333000000000000185,-7.353000905599742509
0.334000000000000186,-7.341304605593546917
0.335000000000000187,-7.327891774134627667
0.336000000000000187,-7.312796519744525270
0.337000000000000188,-7.296053488252741026
0.338000000000000189,-7.277697815099479328
0.339000000000000190,-7.257765077894541506
0.340000000000000191,-7.236291249369415368
0.341000000000000192,-7.213312650848417107
0.342000000000000193,-7.188865906353441915
0.343000000000000194,-7.162987897446792651
0.344000000000000195,-7.135715718906077143
0.345000000000000195,-7.107086635316166578
0.346000000000000196,-7.077138038653584928
0.347000000000000197,-7.045907406930512984
0.348000000000000198,-7.013432263957144919
0.349000000000000199,-6.979750140273540460
0.350000000000000200,-6.944898535294863784
0.351000000000000201,-6.908914880706913841
0.352000000000000202,-6.871836505142522533
0.353000000000000203,-6.833700600163344241
0.354000000000000203,-6.794544187565904281
0.355000000000000204,-6.754404088025436792
0.356000000000000205,-6.713316891086288152
0.357000000000000206,-6.671318926503063906
0.358000000000000207,-6.628446236932312274
0.359000000000000208,-6.584734551971007654
0.360000000000000209,-6.540219263534178040
0.361000000000000210,-6.494935402560983562
0.362000000000000210,-6.448917617035422545
0.363000000000000211,-6.402200151305189380
0.364000000000000212,-6.354816826679764219
0.365000000000000213,-6.306801023286528363
0.366000000000000214,-6.258185663161765611
0.367000000000000215,-6.209003194551598881
0.368000000000000216,-6.159285577396452993
0.369000000000000217,-6.109064269971076655
0.370000000000000218,-6.058370216651216111
0.371000000000000218,-6.007233836776771696
0.372000000000000219,-5.955685014580613945
0.373000000000000220,-5.903753090151452554
0.374000000000000221,-5.851466851398593683
0.375000000000000222,-5.798854526985948610
0.376000000000000223,-5.745943780202495077
0.377000000000000224,-5.692761703736041845
0.378000000000000225,-5.639334815317122995
0.379000000000000226,-5.585689054199843184
0.380000000000000226,-5.531849778446694899
0.381000000000000227,-5.477841762984255070
0.382000000000000228,-5.423689198397335431
0.383000000000000229,-5.369415690429126364
0.384000000000000230,-5.315044260155357136
0.385000000000000231,-5.260597344801121622
0.386000000000000232,-5.206096799169148248
0.387000000000000233,-5.151563897649181101
0.388000000000000234,-5.097019336778393139
0.389000000000000234,-5.042483238323678840
0.390000000000000235,-4.987975152856954253
0.391000000000000236,-4.933514063795608529
0.392000000000000237,-4.879118391880622241
0.393000000000000238,-4.824806000065818168
0.394000000000000239,-4.770594198792242224
0.395000000000000240,-4.716499751622526659
0.396000000000000241,-4.662538881210808839
0.397000000000000242,-4.608727275584373118
0.398000000000000242,-4.555080094714260674
0.399000000000000243,-4.501611977352468763
0.400000000000000244,-4.448337048114353820
0.401000000000000245,-4.395268924785601605
0.402000000000000246,-4.342420725833718187
0.403000000000000247,-4.289805078104874880
0.404000000000000248,-4.237434124687650794
0.405000000000000249,-4.185319532925918296
0.406000000000000250,-4.133472502563813933
0.407000000000000250,-4.081903774006519825
0.408000000000000251,-4.030623636681175626
0.409000000000000252,-3.979641937483047176
0.410000000000000253,-3.928968089292601995
0.411000000000000254,-3.878611079549938445
0.412000000000000255,-3.828579478873550990
0.413000000000000256,-3.778881449711135154
0.414000000000000257,-3.729524755010608317
0.415000000000000258,-3.680516766900326697
0.416000000000000258,-3.631864475367839074
0.417000000000000259,-3.583574496927233177
0.418000000000000260,-3.535653083265651642
0.419000000000000261,-3.488106129859985138
0.420000000000000262,-3.440939184555452446
0.421000000000000263,-3.394157456098114700
0.422000000000000264,-3.347765822613896880
0.423000000000000265,-3.301768840027205165
0.424000000000000266,-3.256170750412682224
0.425000000000000266,-3.210975490273952460
0.426000000000000267,-3.166186698743811867
0.427000000000000268,-3.121807725700578295
0.428000000000000269,-3.077841639795784623
0.429000000000000270,-3.034291236388752200
0.430000000000000271,-2.991159045383900761
0.431000000000000272,-2.948447338967090214
0.432000000000000273,-2.906158139237493998
0.433000000000000274,-2.864293225731965542
0.434000000000000274,-2.822854142839003266
0.435000000000000275,-2.781842207099850306
0.436000000000000276,-2.741258514394484980
0.437000000000000277,-2.701103947010449868
0.438000000000000278,-2.661379180592875482
0.439000000000000279,-2.622084690974165078
0.440000000000000280,-2.583220760882073641
0.441000000000000281,-2.544787486525121878
0.442000000000000282,-2.506784784054586712
0.443000000000000282,-2.469212395902283586
0.444000000000000283,-2.432069896993810598
0.445000000000000284,-2.395356700836908992
0.446000000000000285,-2.359072065484761005
0.447000000000000286,-2.323215099374425385
0.448000000000000287,-2.287784767040377254
0.449000000000000288,-2.252779894703659913
0.450000000000000289,-2.218199175736971007
0.451000000000000290,-2.184041176006310980
0.452000000000000290,-2.150304339089863070
0.453000000000000291,-2.116986991374900651
0.454000000000000292,-2.084087347033594995
0.455000000000000293,-2.051603512878715563
0.456000000000000294,-2.019533493100300170
0.457000000000000295,-1.987875193884419023
0.458000000000000296,-1.956626427915266309
0.459000000000000297,-1.925784918761872078
0.460000000000000298,-1.895348305150752477
0.461000000000000298,-1.865314145125956502
0.462000000000000299,-1.835679920097919027
0.463000000000000300,-1.806443038782643784
0.464000000000000301,-1.777600841032754841
0.465000000000000302,-1.749150601562037277
0.466000000000000303,-1.721089533565022922
0.467000000000000304,-1.693414792233301824
0.468000000000000305,-1.666123478170264516
0.469000000000000306,-1.639212640705890234
0.470000000000000306,-1.612679281113404084
0.471000000000000307,-1.586520355729409415
0.472000000000000308,-1.560732778979360358
0.473000000000000309,-1.535313426310028984
0.474000000000000310,-1.510259137030798282
0.475000000000000311,-1.485566717065478270
0.476000000000000312,-1.461232941616518177
0.477000000000000313,-1.437254557743237626
0.478000000000000314,-1.413628286855955984
0.479000000000000314,-1.390350827127754041
0.480000000000000315,-1.367418855825565771
0.481000000000000316,-1.344829031562448263
0.482000000000000317,-1.322577996472652506
0.483000000000000318,-1.300662378311318701
0.484000000000000319,-1.279078792480434101
0.485000000000000320,-1.257823843982822654
0.486000000000000321,-1.236894129305785794
0.487000000000000322,-1.216286238236114148
0.488000000000000322,-1.195996755608062401
0.489000000000000323,-1.176022262986005984
0.490000000000000324,-1.156359340283310777
0.491000000000000325,-1.137004567319064963
0.492000000000000326,-1.117954525314199143
0.493000000000000327,-1.099205798328605876
0.494000000000000328,-1.080754974640742105
0.495000000000000329,-1.062598648071239937
0.496000000000000330,-1.044733419252014794
0.497000000000000330,-1.027155896842339100
0.498000000000000331,-1.009862698693285044
0.499000000000000332,-0.992850452962019459
0.500000000000000333,-0.976115799177273091
0.501000000000000334,-0.959655389257388691
0.502000000000000335,-0.943465888482287740
0.503000000000000336,-0.927543976420669880
0.504000000000000337,-0.911886347813735787
0.505000000000000338,-0.896489713416706691
0.506000000000000338,-0.881350800799391765
0.507000000000000339,-0.866466355107004760
0.508000000000000340,-0.851833139782436022
0.509000000000000341,-0.837447937251171171
0.510000000000000342,-0.823307549569956443
0.511000000000000343,-0.809408799040376103
0.512000000000000344,-0.795748528788407627
0.513000000000000345,-0.782323603311051885
0.514000000000000346,-0.769130908991081275
0.515000000000000346,-0.756167354580921325
0.516000000000000347,-0.743429871656663854
0.517000000000000348,-0.730915415043246086
0.518000000000000349,-0.718620963211650698
0.519000000000000350,-0.706543518649164093
0.520000000000000351,-0.694680108203537872
0.521000000000000352,-0.683027783401967459
0.522000000000000353,-0.671583620745757726
0.523000000000000353,-0.660344721981491078
0.524000000000000354,-0.649308214349583523
0.525000000000000355,-0.638471250810958457
0.526000000000000356,-0.627831010252666077
0.527000000000000357,-0.617384697673229454
0.528000000000000358,-0.607129544348375072
0.529000000000000359,-0.597062807977986942
0.530000000000000360,-0.587181772814878600
0.531000000000000361,-0.577483749776154243
0.532000000000000361,-0.567966076537751996
0.533000000000000362,-0.558626117612886164
0.534000000000000363,-0.549461264414956352
0.535000000000000364,-0.540468935305573939
0.536000000000000365,-0.531646575628288098
0.537000000000000366,-0.522991657728594350
0.538000000000000367,-0.514501680960760543
0.539000000000000368,-0.506174171682077567
0.540000000000000369,-0.498006683234973102
0.541000000000000369,-0.489996795917595207
0.542000000000000370,-0.482142116943298837
0.543000000000000371,-0.474440280389530233
0.544000000000000372,-0.466888947136615218
0.545000000000000373,-0.459485804796856467
0.546000000000000374,-0.452228567634407164
0.547000000000000375,-0.445114976476334412
0.548000000000000376,-0.438142798615316686
0.549000000000000377,-0.431309827704332016
0.550000000000000377,-0.424613883643741918
0.551000000000000378,-0.418052812461172596
0.552000000000000379,-0.411624486184509419
0.553000000000000380,-0.405326802708401435
0.554000000000000381,-0.399157685654576710
0.555000000000000382,-0.393115084226339229
0.556000000000000383,-0.387196973057511662
0.557000000000000384,-0.381401352056196852
0.558000000000000385,-0.375726246243589024
0.559000000000000385,-0.370169705588179021
0.560000000000000386,-0.364729804835578875
0.561000000000000387,-0.359404643334281571
0.562000000000000388,-0.354192344857576003
0.563000000000000389,-0.349091057421890394
0.564000000000000390,-0.344098953101789728
0.565000000000000391,-0.339214227841867444
0.566000000000000392,-0.334435101265749046
0.567000000000000393,-0.329759816482435020
0.568000000000000393,-0.325186639890165607
0.569000000000000394,-0.320713860978039111
0.570000000000000395,-0.316339792125548691
0.571000000000000396,-0.312062768400230450
0.572000000000000397,-0.307881147353626372
0.573000000000000398,-0.303793308815675622
0.574000000000000399,-0.299797654687772641
0.575000000000000400,-0.295892608734576179
0.576000000000000401,-0.292076616374775722
0.577000000000000401,-0.288348144470945200
0.578000000000000402,-0.284705681118612497
0.579000000000000403,-0.281147735434678303
0.580000000000000404,-0.277672837345344703
0.581000000000000405,-0.274279537373636806
0.582000000000000406,-0.270966406426656314
0.583000000000000407,-0.267732035582683270
0.584000000000000408,-0.264575035878222009
0.585000000000000409,-0.261494038095098080
0.586000000000000409,-0.258487692547718695
0.587000000000000410,-0.255554668870571766
0.588000000000000411,-0.252693655806066009
0.589000000000000412,-0.249903360992798168
0.590000000000000413,-0.247182510754321072
0.591000000000000414,-0.244529849888497630
0.592000000000000415,-0.241944141457523632
0.593000000000000416,-0.239424166578666581
0.594000000000000417,-0.236968724215810778
0.595000000000000417,-0.234576630971870648
0.596000000000000418,-0.232246720882110042
0.597000000000000419,-0.229977845208464426
0.598000000000000420,-0.227768872234877323
0.599000000000000421,-0.225618687063739470
0.600000000000000422,-0.223526191413458170
0.601000000000000423,-0.221490303417208517
0.602000000000000424,-0.219509957422909741
0.603000000000000425,-0.217584103794477846
0.604000000000000425,-0.215711708714370953
0.605000000000000426,-0.213891753987476063
0.606000000000000427,-0.212123236846400165
0.607000000000000428,-0.210405169758107136
0.608000000000000429,-0.208736580232078195
0.609000000000000430,-0.207116510629840544
0.610000000000000431,-0.205544017976068805
0.611000000000000432,-0.204018173771153055
0.612000000000000433,-0.202538063805305590
0.613000000000000433,-0.201102787974249242
0.614000000000000434,-0.199711460096455629
0.615000000000000435,-0.198363207731974467
0.616000000000000436,-0.197057172002883030
0.617000000000000437,-0.195792507415350425
0.618000000000000438,-0.194568381683330238
0.619000000000000439,-0.193383975553894527
0.620000000000000440,-0.192238482634229990
0.621000000000000441,-0.191131109220289641
0.622000000000000441,-0.190061074127117174
0.623000000000000442,-0.189027608520834833
0.624000000000000443,-0.188029955752324673
0.625000000000000444,-0.187067371192590398
0.626000000000000445,-0.186139122069797575
0.627000000000000446,-0.185244487308008299
0.628000000000000447,-0.184382757367611089
0.629000000000000448,-0.183553234087428380
0.630000000000000449,-0.182755230528517804
0.631000000000000449,-0.181988070819663561
0.632000000000000450,-0.181251090004544674
0.633000000000000451,-0.180543633890598770
0.634000000000000452,-0.179865058899547958
0.635000000000000453,-0.179214731919608572
0.636000000000000454,-0.178592030159364590
0.637000000000000455,-0.177996341003310021
0.638000000000000456,-0.177427061869035396
0.639000000000000457,-0.176883600066076868
0.640000000000000457,-0.176365372656407671
0.641000000000000458,-0.175871806316548140
0.642000000000000459,-0.175402337201326308
0.643000000000000460,-0.174956410809231216
0.644000000000000461,-0.174533481849400013
0.645000000000000462,-0.174133014110185724
0.646000000000000463,-0.173754480329318672
0.647000000000000464,-0.173397362065652622
0.648000000000000465,-0.173061149572476924
0.649000000000000465,-0.172745341672383756
0.650000000000000466,-0.172449445633690635
0.651000000000000467,-0.172172977048385245
0.652000000000000468,-0.171915459711610458
0.653000000000000469,-0.171676425502644198
0.654000000000000470,-0.171455414267396522
0.655000000000000471,-0.171251973702386651
0.656000000000000472,-0.171065659240194706
0.657000000000000473,-0.170896033936372899
0.658000000000000473,-0.170742668357821537
0.659000000000000474,-0.170605140472592481
0.660000000000000475,-0.170483035541116268
0.661000000000000476,-0.170375946008840984
0.662000000000000477,-0.170283471400279579
0.663000000000000478,-0.170205218214426357
0.664000000000000479,-0.170140799821567101
0.665000000000000480,-0.170089836361415864
0.666000000000000481,-0.170051954642639308
0.667000000000000481,-0.170026788043666166
0.668000000000000482,-0.170013976414858076
0.669000000000000483,-0.170013165981949654
0.670000000000000484,-0.170024009250807184
0.671000000000000485,-0.170046164913444320
0.672000000000000486,-0.170079297755308834
0.673000000000000487,-0.170123078563832575
0.674000000000000488,-0.170177184038192514
0.675000000000000488,-0.170241296700312239
0.676000000000000489,-0.170315104807076539
0.677000000000000490,-0.170398302263725016
0.678000000000000491,-0.170490588538445176
0.679000000000000492,-0.170591668578126687
0.680000000000000493,-0.170701252725264763
0.681000000000000494,-0.170819056636026645
0.682000000000000495,-0.170944801199421181
0.683000000000000496,-0.171078212457609430
0.684000000000000496,-0.171219021527295040
0.685000000000000497,-0.171366964522221277
0.686000000000000498,-0.171521782476741824
0.687000000000000499,-0.171683221270444775
0.688000000000000500,-0.171851031553837463
0.689000000000000501,-0.172024968675066892
0.690000000000000502,-0.172204792607668911
0.691000000000000503,-0.172390267879322046
0.692000000000000504,-0.172581163501604462
0.693000000000000504,-0.172777252900751022
0.694000000000000505,-0.172978313849356025
0.695000000000000506,-0.173184128399077986
0.696000000000000507,-0.173394482814264200
0.697000000000000508,-0.173609167506524026
0.698000000000000509,-0.173827976970237719
0.699000000000000510,-0.174050709718971602
0.700000000000000511,-0.174277168222791490
0.701000000000000512,-0.174507158846484017
0.702000000000000512,-0.174740491788640262
0.703000000000000513,-0.174976981021622680
0.704000000000000514,-0.175216444232381502
0.705000000000000515,-0.175458702764118263
0.706000000000000516,-0.175703581558783656
0.707000000000000517,-0.175950909100409170
0.708000000000000518,-0.176200517359228870
0.709000000000000519,-0.176452241736638427
0.710000000000000520,-0.176705921010905487
0.711000000000000520,-0.176961397283698751
0.712000000000000521,-0.177218515927362208
0.713000000000000522,-0.177477125532957136
0.714000000000000523,-0.177737077859064146
0.715000000000000524,-0.177998227781301976
0.716000000000000525,-0.178260433242611205
0.717000000000000526,-0.178523555204220696
0.718000000000000527,-0.178787457597350541
0.719000000000000528,-0.179052007275600611
0.720000000000000528,-0.179317073968051244
0.721000000000000529,-0.179582530233006354
0.722000000000000530,-0.179848251412460830
0.723000000000000531,-0.180114115587183959
0.724000000000000532,-0.180380003532484040
0.725000000000000533,-0.180645798674617664
0.726000000000000534,-0.180911387047815231
0.727000000000000535,-0.181176657251959361
0.728000000000000536,-0.181441500410858492
0.729000000000000536,-0.181705810131149115
0.730000000000000537,-0.181969482461792897
0.731000000000000538,-0.182232415854159446
0.732000000000000539,-0.182494511122708092
0.733000000000000540,-0.182755671406235914
0.734000000000000541,-0.183015802129699090
0.735000000000000542,-0.183274810966591595
0.736000000000000543,-0.183532607801882269
0.737000000000000544,-0.183789104695491534
0.738000000000000544,-0.184044215846311310
0.739000000000000545,-0.184297857556747269
0.740000000000000546,-0.184549948197793245
0.741000000000000547,-0.184800408174602554
0.742000000000000548,-0.185049159892607423
0.743000000000000549,-0.185296127724080856
0.744000000000000550,-0.185541237975240997
0.745000000000000551,-0.185784418853821909
0.746000000000000552,-0.186025600437121241
0.747000000000000552,-0.186264714640536205
0.748000000000000553,-0.186501695186544691
0.749000000000000554,-0.186736477574162618
0.750000000000000555,-0.186968999048850892
0.751000000000000556,-0.187199198572859243
0.752000000000000557,-0.187427016796032936
0.753000000000000558,-0.187652396027018692
0.754000000000000559,-0.187875280204935158
0.755000000000000560,-0.188095614871440830
0.756000000000000560,-0.188313347143230836
0.757000000000000561,-0.188528425684933804
0.758000000000000562,-0.188740800682411586
0.759000000000000563,-0.188950423816477808
0.760000000000000564,-0.189157248236979575
0.761000000000000565,-0.189361228537289039
0.762000000000000566,-0.189562320729164402
0.763000000000000567,-0.189760482217989912
0.764000000000000568,-0.189955671778383517
0.765000000000000568,-0.190147849530181767
0.766000000000000569,-0.190336976914765393
0.767000000000000570,-0.190523016671761608
0.768000000000000571,-0.190705932816066182
0.769000000000000572,-0.190885690615251236
0.770000000000000573,-0.191062256567270466
0.771000000000000574,-0.191235598378533961
0.772000000000000575,-0.191405684942287657
0.773000000000000576,-0.191572486317334922
0.774000000000000576,-0.191735973707066465
0.775000000000000577,-0.191896119438822288
0.776000000000000578,-0.192052896943540830
0.777000000000000579,-0.192206280735746582
0.778000000000000580,-0.192356246393807606
0.779000000000000581,-0.192502770540519730
0.780000000000000582,-0.192645830823958614
0.781000000000000583,-0.192785405898649953
0.782000000000000584,-0.192921475407001913
0.783000000000000584,-0.193054019961023671
0.784000000000000585,-0.193183021124337384
0.785000000000000586,-0.193308461394438164
0.786000000000000587,-0.193430324185247693
0.787000000000000588,-0.193548593809917319
0.788000000000000589,-0.193663255463893930
0.789000000000000590,-0.193774295208259673
0.790000000000000591,-0.193881699953304454
0.791000000000000592,-0.193985457442362674
0.792000000000000592,-0.194085556235895768
0.793000000000000593,-0.194181985695811660
0.794000000000000594,-0.194274735970028284
0.795000000000000595,-0.194363797977285369
0.796000000000000596,-0.194449163392155983
0.797000000000000597,-0.194530824630331112
0.798000000000000598,-0.194608774834096998
0.799000000000000599,-0.194683007858050761
0.800000000000000600,-0.194753518255036229
0.801000000000000600,-0.194820301262289580
0.802000000000000601,-0.194883352787803443
0.803000000000000602,-0.194942669396899554
0.804000000000000603,-0.194998248299014271
0.805000000000000604,-0.195050087334684596
0.806000000000000605,-0.195098184962724797
0.807000000000000606,-0.195142540247629503
0.808000000000000607,-0.195183152847143881
0.809000000000000608,-0.195220023000038406
0.810000000000000608,-0.195253151514087842
0.811000000000000609,-0.195282539754204204
0.812000000000000610,-0.195308189630793910
0.813000000000000611,-0.195330103588260806
0.814000000000000612,-0.195348284593715338
0.815000000000000613,-0.195362736125854586
0.816000000000000614,-0.195373462163999700
0.817000000000000615,-0.195380467177327738
0.818000000000000616,-0.195383756114265700
0.819000000000000616,-0.195383334392043639
0.820000000000000617,-0.195379207886416550
0.821000000000000618,-0.195371382921553094
0.822000000000000619,-0.195359866260088000
0.823000000000000620,-0.195344665093313663
0.824000000000000621,-0.195325787031540576
0.825000000000000622,-0.195303240094612501
0.826000000000000623,-0.195277032702567521
0.827000000000000624,-0.195247173666446922
0.828000000000000624,-0.195213672179254366
0.829000000000000625,-0.195176537807051603
0.830000000000000626,-0.195135780480210075
0.831000000000000627,-0.195091410484786343
0.832000000000000628,-0.195043438454056833
0.833000000000000629,-0.194991875360161326
0.834000000000000630,-0.194936732505903904
0.835000000000000631,-0.194878021516677741
0.836000000000000631,-0.194815754332516883
0.837000000000000632,-0.194749943200285547
0.838000000000000633,-0.194680600665979947
0.839000000000000634,-0.194607739567169397
0.840000000000000635,-0.194531373025558535
0.841000000000000636,-0.194451514439652751
0.842000000000000637,-0.194368177477575843
0.843000000000000638,-0.194281376069970646
0.844000000000000639,-0.194191124403040705
0.845000000000000639,-0.194097436911693982
0.846000000000000640,-0.194000328272801198
0.847000000000000641,-0.193899813398574650
0.848000000000000642,-0.193795907430039188
0.849000000000000643,-0.193688625730621289
0.850000000000000644,-0.193577983879855975
0.851000000000000645,-0.193463997667166571
0.852000000000000646,-0.193346683085785231
0.853000000000000647,-0.193226056326747775
0.854000000000000647,-0.193102133772998924
0.855000000000000648,-0.192974931993597970
0.856000000000000649,-0.192844467738020331
0.857000000000000650,-0.192710757930556115
0.858000000000000651,-0.192573819664794782
0.859000000000000652,-0.192433670198213946
0.860000000000000653,-0.192290326946862489
0.861000000000000654,-0.192143807480113449
0.862000000000000655,-0.191994129515538070
0.863000000000000655,-0.191841310913832247
0.864000000000000656,-0.191685369673862877
0.865000000000000657,-0.191526323927771802
0.866000000000000658,-0.191364191936184758
0.867000000000000659,-0.191198992083494862
0.868000000000000660,-0.191030742873221554
0.869000000000000661,-0.190859462923459372
0.870000000000000662,-0.190685170962401424
0.871000000000000663,-0.190507885823950673
0.872000000000000663,-0.190327626443387826
0.873000000000000664,-0.190144411853135187
0.874000000000000665,-0.189958261178584997
0.875000000000000666,-0.189769193634005212
0.876000000000000667,-0.189577228518515939
0.877000000000000668,-0.189382385212135629
0.878000000000000669,-0.189184683171908175
0.879000000000000670,-0.188984141928079857
0.880000000000000671,-0.188780781080369581
0.881000000000000671,-0.188574620294279488
0.882000000000000672,-0.188365679297498895
0.883000000000000673,-0.188153977876352296
0.884000000000000674,-0.187939535872325869
0.885000000000000675,-0.187722373178645568
0.886000000000000676,-0.187502509736932443
0.887000000000000677,-0.187279965533907550
0.888000000000000678,-0.187054760598155040
0.889000000000000679,-0.186826914996964577
0.890000000000000679,-0.186596448833208861
0.891000000000000680,-0.186363382242299924
0.892000000000000681,-0.186127735389185450
0.893000000000000682,-0.185889528465413040
0.894000000000000683,-0.185648781686240966
0.895000000000000684,-0.185405515287818068
0.896000000000000685,-0.185159749524400674
0.897000000000000686,-0.184911504665632803
0.898000000000000687,-0.184660800993879243
0.899000000000000687,-0.184407658801601620
0.900000000000000688,-0.184152098388795843
0.901000000000000689,-0.183894140060470224
0.902000000000000690,-0.183633804124182898
0.903000000000000691,-0.183371110887617206
0.904000000000000692,-0.183106080656213560
0.905000000000000693,-0.182838733730840530
0.906000000000000694,-0.182569090405523438
0.907000000000000695,-0.182297170965200567
0.908000000000000695,-0.182022995683550903
0.909000000000000696,-0.181746584820835333
0.910000000000000697,-0.181467958621808922
0.911000000000000698,-0.181187137313657376
0.912000000000000699,-0.180904141103984173
0.913000000000000700,-0.180618990178845501
0.914000000000000701,-0.180331704700801593
0.915000000000000702,-0.180042304807046388
0.916000000000000703,-0.179750810607541306
0.917000000000000703,-0.179457242183210880
0.918000000000000704,-0.179161619584167597
0.919000000000000705,-0.178863962827973039
0.920000000000000706,-0.178564291897949479
0.921000000000000707,-0.178262626741507391
0.922000000000000708,-0.177958987268528102
0.923000000000000709,-0.177653393349777700
0.924000000000000710,-0.177345864815343396
0.925000000000000711,-0.177036421453125342
0.926000000000000711,-0.176725083007345157
0.927000000000000712,-0.176411869177097225
0.928000000000000713,-0.176096799614929606
0.929000000000000714,-0.175779893925463115
0.930000000000000715,-0.175461171664031246
0.931000000000000716,-0.175140652335360525
0.932000000000000717,-0.174818355392285130
0.933000000000000718,-0.174494300234477789
0.934000000000000719,-0.174168506207226959
0.935000000000000719,-0.173840992600235861
0.936000000000000720,-0.173511778646447179
0.937000000000000721,-0.173180883520901940
0.938000000000000722,-0.172848326339632041
0.939000000000000723,-0.172514126158563319
0.940000000000000724,-0.172178301972465059
0.941000000000000725,-0.171840872713912629
0.942000000000000726,-0.171501857252287976
0.943000000000000727,-0.171161274392791690
0.944000000000000727,-0.170819142875498098
0.945000000000000728,-0.170475481374426890
0.946000000000000729,-0.170130308496628163
0.947000000000000730,-0.169783642781319216
0.948000000000000731,-0.169435502699014806
0.949000000000000732,-0.169085906650710410
0.950000000000000733,-0.168734872967059329
0.951000000000000734,-0.168382419907605413
0.952000000000000735,-0.168028565660005208
0.953000000000000735,-0.167673328339293215
0.954000000000000736,-0.167316725987164822
0.955000000000000737,-0.166958776571280498
0.956000000000000738,-0.166599497984587425
0.957000000000000739,-0.166238908044665623
0.958000000000000740,-0.165877024493094660
0.959000000000000741,-0.165513864994835391
0.960000000000000742,-0.165149447137643429
0.961000000000000743,-0.164783788431486500
0.962000000000000743,-0.164416906307989830
0.963000000000000744,-0.164048818119900103
0.964000000000000745,-0.163679541140571649
0.965000000000000746,-0.163309092563457742
0.966000000000000747,-0.162937489501633448
0.967000000000000748,-0.162564748987325286
0.968000000000000749,-0.162190887971474546
0.969000000000000750,-0.161815923323292227
0.970000000000000751,-0.161439871829860498
0.971000000000000751,-0.161062750195721055
0.972000000000000752,-0.160684575042497557
0.973000000000000753,-0.160305362908541305
0.974000000000000754,-0.159925130248564612
0.975000000000000755,-0.159543893433318262
0.976000000000000756,-0.159161668749267404
0.977000000000000757,-0.158778472398286519
0.978000000000000758,-0.158394320497367597
0.979000000000000759,-0.158009229078355545
0.980000000000000759,-0.157623214087667163
0.981000000000000760,-0.157236291386057603
0.982000000000000761,-0.156848476748385673
0.983000000000000762,-0.156459785863386242
0.984000000000000763,-0.156070234333462454
0.985000000000000764,-0.155679837674497973
0.986000000000000765,-0.155288611315668124
0.987000000000000766,-0.154896570599268951
0.988000000000000766,-0.154503730780560344
0.989000000000000767,-0.154110107027626120
0.990000000000000768,-0.153715714421234217
0.991000000000000769,-0.153320567954710413
0.992000000000000770,-0.152924682533830458
0.993000000000000771,-0.152528072976726353
0.994000000000000772,-0.152130754013782427
0.995000000000000773,-0.151732740287572304
0.996000000000000774,-0.151334046352777640
0.997000000000000774,-0.150934686676138435
0.998000000000000775,-0.150534675636401827
0.999000000000000776,-0.150134027524283675
1.000000000000000666,-0.149732756542441670
1.001000000000000778,-0.149330876805457924
1.002000000000000668,-0.148928402339826876
1.003000000000000780,-0.148525347083955844
1.004000000000000670,-0.148121724888174322
1.005000000000000782,-0.147717549514754548
1.006000000000000671,-0.147312834637935902
1.007000000000000783,-0.146907593843954964
1.008000000000000673,-0.146501840631097224
1.009000000000000785,-0.146095588409744376
1.010000000000000675,-0.145688850502433465
1.011000000000000787,-0.145281640143921753
1.012000000000000677,-0.144873970481269987
1.013000000000000789,-0.144465854573918390
1.014000000000000679,-0.144057305393772733
1.015000000000000790,-0.143648335825312418
1.016000000000000680,-0.143238958665689031
1.017000000000000792,-0.142829186624833598
1.018000000000000682,-0.142419032325582201
1.019000000000000794,-0.142008508303792913
1.020000000000000684,-0.141597627008485633
1.021000000000000796,-0.141186400801972839
1.022000000000000686,-0.140774841960004282
1.023000000000000798,-0.140362962671921387
1.024000000000000687,-0.139950775040805886
1.025000000000000799,-0.139538291083648180
1.026000000000000689,-0.139125522731511936
1.027000000000000801,-0.138712481829707190
1.028000000000000691,-0.138299180137969185
1.029000000000000803,-0.137885629330643050
1.030000000000000693,-0.137471840996869099
1.031000000000000805,-0.137057826640785224
1.032000000000000695,-0.136643597681714413
1.033000000000000806,-0.136229165454382461
1.034000000000000696,-0.135814541209115985
1.035000000000000808,-0.135399736112060048
1.036000000000000698,-0.134984761245393103
1.037000000000000810,-0.134569627607563219
1.038000000000000700,-0.134154346113493028
1.039000000000000812,-0.133738927594826335
1.040000000000000702,-0.133323382800159679
1.041000000000000814,-0.132907722395284922
1.042000000000000703,-0.132491956963420421
1.043000000000000815,-0.132076097005472182
1.044000000000000705,-0.131660152940280606
1.045000000000000817,-0.131244135104866766
1.046000000000000707,-0.130828053754702467
1.047000000000000819,-0.130411919063966236
1.048000000000000709,-0.129995741125803865
1.049000000000000821,-0.129579529952606742
1.050000000000000711,-0.129163295476269230
1.051000000000000822,-0.128747047548479154
1.052000000000000712,-0.128330795940983455
1.053000000000000824,-0.127914550345869793
1.054000000000000714,-0.127498320375856261
1.055000000000000826,-0.127082115564569442
1.056000000000000716,-0.126665945366840560
1.057000000000000828,-0.126249819158990528
1.058000000000000718,-0.125833746239125771
1.059000000000000830,-0.125417735827435012
1.060000000000000719,-0.125001797066491060
1.061000000000000831,-0.124585939021542913
1.062000000000000721,-0.124170170680826961
1.063000000000000833,-0.123754500955872856
1.064000000000000723,-0.123338938681803484
1.065000000000000835,-0.122923492617648830
1.066000000000000725,-0.122508171446663788
1.067000000000000837,-0.122092983776624892
1.068000000000000727,-0.121677938140166114
1.069000000000000838,-0.121263042995077133
1.070000000000000728,-0.120848306724634827
1.071000000000000840,-0.120433737637916122
1.072000000000000730,-0.120019343970125286
1.073000000000000842,-0.119605133882913828
1.074000000000000732,-0.119191115464702735
1.075000000000000844,-0.118777296731014781
1.076000000000000734,-0.118363685624799778
1.077000000000000846,-0.117950290016758649
1.078000000000000735,-0.117537117705682231
1.079000000000000847,-0.117124176418772957
1.080000000000000737,-0.116711473811987917
1.081000000000000849,-0.116299017470360116
1.082000000000000739,-0.115886814908341226
1.083000000000000851,-0.115474873570134792
1.084000000000000741,-0.115063200830033782
1.085000000000000853,-0.114651803992753293
1.086000000000000743,-0.114240690293772665
1.087000000000000854,-0.113829866899672366
1.088000000000000744,-0.113419340908477981
1.089000000000000856,-0.113009119349990098
1.090000000000000746,-0.112599209186133864
1.091000000000000858,-0.112189617311299367
1.092000000000000748,-0.111780350552679389
1.093000000000000860,-0.111371415670616036
1.094000000000000750,-0.110962819358939618
1.095000000000000862,-0.110554568245314400
1.096000000000000751,-0.110146668891584781
1.097000000000000863,-0.109739127794110145
1.098000000000000753,-0.109331951384119858
1.099000000000000865,-0.108925146028053282
1.100000000000000755,-0.108518718027900543
1.101000000000000867,-0.108112673621552330
1.102000000000000757,-0.107707018983144984
1.103000000000000869,-0.107301760223405609
1.104000000000000759,-0.106896903389989945
1.105000000000000870,-0.106492454467841585
1.106000000000000760,-0.106088419379521653
1.107000000000000872,-0.105684803985565928
1.108000000000000762,-0.105281614084827141
1.109000000000000874,-0.104878855414816091
1.110000000000000764,-0.104476533652050313
1.111000000000000876,-0.104074654412396800
1.112000000000000766,-0.103673223251419339
1.113000000000000878,-0.103272245664719486
1.114000000000000767,-0.102871727088286263
1.115000000000000879,-0.102471672898832147
1.116000000000000769,-0.102072088414143836
1.117000000000000881,-0.101672978893421001
1.118000000000000771,-0.101274349537621905
1.119000000000000883,-0.100876205489805318
1.120000000000000773,-0.100478551835474189
1.121000000000000885,-0.100081393602912655
1.122000000000000774,-0.099684735763532345
1.123000000000000886,-0.099288583232209723
1.124000000000000776,-0.098892940867633228
1.125000000000000888,-0.098497813472630660
1.126000000000000778,-0.098103205794518936
1.127000000000000890,-0.097709122525444281
1.128000000000000780,-0.097315568302708350
1.129000000000000892,-0.096922547709117984
1.130000000000000782,-0.096530065273316201
1.131000000000000894,-0.096138125470119087
1.132000000000000783,-0.095746732720852185
1.133000000000000895,-0.095355891393688857
1.134000000000000785,-0.094965605803972009
1.135000000000000897,-0.094575880214566976
1.136000000000000787,-0.094186718836175284
1.137000000000000899,-0.093798125827681142
1.138000000000000789,-0.093410105296468954
1.139000000000000901,-0.093022661298771486
1.140000000000000790,-0.092635797839983991
1.141000000000000902,-0.092249518874994191
1.142000000000000792,-0.091863828308521175
1.143000000000000904,-0.091478729995431537
1.144000000000000794,-0.091094227741074257
1.145000000000000906,-0.090710325301593064
1.146000000000000796,-0.090327026384267858
1.147000000000000908,-0.089944334647825003
1.148000000000000798,-0.089562253702765660
1.149000000000000909,-0.089180787111686755
1.150000000000000799,-0.088799938389598196
1.151000000000000689,-0.088419711004248350
1.152000000000000801,-0.088040108376439621
1.153000000000000913,-0.087661133880345368
1.154000000000000803,-0.087282790843828728
1.155000000000000693,-0.086905082548754536
1.156000000000000805,-0.086528012231312068
1.157000000000000917,-0.086151583082317157
1.158000000000000806,-0.085775798247535923
1.159000000000000696,-0.085400660827989167
1.160000000000000808,-0.085026173880264413
1.161000000000000920,-0.084652340416826746
1.162000000000000810,-0.084279163406328017
1.163000000000000700,-0.083906645773909036
1.164000000000000812,-0.083534790401512307
1.165000000000000924,-0.083163600128180068
1.166000000000000814,-0.082793077750365568
1.167000000000000703,-0.082423226022229110
1.168000000000000815,-0.082054047655945289
1.169000000000000927,-0.081685545321997260
1.170000000000000817,-0.081317721649484476
1.171000000000000707,-0.080950579226409219
1.172000000000000819,-0.080584120599987125
1.173000000000000931,-0.080218348276933402
1.174000000000000821,-0.079853264723757866
1.175000000000000711,-0.079488872367064228
1.176000000000000822,-0.079125173593838347
1.177000000000000934,-0.078762170751737984
1.178000000000000824,-0.078399866149387626
1.179000000000000714,-0.078038262056659119
1.180000000000000826,-0.077677360704970708
1.181000000000000938,-0.077317164287561455
1.182000000000000828,-0.076957674959783048
1.183000000000000718,-0.076598894839383078
1.184000000000000830,-0.076240826006787735
1.185000000000000941,-0.075883470505376110
1.186000000000000831,-0.075526830341773168
1.187000000000000721,-0.075170907486116184
1.188000000000000833,-0.074815703872341183
1.189000000000000945,-0.074461221398454874
1.190000000000000835,-0.074107461926812723
1.191000000000000725,-0.073754427284383750
1.192000000000000837,-0.073402119263041896
1.193000000000000949,-0.073050539619814003
1.194000000000000838,-0.072699690077170809
1.195000000000000728,-0.072349572323280181
1.196000000000000840,-0.072000188012283889
1.197000000000000952,-0.071651538764562789
1.198000000000000842,-0.071303626166996079
1.199000000000000732,-0.070956451773235896
1.200000000000000844,-0.070610017103953690
1.201000000000000956,-0.070264323647118626
1.202000000000000846,-0.069919372858245635
1.203000000000000735,-0.069575166160662061
1.204000000000000847,-0.069231704945754285
1.205000000000000959,-0.068888990573239425
1.206000000000000849,-0.068547024371405876
1.207000000000000739,-0.068205807637371801
1.208000000000000851,-0.067865341637341689
1.209000000000000963,-0.067525627606851352
1.210000000000000853,-0.067186666751021362
1.211000000000000743,-0.066848460244802343
1.212000000000000854,-0.066511009233225657
1.213000000000000966,-0.066174314831644793
1.214000000000000856,-0.065838378125987723
1.215000000000000746,-0.065503200172988232
1.216000000000000858,-0.065168782000442446
1.217000000000000970,-0.064835124607436734
1.218000000000000860,-0.064502228964593594
1.219000000000000750,-0.064170096014310091
1.220000000000000862,-0.063838726670993148
1.221000000000000973,-0.063508121821293201
1.222000000000000863,-0.063178282324345358
1.223000000000000753,-0.062849209011993562
1.224000000000000865,-0.062520902689029517
1.225000000000000977,-0.062193364133420526
1.226000000000000867,-0.061866594096538927
1.227000000000000757,-0.061540593303389901
1.228000000000000869,-0.061215362452834730
1.229000000000000981,-0.060890902217830487
1.230000000000000870,-0.060567213245632447
1.231000000000000760,-0.060244296158033409
1.232000000000000872,-0.059922151551584146
1.233000000000000984,-0.059600779997802486
1.234000000000000874,-0.059280182043408326
1.235000000000000764,-0.058960358210527510
1.236000000000000876,-0.058641308996918294
1.237000000000000988,-0.058323034876180423
1.238000000000000878,-0.058005536297976078
1.239000000000000767,-0.057688813688235044
1.240000000000000879,-0.057372867449373657
1.241000000000000991,-0.057057697960500586
1.242000000000000881,-0.056743305577626767
1.243000000000000771,-0.056429690633876026
1.244000000000000883,-0.056116853439688183
1.245000000000000995,-0.055804794283029521
1.246000000000000885,-0.055493513429592620
1.247000000000000774,-0.055183011123000836
1.248000000000000886,-0.054873287585011463
1.249000000000000998,-0.054564343015715555
1.250000000000000888,-0.054256177593738943
1.251000000000000778,-0.053948791476437073
1.252000000000000890,-0.053642184800096290
1.253000000000001002,-0.053336357680123771
1.254000000000000892,-0.053031310211252181
1.255000000000000782,-0.052727042467723563
1.256000000000000894,-0.052423554503484460
1.257000000000001005,-0.052120846352380991
1.258000000000000895,-0.051818918028345061
1.259000000000000785,-0.051517769525582360
1.260000000000000897,-0.051217400818762228
1.261000000000001009,-0.050917811863205362
1.262000000000000899,-0.050619002595064175
1.263000000000000789,-0.050320972931511235
1.264000000000000901,-0.050023722770922541
1.265000000000001013,-0.049727251993055013
1.266000000000000902,-0.049431560459230563
1.267000000000000792,-0.049136648012516049
1.268000000000000904,-0.048842514477898918
1.269000000000001016,-0.048549159662466333
1.270000000000000906,-0.048256583355582638
1.271000000000000796,-0.047964785329060275
1.272000000000000908,-0.047673765337335784
1.273000000000001020,-0.047383523117643829
1.274000000000000909,-0.047094058390187717
1.275000000000000799,-0.046805370858306397
1.276000000000000911,-0.046517460208652196
1.277000000000001023,-0.046230326111348502
1.278000000000000913,-0.045943968220165443
1.279000000000000803,-0.045658386172681545
1.280000000000000915,-0.045373579590453766
1.281000000000001027,-0.045089548079167777
1.282000000000000917,-0.044806291228820738
1.283000000000000806,-0.044523808613865491
1.284000000000000918,-0.044242099793382818
1.285000000000001030,-0.043961164311231829
1.286000000000000920,-0.043681001696217539
1.287000000000000810,-0.043401611462238289
1.288000000000000922,-0.043122993108453536
1.289000000000001034,-0.042845146119428634
1.290000000000000924,-0.042568069965292131
1.291000000000000814,-0.042291764101895460
1.292000000000000925,-0.042016227970953092
1.293000000000001037,-0.041741461000205385
1.294000000000000927,-0.041467462603561579
1.295000000000000817,-0.041194232181250068
1.296000000000000929,-0.040921769119967977
1.297000000000001041,-0.040650072793024385
1.298000000000000931,-0.040379142560492839
1.299000000000000821,-0.040108977769351128
1.300000000000000933,-0.039839577753623949
1.301000000000001044,-0.039570941834531838
1.302000000000000934,-0.039303069320625578
1.303000000000000824,-0.039035959507936993
1.304000000000000936,-0.038769611680105787
1.305000000000001048,-0.038504025108530106
1.306000000000000938,-0.038239199052501616
1.307000000000000828,-0.037975132759336158
1.308000000000000940,-0.037711825464515437
1.309000000000001052,-0.037449276391825319
1.310000000000000941,-0.037187484753482838
1.311000000000000831,-0.036926449750271650
1.312000000000000943,-0.036666170571671923
1.313000000000001055,-0.036406646396003495
1.314000000000000945,-0.036147876390538847
1.315000000000000835,-0.035889859711642512
1.316000000000000947,-0.035632595504898223
1.317000000000001059,-0.035376082905237430
1.318000000000000949,-0.035120321037059546
1.319000000000000838,-0.034865309014367796
1.320000000000000950,-0.034611045940885564
1.321000000000001062,-0.034357530910180650
1.322000000000000952,-0.034104763005794979
1.323000000000000842,-0.033852741301358236
1.324000000000000954,-0.033601464860716281
1.325000000000001066,-0.033350932738042141
1.326000000000000956,-0.033101143977968026
1.327000000000000846,-0.032852097615690655
1.328000000000000957,-0.032603792677098800
1.329000000000001069,-0.032356228178882854
1.330000000000000959,-0.032109403128656636
1.331000000000000849,-0.031863316525068616
1.332000000000000961,-0.031617967357914598
1.333000000000001073,-0.031373354608253905
1.334000000000000963,-0.031129477248523291
1.335000000000000853,-0.030886334242641401
1.336000000000000965,-0.030643924546128892
1.337000000000001076,-0.030402247106210402
1.338000000000000966,-0.030161300861926321
1.339000000000000856,-0.029921084744243775
1.340000000000000968,-0.029681597676158421
1.341000000000001080,-0.029442838572804116
1.342000000000000970,-0.029204806341560075
1.343000000000000860,-0.028967499882151537
1.344000000000000972,-0.028730918086756728
1.345000000000001084,-0.028495059840113125
1.346000000000000973,-0.028259924019611561
1.347000000000000863,-0.028025509495405786
1.348000000000000975,-0.027791815130506835
1.349000000000001087,-0.027558839780890597
1.350000000000000977,-0.027326582295590852
1.351000000000000867,-0.027095041516801921
1.352000000000000979,-0.026864216279969395
1.353000000000001091,-0.026634105413897748
1.354000000000000981,-0.026404707740840406
1.355000000000000870,-0.026176022076591886
1.356000000000000982,-0.025948047230589640
1.357000000000001094,-0.025720782006005437
1.358000000000000984,-0.025494225199835407
1.359000000000000874,-0.025268375602995736
1.360000000000000986,-0.025043232000413855
1.361000000000001098,-0.024818793171121727
1.362000000000000988,-0.024595057888339156
1.363000000000000878,-0.024372024919569503
1.364000000000000989,-0.024149693026690143
1.365000000000001101,-0.023928060966032220
1.366000000000000991,-0.023707127488475019
1.367000000000000881,-0.023486891339530969
1.368000000000000993,-0.023267351259431884
1.369000000000001105,-0.023048505983212186
1.370000000000000995,-0.022830354240795735
1.371000000000000885,-0.022612894757078107
1.372000000000000997,-0.022396126252011237
1.373000000000001108,-0.022180047440688355
1.374000000000000998,-0.021964657033413864
1.375000000000000888,-0.021749953735803716
1.376000000000001000,-0.021535936248849284
1.377000000000001112,-0.021322603269005685
1.378000000000001002,-0.021109953488268003
1.379000000000000892,-0.020897985594250528
1.380000000000001004,-0.020686698270264141
1.381000000000001116,-0.020476090195396167
1.382000000000001005,-0.020266160044582211
1.383000000000000895,-0.020056906488684998
1.384000000000001007,-0.019848328194569512
1.385000000000001119,-0.019640423825177823
1.386000000000001009,-0.019433192039602740
1.387000000000000899,-0.019226631493156454
1.388000000000001011,-0.019020740837457622
1.389000000000001123,-0.018815518720483732
1.390000000000001013,-0.018610963786658118
1.391000000000000902,-0.018407074676912820
1.392000000000001014,-0.018203850028762264
1.393000000000001126,-0.018001288476371943
1.394000000000001016,-0.017799388650628741
1.395000000000000906,-0.017598149179208201
1.396000000000001018,-0.017397568686638977
1.397000000000001130,-0.017197645794377513
1.398000000000001020,-0.016998379120870898
1.399000000000000909,-0.016799767281621768
1.400000000000001021,-0.016601808889254211
1.401000000000001133,-0.016404502553582757
1.402000000000001023,-0.016207846881671435
1.403000000000000913,-0.016011840477899823
1.404000000000001025,-0.015816481944028186
1.405000000000001137,-0.015621769879256920
1.406000000000001027,-0.015427702880290087
1.407000000000000917,-0.015234279541401182
1.408000000000001029,-0.015041498454484182
1.409000000000001140,-0.014849358209125779
1.410000000000001030,-0.014657857392656490
1.411000000000000920,-0.014466994590215415
1.412000000000001032,-0.014276768384804437
1.413000000000001144,-0.014087177357353417
1.414000000000001034,-0.013898220086771582
1.415000000000000924,-0.013709895150006002
1.416000000000001036,-0.013522201122102239
1.417000000000001148,-0.013335136576259210
1.418000000000001037,-0.013148700083880749
1.419000000000000927,-0.012962890214635595
1.420000000000001039,-0.012777705536509743
1.421000000000001151,-0.012593144615863741
1.422000000000001041,-0.012409206017483224
1.423000000000000931,-0.012225888304632868
1.424000000000001043,-0.012043190039109839
1.425000000000001155,-0.011861109781297003
1.426000000000001044,-0.011679646090211692
1.427000000000000934,-0.011498797523562440
1.428000000000001046,-0.011318562637793340
1.429000000000001158,-0.011138939988137217
1.430000000000001048,-0.010959928128669739
1.431000000000000938,-0.010781525612349746
1.432000000000001050,-0.010603730991078003
1.433000000000001162,-0.010426542815739057
1.434000000000001052,-0.010249959636250135
1.435000000000000941,-0.010073980001613659
1.436000000000001053,-0.009898602459957722
1.437000000000001165,-0.009723825558584736
1.438000000000001055,-0.009549647844023065
1.439000000000000945,-0.009376067862065249
1.440000000000001057,-0.009203084157818731
1.441000000000001169,-0.009030695275744608
1.442000000000001059,-0.008858899759709018
1.443000000000000949,-0.008687696153026683
1.444000000000001060,-0.008517082998498409
1.445000000000001172,-0.008347058838457150
1.446000000000001062,-0.008177622214817794
1.447000000000000952,-0.008008771669106168
1.448000000000001064,-0.007840505742512500
1.449000000000001176,-0.007672822975929708
1.450000000000001066,-0.007505721909989863
1.451000000000000956,-0.007339201085110452
1.452000000000001068,-0.007173259041533058
1.453000000000001180,-0.007007894319362043
1.454000000000001069,-0.006843105458606055
1.455000000000000959,-0.006678890999215675
1.456000000000001071,-0.006515249481120046
1.457000000000001183,-0.006352179444273057
1.458000000000001073,-0.006189679428682056
1.459000000000000963,-0.006027747974449263
1.460000000000001075,-0.005866383621810310
1.461000000000001187,-0.005705584911167327
1.462000000000001076,-0.005545350383132613
1.463000000000000966,-0.005385678578554230
1.464000000000001078,-0.005226568038559085
1.465000000000001190,-0.005068017304589542
1.466000000000001080,-0.004910024918429257
1.467000000000000970,-0.004752589422248253
1.468000000000001082,-0.004595709358631629
1.469000000000001194,-0.004439383270612130
1.470000000000001084,-0.004283609701708156
1.471000000000000973,-0.004128387195952456
1.472000000000001085,-0.003973714297930234
1.473000000000001197,-0.003819589552805373
1.474000000000001087,-0.003666011506357829
1.475000000000000977,-0.003512978705009543
1.476000000000001089,-0.003360489695863995
1.477000000000001201,-0.003208543026730100
1.478000000000001091,-0.003057137246155932
1.479000000000000981,-0.002906270903459994
1.480000000000001092,-0.002755942548756783
1.481000000000001204,-0.002606150732993694
1.482000000000001094,-0.002456894007974489
1.483000000000000984,-0.002308170926392282
1.484000000000001096,-0.002159980041856354
1.485000000000001208,-0.002012319908917170
1.486000000000001098,-0.001865189083104031
1.487000000000000988,-0.001718586120943850
1.488000000000001100,-0.001572509579990736
1.489000000000001211,-0.001426958018857745
1.490000000000001101,-0.001281929997239226
1.491000000000000991,-0.001137424075937130
1.492000000000001103,-0.000993438816892084
1.493000000000001215,-0.000849972783204934
1.494000000000001105,-0.000707024539162578
1.495000000000000995,-0.000564592650266162
1.496000000000001107,-0.000422675683254060
1.497000000000001219,-0.000281272206128030
1.498000000000001108,-0.000140380788176954
1.499000000000000998,0.000000000000000000
