# Gypsum-001_ASNSCA-AC
# h[nm],U(h)[kJ/mol]
0.149999999999999994,94.355754451649360703
0.150999999999999995,93.282235569515648876
0.151999999999999996,91.833488710655913678
0.152999999999999997,90.325066624462664322
0.153999999999999998,88.866634549363823226
0.154999999999999999,87.474168168188512595
0.156000000000000000,86.129265807838493174
0.157000000000000001,84.807777006006460851
0.158000000000000002,83.491447763353392020
0.159000000000000002,82.170807993171877115
0.160000000000000003,80.844061330447658520
0.161000000000000004,79.514590955943006634
0.162000000000000005,78.188402357209540128
0.163000000000000006,76.872074660024139803
0.164000000000000007,75.571381493405212382
0.165000000000000008,74.290536871692054888
0.166000000000000009,73.031935767160547357
0.167000000000000010,71.796239200867816521
0.168000000000000010,70.582666962287660795
0.169000000000000011,69.389388127750549984
0.170000000000000012,68.213929577904622192
0.171000000000000013,67.053550192982427802
0.172000000000000014,65.905550966461731832
0.173000000000000015,64.767508353374211083
0.174000000000000016,63.637430133186057901
0.175000000000000017,62.513840719053590078
0.176000000000000018,61.395807110826829955
0.177000000000000018,60.282918455842853689
0.178000000000000019,59.175232220137822026
0.179000000000000020,58.073198909381048338
0.180000000000000021,56.977575595448378465
0.181000000000000022,55.889336553413770048
0.182000000000000023,54.809587338513701127
0.183000000000000024,53.739486790333579336
0.184000000000000025,52.680179832976861576
0.185000000000000026,51.632742587876897744
0.186000000000000026,50.598140239096530024
0.187000000000000027,49.577197276244085344
0.188000000000000028,48.570579161051263384
0.189000000000000029,47.578784086959920785
0.190000000000000030,46.602143291262414948
0.191000000000000031,45.640828301779215792
0.192000000000000032,44.694863522817435353
0.193000000000000033,43.764142660103438232
0.194000000000000034,42.848447627645704472
0.195000000000000034,41.947468751455957658
0.196000000000000035,41.060825270191358527
0.197000000000000036,40.188085319190690825
0.198000000000000037,39.328784763360296495
0.199000000000000038,38.482444409918898032
0.200000000000000039,37.648585280336298808
0.201000000000000040,36.826741749864346787
0.202000000000000041,36.016472472185995457
0.203000000000000042,35.217369096238222426
0.204000000000000042,34.429062853254308152
0.205000000000000043,33.651229146062760833
0.206000000000000044,32.883590311496817549
0.207000000000000045,32.125916752373669283
0.208000000000000046,31.378026649880865762
0.209000000000000047,30.639784472279966820
0.210000000000000048,29.911098493410548826
0.211000000000000049,29.191917526196867527
0.212000000000000050,28.482227063694061542
0.213000000000000050,27.782045004446349168
0.214000000000000051,27.091417121160162651
0.215000000000000052,26.410412412841587582
0.216000000000000053,25.739118461360977363
0.217000000000000054,25.077636894487113750
0.218000000000000055,24.426079039243933977
0.219000000000000056,23.784561832328883213
0.220000000000000057,23.153204038533708342
0.221000000000000058,22.532122813786578774
0.222000000000000058,21.921430636665270697
0.223000000000000059,21.321232621047922606
0.224000000000000060,20.731624212943110308
0.225000000000000061,20.152689266422516567
0.226000000000000062,19.584498486881766866
0.227000000000000063,19.027108224477427001
0.228000000000000064,18.480559596417048596
0.229000000000000065,17.944877913692831584
0.230000000000000066,17.420072385727820574
0.231000000000000066,16.906136075122290663
0.232000000000000067,16.403046074132554111
0.233000000000000068,15.910763874570813314
0.234000000000000069,15.429235903381094630
0.235000000000000070,14.958394197124738056
0.236000000000000071,14.498157189914531173
0.237000000000000072,14.048430590888816738
0.238000000000000073,13.609108329048797970
0.239000000000000073,13.180073545132998447
0.240000000000000074,12.761199612118351965
0.241000000000000075,12.352351167876795657
0.242000000000000076,11.953385145439678894
0.243000000000000077,11.564151788200486948
0.244000000000000078,11.184495639195315420
0.245000000000000079,10.814256495320146101
0.246000000000000080,10.453270318961482843
0.247000000000000081,10.101370101020222592
0.248000000000000081,9.758386670693379727
0.249000000000000082,9.424149448639706605
0.250000000000000111,9.098487141292547875
0.251000000000000112,8.781228375098766747
0.252000000000000113,8.472202270357456655
0.253000000000000114,8.171238955113896196
0.254000000000000115,7.878170020234284365
0.255000000000000115,7.592828917355842755
0.256000000000000116,7.315051301878069623
0.257000000000000117,7.044675323544234757
0.258000000000000118,6.781541867463610984
0.259000000000000119,6.525494748652353572
0.260000000000000120,6.276380863331405990
0.261000000000000121,6.034050300321560201
0.262000000000000122,5.798356415924031282
0.263000000000000123,5.569155875678274192
0.264000000000000123,5.346308666351474059
0.265000000000000124,5.129678081443891813
0.266000000000000125,4.919130683394952186
0.267000000000000126,4.714536245552855220
0.268000000000000127,4.515767676828915000
0.269000000000000128,4.322700931802381241
0.270000000000000129,4.135214908874530693
0.271000000000000130,3.953191338896381524
0.272000000000000131,3.776514666515633500
0.273000000000000131,3.605071926307211960
0.274000000000000132,3.438752615571201154
0.275000000000000133,3.277448565503124023
0.276000000000000134,3.121053812266743055
0.277000000000000135,2.969464469330044043
0.278000000000000136,2.822578602261399450
0.279000000000000137,2.680296107026914676
0.280000000000000138,2.542518592681671574
0.281000000000000139,2.409149269207606636
0.282000000000000139,2.280092841119788716
0.283000000000000140,2.155255407340669560
0.284000000000000141,2.034544367728996939
0.285000000000000142,1.917868336546062036
0.286000000000000143,1.805137063047066448
0.287000000000000144,1.696261359299392257
0.288000000000000145,1.591153035251667180
0.289000000000000146,1.489724841008709166
0.290000000000000147,1.391890416205535441
0.291000000000000147,1.297564246320266568
0.292000000000000148,1.206661625718656428
0.293000000000000149,1.119098627183419348
0.294000000000000150,1.034792077647681108
0.295000000000000151,0.953659539824151636
0.296000000000000152,0.875619299399463147
0.297000000000000153,0.800590357445696954
0.298000000000000154,0.728492427688581801
0.299000000000000155,0.659245938263288367
0.300000000000000155,0.592772037584127220
0.301000000000000156,0.528992603953267526
0.302000000000000157,0.467830258535227916
0.303000000000000158,0.409208381328629689
0.304000000000000159,0.353051129773368000
0.305000000000000160,0.299283459640550864
0.306000000000000161,0.247831147863098428
0.307000000000000162,0.198620816977234466
0.308000000000000163,0.151579960858661711
0.309000000000000163,0.106636971451660914
0.310000000000000164,0.063721166204725607
0.311000000000000165,0.022762815942390002
0.312000000000000166,-0.016306827080833707
0.313000000000000167,-0.053555501181652330
0.314000000000000168,-0.089049907524860389
0.315000000000000169,-0.122855682879505060
0.316000000000000170,-0.155037373041418430
0.317000000000000171,-0.185658407092505279
0.318000000000000171,-0.214781072651094057
0.319000000000000172,-0.242466492251907306
0.320000000000000173,-0.268774600978742284
0.321000000000000174,-0.293764125458141678
0.322000000000000175,-0.317492564308094138
0.323000000000000176,-0.340016170122025119
0.324000000000000177,-0.361389933055309032
0.325000000000000178,-0.381667566068995934
0.326000000000000179,-0.400901491873842997
0.327000000000000179,-0.419142831606426292
0.328000000000000180,-0.436441395258735210
0.329000000000000181,-0.452845673873043364
0.330000000000000182,-0.468402833504408700
0.331000000000000183,-0.483158710945134851
0.332000000000000184,-0.497157811197389610
0.333000000000000185,-0.510443306673228014
0.334000000000000186,-0.523057038094709825
0.335000000000000187,-0.535039517060801550
0.336000000000000187,-0.546429930242559703
0.337000000000000188,-0.557266145163073490
0.338000000000000189,-0.567584717514701742
0.339000000000000190,-0.577420899962169165
0.340000000000000191,-0.586808652376897277
0.341000000000000192,-0.595780653445307729
0.342000000000000193,-0.604368313591272965
0.343000000000000194,-0.612601789151244747
0.344000000000000195,-0.620509997738702523
0.345000000000000195,-0.628120634733853711
0.346000000000000196,-0.635460190833246452
0.347000000000000197,-0.642553970593779944
0.348000000000000198,-0.649426111905258785
0.349000000000000199,-0.656099606325662998
0.350000000000000200,-0.662596320213772461
0.351000000000000201,-0.668937016594161937
0.352000000000000202,-0.675141377690452793
0.353000000000000203,-0.681228028063639135
0.354000000000000203,-0.687214558293395839
0.355000000000000204,-0.693117549141530676
0.356000000000000205,-0.698952596138231574
0.357000000000000206,-0.704734334533260509
0.358000000000000207,-0.710476464555773957
0.359000000000000208,-0.716191776928351787
0.360000000000000209,-0.721892178582527855
0.361000000000000210,-0.727588718524926348
0.362000000000000210,-0.733291613805179820
0.363000000000000211,-0.739010275538593997
0.364000000000000212,-0.744753334938688782
0.365000000000000213,-0.750528669316597230
0.366000000000000214,-0.756343428006461593
0.367000000000000215,-0.762204058177883614
0.368000000000000216,-0.768116330498668676
0.369000000000000217,-0.774085364612900229
0.370000000000000218,-0.780115654401616121
0.371000000000000218,-0.786211092995136029
0.372000000000000219,-0.792374997508184742
0.373000000000000220,-0.798610133470812222
0.374000000000000221,-0.804918738929986333
0.375000000000000222,-0.811302548198546192
0.376000000000000223,-0.817762815230166473
0.377000000000000224,-0.824300336600475525
0.378000000000000225,-0.830915474076419303
0.379000000000000226,-0.837608176757427048
0.380000000000000226,-0.844378002773728653
0.381000000000000227,-0.851224140528477946
0.382000000000000228,-0.858145429472092380
0.383000000000000229,-0.865140380398461084
0.384000000000000230,-0.872207195254117496
0.385000000000000231,-0.879343786452877807
0.386000000000000232,-0.886547795689552443
0.387000000000000233,-0.893816612247730347
0.388000000000000234,-0.901147390797613190
0.389000000000000234,-0.908537068681179449
0.390000000000000235,-0.915982382682781093
0.391000000000000236,-0.923479885284486435
0.392000000000000237,-0.931025960406227426
0.393000000000000238,-0.938616838631867290
0.394000000000000239,-0.946248611922981597
0.395000000000000240,-0.953917247823074299
0.396000000000000241,-0.961618603155565688
0.397000000000000242,-0.969348437219654580
0.398000000000000242,-0.977102424488782595
0.399000000000000243,-0.984876166816981757
0.400000000000000244,-0.992665205158979047
0.401000000000000245,-1.000465030810489875
0.402000000000000246,-1.008271096175441528
0.403000000000000247,-1.016078825067484148
0.404000000000000248,-1.023883622553415140
0.405000000000000249,-1.031680884346567018
0.406000000000000250,-1.039466005758431510
0.407000000000000250,-1.047234390217233413
0.408000000000000251,-1.054981457362254016
0.409000000000000252,-1.062702650723056141
0.410000000000000253,-1.070393444992874477
0.411000000000000254,-1.078049352905659841
0.412000000000000255,-1.085665931726320643
0.413000000000000256,-1.093238789363969898
0.414000000000000257,-1.100763590117855628
0.415000000000000258,-1.108236060065974637
0.416000000000000258,-1.115651992106163837
0.417000000000000259,-1.123007250659698197
0.418000000000000260,-1.130297776047297198
0.419000000000000261,-1.137519588547482030
0.420000000000000262,-1.144668792147186753
0.421000000000000263,-1.151741577994527033
0.422000000000000264,-1.158734227563439800
0.423000000000000265,-1.165643115540013097
0.424000000000000266,-1.172464712440132617
0.425000000000000266,-1.179195586967947573
0.426000000000000267,-1.185832408124658510
0.427000000000000268,-1.192371947076928063
0.428000000000000269,-1.198811078794099760
0.429000000000000270,-1.205146783463316273
0.430000000000000271,-1.211376147691437977
0.431000000000000272,-1.217496365502559907
0.432000000000000273,-1.223504739139699371
0.433000000000000274,-1.229398679679173600
0.434000000000000274,-1.235175707465909323
0.435000000000000275,-1.240833452377822610
0.436000000000000276,-1.246369653927231314
0.437000000000000277,-1.251782161207047439
0.438000000000000278,-1.257068932689359597
0.439000000000000279,-1.262228035883821153
0.440000000000000280,-1.267257646863055642
0.441000000000000281,-1.272156049662117594
0.442000000000000282,-1.276921635558936563
0.443000000000000282,-1.281552902242294012
0.444000000000000283,-1.286048452873957526
0.445000000000000284,-1.290406995051170957
0.446000000000000285,-1.294627339675661126
0.447000000000000286,-1.298708399735125862
0.448000000000000287,-1.302649189002872188
0.449000000000000288,-1.306448820661263444
0.450000000000000289,-1.310106505854301773
0.451000000000000290,-1.313621552174574658
0.452000000000000290,-1.316993362089632358
0.453000000000000291,-1.320221431312588622
0.454000000000000292,-1.323305347121705555
0.455000000000000293,-1.326244786633428374
0.456000000000000294,-1.329039515033250130
0.457000000000000295,-1.331689383768590584
0.458000000000000296,-1.334194328707698940
0.459000000000000297,-1.336554368268475290
0.460000000000000298,-1.338769601520903629
0.461000000000000298,-1.340840206266664447
0.462000000000000299,-1.342766437099347065
0.463000000000000300,-1.344548623448502678
0.464000000000000301,-1.346187167610693791
0.465000000000000302,-1.347682542770503034
0.466000000000000303,-1.349035291014345050
0.467000000000000304,-1.350246021339831071
0.468000000000000305,-1.351315407663215229
0.469000000000000306,-1.352244186827431083
0.470000000000000306,-1.353033156613057342
0.471000000000000307,-1.353683173754367530
0.472000000000000308,-1.354195151962653831
0.473000000000000309,-1.354570059958753792
0.474000000000000310,-1.354808919516670596
0.475000000000000311,-1.354912803520080367
0.476000000000000312,-1.354882834033378947
0.477000000000000313,-1.354720180388859108
0.478000000000000314,-1.354426057291449714
0.479000000000000314,-1.354001722942474562
0.480000000000000315,-1.353448477183630150
0.481000000000000316,-1.352767659662482469
0.482000000000000317,-1.351960648020514411
0.483000000000000318,-1.351028856104833809
0.484000000000000319,-1.349973732204460264
0.485000000000000320,-1.348796757312092698
0.486000000000000321,-1.347499443412178310
0.487000000000000322,-1.346083331796013471
0.488000000000000322,-1.344549991404535794
0.489000000000000323,-1.342901017199475966
0.490000000000000324,-1.341138028563361839
0.491000000000000325,-1.339262667728892575
0.492000000000000326,-1.337276598238102521
0.493000000000000327,-1.335181503431718930
0.494000000000000328,-1.332979084969001971
0.495000000000000329,-1.330671061378395859
0.496000000000000330,-1.328259166639143674
0.497000000000000330,-1.325745148794163830
0.498000000000000331,-1.323130768594177997
0.499000000000000332,-1.320417798173340485
0.500000000000000333,-1.317608019756337789
0.501000000000000334,-1.314703224396982062
0.502000000000000335,-1.311705210748336459
0.503000000000000336,-1.308615783864278015
0.504000000000000337,-1.305436754032443636
0.505000000000000338,-1.302169935638430420
0.506000000000000338,-1.298817146061140182
0.507000000000000339,-1.295380204599076546
0.508000000000000340,-1.291860931427402992
0.509000000000000341,-1.288261146585596650
0.510000000000000342,-1.284582668995375876
0.511000000000000343,-1.280827315508737740
0.512000000000000344,-1.276996899985739287
0.513000000000000345,-1.273093232401790065
0.514000000000000346,-1.269118117984137983
0.515000000000000346,-1.265073356377166558
0.516000000000000347,-1.260960740836209126
0.517000000000000348,-1.256782057449537859
0.518000000000000349,-1.252539084388072821
0.519000000000000350,-1.248233591182541513
0.520000000000000351,-1.243867338027588421
0.521000000000000352,-1.239442075112531017
0.522000000000000353,-1.234959541978267739
0.523000000000000353,-1.230421466899964233
0.524000000000000354,-1.225829566295103090
0.525000000000000355,-1.221185544156418779
0.526000000000000356,-1.216491091509316780
0.527000000000000357,-1.211747885893334820
0.528000000000000358,-1.206957590867175467
0.529000000000000359,-1.202121855536893102
0.530000000000000360,-1.197242314106741867
0.531000000000000361,-1.192320585452282256
0.532000000000000361,-1.187358272715244301
0.533000000000000362,-1.182356962919719034
0.534000000000000363,-1.177318226609203267
0.535000000000000364,-1.172243617504065805
0.536000000000000365,-1.167134672178940402
0.537000000000000366,-1.161992909759638870
0.538000000000000367,-1.156819831639065210
0.539000000000000368,-1.151616921211769506
0.540000000000000369,-1.146385643626584017
0.541000000000000369,-1.141127445556997078
0.542000000000000370,-1.135843754988733911
0.543000000000000371,-1.130535981024166192
0.544000000000000372,-1.125205513703072979
0.545000000000000373,-1.119853723839346227
0.546000000000000374,-1.114481962873184795
0.547000000000000375,-1.109091562738359071
0.548000000000000376,-1.103683835744155628
0.549000000000000377,-1.098260074471526071
0.550000000000000377,-1.092821551683083481
0.551000000000000378,-1.087369520246497023
0.552000000000000379,-1.081905213070919247
0.553000000000000380,-1.076429843056023294
0.554000000000000381,-1.070944603053253896
0.555000000000000382,-1.065450665838958866
0.556000000000000383,-1.059949184098928354
0.557000000000000384,-1.054441290424074085
0.558000000000000385,-1.048928097316788044
0.559000000000000385,-1.043410697207680204
0.560000000000000386,-1.037890162482310474
0.561000000000000387,-1.032367545517570928
0.562000000000000388,-1.026843878727370152
0.563000000000000389,-1.021320174617299958
0.564000000000000390,-1.015797425847917212
0.565000000000000391,-1.010276605306357878
0.566000000000000392,-1.004758666185925353
0.567000000000000393,-0.999244542073374875
0.568000000000000393,-0.993735147043553702
0.569000000000000394,-0.988231375761116970
0.570000000000000395,-0.982734103589036345
0.571000000000000396,-0.977244186703560169
0.572000000000000397,-0.971762462215431500
0.573000000000000398,-0.966289748296986550
0.574000000000000399,-0.960826844314958683
0.575000000000000400,-0.955374530968642555
0.576000000000000401,-0.949933570433215357
0.577000000000000401,-0.944504706507965808
0.578000000000000402,-0.939088664769129666
0.579000000000000403,-0.933686152727146612
0.580000000000000404,-0.928297859988102325
0.581000000000000405,-0.922924458419082105
0.582000000000000406,-0.917566602317272717
0.583000000000000407,-0.912224928582544670
0.584000000000000408,-0.906900056893346074
0.585000000000000409,-0.901592589885672480
0.586000000000000409,-0.896303113334920076
0.587000000000000410,-0.891032196340454830
0.588000000000000411,-0.885780391512650089
0.589000000000000412,-0.880548235162283199
0.590000000000000413,-0.875336247492040087
0.591000000000000414,-0.870144932790006820
0.592000000000000415,-0.864974779624963275
0.593000000000000416,-0.859826261043297402
0.594000000000000417,-0.854699834767398636
0.595000000000000417,-0.849595943395410780
0.596000000000000418,-0.844515014602094105
0.597000000000000419,-0.839457461340784361
0.598000000000000420,-0.834423682046194215
0.599000000000000421,-0.829414060837998512
0.600000000000000422,-0.824428967725028827
0.601000000000000423,-0.819468758809967168
0.602000000000000424,-0.814533776494418604
0.603000000000000425,-0.809624349684247457
0.604000000000000425,-0.804740793995034287
0.605000000000000426,-0.799883411957579726
0.606000000000000427,-0.795052493223354917
0.607000000000000428,-0.790248314769709581
0.608000000000000429,-0.785471141104902904
0.609000000000000430,-0.780721224472656239
0.610000000000000431,-0.775998805056337781
0.611000000000000432,-0.771304111182539831
0.612000000000000433,-0.766637359524033668
0.613000000000000433,-0.761998755302027875
0.614000000000000434,-0.757388492487617526
0.615000000000000435,-0.752806754002358081
0.616000000000000436,-0.748253711917909126
0.617000000000000437,-0.743729527654687361
0.618000000000000438,-0.739234352179415688
0.619000000000000439,-0.734768326201546529
0.620000000000000440,-0.730331580368498878
0.621000000000000441,-0.725924235459632139
0.622000000000000441,-0.721546402578925550
0.623000000000000442,-0.717198183346272056
0.624000000000000443,-0.712879670087392947
0.625000000000000444,-0.708590946022289780
0.626000000000000445,-0.704332085452180845
0.627000000000000446,-0.700103153944923173
0.628000000000000447,-0.695904208518836831
0.629000000000000448,-0.691735297824916051
0.630000000000000449,-0.687596462327388469
0.631000000000000449,-0.683487734482585596
0.632000000000000450,-0.679409138916102662
0.633000000000000451,-0.675360692598215295
0.634000000000000452,-0.671342405017505861
0.635000000000000453,-0.667354278352716213
0.636000000000000454,-0.663396307642758254
0.637000000000000455,-0.659468480954903180
0.638000000000000456,-0.655570779551083227
0.639000000000000457,-0.651703178052329468
0.640000000000000457,-0.647865644601323454
0.641000000000000458,-0.644058141022995301
0.642000000000000459,-0.640280622983251502
0.643000000000000460,-0.636533040145713658
0.644000000000000461,-0.632815336326544853
0.645000000000000462,-0.629127449647304937
0.646000000000000463,-0.625469312685829504
0.647000000000000464,-0.621840852625156204
0.648000000000000465,-0.618241991400465096
0.649000000000000465,-0.614672645844028920
0.650000000000000466,-0.611132727828197386
0.651000000000000467,-0.607622144406369524
0.652000000000000468,-0.604140797952004371
0.653000000000000469,-0.600688586295612836
0.654000000000000470,-0.597265402859799788
0.655000000000000471,-0.593871136792290644
0.656000000000000472,-0.590505673096990202
0.657000000000000473,-0.587168892763055394
0.658000000000000473,-0.583860672892006827
0.659000000000000474,-0.580580886822863240
0.660000000000000475,-0.577329404255316092
0.661000000000000476,-0.574106091370944815
0.662000000000000477,-0.570910810952498848
0.663000000000000478,-0.567743422501221007
0.664000000000000479,-0.564603782352271377
0.665000000000000480,-0.561491743788186226
0.666000000000000481,-0.558407157150483724
0.667000000000000481,-0.555349869949311126
0.668000000000000482,-0.552319726971262859
0.669000000000000483,-0.549316570385276370
0.670000000000000484,-0.546340239846691444
0.671000000000000485,-0.543390572599453447
0.672000000000000486,-0.540467403576468275
0.673000000000000487,-0.537570565498163511
0.674000000000000488,-0.534699888969205173
0.675000000000000488,-0.531855202573437102
0.676000000000000489,-0.529036332967057321
0.677000000000000490,-0.526243104969991160
0.678000000000000491,-0.523475341655554427
0.679000000000000492,-0.520732864438361198
0.680000000000000493,-0.518015493160515983
0.681000000000000494,-0.515323046176121458
0.682000000000000495,-0.512655340434075013
0.683000000000000496,-0.510012191559228611
0.684000000000000496,-0.507393413931878423
0.685000000000000497,-0.504798820765621103
0.686000000000000498,-0.502228224183611904
0.687000000000000499,-0.499681435293206466
0.688000000000000500,-0.497158264259023430
0.689000000000000501,-0.494658520374459953
0.690000000000000502,-0.492182012131649582
0.691000000000000503,-0.489728547289897065
0.692000000000000504,-0.487297932942595158
0.693000000000000504,-0.484889975582680210
0.694000000000000505,-0.482504481166570742
0.695000000000000506,-0.480141255176697812
0.696000000000000507,-0.477800102682569783
0.697000000000000508,-0.475480828400428823
0.698000000000000509,-0.473183236751514413
0.699000000000000510,-0.470907131918939847
0.700000000000000511,-0.468652317903208104
0.701000000000000512,-0.466418598576387289
0.702000000000000512,-0.464205777734957803
0.703000000000000513,-0.462013659151354728
0.704000000000000514,-0.459842046624225287
0.705000000000000515,-0.457690744027407059
0.706000000000000516,-0.455559555357665069
0.707000000000000517,-0.453448284781194921
0.708000000000000518,-0.451356736678889703
0.709000000000000519,-0.449284715690455638
0.710000000000000520,-0.447232026757291123
0.711000000000000520,-0.445198475164254148
0.712000000000000521,-0.443183866580258101
0.713000000000000522,-0.441188007097744361
0.714000000000000523,-0.439210703271066483
0.715000000000000524,-0.437251762153752721
0.716000000000000525,-0.435310991334730946
0.717000000000000526,-0.433388198973470307
0.718000000000000527,-0.431483193834094891
0.719000000000000528,-0.429595785318472423
0.720000000000000528,-0.427725783498322076
0.721000000000000529,-0.425872999146284958
0.722000000000000530,-0.424037243766082761
0.723000000000000531,-0.422218329621674715
0.724000000000000532,-0.420416069765505607
0.725000000000000533,-0.418630278065829586
0.726000000000000534,-0.416860769233109163
0.727000000000000535,-0.415107358845552110
0.728000000000000536,-0.413369863373755142
0.729000000000000536,-0.411648100204500100
0.730000000000000537,-0.409941887663713533
0.731000000000000538,-0.408251045038582672
0.732000000000000539,-0.406575392598878094
0.733000000000000540,-0.404914751617474089
0.734000000000000541,-0.403268944390089146
0.735000000000000542,-0.401637794254251002
0.736000000000000543,-0.400021125607532835
0.737000000000000544,-0.398418763925026398
0.738000000000000544,-0.396830535776120819
0.739000000000000545,-0.395256268840542491
0.740000000000000546,-0.393695791923729999
0.741000000000000547,-0.392148934971497887
0.742000000000000548,-0.390615529084084367
0.743000000000000549,-0.389095406529477383
0.744000000000000550,-0.387588400756157025
0.745000000000000551,-0.386094346405187361
0.746000000000000552,-0.384613079321700524
0.747000000000000552,-0.383144436565781177
0.748000000000000553,-0.381688256422755390
0.749000000000000554,-0.380244378412913142
0.750000000000000555,-0.378812643300668106
0.751000000000000556,-0.377392893103155991
0.752000000000000557,-0.375984971098318632
0.753000000000000558,-0.374588721832418536
0.754000000000000559,-0.373203991127091350
0.755000000000000560,-0.371830626085850657
0.756000000000000560,-0.370468475100134698
0.757000000000000561,-0.369117387854841716
0.758000000000000562,-0.367777215333411289
0.759000000000000563,-0.366447809822457893
0.760000000000000564,-0.365129024915934741
0.761000000000000565,-0.363820715518872073
0.762000000000000566,-0.362522737850690613
0.763000000000000567,-0.361234949448087761
0.764000000000000568,-0.359957209167524328
0.765000000000000568,-0.358689377187322911
0.766000000000000569,-0.357431315009359873
0.767000000000000570,-0.356182885460401777
0.768000000000000571,-0.354943952693049070
0.769000000000000572,-0.353714382186350984
0.770000000000000573,-0.352494040746046733
0.771000000000000574,-0.351282796504483075
0.772000000000000575,-0.350080518920190376
0.773000000000000576,-0.348887078777141924
0.774000000000000576,-0.347702348183693333
0.775000000000000577,-0.346526200571233289
0.776000000000000578,-0.345358510692508280
0.777000000000000579,-0.344199154619697967
0.778000000000000580,-0.343048009742166982
0.779000000000000581,-0.341904954763979307
0.780000000000000582,-0.340769869701124994
0.781000000000000583,-0.339642635878506849
0.782000000000000584,-0.338523135926664609
0.783000000000000584,-0.337411253778255982
0.784000000000000585,-0.336306874664320465
0.785000000000000586,-0.335209885110288708
0.786000000000000587,-0.334120172931795634
0.787000000000000588,-0.333037627230265421
0.788000000000000589,-0.331962138388283035
0.789000000000000590,-0.330893598064791405
0.790000000000000591,-0.329831899190063449
0.791000000000000592,-0.328776935960504335
0.792000000000000592,-0.327728603833269905
0.793000000000000593,-0.326686799520702120
0.794000000000000594,-0.325651420984602979
0.795000000000000595,-0.324622367430348668
0.796000000000000596,-0.323599539300822137
0.797000000000000597,-0.322582838270226768
0.798000000000000598,-0.321572167237732243
0.799000000000000599,-0.320567430320975677
0.800000000000000600,-0.319568532849452913
0.801000000000000600,-0.318575381357744658
0.802000000000000601,-0.317587883578640984
0.803000000000000602,-0.316605948436137152
0.804000000000000603,-0.315629486038319085
0.805000000000000604,-0.314658407670134366
0.806000000000000605,-0.313692625786043122
0.807000000000000606,-0.312732054002602733
0.808000000000000607,-0.311776607090918256
0.809000000000000608,-0.310826200969018418
0.810000000000000608,-0.309880752694157879
0.811000000000000609,-0.308940180454988833
0.812000000000000610,-0.308004403563715723
0.813000000000000611,-0.307073342448116182
0.814000000000000612,-0.306146918643526611
0.815000000000000613,-0.305225054784756922
0.816000000000000614,-0.304307674597916411
0.817000000000000615,-0.303394702892205548
0.818000000000000616,-0.302486065551644256
0.819000000000000616,-0.301581689526739916
0.820000000000000617,-0.300681502826106228
0.821000000000000618,-0.299785434508045401
0.822000000000000619,-0.298893414672085522
0.823000000000000620,-0.298005374450463267
0.824000000000000621,-0.297121245999584893
0.825000000000000622,-0.296240962491450988
0.826000000000000623,-0.295364458105049910
0.827000000000000624,-0.294491668017715758
0.828000000000000624,-0.293622528396479288
0.829000000000000625,-0.292756976389369261
0.830000000000000626,-0.291894950116726171
0.831000000000000627,-0.291036388662474776
0.832000000000000628,-0.290181232065397476
0.833000000000000629,-0.289329421310384249
0.834000000000000630,-0.288480898319681045
0.835000000000000631,-0.287635605944131512
0.836000000000000631,-0.286793487954408066
0.837000000000000632,-0.285954489032252623
0.838000000000000633,-0.285118554761697784
0.839000000000000634,-0.284285631620310064
0.840000000000000635,-0.283455666970431230
0.841000000000000636,-0.282628609050412094
0.842000000000000637,-0.281804406965881715
0.843000000000000638,-0.280983010680996736
0.844000000000000639,-0.280164371009727298
0.845000000000000639,-0.279348439607142396
0.846000000000000640,-0.278535168960708290
0.847000000000000641,-0.277724512381628097
0.848000000000000642,-0.276916423996165340
0.849000000000000643,-0.276110858737008413
0.850000000000000644,-0.275307772334670131
0.851000000000000645,-0.274507121308872670
0.852000000000000646,-0.273708862959993804
0.853000000000000647,-0.272912955360523957
0.854000000000000647,-0.272119357346546520
0.855000000000000648,-0.271328028509258301
0.856000000000000649,-0.270538929186518229
0.857000000000000650,-0.269752020454421315
0.858000000000000651,-0.268967264118906979
0.859000000000000652,-0.268184622707408671
0.860000000000000653,-0.267404059460535748
0.861000000000000654,-0.266625538323778499
0.862000000000000655,-0.265849023939278450
0.863000000000000655,-0.265074481637603054
0.864000000000000656,-0.264301877429592325
0.865000000000000657,-0.263531177998216126
0.866000000000000658,-0.262762350690496249
0.867000000000000659,-0.261995363509463342
0.868000000000000660,-0.261230185106144541
0.869000000000000661,-0.260466784771608229
0.870000000000000662,-0.259705132429051910
0.871000000000000663,-0.258945198625937567
0.872000000000000663,-0.258186954526155532
0.873000000000000664,-0.257430371902258537
0.874000000000000665,-0.256675423127726121
0.875000000000000666,-0.255922081169287607
0.876000000000000667,-0.255170319579283489
0.877000000000000668,-0.254420112488083716
0.878000000000000669,-0.253671434596556611
0.879000000000000670,-0.252924261168572140
0.880000000000000671,-0.252178568023585348
0.881000000000000671,-0.251434331529231669
0.882000000000000672,-0.250691528594014779
0.883000000000000673,-0.249950136660012034
0.884000000000000674,-0.249210133695657449
0.885000000000000675,-0.248471498188555795
0.886000000000000676,-0.247734209138368744
0.887000000000000677,-0.246998246049741382
0.888000000000000678,-0.246263588925283605
0.889000000000000679,-0.245530218258614985
0.890000000000000679,-0.244798115027451690
0.891000000000000680,-0.244067260686755855
0.892000000000000681,-0.243337637161936182
0.893000000000000682,-0.242609226842100512
0.894000000000000683,-0.241882012573367999
0.895000000000000684,-0.241155977652237119
0.896000000000000685,-0.240431105819004204
0.897000000000000686,-0.239707381251237139
0.898000000000000687,-0.238984788557315919
0.899000000000000687,-0.238263312770007840
0.900000000000000688,-0.237542939340119302
0.901000000000000689,-0.236823654130188910
0.902000000000000690,-0.236105443408245741
0.903000000000000691,-0.235388293841617802
0.904000000000000692,-0.234672192490796128
0.905000000000000693,-0.233957126803358173
0.906000000000000694,-0.233243084607948153
0.907000000000000695,-0.232530054108301382
0.908000000000000695,-0.231818023877344626
0.909000000000000696,-0.231106982851329912
0.910000000000000697,-0.230396920324044657
0.911000000000000698,-0.229687825941059742
0.912000000000000699,-0.228979689694043642
0.913000000000000700,-0.228272501915136206
0.914000000000000701,-0.227566253271354130
0.915000000000000702,-0.226860934759086696
0.916000000000000703,-0.226156537698615212
0.917000000000000703,-0.225453053728708941
0.918000000000000704,-0.224750474801260813
0.919000000000000705,-0.224048793175986777
0.920000000000000706,-0.223348001415179936
0.921000000000000707,-0.222648092378511631
0.922000000000000708,-0.221949059217890377
0.923000000000000709,-0.221250895372386625
0.924000000000000710,-0.220553594563184296
0.925000000000000711,-0.219857150788614231
0.926000000000000711,-0.219161558319223015
0.927000000000000712,-0.218466811692902552
0.928000000000000713,-0.217772905710068188
0.929000000000000714,-0.217079835428900969
0.930000000000000715,-0.216387596160620810
0.931000000000000716,-0.215696183464830021
0.932000000000000717,-0.215005593144909662
0.933000000000000718,-0.214315821243450444
0.934000000000000719,-0.213626864037754050
0.935000000000000719,-0.212938718035377089
0.936000000000000720,-0.212251379969722098
0.937000000000000721,-0.211564846795686712
0.938000000000000722,-0.210879115685364715
0.939000000000000723,-0.210194184023783259
0.940000000000000724,-0.209510049404708548
0.941000000000000725,-0.208826709626486556
0.942000000000000726,-0.208144162687944334
0.943000000000000727,-0.207462406784325870
0.944000000000000727,-0.206781440303294317
0.945000000000000728,-0.206101261820972687
0.946000000000000729,-0.205421870098023623
0.947000000000000730,-0.204743264075802012
0.948000000000000731,-0.204065442872525982
0.949000000000000732,-0.203388405779520054
0.950000000000000733,-0.202712152257483680
0.951000000000000734,-0.202036681932831114
0.952000000000000735,-0.201361994594049742
0.953000000000000735,-0.200688090188121115
0.954000000000000736,-0.200014968816988381
0.955000000000000737,-0.199342630734058834
0.956000000000000738,-0.198671076340763364
0.957000000000000739,-0.198000306183148872
0.958000000000000740,-0.197330320948522514
0.959000000000000741,-0.196661121462136157
0.960000000000000742,-0.195992708683919714
0.961000000000000743,-0.195325083705250230
0.962000000000000743,-0.194658247745765955
0.963000000000000744,-0.193992202150226500
0.964000000000000745,-0.193326948385417807
0.965000000000000746,-0.192662488037084523
0.966000000000000747,-0.191998822806922764
0.967000000000000748,-0.191335954509595174
0.968000000000000749,-0.190673885069809840
0.969000000000000750,-0.190012616519410982
0.970000000000000751,-0.189352150994542223
0.971000000000000751,-0.188692490732816853
0.972000000000000752,-0.188033638070546905
0.973000000000000753,-0.187375595440021581
0.974000000000000754,-0.186718365366791567
0.975000000000000755,-0.186061950467022813
0.976000000000000756,-0.185406353444873911
0.977000000000000757,-0.184751577089910801
0.978000000000000758,-0.184097624274562888
0.979000000000000759,-0.183444497951623153
0.980000000000000759,-0.182792201151763228
0.981000000000000760,-0.182140736981107471
0.982000000000000761,-0.181490108618837576
0.983000000000000762,-0.180840319314821474
0.984000000000000763,-0.180191372387286164
0.985000000000000764,-0.179543271220534567
0.986000000000000765,-0.178896019262678008
0.987000000000000766,-0.178249620023415656
0.988000000000000766,-0.177604077071844640
0.989000000000000767,-0.176959394034307133
0.990000000000000768,-0.176315574592269708
0.991000000000000769,-0.175672622480223195
0.992000000000000770,-0.175030541483634450
0.993000000000000771,-0.174389335436926723
0.994000000000000772,-0.173749008221472767
0.995000000000000773,-0.173109563763650942
0.996000000000000774,-0.172471006032902885
0.997000000000000774,-0.171833339039842381
0.998000000000000775,-0.171196566834386055
0.999000000000000776,-0.170560693503917116
1.000000000000000666,-0.169925723171475418
1.001000000000000778,-0.169291659993986709
1.002000000000000668,-0.168658508160509035
1.003000000000000780,-0.168026271890516610
1.004000000000000670,-0.167394955432208947
1.005000000000000782,-0.166764563060853355
1.006000000000000671,-0.166135099077150267
1.007000000000000783,-0.165506567805624005
1.008000000000000673,-0.164878973593052175
1.009000000000000785,-0.164252320806911517
1.010000000000000675,-0.163626613833855961
1.011000000000000787,-0.163001857078217460
1.012000000000000677,-0.162378054960542195
1.013000000000000789,-0.161755211916143782
1.014000000000000679,-0.161133332393677414
1.015000000000000790,-0.160512420853760551
1.016000000000000680,-0.159892481767598377
1.017000000000000792,-0.159273519615640125
1.018000000000000682,-0.158655538886263103
1.019000000000000794,-0.158038544074478093
1.020000000000000684,-0.157422539680664497
1.021000000000000796,-0.156807530209317314
1.022000000000000686,-0.156193520167829863
1.023000000000000798,-0.155580514065293718
1.024000000000000687,-0.154968516411320312
1.025000000000000799,-0.154357531714890028
1.026000000000000689,-0.153747564483222632
1.027000000000000801,-0.153138619220663380
1.028000000000000691,-0.152530700427600335
1.029000000000000803,-0.151923812599397079
1.030000000000000693,-0.151317960225345771
1.031000000000000805,-0.150713147787652380
1.032000000000000695,-0.150109379760422740
1.033000000000000806,-0.149506660608690028
1.034000000000000696,-0.148904994787450728
1.035000000000000808,-0.148304386740718802
1.036000000000000698,-0.147704840900605788
1.037000000000000810,-0.147106361686428544
1.038000000000000700,-0.146508953503809491
1.039000000000000812,-0.145912620743820665
1.040000000000000702,-0.145317367782142742
1.041000000000000814,-0.144723198978233519
1.042000000000000703,-0.144130118674514973
1.043000000000000815,-0.143538131195592222
1.044000000000000705,-0.142947240847477702
1.045000000000000817,-0.142357451916828609
1.046000000000000707,-0.141768768670221423
1.047000000000000819,-0.141181195353423966
1.048000000000000709,-0.140594736190692376
1.049000000000000821,-0.140009395384086910
1.050000000000000711,-0.139425177112795062
1.051000000000000822,-0.138842085532487253
1.052000000000000712,-0.138260124774668647
1.053000000000000824,-0.137679298946061512
1.054000000000000714,-0.137099612127997539
1.055000000000000826,-0.136521068375826088
1.056000000000000716,-0.135943671718337766
1.057000000000000828,-0.135367426157201265
1.058000000000000718,-0.134792335666417934
1.059000000000000830,-0.134218404191788016
1.060000000000000719,-0.133645635650394862
1.061000000000000831,-0.133074033930098062
1.062000000000000721,-0.132503602889042477
1.063000000000000833,-0.131934346355190163
1.064000000000000723,-0.131366268125843788
1.065000000000000835,-0.130799371967207229
1.066000000000000725,-0.130233661613949642
1.067000000000000837,-0.129669140768768287
1.068000000000000727,-0.129105813101998951
1.069000000000000838,-0.128543682251196972
1.070000000000000728,-0.127982751820764268
1.071000000000000840,-0.127423025381570881
1.072000000000000730,-0.126864506470594274
1.073000000000000842,-0.126307198590570241
1.074000000000000732,-0.125751105209647246
1.075000000000000844,-0.125196229761070754
1.076000000000000734,-0.124642575642862297
1.077000000000000846,-0.124090146217509176
1.078000000000000735,-0.123538944811683302
1.079000000000000847,-0.122988974715944582
1.080000000000000737,-0.122440239184483657
1.081000000000000849,-0.121892741434844923
1.082000000000000739,-0.121346484647685465
1.083000000000000851,-0.120801471966529420
1.084000000000000741,-0.120257706497539571
1.085000000000000853,-0.119715191309291577
1.086000000000000743,-0.119173929432563636
1.087000000000000854,-0.118633923860135965
1.088000000000000744,-0.118095177546599372
1.089000000000000856,-0.117557693408161107
1.090000000000000746,-0.117021474322481139
1.091000000000000858,-0.116486523128503758
1.092000000000000748,-0.115952842626292976
1.093000000000000860,-0.115420435576896879
1.094000000000000750,-0.114889304702191455
1.095000000000000862,-0.114359452684762955
1.096000000000000751,-0.113830882167778813
1.097000000000000863,-0.113303595754864886
1.098000000000000753,-0.112777596010010389
1.099000000000000865,-0.112252885457461107
1.100000000000000755,-0.111729466581624567
1.101000000000000867,-0.111207341826988396
1.102000000000000757,-0.110686513598044184
1.103000000000000869,-0.110166984259215894
1.104000000000000759,-0.109648756134792566
1.105000000000000870,-0.109131831508880367
1.106000000000000760,-0.108616212625342268
1.107000000000000872,-0.108101901687766858
1.108000000000000762,-0.107588900859426378
1.109000000000000874,-0.107077212263247734
1.110000000000000764,-0.106566837981789744
1.111000000000000876,-0.106057780057223328
1.112000000000000766,-0.105550040491327740
1.113000000000000878,-0.105043621245479363
1.114000000000000767,-0.104538524240659084
1.115000000000000879,-0.104034751357451064
1.116000000000000769,-0.103532304436063122
1.117000000000000881,-0.103031185276340836
1.118000000000000771,-0.102531395637792705
1.119000000000000883,-0.102032937239621119
1.120000000000000773,-0.101535811760755254
1.121000000000000885,-0.101040020839888903
1.122000000000000774,-0.100545566075527976
1.123000000000000886,-0.100052449026038132
1.124000000000000776,-0.099560671209705326
1.125000000000000888,-0.099070234104783370
1.126000000000000778,-0.098581139149567454
1.127000000000000890,-0.098093387742466412
1.128000000000000780,-0.097606981242060104
1.129000000000000892,-0.097121920967193215
1.130000000000000782,-0.096638208197049644
1.131000000000000894,-0.096155844171236737
1.132000000000000783,-0.095674830089879453
1.133000000000000895,-0.095195167113716478
1.134000000000000785,-0.094716856364187127
1.135000000000000897,-0.094239898923551418
1.136000000000000787,-0.093764295834977140
1.137000000000000899,-0.093290048102663961
1.138000000000000789,-0.092817156691943153
1.139000000000000901,-0.092345622529411447
1.140000000000000790,-0.091875446503036307
1.141000000000000902,-0.091406629462279954
1.142000000000000792,-0.090939172218236580
1.143000000000000904,-0.090473075543752321
1.144000000000000794,-0.090008340173568638
1.145000000000000906,-0.089544966804440601
1.146000000000000796,-0.089082956095298080
1.147000000000000908,-0.088622308667371710
1.148000000000000798,-0.088163025104344844
1.149000000000000909,-0.087705105952500820
1.150000000000000799,-0.087248551720867984
1.151000000000000689,-0.086793362881380551
1.152000000000000801,-0.086339539869029355
1.153000000000000913,-0.085887083082022697
1.154000000000000803,-0.085435992881944076
1.155000000000000693,-0.084986269593913422
1.156000000000000805,-0.084537913506763721
1.157000000000000917,-0.084090924873190059
1.158000000000000806,-0.083645303909936547
1.159000000000000696,-0.083201050797957921
1.160000000000000808,-0.082758165682596418
1.161000000000000920,-0.082316648673756404
1.162000000000000810,-0.081876499846087719
1.163000000000000700,-0.081437719239156395
1.164000000000000812,-0.081000306857633403
1.165000000000000924,-0.080564262671472278
1.166000000000000814,-0.080129586616101547
1.167000000000000703,-0.079696278592602282
1.168000000000000815,-0.079264338467905593
1.169000000000000927,-0.078833766074973735
1.170000000000000817,-0.078404561213000032
1.171000000000000707,-0.077976723647591339
1.172000000000000819,-0.077550253110974965
1.173000000000000931,-0.077125149302184434
1.174000000000000821,-0.076701411887257057
1.175000000000000711,-0.076279040499438580
1.176000000000000822,-0.075858034739376426
1.177000000000000934,-0.075438394175321749
1.178000000000000824,-0.075020118343334524
1.179000000000000714,-0.074603206747477377
1.180000000000000826,-0.074187658860032174
1.181000000000000938,-0.073773474121692079
1.182000000000000828,-0.073360651941775393
1.183000000000000718,-0.072949191698430796
1.184000000000000830,-0.072539092738844027
1.185000000000000941,-0.072130354379440015
1.186000000000000831,-0.071722975906105754
1.187000000000000721,-0.071316956574385221
1.188000000000000833,-0.070912295609700998
1.189000000000000945,-0.070508992207559212
1.190000000000000835,-0.070107045533766482
1.191000000000000725,-0.069706454724630634
1.192000000000000837,-0.069307218887193905
1.193000000000000949,-0.068909337099423068
1.194000000000000838,-0.068512808410443313
1.195000000000000728,-0.068117631840738310
1.196000000000000840,-0.067723806382371479
1.197000000000000952,-0.067331330999205768
1.198000000000000842,-0.066940204627105884
1.199000000000000732,-0.066550426174170951
1.200000000000000844,-0.066161994520931453
1.201000000000000956,-0.065774908520583347
1.202000000000000846,-0.065389166999195614
1.203000000000000735,-0.065004768755927575
1.204000000000000847,-0.064621712563244213
1.205000000000000959,-0.064239997167142598
1.206000000000000849,-0.063859621287357560
1.207000000000000739,-0.063480583617582770
1.208000000000000851,-0.063102882825692735
1.209000000000000963,-0.062726517553953420
1.210000000000000853,-0.062351486419245303
1.211000000000000743,-0.061977788013275380
1.212000000000000854,-0.061605420902798858
1.213000000000000966,-0.061234383629831489
1.214000000000000856,-0.060864674711875968
1.215000000000000746,-0.060496292642124416
1.216000000000000858,-0.060129235889690880
1.217000000000000970,-0.059763502899816044
1.218000000000000860,-0.059399092094088023
1.219000000000000750,-0.059036001870661027
1.220000000000000862,-0.058674230604468039
1.221000000000000973,-0.058313776647435603
1.222000000000000863,-0.057954638328705087
1.223000000000000753,-0.057596813954839135
1.224000000000000865,-0.057240301810044525
1.225000000000000977,-0.056885100156382554
1.226000000000000867,-0.056531207233984151
1.227000000000000757,-0.056178621261263516
1.228000000000000869,-0.055827340435127625
1.229000000000000981,-0.055477362931201771
1.230000000000000870,-0.055128686904023637
1.231000000000000760,-0.054781310487268794
1.232000000000000872,-0.054435231793962799
1.233000000000000984,-0.054090448916678649
1.234000000000000874,-0.053746959927765701
1.235000000000000764,-0.053404762879545167
1.236000000000000876,-0.053063855804527028
1.237000000000000988,-0.052724236715616254
1.238000000000000878,-0.052385903606324856
1.239000000000000767,-0.052048854450973514
1.240000000000000879,-0.051713087204905327
1.241000000000000991,-0.051378599804689409
1.242000000000000881,-0.051045390168325142
1.243000000000000771,-0.050713456195452547
1.244000000000000883,-0.050382795767549969
1.245000000000000995,-0.050053406748147955
1.246000000000000885,-0.049725286983024398
1.247000000000000774,-0.049398434300409147
1.248000000000000886,-0.049072846511189247
1.249000000000000998,-0.048748521409106467
1.250000000000000888,-0.048425456770963118
1.251000000000000778,-0.048103650356814180
1.252000000000000890,-0.047783099910175042
1.253000000000001002,-0.047463803158212484
1.254000000000000892,-0.047145757811950281
1.255000000000000782,-0.046828961566457751
1.256000000000000894,-0.046513412101052171
1.257000000000001005,-0.046199107079492090
1.258000000000000895,-0.045886044150172015
1.259000000000000785,-0.045574220946315594
1.260000000000000897,-0.045263635086169297
1.261000000000001009,-0.044954284173196267
1.262000000000000899,-0.044646165796264209
1.263000000000000789,-0.044339277529837767
1.264000000000000901,-0.044033616934170926
1.265000000000001013,-0.043729181555489799
1.266000000000000902,-0.043425968926186789
1.267000000000000792,-0.043123976565002817
1.268000000000000904,-0.042823201977217826
1.269000000000001016,-0.042523642654832286
1.270000000000000906,-0.042225296076756937
1.271000000000000796,-0.041928159708991324
1.272000000000000908,-0.041632231004806897
1.273000000000001020,-0.041337507404933062
1.274000000000000909,-0.041043986337735427
1.275000000000000799,-0.040751665219392517
1.276000000000000911,-0.040460541454084342
1.277000000000001023,-0.040170612434159647
1.278000000000000913,-0.039881875540320161
1.279000000000000803,-0.039594328141795178
1.280000000000000915,-0.039307967596520624
1.281000000000001027,-0.039022791251301758
1.282000000000000917,-0.038738796442002940
1.283000000000000806,-0.038455980493707652
1.284000000000000918,-0.038174340720897981
1.285000000000001030,-0.037893874427620364
1.286000000000000920,-0.037614578907658916
1.287000000000000810,-0.037336451444700200
1.288000000000000922,-0.037059489312508472
1.289000000000001034,-0.036783689775084651
1.290000000000000924,-0.036509050086833708
1.291000000000000814,-0.036235567492737528
1.292000000000000925,-0.035963239228505750
1.293000000000001037,-0.035692062520753298
1.294000000000000927,-0.035422034587151860
1.295000000000000817,-0.035153152636593639
1.296000000000000929,-0.034885413869355474
1.297000000000001041,-0.034618815477251860
1.298000000000000931,-0.034353354643799613
1.299000000000000821,-0.034089028544371500
1.300000000000000933,-0.033825834346349851
1.301000000000001044,-0.033563769209288857
1.302000000000000934,-0.033302830285062313
1.303000000000000824,-0.033043014718023997
1.304000000000000936,-0.032784319645149648
1.305000000000001048,-0.032526742196198818
1.306000000000000938,-0.032270279493861374
1.307000000000000828,-0.032014928653904783
1.308000000000000940,-0.031760686785322047
1.309000000000001052,-0.031507550990487555
1.310000000000000941,-0.031255518365293299
1.311000000000000831,-0.031004585999299405
1.312000000000000943,-0.030754750975874955
1.313000000000001055,-0.030506010372351344
1.314000000000000945,-0.030258361260152643
1.315000000000000835,-0.030011800704941416
1.316000000000000947,-0.029766325766763503
1.317000000000001059,-0.029521933500185150
1.318000000000000949,-0.029278620954425370
1.319000000000000838,-0.029036385173506051
1.320000000000000950,-0.028795223196378662
1.321000000000001062,-0.028555132057061616
1.322000000000000952,-0.028316108784779831
1.323000000000000842,-0.028078150404091985
1.324000000000000954,-0.027841253935028974
1.325000000000001066,-0.027605416393220839
1.326000000000000956,-0.027370634790033137
1.327000000000000846,-0.027136906132690021
1.328000000000000957,-0.026904227424411946
1.329000000000001069,-0.026672595664531822
1.330000000000000959,-0.026442007848635950
1.331000000000000849,-0.026212460968679695
1.332000000000000961,-0.025983952013113744
1.333000000000001073,-0.025756477967012102
1.334000000000000963,-0.025530035812195352
1.335000000000000853,-0.025304622527347487
1.336000000000000965,-0.025080235088143322
1.337000000000001076,-0.024856870467365726
1.338000000000000966,-0.024634525635024031
1.339000000000000856,-0.024413197558476155
1.340000000000000968,-0.024192883202542603
1.341000000000001080,-0.023973579529623614
1.342000000000000970,-0.023755283499816867
1.343000000000000860,-0.023537992071030307
1.344000000000000972,-0.023321702199094994
1.345000000000001084,-0.023106410837883153
1.346000000000000973,-0.022892114939412692
1.347000000000000863,-0.022678811453964672
1.348000000000000975,-0.022466497330186699
1.349000000000001087,-0.022255169515208985
1.350000000000000977,-0.022044824954749243
1.351000000000000867,-0.021835460593222052
1.352000000000000979,-0.021627073373836903
1.353000000000001091,-0.021419660238718198
1.354000000000000981,-0.021213218128999452
1.355000000000000870,-0.021007743984927295
1.356000000000000982,-0.020803234745969602
1.357000000000001094,-0.020599687350914216
1.358000000000000984,-0.020397098737969917
1.359000000000000874,-0.020195465844865847
1.360000000000000986,-0.019994785608952362
1.361000000000001098,-0.019795054967303032
1.362000000000000988,-0.019596270856802496
1.363000000000000878,-0.019398430214251156
1.364000000000000989,-0.019201529976462333
1.365000000000001101,-0.019005567080347851
1.366000000000000991,-0.018810538463019881
1.367000000000000881,-0.018616441061885047
1.368000000000000993,-0.018423271814730656
1.369000000000001105,-0.018231027659820487
1.370000000000000995,-0.018039705535984933
1.371000000000000885,-0.017849302382709993
1.372000000000000997,-0.017659815140226489
1.373000000000001108,-0.017471240749601658
1.374000000000000998,-0.017283576152814673
1.375000000000000888,-0.017096818292862481
1.376000000000001000,-0.016910964113828662
1.377000000000001112,-0.016726010560974187
1.378000000000001002,-0.016541954580824754
1.379000000000000892,-0.016358793121248199
1.380000000000001004,-0.016176523131539909
1.381000000000001116,-0.015995141562507396
1.382000000000001005,-0.015814645366544030
1.383000000000000895,-0.015635031497714197
1.384000000000001007,-0.015456296911832049
1.385000000000001119,-0.015278438566538178
1.386000000000001009,-0.015101453421381158
1.387000000000000899,-0.014925338437884073
1.388000000000001011,-0.014750090579639389
1.389000000000001123,-0.014575706812363665
1.390000000000001013,-0.014402184103985411
1.391000000000000902,-0.014229519424713533
1.392000000000001014,-0.014057709747112151
1.393000000000001126,-0.013886752046172155
1.394000000000001016,-0.013716643299385708
1.395000000000000906,-0.013547380486811061
1.396000000000001018,-0.013378960591145869
1.397000000000001130,-0.013211380597797478
1.398000000000001020,-0.013044637494952271
1.399000000000000909,-0.012878728273638267
1.400000000000001021,-0.012713649927796708
1.401000000000001133,-0.012549399454349847
1.402000000000001023,-0.012385973853260613
1.403000000000000913,-0.012223370127600348
1.404000000000001025,-0.012061585283618326
1.405000000000001137,-0.011900616330795760
1.406000000000001027,-0.011740460281914229
1.407000000000000917,-0.011581114153121201
1.408000000000001029,-0.011422574963980279
1.409000000000001140,-0.011264839737543770
1.410000000000001030,-0.011107905500405867
1.411000000000000920,-0.010951769282764409
1.412000000000001032,-0.010796428118476680
1.413000000000001144,-0.010641879045123427
1.414000000000001034,-0.010488119104058856
1.415000000000000924,-0.010335145340470694
1.416000000000001036,-0.010182954803438712
1.417000000000001148,-0.010031544545987311
1.418000000000001037,-0.009880911625137958
1.419000000000000927,-0.009731053101966338
1.420000000000001039,-0.009581966041654585
1.421000000000001151,-0.009433647513546927
1.422000000000001041,-0.009286094591195372
1.423000000000000931,-0.009139304352417348
1.424000000000001043,-0.008993273879343166
1.425000000000001155,-0.008848000258465797
1.426000000000001044,-0.008703480580694164
1.427000000000000934,-0.008559711941398127
1.428000000000001046,-0.008416691440458576
1.429000000000001158,-0.008274416182312328
1.430000000000001048,-0.008132883276006211
1.431000000000000938,-0.007992089835234075
1.432000000000001050,-0.007852032978390603
1.433000000000001162,-0.007712709828613684
1.434000000000001052,-0.007574117513825326
1.435000000000000941,-0.007436253166784729
1.436000000000001053,-0.007299113925122026
1.437000000000001165,-0.007162696931385168
1.438000000000001055,-0.007026999333087813
1.439000000000000945,-0.006892018282740599
1.440000000000001057,-0.006757750937901784
1.441000000000001169,-0.006624194461209867
1.442000000000001059,-0.006491346020429775
1.443000000000000949,-0.006359202788491755
1.444000000000001060,-0.006227761943526587
1.445000000000001172,-0.006097020668904747
1.446000000000001062,-0.005966976153281930
1.447000000000000952,-0.005837625590622865
1.448000000000001064,-0.005708966180250657
1.449000000000001176,-0.005580995126877318
1.450000000000001066,-0.005453709640638562
1.451000000000000956,-0.005327106937129683
1.452000000000001068,-0.005201184237444352
1.453000000000001180,-0.005075938768203654
1.454000000000001069,-0.004951367761590521
1.455000000000000959,-0.004827468455386337
1.456000000000001071,-0.004704238092999323
1.457000000000001183,-0.004581673923500343
1.458000000000001073,-0.004459773201652221
1.459000000000000963,-0.004338533187939096
1.460000000000001075,-0.004217951148603296
1.461000000000001187,-0.004098024355666906
1.462000000000001076,-0.003978750086971981
1.463000000000000966,-0.003860125626198608
1.464000000000001078,-0.003742148262900713
1.465000000000001190,-0.003624815292533819
1.466000000000001080,-0.003508124016478979
1.467000000000000970,-0.003392071742073737
1.468000000000001082,-0.003276655782638654
1.469000000000001194,-0.003161873457499789
1.470000000000001084,-0.003047722092020864
1.471000000000000973,-0.002934199017621660
1.472000000000001085,-0.002821301571811717
1.473000000000001197,-0.002709027098205352
1.474000000000001087,-0.002597372946553484
1.475000000000000977,-0.002486336472761081
1.476000000000001089,-0.002375915038916043
1.477000000000001201,-0.002266106013309611
1.478000000000001091,-0.002156906770456339
1.479000000000000981,-0.002048314691120544
1.480000000000001092,-0.001940327162333276
1.481000000000001204,-0.001832941577417509
1.482000000000001094,-0.001726155336006264
1.483000000000000984,-0.001619965844065668
1.484000000000001096,-0.001514370513910678
1.485000000000001208,-0.001409366764225295
1.486000000000001098,-0.001304952020087411
1.487000000000000988,-0.001201123712979964
1.488000000000001100,-0.001097879280811717
1.489000000000001211,-0.000995216167938713
1.490000000000001101,-0.000893131825177590
1.491000000000000991,-0.000791623709821562
1.492000000000001103,-0.000690689285663538
1.493000000000001215,-0.000590326023006939
1.494000000000001105,-0.000490531398681017
1.495000000000000995,-0.000391302896060890
1.496000000000001107,-0.000292638005079959
1.497000000000001219,-0.000194534222246163
1.498000000000001108,-0.000096989050654199
1.499000000000000998,0.000000000000000000
