# TiO2-rut-110_HSPSCA-AC
# h[nm],U(h)[kJ/mol]
0.149999999999999994,103.908369505602337313
0.150999999999999995,101.842507789729637580
0.151999999999999996,99.946157260162635794
0.152999999999999997,98.104726810637842505
0.153999999999999998,96.275982355881581043
0.154999999999999999,94.452079183951823893
0.156000000000000000,92.638917251278911635
0.157000000000000001,90.845714994074498350
0.158000000000000002,89.080380508803727935
0.159000000000000002,87.347991732033420931
0.160000000000000003,85.650799721599724990
0.161000000000000004,83.988857823541891889
0.162000000000000005,82.360799779554881184
0.163000000000000006,80.764538499476515199
0.164000000000000007,79.197798142748752070
0.165000000000000008,77.658466950811416041
0.166000000000000009,76.144793713829969306
0.167000000000000010,74.655463752887214923
0.168000000000000010,73.189591306706461182
0.169000000000000011,71.746660505236334870
0.170000000000000012,70.326440306416671433
0.171000000000000013,68.928891824575018177
0.172000000000000014,67.554080341060725345
0.173000000000000015,66.202099324755351972
0.174000000000000016,64.873010043153186643
0.175000000000000017,63.566797692770897754
0.176000000000000018,62.283343233278593232
0.177000000000000018,61.022409072998527790
0.178000000000000019,59.783636239799854195
0.179000000000000020,58.566550524195761795
0.180000000000000021,57.370575175006898405
0.181000000000000022,56.195047966234923820
0.182000000000000023,55.039240766546107864
0.183000000000000024,53.902380080929546580
0.184000000000000025,52.783667365283449158
0.185000000000000026,51.682298219100822223
0.186000000000000026,50.597479828451184858
0.187000000000000027,49.528446256870061859
0.188000000000000028,48.474471365611535134
0.189000000000000029,47.434879289680324632
0.190000000000000030,46.409052506296816887
0.191000000000000031,45.396437612779074300
0.192000000000000032,44.396548986172206241
0.193000000000000033,43.408970531998122055
0.194000000000000034,42.433355748480714453
0.195000000000000034,41.469426339227723588
0.196000000000000035,40.516969604763040991
0.197000000000000036,39.575834834104128390
0.198000000000000037,38.645928903863683956
0.199000000000000038,37.727211275784767963
0.200000000000000039,36.819688565472553421
0.201000000000000040,35.923408836327936910
0.202000000000000041,35.038455754023743793
0.203000000000000042,34.164942718793376741
0.204000000000000042,33.303007075658243252
0.205000000000000043,32.452804486719145416
0.206000000000000044,31.614503534892442360
0.207000000000000045,30.788280615035990451
0.208000000000000046,29.974315156280916028
0.209000000000000047,29.172785208529045775
0.210000000000000048,28.383863416436742710
0.211000000000000049,27.607713395714718274
0.212000000000000050,26.844486519149619141
0.213000000000000050,26.094319113323599879
0.214000000000000051,25.357330061485196637
0.215000000000000052,24.633618803337832048
0.216000000000000053,23.923263718583324788
0.217000000000000054,23.226320877818185551
0.218000000000000055,22.542823141764596784
0.219000000000000056,21.872779587764888731
0.220000000000000057,21.216175240918126121
0.221000000000000058,20.572971086142910480
0.222000000000000058,19.943104336753680883
0.223000000000000059,19.326488934801339781
0.224000000000000060,18.723016258404154399
0.225000000000000061,18.132556011543858432
0.226000000000000062,17.554957272288806536
0.227000000000000063,16.990049676094201914
0.228000000000000064,16.437644711690214905
0.229000000000000065,15.897537108068911849
0.230000000000000066,15.369506292197865349
0.231000000000000066,14.853317898293024513
0.232000000000000067,14.348725310756529794
0.233000000000000068,13.855471224203828484
0.234000000000000069,13.373289205351397868
0.235000000000000070,12.901905242894297743
0.236000000000000071,12.441039272857521425
0.237000000000000072,11.990406668242099997
0.238000000000000073,11.549719683096851597
0.239000000000000073,11.118688842418738005
0.240000000000000074,10.697024270509304600
0.241000000000000075,10.284436951588082465
0.242000000000000076,9.880639917577600073
0.243000000000000077,9.485349359025331495
0.244000000000000078,9.098285656113258568
0.245000000000000079,8.719174327622008391
0.246000000000000080,8.347746896563913666
0.247000000000000081,7.983741671975678855
0.248000000000000081,7.626904447068914017
0.249000000000000082,7.276989114574884177
0.250000000000000111,6.933758200690505191
0.251000000000000112,6.596983319538334278
0.252000000000000113,6.266445550494739614
0.253000000000000114,5.941935741123352877
0.254000000000000115,5.623254738774110528
0.255000000000000115,5.310213554178917050
0.256000000000000116,5.002633460593389536
0.257000000000000117,4.700346032205329649
0.258000000000000118,4.403193125657931972
0.259000000000000119,4.111026808621578432
0.260000000000000120,3.823709239396882342
0.261000000000000121,3.541112501546946678
0.262000000000000122,3.263118397540519133
0.263000000000000123,2.989618205345121460
0.264000000000000123,2.720512401841190808
0.265000000000000124,2.455710356839754915
0.266000000000000125,2.195130001378412743
0.267000000000000126,1.938697473847285080
0.268000000000000127,1.686346747359379616
0.269000000000000128,1.438019241632465084
0.270000000000000129,1.193663422492521997
0.271000000000000130,0.953234391945191661
0.272000000000000131,0.716693471593238041
0.273000000000000131,0.484007782005948184
0.274000000000000132,0.255149820472775235
0.275000000000000133,0.030097039399331636
0.276000000000000134,-0.191168572569487633
0.277000000000000135,-0.408660904785411172
0.278000000000000136,-0.622390132446810962
0.279000000000000137,-0.832363116482189858
0.280000000000000138,-1.038583794046534781
0.281000000000000139,-1.241053558365200704
0.282000000000000139,-1.439771626809001948
0.283000000000000140,-1.634735396227638304
0.284000000000000141,-1.825940784705237574
0.285000000000000142,-2.013382559032055319
0.286000000000000143,-2.197054647309629516
0.287000000000000144,-2.376950436222785790
0.288000000000000145,-2.553063052621564299
0.289000000000000146,-2.725385629157687006
0.290000000000000147,-2.893911553816025606
0.291000000000000147,-3.058634703269146993
0.292000000000000148,-3.219549660065005092
0.293000000000000149,-3.376651913732050758
0.294000000000000150,-3.529938045954711612
0.295000000000000151,-3.679405900033930088
0.296000000000000152,-3.825054734903504006
0.297000000000000153,-3.966885364022869620
0.298000000000000154,-4.104900279511661587
0.299000000000000155,-4.239103761930392622
0.300000000000000155,-4.369501976145821587
0.301000000000000156,-4.496103053748633727
0.302000000000000157,-4.618917162516270380
0.303000000000000158,-4.737956563433773916
0.304000000000000159,-4.853235655802428994
0.305000000000000160,-4.964771010978539678
0.306000000000000161,-5.072581395294172069
0.307000000000000162,-5.176687782717812603
0.308000000000000163,-5.277113357815964356
0.309000000000000163,-5.373883509577284556
0.310000000000000164,-5.467025816658781068
0.311000000000000165,-5.556570024609241543
0.312000000000000166,-5.642548015618862323
0.313000000000000167,-5.724993771335676662
0.314000000000000168,-5.803943329279677599
0.315000000000000169,-5.879434733374131028
0.316000000000000170,-5.951507979101104517
0.317000000000000171,-6.020204953774386247
0.318000000000000171,-6.085569372408329514
0.319000000000000172,-6.147646709645773200
0.320000000000000173,-6.206484128191857685
0.321000000000000174,-6.262130404183843702
0.322000000000000175,-6.314635849909979726
0.323000000000000176,-6.364052234272859820
0.324000000000000177,-6.410432701375043507
0.325000000000000178,-6.453831687586775168
0.326000000000000179,-6.494304837437958611
0.327000000000000179,-6.531908918658383634
0.328000000000000180,-6.566701736672641232
0.329000000000000181,-6.598742048838635910
0.330000000000000182,-6.628089478700870174
0.331000000000000183,-6.654804430513154401
0.332000000000000184,-6.678948004268055350
0.333000000000000185,-6.700581911454382755
0.334000000000000186,-6.719768391747851233
0.335000000000000187,-6.736570130824439673
0.336000000000000187,-6.751050179471036472
0.337000000000000188,-6.763271874152961161
0.338000000000000189,-6.773298759184176454
0.339000000000000190,-6.781194510632140293
0.340000000000000191,-6.787022862076033114
0.341000000000000192,-6.790847532324758795
0.342000000000000193,-6.792732155188737408
0.343000000000000194,-6.792740211388249350
0.344000000000000195,-6.790934962669687991
0.345000000000000195,-6.787379388191105534
0.346000000000000196,-6.782136123227981095
0.347000000000000197,-6.775267400241008708
0.348000000000000198,-6.766834992338696786
0.349000000000000199,-6.756900159159060948
0.350000000000000200,-6.745523595186961430
0.351000000000000201,-6.732765380515971287
0.352000000000000202,-6.718684934056836866
0.353000000000000203,-6.703340969188067433
0.354000000000000203,-6.686791451838098865
0.355000000000000204,-6.669093560982796376
0.356000000000000205,-6.650303651536963123
0.357000000000000206,-6.630477219613721829
0.358000000000000207,-6.609668870120984252
0.359000000000000208,-6.587932286660509007
0.360000000000000209,-6.565320203691209500
0.361000000000000210,-6.541884380914929409
0.362000000000000210,-6.517675579840144451
0.363000000000000211,-6.492743542476127061
0.364000000000000212,-6.467136972107875081
0.365000000000000213,-6.440903516099910853
0.366000000000000214,-6.414089750675270984
0.367000000000000215,-6.386741167614355952
0.368000000000000216,-6.358902162817144266
0.369000000000000217,-6.330616026670912611
0.370000000000000218,-6.301924936164988722
0.371000000000000218,-6.272869948693133857
0.372000000000000219,-6.243490997483844396
0.373000000000000220,-6.213826888598467768
0.374000000000000221,-6.183915299436878676
0.375000000000000222,-6.153792778690399423
0.376000000000000223,-6.123494747682061146
0.377000000000000224,-6.093055503034196185
0.378000000000000225,-6.062508220604160059
0.379000000000000226,-6.031884960629145809
0.380000000000000226,-6.001216674022041175
0.381000000000000227,-5.970533209760667148
0.382000000000000228,-5.939863323313810284
0.383000000000000229,-5.909234686048237428
0.384000000000000230,-5.878673895561780327
0.385000000000000231,-5.848206486888853917
0.386000000000000232,-5.817856944525543028
0.387000000000000233,-5.787648715222784013
0.388000000000000234,-5.757604221497199859
0.389000000000000234,-5.727744875810481417
0.390000000000000235,-5.698091095369336223
0.391000000000000236,-5.668662317499451930
0.392000000000000237,-5.639477015548084893
0.393000000000000238,-5.610552715271349911
0.394000000000000239,-5.581906011663460454
0.395000000000000240,-5.553552586186720319
0.396000000000000241,-5.525507224362213421
0.397000000000000242,-5.497783833682619914
0.398000000000000242,-5.470395461809965276
0.399000000000000243,-5.443354315022307155
0.400000000000000244,-5.416671776874858679
0.401000000000000245,-5.390358427042403200
0.402000000000000246,-5.364424060310928333
0.403000000000000247,-5.338877705688076070
0.404000000000000248,-5.313727645603006700
0.405000000000000249,-5.288981435167698031
0.406000000000000250,-5.264645921472913770
0.407000000000000250,-5.240727262893304150
0.408000000000000251,-5.217230948377344468
0.409000000000000252,-5.194161816698978917
0.410000000000000253,-5.171524075649001517
0.411000000000000254,-5.149321321145381880
0.412000000000000255,-5.127556556242792496
0.413000000000000256,-5.106232210022786155
0.414000000000000257,-5.085350156346974515
0.415000000000000258,-5.064911732456793381
0.416000000000000258,-5.044917757404218328
0.417000000000000259,-5.025368550299011972
0.418000000000000260,-5.006263948358788518
0.419000000000000261,-4.987603324749308342
0.420000000000000262,-4.969385606203156058
0.421000000000000263,-4.951609290405955655
0.422000000000000264,-4.934272463139906861
0.423000000000000265,-4.917372815175466982
0.424000000000000266,-4.900907658902657005
0.425000000000000266,-4.884873944694152037
0.426000000000000267,-4.869268276993192757
0.427000000000000268,-4.854086930119962950
0.428000000000000269,-4.839325863790692850
0.429000000000000270,-4.824980738344549991
0.430000000000000271,-4.811046929673775452
0.431000000000000272,-4.797519543853337787
0.432000000000000273,-4.784393431466752666
0.433000000000000274,-4.771663201625360173
0.434000000000000274,-4.759323235678865061
0.435000000000000275,-4.747367700615344077
0.436000000000000276,-4.735790562149544414
0.437000000000000277,-4.724585597498561107
0.438000000000000278,-4.713746407844567443
0.439000000000000279,-4.703266430484601024
0.440000000000000280,-4.693138950667736786
0.441000000000000281,-4.683357113120446336
0.442000000000000282,-4.673913933261238718
0.443000000000000282,-4.664802308105921114
0.444000000000000283,-4.656015026865298445
0.445000000000000284,-4.647544781237209932
0.446000000000000285,-4.639384175395205645
0.447000000000000286,-4.631525735676431665
0.448000000000000287,-4.623961919971347534
0.449000000000000288,-4.616685126818397933
0.450000000000000289,-4.609687704206676173
0.451000000000000290,-4.602961958090011407
0.452000000000000290,-4.596500160616035835
0.453000000000000291,-4.590294558073828135
0.454000000000000292,-4.584337378564113052
0.455000000000000293,-4.578620839395871833
0.456000000000000294,-4.573137154213563704
0.457000000000000295,-4.567878539859115961
0.458000000000000296,-4.562837222973019635
0.459000000000000297,-4.558005446338946776
0.460000000000000298,-4.553375474976361303
0.461000000000000298,-4.548939601985685144
0.462000000000000299,-4.544690154150664796
0.463000000000000300,-4.540619497302547103
0.464000000000000301,-4.536720041450871932
0.465000000000000302,-4.532984245685542035
0.466000000000000303,-4.529404622855007112
0.467000000000000304,-4.525973744025370671
0.468000000000000305,-4.522684242725170556
0.469000000000000306,-4.519528818980720786
0.470000000000000306,-4.516500243146849947
0.471000000000000307,-4.513591359537758585
0.472000000000000308,-4.510795089862933871
0.473000000000000309,-4.508104436472835985
0.474000000000000310,-4.505512485419139068
0.475000000000000311,-4.503012409334314015
0.476000000000000312,-4.500597470135256017
0.477000000000000313,-4.498261021555629569
0.478000000000000314,-4.495996511511600069
0.479000000000000314,-4.493797484305598111
0.480000000000000315,-4.491657582672594629
0.481000000000000316,-4.489570549673542743
0.482000000000000317,-4.487530230440301970
0.483000000000000318,-4.485530573776626895
0.484000000000000319,-4.483565633619454260
0.485000000000000320,-4.481629570364876081
0.486000000000000321,-4.479716652063036264
0.487000000000000322,-4.477821255486126972
0.488000000000000322,-4.475937867073604082
0.489000000000000323,-4.474061083758725132
0.490000000000000324,-4.472185613680395910
0.491000000000000325,-4.470306276784227428
0.492000000000000326,-4.468418005316699748
0.493000000000000327,-4.466515844216250031
0.494000000000000328,-4.464594951404953882
0.495000000000000329,-4.462650597984541001
0.496000000000000330,-4.460678168340230343
0.497000000000000330,-4.458673160156038762
0.498000000000000331,-4.456631184344860053
0.499000000000000332,-4.454547964896820034
0.500000000000000333,-4.452419338649155733
0.501000000000000334,-4.450241254980818795
0.502000000000000335,-4.448009775435068036
0.503000000000000336,-4.445721073273010582
0.504000000000000337,-4.443371432961259693
0.505000000000000338,-4.440957249596523937
0.506000000000000338,-4.438475028270087996
0.507000000000000339,-4.435921383374997973
0.508000000000000340,-4.433293037858621055
0.509000000000000341,-4.430586822423363103
0.510000000000000342,-4.427799674678031927
0.511000000000000343,-4.424928638242475287
0.512000000000000344,-4.421970861807904996
0.513000000000000345,-4.418923598155322097
0.514000000000000346,-4.415784203134434982
0.515000000000000346,-4.412550134605238483
0.516000000000000347,-4.409218951344553439
0.517000000000000348,-4.405788311919654809
0.518000000000000349,-4.402255973531021382
0.519000000000000350,-4.398619790826297837
0.520000000000000351,-4.394877714687375203
0.521000000000000352,-4.391027790992550806
0.522000000000000353,-4.387068159355533403
0.523000000000000353,-4.382997051843149805
0.524000000000000354,-4.378812791673455607
0.525000000000000355,-4.374513791895923376
0.526000000000000356,-4.370098554055301676
0.527000000000000357,-4.365565666840783621
0.528000000000000358,-4.360913804721909592
0.529000000000000359,-4.356141726572734463
0.530000000000000360,-4.351248274285614670
0.531000000000000361,-4.346232371376034465
0.532000000000000361,-4.341093021579732536
0.533000000000000362,-4.335829307443414216
0.534000000000000363,-4.330440388910277605
0.535000000000000364,-4.324925501901516256
0.536000000000000365,-4.319283956894905963
0.537000000000000366,-4.313515137501613417
0.538000000000000367,-4.307618499042196625
0.539000000000000368,-4.301593567122884210
0.540000000000000369,-4.295439936212993359
0.541000000000000369,-4.289157268224519370
0.542000000000000370,-4.282745291094657958
0.543000000000000371,-4.276203797372206239
0.544000000000000372,-4.269532642808603562
0.545000000000000373,-4.262731744954375124
0.546000000000000374,-4.255801081761738658
0.547000000000000375,-4.248740690194056313
0.548000000000000376,-4.241550664842842266
0.549000000000000377,-4.234231156552889175
0.550000000000000377,-4.226782371056215126
0.551000000000000378,-4.219204567615294721
0.552000000000000379,-4.211498057676255513
0.553000000000000380,-4.203663203532415515
0.554000000000000381,-4.195700416998750626
0.555000000000000382,-4.187610158097757385
0.556000000000000383,-4.179392933757027251
0.557000000000000384,-4.171049296519132810
0.558000000000000385,-4.162579843264016866
0.559000000000000385,-4.153985213944407562
0.560000000000000386,-4.145266090334498443
0.561000000000000387,-4.136423194792240743
0.562000000000000388,-4.127457289035545429
0.563000000000000389,-4.118369172932689892
0.564000000000000390,-4.109159683307113120
0.565000000000000391,-4.099829692756921773
0.566000000000000392,-4.090380108489261701
0.567000000000000393,-4.080811871169763627
0.568000000000000393,-4.071125953787254836
0.569000000000000394,-4.061323360533875437
0.570000000000000395,-4.051405125700789256
0.571000000000000396,-4.041372312589531113
0.572000000000000397,-4.031226012439223183
0.573000000000000398,-4.020967343369644453
0.574000000000000399,-4.010597449340310483
0.575000000000000400,-4.000117499125607878
0.576000000000000401,-3.989528685306028333
0.577000000000000401,-3.978832223275598601
0.578000000000000402,-3.968029350265459332
0.579000000000000403,-3.957121324383670924
0.580000000000000404,-3.946109423671264160
0.581000000000000405,-3.934994945174469017
0.582000000000000406,-3.923779204033197576
0.583000000000000407,-3.912463532585657155
0.584000000000000408,-3.901049279489181565
0.585000000000000409,-3.889537808857126411
0.586000000000000409,-3.877930499411843535
0.587000000000000410,-3.866228743653697730
0.588000000000000411,-3.854433947045962761
0.589000000000000412,-3.842547527215653957
0.590000000000000413,-3.830570913170109115
0.591000000000000414,-3.818505544529278151
0.592000000000000415,-3.806352870773658026
0.593000000000000416,-3.794114350507690858
0.594000000000000417,-3.781791450738589244
0.595000000000000417,-3.769385646170500426
0.596000000000000418,-3.756898418513759275
0.597000000000000419,-3.744331255809302039
0.598000000000000420,-3.731685651767932654
0.599000000000000421,-3.718963105124452717
0.600000000000000422,-3.706165119006428199
0.601000000000000423,-3.693293200317500524
0.602000000000000424,-3.680348859135089246
0.603000000000000425,-3.667333608122356203
0.604000000000000425,-3.654248961954235320
0.605000000000000426,-3.641096436757442767
0.606000000000000427,-3.627877549564291204
0.607000000000000428,-3.614593817780079377
0.608000000000000429,-3.601246758664063297
0.609000000000000430,-3.587837888823648402
0.610000000000000431,-3.574368723721822683
0.611000000000000432,-3.560840777197531004
0.612000000000000433,-3.547255560998894275
0.613000000000000433,-3.533614584329106911
0.614000000000000434,-3.519919353404824758
0.615000000000000435,-3.506171371026852945
0.616000000000000436,-3.492372136163003127
0.617000000000000437,-3.478523143542969542
0.618000000000000438,-3.464625883264979223
0.619000000000000439,-3.450681840414068891
0.620000000000000440,-3.436692494691892641
0.621000000000000441,-3.422659320057763299
0.622000000000000441,-3.408583784380866177
0.623000000000000442,-3.394467349103379661
0.624000000000000443,-3.380311468914406703
0.625000000000000444,-3.366117591434509393
0.626000000000000445,-3.351887156910648091
0.627000000000000446,-3.337621597921429206
0.628000000000000447,-3.323322339092396938
0.629000000000000448,-3.308990796821281943
0.630000000000000449,-3.294628379012969788
0.631000000000000449,-3.280236484824064380
0.632000000000000450,-3.265816504416862109
0.633000000000000451,-3.251369818722578575
0.634000000000000452,-3.236897799213620974
0.635000000000000453,-3.222401807684811104
0.636000000000000454,-3.207883196043312068
0.637000000000000455,-3.193343306107185420
0.638000000000000456,-3.178783469412314489
0.639000000000000457,-3.164205007027625527
0.640000000000000457,-3.149609229378402375
0.641000000000000458,-3.134997436077499255
0.642000000000000459,-3.120370915764409503
0.643000000000000460,-3.105730945951875377
0.644000000000000461,-3.091078792880034065
0.645000000000000462,-3.076415711377854745
0.646000000000000463,-3.061742944731732141
0.647000000000000464,-3.047061724561105578
0.648000000000000465,-3.032373270700964518
0.649000000000000465,-3.017678791091024770
0.650000000000000466,-3.002979481671538498
0.651000000000000467,-2.988276526285481349
0.652000000000000468,-2.973571096587066087
0.653000000000000469,-2.958864351956363326
0.654000000000000470,-2.944157439419988087
0.655000000000000471,-2.929451493577604815
0.656000000000000472,-2.914747636534184672
0.657000000000000473,-2.900046977837875239
0.658000000000000473,-2.885350614423332072
0.659000000000000474,-2.870659630560380204
0.660000000000000475,-2.855975097807918583
0.661000000000000476,-2.841298074972850252
0.662000000000000477,-2.826629608074041844
0.663000000000000478,-2.811970730311052602
0.664000000000000479,-2.797322462037641788
0.665000000000000480,-2.782685810739792487
0.666000000000000481,-2.768061771018302863
0.667000000000000481,-2.753451324575633130
0.668000000000000482,-2.738855440207105030
0.669000000000000483,-2.724275073796147417
0.670000000000000484,-2.709711168313603924
0.671000000000000485,-2.695164653820947720
0.672000000000000486,-2.680636447477278139
0.673000000000000487,-2.666127453550068527
0.674000000000000488,-2.651638563429430384
0.675000000000000488,-2.637170655645924899
0.676000000000000489,-2.622724595891767763
0.677000000000000490,-2.608301237045275833
0.678000000000000491,-2.593901419198560099
0.679000000000000492,-2.579525969688285070
0.680000000000000493,-2.565175703129442208
0.681000000000000494,-2.550851421452042800
0.682000000000000495,-2.536553913940600591
0.683000000000000496,-2.522283957276395316
0.684000000000000496,-2.508042315582333703
0.685000000000000497,-2.493829740470392409
0.686000000000000498,-2.479646971091532759
0.687000000000000499,-2.465494734188000692
0.688000000000000500,-2.451373744147930189
0.689000000000000501,-2.437284703062190250
0.690000000000000502,-2.423228300783381250
0.691000000000000503,-2.409205214986898547
0.692000000000000504,-2.395216111233984257
0.693000000000000504,-2.381261643036754361
0.694000000000000505,-2.367342451924999924
0.695000000000000506,-2.353459167514852179
0.696000000000000507,-2.339612407579111597
0.697000000000000508,-2.325802778119221426
0.698000000000000509,-2.312030873438867928
0.699000000000000510,-2.298297276219019469
0.700000000000000511,-2.284602557594490158
0.701000000000000512,-2.270947277231839756
0.702000000000000512,-2.257331983408622733
0.703000000000000513,-2.243757213093896752
0.704000000000000514,-2.230223492029944410
0.705000000000000515,-2.216731334815137622
0.706000000000000516,-2.203281244987904230
0.707000000000000517,-2.189873715111739116
0.708000000000000518,-2.176509226861168322
0.709000000000000519,-2.163188251108715043
0.710000000000000520,-2.149911248012668530
0.711000000000000520,-2.136678667105749607
0.712000000000000521,-2.123490947384525818
0.713000000000000522,-2.110348517399566859
0.714000000000000523,-2.097251795346317671
0.715000000000000524,-2.084201189156569711
0.716000000000000525,-2.071197096590579267
0.717000000000000526,-2.058239905329717789
0.718000000000000527,-2.045329993069628483
0.719000000000000528,-2.032467727613883834
0.720000000000000528,-2.019653466968070799
0.721000000000000529,-2.006887559434233914
0.722000000000000530,-1.994170343705742976
0.723000000000000531,-1.981502148962404730
0.724000000000000532,-1.968883294965921849
0.725000000000000533,-1.956314092155569284
0.726000000000000534,-1.943794841744073354
0.727000000000000535,-1.931325835813704206
0.728000000000000536,-1.918907357412483083
0.729000000000000536,-1.906539680650529034
0.730000000000000537,-1.894223070796490216
0.731000000000000538,-1.881957784374002074
0.732000000000000539,-1.869744069258218788
0.733000000000000540,-1.857582164772298983
0.734000000000000541,-1.845472301783895874
0.735000000000000542,-1.833414702801552609
0.736000000000000543,-1.821409582071075617
0.737000000000000544,-1.809457145671728995
0.738000000000000544,-1.797557591612364281
0.739000000000000545,-1.785711109927344165
0.740000000000000546,-1.773917882772318988
0.741000000000000547,-1.762178084519780752
0.742000000000000548,-1.750491881854441045
0.743000000000000549,-1.738859433868295667
0.744000000000000550,-1.727280892155479197
0.745000000000000551,-1.715756400906825574
0.746000000000000552,-1.704286097004124922
0.747000000000000552,-1.692870110114061077
0.748000000000000553,-1.681508562781808269
0.749000000000000554,-1.670201570524271428
0.750000000000000555,-1.658949241922979656
0.751000000000000556,-1.647751678716552037
0.752000000000000557,-1.636608975892813955
0.753000000000000558,-1.625521221780432679
0.754000000000000559,-1.614488498140189687
0.755000000000000560,-1.603510880255748727
0.756000000000000560,-1.592588437024025749
0.757000000000000561,-1.581721231045023046
0.758000000000000562,-1.570909318711225744
0.759000000000000563,-1.560152750296499580
0.760000000000000564,-1.549451570044471982
0.761000000000000565,-1.538805816256396231
0.762000000000000566,-1.528215521378491148
0.763000000000000567,-1.517680712088761208
0.764000000000000568,-1.507201409383229329
0.765000000000000568,-1.496777628661673187
0.766000000000000569,-1.486409379812740239
0.767000000000000570,-1.476096667298538945
0.768000000000000571,-1.465839490238602050
0.769000000000000572,-1.455637842493311851
0.770000000000000573,-1.445491712746698409
0.771000000000000574,-1.435401084588655563
0.772000000000000575,-1.425365936596535210
0.773000000000000576,-1.415386242416135421
0.774000000000000576,-1.405461970842071917
0.775000000000000577,-1.395593085897535390
0.776000000000000578,-1.385779546913382898
0.777000000000000579,-1.376021308606655946
0.778000000000000580,-1.366318321158396021
0.779000000000000581,-1.356670530290869703
0.780000000000000582,-1.347077877344114993
0.781000000000000583,-1.337540299351867690
0.782000000000000584,-1.328057729116801644
0.783000000000000584,-1.318630095285141968
0.784000000000000585,-1.309257322420618319
0.785000000000000586,-1.299939331077729188
0.786000000000000587,-1.290676037874390669
0.787000000000000588,-1.281467355563886912
0.788000000000000589,-1.272313193106147100
0.789000000000000590,-1.263213455738410040
0.790000000000000591,-1.254168045045149338
0.791000000000000592,-1.245176859027384397
0.792000000000000592,-1.236239792171292873
0.793000000000000593,-1.227356735516158093
0.794000000000000594,-1.218527576721655903
0.795000000000000595,-1.209752200134464939
0.796000000000000596,-1.201030486854188783
0.797000000000000597,-1.192362314798644629
0.798000000000000598,-1.183747558768442287
0.799000000000000599,-1.175186090510917714
0.800000000000000600,-1.166677778783398400
0.801000000000000600,-1.158222489415784873
0.802000000000000601,-1.149820085372474265
0.803000000000000602,-1.141470426813622208
0.804000000000000603,-1.133173371155733911
0.805000000000000604,-1.124928773131604443
0.806000000000000605,-1.116736484849562228
0.807000000000000606,-1.108596355852111470
0.808000000000000607,-1.100508233173859596
0.809000000000000608,-1.092471961398822300
0.810000000000000608,-1.084487382717084891
0.811000000000000609,-1.076554336980752868
0.812000000000000610,-1.068672661759347164
0.813000000000000611,-1.060842192394457317
0.814000000000000612,-1.053062762053818435
0.815000000000000613,-1.045334201784730466
0.816000000000000614,-1.037656340566812219
0.817000000000000615,-1.030029005364153871
0.818000000000000616,-1.022452021176830872
0.819000000000000616,-1.014925211091769697
0.820000000000000617,-1.007448396333000318
0.821000000000000618,-1.000021396311296495
0.822000000000000619,-0.992644028673184686
0.823000000000000620,-0.985316109349331115
0.824000000000000621,-0.978037452602322332
0.825000000000000622,-0.970807871073844586
0.826000000000000623,-0.963627175831253346
0.827000000000000624,-0.956495176413524772
0.828000000000000624,-0.949411680876639630
0.829000000000000625,-0.942376495838339268
0.830000000000000626,-0.935389426522316159
0.831000000000000627,-0.928450276801806362
0.832000000000000628,-0.921558849242610778
0.833000000000000629,-0.914714945145510883
0.834000000000000630,-0.907918364588140236
0.835000000000000631,-0.901168906466269570
0.836000000000000631,-0.894466368534517109
0.837000000000000632,-0.887810547446531095
0.838000000000000633,-0.881201238794559139
0.839000000000000634,-0.874638237148510078
0.840000000000000635,-0.868121336094453966
0.841000000000000636,-0.861650328272551391
0.842000000000000637,-0.855225005414485095
0.843000000000000638,-0.848845158380310827
0.844000000000000639,-0.842510577194803156
0.845000000000000639,-0.836221051083266054
0.846000000000000640,-0.829976368506801898
0.847000000000000641,-0.823776317197103203
0.848000000000000642,-0.817620684190675240
0.849000000000000643,-0.811509255862577050
0.850000000000000644,-0.805441817959676065
0.851000000000000645,-0.799418155633339955
0.852000000000000646,-0.793438053471695492
0.853000000000000647,-0.787501295531355505
0.854000000000000647,-0.781607665368661109
0.855000000000000648,-0.775756946070449871
0.856000000000000649,-0.769948920284343363
0.857000000000000650,-0.764183370248548210
0.858000000000000651,-0.758460077821191958
0.859000000000000652,-0.752778824509192201
0.860000000000000653,-0.747139391496674521
0.861000000000000654,-0.741541559672898587
0.862000000000000655,-0.735985109659779591
0.863000000000000655,-0.730469821838913402
0.864000000000000656,-0.724995476378196835
0.865000000000000657,-0.719561853257969064
0.866000000000000658,-0.714168732296752373
0.867000000000000659,-0.708815893176550360
0.868000000000000660,-0.703503115467700835
0.869000000000000661,-0.698230178653326261
0.870000000000000662,-0.692996862153364868
0.871000000000000663,-0.687802945348190198
0.872000000000000663,-0.682648207601791457
0.873000000000000664,-0.677532428284601140
0.874000000000000665,-0.672455386795865584
0.875000000000000666,-0.667416862585673121
0.876000000000000667,-0.662416635176538149
0.877000000000000668,-0.657454484184637478
0.878000000000000669,-0.652530189340647881
0.879000000000000670,-0.647643530510192966
0.880000000000000671,-0.642794287713941870
0.881000000000000671,-0.637982241147301732
0.882000000000000672,-0.633207171199786201
0.883000000000000673,-0.628468858473973713
0.884000000000000674,-0.623767083804151135
0.885000000000000675,-0.619101628274567828
0.886000000000000676,-0.614472273237368638
0.887000000000000677,-0.609878800330156290
0.888000000000000678,-0.605320991493222271
0.889000000000000679,-0.600798628986446204
0.890000000000000679,-0.596311495405848602
0.891000000000000680,-0.591859373699822777
0.892000000000000681,-0.587442047185033234
0.893000000000000682,-0.583059299561997091
0.894000000000000683,-0.578710914930341991
0.895000000000000684,-0.574396677803758249
0.896000000000000685,-0.570116373124632259
0.897000000000000686,-0.565869786278372033
0.898000000000000687,-0.561656703107441757
0.899000000000000687,-0.557476909925079811
0.900000000000000688,-0.553330193528734693
0.901000000000000689,-0.549216341213201842
0.902000000000000690,-0.545135140783482353
0.903000000000000691,-0.541086380567341374
0.904000000000000692,-0.537069849427599388
0.905000000000000693,-0.533085336774135499
0.906000000000000694,-0.529132632575637918
0.907000000000000695,-0.525211527371046594
0.908000000000000695,-0.521321812280776453
0.909000000000000696,-0.517463279017633226
0.910000000000000697,-0.513635719897506782
0.911000000000000698,-0.509838927849778356
0.912000000000000699,-0.506072696427496638
0.913000000000000700,-0.502336819817300384
0.914000000000000701,-0.498631092849073032
0.915000000000000702,-0.494955311005396914
0.916000000000000703,-0.491309270430727640
0.917000000000000703,-0.487692767940356042
0.918000000000000704,-0.484105601029132582
0.919000000000000705,-0.480547567879950677
0.920000000000000706,-0.477018467372028909
0.921000000000000707,-0.473518099088939715
0.922000000000000708,-0.470046263326436953
0.923000000000000709,-0.466602761100077257
0.924000000000000710,-0.463187394152587029
0.925000000000000711,-0.459799964961067453
0.926000000000000711,-0.456440276743957429
0.927000000000000712,-0.453108133467803487
0.928000000000000713,-0.449803339853830586
0.929000000000000714,-0.446525701384317131
0.930000000000000715,-0.443275024308754984
0.931000000000000716,-0.440051115649835345
0.932000000000000717,-0.436853783209245505
0.933000000000000718,-0.433682835573257708
0.934000000000000719,-0.430538082118161192
0.935000000000000719,-0.427419333015487901
0.936000000000000720,-0.424326399237074103
0.937000000000000721,-0.421259092559937653
0.938000000000000722,-0.418217225570990003
0.939000000000000723,-0.415200611671567188
0.940000000000000724,-0.412209065081797388
0.941000000000000725,-0.409242400844803622
0.942000000000000726,-0.406300434830746682
0.943000000000000727,-0.403382983740691092
0.944000000000000727,-0.400489865110335574
0.945000000000000728,-0.397620897313574473
0.946000000000000729,-0.394775899565898036
0.947000000000000730,-0.391954691927670573
0.948000000000000731,-0.389157095307221146
0.949000000000000732,-0.386382931463824686
0.950000000000000733,-0.383632023010512246
0.951000000000000734,-0.380904193416763626
0.952000000000000735,-0.378199267011038842
0.953000000000000735,-0.375517068983181657
0.954000000000000736,-0.372857425386696140
0.955000000000000737,-0.370220163140880687
0.956000000000000738,-0.367605110032839189
0.957000000000000739,-0.365012094719353031
0.958000000000000740,-0.362440946728647628
0.959000000000000741,-0.359891496462008464
0.960000000000000742,-0.357363575195305427
0.961000000000000743,-0.354857015080371319
0.962000000000000743,-0.352371649146278387
0.963000000000000744,-0.349907311300493795
0.964000000000000745,-0.347463836329930664
0.965000000000000746,-0.345041059901869618
0.966000000000000747,-0.342638818564791336
0.967000000000000748,-0.340256949749083548
0.968000000000000749,-0.337895291767663086
0.969000000000000750,-0.335553683816470105
0.970000000000000751,-0.333231965974886357
0.971000000000000751,-0.330929979206028346
0.972000000000000752,-0.328647565356955051
0.973000000000000753,-0.326384567158793548
0.974000000000000754,-0.324140828226737399
0.975000000000000755,-0.321916193059981426
0.976000000000000756,-0.319710507041548631
0.977000000000000757,-0.317523616438035783
0.978000000000000758,-0.315355368399268421
0.979000000000000759,-0.313205610957875358
0.980000000000000759,-0.311074193028766377
0.981000000000000760,-0.308960964408537042
0.982000000000000761,-0.306865775774800009
0.983000000000000762,-0.304788478685415531
0.984000000000000763,-0.302728925577655683
0.985000000000000764,-0.300686969767306800
0.986000000000000765,-0.298662465447667724
0.987000000000000766,-0.296655267688496038
0.988000000000000766,-0.294665232434872970
0.989000000000000767,-0.292692216506007463
0.990000000000000768,-0.290736077593964137
0.991000000000000769,-0.288796674262316533
0.992000000000000770,-0.286873865944745454
0.993000000000000771,-0.284967512943582357
0.994000000000000772,-0.283077476428254315
0.995000000000000773,-0.281203618433709557
0.996000000000000774,-0.279345801858749687
0.997000000000000774,-0.277503890464320224
0.998000000000000775,-0.275677748871735351
0.999000000000000776,-0.273867242560850543
1.000000000000000666,-0.272072237868174860
1.001000000000000778,-0.270292601984936598
1.002000000000000668,-0.268528202955084783
1.003000000000000780,-0.266778909673247522
1.004000000000000670,-0.265044591882639236
1.005000000000000782,-0.263325120172913429
1.006000000000000671,-0.261620365977975555
1.007000000000000783,-0.259930201573733144
1.008000000000000673,-0.258254500075821125
1.009000000000000785,-0.256593135437264086
1.010000000000000675,-0.254945982446106612
1.011000000000000787,-0.253312916722989723
1.012000000000000677,-0.251693814718699005
1.013000000000000789,-0.250088553711663719
1.014000000000000679,-0.248497011805410783
1.015000000000000790,-0.246919067925995300
1.016000000000000680,-0.245354601819385065
1.017000000000000792,-0.243803494048804470
1.018000000000000682,-0.242265625992045347
1.019000000000000794,-0.240740879838752614
1.020000000000000684,-0.239229138587663204
1.021000000000000796,-0.237730286043818018
1.022000000000000686,-0.236244206815741542
1.023000000000000798,-0.234770786312591573
1.024000000000000687,-0.233309910741274967
1.025000000000000799,-0.231861467103540025
1.026000000000000689,-0.230425343193038229
1.027000000000000801,-0.229001427592350704
1.028000000000000691,-0.227589609670005272
1.029000000000000803,-0.226189779577448569
1.030000000000000693,-0.224801828246004698
1.031000000000000805,-0.223425647383811515
1.032000000000000695,-0.222061129472720109
1.033000000000000806,-0.220708167765188618
1.034000000000000696,-0.219366656281143602
1.035000000000000808,-0.218036489804816547
1.036000000000000698,-0.216717563881570291
1.037000000000000810,-0.215409774814711463
1.038000000000000700,-0.214113019662253684
1.039000000000000812,-0.212827196233694810
1.040000000000000702,-0.211552203086767227
1.041000000000000814,-0.210287939524161749
1.042000000000000703,-0.209034305590238556
1.043000000000000815,-0.207791202067738601
1.044000000000000705,-0.206558530474457547
1.045000000000000817,-0.205336193059912742
1.046000000000000707,-0.204124092802008356
1.047000000000000819,-0.202922133403673488
1.048000000000000709,-0.201730219289489116
1.049000000000000821,-0.200548255602311876
1.050000000000000711,-0.199376148199873759
1.051000000000000822,-0.198213803651388243
1.052000000000000712,-0.197061129234127219
1.053000000000000824,-0.195918032930001818
1.054000000000000714,-0.194784423422128483
1.055000000000000826,-0.193660210091388035
1.056000000000000716,-0.192545303012978453
1.057000000000000828,-0.191439612952955085
1.058000000000000718,-0.190343051364767896
1.059000000000000830,-0.189255530385789850
1.060000000000000719,-0.188176962833846689
1.061000000000000831,-0.187107262203727670
1.062000000000000721,-0.186046342663701736
1.063000000000000833,-0.184994119052030476
1.064000000000000723,-0.183950506873464648
1.065000000000000835,-0.182915422295750807
1.066000000000000725,-0.181888782146130273
1.067000000000000837,-0.180870503907823665
1.068000000000000727,-0.179860505716540608
1.069000000000000838,-0.178858706356950725
1.070000000000000728,-0.177865025259188736
1.071000000000000840,-0.176879382495332388
1.072000000000000730,-0.175901698775895510
1.073000000000000842,-0.174931895446311020
1.074000000000000732,-0.173969894483414655
1.075000000000000844,-0.173015618491939083
1.076000000000000734,-0.172068990700998403
1.077000000000000846,-0.171129934960573937
1.078000000000000735,-0.170198375738010749
1.079000000000000847,-0.169274238114497239
1.080000000000000737,-0.168357447781581099
1.081000000000000849,-0.167447931037640219
1.082000000000000739,-0.166545614784400386
1.083000000000000851,-0.165650426523427152
1.084000000000000741,-0.164762294352641447
1.085000000000000853,-0.163881146962816748
1.086000000000000743,-0.163006913634101136
1.087000000000000854,-0.162139524232531362
1.088000000000000744,-0.161278909206561460
1.089000000000000856,-0.160424999583576311
1.090000000000000746,-0.159577726966433769
1.091000000000000858,-0.158737023530004129
1.092000000000000748,-0.157902822017702948
1.093000000000000860,-0.157075055738051528
1.094000000000000750,-0.156253658561220810
1.095000000000000862,-0.155438564915601207
1.096000000000000751,-0.154629709784372127
1.097000000000000863,-0.153827028702061441
1.098000000000000753,-0.153030457751148596
1.099000000000000865,-0.152239933558641405
1.100000000000000755,-0.151455393292672602
1.101000000000000867,-0.150676774659107643
1.102000000000000757,-0.149904015898158438
1.103000000000000869,-0.149137055781002836
1.104000000000000759,-0.148375833606406660
1.105000000000000870,-0.147620289197376270
1.106000000000000760,-0.146870362897785406
1.107000000000000872,-0.146125995569047928
1.108000000000000762,-0.145387128586772607
1.109000000000000874,-0.144653703837439196
1.110000000000000764,-0.143925663715080865
1.111000000000000876,-0.143202951117971045
1.112000000000000766,-0.142485509445338193
1.113000000000000878,-0.141773282594066408
1.114000000000000767,-0.141066214955425734
1.115000000000000879,-0.140364251411796370
1.116000000000000769,-0.139667337333418240
1.117000000000000881,-0.138975418575140952
1.118000000000000771,-0.138288441473189139
1.119000000000000883,-0.137606352841936841
1.120000000000000773,-0.136929099970694607
1.121000000000000885,-0.136256630620503139
1.122000000000000774,-0.135588893020941265
1.123000000000000886,-0.134925835866947258
1.124000000000000776,-0.134267408315652814
1.125000000000000888,-0.133613559983214086
1.126000000000000778,-0.132964240941673667
1.127000000000000890,-0.132319401715831231
1.128000000000000780,-0.131678993280103962
1.129000000000000892,-0.131042967055431309
1.130000000000000782,-0.130411274906171548
1.131000000000000894,-0.129783869137009844
1.132000000000000783,-0.129160702489889534
1.133000000000000895,-0.128541728140952022
1.134000000000000785,-0.127926899697475560
1.135000000000000897,-0.127316171194854111
1.136000000000000787,-0.126709497093557166
1.137000000000000899,-0.126106832276129066
1.138000000000000789,-0.125508132044178544
1.139000000000000901,-0.124913352115407036
1.140000000000000790,-0.124322448620620918
1.141000000000000902,-0.123735378100772439
1.142000000000000792,-0.123152097504019425
1.143000000000000904,-0.122572564182780841
1.144000000000000794,-0.121996735890827296
1.145000000000000906,-0.121424570780351265
1.146000000000000796,-0.120856027399095955
1.147000000000000908,-0.120291064687454916
1.148000000000000798,-0.119729641975609674
1.149000000000000909,-0.119171718980674718
1.150000000000000799,-0.118617255803848076
1.151000000000000689,-0.118066212927592257
1.152000000000000801,-0.117518551212809436
1.153000000000000913,-0.116974231896047456
1.154000000000000803,-0.116433216586703137
1.155000000000000693,-0.115895467264247570
1.156000000000000805,-0.115360946275475815
1.157000000000000917,-0.114829616331740644
1.158000000000000806,-0.114301440506233851
1.159000000000000696,-0.113776382231258216
1.160000000000000808,-0.113254405295517294
1.161000000000000920,-0.112735473841428679
1.162000000000000810,-0.112219552362442743
1.163000000000000700,-0.111706605700372566
1.164000000000000812,-0.111196599042745745
1.165000000000000924,-0.110689497920160140
1.166000000000000814,-0.110185268203668474
1.167000000000000703,-0.109683876102156047
1.168000000000000815,-0.109185288159754840
1.169000000000000927,-0.108689471253248238
1.170000000000000817,-0.108196392589511345
1.171000000000000707,-0.107706019702946423
1.172000000000000819,-0.107218320452949240
1.173000000000000931,-0.106733263021375008
1.174000000000000821,-0.106250815910021862
1.175000000000000711,-0.105770947938136017
1.176000000000000822,-0.105293628239921902
1.177000000000000934,-0.104818826262067580
1.178000000000000824,-0.104346511761287869
1.179000000000000714,-0.103876654801871984
1.180000000000000826,-0.103409225753264694
1.181000000000000938,-0.102944195287631726
1.182000000000000828,-0.102481534377467126
1.183000000000000718,-0.102021214293199186
1.184000000000000830,-0.101563206600812597
1.185000000000000941,-0.101107483159479011
1.186000000000000831,-0.100654016119222020
1.187000000000000721,-0.100202777918564467
1.188000000000000833,-0.099753741282217118
1.189000000000000945,-0.099306879218765742
1.190000000000000835,-0.098862165018377440
1.191000000000000725,-0.098419572250509541
1.192000000000000837,-0.097979074761662441
1.193000000000000949,-0.097540646673098946
1.194000000000000838,-0.097104262378624281
1.195000000000000728,-0.096669896542344189
1.196000000000000840,-0.096237524096457222
1.197000000000000952,-0.095807120239056950
1.198000000000000842,-0.095378660431934020
1.199000000000000732,-0.094952120398415593
1.200000000000000844,-0.094527476121187004
1.201000000000000956,-0.094104703840162618
1.202000000000000846,-0.093683780050340754
1.203000000000000735,-0.093264681499684476
1.204000000000000847,-0.092847385187010217
1.205000000000000959,-0.092431868359905647
1.206000000000000849,-0.092018108512633159
1.207000000000000739,-0.091606083384069378
1.208000000000000851,-0.091195770955647695
1.209000000000000963,-0.090787149449316346
1.210000000000000853,-0.090380197325511225
1.211000000000000743,-0.089974893281132687
1.212000000000000854,-0.089571216247550350
1.213000000000000966,-0.089169145388603779
1.214000000000000856,-0.088768660098635654
1.215000000000000746,-0.088369740000513536
1.216000000000000858,-0.087972364943689318
1.217000000000000970,-0.087576515002250749
1.218000000000000860,-0.087182170472999726
1.219000000000000750,-0.086789311873536515
1.220000000000000862,-0.086397919940358586
1.221000000000000973,-0.086007975626966771
1.222000000000000863,-0.085619460101998043
1.223000000000000753,-0.085232354747349789
1.224000000000000865,-0.084846641156335750
1.225000000000000977,-0.084462301131846496
1.226000000000000867,-0.084079316684517541
1.227000000000000757,-0.083697670030917076
1.228000000000000869,-0.083317343591739743
1.229000000000000981,-0.082938319990027473
1.230000000000000870,-0.082560582049373027
1.231000000000000760,-0.082184112792167627
1.232000000000000872,-0.081808895437847001
1.233000000000000984,-0.081434913401132333
1.234000000000000874,-0.081062150290324347
1.235000000000000764,-0.080690589905562521
1.236000000000000876,-0.080320216237133354
1.237000000000000988,-0.079951013463766013
1.238000000000000878,-0.079582965950957374
1.239000000000000767,-0.079216058249291871
1.240000000000000879,-0.078850275092788857
1.241000000000000991,-0.078485601397249111
1.242000000000000881,-0.078122022258621165
1.243000000000000771,-0.077759522951375643
1.244000000000000883,-0.077398088926887779
1.245000000000000995,-0.077037705811841065
1.246000000000000885,-0.076678359406633284
1.247000000000000774,-0.076320035683793933
1.248000000000000886,-0.075962720786417665
1.249000000000000998,-0.075606401026608955
1.250000000000000888,-0.075251062883935252
1.251000000000000778,-0.074896693003885365
1.252000000000000890,-0.074543278196355547
1.253000000000001002,-0.074190805434125345
1.254000000000000892,-0.073839261851366841
1.255000000000000782,-0.073488634742142150
1.256000000000000894,-0.073138911558928682
1.257000000000001005,-0.072790079911149178
1.258000000000000895,-0.072442127563711073
1.259000000000000785,-0.072095042435557449
1.260000000000000897,-0.071748812598229059
1.261000000000001009,-0.071403426274441337
1.262000000000000899,-0.071058871836657836
1.263000000000000789,-0.070715137805694384
1.264000000000000901,-0.070372212849316301
1.265000000000001013,-0.070030085780853429
1.266000000000000902,-0.069688745557827642
1.267000000000000792,-0.069348181280583288
1.268000000000000904,-0.069008382190935538
1.269000000000001016,-0.068669337670822644
1.270000000000000906,-0.068331037240975362
1.271000000000000796,-0.067993470559587224
1.272000000000000908,-0.067656627420998969
1.273000000000001020,-0.067320497754399480
1.274000000000000909,-0.066985071622526676
1.275000000000000799,-0.066650339220377802
1.276000000000000911,-0.066316290873944667
1.277000000000001023,-0.065982917038937466
1.278000000000000913,-0.065650208299531360
1.279000000000000803,-0.065318155367122613
1.280000000000000915,-0.064986749079091757
1.281000000000001027,-0.064655980397565677
1.282000000000000917,-0.064325840408214291
1.283000000000000806,-0.063996320319029645
1.284000000000000918,-0.063667411459134474
1.285000000000001030,-0.063339105277584309
1.286000000000000920,-0.063011393342193273
1.287000000000000810,-0.062684267338356886
1.288000000000000922,-0.062357719067893350
1.289000000000001034,-0.062031740447886188
1.290000000000000924,-0.061706323509537878
1.291000000000000814,-0.061381460397044327
1.292000000000000925,-0.061057143366450226
1.293000000000001037,-0.060733364784551082
1.294000000000000927,-0.060410117127768913
1.295000000000000817,-0.060087392981054630
1.296000000000000929,-0.059765185036802893
1.297000000000001041,-0.059443486093757533
1.298000000000000931,-0.059122289055950142
1.299000000000000821,-0.058801586931624038
1.300000000000000933,-0.058481372832177095
1.301000000000001044,-0.058161639971117896
1.302000000000000934,-0.057842381663019526
1.303000000000000824,-0.057523591322494572
1.304000000000000936,-0.057205262463156603
1.305000000000001048,-0.056887388696621133
1.306000000000000938,-0.056569963731487413
1.307000000000000828,-0.056252981372339139
1.308000000000000940,-0.055936435518753977
1.309000000000001052,-0.055620320164325165
1.310000000000000941,-0.055304629395677672
1.311000000000000831,-0.054989357391506025
1.312000000000000943,-0.054674498421605766
1.313000000000001055,-0.054360046845939335
1.314000000000000945,-0.054045997113672847
1.315000000000000835,-0.053732343762247302
1.316000000000000947,-0.053419081416452061
1.317000000000001059,-0.053106204787501742
1.318000000000000949,-0.052793708672116191
1.319000000000000838,-0.052481587951628626
1.320000000000000950,-0.052169837591073943
1.321000000000001062,-0.051858452638300558
1.322000000000000952,-0.051547428223091440
1.323000000000000842,-0.051236759556281854
1.324000000000000954,-0.050926441928894041
1.325000000000001066,-0.050616470711271580
1.326000000000000956,-0.050306841352230916
1.327000000000000846,-0.049997549378204859
1.328000000000000957,-0.049688590392410789
1.329000000000001069,-0.049379960074009112
1.330000000000000959,-0.049071654177286463
1.331000000000000849,-0.048763668530828023
1.332000000000000961,-0.048455999036705284
1.333000000000001073,-0.048148641669673725
1.334000000000000963,-0.047841592476376774
1.335000000000000853,-0.047534847574544042
1.336000000000000965,-0.047228403152216249
1.337000000000001076,-0.046922255466959759
1.338000000000000966,-0.046616400845096148
1.339000000000000856,-0.046310835680940410
1.340000000000000968,-0.046005556436035350
1.341000000000001080,-0.045700559638404130
1.342000000000000970,-0.045395841881803067
1.343000000000000860,-0.045091399824982240
1.344000000000000972,-0.044787230190949573
1.345000000000001084,-0.044483329766251814
1.346000000000000973,-0.044179695400243885
1.347000000000000863,-0.043876324004381670
1.348000000000000975,-0.043573212551509109
1.349000000000001087,-0.043270358075160734
1.350000000000000977,-0.042967757668863397
1.351000000000000867,-0.042665408485449495
1.352000000000000979,-0.042363307736362280
1.353000000000001091,-0.042061452690995531
1.354000000000000981,-0.041759840676010428
1.355000000000000870,-0.041458469074667562
1.356000000000000982,-0.041157335326173751
1.357000000000001094,-0.040856436925028002
1.358000000000000984,-0.040555771420365351
1.359000000000000874,-0.040255336415321863
1.360000000000000986,-0.039955129566391648
1.361000000000001098,-0.039655148582804792
1.362000000000000988,-0.039355391225887215
1.363000000000000878,-0.039055855308452868
1.364000000000000989,-0.038756538694187714
1.365000000000001101,-0.038457439297030084
1.366000000000000991,-0.038158555080579498
1.367000000000000881,-0.037859884057491869
1.368000000000000993,-0.037561424288887840
1.369000000000001105,-0.037263173883766369
1.370000000000000995,-0.036965130998419672
1.371000000000000885,-0.036667293835858414
1.372000000000000997,-0.036369660645238257
1.373000000000001108,-0.036072229721299573
1.374000000000000998,-0.035774999403789615
1.375000000000000888,-0.035477968076927935
1.376000000000001000,-0.035181134168839237
1.377000000000001112,-0.034884496151012120
1.378000000000001002,-0.034588052537758540
1.379000000000000892,-0.034291801885675821
1.380000000000001004,-0.033995742793114667
1.381000000000001116,-0.033699873899658304
1.382000000000001005,-0.033404193885592216
1.383000000000000895,-0.033108701471391347
1.384000000000001007,-0.032813395417210164
1.385000000000001119,-0.032518274522371285
1.386000000000001009,-0.032223337624867968
1.387000000000000899,-0.031928583600854633
1.388000000000001011,-0.031634011364173840
1.389000000000001123,-0.031339619865844735
1.390000000000001013,-0.031045408093593473
1.391000000000000902,-0.030751375071368679
1.392000000000001014,-0.030457519858866789
1.393000000000001126,-0.030163841551061204
1.394000000000001016,-0.029870339277738356
1.395000000000000906,-0.029577012203031862
1.396000000000001018,-0.029283859524964963
1.397000000000001130,-0.028990880475001535
1.398000000000001020,-0.028698074317595041
1.399000000000000909,-0.028405440349741774
1.400000000000001021,-0.028112977900540636
1.401000000000001133,-0.027820686330763744
1.402000000000001023,-0.027528565032412883
1.403000000000000913,-0.027236613428298761
1.404000000000001025,-0.026944830971619649
1.405000000000001137,-0.026653217145532631
1.406000000000001027,-0.026361771462744089
1.407000000000000917,-0.026070493465102262
1.408000000000001029,-0.025779382723175072
1.409000000000001140,-0.025488438835861049
1.410000000000001030,-0.025197661429981970
1.411000000000000920,-0.024907050159887513
1.412000000000001032,-0.024616604707063595
1.413000000000001144,-0.024326324779746014
1.414000000000001034,-0.024036210112531375
1.415000000000000924,-0.023746260465997336
1.416000000000001036,-0.023456475626332397
1.417000000000001148,-0.023166855404952599
1.418000000000001037,-0.022877399638136439
1.419000000000000927,-0.022588108186657969
1.420000000000001039,-0.022298980935424831
1.421000000000001151,-0.022010017793120548
1.422000000000001041,-0.021721218691846060
1.423000000000000931,-0.021432583586768566
1.424000000000001043,-0.021144112455775500
1.425000000000001155,-0.020855805299126597
1.426000000000001044,-0.020567662139116427
1.427000000000000934,-0.020279683019731289
1.428000000000001046,-0.019991868006318844
1.429000000000001158,-0.019704217185251591
1.430000000000001048,-0.019416730663607516
1.431000000000000938,-0.019129408568835545
1.432000000000001050,-0.018842251048441287
1.433000000000001162,-0.018555258269667023
1.434000000000001052,-0.018268430419172536
1.435000000000000941,-0.017981767702732507
1.436000000000001053,-0.017695270344916976
1.437000000000001165,-0.017408938588793298
1.438000000000001055,-0.017122772695625180
1.439000000000000945,-0.016836772944566182
1.440000000000001057,-0.016550939632370618
1.441000000000001169,-0.016265273073093490
1.442000000000001059,-0.015979773597807955
1.443000000000000949,-0.015694441554315292
1.444000000000001060,-0.015409277306858968
1.445000000000001172,-0.015124281235841914
1.446000000000001062,-0.014839453737557965
1.447000000000000952,-0.014554795223903497
1.448000000000001064,-0.014270306122114310
1.449000000000001176,-0.013985986874494446
1.450000000000001066,-0.013701837938143658
1.451000000000000956,-0.013417859784700822
1.452000000000001068,-0.013134052900078633
1.453000000000001180,-0.012850417784206486
1.454000000000001069,-0.012566954950773614
1.455000000000000959,-0.012283664926977736
1.456000000000001071,-0.012000548253271825
1.457000000000001183,-0.011717605483122133
1.458000000000001073,-0.011434837182757531
1.459000000000000963,-0.011152243930927445
1.460000000000001075,-0.010869826318665874
1.461000000000001187,-0.010587584949049553
1.462000000000001076,-0.010305520436970106
1.463000000000000966,-0.010023633408892289
1.464000000000001078,-0.009741924502631829
1.465000000000001190,-0.009460394367127730
1.466000000000001080,-0.009179043662212234
1.467000000000000970,-0.008897873058394037
1.468000000000001082,-0.008616883236637726
1.469000000000001194,-0.008336074888141653
1.470000000000001084,-0.008055448714129417
1.471000000000000973,-0.007775005425632241
1.472000000000001085,-0.007494745743283892
1.473000000000001197,-0.007214670397105463
1.474000000000001087,-0.006934780126306527
1.475000000000000977,-0.006655075679075836
1.476000000000001089,-0.006375557812385885
1.477000000000001201,-0.006096227291790780
1.478000000000001091,-0.005817084891228541
1.479000000000000981,-0.005538131392829215
1.480000000000001092,-0.005259367586720328
1.481000000000001204,-0.004980794270839185
1.482000000000001094,-0.004702412250740909
1.483000000000000984,-0.004424222339420836
1.484000000000001096,-0.004146225357119909
1.485000000000001208,-0.003868422131147495
1.486000000000001098,-0.003590813495707417
1.487000000000000988,-0.003313400291712078
1.488000000000001100,-0.003036183366609332
1.489000000000001211,-0.002759163574213081
1.490000000000001101,-0.002482341774528223
1.491000000000000991,-0.002205718833578803
1.492000000000001103,-0.001929295623247045
1.493000000000001215,-0.001653073021102456
1.494000000000001105,-0.001377051910238396
1.495000000000000995,-0.001101233179113934
1.496000000000001107,-0.000825617721391276
1.497000000000001219,-0.000550206435777070
1.498000000000001108,-0.000275000225869748
1.499000000000000998,0.000000000000000000
