# TiO2-rut-110_CS-23329-AC
# h[nm],U(h)[kJ/mol]
0.149999999999999994,113.033857583751427001
0.150999999999999995,111.538499888848647856
0.151999999999999996,109.772189249907427211
0.152999999999999997,107.956643525618048329
0.153999999999999998,106.182280484074865967
0.154999999999999999,104.473259045398506828
0.156000000000000000,102.824317656233958473
0.157000000000000001,101.220440791358356591
0.158000000000000002,99.646407290099347165
0.159000000000000002,98.090641182897428507
0.160000000000000003,96.546065242939761220
0.161000000000000004,95.009551191118930547
0.162000000000000005,93.480863095394880702
0.163000000000000006,91.961562000319474919
0.164000000000000007,90.454085425249289187
0.165000000000000008,88.961071571183268247
0.166000000000000009,87.484922818382827359
0.167000000000000010,86.027568927040107383
0.168000000000000010,84.590379671280615526
0.169000000000000011,83.174178417484540660
0.170000000000000012,81.779315705385513979
0.171000000000000013,80.405771312808184348
0.172000000000000014,79.053262468654793338
0.173000000000000015,77.721343806891781014
0.174000000000000016,76.409490960230215251
0.175000000000000017,75.117164373012258238
0.176000000000000018,73.843853149493071442
0.177000000000000018,72.589100802216961483
0.178000000000000019,71.352515893645062306
0.179000000000000020,70.133771019364843369
0.180000000000000021,68.932593573264199449
0.181000000000000022,67.748751433037000425
0.182000000000000023,66.582036237871719209
0.183000000000000024,65.432246393823191966
0.184000000000000025,64.299171401765306655
0.185000000000000026,63.182578600371883226
0.186000000000000026,62.082202976946483375
0.187000000000000027,60.997740333758869724
0.188000000000000028,59.928843809327737802
0.189000000000000029,58.875123539233399583
0.190000000000000030,57.836149092255958237
0.191000000000000031,56.811454225674161478
0.192000000000000032,55.800543458492278148
0.193000000000000033,54.802899953403326094
0.194000000000000034,53.817994218379681115
0.195000000000000034,52.845293178841643567
0.196000000000000035,51.884269224507320928
0.197000000000000036,50.934408895573142217
0.198000000000000037,49.995220936265191369
0.199000000000000038,49.066243506535485608
0.200000000000000039,48.147050402182209439
0.201000000000000040,47.237256188162540127
0.202000000000000041,46.336520198217918676
0.203000000000000042,45.444549395553295312
0.204000000000000042,44.561100124022658520
0.205000000000000043,43.685978807218106112
0.206000000000000044,42.819041674398839348
0.207000000000000045,41.960193607859366693
0.208000000000000046,41.109386216735366304
0.209000000000000047,40.266615248053099663
0.210000000000000048,39.431917447720174152
0.211000000000000049,38.605366982800020992
0.212000000000000050,37.787071532432989329
0.213000000000000050,36.977168148751232479
0.214000000000000051,36.175818981600457391
0.215000000000000052,35.383206952294358416
0.216000000000000053,34.599531452390110076
0.217000000000000054,33.825004133921297012
0.218000000000000055,33.059844847946408208
0.219000000000000056,32.304277778891538730
0.220000000000000057,31.558527813166808329
0.221000000000000058,30.822817172058044832
0.222000000000000058,30.097362331030176108
0.223000000000000059,29.382371240401123913
0.224000000000000060,28.678040855886688831
0.225000000000000061,27.984554981796229356
0.226000000000000062,27.302082424671340277
0.227000000000000063,26.630775450884755173
0.228000000000000064,25.970768538126993263
0.229000000000000065,25.322177407759163259
0.230000000000000066,24.685098322661797710
0.231000000000000066,24.059607633407161131
0.232000000000000067,23.445761554277773087
0.233000000000000068,22.843596149792269046
0.234000000000000069,22.253127511930117066
0.235000000000000070,21.674352108119020244
0.236000000000000071,21.107247280214291862
0.237000000000000072,20.551771875112500254
0.238000000000000073,20.007866988260570196
0.239000000000000073,19.475456802108084275
0.240000000000000074,18.954449502466168553
0.241000000000000075,18.444738256753929306
0.242000000000000076,17.946202239200410133
0.243000000000000077,17.458707689203276203
0.244000000000000078,16.982108990203371945
0.245000000000000079,16.516249757596437320
0.246000000000000080,16.060963925356176674
0.247000000000000081,15.616076822169841165
0.248000000000000081,15.181406228981046524
0.249000000000000082,14.756763410883062093
0.250000000000000111,14.341954117304160476
0.251000000000000112,13.936779545368381150
0.252000000000000113,13.541037262197260560
0.253000000000000114,13.154522082739024569
0.254000000000000115,12.777026900468188231
0.255000000000000115,12.408343468992766745
0.256000000000000116,12.048263133236968514
0.257000000000000117,11.696577509436618669
0.258000000000000118,11.353079113694898084
0.259000000000000119,11.017561939298193607
0.260000000000000120,10.689821983389695248
0.261000000000000121,10.369657723944992966
0.262000000000000122,10.056870548291096057
0.263000000000000123,9.751265134662853384
0.264000000000000123,9.452649788500460559
0.265000000000000124,9.160836735363186989
0.266000000000000125,8.875642372469844332
0.267000000000000126,8.596887480979919616
0.268000000000000127,8.324397401202604740
0.269000000000000128,8.058002172968880217
0.270000000000000129,7.797536643425468483
0.271000000000000130,7.542840544512294798
0.272000000000000131,7.293758542370111009
0.273000000000000131,7.050140260893482669
0.274000000000000132,6.811840281599531366
0.275000000000000133,6.578718121926073081
0.276000000000000134,6.350638194006378967
0.277000000000000135,6.127469745893683317
0.278000000000000136,5.909086787127231233
0.279000000000000137,5.695368000445972356
0.280000000000000138,5.486196641366590576
0.281000000000000139,5.281460427249942136
0.282000000000000139,5.081051417386673208
0.283000000000000140,4.884865885538190788
0.284000000000000141,4.692804186275174594
0.285000000000000142,4.504770616362486990
0.286000000000000143,4.320673272347550053
0.287000000000000144,4.140423905419665651
0.288000000000000145,3.963937774520031265
0.289000000000000146,3.791133498598271423
0.290000000000000147,3.621932908829200493
0.291000000000000147,3.456260901525942675
0.292000000000000148,3.294045292410454628
0.293000000000000149,3.135216672831873996
0.294000000000000150,2.979708268455497411
0.295000000000000151,2.827455800881774728
0.296000000000000152,2.678397352594838576
0.297000000000000153,2.532473235584112192
0.298000000000000154,2.389625863930044947
0.299000000000000155,2.249799630596406086
0.300000000000000155,2.112940788626279875
0.301000000000000156,1.978997336897375448
0.302000000000000157,1.847918910553528971
0.303000000000000158,1.719656676194473821
0.304000000000000159,1.594163231873577002
0.305000000000000160,1.471392511924275670
0.306000000000000161,1.351299696609524315
0.307000000000000162,1.233841126564872992
0.308000000000000163,1.118974221984760931
0.309000000000000163,1.006657406482768025
0.310000000000000164,0.896850035539997648
0.311000000000000165,0.789512329441465655
0.312000000000000166,0.684605310587681259
0.313000000000000167,0.582090745058167491
0.314000000000000168,0.481931088294541787
0.315000000000000169,0.384089434763449644
0.316000000000000170,0.288529471453575048
0.317000000000000171,0.195215435056458025
0.318000000000000171,0.104112072677320450
0.319000000000000172,0.015184605919698724
0.320000000000000173,-0.071601301813476056
0.321000000000000174,-0.156279574960239254
0.322000000000000175,-0.238883752538923300
0.323000000000000176,-0.319447012142753284
0.324000000000000177,-0.398002191344382750
0.325000000000000178,-0.474581806662487282
0.326000000000000179,-0.549218070239990808
0.327000000000000179,-0.621942904379906070
0.328000000000000180,-0.692787954081281021
0.329000000000000181,-0.761784597713832334
0.330000000000000182,-0.828963955965305588
0.331000000000000183,-0.894356899191557586
0.332000000000000184,-0.957994053294306980
0.333000000000000185,-1.019905804246969971
0.334000000000000186,-1.080122301384050632
0.335000000000000187,-1.138673459564564228
0.336000000000000187,-1.195588960315141502
0.337000000000000188,-1.250898252053168402
0.338000000000000189,-1.304630549485740643
0.339000000000000190,-1.356814832275013760
0.340000000000000191,-1.407479843055609026
0.341000000000000192,-1.456654084885194544
0.342000000000000193,-1.504365818204363325
0.343000000000000194,-1.550643057377573797
0.344000000000000195,-1.595513566882048151
0.345000000000000195,-1.639004857207688959
0.346000000000000196,-1.681144180526230825
0.347000000000000197,-1.721958526184188543
0.348000000000000198,-1.761474616069947263
0.349000000000000199,-1.799718899901568747
0.350000000000000200,-1.836717550478290661
0.351000000000000201,-1.872496458935028585
0.352000000000000202,-1.907081230035893471
0.353000000000000203,-1.940497177539556306
0.354000000000000203,-1.972769319666119570
0.355000000000000204,-2.003922374692246322
0.356000000000000205,-2.033980756698570147
0.357000000000000206,-2.062968571490843228
0.358000000000000207,-2.090909612713512278
0.359000000000000208,-2.117827358172389651
0.360000000000000209,-2.143744966380761063
0.361000000000000210,-2.168685273341022679
0.362000000000000210,-2.192670789572311207
0.363000000000000211,-2.215723697392455449
0.364000000000000212,-2.237865848461121132
0.365000000000000213,-2.259118761589264057
0.366000000000000214,-2.279503620818636112
0.367000000000000215,-2.299041273773645866
0.368000000000000216,-2.317752230286774129
0.369000000000000217,-2.335656661297309533
0.370000000000000218,-2.352774398022439151
0.371000000000000218,-2.369124931398434164
0.372000000000000219,-2.384727411789043128
0.373000000000000220,-2.399600648957269211
0.374000000000000221,-2.413763112295991942
0.375000000000000222,-2.427232931312187425
0.376000000000000223,-2.440027896359178605
0.377000000000000224,-2.452165459610431864
0.378000000000000225,-2.463662736268303455
0.379000000000000226,-2.474536506000516667
0.380000000000000226,-2.484803214597044452
0.381000000000000227,-2.494478975839441226
0.382000000000000228,-2.503579573574841177
0.383000000000000229,-2.512120463986294627
0.384000000000000230,-2.520116778051111339
0.385000000000000231,-2.527583324178854340
0.386000000000000232,-2.534534591020304539
0.387000000000000233,-2.540984750438957995
0.388000000000000234,-2.546947660636310840
0.389000000000000234,-2.552436869422510579
0.390000000000000235,-2.557465617623694065
0.391000000000000236,-2.562046842617632603
0.392000000000000237,-2.566193181989221639
0.393000000000000238,-2.569916977297604710
0.394000000000000239,-2.573230277946672029
0.395000000000000240,-2.576144845150997842
0.396000000000000241,-2.578672155989309989
0.397000000000000242,-2.580823407537736980
0.398000000000000242,-2.582609521075416303
0.399000000000000243,-2.584041146354986385
0.400000000000000244,-2.585128665930896741
0.401000000000000245,-2.585882199538605430
0.402000000000000246,-2.586311608517813276
0.403000000000000247,-2.586426500273338647
0.404000000000000248,-2.586236232767221033
0.405000000000000249,-2.585749919036032463
0.406000000000000250,-2.584976431727455282
0.407000000000000250,-2.583924407650546318
0.408000000000000251,-2.582602252334198489
0.409000000000000252,-2.581018144588653307
0.410000000000000253,-2.579180041065040729
0.411000000000000254,-2.577095680808211942
0.412000000000000255,-2.574772589798289602
0.413000000000000256,-2.572218085476684291
0.414000000000000257,-2.569439281252354323
0.415000000000000258,-2.566443090984537712
0.416000000000000258,-2.563236233438141554
0.417000000000000259,-2.559825236708401341
0.418000000000000260,-2.556216442611442208
0.419000000000000261,-2.552416011037723198
0.420000000000000262,-2.548429924265362967
0.421000000000000263,-2.544263991230764521
0.422000000000000264,-2.539923851753854489
0.423000000000000265,-2.535414980715679611
0.424000000000000266,-2.530742692186168430
0.425000000000000266,-2.525912143499955853
0.426000000000000267,-2.520928339278512009
0.427000000000000268,-2.515796135396803912
0.428000000000000269,-2.510520242892939624
0.429000000000000270,-2.505105231819441336
0.430000000000000271,-2.499555535034791998
0.431000000000000272,-2.493875451934207454
0.432000000000000273,-2.488069152118561167
0.433000000000000274,-2.482140679000631067
0.434000000000000274,-2.476093953347883847
0.435000000000000275,-2.469932776761144311
0.436000000000000276,-2.463660835088655965
0.437000000000000277,-2.457281701775034133
0.438000000000000278,-2.450798841144843809
0.439000000000000279,-2.444215611620542461
0.440000000000000280,-2.437535268874623906
0.441000000000000281,-2.430760968915913089
0.442000000000000282,-2.423895771110092134
0.443000000000000282,-2.416942641134433245
0.444000000000000283,-2.409904453867048879
0.445000000000000284,-2.402783996210809736
0.446000000000000285,-2.395583969852231654
0.447000000000000286,-2.388306993955821245
0.448000000000000287,-2.380955607794116524
0.449000000000000288,-2.373532273314093555
0.450000000000000289,-2.366039377640323238
0.451000000000000290,-2.358479235515523076
0.452000000000000290,-2.350854091679159374
0.453000000000000291,-2.343166123184661220
0.454000000000000292,-2.335417441656048254
0.455000000000000293,-2.327610095484640151
0.456000000000000294,-2.319746071966648060
0.457000000000000295,-2.311827299382442913
0.458000000000000296,-2.303855649018290652
0.459000000000000297,-2.295832937131449203
0.460000000000000298,-2.287760926859457200
0.461000000000000298,-2.279641330074521743
0.462000000000000299,-2.271475809183914674
0.463000000000000300,-2.263265978877255780
0.464000000000000301,-2.255013407821687021
0.465000000000000302,-2.246719620305834386
0.466000000000000303,-2.238386097833490407
0.467000000000000304,-2.230014280668059623
0.468000000000000305,-2.221605569328643615
0.469000000000000306,-2.213161326038789678
0.470000000000000306,-2.204682876128903679
0.471000000000000307,-2.196171509393204602
0.472000000000000308,-2.187628481402317693
0.473000000000000309,-2.179055014772409038
0.474000000000000310,-2.170452300391844336
0.475000000000000311,-2.161821498606361747
0.476000000000000312,-2.153163740363736700
0.477000000000000313,-2.144480128318854817
0.478000000000000314,-2.135771737900178380
0.479000000000000314,-2.127039618338582461
0.480000000000000315,-2.118284793659429788
0.481000000000000316,-2.109508263638904424
0.482000000000000317,-2.100711004725444919
0.483000000000000318,-2.091893970927256152
0.484000000000000319,-2.083058094666760063
0.485000000000000320,-2.074204287602906316
0.486000000000000321,-2.065333441422207983
0.487000000000000322,-2.056446428599385534
0.488000000000000322,-2.047544103128432713
0.489000000000000323,-2.038627301225032884
0.490000000000000324,-2.029696842001075474
0.491000000000000325,-2.020753528112137154
0.492000000000000326,-2.011798146378697805
0.493000000000000327,-2.002831468381941260
0.494000000000000328,-1.993854251034837599
0.495000000000000329,-1.984867237129357864
0.496000000000000330,-1.975871155860469575
0.497000000000000330,-1.966866723327783006
0.498000000000000331,-1.957854643015389140
0.499000000000000332,-1.948835606250783004
0.500000000000000333,-1.939810292643445511
0.501000000000000334,-1.930779370503755032
0.502000000000000335,-1.921743497242984988
0.503000000000000336,-1.912703319754935904
0.504000000000000337,-1.903659474779896499
0.505000000000000338,-1.894612589251515988
0.506000000000000338,-1.885563280627221561
0.507000000000000339,-1.876512157202751441
0.508000000000000340,-1.867459818411363326
0.509000000000000341,-1.858406855108354794
0.510000000000000342,-1.849353849841324005
0.511000000000000343,-1.840301377106826619
0.512000000000000344,-1.831250003593848374
0.513000000000000345,-1.822200288414660863
0.514000000000000346,-1.813152783323558337
0.515000000000000346,-1.804108032923892990
0.516000000000000347,-1.795066574863930509
0.517000000000000348,-1.786028940021992639
0.518000000000000349,-1.776995652681248483
0.519000000000000350,-1.767967230694683423
0.520000000000000351,-1.758944185640570534
0.521000000000000352,-1.749927022968930101
0.522000000000000353,-1.740916242139300296
0.523000000000000353,-1.731912336750232928
0.524000000000000354,-1.722915794660901057
0.525000000000000355,-1.713927098105129998
0.526000000000000356,-1.704946723798220543
0.527000000000000357,-1.695975143036927646
0.528000000000000358,-1.687012821792856387
0.529000000000000359,-1.678060220799666880
0.530000000000000360,-1.669117795634303292
0.531000000000000361,-1.660185996792635121
0.532000000000000361,-1.651265269759716103
0.533000000000000362,-1.642356055074984500
0.534000000000000363,-1.633458788392639693
0.535000000000000364,-1.624573900537484406
0.536000000000000365,-1.615701817556428832
0.537000000000000366,-1.606842960765970885
0.538000000000000367,-1.597997746795765339
0.539000000000000368,-1.589166587628665139
0.540000000000000369,-1.580349890637267052
0.541000000000000369,-1.571548058617336263
0.542000000000000370,-1.562761489818161875
0.543000000000000371,-1.553990577970140397
0.544000000000000372,-1.545235712309713794
0.545000000000000373,-1.536497277601858169
0.546000000000000374,-1.527775654160277830
0.547000000000000375,-1.519071217865471057
0.548000000000000376,-1.510384340180844331
0.549000000000000377,-1.501715388166987353
0.550000000000000377,-1.493064724494273632
0.551000000000000378,-1.484432707453915423
0.552000000000000379,-1.475819690967620001
0.553000000000000380,-1.467226024595941647
0.554000000000000381,-1.458652053545458127
0.555000000000000382,-1.450098118674940206
0.556000000000000383,-1.441564556500503302
0.557000000000000384,-1.433051699199988871
0.558000000000000385,-1.424559874616544208
0.559000000000000385,-1.416089406261593409
0.560000000000000386,-1.407640613317231670
0.561000000000000387,-1.399213810638147759
0.562000000000000388,-1.390809308753146345
0.563000000000000389,-1.382427413866371468
0.564000000000000390,-1.374068427858267771
0.565000000000000391,-1.365732648286372308
0.566000000000000392,-1.357420368385995335
0.567000000000000393,-1.349131877070864904
0.568000000000000393,-1.340867458933755252
0.569000000000000394,-1.332627394247192232
0.570000000000000395,-1.324411958964292424
0.571000000000000396,-1.316221424719716371
0.572000000000000397,-1.308056058830890267
0.573000000000000398,-1.299916124299424602
0.574000000000000399,-1.291801879812868536
0.575000000000000400,-1.283713579746753375
0.576000000000000401,-1.275651474167008192
0.577000000000000401,-1.267615808832795787
0.578000000000000402,-1.259606825199732549
0.579000000000000403,-1.251624760423563520
0.580000000000000404,-1.243669847364349712
0.581000000000000405,-1.235742314591093294
0.582000000000000406,-1.227842386386938545
0.583000000000000407,-1.219970282754856639
0.584000000000000408,-1.212126219423927287
0.585000000000000409,-1.204310407856163945
0.586000000000000409,-1.196523055253917445
0.587000000000000410,-1.188764364567907794
0.588000000000000411,-1.181034534505798428
0.589000000000000412,-1.173333759541461019
0.590000000000000413,-1.165662229924787630
0.591000000000000414,-1.158020131692169219
0.592000000000000415,-1.150407646677608309
0.593000000000000416,-1.142824952524437387
0.594000000000000417,-1.135272222697684130
0.595000000000000417,-1.127749626497116298
0.596000000000000418,-1.120257329070836860
0.597000000000000419,-1.112795491429614314
0.598000000000000420,-1.105364270461768550
0.599000000000000421,-1.097963818948738846
0.600000000000000422,-1.090594285581264256
0.601000000000000423,-1.083255814976175735
0.602000000000000424,-1.075948547693832413
0.603000000000000425,-1.068672620256162498
0.604000000000000425,-1.061428165165298143
0.605000000000000426,-1.054215310922822058
0.606000000000000427,-1.047034182049632278
0.607000000000000428,-1.039884899106313654
0.608000000000000429,-1.032767578714202106
0.609000000000000430,-1.025682333576886984
0.610000000000000431,-1.018629272502379779
0.611000000000000432,-1.011608500425767554
0.612000000000000433,-1.004620118432407283
0.613000000000000433,-0.997664223781675963
0.614000000000000434,-0.990740909931215108
0.615000000000000435,-0.983850266561670295
0.616000000000000436,-0.976992379601926531
0.617000000000000437,-0.970167331254853771
0.618000000000000438,-0.963375200023484646
0.619000000000000439,-0.956616060737639828
0.620000000000000440,-0.949889984581042013
0.621000000000000441,-0.943197039118818026
0.622000000000000441,-0.936537288325444806
0.623000000000000442,-0.929910792613074522
0.624000000000000443,-0.923317608860272032
0.625000000000000444,-0.916757790441136811
0.626000000000000445,-0.910231387254759050
0.627000000000000446,-0.903738445755064568
0.628000000000000447,-0.897279008980978454
0.629000000000000448,-0.890853116586922456
0.630000000000000449,-0.884460804873617334
0.631000000000000449,-0.878102106819199313
0.632000000000000450,-0.871777052110609518
0.633000000000000451,-0.865485667175277862
0.634000000000000452,-0.859227975213038064
0.635000000000000453,-0.853003996228326677
0.636000000000000454,-0.846813747062581612
0.637000000000000455,-0.840657241426902679
0.638000000000000456,-0.834534489934881440
0.639000000000000457,-0.828445500135658763
0.640000000000000457,-0.822390276547169008
0.641000000000000458,-0.816368820689521657
0.642000000000000459,-0.810381131118601217
0.643000000000000460,-0.804427203459755047
0.644000000000000461,-0.798507030441668708
0.645000000000000462,-0.792620601930342006
0.646000000000000463,-0.786767904963174058
0.647000000000000464,-0.780948923783165605
0.648000000000000465,-0.775163639873215127
0.649000000000000465,-0.769412031990470924
0.650000000000000466,-0.763694076200789218
0.651000000000000467,-0.758009745913208577
0.652000000000000468,-0.752359011914513820
0.653000000000000469,-0.746741842403797484
0.654000000000000470,-0.741158203027086016
0.655000000000000471,-0.735608056911960739
0.656000000000000472,-0.730091364702188161
0.657000000000000473,-0.724608084592350155
0.658000000000000473,-0.719158172362469372
0.659000000000000474,-0.713741581412602910
0.660000000000000475,-0.708358262797420868
0.661000000000000476,-0.703008165260714968
0.662000000000000477,-0.697691235269902732
0.663000000000000478,-0.692407417050432406
0.664000000000000479,-0.687156652620172337
0.665000000000000480,-0.681938881823656473
0.666000000000000481,-0.676754042366339514
0.667000000000000481,-0.671602069848664884
0.668000000000000482,-0.666482897800137031
0.669000000000000483,-0.661396457713203101
0.670000000000000484,-0.656342679077078328
0.671000000000000485,-0.651321489411435084
0.672000000000000486,-0.646332814299956260
0.673000000000000487,-0.641376577423795835
0.674000000000000488,-0.636452700594852039
0.675000000000000488,-0.631561103788920386
0.676000000000000489,-0.626701705178724700
0.677000000000000490,-0.621874421166730196
0.678000000000000491,-0.617079166417850877
0.679000000000000492,-0.612315853891965411
0.680000000000000493,-0.607584394876252931
0.681000000000000494,-0.602884699017376957
0.682000000000000495,-0.598216674353454825
0.683000000000000496,-0.593580227345871125
0.684000000000000496,-0.588975262910876873
0.685000000000000497,-0.584401684450993608
0.686000000000000498,-0.579859393886236196
0.687000000000000499,-0.575348291685103597
0.688000000000000500,-0.570868276895372784
0.689000000000000501,-0.566419247174681395
0.690000000000000502,-0.562001098820897882
0.691000000000000503,-0.557613726802257959
0.692000000000000504,-0.553257024787274454
0.693000000000000504,-0.548930885174455874
0.694000000000000505,-0.544635199121732860
0.695000000000000506,-0.540369856575717677
0.696000000000000507,-0.536134746300680809
0.697000000000000508,-0.531929755907302293
0.698000000000000509,-0.527754771881196016
0.699000000000000510,-0.523609679611165113
0.700000000000000511,-0.519494363417232208
0.701000000000000512,-0.515408706578411313
0.702000000000000512,-0.511352591360230035
0.703000000000000513,-0.507325899042002315
0.704000000000000514,-0.503328509943847702
0.705000000000000515,-0.499360303453449117
0.706000000000000516,-0.495421158052560706
0.707000000000000517,-0.491510951343260227
0.708000000000000518,-0.487629560073910173
0.709000000000000519,-0.483776860164922717
0.710000000000000520,-0.479952726734185764
0.711000000000000520,-0.476157034122282774
0.712000000000000521,-0.472389655917424989
0.713000000000000522,-0.468650464980108705
0.714000000000000523,-0.464939333467544624
0.715000000000000524,-0.461256132857766121
0.716000000000000525,-0.457600733973527629
0.717000000000000526,-0.453973007005899098
0.718000000000000527,-0.450372821537593560
0.719000000000000528,-0.446800046566042997
0.720000000000000528,-0.443254550526215874
0.721000000000000529,-0.439736201313113306
0.722000000000000530,-0.436244866304075607
0.723000000000000531,-0.432780412380743496
0.724000000000000532,-0.429342705950811698
0.725000000000000533,-0.425931612969487727
0.726000000000000534,-0.422546998960672937
0.727000000000000535,-0.419188729037907160
0.728000000000000536,-0.415856667925018464
0.729000000000000536,-0.412550679976521839
0.730000000000000537,-0.409270629197760472
0.731000000000000538,-0.406016379264751759
0.732000000000000539,-0.402787793543808559
0.733000000000000540,-0.399584735110868006
0.734000000000000541,-0.396407066770574523
0.735000000000000542,-0.393254651075081507
0.736000000000000543,-0.390127350342627466
0.737000000000000544,-0.387025026675810069
0.738000000000000544,-0.383947541979642593
0.739000000000000545,-0.380894757979317877
0.740000000000000546,-0.377866536237740192
0.741000000000000547,-0.374862738172779653
0.742000000000000548,-0.371883225074321921
0.743000000000000549,-0.368927858120986607
0.744000000000000550,-0.365996498396661096
0.745000000000000551,-0.363089006906758882
0.746000000000000552,-0.360205244594229423
0.747000000000000552,-0.357345072355326587
0.748000000000000553,-0.354508351055124016
0.749000000000000554,-0.351694941542786743
0.750000000000000555,-0.348904704666615051
0.751000000000000556,-0.346137501288819038
0.752000000000000557,-0.343393192300097572
0.753000000000000558,-0.340671638633911977
0.754000000000000559,-0.337972701280602750
0.755000000000000560,-0.335296241301206166
0.756000000000000560,-0.332642119841085937
0.757000000000000561,-0.330010198143289857
0.758000000000000562,-0.327400337561707500
0.759000000000000563,-0.324812399573996990
0.760000000000000564,-0.322246245794277963
0.761000000000000565,-0.319701737985596035
0.762000000000000566,-0.317178738072181443
0.763000000000000567,-0.314677108151469764
0.764000000000000568,-0.312196710505907471
0.765000000000000568,-0.309737407614560978
0.766000000000000569,-0.307299062164475778
0.767000000000000570,-0.304881537061859054
0.768000000000000571,-0.302484695443007656
0.769000000000000572,-0.300108400685076493
0.770000000000000573,-0.297752516416600499
0.771000000000000574,-0.295416906527832868
0.772000000000000575,-0.293101435180867065
0.773000000000000576,-0.290805966819566608
0.774000000000000576,-0.288530366179282127
0.775000000000000577,-0.286274498296395674
0.776000000000000578,-0.284038228517633384
0.777000000000000579,-0.281821422509222375
0.778000000000000580,-0.279623946265823320
0.779000000000000581,-0.277445666119295331
0.780000000000000582,-0.275286448747256662
0.781000000000000583,-0.273146161181480496
0.782000000000000584,-0.271024670816082724
0.783000000000000584,-0.268921845415537819
0.784000000000000585,-0.266837553122527660
0.785000000000000586,-0.264771662465584146
0.786000000000000587,-0.262724042366586530
0.787000000000000588,-0.260694562148061693
0.788000000000000589,-0.258683091540314491
0.789000000000000590,-0.256689500688411287
0.790000000000000591,-0.254713660158963684
0.791000000000000592,-0.252755440946761833
0.792000000000000592,-0.250814714481247925
0.793000000000000593,-0.248891352632812535
0.794000000000000594,-0.246985227718942740
0.795000000000000595,-0.245096212510218209
0.796000000000000596,-0.243224180236117332
0.797000000000000597,-0.241369004590713254
0.798000000000000598,-0.239530559738186793
0.799000000000000599,-0.237708720318193428
0.800000000000000600,-0.235903361451098192
0.801000000000000600,-0.234114358743037820
0.802000000000000601,-0.232341588290856105
0.803000000000000602,-0.230584926686888764
0.804000000000000603,-0.228844251023611223
0.805000000000000604,-0.227119438898149978
0.806000000000000605,-0.225410368416628815
0.807000000000000606,-0.223716918198429399
0.808000000000000607,-0.222038967380267793
0.809000000000000608,-0.220376395620166809
0.810000000000000608,-0.218729083101306593
0.811000000000000609,-0.217096910535695187
0.812000000000000610,-0.215479759167793994
0.813000000000000611,-0.213877510777933461
0.814000000000000612,-0.212290047685663646
0.815000000000000613,-0.210717252752971401
0.816000000000000614,-0.209159009387351963
0.817000000000000615,-0.207615201544790823
0.818000000000000616,-0.206085713732623688
0.819000000000000616,-0.204570431012274068
0.820000000000000617,-0.203069239001871932
0.821000000000000618,-0.201582023878784822
0.822000000000000619,-0.200108672382026009
0.823000000000000620,-0.198649071814543554
0.824000000000000621,-0.197203110045413188
0.825000000000000622,-0.195770675511936249
0.826000000000000623,-0.194351657221624396
0.827000000000000624,-0.192945944754072646
0.828000000000000624,-0.191553428262758146
0.829000000000000625,-0.190173998476709794
0.830000000000000626,-0.188807546702111168
0.831000000000000627,-0.187453964823784430
0.832000000000000628,-0.186113145306603028
0.833000000000000629,-0.184784981196783604
0.834000000000000630,-0.183469366123113847
0.835000000000000631,-0.182166194298078538
0.836000000000000631,-0.180875360518895578
0.837000000000000632,-0.179596760168482805
0.838000000000000633,-0.178330289216308641
0.839000000000000634,-0.177075844219190648
0.840000000000000635,-0.175833322322002605
0.841000000000000636,-0.174602621258284296
0.842000000000000637,-0.173383639350802421
0.843000000000000638,-0.172176275512005539
0.844000000000000639,-0.170980429244419280
0.845000000000000639,-0.169796000640963590
0.846000000000000640,-0.168622890385183438
0.847000000000000641,-0.167460999751440548
0.848000000000000642,-0.166310230604988341
0.849000000000000643,-0.165170485402008016
0.850000000000000644,-0.164041667189583490
0.851000000000000645,-0.162923679605570193
0.852000000000000646,-0.161816426878439668
0.853000000000000647,-0.160719813827037789
0.854000000000000647,-0.159633745860276371
0.855000000000000648,-0.158558128976777291
0.856000000000000649,-0.157492869764448290
0.857000000000000650,-0.156437875399998871
0.858000000000000651,-0.155393053648388874
0.859000000000000652,-0.154358312862234531
0.860000000000000653,-0.153333561981159050
0.861000000000000654,-0.152318710531059914
0.862000000000000655,-0.151313668623367509
0.863000000000000655,-0.150318346954202348
0.864000000000000656,-0.149332656803523561
0.865000000000000657,-0.148356510034187872
0.866000000000000658,-0.147389819090991109
0.867000000000000659,-0.146432496999649275
0.868000000000000660,-0.145484457365717135
0.869000000000000661,-0.144545614373477904
0.870000000000000662,-0.143615882784785515
0.871000000000000663,-0.142695177937865292
0.872000000000000663,-0.141783415746045194
0.873000000000000664,-0.140880512696483884
0.874000000000000665,-0.139986385848820866
0.875000000000000666,-0.139100952833817820
0.876000000000000667,-0.138224131851928805
0.877000000000000668,-0.137355841671853607
0.878000000000000669,-0.136496001629052982
0.879000000000000670,-0.135644531624204118
0.880000000000000671,-0.134801352121653617
0.881000000000000671,-0.133966384147797768
0.882000000000000672,-0.133139549289468223
0.883000000000000673,-0.132320769692247181
0.884000000000000674,-0.131509968058778209
0.885000000000000675,-0.130707067647021280
0.886000000000000676,-0.129911992268500531
0.887000000000000677,-0.129124666286501905
0.888000000000000678,-0.128345014614245551
0.889000000000000679,-0.127572962713043248
0.890000000000000679,-0.126808436590409357
0.891000000000000680,-0.126051362798156430
0.892000000000000681,-0.125301668430458008
0.893000000000000682,-0.124559281121890880
0.894000000000000683,-0.123824129045441378
0.895000000000000684,-0.123096140910507329
0.896000000000000685,-0.122375245960857956
0.897000000000000686,-0.121661373972574857
0.898000000000000687,-0.120954455251981854
0.899000000000000687,-0.120254420633535059
0.900000000000000688,-0.119561201477709655
0.901000000000000689,-0.118874729668851375
0.902000000000000690,-0.118194937613025089
0.903000000000000691,-0.117521758235826515
0.904000000000000692,-0.116855124980188130
0.905000000000000693,-0.116194971804160427
0.906000000000000694,-0.115541233178687558
0.907000000000000695,-0.114893844085343713
0.908000000000000695,-0.114252740014082338
0.909000000000000696,-0.113617856960943883
0.910000000000000697,-0.112989131425771230
0.911000000000000698,-0.112366500409890005
0.912000000000000699,-0.111749901413791070
0.913000000000000700,-0.111139272434799735
0.914000000000000701,-0.110534551964710112
0.915000000000000702,-0.109935678987443650
0.916000000000000703,-0.109342592976663294
0.917000000000000703,-0.108755233893397668
0.918000000000000704,-0.108173542183645208
0.919000000000000705,-0.107597458775964744
0.920000000000000706,-0.107026925079073770
0.921000000000000707,-0.106461882979414210
0.922000000000000708,-0.105902274838725233
0.923000000000000709,-0.105348043491612642
0.924000000000000710,-0.104799132243087942
0.925000000000000711,-0.104255484866121725
0.926000000000000711,-0.103717045599184085
0.927000000000000712,-0.103183759143773118
0.928000000000000713,-0.102655570661940976
0.929000000000000714,-0.102132425773825794
0.930000000000000715,-0.101614270555152264
0.931000000000000716,-0.101101051534749437
0.932000000000000717,-0.100592715692063364
0.933000000000000718,-0.100089210454650329
0.934000000000000719,-0.099590483695681770
0.935000000000000719,-0.099096483731442725
0.936000000000000720,-0.098607159318815668
0.937000000000000721,-0.098122459652779562
0.938000000000000722,-0.097642334363898978
0.939000000000000723,-0.097166733515803211
0.940000000000000724,-0.096695607602677647
0.941000000000000725,-0.096228907546743583
0.942000000000000726,-0.095766584695750098
0.943000000000000727,-0.095308590820442463
0.944000000000000727,-0.094854878112057769
0.945000000000000728,-0.094405399179805241
0.946000000000000729,-0.093960107048336294
0.947000000000000730,-0.093518955155249800
0.948000000000000731,-0.093081897348555140
0.949000000000000732,-0.092648887884174774
0.950000000000000733,-0.092219881423417013
0.951000000000000734,-0.091794833030483275
0.952000000000000735,-0.091373698169945144
0.953000000000000735,-0.090956432704236173
0.954000000000000736,-0.090542992891159926
0.955000000000000737,-0.090133335381379229
0.956000000000000738,-0.089727417215924143
0.957000000000000739,-0.089325195823691861
0.958000000000000740,-0.088926629018961423
0.959000000000000741,-0.088531674998898177
0.960000000000000742,-0.088140292341080756
0.961000000000000743,-0.087752440001015258
0.962000000000000743,-0.087368077309656511
0.963000000000000744,-0.086987163970946024
0.964000000000000745,-0.086609660059345936
0.965000000000000746,-0.086235526017371347
0.966000000000000747,-0.085864722653143488
0.967000000000000748,-0.085497211137929158
0.968000000000000749,-0.085132953003712444
0.969000000000000750,-0.084771910140738288
0.970000000000000751,-0.084414044795098092
0.971000000000000751,-0.084059319566287441
0.972000000000000752,-0.083707697404787743
0.973000000000000753,-0.083359141609669368
0.974000000000000754,-0.083013615826161694
0.975000000000000755,-0.082671084043268422
0.976000000000000756,-0.082331510591368534
0.977000000000000757,-0.081994860139827153
0.978000000000000758,-0.081661097694618393
0.979000000000000759,-0.081330188595961167
0.980000000000000759,-0.081002098515939230
0.981000000000000760,-0.080676793456154902
0.982000000000000761,-0.080354239745383915
0.983000000000000762,-0.080034404037220772
0.984000000000000763,-0.079717253307752617
0.985000000000000764,-0.079402754853239776
0.986000000000000765,-0.079090876287788103
0.987000000000000766,-0.078781585541045224
0.988000000000000766,-0.078474850855898282
0.989000000000000767,-0.078170640786187184
0.990000000000000768,-0.077868924194420611
0.991000000000000769,-0.077569670249492725
0.992000000000000770,-0.077272848424422794
0.993000000000000771,-0.076978428494109644
0.994000000000000772,-0.076686380533062051
0.995000000000000773,-0.076396674913180959
0.996000000000000774,-0.076109282301516673
0.997000000000000774,-0.075824173658053981
0.998000000000000775,-0.075541320233501699
0.999000000000000776,-0.075260693567089199
1.000000000000000666,-0.074982265484374741
1.001000000000000778,-0.074706008095065807
1.002000000000000668,-0.074431893790843279
1.003000000000000780,-0.074159895243199547
1.004000000000000670,-0.073889985401283137
1.005000000000000782,-0.073622137489760806
1.006000000000000671,-0.073356325006680975
1.007000000000000783,-0.073092521721344755
1.008000000000000673,-0.072830701672201764
1.009000000000000785,-0.072570839164739387
1.010000000000000675,-0.072312908769392795
1.011000000000000787,-0.072056885319456393
1.012000000000000677,-0.071802743909019140
1.013000000000000789,-0.071550459890896478
1.014000000000000679,-0.071300008874570803
1.015000000000000790,-0.071051366724162304
1.016000000000000680,-0.070804509556389714
1.017000000000000792,-0.070559413738547350
1.018000000000000682,-0.070316055886492604
1.019000000000000794,-0.070074412862649385
1.020000000000000684,-0.069834461774017462
1.021000000000000796,-0.069596179970188077
1.022000000000000686,-0.069359545041375315
1.023000000000000798,-0.069124534816461275
1.024000000000000687,-0.068891127361039833
1.025000000000000799,-0.068659300975484852
1.026000000000000689,-0.068429034193023680
1.027000000000000801,-0.068200305777811887
1.028000000000000691,-0.067973094723037281
1.029000000000000803,-0.067747380249017483
1.030000000000000693,-0.067523141801312997
1.031000000000000805,-0.067300359048864958
1.032000000000000695,-0.067079011882114473
1.033000000000000806,-0.066859080411162550
1.034000000000000696,-0.066640544963924228
1.035000000000000808,-0.066423386084291658
1.036000000000000698,-0.066207584530315972
1.037000000000000810,-0.065993121272406918
1.038000000000000700,-0.065779977491515068
1.039000000000000812,-0.065568134577352347
1.040000000000000702,-0.065357574126616885
1.041000000000000814,-0.065148277941221314
1.042000000000000703,-0.064940228026528907
1.043000000000000815,-0.064733406589619652
1.044000000000000705,-0.064527796037549837
1.045000000000000817,-0.064323378975616199
1.046000000000000707,-0.064120138205658983
1.047000000000000819,-0.063918056724347597
1.048000000000000709,-0.063717117721486222
1.049000000000000821,-0.063517304578337277
1.050000000000000711,-0.063318600865940503
1.051000000000000822,-0.063120990343461830
1.052000000000000712,-0.062924456956533550
1.053000000000000824,-0.062728984835615995
1.054000000000000714,-0.062534558294370379
1.055000000000000826,-0.062341161828035264
1.056000000000000716,-0.062148780111820082
1.057000000000000828,-0.061957397999305622
1.058000000000000718,-0.061767000520853169
1.059000000000000830,-0.061577572882029988
1.060000000000000719,-0.061389100462041733
1.061000000000000831,-0.061201568812171980
1.062000000000000721,-0.061014963654235942
1.063000000000000833,-0.060829270879051836
1.064000000000000723,-0.060644476544901037
1.065000000000000835,-0.060460566876021173
1.066000000000000725,-0.060277528261103830
1.067000000000000837,-0.060095347251781096
1.068000000000000727,-0.059914010561166117
1.069000000000000838,-0.059733505062353622
1.070000000000000728,-0.059553817786970067
1.071000000000000840,-0.059374935923711326
1.072000000000000730,-0.059196846816902668
1.073000000000000842,-0.059019537965061118
1.074000000000000732,-0.058842997019463675
1.075000000000000844,-0.058667211782744678
1.076000000000000734,-0.058492170207484984
1.077000000000000846,-0.058317860394810996
1.078000000000000735,-0.058144270593020297
1.079000000000000847,-0.057971389196192144
1.080000000000000737,-0.057799204742840692
1.081000000000000849,-0.057627705914538217
1.082000000000000739,-0.057456881534580374
1.083000000000000851,-0.057286720566647700
1.084000000000000741,-0.057117212113480996
1.085000000000000853,-0.056948345415555122
1.086000000000000743,-0.056780109849778285
1.087000000000000854,-0.056612494928192925
1.088000000000000744,-0.056445490296688106
1.089000000000000856,-0.056279085733712243
1.090000000000000746,-0.056113271149008867
1.091000000000000858,-0.055948036582360007
1.092000000000000748,-0.055783372202323586
1.093000000000000860,-0.055619268305004056
1.094000000000000750,-0.055455715312805701
1.095000000000000862,-0.055292703773220743
1.096000000000000751,-0.055130224357612466
1.097000000000000863,-0.054968267859998879
1.098000000000000753,-0.054806825195872585
1.099000000000000865,-0.054645887401005358
1.100000000000000755,-0.054485445630265569
1.101000000000000867,-0.054325491156456539
1.102000000000000757,-0.054166015369151943
1.103000000000000869,-0.054007009773548977
1.104000000000000759,-0.053848465989314032
1.105000000000000870,-0.053690375749465689
1.106000000000000760,-0.053532730899230455
1.107000000000000872,-0.053375523394942267
1.108000000000000762,-0.053218745302927917
1.109000000000000874,-0.053062388798408133
1.110000000000000764,-0.052906446164405076
1.111000000000000876,-0.052750909790660147
1.112000000000000766,-0.052595772172565905
1.113000000000000878,-0.052441025910094197
1.114000000000000767,-0.052286663706744806
1.115000000000000879,-0.052132678368489060
1.116000000000000769,-0.051979062802738021
1.117000000000000881,-0.051825810017304672
1.118000000000000771,-0.051672913119382380
1.119000000000000883,-0.051520365314530657
1.120000000000000773,-0.051368159905666212
1.121000000000000885,-0.051216290292062115
1.122000000000000774,-0.051064749968356381
1.123000000000000886,-0.050913532523570559
1.124000000000000776,-0.050762631640138313
1.125000000000000888,-0.050612041092924928
1.126000000000000778,-0.050461754748277507
1.127000000000000890,-0.050311766563079119
1.128000000000000780,-0.050162070583786023
1.129000000000000892,-0.050012660945507451
1.130000000000000782,-0.049863531871072994
1.131000000000000894,-0.049714677670104693
1.132000000000000783,-0.049566092738110565
1.133000000000000895,-0.049417771555582100
1.134000000000000785,-0.049269708687079104
1.135000000000000897,-0.049121898780361606
1.136000000000000787,-0.048974336565485679
1.137000000000000899,-0.048827016853941786
1.138000000000000789,-0.048679934537772508
1.139000000000000901,-0.048533084588729368
1.140000000000000790,-0.048386462057399653
1.141000000000000902,-0.048240062072365211
1.142000000000000792,-0.048093879839369059
1.143000000000000904,-0.047947910640472310
1.144000000000000794,-0.047802149833240382
1.145000000000000906,-0.047656592849904603
1.146000000000000796,-0.047511235196573590
1.147000000000000908,-0.047366072452411041
1.148000000000000798,-0.047221100268844095
1.149000000000000909,-0.047076314368772951
1.150000000000000799,-0.046931710545778452
1.151000000000000689,-0.046787284663355626
1.152000000000000801,-0.046643032654133991
1.153000000000000913,-0.046498950519118280
1.154000000000000803,-0.046355034326926503
1.155000000000000693,-0.046211280213036783
1.156000000000000805,-0.046067684379054730
1.157000000000000917,-0.045924243091955627
1.158000000000000806,-0.045780952683371803
1.159000000000000696,-0.045637809548854838
1.160000000000000808,-0.045494810147158310
1.161000000000000920,-0.045351950999528587
1.162000000000000810,-0.045209228688998349
1.163000000000000700,-0.045066639859681401
1.164000000000000812,-0.044924181216083173
1.165000000000000924,-0.044781849522406825
1.166000000000000814,-0.044639641601881760
1.167000000000000703,-0.044497554336074871
1.168000000000000815,-0.044355584664233803
1.169000000000000927,-0.044213729582609995
1.170000000000000817,-0.044071986143812414
1.171000000000000707,-0.043930351456144281
1.172000000000000819,-0.043788822682970331
1.173000000000000931,-0.043647397042064565
1.174000000000000821,-0.043506071804978494
1.175000000000000711,-0.043364844296416731
1.176000000000000822,-0.043223711893610885
1.177000000000000934,-0.043082672025699618
1.178000000000000824,-0.042941722173122893
1.179000000000000714,-0.042800859867005409
1.180000000000000826,-0.042660082688570369
1.181000000000000938,-0.042519388268527789
1.182000000000000828,-0.042378774286497077
1.183000000000000718,-0.042238238470418757
1.184000000000000830,-0.042097778595974314
1.185000000000000941,-0.041957392486007682
1.186000000000000831,-0.041817078009969956
1.187000000000000721,-0.041676833083340623
1.188000000000000833,-0.041536655667081410
1.189000000000000945,-0.041396543767078069
1.190000000000000835,-0.041256495433594359
1.191000000000000725,-0.041116508760722689
1.192000000000000837,-0.040976581885863873
1.193000000000000949,-0.040836712989170805
1.194000000000000838,-0.040696900293043001
1.195000000000000728,-0.040557142061587628
1.196000000000000840,-0.040417436600110587
1.197000000000000952,-0.040277782254605279
1.198000000000000842,-0.040138177411234613
1.199000000000000732,-0.039998620495843337
1.200000000000000844,-0.039859109973438264
1.201000000000000956,-0.039719644347717617
1.202000000000000846,-0.039580222160566961
1.203000000000000735,-0.039440841991580322
1.204000000000000847,-0.039301502457575251
1.205000000000000959,-0.039162202212131306
1.206000000000000849,-0.039022939945102378
1.207000000000000739,-0.038883714382160373
1.208000000000000851,-0.038744524284333628
1.209000000000000963,-0.038605368447545710
1.210000000000000853,-0.038466245702169402
1.211000000000000743,-0.038327154912567787
1.212000000000000854,-0.038188094976662937
1.213000000000000966,-0.038049064825483106
1.214000000000000856,-0.037910063422743563
1.215000000000000746,-0.037771089764396353
1.216000000000000858,-0.037632142878221544
1.217000000000000970,-0.037493221823390870
1.218000000000000860,-0.037354325690056048
1.219000000000000750,-0.037215453598933114
1.220000000000000862,-0.037076604700893315
1.221000000000000973,-0.036937778176551285
1.222000000000000863,-0.036798973235871543
1.223000000000000753,-0.036660189117760762
1.224000000000000865,-0.036521425089679774
1.225000000000000977,-0.036382680447253068
1.226000000000000867,-0.036243954513878268
1.227000000000000757,-0.036105246640346117
1.228000000000000869,-0.035966556204457392
1.229000000000000981,-0.035827882610661554
1.230000000000000870,-0.035689225289662882
1.231000000000000760,-0.035550583698071771
1.232000000000000872,-0.035411957318038319
1.233000000000000984,-0.035273345656876717
1.234000000000000874,-0.035134748246732107
1.235000000000000764,-0.034996164644207364
1.236000000000000876,-0.034857594430026180
1.237000000000000988,-0.034719037208679311
1.238000000000000878,-0.034580492608091477
1.239000000000000767,-0.034441960279270836
1.240000000000000879,-0.034303439895984049
1.241000000000000991,-0.034164931154419258
1.242000000000000881,-0.034026433772856017
1.243000000000000771,-0.033887947491346403
1.244000000000000883,-0.033749472071385019
1.245000000000000995,-0.033611007295598863
1.246000000000000885,-0.033472552967427724
1.247000000000000774,-0.033334108910810123
1.248000000000000886,-0.033195674969879317
1.249000000000000998,-0.033057251008654961
1.250000000000000888,-0.032918836910744827
1.251000000000000778,-0.032780432579038669
1.252000000000000890,-0.032642037935419900
1.253000000000001002,-0.032503652920464109
1.254000000000000892,-0.032365277493161301
1.255000000000000782,-0.032226911630617146
1.256000000000000894,-0.032088555327774985
1.257000000000001005,-0.031950208597136286
1.258000000000000895,-0.031811871468480926
1.259000000000000785,-0.031673543988591658
1.260000000000000897,-0.031535226220982981
1.261000000000001009,-0.031396918245636188
1.262000000000000899,-0.031258620158724708
1.263000000000000789,-0.031120332072358380
1.264000000000000901,-0.030982054114322310
1.265000000000001013,-0.030843786427813942
1.266000000000000902,-0.030705529171195050
1.267000000000000792,-0.030567282517734062
1.268000000000000904,-0.030429046655361149
1.269000000000001016,-0.030290821786417517
1.270000000000000906,-0.030152608127417425
1.271000000000000796,-0.030014405908800862
1.272000000000000908,-0.029876215374694742
1.273000000000001020,-0.029738036782683431
1.274000000000000909,-0.029599870403570337
1.275000000000000799,-0.029461716521143665
1.276000000000000911,-0.029323575431959382
1.277000000000001023,-0.029185447445102326
1.278000000000000913,-0.029047332881970894
1.279000000000000803,-0.028909232076054187
1.280000000000000915,-0.028771145372718222
1.281000000000001027,-0.028633073128974923
1.282000000000000917,-0.028495015713288614
1.283000000000000806,-0.028356973505349860
1.284000000000000918,-0.028218946895876264
1.285000000000001030,-0.028080936286397445
1.286000000000000920,-0.027942942089058832
1.287000000000000810,-0.027804964726412938
1.288000000000000922,-0.027667004631228360
1.289000000000001034,-0.027529062246283476
1.290000000000000924,-0.027391138024173218
1.291000000000000814,-0.027253232427125608
1.292000000000000925,-0.027115345926793943
1.293000000000001037,-0.026977479004088610
1.294000000000000927,-0.026839632148975064
1.295000000000000817,-0.026701805860293533
1.296000000000000929,-0.026564000645583737
1.297000000000001041,-0.026426217020894909
1.298000000000000931,-0.026288455510615909
1.299000000000000821,-0.026150716647298122
1.300000000000000933,-0.026013000971475068
1.301000000000001044,-0.025875309031499993
1.302000000000000934,-0.025737641383369213
1.303000000000000824,-0.025599998590562605
1.304000000000000936,-0.025462381223864065
1.305000000000001048,-0.025324789861213337
1.306000000000000938,-0.025187225087535271
1.307000000000000828,-0.025049687494580399
1.308000000000000940,-0.024912177680766551
1.309000000000001052,-0.024774696251031125
1.310000000000000941,-0.024637243816663268
1.311000000000000831,-0.024499820995162600
1.312000000000000943,-0.024362428410078157
1.313000000000001055,-0.024225066690876075
1.314000000000000945,-0.024087736472774034
1.315000000000000835,-0.023950438396605357
1.316000000000000947,-0.023813173108677442
1.317000000000001059,-0.023675941260626755
1.318000000000000949,-0.023538743509273770
1.319000000000000838,-0.023401580516499244
1.320000000000000950,-0.023264452949093479
1.321000000000001062,-0.023127361478624254
1.322000000000000952,-0.022990306781311958
1.323000000000000842,-0.022853289537885974
1.324000000000000954,-0.022716310433465621
1.325000000000001066,-0.022579370157421258
1.326000000000000956,-0.022442469403259807
1.327000000000000846,-0.022305608868487224
1.328000000000000957,-0.022168789254496012
1.329000000000001069,-0.022032011266431072
1.330000000000000959,-0.021895275613083253
1.331000000000000849,-0.021758583006760319
1.332000000000000961,-0.021621934163169911
1.333000000000001073,-0.021485329801306075
1.334000000000000963,-0.021348770643340169
1.335000000000000853,-0.021212257414495721
1.336000000000000965,-0.021075790842947285
1.337000000000001076,-0.020939371659707003
1.338000000000000966,-0.020803000598511694
1.339000000000000856,-0.020666678395724093
1.340000000000000968,-0.020530405790219461
1.341000000000001080,-0.020394183523282781
1.342000000000000970,-0.020258012338508991
1.343000000000000860,-0.020121892981697930
1.344000000000000972,-0.019985826200753044
1.345000000000001084,-0.019849812745588426
1.346000000000000973,-0.019713853368022373
1.347000000000000863,-0.019577948821688018
1.348000000000000975,-0.019442099861931978
1.349000000000001087,-0.019306307245724963
1.350000000000000977,-0.019170571731570125
1.351000000000000867,-0.019034894079409347
1.352000000000000979,-0.018899275050525393
1.353000000000001091,-0.018763715407470367
1.354000000000000981,-0.018628215913964706
1.355000000000000870,-0.018492777334811535
1.356000000000000982,-0.018357400435815956
1.357000000000001094,-0.018222085983700276
1.358000000000000984,-0.018086834746018091
1.359000000000000874,-0.017951647491072181
1.360000000000000986,-0.017816524987836528
1.361000000000001098,-0.017681468005879813
1.362000000000000988,-0.017546477315276154
1.363000000000000878,-0.017411553686537084
1.364000000000000989,-0.017276697890537016
1.365000000000001101,-0.017141910698426494
1.366000000000000991,-0.017007192881568434
1.367000000000000881,-0.016872545211463540
1.368000000000000993,-0.016737968459674457
1.369000000000001105,-0.016603463397758443
1.370000000000000995,-0.016469030797195576
1.371000000000000885,-0.016334671429319814
1.372000000000000997,-0.016200386065252113
1.373000000000001108,-0.016066175475836098
1.374000000000000998,-0.015932040431560907
1.375000000000000888,-0.015797981702513984
1.376000000000001000,-0.015664000058303922
1.377000000000001112,-0.015530096267998733
1.378000000000001002,-0.015396271100070602
1.379000000000000892,-0.015262525322327813
1.380000000000001004,-0.015128859701856245
1.381000000000001116,-0.014995275004966302
1.382000000000001005,-0.014861771997123838
1.383000000000000895,-0.014728351442900342
1.384000000000001007,-0.014595014105914678
1.385000000000001119,-0.014461760748775958
1.386000000000001009,-0.014328592133033030
1.387000000000000899,-0.014195509019109093
1.388000000000001011,-0.014062512166269633
1.389000000000001123,-0.013929602332545882
1.390000000000001013,-0.013796780274700382
1.391000000000000902,-0.013664046748169498
1.392000000000001014,-0.013531402507014140
1.393000000000001126,-0.013398848303872774
1.394000000000001016,-0.013266384889913479
1.395000000000000906,-0.013134013014784146
1.396000000000001018,-0.013001733426564428
1.397000000000001130,-0.012869546871726123
1.398000000000001020,-0.012737454095083303
1.399000000000000909,-0.012605455839748841
1.400000000000001021,-0.012473552847090107
1.401000000000001133,-0.012341745856691148
1.402000000000001023,-0.012210035606302736
1.403000000000000913,-0.012078422831804497
1.404000000000001025,-0.011946908267169926
1.405000000000001137,-0.011815492644415443
1.406000000000001027,-0.011684176693569028
1.407000000000000917,-0.011552961142633943
1.408000000000001029,-0.011421846717539501
1.409000000000001140,-0.011290834142116362
1.410000000000001030,-0.011159924138051957
1.411000000000000920,-0.011029117424859240
1.412000000000001032,-0.010898414719837530
1.413000000000001144,-0.010767816738043192
1.414000000000001034,-0.010637324192249723
1.415000000000000924,-0.010506937792916518
1.416000000000001036,-0.010376658248162054
1.417000000000001148,-0.010246486263725135
1.418000000000001037,-0.010116422542932423
1.419000000000000927,-0.009986467786672976
1.420000000000001039,-0.009856622693364498
1.421000000000001151,-0.009726887958927798
1.422000000000001041,-0.009597264276751269
1.423000000000000931,-0.009467752337667600
1.424000000000001043,-0.009338352829925758
1.425000000000001155,-0.009209066439158827
1.426000000000001044,-0.009079893848363864
1.427000000000000934,-0.008950835737872623
1.428000000000001046,-0.008821892785324649
1.429000000000001158,-0.008693065665641585
1.430000000000001048,-0.008564355051009772
1.431000000000000938,-0.008435761610844857
1.432000000000001050,-0.008307286011778060
1.433000000000001162,-0.008178928917630180
1.434000000000001052,-0.008050690989383982
1.435000000000000941,-0.007922572885171985
1.436000000000001053,-0.007794575260245159
1.437000000000001165,-0.007666698766956827
1.438000000000001055,-0.007538944054745353
1.439000000000000945,-0.007411311770106931
1.440000000000001057,-0.007283802556581641
1.441000000000001169,-0.007156417054729103
1.442000000000001059,-0.007029155902115118
1.443000000000000949,-0.006902019733292829
1.444000000000001060,-0.006775009179781110
1.445000000000001172,-0.006648124870048297
1.446000000000001062,-0.006521367429502774
1.447000000000000952,-0.006394737480463699
1.448000000000001064,-0.006268235642155969
1.449000000000001176,-0.006141862530691532
1.450000000000001066,-0.006015618759049898
1.451000000000000956,-0.005889504937068723
1.452000000000001068,-0.005763521671427877
1.453000000000001180,-0.005637669565636247
1.454000000000001069,-0.005511949220014372
1.455000000000000959,-0.005386361231688318
1.456000000000001071,-0.005260906194569358
1.457000000000001183,-0.005135584699348694
1.458000000000001073,-0.005010397333481834
1.459000000000000963,-0.004885344681174575
1.460000000000001075,-0.004760427323377241
1.461000000000001187,-0.004635645837768718
1.462000000000001076,-0.004511000798753933
1.463000000000000966,-0.004386492777442847
1.464000000000001078,-0.004262122341647974
1.465000000000001190,-0.004137890055875451
1.466000000000001080,-0.004013796481311283
1.467000000000000970,-0.003889842175815572
1.468000000000001082,-0.003766027693916542
1.469000000000001194,-0.003642353586794510
1.470000000000001084,-0.003518820402284355
1.471000000000000973,-0.003395428684859167
1.472000000000001085,-0.003272178975632342
1.473000000000001197,-0.003149071812340250
1.474000000000001087,-0.003026107729346111
1.475000000000000977,-0.002903287257623388
1.476000000000001089,-0.002780610924759701
1.477000000000001201,-0.002658079254948205
1.478000000000001091,-0.002535692768976847
1.479000000000000981,-0.002413451984231364
1.480000000000001092,-0.002291357414685035
1.481000000000001204,-0.002169409570897225
1.482000000000001094,-0.002047608960008205
1.483000000000000984,-0.001925956085738579
1.484000000000001096,-0.001804451448377991
1.485000000000001208,-0.001683095544787168
1.486000000000001098,-0.001561888868398861
1.487000000000000988,-0.001440831909206183
1.488000000000001100,-0.001319925153763786
1.489000000000001211,-0.001199169085190567
1.490000000000001101,-0.001078564183160696
1.491000000000000991,-0.000958110923903854
1.492000000000001103,-0.000837809780206296
1.493000000000001215,-0.000717661221408299
1.494000000000001105,-0.000597665713399555
1.495000000000000995,-0.000477823718623853
1.496000000000001107,-0.000358135696075403
1.497000000000001219,-0.000238602101299939
1.498000000000001108,-0.000119223386392711
1.499000000000000998,0.000000000000000000
