# hydroxyapatite-010-ph10_CS-5008-AC
# h[nm],U(h)[kJ/mol]
0.149999999999999994,78.340994165957823725
0.150999999999999995,76.788330527834062877
0.151999999999999996,75.287808697493616705
0.152999999999999997,73.840008958004389683
0.153999999999999998,72.435926186399910875
0.154999999999999999,71.065873826886786446
0.156000000000000000,69.722711352453586642
0.157000000000000001,68.402310770701546971
0.158000000000000002,67.102889872930234105
0.159000000000000002,65.824061109806578429
0.160000000000000003,64.565990151170197464
0.161000000000000004,63.328805419405703958
0.162000000000000005,62.112269857194519318
0.163000000000000006,60.915668109771807792
0.164000000000000007,59.737844281647959122
0.165000000000000008,58.577327956753848071
0.166000000000000009,57.432497720094353610
0.167000000000000010,56.301745512027913776
0.168000000000000010,55.183618428656998844
0.169000000000000011,54.076925565025362630
0.170000000000000012,52.980805757237007469
0.171000000000000013,51.894757753188763161
0.172000000000000014,50.818637825992254875
0.173000000000000015,49.752631618122457269
0.174000000000000016,48.697207532768373994
0.175000000000000017,47.653058676398543980
0.176000000000000018,46.621039530535611561
0.177000000000000018,45.602102440760290847
0.178000000000000019,44.597237836814798584
0.179000000000000020,43.607420960759384343
0.180000000000000021,42.633566855646868987
0.181000000000000022,41.676494495389313499
0.182000000000000023,40.736900232530707910
0.183000000000000024,39.815340202484811982
0.184000000000000025,38.912220937552980615
0.185000000000000026,38.027797192657054381
0.186000000000000026,37.162175845445510447
0.187000000000000027,36.315324684143746481
0.188000000000000028,35.487084916304844739
0.189000000000000029,34.677186301672364266
0.190000000000000030,33.885263916471110690
0.191000000000000031,33.110875681094853462
0.192000000000000032,32.353519917519470539
0.193000000000000033,31.612652338435367483
0.194000000000000034,30.887702000844136307
0.195000000000000034,30.178085878328488434
0.196000000000000035,29.483221815564171209
0.197000000000000036,28.802539724319000669
0.198000000000000037,28.135490961578533131
0.199000000000000038,27.481555897682500955
0.200000000000000039,26.840249736122665070
0.201000000000000040,26.211126687965361270
0.202000000000000041,25.593782633981245311
0.203000000000000042,24.987856427857529695
0.204000000000000042,24.393030005740833133
0.205000000000000043,23.809027472185356089
0.206000000000000044,23.235613331663220293
0.207000000000000045,22.672590029331576744
0.208000000000000046,22.119794955823337546
0.209000000000000047,21.577097059386474598
0.210000000000000048,21.044393195562317800
0.211000000000000049,20.521604330461702403
0.212000000000000050,20.008671699143043554
0.213000000000000050,19.505553006088373280
0.214000000000000051,19.012218740674743600
0.215000000000000052,18.528648667132110006
0.216000000000000053,18.054828535966642278
0.217000000000000054,17.590747052348380208
0.218000000000000055,17.136393126598534309
0.219000000000000056,16.691753422702682030
0.220000000000000057,16.256810212722392350
0.221000000000000058,15.831539538056295768
0.222000000000000058,15.415909672658793639
0.223000000000000059,15.009879878501536155
0.224000000000000060,14.613399439679875869
0.225000000000000061,14.226406958543558190
0.226000000000000062,13.848829894981449229
0.227000000000000063,13.480584328427534402
0.228000000000000064,13.121574921194874008
0.229000000000000065,12.771695061302789753
0.230000000000000066,12.430827162963755228
0.231000000000000066,12.098843103266101906
0.232000000000000067,11.775604774261305252
0.233000000000000068,11.460964730578108828
0.234000000000000069,11.154766913786207994
0.235000000000000070,10.856847435970706783
0.236000000000000071,10.567035406312431434
0.237000000000000072,10.285153785860909892
0.238000000000000073,10.011020257105414544
0.239000000000000073,9.744448096367950285
0.240000000000000074,9.485247038436924072
0.241000000000000075,9.233224124215510642
0.242000000000000076,8.988184523458112807
0.243000000000000077,8.749932325901241370
0.244000000000000078,8.518271295253834197
0.245000000000000079,8.293005581589913078
0.246000000000000080,8.073940388680933111
0.247000000000000081,7.860882593713358624
0.248000000000000081,7.653641317660136778
0.249000000000000082,7.452028445313017002
0.250000000000000111,7.255859094638523743
0.251000000000000112,7.064952035697426247
0.252000000000000113,6.879130059868330704
0.253000000000000114,6.698220300546651629
0.254000000000000115,6.522054506852742684
0.255000000000000115,6.350469272184628089
0.256000000000000116,6.183306219694584271
0.257000000000000117,6.020412146960574695
0.258000000000000118,5.861639132268136265
0.259000000000000119,5.706844605019860239
0.260000000000000120,5.555891382853086036
0.261000000000000121,5.408647678076471621
0.262000000000000122,5.264987076036004687
0.263000000000000123,5.124788487995810549
0.264000000000000123,4.987936081071223882
0.265000000000000124,4.854319187685581127
0.266000000000000125,4.723832196940135120
0.267000000000000126,4.596374430192174287
0.268000000000000127,4.471850003031462073
0.269000000000000128,4.350167675732949490
0.270000000000000129,4.231240694145411041
0.271000000000000130,4.114986622853723297
0.272000000000000131,4.001327172328468684
0.273000000000000131,3.890188021651696637
0.274000000000000132,3.781498638283539826
0.275000000000000133,3.675192096211604031
0.276000000000000134,3.571204893705151484
0.277000000000000135,3.469476771779441915
0.278000000000000136,3.369950534362663230
0.279000000000000137,3.272571871049775982
0.280000000000000138,3.177289183224220714
0.281000000000000139,3.084053414230138124
0.282000000000000139,2.992817884185091870
0.283000000000000140,2.903538129935860912
0.284000000000000141,2.816171750578402744
0.285000000000000142,2.730678258886848120
0.286000000000000143,2.647018938925986831
0.287000000000000144,2.565156710056790690
0.288000000000000145,2.485055997484609147
0.289000000000000146,2.406682609445575771
0.290000000000000147,2.330003621076997433
0.291000000000000147,2.254987264973187244
0.292000000000000148,2.181602828387963378
0.293000000000000149,2.109820557009637554
0.294000000000000150,2.039611565202738674
0.295000000000000151,1.970947752583179335
0.296000000000000152,1.903801726769767555
0.297000000000000153,1.838146732134458006
0.298000000000000154,1.773956584356524591
0.299000000000000155,1.711205610571530311
0.300000000000000155,1.649868594894411844
0.301000000000000156,1.589920729087030082
0.302000000000000157,1.531337568133630755
0.303000000000000158,1.474094990483206136
0.304000000000000159,1.418169162714795650
0.305000000000000160,1.363536508380897017
0.306000000000000161,1.310173680784513461
0.307000000000000162,1.258057539447241302
0.308000000000000163,1.207165130028922562
0.309000000000000163,1.157473667463430278
0.310000000000000164,1.108960522080211231
0.311000000000000165,1.061603208487083672
0.312000000000000166,1.015379376996223382
0.313000000000000167,0.970266807382407670
0.314000000000000168,0.926243404770099032
0.315000000000000169,0.883287197453857198
0.316000000000000170,0.841376336464728980
0.317000000000000171,0.800489096703728031
0.318000000000000171,0.760603879472046884
0.319000000000000172,0.721699216236169505
0.320000000000000173,0.683753773474832127
0.321000000000000174,0.646746358463287541
0.322000000000000175,0.610655925858887727
0.323000000000000176,0.575461584960427652
0.324000000000000177,0.541142607521936769
0.325000000000000178,0.507678436009756040
0.326000000000000179,0.475048692199513289
0.327000000000000179,0.443233186017403746
0.328000000000000180,0.412211924537527252
0.329000000000000181,0.381965121054151702
0.330000000000000182,0.352473204154827358
0.331000000000000183,0.323716826726661799
0.332000000000000184,0.295676874834599424
0.333000000000000185,0.268334476416491996
0.334000000000000186,0.241671009745474036
0.335000000000000187,0.215668111615717001
0.336000000000000187,0.190307685212649152
0.337000000000000188,0.165571907633831200
0.338000000000000189,0.141443237031026958
0.339000000000000190,0.117904419348489012
0.340000000000000191,0.094938494636565590
0.341000000000000192,0.072528802923301508
0.342000000000000193,0.050658989630505857
0.343000000000000194,0.029313010523773907
0.344000000000000195,0.008475136189253708
0.345000000000000195,-0.011870043967559996
0.346000000000000196,-0.031737618202852015
0.347000000000000197,-0.051142349395028749
0.348000000000000198,-0.070098672482212174
0.349000000000000199,-0.088620692372178983
0.350000000000000200,-0.106722182318521902
0.351000000000000201,-0.124416582755123309
0.352000000000000202,-0.141717000579664687
0.353000000000000203,-0.158636208875636731
0.354000000000000203,-0.175186647061161077
0.355000000000000204,-0.191380421451941229
0.356000000000000205,-0.207229306224885695
0.357000000000000206,-0.222744744768207520
0.358000000000000207,-0.237937851403090234
0.359000000000000208,-0.252819413461684406
0.360000000000000209,-0.267399893705725256
0.361000000000000210,-0.281689433069682804
0.362000000000000210,-0.295697853712309056
0.363000000000000211,-0.309434662360146329
0.364000000000000212,-0.322909053926630163
0.365000000000000213,-0.336129915390314227
0.366000000000000214,-0.349105829915910326
0.367000000000000215,-0.361845081201860153
0.368000000000000216,-0.374355658038460271
0.369000000000000217,-0.386645259060598878
0.370000000000000218,-0.398721297679627773
0.371000000000000218,-0.410590907178984998
0.372000000000000219,-0.422260945958693235
0.373000000000000220,-0.433738002914095921
0.374000000000000221,-0.445028402934616985
0.375000000000000222,-0.456138212508693131
0.376000000000000223,-0.467073245421566863
0.377000000000000224,-0.477839068532878941
0.378000000000000225,-0.488441007621614021
0.379000000000000226,-0.498884153286282384
0.380000000000000226,-0.509173366888824974
0.381000000000000227,-0.519313286531007501
0.382000000000000228,-0.529308333052747049
0.383000000000000229,-0.539162716042137946
0.384000000000000230,-0.548880439847449941
0.385000000000000231,-0.558465309581939851
0.386000000000000232,-0.567920937112600943
0.387000000000000233,-0.577250747024632416
0.388000000000000234,-0.586457982553692858
0.389000000000000234,-0.595545711478617124
0.390000000000000235,-0.604516831967549573
0.391000000000000236,-0.613374078371027531
0.392000000000000237,-0.622120026955860217
0.393000000000000238,-0.630757101574151990
0.394000000000000239,-0.639287579262121652
0.395000000000000240,-0.647713595763871330
0.396000000000000241,-0.656037150975548378
0.397000000000000242,-0.664260114305752714
0.398000000000000242,-0.672384229948420176
0.399000000000000243,-0.680411122064675800
0.400000000000000244,-0.688342299870585261
0.401000000000000245,-0.696179162628006942
0.402000000000000246,-0.703923004535994545
0.403000000000000247,-0.711575019520619190
0.404000000000000248,-0.719136305921259100
0.405000000000000249,-0.726607871071735634
0.406000000000000250,-0.733990635774872113
0.407000000000000250,-0.741285438669396113
0.408000000000000251,-0.748493040488219963
0.409000000000000252,-0.755614128207471314
0.410000000000000253,-0.762649319085769939
0.411000000000000254,-0.769599164593507412
0.412000000000000255,-0.776464154232022974
0.413000000000000256,-0.783244719242832454
0.414000000000000257,-0.789941236207100772
0.415000000000000258,-0.796554030535878144
0.416000000000000258,-0.803083379851601720
0.417000000000000259,-0.809529517261629472
0.418000000000000260,-0.815892634524635119
0.419000000000000261,-0.822172885110841634
0.420000000000000262,-0.828370387157158605
0.421000000000000263,-0.834485226318462225
0.422000000000000264,-0.840517458516211513
0.423000000000000265,-0.846467112585859383
0.424000000000000266,-0.852334192824481640
0.425000000000000266,-0.858118681440122266
0.426000000000000267,-0.863820540904490564
0.427000000000000268,-0.869439716210651303
0.428000000000000269,-0.874976137037399959
0.429000000000000270,-0.880429719822110046
0.430000000000000271,-0.885800369743826921
0.431000000000000272,-0.891087982618469332
0.432000000000000273,-0.896292446707978696
0.433000000000000274,-0.901413644445342777
0.434000000000000274,-0.906451454077400576
0.435000000000000275,-0.911405751227352012
0.436000000000000276,-0.916276410378951800
0.437000000000000277,-0.921063306284323424
0.438000000000000278,-0.925766315297364306
0.439000000000000279,-0.930385316634734338
0.440000000000000280,-0.934920193566366464
0.441000000000000281,-0.939370834537464283
0.442000000000000282,-0.943737134223996854
0.443000000000000282,-0.948018994523555869
0.444000000000000283,-0.952216325483590920
0.445000000000000284,-0.956329046168898245
0.446000000000000285,-0.960357085470267435
0.447000000000000286,-0.964300382856235094
0.448000000000000287,-0.968158889069711370
0.449000000000000288,-0.971932566771426587
0.450000000000000289,-0.975621391131950455
0.451000000000000290,-0.979225350374103520
0.452000000000000290,-0.982744446267552640
0.453000000000000291,-0.986178694577285575
0.454000000000000292,-0.989528125467727504
0.455000000000000293,-0.992792783864149486
0.456000000000000294,-0.995972729773040077
0.457000000000000295,-0.999068038563061700
0.458000000000000296,-1.002078801208169834
0.459000000000000297,-1.005005124494475321
0.460000000000000298,-1.007847131192353585
0.461000000000000298,-1.010604960195306656
0.462000000000000299,-1.013278766627036864
0.463000000000000300,-1.015868721918141926
0.464000000000000301,-1.018375013853847211
0.465000000000000302,-1.020797846594110991
0.466000000000000303,-1.023137440667432285
0.467000000000000304,-1.025394032939658917
0.468000000000000305,-1.027567876559029925
0.469000000000000306,-1.029659240878690429
0.470000000000000306,-1.031668411357875792
0.471000000000000307,-1.033595689442869947
0.472000000000000308,-1.035441392428921192
0.473000000000000309,-1.037205853304164371
0.474000000000000310,-1.038889420576597944
0.475000000000000311,-1.040492458085167771
0.476000000000000312,-1.042015344795922172
0.477000000000000313,-1.043458474584212592
0.478000000000000314,-1.044822256003840932
0.479000000000000314,-1.046107112044097009
0.480000000000000315,-1.047313479875489284
0.481000000000000316,-1.048441810585073908
0.482000000000000317,-1.049492568902121059
0.483000000000000318,-1.050466232914953002
0.484000000000000319,-1.051363293779671304
0.485000000000000320,-1.052184255421495518
0.486000000000000321,-1.052929634229439637
0.487000000000000322,-1.053599958744955156
0.488000000000000322,-1.054195769345194211
0.489000000000000323,-1.054717617921535400
0.490000000000000324,-1.055166067553929832
0.491000000000000325,-1.055541692181661384
0.492000000000000326,-1.055845076271032079
0.493000000000000327,-1.056076814480544801
0.494000000000000328,-1.056237511324021661
0.495000000000000329,-1.056327780832191143
0.496000000000000330,-1.056348246213138165
0.497000000000000330,-1.056299539512130847
0.498000000000000331,-1.056182301271133328
0.499000000000000332,-1.055997180188499529
0.500000000000000333,-1.055744832779168085
0.501000000000000334,-1.055425923035702152
0.502000000000000335,-1.055041122090562222
0.503000000000000336,-1.054591107879882639
0.504000000000000337,-1.054076564809089733
0.505000000000000338,-1.053498183420617629
0.506000000000000338,-1.052856660064021677
0.507000000000000339,-1.052152696568726897
0.508000000000000340,-1.051386999919639020
0.509000000000000341,-1.050560281935891682
0.510000000000000342,-1.049673258952869892
0.511000000000000343,-1.048726651507780883
0.512000000000000344,-1.047721184028895358
0.513000000000000345,-1.046657584528663198
0.514000000000000346,-1.045536584300879479
0.515000000000000346,-1.044358917621994509
0.516000000000000347,-1.043125321456750854
0.517000000000000348,-1.041836535168274569
0.518000000000000349,-1.040493300232691265
0.519000000000000350,-1.039096359958425531
0.520000000000000351,-1.037646459210236571
0.521000000000000352,-1.036144344138117734
0.522000000000000353,-1.034590761911084567
0.523000000000000353,-1.032986460455971756
0.524000000000000354,-1.031332188201272260
0.525000000000000355,-1.029628693826069696
0.526000000000000356,-1.027876726014116171
0.527000000000000357,-1.026077033213098400
0.528000000000000358,-1.024230363399110555
0.529000000000000359,-1.022337463846370476
0.530000000000000360,-1.020399080902175903
0.531000000000000361,-1.018415959767148049
0.532000000000000361,-1.016388844280733617
0.533000000000000362,-1.014318476711984829
0.534000000000000363,-1.012205597555608572
0.535000000000000364,-1.010050945333278438
0.536000000000000365,-1.007855256400183697
0.537000000000000366,-1.005619264756825837
0.538000000000000367,-1.003343701865984539
0.539000000000000368,-1.001029296474905683
0.540000000000000369,-0.998676774442598614
0.541000000000000369,-0.996286858572279721
0.542000000000000370,-0.993860268448864437
0.543000000000000371,-0.991397720281515071
0.544000000000000372,-0.988899926751175329
0.545000000000000373,-0.986367596863055751
0.546000000000000374,-0.983801435804014468
0.547000000000000375,-0.981202144804778187
0.548000000000000376,-0.978570421006980107
0.549000000000000377,-0.975906957334913172
0.550000000000000377,-0.973212442371986564
0.551000000000000378,-0.970487560241777403
0.552000000000000379,-0.967732990493682110
0.553000000000000380,-0.964949407993039410
0.554000000000000381,-0.962137482815688783
0.555000000000000382,-0.959297880146938176
0.556000000000000383,-0.956431260184781862
0.557000000000000384,-0.953538278047412646
0.558000000000000385,-0.950619583684862768
0.559000000000000385,-0.947675821794776274
0.560000000000000386,-0.944707631742202070
0.561000000000000387,-0.941715647483356455
0.562000000000000388,-0.938700497493271002
0.563000000000000389,-0.935662804697278028
0.564000000000000390,-0.932603186406234963
0.565000000000000391,-0.929522254255435554
0.566000000000000392,-0.926420614147124177
0.567000000000000393,-0.923298866196566315
0.568000000000000393,-0.920157604681555497
0.569000000000000394,-0.916997417995336739
0.570000000000000395,-0.913818888602854429
0.571000000000000396,-0.910622593000227631
0.572000000000000397,-0.907409101677439600
0.573000000000000398,-0.904178979084108603
0.574000000000000399,-0.900932783598318521
0.575000000000000400,-0.897671067498403530
0.576000000000000401,-0.894394376937634461
0.577000000000000401,-0.891103251921752770
0.578000000000000402,-0.887798226289243986
0.579000000000000403,-0.884479827694306331
0.580000000000000404,-0.881148577592468341
0.581000000000000405,-0.877804991228733122
0.582000000000000406,-0.874449577628241270
0.583000000000000407,-0.871082839589338298
0.584000000000000408,-0.867705273679023614
0.585000000000000409,-0.864317370230683002
0.586000000000000409,-0.860919613344052537
0.587000000000000410,-0.857512480887371531
0.588000000000000411,-0.854096444501616148
0.589000000000000412,-0.850671969606809908
0.590000000000000413,-0.847239515410295185
0.591000000000000414,-0.843799534916943372
0.592000000000000415,-0.840352474941241212
0.593000000000000416,-0.836898776121169141
0.594000000000000417,-0.833438872933838004
0.595000000000000417,-0.829973193712846169
0.596000000000000418,-0.826502160667230479
0.597000000000000419,-0.823026189902059224
0.598000000000000420,-0.819545691440507929
0.599000000000000421,-0.816061069247455473
0.600000000000000422,-0.812572721254485764
0.601000000000000423,-0.809081039386269074
0.602000000000000424,-0.805586409588283203
0.603000000000000425,-0.802089211855808282
0.604000000000000425,-0.798589820264138828
0.605000000000000426,-0.795088602999996508
0.606000000000000427,-0.791585922394083874
0.607000000000000428,-0.788082134954691149
0.608000000000000429,-0.784577591402411456
0.609000000000000430,-0.781072636705793411
0.610000000000000431,-0.777567610118006902
0.611000000000000432,-0.774062845214395945
0.612000000000000433,-0.770558669930913931
0.613000000000000433,-0.767055406603408430
0.614000000000000434,-0.763553372007691578
0.615000000000000435,-0.760052877400368643
0.616000000000000436,-0.756554228560387232
0.617000000000000437,-0.753057725831287939
0.618000000000000438,-0.749563664164085264
0.619000000000000439,-0.746072333160758383
0.620000000000000440,-0.742584017118342210
0.621000000000000441,-0.739098995073544485
0.622000000000000441,-0.735617540847889440
0.623000000000000442,-0.732139923093326983
0.624000000000000443,-0.728666405338305845
0.625000000000000444,-0.725197246034264720
0.626000000000000445,-0.721732698602499889
0.627000000000000446,-0.718273011481412538
0.628000000000000447,-0.714818428174076592
0.629000000000000448,-0.711369187296119310
0.630000000000000449,-0.707925522623869541
0.631000000000000449,-0.704487663142773779
0.632000000000000450,-0.701055833096029257
0.633000000000000451,-0.697630252033432985
0.634000000000000452,-0.694211134860387324
0.635000000000000453,-0.690798691887091421
0.636000000000000454,-0.687393128877838655
0.637000000000000455,-0.683994647100451547
0.638000000000000456,-0.680603443375783601
0.639000000000000457,-0.677219710127307528
0.640000000000000457,-0.673843635430756094
0.641000000000000458,-0.670475403063768183
0.642000000000000459,-0.667115192555588932
0.643000000000000460,-0.663763179236721568
0.644000000000000461,-0.660419534288583021
0.645000000000000462,-0.657084424793114907
0.646000000000000463,-0.653758013782320346
0.647000000000000464,-0.650440460287748157
0.648000000000000465,-0.647131919389881682
0.649000000000000465,-0.643832542267416597
0.650000000000000466,-0.640542476246436565
0.651000000000000467,-0.637261864849438142
0.652000000000000468,-0.633990847844229655
0.653000000000000469,-0.630729561292650898
0.654000000000000470,-0.627478137599147612
0.655000000000000471,-0.624236705559143346
0.656000000000000472,-0.621005390407225022
0.657000000000000473,-0.617784313865119339
0.658000000000000473,-0.614573594189464556
0.659000000000000474,-0.611373346219343028
0.660000000000000475,-0.608183681423587696
0.661000000000000476,-0.605004707947833009
0.662000000000000477,-0.601836530661324809
0.663000000000000478,-0.598679251203455220
0.664000000000000479,-0.595532968030041299
0.665000000000000480,-0.592397776459297476
0.666000000000000481,-0.589273768717562429
0.667000000000000481,-0.586161033984684887
0.668000000000000482,-0.583059658439153861
0.669000000000000483,-0.579969725302887040
0.670000000000000484,-0.576891314885725537
0.671000000000000485,-0.573824504629604992
0.672000000000000486,-0.570769369152391404
0.673000000000000487,-0.567725980291411525
0.674000000000000488,-0.564694407146619781
0.675000000000000488,-0.561674716123439000
0.676000000000000489,-0.558666970975269739
0.677000000000000490,-0.555671232845621588
0.678000000000000491,-0.552687560309919612
0.679000000000000492,-0.549716009416942430
0.680000000000000493,-0.546756633729899244
0.681000000000000494,-0.543809484367154816
0.682000000000000495,-0.540874610042575865
0.683000000000000496,-0.537952057105523074
0.684000000000000496,-0.535041869580464402
0.685000000000000497,-0.532144089206214366
0.686000000000000498,-0.529258755474810827
0.687000000000000499,-0.526385905669998988
0.688000000000000500,-0.523525574905347013
0.689000000000000501,-0.520677796161981732
0.690000000000000502,-0.517842600325945090
0.691000000000000503,-0.515020016225164579
0.692000000000000504,-0.512210070666035078
0.693000000000000504,-0.509412788469642774
0.694000000000000505,-0.506628192507565522
0.695000000000000506,-0.503856303737329370
0.696000000000000507,-0.501097141237453525
0.697000000000000508,-0.498350722242114852
0.698000000000000509,-0.495617062175443102
0.699000000000000510,-0.492896174685411748
0.700000000000000511,-0.490188071677354842
0.701000000000000512,-0.487492763347102454
0.702000000000000512,-0.484810258213725032
0.703000000000000513,-0.482140563151900736
0.704000000000000514,-0.479483683423902018
0.705000000000000515,-0.476839622711197286
0.706000000000000516,-0.474208383145673817
0.707000000000000517,-0.471589965340489747
0.708000000000000518,-0.468984368420526654
0.709000000000000519,-0.466391590052506022
0.710000000000000520,-0.463811626474681993
0.711000000000000520,-0.461244472526201155
0.712000000000000521,-0.458690121676071427
0.713000000000000522,-0.456148566051759907
0.714000000000000523,-0.453619796467436942
0.715000000000000524,-0.451103802451832792
0.716000000000000525,-0.448600572275754672
0.717000000000000526,-0.446110092979220774
0.718000000000000527,-0.443632350398241393
0.719000000000000528,-0.441167329191237745
0.720000000000000528,-0.438715012865126375
0.721000000000000529,-0.436275383801006722
0.722000000000000530,-0.433848423279542594
0.723000000000000531,-0.431434111505960449
0.724000000000000532,-0.429032427634719937
0.725000000000000533,-0.426643349793838833
0.726000000000000534,-0.424266855108857310
0.727000000000000535,-0.421902919726487358
0.728000000000000536,-0.419551518837909421
0.729000000000000536,-0.417212626701734535
0.730000000000000537,-0.414886216666649155
0.731000000000000538,-0.412572261193707934
0.732000000000000539,-0.410270731878320472
0.733000000000000540,-0.407981599471901268
0.734000000000000541,-0.405704833903206885
0.735000000000000542,-0.403440404299339916
0.736000000000000543,-0.401188279006462867
0.737000000000000544,-0.398948425610167912
0.738000000000000544,-0.396720810955566439
0.739000000000000545,-0.394505401167047076
0.740000000000000546,-0.392302161667743454
0.741000000000000547,-0.390111057198688382
0.742000000000000548,-0.387932051837698855
0.743000000000000549,-0.385765109017914887
0.744000000000000550,-0.383610191546090273
0.745000000000000551,-0.381467261620573705
0.746000000000000552,-0.379336280849003005
0.747000000000000552,-0.377217210265723746
0.748000000000000553,-0.375110010348913114
0.749000000000000554,-0.373014641037433425
0.750000000000000555,-0.370931061747414303
0.751000000000000556,-0.368859231388549480
0.752000000000000557,-0.366799108380143957
0.753000000000000558,-0.364750650666861576
0.754000000000000559,-0.362713815734250322
0.755000000000000560,-0.360688560623969257
0.756000000000000560,-0.358674841948788292
0.757000000000000561,-0.356672615907303203
0.758000000000000562,-0.354681838298418151
0.759000000000000563,-0.352702464535578186
0.760000000000000564,-0.350734449660747960
0.761000000000000565,-0.348777748358147344
0.762000000000000566,-0.346832314967752742
0.763000000000000567,-0.344898103498554209
0.764000000000000568,-0.342975067641574427
0.765000000000000568,-0.341063160782674069
0.766000000000000569,-0.339162336015100319
0.767000000000000570,-0.337272546151835162
0.768000000000000571,-0.335393743737694872
0.769000000000000572,-0.333525881061232210
0.770000000000000573,-0.331668910166402042
0.771000000000000574,-0.329822782864024222
0.772000000000000575,-0.327987450743027209
0.773000000000000576,-0.326162865181478578
0.774000000000000576,-0.324348977357415247
0.775000000000000577,-0.322545738259470582
0.776000000000000578,-0.320753098697284189
0.777000000000000579,-0.318971009311738274
0.778000000000000580,-0.317199420584968694
0.779000000000000581,-0.315438282850203477
0.780000000000000582,-0.313687546301397835
0.781000000000000583,-0.311947161002690765
0.782000000000000584,-0.310217076897663202
0.783000000000000584,-0.308497243818417810
0.784000000000000585,-0.306787611494486967
0.785000000000000586,-0.305088129561538801
0.786000000000000587,-0.303398747569936567
0.787000000000000588,-0.301719414993099733
0.788000000000000589,-0.300050081235700039
0.789000000000000590,-0.298390695641703396
0.790000000000000591,-0.296741207502222992
0.791000000000000592,-0.295101566063223131
0.792000000000000592,-0.293471720533055869
0.793000000000000593,-0.291851620089838226
0.794000000000000594,-0.290241213888673910
0.795000000000000595,-0.288640451068724713
0.796000000000000596,-0.287049280760112102
0.797000000000000597,-0.285467652090692525
0.798000000000000598,-0.283895514192667509
0.799000000000000599,-0.282332816209049653
0.800000000000000600,-0.280779507299998343
0.801000000000000600,-0.279235536648994365
0.802000000000000601,-0.277700853468887621
0.803000000000000602,-0.276175407007806017
0.804000000000000603,-0.274659146554927625
0.805000000000000604,-0.273152021446123550
0.806000000000000605,-0.271653981069455042
0.807000000000000606,-0.270164974870567565
0.808000000000000607,-0.268684952357931994
0.809000000000000608,-0.267213863107976068
0.810000000000000608,-0.265751656770097044
0.811000000000000609,-0.264298283071524864
0.812000000000000610,-0.262853691822112046
0.813000000000000611,-0.261417832918958815
0.814000000000000612,-0.259990656350955196
0.815000000000000613,-0.258572112203204973
0.816000000000000614,-0.257162150661318756
0.817000000000000615,-0.255760722015618946
0.818000000000000616,-0.254367776665231138
0.819000000000000616,-0.252983265122061929
0.820000000000000617,-0.251607138014675047
0.821000000000000618,-0.250239346092071657
0.822000000000000619,-0.248879840227366950
0.823000000000000620,-0.247528571421359450
0.824000000000000621,-0.246185490806007323
0.825000000000000622,-0.244850549647816690
0.826000000000000623,-0.243523699351124778
0.827000000000000624,-0.242204891461292787
0.828000000000000624,-0.240894077667813983
0.829000000000000625,-0.239591209807318378
0.830000000000000626,-0.238296239866506998
0.831000000000000627,-0.237009119984985250
0.832000000000000628,-0.235729802458022414
0.833000000000000629,-0.234458239739215341
0.834000000000000630,-0.233194384443079994
0.835000000000000631,-0.231938189347559831
0.836000000000000631,-0.230689607396450447
0.837000000000000632,-0.229448591701760185
0.838000000000000633,-0.228215095545970359
0.839000000000000634,-0.226989072384244095
0.840000000000000635,-0.225770475846553353
0.841000000000000636,-0.224559259739723460
0.842000000000000637,-0.223355378049426928
0.843000000000000638,-0.222158784942088378
0.844000000000000639,-0.220969434766731643
0.845000000000000639,-0.219787282056759681
0.846000000000000640,-0.218612281531657959
0.847000000000000641,-0.217444388098656349
0.848000000000000642,-0.216283556854297870
0.849000000000000643,-0.215129743085963832
0.850000000000000644,-0.213982902273346209
0.851000000000000645,-0.212842990089830930
0.852000000000000646,-0.211709962403849594
0.853000000000000647,-0.210583775280165225
0.854000000000000647,-0.209464384981092794
0.855000000000000648,-0.208351747967676776
0.856000000000000649,-0.207245820900811284
0.857000000000000650,-0.206146560642301774
0.858000000000000651,-0.205053924255877457
0.859000000000000652,-0.203967869008154862
0.860000000000000653,-0.202888352369554076
0.861000000000000654,-0.201815332015149729
0.862000000000000655,-0.200748765825500330
0.863000000000000655,-0.199688611887402612
0.864000000000000656,-0.198634828494624632
0.865000000000000657,-0.197587374148570749
0.866000000000000658,-0.196546207558920910
0.867000000000000659,-0.195511287644221848
0.868000000000000660,-0.194482573532424541
0.869000000000000661,-0.193460024561393384
0.870000000000000662,-0.192443600279369964
0.871000000000000663,-0.191433260445402154
0.872000000000000663,-0.190428965029718789
0.873000000000000664,-0.189430674214086298
0.874000000000000665,-0.188438348392112764
0.875000000000000666,-0.187451948169524929
0.876000000000000667,-0.186471434364403860
0.877000000000000668,-0.185496768007386154
0.878000000000000669,-0.184527910341839019
0.879000000000000670,-0.183564822823985396
0.880000000000000671,-0.182607467123018563
0.881000000000000671,-0.181655805121158920
0.882000000000000672,-0.180709798913708031
0.883000000000000673,-0.179769410809045904
0.884000000000000674,-0.178834603328619057
0.885000000000000675,-0.177905339206884505
0.886000000000000676,-0.176981581391236431
0.887000000000000677,-0.176063293041898383
0.888000000000000678,-0.175150437531786440
0.889000000000000679,-0.174242978446357805
0.890000000000000679,-0.173340879583420232
0.891000000000000680,-0.172444104952924310
0.892000000000000681,-0.171552618776728727
0.893000000000000682,-0.170666385488339484
0.894000000000000683,-0.169785369732627894
0.895000000000000684,-0.168909536365529356
0.896000000000000685,-0.168038850453714084
0.897000000000000686,-0.167173277274236198
0.898000000000000687,-0.166312782314169544
0.899000000000000687,-0.165457331270212504
0.900000000000000688,-0.164606890048279775
0.901000000000000689,-0.163761424763071206
0.902000000000000690,-0.162920901737627077
0.903000000000000691,-0.162085287502856890
0.904000000000000692,-0.161254548797056085
0.905000000000000693,-0.160428652565401453
0.906000000000000694,-0.159607565959437342
0.907000000000000695,-0.158791256336530490
0.908000000000000695,-0.157979691259327704
0.909000000000000696,-0.157172838495179018
0.910000000000000697,-0.156370666015563681
0.911000000000000698,-0.155573141995484387
0.912000000000000699,-0.154780234812860268
0.913000000000000700,-0.153991913047904105
0.914000000000000701,-0.153208145482471608
0.915000000000000702,-0.152428901099423031
0.916000000000000703,-0.151654149081949241
0.917000000000000703,-0.150883858812898397
0.918000000000000704,-0.150117999874086860
0.919000000000000705,-0.149356542045594703
0.920000000000000706,-0.148599455305062078
0.921000000000000707,-0.147846709826958550
0.922000000000000708,-0.147098275981853627
0.923000000000000709,-0.146354124335679681
0.924000000000000710,-0.145614225648967921
0.925000000000000711,-0.144878550876097467
0.926000000000000711,-0.144147071164518220
0.927000000000000712,-0.143419757853973540
0.928000000000000713,-0.142696582475709072
0.929000000000000714,-0.141977516751686517
0.930000000000000715,-0.141262532593767198
0.931000000000000716,-0.140551602102906015
0.932000000000000717,-0.139844697568338006
0.933000000000000718,-0.139141791466744158
0.934000000000000719,-0.138442856461425928
0.935000000000000719,-0.137747865401465636
0.936000000000000720,-0.137056791320879612
0.937000000000000721,-0.136369607437769935
0.938000000000000722,-0.135686287153471030
0.939000000000000723,-0.135006804051684109
0.940000000000000724,-0.134331131897612838
0.941000000000000725,-0.133659244637094249
0.942000000000000726,-0.132991116395724362
0.943000000000000727,-0.132326721477972420
0.944000000000000727,-0.131666034366303863
0.945000000000000728,-0.131009029720291909
0.946000000000000729,-0.130355682375719595
0.947000000000000730,-0.129705967343696049
0.948000000000000731,-0.129059859809747407
0.949000000000000732,-0.128417335132925137
0.950000000000000733,-0.127778368844894269
0.951000000000000734,-0.127142936649036836
0.952000000000000735,-0.126511014419536189
0.953000000000000735,-0.125882578200464806
0.954000000000000736,-0.125257604204876694
0.955000000000000737,-0.124636068813888584
0.956000000000000738,-0.124017948575766715
0.957000000000000739,-0.123403220205005867
0.958000000000000740,-0.122791860581412920
0.959000000000000741,-0.122183846749180855
0.960000000000000742,-0.121579155915975984
0.961000000000000743,-0.120977765452008418
0.962000000000000743,-0.120379652889109429
0.963000000000000744,-0.119784795919811254
0.964000000000000745,-0.119193172396422978
0.965000000000000746,-0.118604760330102185
0.966000000000000747,-0.118019537889934842
0.967000000000000748,-0.117437483402006590
0.968000000000000749,-0.116858575348484275
0.969000000000000750,-0.116282792366685178
0.970000000000000751,-0.115710113248161522
0.971000000000000751,-0.115140516937770693
0.972000000000000752,-0.114573982532750598
0.973000000000000753,-0.114010489281811192
0.974000000000000754,-0.113450016584198760
0.975000000000000755,-0.112892543988785649
0.976000000000000756,-0.112338051193148658
0.977000000000000757,-0.111786518042649857
0.978000000000000758,-0.111237924529522303
0.979000000000000759,-0.110692250791959587
0.980000000000000759,-0.110149477113193409
0.981000000000000760,-0.109609583920589060
0.982000000000000761,-0.109072551784736210
0.983000000000000762,-0.108538361418537677
0.984000000000000763,-0.108006993676300136
0.985000000000000764,-0.107478429552841190
0.986000000000000765,-0.106952650182575645
0.987000000000000766,-0.106429636838621056
0.988000000000000766,-0.105909370931899005
0.989000000000000767,-0.105391834010240631
0.990000000000000768,-0.104877007757495533
0.991000000000000769,-0.104364873992634763
0.992000000000000770,-0.103855414668866275
0.993000000000000771,-0.103348611872755541
0.994000000000000772,-0.102844447823329979
0.995000000000000773,-0.102342904871212517
0.996000000000000774,-0.101843965497733557
0.997000000000000774,-0.101347612314062835
0.998000000000000775,-0.100853828060334980
0.999000000000000776,-0.100362595604782584
1.000000000000000666,-0.099873897942867981
1.001000000000000778,-0.099387718196425917
1.002000000000000668,-0.098904039612797714
1.003000000000000780,-0.098422845563979081
1.004000000000000670,-0.097944119545766234
1.005000000000000782,-0.097467845176905737
1.006000000000000671,-0.096994006198250479
1.007000000000000783,-0.096522586471911462
1.008000000000000673,-0.096053569980422707
1.009000000000000785,-0.095586940825903494
1.010000000000000675,-0.095122683229224916
1.011000000000000787,-0.094660781529180546
1.012000000000000677,-0.094201220181662992
1.013000000000000789,-0.093743983758839439
1.014000000000000679,-0.093289056948331534
1.015000000000000790,-0.092836424552404470
1.016000000000000680,-0.092386071487155302
1.017000000000000792,-0.091937982781702052
1.018000000000000682,-0.091492143577381405
1.019000000000000794,-0.091048539126949407
1.020000000000000684,-0.090607154793787115
1.021000000000000796,-0.090167976051103854
1.022000000000000686,-0.089730988481151019
1.023000000000000798,-0.089296177774437976
1.024000000000000687,-0.088863529728948731
1.025000000000000799,-0.088433030249366801
1.026000000000000689,-0.088004665346303329
1.027000000000000801,-0.087578421135524817
1.028000000000000691,-0.087154283837189983
1.029000000000000803,-0.086732239775089121
1.030000000000000693,-0.086312275375882333
1.031000000000000805,-0.085894377168355240
1.032000000000000695,-0.085478531782659212
1.033000000000000806,-0.085064725949573233
1.034000000000000696,-0.084652946499762655
1.035000000000000808,-0.084243180363036574
1.036000000000000698,-0.083835414567617506
1.037000000000000810,-0.083429636239419069
1.038000000000000700,-0.083025832601309496
1.039000000000000812,-0.082623990972396130
1.040000000000000702,-0.082224098767311737
1.041000000000000814,-0.081826143495498424
1.042000000000000703,-0.081430112760495083
1.043000000000000815,-0.081035994259240685
1.044000000000000705,-0.080643775781371135
1.045000000000000817,-0.080253445208516558
1.046000000000000707,-0.079864990513618367
1.047000000000000819,-0.079478399760237461
1.048000000000000709,-0.079093661101867246
1.049000000000000821,-0.078710762781257979
1.050000000000000711,-0.078329693129736505
1.051000000000000822,-0.077950440566540824
1.052000000000000712,-0.077572993598145179
1.053000000000000824,-0.077197340817601476
1.054000000000000714,-0.076823470903877852
1.055000000000000826,-0.076451372621203328
1.056000000000000716,-0.076081034818417978
1.057000000000000828,-0.075712446428324129
1.058000000000000718,-0.075345596467042891
1.059000000000000830,-0.074980474033375294
1.060000000000000719,-0.074617068308169207
1.061000000000000831,-0.074255368553686918
1.062000000000000721,-0.073895364112975342
1.063000000000000833,-0.073537044409251601
1.064000000000000723,-0.073180398945273631
1.065000000000000835,-0.072825417302731135
1.066000000000000725,-0.072472089141638399
1.067000000000000837,-0.072120404199715410
1.068000000000000727,-0.071770352291800774
1.069000000000000838,-0.071421923309239382
1.070000000000000728,-0.071075107219295247
1.071000000000000840,-0.070729894064558624
1.072000000000000730,-0.070386273962358942
1.073000000000000842,-0.070044237104184254
1.074000000000000732,-0.069703773755094137
1.075000000000000844,-0.069364874253156072
1.076000000000000734,-0.069027529008867883
1.077000000000000846,-0.068691728504588226
1.078000000000000735,-0.068357463293980056
1.079000000000000847,-0.068024724001442896
1.080000000000000737,-0.067693501321568289
1.081000000000000849,-0.067363786018575719
1.082000000000000739,-0.067035568925771727
1.083000000000000851,-0.066708840945004649
1.084000000000000741,-0.066383593046126399
1.085000000000000853,-0.066059816266449384
1.086000000000000743,-0.065737501710220150
1.087000000000000854,-0.065416640548088045
1.088000000000000744,-0.065097224016582522
1.089000000000000856,-0.064779243417584426
1.090000000000000746,-0.064462690117814941
1.091000000000000858,-0.064147555548322022
1.092000000000000748,-0.063833831203963673
1.093000000000000860,-0.063521508642909147
1.094000000000000750,-0.063210579486126878
1.095000000000000862,-0.062901035416893569
1.096000000000000751,-0.062592868180295511
1.097000000000000863,-0.062286069582730384
1.098000000000000753,-0.061980631491429072
1.099000000000000865,-0.061676545833964522
1.100000000000000755,-0.061373804597768630
1.101000000000000867,-0.061072399829657863
1.102000000000000757,-0.060772323635358595
1.103000000000000869,-0.060473568179035667
1.104000000000000759,-0.060176125682821116
1.105000000000000870,-0.059879988426358742
1.106000000000000760,-0.059585148746332209
1.107000000000000872,-0.059291599036018626
1.108000000000000762,-0.058999331744829450
1.109000000000000874,-0.058708339377861796
1.110000000000000764,-0.058418614495449439
1.111000000000000876,-0.058130149712719834
1.112000000000000766,-0.057842937699156716
1.113000000000000878,-0.057556971178160186
1.114000000000000767,-0.057272242926616125
1.115000000000000879,-0.056988745774461155
1.116000000000000769,-0.056706472604260330
1.117000000000000881,-0.056425416350779932
1.118000000000000771,-0.056145570000569890
1.119000000000000883,-0.055866926591544963
1.120000000000000773,-0.055589479212570916
1.121000000000000885,-0.055313221003054212
1.122000000000000774,-0.055038145152530769
1.123000000000000886,-0.054764244900266421
1.124000000000000776,-0.054491513534854555
1.125000000000000888,-0.054219944393812156
1.126000000000000778,-0.053949530863190119
1.127000000000000890,-0.053680266377183608
1.128000000000000780,-0.053412144417732496
1.129000000000000892,-0.053145158514146008
1.130000000000000782,-0.052879302242714255
1.131000000000000894,-0.052614569226327415
1.132000000000000783,-0.052350953134100410
1.133000000000000895,-0.052088447681002625
1.134000000000000785,-0.051827046627475101
1.135000000000000897,-0.051566743779076843
1.136000000000000787,-0.051307532986107254
1.137000000000000899,-0.051049408143251387
1.138000000000000789,-0.050792363189213208
1.139000000000000901,-0.050536392106369496
1.140000000000000790,-0.050281488920405779
1.141000000000000902,-0.050027647699966073
1.142000000000000792,-0.049774862556310841
1.143000000000000904,-0.049523127642965112
1.144000000000000794,-0.049272437155383111
1.145000000000000906,-0.049022785330594884
1.146000000000000796,-0.048774166446884593
1.147000000000000908,-0.048526574823444954
1.148000000000000798,-0.048280004820049072
1.149000000000000909,-0.048034450836722711
1.150000000000000799,-0.047789907313411768
1.151000000000000689,-0.047546368729664681
1.152000000000000801,-0.047303829604308144
1.153000000000000913,-0.047062284495129322
1.154000000000000803,-0.046821727998556842
1.155000000000000693,-0.046582154749348723
1.156000000000000805,-0.046343559420285702
1.157000000000000917,-0.046105936721851634
1.158000000000000806,-0.045869281401940430
1.159000000000000696,-0.045633588245542575
1.160000000000000808,-0.045398852074447188
1.161000000000000920,-0.045165067746944600
1.162000000000000810,-0.044932230157530222
1.163000000000000700,-0.044700334236607950
1.164000000000000812,-0.044469374950200535
1.165000000000000924,-0.044239347299658720
1.166000000000000814,-0.044010246321379884
1.167000000000000703,-0.043782067086514651
1.168000000000000815,-0.043554804700696045
1.169000000000000927,-0.043328454303748404
1.170000000000000817,-0.043103011069419016
1.171000000000000707,-0.042878470205096039
1.172000000000000819,-0.042654826951543330
1.173000000000000931,-0.042432076582622442
1.174000000000000821,-0.042210214405027036
1.175000000000000711,-0.041989235758018793
1.176000000000000822,-0.041769136013161901
1.177000000000000934,-0.041549910574059198
1.178000000000000824,-0.041331554876097201
1.179000000000000714,-0.041114064386182231
1.180000000000000826,-0.040897434602493829
1.181000000000000938,-0.040681661054222287
1.182000000000000828,-0.040466739301323773
1.183000000000000718,-0.040252664934271022
1.184000000000000830,-0.040039433573803955
1.185000000000000941,-0.039827040870683526
1.186000000000000831,-0.039615482505455837
1.187000000000000721,-0.039404754188202190
1.188000000000000833,-0.039194851658308383
1.189000000000000945,-0.038985770684222640
1.190000000000000835,-0.038777507063225899
1.191000000000000725,-0.038570056621189466
1.192000000000000837,-0.038363415212358934
1.193000000000000949,-0.038157578719109408
1.194000000000000838,-0.037952543051731250
1.195000000000000728,-0.037748304148196229
1.196000000000000840,-0.037544857973938431
1.197000000000000952,-0.037342200521636025
1.198000000000000842,-0.037140327810981880
1.199000000000000732,-0.036939235888480026
1.200000000000000844,-0.036738920827212959
1.201000000000000956,-0.036539378726643833
1.202000000000000846,-0.036340605712395203
1.203000000000000735,-0.036142597936040036
1.204000000000000847,-0.035945351574892336
1.205000000000000959,-0.035748862831806075
1.206000000000000849,-0.035553127934962833
1.207000000000000739,-0.035358143137670897
1.208000000000000851,-0.035163904718166383
1.209000000000000963,-0.034970408979409506
1.210000000000000853,-0.034777652248889672
1.211000000000000743,-0.034585630878425463
1.212000000000000854,-0.034394341243973649
1.213000000000000966,-0.034203779745429749
1.214000000000000856,-0.034013942806447317
1.215000000000000746,-0.033824826874234902
1.216000000000000858,-0.033636428419378882
1.217000000000000970,-0.033448743935649346
1.218000000000000860,-0.033261769939817741
1.219000000000000750,-0.033075502971473957
1.220000000000000862,-0.032889939592844301
1.221000000000000973,-0.032705076388607979
1.222000000000000863,-0.032520909965723356
1.223000000000000753,-0.032337436953244654
1.224000000000000865,-0.032154654002151423
1.225000000000000977,-0.031972557785170809
1.226000000000000867,-0.031791144996606693
1.227000000000000757,-0.031610412352167036
1.228000000000000869,-0.031430356588791536
1.229000000000000981,-0.031250974464491550
1.230000000000000870,-0.031072262758171064
1.231000000000000760,-0.030894218269470149
1.232000000000000872,-0.030716837818601066
1.233000000000000984,-0.030540118246174520
1.234000000000000874,-0.030364056413054230
1.235000000000000764,-0.030188649200182847
1.236000000000000876,-0.030013893508432466
1.237000000000000988,-0.029839786258441296
1.238000000000000878,-0.029666324390463739
1.239000000000000767,-0.029493504864208719
1.240000000000000879,-0.029321324658693120
1.241000000000000991,-0.029149780772085236
1.242000000000000881,-0.028978870221555597
1.243000000000000771,-0.028808590043128052
1.244000000000000883,-0.028638937291529942
1.245000000000000995,-0.028469909040048737
1.246000000000000885,-0.028301502380383248
1.247000000000000774,-0.028133714422499394
1.248000000000000886,-0.027966542294488805
1.249000000000000998,-0.027799983142425273
1.250000000000000888,-0.027634034130227792
1.251000000000000778,-0.027468692439514213
1.252000000000000890,-0.027303955269471370
1.253000000000001002,-0.027139819836709121
1.254000000000000892,-0.026976283375134073
1.255000000000000782,-0.026813343135805912
1.256000000000000894,-0.026650996386809466
1.257000000000001005,-0.026489240413121468
1.258000000000000895,-0.026328072516477487
1.259000000000000785,-0.026167490015242999
1.260000000000000897,-0.026007490244283914
1.261000000000001009,-0.025848070554840306
1.262000000000000899,-0.025689228314396722
1.263000000000000789,-0.025530960906558136
1.264000000000000901,-0.025373265730926901
1.265000000000001013,-0.025216140202975294
1.266000000000000902,-0.025059581753926523
1.267000000000000792,-0.024903587830630663
1.268000000000000904,-0.024748155895446426
1.269000000000001016,-0.024593283426121139
1.270000000000000906,-0.024438967915671857
1.271000000000000796,-0.024285206872268639
1.272000000000000908,-0.024131997819116218
1.273000000000001020,-0.023979338294342661
1.274000000000000909,-0.023827225850881886
1.275000000000000799,-0.023675658056359489
1.276000000000000911,-0.023524632492985292
1.277000000000001023,-0.023374146757436015
1.278000000000000913,-0.023224198460747698
1.279000000000000803,-0.023074785228207582
1.280000000000000915,-0.022925904699245377
1.281000000000001027,-0.022777554527318410
1.282000000000000917,-0.022629732379816879
1.283000000000000806,-0.022482435937947916
1.284000000000000918,-0.022335662896637958
1.285000000000001030,-0.022189410964422569
1.286000000000000920,-0.022043677863349573
1.287000000000000810,-0.021898461328869363
1.288000000000000922,-0.021753759109743337
1.289000000000001034,-0.021609568967933875
1.290000000000000924,-0.021465888678508599
1.291000000000000814,-0.021322716029546208
1.292000000000000925,-0.021180048822027907
1.293000000000001037,-0.021037884869753345
1.294000000000000927,-0.020896221999234400
1.295000000000000817,-0.020755058049602291
1.296000000000000929,-0.020614390872516649
1.297000000000001041,-0.020474218332066123
1.298000000000000931,-0.020334538304681231
1.299000000000000821,-0.020195348679038341
1.300000000000000933,-0.020056647355967315
1.301000000000001044,-0.019918432248365779
1.302000000000000934,-0.019780701281104558
1.303000000000000824,-0.019643452390942954
1.304000000000000936,-0.019506683526433304
1.305000000000001048,-0.019370392647843088
1.306000000000000938,-0.019234577727061206
1.307000000000000828,-0.019099236747514514
1.308000000000000940,-0.018964367704079655
1.309000000000001052,-0.018829968603005020
1.310000000000000941,-0.018696037461820129
1.311000000000000831,-0.018562572309255905
1.312000000000000943,-0.018429571185158790
1.313000000000001055,-0.018297032140417217
1.314000000000000945,-0.018164953236871118
1.315000000000000835,-0.018033332547235454
1.316000000000000947,-0.017902168155022248
1.317000000000001059,-0.017771458154461010
1.318000000000000949,-0.017641200650414721
1.319000000000000838,-0.017511393758313887
1.320000000000000950,-0.017382035604068362
1.321000000000001062,-0.017253124323995166
1.322000000000000952,-0.017124658064746168
1.323000000000000842,-0.016996634983226601
1.324000000000000954,-0.016869053246526759
1.325000000000001066,-0.016741911031842714
1.326000000000000956,-0.016615206526409486
1.327000000000000846,-0.016488937927422630
1.328000000000000957,-0.016363103441970582
1.329000000000001069,-0.016237701286958967
1.330000000000000959,-0.016112729689046916
1.331000000000000849,-0.015988186884570543
1.332000000000000961,-0.015864071119474261
1.333000000000001073,-0.015740380649244181
1.334000000000000963,-0.015617113738841421
1.335000000000000853,-0.015494268662628694
1.336000000000000965,-0.015371843704308127
1.337000000000001076,-0.015249837156853496
1.338000000000000966,-0.015128247322441651
1.339000000000000856,-0.015007072512392217
1.340000000000000968,-0.014886311047096885
1.341000000000001080,-0.014765961255958842
1.342000000000000970,-0.014646021477327775
1.343000000000000860,-0.014526490058437456
1.344000000000000972,-0.014407365355339818
1.345000000000001084,-0.014288645732849627
1.346000000000000973,-0.014170329564474846
1.347000000000000863,-0.014052415232361254
1.348000000000000975,-0.013934901127226531
1.349000000000001087,-0.013817785648305500
1.350000000000000977,-0.013701067203288267
1.351000000000000867,-0.013584744208262330
1.352000000000000979,-0.013468815087646687
1.353000000000001091,-0.013353278274146374
1.354000000000000981,-0.013238132208685707
1.355000000000000870,-0.013123375340351096
1.356000000000000982,-0.013009006126339952
1.357000000000001094,-0.012895023031900507
1.358000000000000984,-0.012781424530275264
1.359000000000000874,-0.012668209102648726
1.360000000000000986,-0.012555375238088879
1.361000000000001098,-0.012442921433499793
1.362000000000000988,-0.012330846193557060
1.363000000000000878,-0.012219148030663460
1.364000000000000989,-0.012107825464894709
1.365000000000001101,-0.011996877023939432
1.366000000000000991,-0.011886301243056358
1.367000000000000881,-0.011776096665018252
1.368000000000000993,-0.011666261840061035
1.369000000000001105,-0.011556795325832139
1.370000000000000995,-0.011447695687341577
1.371000000000000885,-0.011338961496911857
1.372000000000000997,-0.011230591334126686
1.373000000000001108,-0.011122583785785890
1.374000000000000998,-0.011014937445847809
1.375000000000000888,-0.010907650915392980
1.376000000000001000,-0.010800722802568170
1.377000000000001112,-0.010694151722538634
1.378000000000001002,-0.010587936297445465
1.379000000000000892,-0.010482075156355611
1.380000000000001004,-0.010376566935214123
1.381000000000001116,-0.010271410276804477
1.382000000000001005,-0.010166603830694957
1.383000000000000895,-0.010062146253197670
1.384000000000001007,-0.009958036207324597
1.385000000000001119,-0.009854272362739679
1.386000000000001009,-0.009750853395719553
1.387000000000000899,-0.009647777989100145
1.388000000000001011,-0.009545044832249156
1.389000000000001123,-0.009442652621005816
1.390000000000001013,-0.009340600057649426
1.391000000000000902,-0.009238885850852384
1.392000000000001014,-0.009137508715639241
1.393000000000001126,-0.009036467373345161
1.394000000000001016,-0.008935760551575975
1.395000000000000906,-0.008835386984163598
1.396000000000001018,-0.008735345411126944
1.397000000000001130,-0.008635634578633469
1.398000000000001020,-0.008536253238957967
1.399000000000000909,-0.008437200150440655
1.400000000000001021,-0.008338474077450553
1.401000000000001133,-0.008240073790347214
1.402000000000001023,-0.008141998065438031
1.403000000000000913,-0.008044245684941647
1.404000000000001025,-0.007946815436953015
1.405000000000001137,-0.007849706115400496
1.406000000000001027,-0.007752916520010518
1.407000000000000917,-0.007656445456274421
1.408000000000001029,-0.007560291735402125
1.409000000000001140,-0.007464454174294574
1.410000000000001030,-0.007368931595503654
1.411000000000000920,-0.007273722827195642
1.412000000000001032,-0.007178826703115450
1.413000000000001144,-0.007084242062554874
1.414000000000001034,-0.006989967750311828
1.415000000000000924,-0.006896002616657329
1.416000000000001036,-0.006802345517305905
1.417000000000001148,-0.006708995313374823
1.418000000000001037,-0.006615950871351077
1.419000000000000927,-0.006523211063060331
1.420000000000001039,-0.006430774765630727
1.421000000000001151,-0.006338640861463476
1.422000000000001041,-0.006246808238193938
1.423000000000000931,-0.006155275788664044
1.424000000000001043,-0.006064042410888120
1.425000000000001155,-0.005973107008018919
1.426000000000001044,-0.005882468488319189
1.427000000000000934,-0.005792125765127467
1.428000000000001046,-0.005702077756827429
1.429000000000001158,-0.005612323386814617
1.430000000000001048,-0.005522861583470632
1.431000000000000938,-0.005433691280125916
1.432000000000001050,-0.005344811415034836
1.433000000000001162,-0.005256220931343281
1.434000000000001052,-0.005167918777055240
1.435000000000000941,-0.005079903905011528
1.436000000000001053,-0.004992175272850476
1.437000000000001165,-0.004904731842984253
1.438000000000001055,-0.004817572582571579
1.439000000000000945,-0.004730696463482934
1.440000000000001057,-0.004644102462277312
1.441000000000001169,-0.004557789560169083
1.442000000000001059,-0.004471756743003809
1.443000000000000949,-0.004386003001229917
1.444000000000001060,-0.004300527329868060
1.445000000000001172,-0.004215328728484857
1.446000000000001062,-0.004130406201169923
1.447000000000000952,-0.004045758756500449
1.448000000000001064,-0.003961385407521069
1.449000000000001176,-0.003877285171716417
1.450000000000001066,-0.003793457070980195
1.451000000000000956,-0.003709900131593032
1.452000000000001068,-0.003626613384196349
1.453000000000001180,-0.003543595863764708
1.454000000000001069,-0.003460846609579423
1.455000000000000959,-0.003378364665207381
1.456000000000001071,-0.003296149078470176
1.457000000000001183,-0.003214198901423995
1.458000000000001073,-0.003132513190331690
1.459000000000000963,-0.003051091005637567
1.460000000000001075,-0.002969931411945989
1.461000000000001187,-0.002889033477993496
1.462000000000001076,-0.002808396276629017
1.463000000000000966,-0.002728018884784353
1.464000000000001078,-0.002647900383454820
1.465000000000001190,-0.002568039857674802
1.466000000000001080,-0.002488436396491745
1.467000000000000970,-0.002409089092946279
1.468000000000001082,-0.002329997044048525
1.469000000000001194,-0.002251159350750900
1.470000000000001084,-0.002172575117932792
1.471000000000000973,-0.002094243454370509
1.472000000000001085,-0.002016163472722936
1.473000000000001197,-0.001938334289500130
1.474000000000001087,-0.001860755025050024
1.475000000000000977,-0.001783424803528517
1.476000000000001089,-0.001706342752884479
1.477000000000001201,-0.001629508004835682
1.478000000000001091,-0.001552919694845366
1.479000000000000981,-0.001476576962103549
1.480000000000001092,-0.001400478949504980
1.481000000000001204,-0.001324624803628413
1.482000000000001094,-0.001249013674715926
1.483000000000000984,-0.001173644716653650
1.484000000000001096,-0.001098517086947300
1.485000000000001208,-0.001023629946704396
1.486000000000001098,-0.000948982460617139
1.487000000000000988,-0.000874573796936308
1.488000000000001100,-0.000800403127454619
1.489000000000001211,-0.000726469627488162
1.490000000000001101,-0.000652772475855816
1.491000000000000991,-0.000579310854856315
1.492000000000001103,-0.000506083950255240
1.493000000000001215,-0.000433090951262816
1.494000000000001105,-0.000360331050511344
1.495000000000000995,-0.000287803444042633
1.496000000000001107,-0.000215507331285285
1.497000000000001219,-0.000143441915038043
1.498000000000001108,-0.000071606401449686
1.499000000000000998,0.000000000000000000
