# Tobermorite-004_BSAIV4
# h[nm],U(h)[kJ/mol]
0.149999999999999994,143.555401462459940376
0.150999999999999995,141.134738324098265139
0.151999999999999996,139.156917798890702898
0.152999999999999997,137.227392008818156910
0.153999999999999998,135.225836201162735506
0.154999999999999999,133.152663401389759201
0.156000000000000000,131.048626059521041043
0.157000000000000001,128.956739940635173980
0.158000000000000002,126.907537910558104954
0.159000000000000002,124.916251055143362692
0.160000000000000003,122.985324114103789839
0.161000000000000004,121.108654487885161188
0.162000000000000005,119.275741701394281336
0.163000000000000006,117.474976597160619463
0.164000000000000007,115.695870558832893948
0.165000000000000008,113.930309973877683660
0.166000000000000009,112.173038889300030974
0.167000000000000010,110.421598258907508239
0.168000000000000010,108.675929208390058989
0.169000000000000011,106.937807475258139789
0.170000000000000012,105.210231812065018175
0.171000000000000013,103.496848478375980562
0.172000000000000014,101.801460360872397359
0.173000000000000015,100.127643588833436183
0.174000000000000016,98.478476249950105625
0.175000000000000017,96.856371841113940491
0.176000000000000018,95.263003103937279548
0.177000000000000018,93.699298632885330562
0.178000000000000019,92.165494000311412037
0.179000000000000020,90.661220212583955913
0.180000000000000021,89.185614391822383595
0.181000000000000022,87.737440148043759791
0.182000000000000023,86.315207800720131104
0.183000000000000024,84.917287184974583170
0.184000000000000025,83.542008089717413100
0.185000000000000026,82.187745347525122952
0.186000000000000026,80.852987203685032114
0.187000000000000027,79.536386842891289461
0.188000000000000028,78.236797875859764417
0.189000000000000029,76.953295225477219788
0.190000000000000030,75.685183248689483548
0.191000000000000031,74.431993132080762621
0.192000000000000032,73.193471649214501440
0.193000000000000033,71.969563305042015600
0.194000000000000034,70.760387750513103811
0.195000000000000034,69.566214156865996188
0.196000000000000035,68.387434016525034508
0.197000000000000036,67.224533603743310550
0.198000000000000037,66.078067096400502578
0.199000000000000038,64.948631140260317807
0.200000000000000039,63.836841434963005781
0.201000000000000040,62.743311741003175541
0.202000000000000041,61.668635550865246842
0.203000000000000042,60.613370535788973825
0.204000000000000042,59.578025771630109375
0.205000000000000043,58.563051661507245171
0.206000000000000044,57.568832407416969943
0.207000000000000045,56.595680835502889749
0.208000000000000046,55.643835347803509705
0.209000000000000047,54.713458754706799425
0.210000000000000048,53.804638734727333826
0.211000000000000049,52.917389669475184633
0.212000000000000050,52.051655609870252306
0.213000000000000050,51.207314143065516987
0.214000000000000051,50.384180946679279600
0.215000000000000052,49.582014836529900492
0.216000000000000053,48.800523135053815338
0.217000000000000054,48.039367209094237410
0.218000000000000055,47.298168047082143062
0.219000000000000056,46.576511766253155145
0.220000000000000057,45.873954960049587726
0.221000000000000058,45.190029813966170025
0.222000000000000058,44.524248934617908446
0.223000000000000059,43.876109851642794979
0.224000000000000060,43.245099165155792775
0.225000000000000061,42.630696322865347270
0.226000000000000062,42.032377020699485115
0.227000000000000063,41.449616228957168573
0.228000000000000064,40.881890852704493966
0.229000000000000065,40.328682040499487016
0.230000000000000066,39.789477159681254648
0.231000000000000066,39.263771459531554342
0.232000000000000067,38.751069445741435970
0.233000000000000068,38.250885990919101687
0.234000000000000069,37.762747206477726536
0.235000000000000070,37.286191101259760217
0.236000000000000071,36.820768051788100195
0.237000000000000072,36.366041108181548225
0.238000000000000073,35.921586158617117235
0.239000000000000073,35.486991973840474657
0.240000000000000074,35.061860151683241327
0.241000000000000075,34.645804979901562604
0.242000000000000076,34.238453233950806975
0.243000000000000077,33.839443924598661795
0.244000000000000078,33.448428008586539306
0.245000000000000079,33.065068073905351298
0.246000000000000080,32.689038009676153251
0.247000000000000081,32.320022669137415505
0.248000000000000081,31.957717532848484154
0.249000000000000082,31.601828377934015890
0.250000000000000111,31.252070958017839075
0.251000000000000112,30.908170697432996832
0.252000000000000113,30.569862402342835139
0.253000000000000114,30.236889990568549536
0.254000000000000115,29.909006241182900965
0.255000000000000115,29.585972564296696419
0.256000000000000116,29.267558790926777590
0.257000000000000117,28.953542982384227855
0.258000000000000118,28.643711258255741825
0.259000000000000119,28.337857641758148475
0.260000000000000120,28.035783921022471077
0.261000000000000121,27.737299524701331421
0.262000000000000122,27.442221410184220787
0.263000000000000123,27.150373962644305692
0.264000000000000123,26.861588903120043881
0.265000000000000124,26.575705203850738201
0.266000000000000125,26.292569009129703517
0.267000000000000126,26.012033560009108157
0.268000000000000127,25.733959121279827542
0.269000000000000128,25.458212909255784950
0.270000000000000129,25.184669019009472635
0.271000000000000130,24.913208349831165833
0.272000000000000131,24.643718527815991592
0.273000000000000131,24.376093824617285577
0.274000000000000132,24.110235071538859586
0.275000000000000133,23.846049568272377428
0.276000000000000134,23.583450985715622039
0.277000000000000135,23.322359262433231208
0.278000000000000136,23.062700494440555588
0.279000000000000137,22.804406818104634880
0.280000000000000138,22.547416286062272661
0.281000000000000139,22.291672736152428058
0.282000000000000139,22.037125653450715390
0.283000000000000140,21.783730025574740807
0.284000000000000141,21.531446191502396914
0.285000000000000142,21.280239684210048523
0.286000000000000143,21.030081067493803459
0.287000000000000144,20.780945767386352685
0.288000000000000145,20.532813898622087834
0.289000000000000146,20.285670086637523468
0.290000000000000147,20.039503285620327233
0.291000000000000147,19.794306593140550632
0.292000000000000148,19.550077061911544263
0.293000000000000149,19.306815509236766815
0.294000000000000150,19.064526324701340343
0.295000000000000151,18.823217276665939579
0.296000000000000152,18.582899318114534992
0.297000000000000153,18.343586392397760676
0.298000000000000154,18.105295239400330587
0.299000000000000155,17.868045202644818659
0.300000000000000155,17.631858037825033136
0.301000000000000156,17.396757723241300653
0.302000000000000157,17.162770272586740816
0.303000000000000158,16.929923550509148100
0.304000000000000159,16.698247091347305116
0.305000000000000160,16.467771921413760339
0.306000000000000161,16.238530385168736814
0.307000000000000162,16.010555975601970857
0.308000000000000163,15.783883169111343037
0.309000000000000163,15.558547265139045734
0.310000000000000164,15.334584230798474991
0.311000000000000165,15.112030550697294728
0.312000000000000166,14.890923082135524069
0.313000000000000167,14.671298915831050280
0.314000000000000168,14.453195242299591072
0.315000000000000169,14.236649223991388880
0.316000000000000170,14.021697873263363476
0.317000000000000171,13.808377936242465012
0.318000000000000171,13.596725782614839773
0.319000000000000172,13.386777301354147340
0.320000000000000173,13.178567802383678753
0.321000000000000174,12.972131924148181170
0.322000000000000175,12.767503547054307234
0.323000000000000176,12.564715712722811958
0.324000000000000177,12.363800548980556471
0.325000000000000178,12.164789200507092559
0.326000000000000179,11.967711765037687854
0.327000000000000179,11.772597235013723349
0.328000000000000180,11.579473444560630213
0.329000000000000181,11.388367021664674184
0.330000000000000182,11.199303345411440347
0.331000000000000183,11.012306508141602279
0.332000000000000184,10.827399282373473710
0.333000000000000185,10.644603092336243577
0.334000000000000186,10.463937989953350893
0.335000000000000187,10.285422635111803658
0.336000000000000187,10.109074280050080574
0.337000000000000188,9.934908757695565029
0.338000000000000189,9.762940473780362893
0.339000000000000190,9.593182402563879663
0.340000000000000191,9.425646085990337042
0.341000000000000192,9.260341636109467700
0.342000000000000193,9.097277740589669648
0.343000000000000194,8.936461671154152242
0.344000000000000195,8.777899294772595340
0.345000000000000195,8.621595087442553762
0.346000000000000196,8.467552150397956723
0.347000000000000197,8.315772228584533465
0.348000000000000198,8.166255731245392724
0.349000000000000199,8.019001754463344511
0.350000000000000200,7.874008105510272415
0.351000000000000201,7.731271328857765468
0.352000000000000202,7.590786733707339806
0.353000000000000203,7.452548422902748548
0.354000000000000203,7.316549323091164680
0.355000000000000204,7.182781216004817892
0.356000000000000205,7.051234770738753710
0.357000000000000206,6.921899576905230944
0.358000000000000207,6.794764178550087408
0.359000000000000208,6.669816108720707071
0.360000000000000209,6.547041924580105032
0.361000000000000210,6.426427242966425979
0.362000000000000210,6.307956776301537616
0.363000000000000211,6.191614368757244691
0.364000000000000212,6.077383032592079459
0.365000000000000213,5.965244984576195009
0.366000000000000214,5.855181682426341183
0.367000000000000215,5.747173861177263809
0.368000000000000216,5.641201569420017492
0.369000000000000217,5.537244205342197745
0.370000000000000218,5.435280552508793939
0.371000000000000218,5.335288815326715728
0.372000000000000219,5.237246654139690705
0.373000000000000220,5.141131219904083061
0.374000000000000221,5.046919188399920486
0.375000000000000222,4.954586793934948830
0.376000000000000223,4.864109862502737691
0.377000000000000224,4.775463844359573606
0.378000000000000225,4.688623845987715200
0.379000000000000226,4.603564661415906478
0.380000000000000226,4.520260802870702754
0.381000000000000227,4.438686530735439284
0.382000000000000228,4.358815882795848751
0.383000000000000229,4.280622702754388165
0.384000000000000230,4.204080667997549980
0.385000000000000231,4.129163316602781464
0.386000000000000232,4.055844073574127684
0.387000000000000233,3.984096276297458328
0.388000000000000234,3.913893199208563711
0.389000000000000234,3.845208077668984537
0.390000000000000235,3.778014131046444568
0.391000000000000236,3.712284584998413628
0.392000000000000237,3.647992692958874184
0.393000000000000238,3.585111756829930219
0.394000000000000239,3.523615146881325266
0.395000000000000240,3.463476320862162616
0.396000000000000241,3.404668842330451639
0.397000000000000242,3.347166398207209959
0.398000000000000242,3.290942815562850399
0.399000000000000243,3.235972077644730494
0.400000000000000244,3.182228339155426688
0.401000000000000245,3.129685940792261700
0.402000000000000246,3.078319423059452387
0.403000000000000247,3.028103539364669583
0.404000000000000248,2.979013268412689541
0.405000000000000249,2.931023825909272240
0.406000000000000250,2.884110675588893002
0.407000000000000250,2.838249539580419256
0.408000000000000251,2.793416408125231953
0.409000000000000252,2.749587548662625558
0.410000000000000253,2.706739514297568316
0.411000000000000254,2.664849151666246918
0.412000000000000255,2.623893608214941331
0.413000000000000256,2.583850338907907940
0.414000000000000257,2.544697112380252424
0.415000000000000258,2.506412016551569089
0.416000000000000258,2.468973463716480410
0.417000000000000259,2.432360195127971192
0.418000000000000260,2.396551285089617345
0.419000000000000261,2.361526144572536623
0.420000000000000262,2.327264524373084065
0.421000000000000263,2.293746517826949383
0.422000000000000264,2.260952563095467216
0.423000000000000265,2.228863445039579450
0.424000000000000266,2.197460296696855941
0.425000000000000266,2.166724600376842780
0.426000000000000267,2.136638188389673676
0.427000000000000268,2.107183243422801500
0.428000000000000269,2.078342298580465819
0.429000000000000270,2.050098237100180576
0.430000000000000271,2.022434291760444758
0.431000000000000272,1.995334043993461703
0.432000000000000273,1.968781422716536111
0.433000000000000274,1.942760702895409253
0.434000000000000274,1.917256503852619698
0.435000000000000275,1.892253787333664450
0.436000000000000276,1.867737855343393205
0.437000000000000277,1.843694347764862851
0.438000000000000278,1.820109239772519150
0.439000000000000279,1.796968839051281464
0.440000000000000280,1.774259782832831478
0.441000000000000281,1.751969034760113342
0.442000000000000282,1.730083881590640305
0.443000000000000282,1.708591929749092131
0.444000000000000283,1.687481101739197742
0.445000000000000284,1.666739632424704354
0.446000000000000285,1.646356065188924633
0.447000000000000286,1.626319247981960148
0.448000000000000287,1.606618329264589251
0.449000000000000288,1.587242753857284638
0.450000000000000289,1.568182258702755849
0.451000000000000290,1.549426868549950598
0.452000000000000290,1.530966891567252519
0.453000000000000291,1.512792914892352680
0.454000000000000292,1.494895800125907170
0.455000000000000293,1.477266678775924325
0.456000000000000294,1.459896947659472755
0.457000000000000295,1.442778264268091304
0.458000000000000296,1.425902542103034021
0.459000000000000297,1.409261945986152398
0.460000000000000298,1.392848887352082787
0.461000000000000298,1.376656019527074282
0.462000000000000299,1.360676232999586288
0.463000000000000300,1.344902650687600731
0.464000000000000301,1.329328623207250093
0.465000000000000302,1.313947724147290108
0.466000000000000303,1.298753745353625977
0.467000000000000304,1.283740692227888669
0.468000000000000305,1.268902779043975082
0.469000000000000306,1.254234424286105876
0.470000000000000306,1.239730246011833792
0.471000000000000307,1.225385057243347564
0.472000000000000308,1.211193861390015947
0.473000000000000309,1.197151847705138605
0.474000000000000310,1.183254386779613698
0.475000000000000311,1.169497026075057233
0.476000000000000312,1.155875485498794264
0.477000000000000313,1.142385653022910175
0.478000000000000314,1.129023580349546974
0.479000000000000314,1.115785478624263360
0.480000000000000315,1.102667714199378368
0.481000000000000316,1.089666804448874204
0.482000000000000317,1.076779413636473448
0.483000000000000318,1.064002348838234191
0.484000000000000319,1.051332555921000056
0.485000000000000320,1.038767115577873934
0.486000000000000321,1.026303239421751501
0.487000000000000322,1.013938266137875077
0.488000000000000322,1.001669657696331983
0.489000000000000323,0.989494995625102569
0.490000000000000324,0.977411977344464278
0.491000000000000325,0.965418412563219919
0.492000000000000326,0.953512219737288724
0.493000000000000327,0.941691422590996141
0.494000000000000328,0.929954146701444606
0.495000000000000329,0.918298616146131508
0.496000000000000330,0.906723150214079232
0.497000000000000330,0.895226160180421671
0.498000000000000331,0.883806146144685778
0.499000000000000332,0.872461693932531923
0.500000000000000333,0.861191472060980012
0.501000000000000334,0.849994228766984050
0.502000000000000335,0.838868789099054935
0.503000000000000336,0.827814052071800255
0.504000000000000337,0.816828987882978863
0.505000000000000338,0.805912635192803650
0.506000000000000338,0.795064098465048330
0.507000000000000339,0.784282545369559103
0.508000000000000340,0.773567204245722673
0.509000000000000341,0.762917361626318402
0.510000000000000342,0.752332359821332397
0.511000000000000343,0.741811594561033738
0.512000000000000344,0.731354512697854675
0.513000000000000345,0.720960609966361021
0.514000000000000346,0.710629428800676033
0.515000000000000346,0.700360556208744600
0.516000000000000347,0.690153621702697229
0.517000000000000348,0.680008295284596165
0.518000000000000349,0.669924285486898752
0.519000000000000350,0.659901337466807014
0.520000000000000351,0.649939231153844110
0.521000000000000352,0.640037779449763478
0.522000000000000353,0.630196826480162509
0.523000000000000353,0.620416245896834084
0.524000000000000354,0.610695939230206486
0.525000000000000355,0.601035834290944537
0.526000000000000356,0.591435883619986114
0.527000000000000357,0.581896062986107077
0.528000000000000358,0.572416369930254243
0.529000000000000359,0.562996822355759874
0.530000000000000360,0.553637457163669300
0.531000000000000361,0.544338328932261750
0.532000000000000361,0.535099508640001331
0.533000000000000362,0.525921082431038411
0.534000000000000363,0.516803150422454283
0.535000000000000364,0.507745825552369245
0.536000000000000365,0.498749232468154780
0.537000000000000366,0.489813506453832037
0.538000000000000367,0.480938792395936399
0.539000000000000368,0.472125243786898241
0.540000000000000369,0.463373021765263793
0.541000000000000369,0.454682294191808833
0.542000000000000370,0.446053234760875550
0.543000000000000371,0.437486022146012843
0.544000000000000372,0.428980839179201989
0.545000000000000373,0.420537872062864804
0.546000000000000374,0.412157309613857659
0.547000000000000375,0.403839342538724666
0.548000000000000376,0.395584162739393008
0.549000000000000377,0.387391962648617194
0.550000000000000377,0.379262934594361611
0.551000000000000378,0.371197270192472728
0.552000000000000379,0.363195159766810938
0.553000000000000380,0.355256791796231486
0.554000000000000381,0.347382352387635873
0.555000000000000382,0.339572024774403292
0.556000000000000383,0.331825988839581421
0.557000000000000384,0.324144420663046773
0.558000000000000385,0.316527492092098572
0.559000000000000385,0.308975370334722665
0.560000000000000386,0.301488217574933770
0.561000000000000387,0.294066190609559464
0.562000000000000388,0.286709440505838020
0.563000000000000389,0.279418112279191277
0.564000000000000390,0.272192344590616031
0.565000000000000391,0.265032269463064130
0.566000000000000392,0.257938012016268203
0.567000000000000393,0.250909690219368930
0.568000000000000393,0.243947414660902362
0.569000000000000394,0.237051288335482641
0.570000000000000395,0.230221406446700694
0.571000000000000396,0.223457856225730500
0.572000000000000397,0.216760716765046990
0.573000000000000398,0.210130058866856290
0.574000000000000399,0.203565944905637564
0.575000000000000400,0.197068428704389342
0.576000000000000401,0.190637555424091165
0.577000000000000401,0.184273361465844110
0.578000000000000402,0.177975874385347982
0.579000000000000403,0.171745112819215229
0.580000000000000404,0.165581086422633250
0.581000000000000405,0.159483795818080365
0.582000000000000406,0.153453232554547986
0.583000000000000407,0.147489379076953281
0.584000000000000408,0.141592208705314221
0.585000000000000409,0.135761685623284306
0.586000000000000409,0.129997764875730393
0.587000000000000410,0.124300392374887630
0.588000000000000411,0.118669504914863028
0.589000000000000412,0.113105030194000339
0.590000000000000413,0.107606886844886326
0.591000000000000414,0.102174984471583644
0.592000000000000415,0.096809223693813770
0.593000000000000416,0.091509496197755752
0.594000000000000417,0.086275684793173019
0.595000000000000417,0.081107663476521707
0.596000000000000418,0.076005297499842653
0.597000000000000419,0.070968443445042204
0.598000000000000420,0.065996949303404870
0.599000000000000421,0.061090654559955590
0.600000000000000422,0.056249390282506875
0.601000000000000423,0.051472979215110390
0.602000000000000424,0.046761235875631614
0.603000000000000425,0.042113966657250854
0.604000000000000425,0.037530969933684752
0.605000000000000426,0.033012036167833901
0.606000000000000427,0.028556948023677843
0.607000000000000428,0.024165480481272806
0.608000000000000429,0.019837400954480954
0.609000000000000430,0.015572469411458113
0.610000000000000431,0.011370438497495371
0.611000000000000432,0.007231053660182574
0.612000000000000433,0.003154053276650237
0.613000000000000433,-0.000860831217288194
0.614000000000000434,-0.004813875196231621
0.615000000000000435,-0.008705360712700016
0.616000000000000436,-0.012535576363189537
0.617000000000000437,-0.016304817152997066
0.618000000000000438,-0.020013384359857299
0.619000000000000439,-0.023661585396591210
0.620000000000000440,-0.027249733672910493
0.621000000000000441,-0.030778148456468934
0.622000000000000441,-0.034247154733323251
0.623000000000000442,-0.037657083067878419
0.624000000000000443,-0.041008269462489477
0.625000000000000444,-0.044301055216794359
0.626000000000000445,-0.047535786786887357
0.627000000000000446,-0.050712815644445478
0.628000000000000447,-0.053832498135918130
0.629000000000000448,-0.056895195341845117
0.630000000000000449,-0.059901272936402086
0.631000000000000449,-0.062851101047303598
0.632000000000000450,-0.065745054116072565
0.633000000000000451,-0.068583510758837812
0.634000000000000452,-0.071366853627645430
0.635000000000000453,-0.074095469272461356
0.636000000000000454,-0.076769748003826341
0.637000000000000455,-0.079390083756337826
0.638000000000000456,-0.081956873952919437
0.639000000000000457,-0.084470519370012265
0.640000000000000457,-0.086931424003737698
0.641000000000000458,-0.089339994937013611
0.642000000000000459,-0.091696642207804449
0.643000000000000460,-0.094001778678417330
0.644000000000000461,-0.096255819905991108
0.645000000000000462,-0.098459184014183992
0.646000000000000463,-0.100612291566079010
0.647000000000000464,-0.102715565438394066
0.648000000000000465,-0.104769430697010502
0.649000000000000465,-0.106774314473832149
0.650000000000000466,-0.108730645845059870
0.651000000000000467,-0.110638855710844378
0.652000000000000468,-0.112499376676422513
0.653000000000000469,-0.114312642934676287
0.654000000000000470,-0.116079090150233807
0.655000000000000471,-0.117799155345056056
0.656000000000000472,-0.119473276785558719
0.657000000000000473,-0.121101893871296246
0.658000000000000473,-0.122685447025231181
0.659000000000000474,-0.124224377585565038
0.660000000000000475,-0.125719127699196215
0.661000000000000476,-0.127170140216761818
0.662000000000000477,-0.128577858589342814
0.663000000000000478,-0.129942726766764438
0.664000000000000479,-0.131265189097584639
0.665000000000000480,-0.132545690230666591
0.666000000000000481,-0.133784675018493060
0.667000000000000481,-0.134982588422049660
0.668000000000000482,-0.136139875417452844
0.669000000000000483,-0.137256980904177539
0.670000000000000484,-0.138334349614997298
0.671000000000000485,-0.139372426027569385
0.672000000000000486,-0.140371654277677560
0.673000000000000487,-0.141332478074173290
0.674000000000000488,-0.142255340615534992
0.675000000000000488,-0.143140684508102606
0.676000000000000489,-0.143988951685994349
0.677000000000000490,-0.144800583332608312
0.678000000000000491,-0.145576019803821566
0.679000000000000492,-0.146315700552795663
0.680000000000000493,-0.147020064056412936
0.681000000000000494,-0.147689547743341809
0.682000000000000495,-0.148324587923690354
0.683000000000000496,-0.148925619720289004
0.684000000000000496,-0.149493077001542851
0.685000000000000497,-0.150027392315861124
0.686000000000000498,-0.150528996827682782
0.687000000000000499,-0.150998320255019081
0.688000000000000500,-0.151435790808573778
0.689000000000000501,-0.151841835132378533
0.690000000000000502,-0.152216878245961584
0.691000000000000503,-0.152561343488013840
0.692000000000000504,-0.152875652461529482
0.693000000000000504,-0.153160224980478016
0.694000000000000505,-0.153415479017869394
0.695000000000000506,-0.153641830655334405
0.696000000000000507,-0.153839694034102858
0.697000000000000508,-0.154009481307395224
0.698000000000000509,-0.154151602594252590
0.699000000000000510,-0.154266465934723707
0.700000000000000511,-0.154354477246430311
0.701000000000000512,-0.154416040282507605
0.702000000000000512,-0.154451556590853523
0.703000000000000513,-0.154461425474725966
0.704000000000000514,-0.154446043954641066
0.705000000000000515,-0.154405806731552409
0.706000000000000516,-0.154341106151310775
0.707000000000000517,-0.154252332170392081
0.708000000000000518,-0.154139872322817367
0.709000000000000519,-0.154004111688379353
0.710000000000000520,-0.153845432861979159
0.711000000000000520,-0.153664215924216890
0.712000000000000521,-0.153460838413131129
0.713000000000000522,-0.153235675297075657
0.714000000000000523,-0.152989098948766417
0.715000000000000524,-0.152721479120413284
0.716000000000000525,-0.152433182919972765
0.717000000000000526,-0.152124574788490591
0.718000000000000527,-0.151796016478473489
0.719000000000000528,-0.151447867033346117
0.720000000000000528,-0.151080482767952579
0.721000000000000529,-0.150694217250008589
0.722000000000000530,-0.150289421282630065
0.723000000000000531,-0.149866442887767792
0.724000000000000532,-0.149425627290673435
0.725000000000000533,-0.148967316905270486
0.726000000000000534,-0.148491851320451729
0.727000000000000535,-0.147999567287318806
0.728000000000000536,-0.147490798707295312
0.729000000000000536,-0.146965876621117320
0.730000000000000537,-0.146425129198715837
0.731000000000000538,-0.145868881729902033
0.732000000000000539,-0.145297456615922332
0.733000000000000540,-0.144711173361804862
0.734000000000000541,-0.144110348569516544
0.735000000000000542,-0.143495295931880540
0.736000000000000543,-0.142866326227300500
0.737000000000000544,-0.142223747315186416
0.738000000000000544,-0.141567864132160048
0.739000000000000545,-0.140898978688952292
0.740000000000000546,-0.140217390068011594
0.741000000000000547,-0.139523394421797647
0.742000000000000548,-0.138817284971790050
0.743000000000000549,-0.138099352008071607
0.744000000000000550,-0.137369882889647549
0.745000000000000551,-0.136629162045331376
0.746000000000000552,-0.135877470975288434
0.747000000000000552,-0.135115088253158822
0.748000000000000553,-0.134342289528765618
0.749000000000000554,-0.133559347531414380
0.750000000000000555,-0.132766532073738924
0.751000000000000556,-0.131964110056099648
0.752000000000000557,-0.131152345471530513
0.753000000000000558,-0.130331499411150853
0.754000000000000559,-0.129501830070172075
0.755000000000000560,-0.128663592754312689
0.756000000000000560,-0.127817039886765682
0.757000000000000561,-0.126962421015570037
0.758000000000000562,-0.126099982821485934
0.759000000000000563,-0.125229969126304630
0.760000000000000564,-0.124352620901580918
0.761000000000000565,-0.123468176277783254
0.762000000000000566,-0.122576870553870038
0.763000000000000567,-0.121678936207246763
0.764000000000000568,-0.120774602904109768
0.765000000000000568,-0.119864097510186979
0.766000000000000569,-0.118947644101804001
0.767000000000000570,-0.118025463977341080
0.768000000000000571,-0.117097775668999080
0.769000000000000572,-0.116164794954919853
0.770000000000000573,-0.115226734871614500
0.771000000000000574,-0.114283805726713081
0.772000000000000575,-0.113336215112010780
0.773000000000000576,-0.112384167916786043
0.774000000000000576,-0.111427866341433507
0.775000000000000577,-0.110467509911343645
0.776000000000000578,-0.109503295491045385
0.777000000000000579,-0.108535417298625453
0.778000000000000580,-0.107564066920348450
0.779000000000000581,-0.106589433325553221
0.780000000000000582,-0.105611702881743194
0.781000000000000583,-0.104631059369926185
0.782000000000000584,-0.103647684000126389
0.783000000000000584,-0.102661755427116669
0.784000000000000585,-0.101673449766352911
0.785000000000000586,-0.100682940610058863
0.786000000000000587,-0.099690399043529096
0.787000000000000588,-0.098695993661560594
0.788000000000000589,-0.097699890585064897
0.789000000000000590,-0.096702253477844224
0.790000000000000591,-0.095703243563486223
0.791000000000000592,-0.094703019642412747
0.792000000000000592,-0.093701738109065277
0.793000000000000593,-0.092699552969196672
0.794000000000000594,-0.091696615857302086
0.795000000000000595,-0.090693076054148974
0.796000000000000596,-0.089689080504405633
0.797000000000000597,-0.088684773834382932
0.798000000000000598,-0.087680298369863102
0.799000000000000599,-0.086675794153997357
0.800000000000000600,-0.085671398965321194
0.801000000000000600,-0.084667248335802789
0.802000000000000601,-0.083663475568978907
0.803000000000000602,-0.082660211758159699
0.804000000000000603,-0.081657585804677010
0.805000000000000604,-0.080655724436199325
0.806000000000000605,-0.079654752225065240
0.807000000000000606,-0.078654791606698554
0.808000000000000607,-0.077655962898025149
0.809000000000000608,-0.076658384315934747
0.810000000000000608,-0.075662171995790062
0.811000000000000609,-0.074667440009891534
0.812000000000000610,-0.073674300386063291
0.813000000000000611,-0.072682863126142666
0.814000000000000612,-0.071693236224553147
0.815000000000000613,-0.070705525686864154
0.816000000000000614,-0.069719835548328474
0.817000000000000615,-0.068736267892430994
0.818000000000000616,-0.067754922869448980
0.819000000000000616,-0.066775898714965448
0.820000000000000617,-0.065799291768380758
0.821000000000000618,-0.064825196491417450
0.822000000000000619,-0.063853705486596371
0.823000000000000620,-0.062884909515670745
0.824000000000000621,-0.061918897518038654
0.825000000000000622,-0.060955756629145652
0.826000000000000623,-0.059995572198819035
0.827000000000000624,-0.059038427809574287
0.828000000000000624,-0.058084405294892914
0.829000000000000625,-0.057133584757421772
0.830000000000000626,-0.056186044587166341
0.831000000000000627,-0.055241861479602181
0.832000000000000628,-0.054301110453747595
0.833000000000000629,-0.053363864870170530
0.834000000000000630,-0.052430196448943346
0.835000000000000631,-0.051500175287533513
0.836000000000000631,-0.050573869878632993
0.837000000000000632,-0.049651347127927264
0.838000000000000633,-0.048732672371774408
0.839000000000000634,-0.047817909394836280
0.840000000000000635,-0.046907120447637861
0.841000000000000636,-0.046000366264026718
0.842000000000000637,-0.045097706078589712
0.843000000000000638,-0.044199197643961706
0.844000000000000639,-0.043304897248076582
0.845000000000000639,-0.042414859731322585
0.846000000000000640,-0.041529138503608946
0.847000000000000641,-0.040647785561380649
0.848000000000000642,-0.039770851504493221
0.849000000000000643,-0.038898385553039073
0.850000000000000644,-0.038030435564084662
0.851000000000000645,-0.037167048048283947
0.852000000000000646,-0.036308268186424977
0.853000000000000647,-0.035454139845887037
0.854000000000000647,-0.034604705596974664
0.855000000000000648,-0.033760006729181627
0.856000000000000649,-0.032920083267347022
0.857000000000000650,-0.032084973987715218
0.858000000000000651,-0.031254716433885409
0.859000000000000652,-0.030429346932672029
0.860000000000000653,-0.029608900609874395
0.861000000000000654,-0.028793411405899156
0.862000000000000655,-0.027982912091340122
0.863000000000000655,-0.027177434282401925
0.864000000000000656,-0.026377008456252581
0.865000000000000657,-0.025581663966239260
0.866000000000000658,-0.024791429057033527
0.867000000000000659,-0.024006330879649269
0.868000000000000660,-0.023226395506338236
0.869000000000000661,-0.022451647945403757
0.870000000000000662,-0.021682112155890242
0.871000000000000663,-0.020917811062187187
0.872000000000000663,-0.020158766568465623
0.873000000000000664,-0.019404999573077411
0.874000000000000665,-0.018656529982788699
0.875000000000000666,-0.017913376726931350
0.876000000000000667,-0.017175557771428020
0.877000000000000668,-0.016443090132708883
0.878000000000000669,-0.015715989891531106
0.879000000000000670,-0.014994272206656296
0.880000000000000671,-0.014277951328448044
0.881000000000000671,-0.013567040612325309
0.882000000000000672,-0.012861552532137333
0.883000000000000673,-0.012161498693389273
0.884000000000000674,-0.011466889846390540
0.885000000000000675,-0.010777735899257308
0.886000000000000676,-0.010094045930826750
0.887000000000000677,-0.009415828203448152
0.888000000000000678,-0.008743090175652123
0.889000000000000679,-0.008075838514728980
0.890000000000000679,-0.007414079109175328
0.891000000000000680,-0.006757817081035097
0.892000000000000681,-0.006107056798127880
0.893000000000000682,-0.005461801886158751
0.894000000000000683,-0.004822055240724066
0.895000000000000684,-0.004187819039202236
0.896000000000000685,-0.003559094752533304
0.897000000000000686,-0.002935883156877960
0.898000000000000687,-0.002318184345176158
0.899000000000000687,-0.001705997738593623
0.900000000000000688,-0.001099322097845917
0.901000000000000689,-0.000498155534423464
0.902000000000000690,0.000097504478292726
0.903000000000000691,0.000687661094041486
0.904000000000000692,0.001272318082780455
0.905000000000000693,0.001851479819916790
0.906000000000000694,0.002425151275620640
0.907000000000000695,0.002993338004277224
0.908000000000000695,0.003556046134019833
0.909000000000000696,0.004113282356394882
0.910000000000000697,0.004665053916109546
0.911000000000000698,0.005211368600914246
0.912000000000000699,0.005752234731567158
0.913000000000000700,0.006287661151911955
0.914000000000000701,0.006817657219084195
0.915000000000000702,0.007342232793781045
0.916000000000000703,0.007861398230669900
0.917000000000000703,0.008375164368887179
0.918000000000000704,0.008883542522640554
0.919000000000000705,0.009386544471927267
0.920000000000000706,0.009884182453330620
0.921000000000000707,0.010376469150944156
0.922000000000000708,0.010863417687387227
0.923000000000000709,0.011345041614907597
0.924000000000000710,0.011821354906615785
0.925000000000000711,0.012292371947789871
0.926000000000000711,0.012758107527296590
0.927000000000000712,0.013218576829106071
0.928000000000000713,0.013673795423910822
0.929000000000000714,0.014123779260813058
0.930000000000000715,0.014568544659163907
0.931000000000000716,0.015008108300455719
0.932000000000000717,0.015442487220311640
0.933000000000000718,0.015871698800598518
0.934000000000000719,0.016295760761603797
0.935000000000000719,0.016714691154327412
0.936000000000000720,0.017128508352858174
0.937000000000000721,0.017537231046845743
0.938000000000000722,0.017940878234055001
0.939000000000000723,0.018339469213029518
0.940000000000000724,0.018733023575837976
0.941000000000000725,0.019121561200898141
0.942000000000000726,0.019505102245908530
0.943000000000000727,0.019883667140865646
0.944000000000000727,0.020257276581157852
0.945000000000000728,0.020625951520756143
0.946000000000000729,0.020989713165503583
0.947000000000000730,0.021348582966452933
0.948000000000000731,0.021702582613342673
0.949000000000000732,0.022051734028105469
0.950000000000000733,0.022396059358510679
0.951000000000000734,0.022735580971836734
0.952000000000000735,0.023070321448676021
0.953000000000000735,0.023400303576800032
0.954000000000000736,0.023725550345097563
0.955000000000000737,0.024046084937613003
0.956000000000000738,0.024361930727647484
0.957000000000000739,0.024673111271955067
0.958000000000000740,0.024979650305002273
0.959000000000000741,0.025281571733328116
0.960000000000000742,0.025578899629949990
0.961000000000000743,0.025871658228876011
0.962000000000000743,0.026159871919683358
0.963000000000000744,0.026443565242163191
0.964000000000000745,0.026722762881050011
0.965000000000000746,0.026997489660829793
0.966000000000000747,0.027267770540606241
0.967000000000000748,0.027533630609061128
0.968000000000000749,0.027795095079460468
0.969000000000000750,0.028052189284760463
0.970000000000000751,0.028304938672758767
0.971000000000000751,0.028553368801336389
0.972000000000000752,0.028797505333768653
0.973000000000000753,0.029037374034073627
0.974000000000000754,0.029273000762474709
0.975000000000000755,0.029504411470901735
0.976000000000000756,0.029731632198565332
0.977000000000000757,0.029954689067605029
0.978000000000000758,0.030173608278790433
0.979000000000000759,0.030388416107291750
0.980000000000000759,0.030599138898531952
0.981000000000000760,0.030805803064073510
0.982000000000000761,0.031008435077585661
0.983000000000000762,0.031207061470877658
0.984000000000000763,0.031401708829990146
0.985000000000000764,0.031592403791330853
0.986000000000000765,0.031779173037903230
0.987000000000000766,0.031962043295567635
0.988000000000000766,0.032141041329381448
0.989000000000000767,0.032316193939980524
0.990000000000000768,0.032487527960024118
0.991000000000000769,0.032655070250716456
0.992000000000000770,0.032818847698364746
0.993000000000000771,0.032978887210979281
0.994000000000000772,0.033135215714983735
0.995000000000000773,0.033287860151912596
0.996000000000000774,0.033436847475221090
0.997000000000000774,0.033582204647109752
0.998000000000000775,0.033723958635426300
0.999000000000000776,0.033862136410606931
1.000000000000000666,0.033996764942679357
1.001000000000000778,0.034127871198306278
1.002000000000000668,0.034255482137895525
1.003000000000000780,0.034379624712745034
1.004000000000000670,0.034500325862252268
1.005000000000000782,0.034617612511159253
1.006000000000000671,0.034731511566854237
1.007000000000000783,0.034842049916728311
1.008000000000000673,0.034949254425564832
1.009000000000000785,0.035053151932986214
1.010000000000000675,0.035153769250948902
1.011000000000000787,0.035251133161275268
1.012000000000000677,0.035345270413242320
1.013000000000000789,0.035436207721203559
1.014000000000000679,0.035523971762274134
1.015000000000000790,0.035608589174034186
1.016000000000000680,0.035690086552298446
1.017000000000000792,0.035768490448915093
1.018000000000000682,0.035843827369624617
1.019000000000000794,0.035916123771934649
1.020000000000000684,0.035985406063051603
1.021000000000000796,0.036051700597861572
1.022000000000000686,0.036115033676939370
1.023000000000000798,0.036175431544592671
1.024000000000000687,0.036232920386964726
1.025000000000000799,0.036287526330162752
1.026000000000000689,0.036339275438418243
1.027000000000000801,0.036388193712308461
1.028000000000000691,0.036434307086995875
1.029000000000000803,0.036477641430506434
1.030000000000000693,0.036518222542063064
1.031000000000000805,0.036556076150421023
1.032000000000000695,0.036591227912278840
1.033000000000000806,0.036623703410697914
1.034000000000000696,0.036653528153556741
1.035000000000000808,0.036680727572065280
1.036000000000000698,0.036705327019284237
1.037000000000000810,0.036727351768681957
1.038000000000000700,0.036746827012749492
1.039000000000000812,0.036763777861623374
1.040000000000000702,0.036778229341739806
1.041000000000000814,0.036790206394539268
1.042000000000000703,0.036799733875196354
1.043000000000000815,0.036806836551363152
1.044000000000000705,0.036811539101964066
1.045000000000000817,0.036813866116021159
1.046000000000000707,0.036813842091488760
1.047000000000000819,0.036811491434137880
1.048000000000000709,0.036806838456460579
1.049000000000000821,0.036799907376609438
1.050000000000000711,0.036790722317356542
1.051000000000000822,0.036779307305083393
1.052000000000000712,0.036765686268804637
1.053000000000000824,0.036749883039209168
1.054000000000000714,0.036731921347736576
1.055000000000000826,0.036711824825672160
1.056000000000000716,0.036689617003275381
1.057000000000000828,0.036665321308924255
1.058000000000000718,0.036638961068303950
1.059000000000000830,0.036610559503595361
1.060000000000000719,0.036580139732704520
1.061000000000000831,0.036547724768510301
1.062000000000000721,0.036513337518148642
1.063000000000000833,0.036477000782288029
1.064000000000000723,0.036438737254471498
1.065000000000000835,0.036398569520451243
1.066000000000000725,0.036356520057545458
1.067000000000000837,0.036312611234048088
1.068000000000000727,0.036266865308609841
1.069000000000000838,0.036219304429695440
1.070000000000000728,0.036169950635019946
1.071000000000000840,0.036118825851028803
1.072000000000000730,0.036065951892389259
1.073000000000000842,0.036011350461501321
1.074000000000000732,0.035955043148048177
1.075000000000000844,0.035897051428526713
1.076000000000000734,0.035837396665833590
1.077000000000000846,0.035776100108861078
1.078000000000000735,0.035713182892097642
1.079000000000000847,0.035648666035271948
1.080000000000000737,0.035582570442978037
1.081000000000000849,0.035514916904364729
1.082000000000000739,0.035445726092809347
1.083000000000000851,0.035375018565616534
1.084000000000000741,0.035302814763732863
1.085000000000000853,0.035229135011495612
1.086000000000000743,0.035153999516372152
1.087000000000000854,0.035077428368726314
1.088000000000000744,0.034999441541608445
1.089000000000000856,0.034920058890553794
1.090000000000000746,0.034839300153397049
1.091000000000000858,0.034757184950096394
1.092000000000000748,0.034673732782589416
1.093000000000000860,0.034588963034639666
1.094000000000000750,0.034502894971728662
1.095000000000000862,0.034415547740924805
1.096000000000000751,0.034326940370797358
1.097000000000000863,0.034237091771338060
1.098000000000000753,0.034146020733874974
1.099000000000000865,0.034053745931029035
1.100000000000000755,0.033960285916666492
1.101000000000000867,0.033865659125869044
1.102000000000000757,0.033769883874911630
1.103000000000000869,0.033672978361259195
1.104000000000000759,0.033574960663580414
1.105000000000000870,0.033475848741750101
1.106000000000000760,0.033375660436900698
1.107000000000000872,0.033274413471443220
1.108000000000000762,0.033172125449134775
1.109000000000000874,0.033068813855130233
1.110000000000000764,0.032964496056076292
1.111000000000000876,0.032859189300181162
1.112000000000000766,0.032752910717317528
1.113000000000000878,0.032645677319127396
1.114000000000000767,0.032537505999138572
1.115000000000000879,0.032428413532898867
1.116000000000000769,0.032318416578103783
1.117000000000000881,0.032207531674750600
1.118000000000000771,0.032095775245287742
1.119000000000000883,0.031983163594782579
1.120000000000000773,0.031869712911096894
1.121000000000000885,0.031755439265065889
1.122000000000000774,0.031640358610699672
1.123000000000000886,0.031524486785372674
1.124000000000000776,0.031407839510030476
1.125000000000000888,0.031290432389423917
1.126000000000000778,0.031172280912317586
1.127000000000000890,0.031053400451721204
1.128000000000000780,0.030933806265145823
1.129000000000000892,0.030813513494835777
1.130000000000000782,0.030692537168030443
1.131000000000000894,0.030570892197230880
1.132000000000000783,0.030448593380463233
1.133000000000000895,0.030325655401550900
1.134000000000000785,0.030202092830415396
1.135000000000000897,0.030077920123343128
1.136000000000000787,0.029953151623301377
1.137000000000000899,0.029827801560228108
1.138000000000000789,0.029701884051352399
1.139000000000000901,0.029575413101491498
1.140000000000000790,0.029448402603389691
1.141000000000000902,0.029320866338039448
1.142000000000000792,0.029192817975008944
1.143000000000000904,0.029064271072785884
1.144000000000000794,0.028935239079108988
1.145000000000000906,0.028805735331338105
1.146000000000000796,0.028675773056783503
1.147000000000000908,0.028545365373079605
1.148000000000000798,0.028414525288544511
1.149000000000000909,0.028283265702544795
1.150000000000000799,0.028151599405875860
1.151000000000000689,0.028019539081131473
1.152000000000000801,0.027887097303087971
1.153000000000000913,0.027754286539087070
1.154000000000000803,0.027621119149435235
1.155000000000000693,0.027487607387790304
1.156000000000000805,0.027353763401554404
1.157000000000000917,0.027219599232293695
1.158000000000000806,0.027085126816121706
1.159000000000000696,0.026950357984124641
1.160000000000000808,0.026815304462770029
1.161000000000000920,0.026679977874320138
1.162000000000000810,0.026544389737249995
1.163000000000000700,0.026408551466675433
1.164000000000000812,0.026272474374776467
1.165000000000000924,0.026136169671229136
1.166000000000000814,0.025999648463626512
1.167000000000000703,0.025862921757929834
1.168000000000000815,0.025726000458885255
1.169000000000000927,0.025588895370487329
1.170000000000000817,0.025451617196401165
1.171000000000000707,0.025314176540420851
1.172000000000000819,0.025176583906905158
1.173000000000000931,0.025038849701238486
1.174000000000000821,0.024900984230275668
1.175000000000000711,0.024762997702798654
1.176000000000000822,0.024624900229968799
1.177000000000000934,0.024486701825791574
1.178000000000000824,0.024348412407566404
1.179000000000000714,0.024210041796363730
1.180000000000000826,0.024071599717465929
1.181000000000000938,0.023933095800858055
1.182000000000000828,0.023794539581674146
1.183000000000000718,0.023655940500671414
1.184000000000000830,0.023517307904703241
1.185000000000000941,0.023378651047190311
1.186000000000000831,0.023239979088584627
1.187000000000000721,0.023101301096853984
1.188000000000000833,0.022962626047947614
1.189000000000000945,0.022823962826275128
1.190000000000000835,0.022685320225180636
1.191000000000000725,0.022546706947430314
1.192000000000000837,0.022408131605672267
1.193000000000000949,0.022269602722937022
1.194000000000000838,0.022131128733100591
1.195000000000000728,0.021992717981375635
1.196000000000000840,0.021854378724789257
1.197000000000000952,0.021716119132658983
1.198000000000000842,0.021577947287092215
1.199000000000000732,0.021439871183443322
1.200000000000000844,0.021301898730829091
1.201000000000000956,0.021164037752582535
1.202000000000000846,0.021026295986753422
1.203000000000000735,0.020888681086592448
1.204000000000000847,0.020751200621033108
1.205000000000000959,0.020613862075167896
1.206000000000000849,0.020476672850748584
1.207000000000000739,0.020339640266662695
1.208000000000000851,0.020202771559416830
1.209000000000000963,0.020066073883629722
1.210000000000000853,0.019929554312501919
1.211000000000000743,0.019793219838321156
1.212000000000000854,0.019657077372925203
1.213000000000000966,0.019521133748210510
1.214000000000000856,0.019385395716587199
1.215000000000000746,0.019249869951488991
1.216000000000000858,0.019114563047840327
1.217000000000000970,0.018979481522547186
1.218000000000000860,0.018844631814977076
1.219000000000000750,0.018710020287443185
1.220000000000000862,0.018575653225679195
1.221000000000000973,0.018441536839330686
1.222000000000000863,0.018307677262427716
1.223000000000000753,0.018174080553868481
1.224000000000000865,0.018040752697897615
1.225000000000000977,0.017907699604584708
1.226000000000000867,0.017774927110299512
1.227000000000000757,0.017642440978196040
1.228000000000000869,0.017510246898685002
1.229000000000000981,0.017378350489900236
1.230000000000000870,0.017246757298195654
1.231000000000000760,0.017115472798596439
1.232000000000000872,0.016984502395276935
1.233000000000000984,0.016853851422051903
1.234000000000000874,0.016723525142815859
1.235000000000000764,0.016593528752040423
1.236000000000000876,0.016463867375225972
1.237000000000000988,0.016334546069380500
1.238000000000000878,0.016205569823477709
1.239000000000000767,0.016076943558932022
1.240000000000000879,0.015948672130052209
1.241000000000000991,0.015820760324514870
1.242000000000000881,0.015693212863822099
1.243000000000000771,0.015566034403763205
1.244000000000000883,0.015439229534873164
1.245000000000000995,0.015312802782894024
1.246000000000000885,0.015186758609228473
1.247000000000000774,0.015061101411402456
1.248000000000000886,0.014935835523512358
1.249000000000000998,0.014810965216684929
1.250000000000000888,0.014686494699521610
1.251000000000000778,0.014562428118559087
1.252000000000000890,0.014438769558708469
1.253000000000001002,0.014315523043714451
1.254000000000000892,0.014192692536588145
1.255000000000000782,0.014070281940064922
1.256000000000000894,0.013948295097043147
1.257000000000001005,0.013826735791021283
1.258000000000000895,0.013705607746545861
1.259000000000000785,0.013584914629647204
1.260000000000000897,0.013464660048278837
1.261000000000001009,0.013344847552748390
1.262000000000000899,0.013225480636159515
1.263000000000000789,0.013106562734840576
1.264000000000000901,0.012988097228772841
1.265000000000001013,0.012870087442030623
1.266000000000000902,0.012752536643195922
1.267000000000000792,0.012635448045796985
1.268000000000000904,0.012518824808723905
1.269000000000001016,0.012402670036658323
1.270000000000000906,0.012286986780489312
1.271000000000000796,0.012171778037738881
1.272000000000000908,0.012057046752978386
1.273000000000001020,0.011942795818240693
1.274000000000000909,0.011829028073441583
1.275000000000000799,0.011715746306790708
1.276000000000000911,0.011602953255197054
1.277000000000001023,0.011490651604688696
1.278000000000000913,0.011378843990815360
1.279000000000000803,0.011267532999051505
1.280000000000000915,0.011156721165201989
1.281000000000001027,0.011046410975816118
1.282000000000000917,0.010936604868569755
1.283000000000000806,0.010827305232679931
1.284000000000000918,0.010718514409290007
1.285000000000001030,0.010610234691877610
1.286000000000000920,0.010502468326635999
1.287000000000000810,0.010395217512877534
1.288000000000000922,0.010288484403411713
1.289000000000001034,0.010182271104943633
1.290000000000000924,0.010076579678460007
1.291000000000000814,0.009971412139600209
1.292000000000000925,0.009866770459063659
1.293000000000001037,0.009762656562962314
1.294000000000000927,0.009659072333219051
1.295000000000000817,0.009556019607945531
1.296000000000000929,0.009453500181802780
1.297000000000001041,0.009351515806390334
1.298000000000000931,0.009250068190609102
1.299000000000000821,0.009149159001030586
1.300000000000000933,0.009048789862276165
1.301000000000001044,0.008948962357366105
1.302000000000000934,0.008849678028099351
1.303000000000000824,0.008750938375402318
1.304000000000000936,0.008652744859706338
1.305000000000001048,0.008555098901287229
1.306000000000000938,0.008458001880636562
1.307000000000000828,0.008361455138808677
1.308000000000000940,0.008265459977780335
1.309000000000001052,0.008170017660792537
1.310000000000000941,0.008075129412711279
1.311000000000000831,0.007980796420361924
1.312000000000000943,0.007887019832891123
1.313000000000001055,0.007793800762092009
1.314000000000000945,0.007701140282761537
1.315000000000000835,0.007609039433032999
1.316000000000000947,0.007517499214712261
1.317000000000001059,0.007426520593618760
1.318000000000000949,0.007336104499923365
1.319000000000000838,0.007246251828464130
1.320000000000000950,0.007156963439096627
1.321000000000001062,0.007068240157012911
1.322000000000000952,0.006980082773065331
1.323000000000000842,0.006892492044101492
1.324000000000000954,0.006805468693277586
1.325000000000001066,0.006719013410387038
1.326000000000000956,0.006633126852172495
1.327000000000000846,0.006547809642648698
1.328000000000000957,0.006463062373416617
1.329000000000001069,0.006378885603980658
1.330000000000000959,0.006295279862050094
1.331000000000000849,0.006212245643859182
1.332000000000000961,0.006129783414476041
1.333000000000001073,0.006047893608103709
1.334000000000000963,0.005966576628383508
1.335000000000000853,0.005885832848701548
1.336000000000000965,0.005805662612491218
1.337000000000001076,0.005726066233525702
1.338000000000000966,0.005647043996223652
1.339000000000000856,0.005568596155934788
1.340000000000000968,0.005490722939241447
1.341000000000001080,0.005413424544248401
1.342000000000000970,0.005336701140870967
1.343000000000000860,0.005260552871121081
1.344000000000000972,0.005184979849402432
1.345000000000001084,0.005109982162782204
1.346000000000000973,0.005035559871284618
1.347000000000000863,0.004961713008165552
1.348000000000000975,0.004888441580197197
1.349000000000001087,0.004815745567941530
1.350000000000000977,0.004743624926020195
1.351000000000000867,0.004672079583397258
1.352000000000000979,0.004601109443656635
1.353000000000001091,0.004530714385251629
1.354000000000000981,0.004460894261791695
1.355000000000000870,0.004391648902303666
1.356000000000000982,0.004322978111494511
1.357000000000001094,0.004254881670014967
1.358000000000000984,0.004187359334725482
1.359000000000000874,0.004120410838949272
1.360000000000000986,0.004054035892740038
1.361000000000001098,0.003988234183120061
1.362000000000000988,0.003923005374358890
1.363000000000000878,0.003858349108208516
1.364000000000000989,0.003794265004154691
1.365000000000001101,0.003730752659682944
1.366000000000000991,0.003667811650505823
1.367000000000000881,0.003605441530821879
1.368000000000000993,0.003543641833552895
1.369000000000001105,0.003482412070592795
1.370000000000000995,0.003421751733044283
1.371000000000000885,0.003361660291458869
1.372000000000000997,0.003302137196077518
1.373000000000001108,0.003243181877058062
1.374000000000000998,0.003184793744725083
1.375000000000000888,0.003126972189786168
1.376000000000001000,0.003069716583568492
1.377000000000001112,0.003013026278258209
1.378000000000001002,0.002956900607111246
1.379000000000000892,0.002901338884692509
1.380000000000001004,0.002846340407097441
1.381000000000001116,0.002791904452167515
1.382000000000001005,0.002738030279721976
1.383000000000000895,0.002684717131774637
1.384000000000001007,0.002631964232747174
1.385000000000001119,0.002579770789691702
1.386000000000001009,0.002528135992499034
1.387000000000000899,0.002477059014128603
1.388000000000001011,0.002426539010790428
1.389000000000001123,0.002376575122186721
1.390000000000001013,0.002327166471702968
1.391000000000000902,0.002278312166619219
1.392000000000001014,0.002230011298318515
1.393000000000001126,0.002182262942486701
1.394000000000001016,0.002135066159315256
1.395000000000000906,0.002088419993706567
1.396000000000001018,0.002042323475473343
1.397000000000001130,0.001996775619532120
1.398000000000001020,0.001951775426101918
1.399000000000000909,0.001907321880902635
1.400000000000001021,0.001863413955344993
1.401000000000001133,0.001820050606722627
1.402000000000001023,0.001777230778405631
1.403000000000000913,0.001734953400031543
1.404000000000001025,0.001693217387684769
1.405000000000001137,0.001652021644091108
1.406000000000001027,0.001611365058802635
1.407000000000000917,0.001571246508369681
1.408000000000001029,0.001531664856542436
1.409000000000001140,0.001492618954436398
1.410000000000001030,0.001454107640713557
1.411000000000000920,0.001416129741768742
1.412000000000001032,0.001378684071897256
1.413000000000001144,0.001341769433472222
1.414000000000001034,0.001305384617121864
1.415000000000000924,0.001269528401901162
1.416000000000001036,0.001234199555453141
1.417000000000001148,0.001199396834191362
1.418000000000001037,0.001165118983464830
1.419000000000000927,0.001131364737720978
1.420000000000001039,0.001098132820673569
1.421000000000001151,0.001065421945463665
1.422000000000001041,0.001033230814833835
1.423000000000000931,0.001001558121273741
1.424000000000001043,0.000970402547190615
1.425000000000001155,0.000939762765068067
1.426000000000001044,0.000909637437619403
1.427000000000000934,0.000880025217946345
1.428000000000001046,0.000850924749692940
1.429000000000001158,0.000822334667205225
1.430000000000001048,0.000794253595671537
1.431000000000000938,0.000766680151289943
1.432000000000001050,0.000739612941402513
1.433000000000001162,0.000713050564651968
1.434000000000001052,0.000686991611133774
1.435000000000000941,0.000661434662529693
1.436000000000001053,0.000636378292267092
1.437000000000001165,0.000611821065652855
1.438000000000001055,0.000587761540017407
1.439000000000000945,0.000564198264860824
1.440000000000001057,0.000541129781986653
1.441000000000001169,0.000518554625650563
1.442000000000001059,0.000496471322686182
1.443000000000000949,0.000474878392649461
1.444000000000001060,0.000453774347954177
1.445000000000001172,0.000433157694003752
1.446000000000001062,0.000413026929320798
1.447000000000000952,0.000393380545689845
1.448000000000001064,0.000374217028278443
1.449000000000001176,0.000355534855768630
1.450000000000001066,0.000337332500490926
1.451000000000000956,0.000319608428545095
1.452000000000001068,0.000302361099932465
1.453000000000001180,0.000285588968672190
1.454000000000001069,0.000269290482940418
1.455000000000000959,0.000253464085175853
1.456000000000001071,0.000238108212213772
1.457000000000001183,0.000223221295402788
1.458000000000001073,0.000208801760723153
1.459000000000000963,0.000194848028909690
1.460000000000001075,0.000181358515567583
1.461000000000001187,0.000168331631285343
1.462000000000001076,0.000155765781754192
1.463000000000000966,0.000143659367883978
1.464000000000001078,0.000132010785911043
1.465000000000001190,0.000120818427516295
1.466000000000001080,0.000110080679932073
1.467000000000000970,0.000099795926056779
1.468000000000001082,0.000089962544558558
1.469000000000001194,0.000080578909992844
1.470000000000001084,0.000071643392898459
1.471000000000000973,0.000063154359912897
1.472000000000001085,0.000055110173867743
1.473000000000001197,0.000047509193910030
1.474000000000001087,0.000040349775583697
1.475000000000000977,0.000033630270952348
1.476000000000001089,0.000027349028686901
1.477000000000001201,0.000021504394170301
1.478000000000001091,0.000016094709599356
1.479000000000000981,0.000011118314082581
1.480000000000001092,0.000006573543733029
1.481000000000001204,0.000002458731774068
1.482000000000001094,-0.000001227791375150
1.483000000000000984,-0.000004487698001448
1.484000000000001096,-0.000007322662992979
1.485000000000001208,-0.000009734363763951
1.486000000000001098,-0.000011724480150999
1.487000000000000988,-0.000013294694323612
1.488000000000001100,-0.000014446690695702
1.489000000000001211,-0.000015182155835441
1.490000000000001101,-0.000015502778377962
1.491000000000000991,-0.000015410248934267
1.492000000000001103,-0.000014906260005830
1.493000000000001215,-0.000013992505904584
1.494000000000001105,-0.000012670682654424
1.495000000000000995,-0.000010942487918837
1.496000000000001107,-0.000008809620914477
1.497000000000001219,-0.000006273782326940
1.498000000000001108,-0.000003336674229323
1.499000000000000998,0.000000000000000000
