# Fe2O3-001O_AMAN-AC
# h[nm],U(h)[kJ/mol]
0.149999999999999994,202.415659338841862791
0.150999999999999995,197.625479171762378883
0.151999999999999996,194.722376429648107887
0.152999999999999997,192.390441340662192715
0.153999999999999998,190.069814380754166905
0.154999999999999999,187.590074807450207572
0.156000000000000000,184.959034632001987575
0.157000000000000001,182.247677101308511283
0.158000000000000002,179.532774266861764545
0.159000000000000002,176.872676273520823997
0.160000000000000003,174.301022438491258981
0.161000000000000004,171.829175796496230078
0.162000000000000005,169.452068478985154343
0.163000000000000006,167.154583965187782724
0.164000000000000007,164.917087204361507702
0.165000000000000008,162.719580458654718313
0.166000000000000009,160.544437417246570021
0.167000000000000010,158.377900946679346816
0.168000000000000010,156.210619170889941643
0.169000000000000011,154.037503620341084343
0.170000000000000012,151.857161532631664613
0.171000000000000013,149.671105968449012380
0.172000000000000014,147.482895992118699269
0.173000000000000015,145.297312044464916880
0.174000000000000016,143.119632095902971969
0.175000000000000017,140.955043129958681902
0.176000000000000018,138.808199579218296549
0.177000000000000018,136.682924477422545806
0.178000000000000019,134.582039021851244343
0.179000000000000020,132.507300671165523909
0.180000000000000021,130.459427665204145796
0.181000000000000022,128.438187948398706340
0.182000000000000023,126.442532099576936844
0.183000000000000024,124.470752389970400031
0.184000000000000025,122.520653039706189702
0.185000000000000026,120.589719786663948753
0.186000000000000026,118.675279794650279541
0.187000000000000027,116.774645569485755914
0.188000000000000028,114.885238844878017517
0.189000000000000029,113.004692314417155785
0.190000000000000030,111.130928623583216108
0.191000000000000031,109.262217219443598992
0.192000000000000032,107.397210521640744219
0.193000000000000033,105.534961468708246457
0.194000000000000034,103.674924853087730980
0.195000000000000034,101.816945029755402174
0.196000000000000035,99.961232607362674685
0.197000000000000036,98.108332643331010559
0.198000000000000037,96.259086696731685606
0.199000000000000038,94.414590871501246738
0.200000000000000039,92.576151729358770126
0.201000000000000040,90.745241684113935321
0.202000000000000041,88.923455220410033917
0.203000000000000042,87.112467020446402444
0.204000000000000042,85.313992839096243870
0.205000000000000043,83.529753745894879557
0.206000000000000044,81.761444154476151880
0.207000000000000045,80.010703887491075648
0.208000000000000046,78.279094377956027984
0.209000000000000047,76.568078985565264816
0.210000000000000048,74.879007307333324661
0.211000000000000049,73.213103284161178408
0.212000000000000050,71.571456846422293552
0.213000000000000050,69.955018800219662012
0.214000000000000051,68.364598629301596588
0.215000000000000052,66.800864873555696022
0.216000000000000053,65.264347741433795136
0.217000000000000054,63.755443618662994254
0.218000000000000055,62.274421147406158639
0.219000000000000056,60.821428567076381455
0.220000000000000057,59.396502028888484404
0.221000000000000058,57.999574619759798111
0.222000000000000058,56.630485856309789483
0.223000000000000059,55.288991435611919201
0.224000000000000060,53.974773055306876302
0.225000000000000061,52.687448141127447343
0.226000000000000062,51.426579344370871638
0.227000000000000063,50.191683695043387559
0.228000000000000064,48.982241318054164481
0.229000000000000065,47.797703639784636209
0.230000000000000066,46.637501030512808597
0.231000000000000066,45.501049844484668938
0.232000000000000067,44.387758833906659106
0.233000000000000068,43.297034925819637863
0.234000000000000069,42.228288361780322191
0.235000000000000070,41.180937209606000238
0.236000000000000071,40.154411264242042989
0.237000000000000072,39.148155361199620472
0.238000000000000073,38.161632131108078170
0.239000000000000073,37.194324227854522746
0.240000000000000074,36.245736065660629777
0.241000000000000075,35.315395102400529481
0.242000000000000076,34.402852707602342264
0.243000000000000077,33.507684654010887471
0.244000000000000078,32.629491271424200249
0.245000000000000079,31.767897300843440433
0.246000000000000080,30.922551485886021538
0.247000000000000081,30.093125936979369328
0.248000000000000081,29.279315302155112022
0.249000000000000082,28.480835776360908795
0.250000000000000111,27.697423979156610585
0.251000000000000112,26.928835728515331027
0.252000000000000113,26.174844736246807742
0.253000000000000114,25.435241248343920972
0.254000000000000115,24.709830651347068908
0.255000000000000115,23.998432063658380997
0.256000000000000116,23.300876928635851471
0.257000000000000117,22.617007624275032640
0.258000000000000118,21.946676102358338767
0.259000000000000119,21.289742568126001743
0.260000000000000120,20.646074209808634947
0.261000000000000121,20.015543985763500245
0.262000000000000122,19.398029475475929928
0.263000000000000123,18.793411799327408573
0.264000000000000123,18.201574610788345154
0.265000000000000124,17.622403163568286288
0.266000000000000125,17.055783455242252700
0.267000000000000126,16.501601447967892966
0.268000000000000127,15.959742366107061429
0.269000000000000128,15.430090069864331070
0.270000000000000129,14.912526503446040138
0.271000000000000130,14.406931215721666462
0.272000000000000131,13.913180950929561419
0.273000000000000131,13.431149306603268556
0.274000000000000132,12.960706455598861808
0.275000000000000133,12.501718928870172221
0.276000000000000134,12.054049455463001550
0.277000000000000135,11.617556856075939464
0.278000000000000136,11.192095986456838119
0.279000000000000137,10.777517726868170556
0.280000000000000138,10.373669013854932786
0.281000000000000139,9.980392910580173194
0.282000000000000139,9.597528712054005595
0.283000000000000140,9.224912081665078034
0.284000000000000141,8.862375215527903194
0.285000000000000142,8.509747031280024743
0.286000000000000143,8.166853378097549410
0.287000000000000144,7.833517264843568917
0.288000000000000145,7.509559103417240422
0.289000000000000146,7.194796964532637062
0.290000000000000147,6.889046843319590607
0.291000000000000147,6.592122932306631711
0.292000000000000148,6.303837899512442888
0.293000000000000149,6.024003169539876801
0.294000000000000150,5.752429205730807737
0.295000000000000151,5.488925791602118132
0.296000000000000152,5.233302309941057828
0.297000000000000153,4.985368018091646647
0.298000000000000154,4.744932318111663605
0.299000000000000155,4.511805020622380091
0.300000000000000155,4.285796601309057152
0.301000000000000156,4.066718449160407367
0.302000000000000157,3.854383105657661623
0.303000000000000158,3.648604494240842655
0.304000000000000159,3.449198139488539816
0.305000000000000160,3.255981375550573098
0.306000000000000161,3.068773543468122700
0.307000000000000162,2.887396177105000739
0.308000000000000163,2.711673177496019438
0.309000000000000163,2.541430975494103794
0.310000000000000164,2.376498682667349094
0.311000000000000165,2.216708230460696427
0.312000000000000166,2.061894497694355177
0.313000000000000167,1.911895426523248842
0.314000000000000168,1.766552127028309993
0.315000000000000169,1.625708970652044227
0.316000000000000170,1.489213672727320414
0.317000000000000171,1.356917364380815894
0.318000000000000171,1.228674654120241794
0.319000000000000172,1.104343679438171799
0.320000000000000173,0.983786148785702586
0.321000000000000174,0.866867374285553716
0.322000000000000175,0.753456295567476397
0.323000000000000176,0.643425495119346103
0.324000000000000177,0.536651205554576904
0.325000000000000178,0.433013309201849494
0.326000000000000179,0.332395330425266811
0.327000000000000179,0.234684421084048328
0.328000000000000180,0.139771339539322886
0.329000000000000181,0.047550423612118663
0.330000000000000182,-0.042080442107383265
0.331000000000000183,-0.129219864206143620
0.332000000000000184,-0.213962983263550260
0.333000000000000185,-0.296401521157918568
0.334000000000000186,-0.376623832495701971
0.335000000000000187,-0.454714959804877250
0.336000000000000187,-0.530756692145134990
0.337000000000000188,-0.604827626798329021
0.338000000000000189,-0.677003233715188113
0.339000000000000190,-0.747355922406052420
0.340000000000000191,-0.815955110975889575
0.341000000000000192,-0.882867297016924235
0.342000000000000193,-0.948156130084636728
0.343000000000000194,-1.011882485496157003
0.344000000000000195,-1.074104539202407116
0.345000000000000195,-1.134877843499003891
0.346000000000000196,-1.194255403352717737
0.347000000000000197,-1.252287753133605630
0.348000000000000198,-1.309023033554828519
0.349000000000000199,-1.364507068634520426
0.350000000000000200,-1.418783442505920256
0.351000000000000201,-1.471893575913550078
0.352000000000000202,-1.523876802244459761
0.353000000000000203,-1.574770442954696481
0.354000000000000203,-1.624609882261647043
0.355000000000000204,-1.673428640983075200
0.356000000000000205,-1.721258449413831881
0.357000000000000206,-1.768129319140690825
0.358000000000000207,-1.814069613704605288
0.359000000000000208,-1.859106118028919452
0.360000000000000209,-1.903264106540271339
0.361000000000000210,-1.946567409916729385
0.362000000000000210,-1.989038480405796339
0.363000000000000211,-2.030698455661720025
0.364000000000000212,-2.071567221058839614
0.365000000000000213,-2.111663470443901680
0.366000000000000214,-2.151004765296719690
0.367000000000000215,-2.189607592274114278
0.368000000000000216,-2.227487419117927026
0.369000000000000217,-2.264658748912556696
0.370000000000000218,-2.301135172682804875
0.371000000000000218,-2.336929420326857354
0.372000000000000219,-2.372053409883826625
0.373000000000000220,-2.406518295139004060
0.374000000000000221,-2.440334511573575504
0.375000000000000222,-2.473511820668885086
0.376000000000000223,-2.506059352578758226
0.377000000000000224,-2.537985647185718285
0.378000000000000225,-2.569298693559927127
0.379000000000000226,-2.600005967841857668
0.380000000000000226,-2.630114469572073510
0.381000000000000227,-2.659630756493016612
0.382000000000000228,-2.688560977850006584
0.383000000000000229,-2.716910906219731192
0.384000000000000230,-2.744685967896074885
0.385000000000000231,-2.771891271864505679
0.386000000000000232,-2.798531637396866945
0.387000000000000233,-2.824611620299808834
0.388000000000000234,-2.850135537850380096
0.389000000000000234,-2.875107492453347291
0.390000000000000235,-2.899531394054915001
0.391000000000000236,-2.923410981348241844
0.392000000000000237,-2.946749841806089343
0.393000000000000238,-2.969551430576443440
0.394000000000000239,-2.991819088276653105
0.395000000000000240,-3.013556057721960002
0.396000000000000241,-3.034765499623950369
0.397000000000000242,-3.055450507294345641
0.398000000000000242,-3.075614120389444484
0.399000000000000243,-3.095259337729924454
0.400000000000000244,-3.114389129230652475
0.401000000000000245,-3.133006446974634596
0.402000000000000246,-3.151114235464534286
0.403000000000000247,-3.168715441085134366
0.404000000000000248,-3.185813020809110885
0.405000000000000249,-3.202409950178272791
0.406000000000000250,-3.218509230591471315
0.407000000000000250,-3.234113895930069482
0.408000000000000251,-3.249227018550918444
0.409000000000000252,-3.263851714676314852
0.410000000000000253,-3.277991149209549260
0.411000000000000254,-3.291648540004058709
0.412000000000000255,-3.304827161613354658
0.413000000000000256,-3.317530348548366703
0.414000000000000257,-3.329761498067729697
0.415000000000000258,-3.341524072526318001
0.416000000000000258,-3.352821601305984167
0.417000000000000259,-3.363657682352269696
0.418000000000000260,-3.374035983339688904
0.419000000000000261,-3.383960242487691339
0.420000000000000262,-3.393434269048502649
0.421000000000000263,-3.402461943487539830
0.422000000000000264,-3.411047217375990925
0.423000000000000265,-3.419194113014840219
0.424000000000000266,-3.426906722808713113
0.425000000000000266,-3.434189208407079086
0.426000000000000267,-3.441045799630001234
0.427000000000000268,-3.447480793194628745
0.428000000000000269,-3.453498551258121552
0.429000000000000270,-3.459103499792053782
0.430000000000000271,-3.464300126802566382
0.431000000000000272,-3.469092980410144467
0.432000000000000273,-3.473486666802000578
0.433000000000000274,-3.477485848069739482
0.434000000000000274,-3.481095239944166142
0.435000000000000275,-3.484319609438647269
0.436000000000000276,-3.487163772411915996
0.437000000000000277,-3.489632591060526146
0.438000000000000278,-3.491730971350830881
0.439000000000000279,-3.493463860399722343
0.440000000000000280,-3.494836243812920351
0.441000000000000281,-3.495853142989082674
0.442000000000000282,-3.496519612397756216
0.443000000000000282,-3.496840736838302099
0.444000000000000283,-3.496821628687069250
0.445000000000000284,-3.496467425139187846
0.446000000000000285,-3.495783285451161682
0.447000000000000286,-3.494774388190217795
0.448000000000000287,-3.493445928495547470
0.449000000000000288,-3.491803115356761911
0.450000000000000289,-3.489851168914058999
0.451000000000000290,-3.487595317784596638
0.452000000000000290,-3.485040796419144105
0.453000000000000291,-3.482192842492664031
0.454000000000000292,-3.479056694332405719
0.455000000000000293,-3.475637588386630394
0.456000000000000294,-3.471940756736892730
0.457000000000000295,-3.467971424656596469
0.458000000000000296,-3.463734808218144501
0.459000000000000297,-3.459236111950979797
0.460000000000000298,-3.454480526552398345
0.461000000000000298,-3.449473226652933988
0.462000000000000299,-3.444219368637862821
0.463000000000000300,-3.438724088526142530
0.464000000000000301,-3.432992499908039008
0.465000000000000302,-3.427029691942403478
0.466000000000000303,-3.420840727414415028
0.467000000000000304,-3.414430640854567489
0.468000000000000305,-3.407804436719332752
0.469000000000000306,-3.400967087633961050
0.470000000000000306,-3.393923532697768142
0.471000000000000307,-3.386678675851841458
0.472000000000000308,-3.379237384309465853
0.473000000000000309,-3.371604487049006504
0.474000000000000310,-3.363784773369140169
0.475000000000000311,-3.355782991506165214
0.476000000000000312,-3.347603847313058711
0.477000000000000313,-3.339252002999773872
0.478000000000000314,-3.330732075934283110
0.479000000000000314,-3.322048637503847601
0.480000000000000315,-3.313206212035717080
0.481000000000000316,-3.304209275776708754
0.482000000000000317,-3.295062255930727879
0.483000000000000318,-3.285769529753529206
0.484000000000000319,-3.276335423703779615
0.485000000000000320,-3.266764212649521770
0.486000000000000321,-3.257060119129118192
0.487000000000000322,-3.247227312665630361
0.488000000000000322,-3.237269909133588808
0.489000000000000323,-3.227191970177264668
0.490000000000000324,-3.216997502679146859
0.491000000000000325,-3.206690458277714040
0.492000000000000326,-3.196274732933230389
0.493000000000000327,-3.185754166540604615
0.494000000000000328,-3.175132542587996376
0.495000000000000329,-3.164413587860174459
0.496000000000000330,-3.153600972185293116
0.497000000000000330,-3.142698308224148196
0.498000000000000331,-3.131709151300434257
0.499000000000000332,-3.120636999271162892
0.500000000000000333,-3.109485292435827830
0.501000000000000334,-3.098257413483207934
0.502000000000000335,-3.086956687474704530
0.503000000000000336,-3.075586381862974061
0.504000000000000337,-3.064149706544740948
0.505000000000000338,-3.052649813946604063
0.506000000000000338,-3.041089799142755012
0.507000000000000339,-3.029472700003418062
0.508000000000000340,-3.017801497372898822
0.509000000000000341,-3.006079115276244718
0.510000000000000342,-2.994308421153220046
0.511000000000000343,-2.982492226118734546
0.512000000000000344,-2.970633285248491351
0.513000000000000345,-2.958734297888883980
0.514000000000000346,-2.946797907990180043
0.515000000000000346,-2.934826704461782843
0.516000000000000347,-2.922823221548752848
0.517000000000000348,-2.910789939228573875
0.518000000000000349,-2.898729283627081266
0.519000000000000350,-2.886643627452807337
0.520000000000000351,-2.874535290448602787
0.521000000000000352,-2.862406539859855936
0.522000000000000353,-2.850259590918199581
0.523000000000000353,-2.838096607339992694
0.524000000000000354,-2.825919701838707887
0.525000000000000355,-2.813730936650312486
0.526000000000000356,-2.801532324070918012
0.527000000000000357,-2.789325827005921354
0.528000000000000358,-2.777113359529758352
0.529000000000000359,-2.764896787455691118
0.530000000000000360,-2.752677928914704086
0.531000000000000361,-2.740458554942995395
0.532000000000000361,-2.728240390077217192
0.533000000000000362,-2.716025112956898191
0.534000000000000363,-2.703814356933329499
0.535000000000000364,-2.691609710684338630
0.536000000000000365,-2.679412718834295770
0.537000000000000366,-2.667224882578800749
0.538000000000000367,-2.655047660313381463
0.539000000000000368,-2.642882468265837392
0.540000000000000369,-2.630730681131442594
0.541000000000000369,-2.618593632710727093
0.542000000000000370,-2.606472616549132759
0.543000000000000371,-2.594368886578199085
0.544000000000000372,-2.582283657757753481
0.545000000000000373,-2.570218106718663797
0.546000000000000374,-2.558173372405698753
0.547000000000000375,-2.546150556720100155
0.548000000000000376,-2.534150725161500084
0.549000000000000377,-2.522174907468702987
0.550000000000000377,-2.510224098259060455
0.551000000000000378,-2.498299257665999473
0.552000000000000379,-2.486401311974442585
0.553000000000000380,-2.474531154253739373
0.554000000000000381,-2.462689644987773097
0.555000000000000382,-2.450877612702073716
0.556000000000000383,-2.439095854587443934
0.557000000000000384,-2.427345137120059171
0.558000000000000385,-2.415626196677568061
0.559000000000000385,-2.403939740151119331
0.560000000000000386,-2.392286445552972207
0.561000000000000387,-2.380666962619518934
0.562000000000000388,-2.369081913409472939
0.563000000000000389,-2.357531892897093861
0.564000000000000390,-2.346017469560156776
0.565000000000000391,-2.334539185962595909
0.566000000000000392,-2.323097559331562145
0.567000000000000393,-2.311693082128845056
0.568000000000000393,-2.300326222616379201
0.569000000000000394,-2.288997425415812526
0.570000000000000395,-2.277707112061987171
0.571000000000000396,-2.266455681550115564
0.572000000000000397,-2.255243510876730806
0.573000000000000398,-2.244070955574100967
0.574000000000000399,-2.232938350238192537
0.575000000000000400,-2.221846009049959214
0.576000000000000401,-2.210794226289960474
0.577000000000000401,-2.199783276846272617
0.578000000000000402,-2.188813416715487570
0.579000000000000403,-2.177884883496876700
0.580000000000000404,-2.166997896879666818
0.581000000000000405,-2.156152659123269810
0.582000000000000406,-2.145349355530579150
0.583000000000000407,-2.134588154914168534
0.584000000000000408,-2.123869210055495671
0.585000000000000409,-2.113192658156974879
0.586000000000000409,-2.102558621286976237
0.587000000000000410,-2.091967206817757052
0.588000000000000411,-2.081418507856225730
0.589000000000000412,-2.070912603667687257
0.590000000000000413,-2.060449560092419308
0.591000000000000414,-2.050029429955200211
0.592000000000000415,-2.039652253467794996
0.593000000000000416,-2.029318058624329790
0.594000000000000417,-2.019026861589660715
0.595000000000000417,-2.008778667080819424
0.596000000000000418,-1.998573468741324133
0.597000000000000419,-1.988411249508740708
0.598000000000000420,-1.978291981975180081
0.599000000000000421,-1.968215628741046164
0.600000000000000422,-1.958182142761901279
0.601000000000000423,-1.948191467688569656
0.602000000000000424,-1.938243538200526306
0.603000000000000425,-1.928338280332606347
0.604000000000000425,-1.918475611795059432
0.605000000000000426,-1.908655442287052084
0.606000000000000427,-1.898877673803707422
0.607000000000000428,-1.889142200936530402
0.608000000000000429,-1.879448911167668212
0.609000000000000430,-1.869797685157586375
0.610000000000000431,-1.860188397026683260
0.611000000000000432,-1.850620914630573877
0.612000000000000433,-1.841095099829241466
0.613000000000000433,-1.831610808750189223
0.614000000000000434,-1.822167892045519322
0.615000000000000435,-1.812766195143090231
0.616000000000000436,-1.803405558491798288
0.617000000000000437,-1.794085817801134963
0.618000000000000438,-1.784806804274949643
0.619000000000000439,-1.775568344839562274
0.620000000000000440,-1.766370262366371735
0.621000000000000441,-1.757212375888900002
0.622000000000000441,-1.748094500814465047
0.623000000000000442,-1.739016449130439401
0.624000000000000443,-1.729978029605293788
0.625000000000000444,-1.720979047984449561
0.626000000000000445,-1.712019307180937533
0.627000000000000446,-1.703098607461109193
0.628000000000000447,-1.694216746625313075
0.629000000000000448,-1.685373520183712559
0.630000000000000449,-1.676568721527274208
0.631000000000000449,-1.667802142094027218
0.632000000000000450,-1.659073571530661484
0.633000000000000451,-1.650382797849565986
0.634000000000000452,-1.641729607581299266
0.635000000000000453,-1.633113785922701622
0.636000000000000454,-1.624535116880589269
0.637000000000000455,-1.615993383411232998
0.638000000000000456,-1.607488367555556907
0.639000000000000457,-1.599019850570268408
0.640000000000000457,-1.590587613054934346
0.641000000000000458,-1.582191435075000596
0.642000000000000459,-1.573831096281023800
0.643000000000000460,-1.565506376023951152
0.644000000000000461,-1.557217053466721790
0.645000000000000462,-1.548962907692151392
0.646000000000000463,-1.540743717807174340
0.647000000000000464,-1.532559263043572706
0.648000000000000465,-1.524409322855231341
0.649000000000000465,-1.516293677011944840
0.650000000000000466,-1.508212105689953342
0.651000000000000467,-1.500164389559123013
0.652000000000000468,-1.492150309867021019
0.653000000000000469,-1.484169648519755969
0.654000000000000470,-1.476222188159846960
0.655000000000000471,-1.468307712241021523
0.656000000000000472,-1.460426005100105451
0.657000000000000473,-1.452576852026020049
0.658000000000000473,-1.444760039325998058
0.659000000000000474,-1.436975354389027570
0.660000000000000475,-1.429222585746629637
0.661000000000000476,-1.421501523130974665
0.662000000000000477,-1.413811957530491714
0.663000000000000478,-1.406153681242905851
0.664000000000000479,-1.398526487925919382
0.665000000000000480,-1.390930172645378438
0.666000000000000481,-1.383364531921259299
0.667000000000000481,-1.375829363771222003
0.668000000000000482,-1.368324467752104256
0.669000000000000483,-1.360849644999116981
0.670000000000000484,-1.353404698263001915
0.671000000000000485,-1.345989431945124881
0.672000000000000486,-1.338603652130526012
0.673000000000000487,-1.331247166619086819
0.674000000000000488,-1.323919784954718626
0.675000000000000488,-1.316621318452726008
0.676000000000000489,-1.309351580225417866
0.677000000000000490,-1.302110385205866416
0.678000000000000491,-1.294897550170036382
0.679000000000000492,-1.287712893757229526
0.680000000000000493,-1.280556236488884947
0.681000000000000494,-1.273427400785868802
0.682000000000000495,-1.266326210984161760
0.683000000000000496,-1.259252493349148683
0.684000000000000496,-1.252206076088399289
0.685000000000000497,-1.245186789363079694
0.686000000000000498,-1.238194465298020130
0.687000000000000499,-1.231228937990442418
0.688000000000000500,-1.224290043517409776
0.689000000000000501,-1.217377619942067835
0.690000000000000502,-1.210491507318669058
0.691000000000000503,-1.203631547696435211
0.692000000000000504,-1.196797585122272745
0.693000000000000504,-1.189989465642474098
0.694000000000000505,-1.183207037303256826
0.695000000000000506,-1.176450150150389895
0.696000000000000507,-1.169718656227764830
0.697000000000000508,-1.163012409575038930
0.698000000000000509,-1.156331266224376764
0.699000000000000510,-1.149675084196267738
0.700000000000000511,-1.143043723494520103
0.701000000000000512,-1.136437046100423842
0.702000000000000512,-1.129854915966100881
0.703000000000000513,-1.123297199007109892
0.704000000000000514,-1.116763763094310580
0.705000000000000515,-1.110254478045005877
0.706000000000000516,-1.103769215613417565
0.707000000000000517,-1.097307849480518849
0.708000000000000518,-1.090870255243170828
0.709000000000000519,-1.084456310402779566
0.710000000000000520,-1.078065894353237075
0.711000000000000520,-1.071698888368419755
0.712000000000000521,-1.065355175589093983
0.713000000000000522,-1.059034641009320321
0.714000000000000523,-1.052737171462429178
0.715000000000000524,-1.046462655606444025
0.716000000000000525,-1.040210983909158005
0.717000000000000526,-1.033982048632738238
0.718000000000000527,-1.027775743817926912
0.719000000000000528,-1.021591965267890867
0.720000000000000528,-1.015430610531740552
0.721000000000000529,-1.009291578887608676
0.722000000000000530,-1.003174771325541670
0.723000000000000531,-0.997080090529968266
0.724000000000000532,-0.991007440861973898
0.725000000000000533,-0.984956728341273013
0.726000000000000534,-0.978927860627905821
0.727000000000000535,-0.972920747003754749
0.728000000000000536,-0.966935298353794104
0.729000000000000536,-0.960971427147164325
0.730000000000000537,-0.955029047418077814
0.731000000000000538,-0.949108074746481400
0.732000000000000539,-0.943208426238647535
0.733000000000000540,-0.937330020507562756
0.734000000000000541,-0.931472777653213013
0.735000000000000542,-0.925636619242710124
0.736000000000000543,-0.919821468290393129
0.737000000000000544,-0.914027249237731487
0.738000000000000544,-0.908253887933258452
0.739000000000000545,-0.902501311612327384
0.740000000000000546,-0.896769448876899689
0.741000000000000547,-0.891058229675199653
0.742000000000000548,-0.885367585281458647
0.743000000000000549,-0.879697448275470251
0.744000000000000550,-0.874047752522248644
0.745000000000000551,-0.868418433151645575
0.746000000000000552,-0.862809426537954338
0.747000000000000552,-0.857220670279556840
0.748000000000000553,-0.851652103178543562
0.749000000000000554,-0.846103665220401702
0.750000000000000555,-0.840575297553732836
0.751000000000000556,-0.835066942469980256
0.752000000000000557,-0.829578543383293066
0.753000000000000558,-0.824110044810306475
0.754000000000000559,-0.818661392350150230
0.755000000000000560,-0.813232532664399654
0.756000000000000560,-0.807823413457206763
0.757000000000000561,-0.802433983455417055
0.758000000000000562,-0.797064192388847848
0.759000000000000563,-0.791713990970654757
0.760000000000000564,-0.786383330877785447
0.761000000000000565,-0.781072164731534513
0.762000000000000566,-0.775780446078238262
0.763000000000000567,-0.770508129370061967
0.764000000000000568,-0.765255169945911584
0.765000000000000568,-0.760021524012512217
0.766000000000000569,-0.754807148625551316
0.767000000000000570,-0.749612001671027817
0.768000000000000571,-0.744436041846664787
0.769000000000000572,-0.739279228643543229
0.770000000000000573,-0.734141522327827256
0.771000000000000574,-0.729022883922668674
0.772000000000000575,-0.723923275190250903
0.773000000000000576,-0.718842658613986440
0.774000000000000576,-0.713780997380886850
0.775000000000000577,-0.708738255364097736
0.776000000000000578,-0.703714397105564493
0.777000000000000579,-0.698709387798924331
0.778000000000000580,-0.693723193272498984
0.779000000000000581,-0.688755779972517135
0.780000000000000582,-0.683807114946469508
0.781000000000000583,-0.678877165826675677
0.782000000000000584,-0.673965900813995433
0.783000000000000584,-0.669073288661724996
0.784000000000000585,-0.664199298659708282
0.785000000000000586,-0.659343900618566292
0.786000000000000587,-0.654507064854176313
0.787000000000000588,-0.649688762172295098
0.788000000000000589,-0.644888963853351038
0.789000000000000590,-0.640107641637492675
0.790000000000000591,-0.635344767709743241
0.791000000000000592,-0.630600314685394570
0.792000000000000592,-0.625874255595567530
0.793000000000000593,-0.621166563872964206
0.794000000000000594,-0.616477213337813690
0.795000000000000595,-0.611806178184021832
0.796000000000000596,-0.607153432965455653
0.797000000000000597,-0.602518952582491107
0.798000000000000598,-0.597902712268705394
0.799000000000000599,-0.593304687577753120
0.800000000000000600,-0.588724854370482387
0.801000000000000600,-0.584163188802175326
0.802000000000000601,-0.579619667310025455
0.803000000000000602,-0.575094266600782222
0.804000000000000603,-0.570586963638600286
0.805000000000000604,-0.566097735633075971
0.806000000000000605,-0.561626560027425947
0.807000000000000606,-0.557173414486939800
0.808000000000000607,-0.552738276887544289
0.809000000000000608,-0.548321125304579660
0.810000000000000608,-0.543921938001801886
0.811000000000000609,-0.539540693420460626
0.812000000000000610,-0.535177370168718913
0.813000000000000611,-0.530831947011093708
0.814000000000000612,-0.526504402858196108
0.815000000000000613,-0.522194716756619659
0.816000000000000614,-0.517902867878973217
0.817000000000000615,-0.513628835514135629
0.818000000000000616,-0.509372599057687503
0.819000000000000616,-0.505134138002495403
0.820000000000000617,-0.500913431929477904
0.821000000000000618,-0.496710460498571760
0.822000000000000619,-0.492525203439861226
0.823000000000000620,-0.488357640544855420
0.824000000000000621,-0.484207751657955376
0.825000000000000622,-0.480075516668112823
0.826000000000000623,-0.475960915500625803
0.827000000000000624,-0.471863928109109043
0.828000000000000624,-0.467784534467654223
0.829000000000000625,-0.463722714563108984
0.830000000000000626,-0.459678448387572214
0.831000000000000627,-0.455651715931011059
0.832000000000000628,-0.451642497174078006
0.833000000000000629,-0.447650772081033210
0.834000000000000630,-0.443676520592873824
0.835000000000000631,-0.439719722620604769
0.836000000000000631,-0.435780358038644511
0.837000000000000632,-0.431858406678428008
0.838000000000000633,-0.427953848322106700
0.839000000000000634,-0.424066662696439889
0.840000000000000635,-0.420196829466834398
0.841000000000000636,-0.416344328231490646
0.842000000000000637,-0.412509138515754992
0.843000000000000638,-0.408691239766565295
0.844000000000000639,-0.404890611347062279
0.845000000000000639,-0.401107232531345836
0.846000000000000640,-0.397341082499340137
0.847000000000000641,-0.393592140331863960
0.848000000000000642,-0.389860385005746601
0.849000000000000643,-0.386145795389140678
0.850000000000000644,-0.382448350236982815
0.851000000000000645,-0.378768028186504679
0.852000000000000646,-0.375104807752960456
0.853000000000000647,-0.371458667325441305
0.854000000000000647,-0.367829585162807782
0.855000000000000648,-0.364217539389771972
0.856000000000000649,-0.360622507993100527
0.857000000000000650,-0.357044468817922400
0.858000000000000651,-0.353483399564163858
0.859000000000000652,-0.349939277783107405
0.860000000000000653,-0.346412080874081263
0.861000000000000654,-0.342901786081214743
0.862000000000000655,-0.339408370490379419
0.863000000000000655,-0.335931811026172145
0.864000000000000656,-0.332472084449068561
0.865000000000000657,-0.329029167352628715
0.866000000000000658,-0.325603036160861226
0.867000000000000659,-0.322193667125680649
0.868000000000000660,-0.318801036324433185
0.869000000000000661,-0.315425119657566699
0.870000000000000662,-0.312065892846387971
0.871000000000000663,-0.308723331430937331
0.872000000000000663,-0.305397410767907829
0.873000000000000664,-0.302088106028733150
0.874000000000000665,-0.298795392197710952
0.875000000000000666,-0.295519244070270914
0.876000000000000667,-0.292259636251277155
0.877000000000000668,-0.289016543153475136
0.878000000000000669,-0.285789938996012460
0.879000000000000670,-0.282579797803012234
0.880000000000000671,-0.279386093402298641
0.881000000000000671,-0.276208799424131790
0.882000000000000672,-0.273047889300104152
0.883000000000000673,-0.269903336262049653
0.884000000000000674,-0.266775113341085501
0.885000000000000675,-0.263663193366695414
0.886000000000000676,-0.260567548965921714
0.887000000000000677,-0.257488152562610928
0.888000000000000678,-0.254424976376737944
0.889000000000000679,-0.251377992423826913
0.890000000000000679,-0.248347172514409215
0.891000000000000680,-0.245332488253584030
0.892000000000000681,-0.242333911040629568
0.893000000000000682,-0.239351412068685654
0.894000000000000683,-0.236384962324504733
0.895000000000000684,-0.233434532588284144
0.896000000000000685,-0.230500093433535003
0.897000000000000686,-0.227581615227028911
0.898000000000000687,-0.224679068128823101
0.899000000000000687,-0.221792422092311009
0.900000000000000688,-0.218921646864359831
0.901000000000000689,-0.216066711985496485
0.902000000000000690,-0.213227586790158380
0.903000000000000691,-0.210404240406990267
0.904000000000000692,-0.207596641759195732
0.905000000000000693,-0.204804759564953670
0.906000000000000694,-0.202028562337885548
0.907000000000000695,-0.199268018387549567
0.908000000000000695,-0.196523095820031107
0.909000000000000696,-0.193793762538531034
0.910000000000000697,-0.191079986244049510
0.911000000000000698,-0.188381734436076004
0.912000000000000699,-0.185698974413352508
0.913000000000000700,-0.183031673274684920
0.914000000000000701,-0.180379797919750035
0.915000000000000702,-0.177743315050026773
0.916000000000000703,-0.175122191169688968
0.917000000000000703,-0.172516392586593403
0.918000000000000704,-0.169925885413280686
0.919000000000000705,-0.167350635568016992
0.920000000000000706,-0.164790608775896630
0.921000000000000707,-0.162245770569941550
0.922000000000000708,-0.159716086292267107
0.923000000000000709,-0.157201521095292229
0.924000000000000710,-0.154702039942932940
0.925000000000000711,-0.152217607611887740
0.926000000000000711,-0.149748188692919282
0.927000000000000712,-0.147293747592175700
0.928000000000000713,-0.144854248532543167
0.929000000000000714,-0.142429655555047607
0.930000000000000715,-0.140019932520235868
0.931000000000000716,-0.137625043109632694
0.932000000000000717,-0.135244950827209609
0.933000000000000718,-0.132879619000865118
0.934000000000000719,-0.130529010783956234
0.935000000000000719,-0.128193089156836415
0.936000000000000720,-0.125871816928413094
0.937000000000000721,-0.123565156737746221
0.938000000000000722,-0.121273071055666787
0.939000000000000723,-0.118995522186390840
0.940000000000000724,-0.116732472269188217
0.941000000000000725,-0.114483883280049395
0.942000000000000726,-0.112249717033391663
0.943000000000000727,-0.110029935183745903
0.944000000000000727,-0.107824499227514359
0.945000000000000728,-0.105633370504706267
0.946000000000000729,-0.103456510200686733
0.947000000000000730,-0.101293879347990584
0.948000000000000731,-0.099145438828076166
0.949000000000000732,-0.097011149373170596
0.950000000000000733,-0.094890971568064100
0.951000000000000734,-0.092784865851980064
0.952000000000000735,-0.090692792520396831
0.953000000000000735,-0.088614711726910281
0.954000000000000736,-0.086550583485124163
0.955000000000000737,-0.084500367670521923
0.956000000000000738,-0.082464024022367050
0.957000000000000739,-0.080441512145599622
0.958000000000000740,-0.078432791512764416
0.959000000000000741,-0.076437821465911757
0.960000000000000742,-0.074456561218553596
0.961000000000000743,-0.072488969857584198
0.962000000000000743,-0.070535006345226262
0.963000000000000744,-0.068594629520987799
0.964000000000000745,-0.066667798103629439
0.965000000000000746,-0.064754470693107385
0.966000000000000747,-0.062854605772561731
0.967000000000000748,-0.060968161710272639
0.968000000000000749,-0.059095096761662816
0.969000000000000750,-0.057235369071248751
0.970000000000000751,-0.055388936674659571
0.971000000000000751,-0.053555757500597809
0.972000000000000752,-0.051735789372830507
0.973000000000000753,-0.049928990012214416
0.974000000000000754,-0.048135317038650115
0.975000000000000755,-0.046354727973101993
0.976000000000000756,-0.044587180239589144
0.977000000000000757,-0.042832631167176262
0.978000000000000758,-0.041091037991974409
0.979000000000000759,-0.039362357859152576
0.980000000000000759,-0.037646547824903190
0.981000000000000760,-0.035943564858460265
0.982000000000000761,-0.034253365844097106
0.983000000000000762,-0.032575907583099160
0.984000000000000763,-0.030911146795760468
0.985000000000000764,-0.029259040123385725
0.986000000000000765,-0.027619544130258588
0.987000000000000766,-0.025992615305628707
0.988000000000000766,-0.024378210065687501
0.989000000000000767,-0.022776284755553045
0.990000000000000768,-0.021186795651243217
0.991000000000000769,-0.019609698961618516
0.992000000000000770,-0.018044950830364483
0.993000000000000771,-0.016492507337960836
0.994000000000000772,-0.014952324503597925
0.995000000000000773,-0.013424358287165960
0.996000000000000774,-0.011908564591166126
0.997000000000000774,-0.010404899262659606
0.998000000000000775,-0.008913318095199629
0.999000000000000776,-0.007433776830751182
1.000000000000000666,-0.005966231161604330
1.001000000000000778,-0.004510636732300422
1.002000000000000668,-0.003066949141517794
1.003000000000000780,-0.001635123943979866
1.004000000000000670,-0.000215116652337344
1.005000000000000782,0.001193117260939536
1.006000000000000671,0.002589622361692934
1.007000000000000783,0.003974443252218918
1.008000000000000673,0.005347624569396125
1.009000000000000785,0.006709210982842129
1.010000000000000675,0.008059247193072073
1.011000000000000787,0.009397777929673622
1.012000000000000677,0.010724847949466076
1.013000000000000789,0.012040502034694690
1.014000000000000679,0.013344784991240066
1.015000000000000790,0.014637741646794305
1.016000000000000680,0.015919416849088642
1.017000000000000792,0.017189855464118643
1.018000000000000682,0.018449102374376747
1.019000000000000794,0.019697202477087634
1.020000000000000684,0.020934200682461695
1.021000000000000796,0.022160141911964748
1.022000000000000686,0.023375071096586757
1.023000000000000798,0.024579033175121660
1.024000000000000687,0.025772073092467741
1.025000000000000799,0.026954235797931558
1.026000000000000689,0.028125566243529278
1.027000000000000801,0.029286109382335834
1.028000000000000691,0.030435910166800979
1.029000000000000803,0.031575013547106623
1.030000000000000693,0.032703464469532283
1.031000000000000805,0.033821307874803037
1.032000000000000695,0.034928588696499417
1.033000000000000806,0.036025351859426506
1.034000000000000696,0.037111642278025922
1.035000000000000808,0.038187504854801033
1.036000000000000698,0.039252984478737221
1.037000000000000810,0.040308126023720241
1.038000000000000700,0.041352974347024542
1.039000000000000812,0.042387574287754103
1.040000000000000702,0.043411970665311703
1.041000000000000814,0.044426208277891607
1.042000000000000703,0.045430331900987511
1.043000000000000815,0.046424386285886854
1.044000000000000705,0.047408416158190504
1.045000000000000817,0.048382466216372454
1.046000000000000707,0.049346581130292687
1.047000000000000819,0.050300805539773938
1.048000000000000709,0.051245184053170356
1.049000000000000821,0.052179761245943722
1.050000000000000711,0.053104581659271788
1.051000000000000822,0.054019689798633051
1.052000000000000712,0.054925130132446584
1.053000000000000824,0.055820947090694129
1.054000000000000714,0.056707185063564779
1.055000000000000826,0.057583888400111562
1.056000000000000716,0.058451101406917963
1.057000000000000828,0.059308868346782451
1.058000000000000718,0.060157233437410230
1.059000000000000830,0.060996240850121078
1.060000000000000719,0.061825934708558947
1.061000000000000831,0.062646359087431464
1.062000000000000721,0.063457558011255799
1.063000000000000833,0.064259575453092396
1.064000000000000723,0.065052455333342515
1.065000000000000835,0.065836241518506020
1.066000000000000725,0.066610977819976866
1.067000000000000837,0.067376707992867574
1.068000000000000727,0.068133475734789992
1.069000000000000838,0.068881324684723147
1.070000000000000728,0.069620298421826085
1.071000000000000840,0.070350440464308578
1.072000000000000730,0.071071794268286997
1.073000000000000842,0.071784403226667876
1.074000000000000732,0.072488310668047173
1.075000000000000844,0.073183559855598171
1.076000000000000734,0.073870193985990054
1.077000000000000846,0.074548256188328957
1.078000000000000735,0.075217789523078046
1.079000000000000847,0.075878836981030942
1.080000000000000737,0.076531441482249177
1.081000000000000849,0.077175645875064203
1.082000000000000739,0.077811492935053905
1.083000000000000851,0.078439025364039655
1.084000000000000741,0.079058285789101762
1.085000000000000853,0.079669316761608211
1.086000000000000743,0.080272160756247615
1.087000000000000854,0.080866860170072899
1.088000000000000744,0.081453457321557510
1.089000000000000856,0.082031994449689200
1.090000000000000746,0.082602513713032580
1.091000000000000858,0.083165057188823263
1.092000000000000748,0.083719666872090093
1.093000000000000860,0.084266384674756084
1.094000000000000750,0.084805252424790506
1.095000000000000862,0.085336311865324019
1.096000000000000751,0.085859604653818006
1.097000000000000863,0.086375172361235333
1.098000000000000753,0.086883056471197345
1.099000000000000865,0.087383298379179991
1.100000000000000755,0.087875939391721614
1.101000000000000867,0.088361020725620978
1.102000000000000757,0.088838583507161145
1.103000000000000869,0.089308668771340624
1.104000000000000759,0.089771317461128333
1.105000000000000870,0.090226570426694144
1.106000000000000760,0.090674468424707860
1.107000000000000872,0.091115052117581724
1.108000000000000762,0.091548362072778347
1.109000000000000874,0.091974438762100055
1.110000000000000764,0.092393322561004049
1.111000000000000876,0.092805053747924013
1.112000000000000766,0.093209672503586818
1.113000000000000878,0.093607218910368398
1.114000000000000767,0.093997732951632898
1.115000000000000879,0.094381254511109583
1.116000000000000769,0.094757823372249708
1.117000000000000881,0.095127479217621727
1.118000000000000771,0.095490261628296422
1.119000000000000883,0.095846210083252628
1.120000000000000773,0.096195363958789373
1.121000000000000885,0.096537762527954180
1.122000000000000774,0.096873444959976324
1.123000000000000886,0.097202450319706327
1.124000000000000776,0.097524817567064992
1.125000000000000888,0.097840585556527429
1.126000000000000778,0.098149793036579516
1.127000000000000890,0.098452478649189795
1.128000000000000780,0.098748680929340443
1.129000000000000892,0.099038438304490967
1.130000000000000782,0.099321789094109894
1.131000000000000894,0.099598771509197215
1.132000000000000783,0.099869423651809230
1.133000000000000895,0.100133783514592165
1.134000000000000785,0.100391888980360028
1.135000000000000897,0.100643777821611963
1.136000000000000787,0.100889487700142458
1.137000000000000899,0.101129056166584880
1.138000000000000789,0.101362520660028294
1.139000000000000901,0.101589918507577232
1.140000000000000790,0.101811286923985417
1.141000000000000902,0.102026663011268059
1.142000000000000792,0.102236083758302912
1.143000000000000904,0.102439586040481687
1.144000000000000794,0.102637206619327320
1.145000000000000906,0.102828982142180031
1.146000000000000796,0.103014949141805354
1.147000000000000908,0.103195144036098391
1.148000000000000798,0.103369603127735729
1.149000000000000909,0.103538362603863593
1.150000000000000799,0.103701458535798333
1.151000000000000689,0.103858926878702906
1.152000000000000801,0.104010803471310836
1.153000000000000913,0.104157124035631460
1.154000000000000803,0.104297924176675563
1.155000000000000693,0.104433239382196771
1.156000000000000805,0.104563105022399003
1.157000000000000917,0.104687556349724667
1.158000000000000806,0.104806628498569768
1.159000000000000696,0.104920356485071059
1.160000000000000808,0.105028775206865627
1.161000000000000920,0.105131919442869898
1.162000000000000810,0.105229823853054419
1.163000000000000700,0.105322522978253480
1.164000000000000812,0.105410051239946956
1.165000000000000924,0.105492442940082351
1.166000000000000814,0.105569732260870006
1.167000000000000703,0.105641953264624444
1.168000000000000815,0.105709139893569143
1.169000000000000927,0.105771325969694963
1.170000000000000817,0.105828545194584886
1.171000000000000707,0.105880831149274310
1.172000000000000819,0.105928217294091784
1.173000000000000931,0.105970736968536233
1.174000000000000821,0.106008423391145884
1.175000000000000711,0.106041309659360067
1.176000000000000822,0.106069428749412414
1.177000000000000934,0.106092813516221324
1.178000000000000824,0.106111496693274354
1.179000000000000714,0.106125510892549763
1.180000000000000826,0.106134888604396418
1.181000000000000938,0.106139662197477475
1.182000000000000828,0.106139863918672722
1.183000000000000718,0.106135525893005456
1.184000000000000830,0.106126680123583478
1.185000000000000941,0.106113358491542506
1.186000000000000831,0.106095592755970275
1.187000000000000721,0.106073414553882306
1.188000000000000833,0.106046855400159679
1.189000000000000945,0.106015946687522206
1.190000000000000835,0.105980719686486452
1.191000000000000725,0.105941205545364875
1.192000000000000837,0.105897435290199723
1.193000000000000949,0.105849439824802286
1.194000000000000838,0.105797249930698681
1.195000000000000728,0.105740896267156353
1.196000000000000840,0.105680409371169334
1.197000000000000952,0.105615819657462612
1.198000000000000842,0.105547157418524856
1.199000000000000732,0.105474452824593182
1.200000000000000844,0.105397735923717123
1.201000000000000956,0.105317036641745743
1.202000000000000846,0.105232384782385016
1.203000000000000735,0.105143810027227641
1.204000000000000847,0.105051341935803635
1.205000000000000959,0.104955009945606914
1.206000000000000849,0.104854843372171797
1.207000000000000739,0.104750871409120899
1.208000000000000851,0.104643123128219884
1.209000000000000963,0.104531627479455685
1.210000000000000853,0.104416413291096827
1.211000000000000743,0.104297509269780472
1.212000000000000854,0.104174944000580721
1.213000000000000966,0.104048745947109139
1.214000000000000856,0.103918943451576082
1.215000000000000746,0.103785564734922814
1.216000000000000858,0.103648637896879753
1.217000000000000970,0.103508190916099502
1.218000000000000860,0.103364251650246694
1.219000000000000750,0.103216847836109654
1.220000000000000862,0.103066007089717054
1.221000000000000973,0.102911756906460899
1.222000000000000863,0.102754124661208396
1.223000000000000753,0.102593137608440424
1.224000000000000865,0.102428822882371401
1.225000000000000977,0.102261207497085976
1.226000000000000867,0.102090318346683223
1.227000000000000757,0.101916182205409128
1.228000000000000869,0.101738825727814605
1.229000000000000981,0.101558275448879881
1.230000000000000870,0.101374557784202943
1.231000000000000760,0.101187699030126116
1.232000000000000872,0.100997725363895535
1.233000000000000984,0.100804662843859000
1.234000000000000874,0.100608537409584503
1.235000000000000764,0.100409374882066388
1.236000000000000876,0.100207200963880624
1.237000000000000988,0.100002041239370759
1.238000000000000878,0.099793921174815045
1.239000000000000767,0.099582866118626601
1.240000000000000879,0.099368901301523802
1.241000000000000991,0.099152051836727192
1.242000000000000881,0.098932342720153679
1.243000000000000771,0.098709798830604295
1.244000000000000883,0.098484444929971784
1.245000000000000995,0.098256305663430327
1.246000000000000885,0.098025405559646672
1.247000000000000774,0.097791769030990433
1.248000000000000886,0.097555420373736615
1.249000000000000998,0.097316383768281237
1.250000000000000888,0.097074683279351440
1.251000000000000778,0.096830342856235527
1.252000000000000890,0.096583386332987492
1.253000000000001002,0.096333837428668023
1.254000000000000892,0.096081719747547797
1.255000000000000782,0.095827056779358405
1.256000000000000894,0.095569871899508677
1.257000000000001005,0.095310188369320079
1.258000000000000895,0.095048029336264078
1.259000000000000785,0.094783417834201231
1.260000000000000897,0.094516376783619710
1.261000000000001009,0.094246928991871010
1.262000000000000899,0.093975097153429360
1.263000000000000789,0.093700903850128067
1.264000000000000901,0.093424371551403790
1.265000000000001013,0.093145522614563742
1.266000000000000902,0.092864379285024376
1.267000000000000792,0.092580963696573232
1.268000000000000904,0.092295297871625631
1.269000000000001016,0.092007403721484374
1.270000000000000906,0.091717303046594756
1.271000000000000796,0.091425017536817699
1.272000000000000908,0.091130568771690693
1.273000000000001020,0.090833978220692141
1.274000000000000909,0.090535267243511561
1.275000000000000799,0.090234457090327708
1.276000000000000911,0.089931568902062053
1.277000000000001023,0.089626623710675160
1.278000000000000913,0.089319642439430066
1.279000000000000803,0.089010645903169344
1.280000000000000915,0.088699654808591960
1.281000000000001027,0.088386689754551412
1.282000000000000917,0.088071771232312357
1.283000000000000806,0.087754919625856770
1.284000000000000918,0.087436155212148314
1.285000000000001030,0.087115498161440291
1.286000000000000920,0.086792968537546672
1.287000000000000810,0.086468586298143496
1.288000000000000922,0.086142371295046469
1.289000000000001034,0.085814343274517979
1.290000000000000924,0.085484521877558173
1.291000000000000814,0.085152926640180288
1.292000000000000925,0.084819576993743234
1.293000000000001037,0.084484492265206268
1.294000000000000927,0.084147691677461806
1.295000000000000817,0.083809194349622390
1.296000000000000929,0.083469019297313610
1.297000000000001041,0.083127185432994063
1.298000000000000931,0.082783711566241619
1.299000000000000821,0.082438616404061998
1.300000000000000933,0.082091918551205317
1.301000000000001044,0.081743636510456755
1.302000000000000934,0.081393788682953105
1.303000000000000824,0.081042393368480820
1.304000000000000936,0.080689468765804878
1.305000000000001048,0.080335032972958492
1.306000000000000938,0.079979103987557559
1.307000000000000828,0.079621699707125987
1.308000000000000940,0.079262837929397506
1.309000000000001052,0.078902536352622274
1.310000000000000941,0.078540812575896179
1.311000000000000831,0.078177684099465544
1.312000000000000943,0.077813168325055665
1.313000000000001055,0.077447282556159250
1.314000000000000945,0.077080043998387499
1.315000000000000835,0.076711469759768794
1.316000000000000947,0.076341576851067752
1.317000000000001059,0.075970382186105606
1.318000000000000949,0.075597902582092397
1.319000000000000838,0.075224154759919656
1.320000000000000950,0.074849155344507826
1.321000000000001062,0.074472920865118364
1.322000000000000952,0.074095467755669636
1.323000000000000842,0.073716812355069772
1.324000000000000954,0.073336970907528484
1.325000000000001066,0.072955959562891540
1.326000000000000956,0.072573794376952550
1.327000000000000846,0.072190491311791463
1.328000000000000957,0.071806066236080102
1.329000000000001069,0.071420534925431364
1.330000000000000959,0.071033913062698573
1.331000000000000849,0.070646216238316045
1.332000000000000961,0.070257459950631346
1.333000000000001073,0.069867659606217505
1.334000000000000963,0.069476830520198873
1.335000000000000853,0.069084987916591609
1.336000000000000965,0.068692146928619857
1.337000000000001076,0.068298322599042643
1.338000000000000966,0.067903529880491156
1.339000000000000856,0.067507783635781735
1.340000000000000968,0.067111098638257344
1.341000000000001080,0.066713489572108500
1.342000000000000970,0.066314971032702522
1.343000000000000860,0.065915557526910515
1.344000000000000972,0.065515263473439347
1.345000000000001084,0.065114103203152501
1.346000000000000973,0.064712090959409246
1.347000000000000863,0.064309240898381997
1.348000000000000975,0.063905567089398319
1.349000000000001087,0.063501083515256004
1.350000000000000977,0.063095804072556980
1.351000000000000867,0.062689742572033191
1.352000000000000979,0.062282912738891881
1.353000000000001091,0.061875328213114658
1.354000000000000981,0.061467002549806860
1.355000000000000870,0.061057949219523698
1.356000000000000982,0.060648181608596072
1.357000000000001094,0.060237713019450648
1.358000000000000984,0.059826556670953913
1.359000000000000874,0.059414725698729541
1.360000000000000986,0.059002233155490025
1.361000000000001098,0.058589092011355516
1.362000000000000988,0.058175315154200158
1.363000000000000878,0.057760915389965486
1.364000000000000989,0.057345905442978774
1.365000000000001101,0.056930297956307552
1.366000000000000991,0.056514105492064690
1.367000000000000881,0.056097340531737303
1.368000000000000993,0.055680015476519795
1.369000000000001105,0.055262142647636139
1.370000000000000995,0.054843734286665904
1.371000000000000885,0.054424802555871857
1.372000000000000997,0.054005359538522237
1.373000000000001108,0.053585417239210328
1.374000000000000998,0.053164987584204793
1.375000000000000888,0.052744082421732022
1.376000000000001000,0.052322713522336341
1.377000000000001112,0.051900892579188194
1.378000000000001002,0.051478631208406955
1.379000000000000892,0.051055940949390144
1.380000000000001004,0.050632833265132529
1.381000000000001116,0.050209319542540307
1.382000000000001005,0.049785411092769634
1.383000000000000895,0.049361119151536979
1.384000000000001007,0.048936454879440476
1.385000000000001119,0.048511429362283177
1.386000000000001009,0.048086053611387777
1.387000000000000899,0.047660338563936200
1.388000000000001011,0.047234295083246725
1.389000000000001123,0.046807933959143372
1.390000000000001013,0.046381265908238309
1.391000000000000902,0.045954301574266214
1.392000000000001014,0.045527051528394043
1.393000000000001126,0.045099526269544367
1.394000000000001016,0.044671736224699748
1.395000000000000906,0.044243691749234426
1.396000000000001018,0.043815403127222478
1.397000000000001130,0.043386880571746798
1.398000000000001020,0.042958134225220733
1.399000000000000909,0.042529174159700284
1.400000000000001021,0.042100010377198814
1.401000000000001133,0.041670652809988482
1.402000000000001023,0.041241111320931050
1.403000000000000913,0.040811395703778730
1.404000000000001025,0.040381515683477004
1.405000000000001137,0.039951480916491922
1.406000000000001027,0.039521300991110231
1.407000000000000917,0.039090985427740643
1.408000000000001029,0.038660543679244791
1.409000000000001140,0.038229985131221535
1.410000000000001030,0.037799319102327152
1.411000000000000920,0.037368554844579183
1.412000000000001032,0.036937701543660391
1.413000000000001144,0.036506768319226390
1.414000000000001034,0.036075764225210076
1.415000000000000924,0.035644698250127567
1.416000000000001036,0.035213579317371825
1.417000000000001148,0.034782416285524809
1.418000000000001037,0.034351217948660133
1.419000000000000927,0.033919993036641470
1.420000000000001039,0.033488750215421317
1.421000000000001151,0.033057498087339057
1.422000000000001041,0.032626245191428913
1.423000000000000931,0.032195000003712955
1.424000000000001043,0.031763770937495522
1.425000000000001155,0.031332566343668544
1.426000000000001044,0.030901394510999842
1.427000000000000934,0.030470263666433201
1.428000000000001046,0.030039181975382384
1.429000000000001158,0.029608157542032006
1.430000000000001048,0.029177198409611426
1.431000000000000938,0.028746312560714471
1.432000000000001050,0.028315507917569076
1.433000000000001162,0.027884792342338493
1.434000000000001052,0.027454173637414862
1.435000000000000941,0.027023659545696500
1.436000000000001053,0.026593257750892784
1.437000000000001165,0.026162975877804751
1.438000000000001055,0.025732821492604519
1.439000000000000945,0.025302802103136467
1.440000000000001057,0.024872925159193440
1.441000000000001169,0.024443198052809690
1.442000000000001059,0.024013628118538802
1.443000000000000949,0.023584222633734740
1.444000000000001060,0.023154988818843963
1.445000000000001172,0.022725933837685185
1.446000000000001062,0.022297064797718341
1.447000000000000952,0.021868388750345781
1.448000000000001064,0.021439912691173922
1.449000000000001176,0.021011643560297420
1.450000000000001066,0.020583588242586742
1.451000000000000956,0.020155753567952475
1.452000000000001068,0.019728146311624822
1.453000000000001180,0.019300773194434684
1.454000000000001069,0.018873640883085619
1.455000000000000959,0.018446755990423065
1.456000000000001071,0.018020125075715210
1.457000000000001183,0.017593754644918781
1.458000000000001073,0.017167651150951691
1.459000000000000963,0.016741820993972711
1.460000000000001075,0.016316270521635250
1.461000000000001187,0.015891006029375671
1.462000000000001076,0.015466033760655612
1.463000000000000966,0.015041359907257690
1.464000000000001078,0.014616990609535405
1.465000000000001190,0.014192931956677739
1.466000000000001080,0.013769189986983444
1.467000000000000970,0.013345770688119152
1.468000000000001082,0.012922679997378783
1.469000000000001194,0.012499923801959641
1.470000000000001084,0.012077507939205936
1.471000000000000973,0.011655438196884067
1.472000000000001085,0.011233720313429705
1.473000000000001197,0.010812359978220771
1.474000000000001087,0.010391362831820471
1.475000000000000977,0.009970734466250920
1.476000000000001089,0.009550480425233567
1.477000000000001201,0.009130606204450633
1.478000000000001091,0.008711117251808178
1.479000000000000981,0.008292018967675178
1.480000000000001092,0.007873316705147928
1.481000000000001204,0.007455015770296058
1.482000000000001094,0.007037121422416988
1.483000000000000984,0.006619638874278638
1.484000000000001096,0.006202573292380993
1.485000000000001208,0.005785929797200291
1.486000000000001098,0.005369713463427529
1.487000000000000988,0.004953929320227594
1.488000000000001100,0.004538582351482790
1.489000000000001211,0.004123677496028025
1.490000000000001101,0.003709219647907775
1.491000000000000991,0.003295213656617238
1.492000000000001103,0.002881664327333096
1.493000000000001215,0.002468576421168997
1.494000000000001105,0.002055954655413333
1.495000000000000995,0.001643803703765042
1.496000000000001107,0.001232128196571920
1.497000000000001219,0.000820932721074381
1.498000000000001108,0.000410221821639348
1.499000000000000998,0.000000000000000000
