# Fe2O3-001O_CYTOSINE
# h[nm],U(h)[kJ/mol]
0.149999999999999994,137.057294029774880073
0.150999999999999995,134.517670691911092717
0.151999999999999996,131.996134175996104432
0.152999999999999997,129.532192015128998719
0.153999999999999998,127.141640458354487464
0.154999999999999999,124.825005025066815278
0.156000000000000000,122.574483717847144248
0.157000000000000001,120.378979346574780607
0.158000000000000002,118.227347468101541494
0.159000000000000002,116.110205943936080075
0.160000000000000003,114.020699361544302519
0.161000000000000004,111.954574974898903861
0.162000000000000005,109.909857067990628821
0.163000000000000006,107.886331096171645072
0.164000000000000007,105.884980983956850764
0.165000000000000008,103.907467836059851152
0.166000000000000009,101.955696919522168287
0.167000000000000010,100.031490780254557649
0.168000000000000010,98.136367562268631559
0.169000000000000011,96.271412631497824464
0.170000000000000012,94.437226296793582492
0.171000000000000013,92.633928950955265691
0.172000000000000014,90.861205897569391254
0.173000000000000015,89.118376423099931571
0.174000000000000016,87.404474568097356268
0.175000000000000017,85.718332047171330146
0.176000000000000018,84.058656556707276764
0.177000000000000018,82.424101124491826909
0.178000000000000019,80.813322126410326973
0.179000000000000020,79.225025116557276306
0.180000000000000021,77.657998722192374430
0.181000000000000022,76.111137598921047243
0.182000000000000023,74.583455887873370216
0.183000000000000024,73.074092829454073694
0.184000000000000025,71.582312226707898617
0.185000000000000026,70.107497367315573911
0.186000000000000026,68.649142849960327339
0.187000000000000027,67.206844552880525612
0.188000000000000028,65.780288756366246616
0.189000000000000029,64.369241206138411826
0.190000000000000030,62.973536694291816218
0.191000000000000031,61.593069547176881429
0.192000000000000032,60.227785249756664143
0.193000000000000033,58.877673305186377206
0.194000000000000034,57.542761326096659502
0.195000000000000034,56.223110278341550838
0.196000000000000035,54.918810745933299700
0.197000000000000036,53.629980054182261995
0.198000000000000037,52.356760073192504024
0.199000000000000038,51.099315522400445388
0.200000000000000039,49.857832605589464947
0.201000000000000040,48.632517821883297415
0.202000000000000041,47.423596819121527801
0.203000000000000042,46.231313179644089928
0.204000000000000042,45.055927053141545002
0.205000000000000043,43.897713575518181983
0.206000000000000044,42.756961035642980562
0.207000000000000045,41.633968772711014594
0.208000000000000046,40.529044805226909887
0.209000000000000047,39.442503208091800104
0.210000000000000048,38.374661266831736839
0.211000000000000049,37.325836447687024133
0.212000000000000050,36.296343229229307781
0.213000000000000050,35.286489845601806792
0.214000000000000051,34.296574993642728657
0.215000000000000052,33.326884556348723265
0.216000000000000053,32.377688393658836219
0.217000000000000054,31.449237248693130198
0.218000000000000055,30.541759813650582345
0.219000000000000056,29.655459994830131620
0.220000000000000057,28.790514410929961997
0.221000000000000058,27.947070153133047654
0.222000000000000058,27.125242829682918000
0.223000000000000059,26.325114911870588941
0.224000000000000060,25.546734392720004791
0.225000000000000061,24.790113764292737386
0.226000000000000062,24.055229314518054906
0.227000000000000063,23.342020739858092782
0.228000000000000064,22.650391065985818528
0.229000000000000065,21.980206865011432171
0.230000000000000066,21.331298754657535000
0.231000000000000066,20.703462162150401582
0.232000000000000067,20.096458333457992040
0.233000000000000068,19.510015566841481416
0.234000000000000069,18.943830648473998224
0.235000000000000070,18.397570467084339185
0.236000000000000071,17.870873784172196963
0.237000000000000072,17.363353136275897270
0.238000000000000073,16.874596846018341978
0.239000000000000073,16.404171119172474391
0.240000000000000074,15.951622205734812709
0.241000000000000075,15.516478603941788350
0.242000000000000076,15.098253287270036793
0.243000000000000077,14.696445935697701302
0.244000000000000078,14.310545153838480914
0.245000000000000079,13.940030659964412152
0.246000000000000080,13.584375431383620025
0.247000000000000081,13.243047793109957055
0.248000000000000081,12.915513438235118215
0.249000000000000082,12.601237369870787575
0.250000000000000111,12.299685755953658983
0.251000000000000112,12.010327689587716904
0.252000000000000113,11.732636848923556627
0.253000000000000114,11.466093051837315642
0.254000000000000115,11.210183701862256100
0.255000000000000115,10.964405122941828452
0.256000000000000116,10.728263781608356808
0.257000000000000117,10.501277396145315635
0.258000000000000118,10.282975933162589399
0.259000000000000119,10.072902492801881991
0.260000000000000120,9.870614084496050822
0.261000000000000121,9.675682295832800150
0.262000000000000122,9.487693857621602334
0.263000000000000123,9.306251108737399136
0.264000000000000123,9.130972364717212741
0.265000000000000124,8.961492194421621704
0.266000000000000125,8.797461609344800593
0.267000000000000126,8.638548170369777068
0.268000000000000127,8.484436016922787260
0.269000000000000128,8.334825823587753035
0.270000000000000129,8.189434689302094839
0.271000000000000130,8.047995964273122027
0.272000000000000131,7.910259019734320773
0.273000000000000131,7.775988965606780212
0.274000000000000132,7.644966321046742230
0.275000000000000133,7.516986642749408531
0.276000000000000134,7.391860115745474857
0.277000000000000135,7.269411111273592851
0.278000000000000136,7.149477716141760197
0.279000000000000137,7.031911237807479509
0.280000000000000138,6.916575689211784450
0.281000000000000139,6.803347257199580334
0.282000000000000139,6.692113758149635494
0.283000000000000140,6.582774084224475075
0.284000000000000141,6.475237643435342250
0.285000000000000142,6.369423796501477497
0.286000000000000143,6.265261293268397758
0.287000000000000144,6.162687711237670563
0.288000000000000145,6.061648898551556641
0.289000000000000146,5.962098423572372852
0.290000000000000147,5.863997032996984160
0.291000000000000147,5.767312120255121854
0.292000000000000148,5.672017205753945746
0.293000000000000149,5.578091430353438795
0.294000000000000150,5.485519063286529828
0.295000000000000151,5.394289025575224272
0.296000000000000152,5.304394429840132652
0.297000000000000153,5.215832137254702516
0.298000000000000154,5.128602332258354934
0.299000000000000155,5.042708115513844902
0.300000000000000155,4.958155115473720009
0.301000000000000156,4.874951118808969142
0.302000000000000157,4.793105719848758106
0.303000000000000158,4.712629989084692106
0.304000000000000159,4.633536160704695206
0.305000000000000160,4.555837339041500123
0.306000000000000161,4.479547223747244011
0.307000000000000162,4.404679853439743553
0.308000000000000163,4.331249367506677217
0.309000000000000163,4.259269785700701583
0.310000000000000164,4.188754805111933877
0.311000000000000165,4.119717614063045374
0.312000000000000166,4.052170722436651218
0.313000000000000167,3.986125807914334018
0.314000000000000168,3.921593577581088397
0.315000000000000169,3.858583644327940654
0.316000000000000170,3.797104417468730730
0.317000000000000171,3.737163006974248081
0.318000000000000171,3.678765140717756843
0.319000000000000172,3.621915094120023326
0.320000000000000173,3.566615631579330703
0.321000000000000174,3.512867959072104362
0.322000000000000175,3.460671687312339095
0.323000000000000176,3.410024804863147185
0.324000000000000177,3.360923660600856344
0.325000000000000178,3.313362954941164951
0.326000000000000179,3.267335739247394510
0.327000000000000179,3.222833422853358165
0.328000000000000180,3.179845787146725833
0.329000000000000181,3.138361006173238099
0.330000000000000182,3.098365673238196116
0.331000000000000183,3.059844832997513642
0.332000000000000184,3.022782018548198391
0.333000000000000185,2.987159293045510644
0.334000000000000186,2.952957295392193870
0.335000000000000187,2.920155289563628465
0.336000000000000187,2.888731217151174313
0.337000000000000188,2.858661752724977578
0.338000000000000189,2.829922361635906380
0.339000000000000190,2.802487359895196484
0.340000000000000191,2.776329975789013194
0.341000000000000192,2.751422412903184345
0.342000000000000193,2.727735914251961269
0.343000000000000194,2.705240827222000544
0.344000000000000195,2.683906669060867944
0.345000000000000195,2.663702192655799550
0.346000000000000196,2.644595452365818833
0.347000000000000197,2.626553869686143905
0.348000000000000198,2.609544298539813401
0.349000000000000199,2.593533090006787667
0.350000000000000200,2.578486156315471067
0.351000000000000201,2.564369033936005238
0.352000000000000202,2.551146945628503637
0.353000000000000203,2.538784861312363361
0.354000000000000203,2.527247557635825981
0.355000000000000204,2.516499676136873642
0.356000000000000205,2.506505779898234199
0.357000000000000206,2.497230408610249253
0.358000000000000207,2.488638131966124156
0.359000000000000208,2.480693601323801456
0.360000000000000209,2.473361599578301373
0.361000000000000210,2.466607089197470071
0.362000000000000210,2.460395258382305883
0.363000000000000211,2.454691565321221347
0.364000000000000212,2.449461780514954334
0.365000000000000213,2.444672027155989635
0.366000000000000214,2.440288819552855593
0.367000000000000215,2.436279099595859421
0.368000000000000216,2.432610271266423929
0.369000000000000217,2.429250233197724818
0.370000000000000218,2.426167409298953359
0.371000000000000218,2.423330777460333874
0.372000000000000219,2.420709896359942270
0.373000000000000220,2.418274930397383393
0.374000000000000221,2.415996672782716459
0.375000000000000222,2.413846566812344552
0.376000000000000223,2.411796725366163852
0.377000000000000224,2.409819948663139755
0.378000000000000225,2.407889740314506088
0.379000000000000226,2.405980321715980530
0.380000000000000226,2.404066644821952980
0.381000000000000227,2.402124403346410197
0.382000000000000228,2.400130042436369404
0.383000000000000229,2.398060766864891669
0.384000000000000230,2.395894547791630025
0.385000000000000231,2.393610128139393112
0.386000000000000232,2.391187026636033330
0.387000000000000233,2.388605540571066221
0.388000000000000234,2.385846747316873628
0.389000000000000234,2.382892504664210875
0.390000000000000235,2.379725450021915822
0.391000000000000236,2.376328998530310876
0.392000000000000237,2.372687340137715317
0.393000000000000238,2.368785435688908425
0.394000000000000239,2.364609012074063266
0.395000000000000240,2.360144556485963108
0.396000000000000241,2.355379309832746237
0.397000000000000242,2.350301259352669980
0.398000000000000242,2.344899130476564508
0.399000000000000243,2.339162377982883179
0.400000000000000244,2.333081176489307573
0.401000000000000245,2.326646410323788050
0.402000000000000246,2.319849662817250469
0.403000000000000247,2.312683205058798652
0.404000000000000248,2.305139984153434352
0.405000000000000249,2.297213611021140522
0.406000000000000250,2.288898347775138120
0.407000000000000250,2.280189094715909359
0.408000000000000251,2.271081376976582966
0.409000000000000252,2.261571330854006856
0.410000000000000253,2.251655689858822917
0.411000000000000254,2.241331770516562738
0.412000000000000255,2.230597457950828755
0.413000000000000256,2.219451191278211333
0.414000000000000257,2.207891948843820451
0.415000000000000258,2.195919233324747033
0.416000000000000258,2.183533056728074406
0.417000000000000259,2.170733925308604206
0.418000000000000260,2.157522824430606168
0.419000000000000261,2.143901203396660016
0.420000000000000262,2.129870960265724200
0.421000000000000263,2.115434426681342739
0.422000000000000264,2.100594352730154046
0.423000000000000265,2.085353891849526242
0.424000000000000266,2.069716585802379161
0.425000000000000266,2.053686349736271843
0.426000000000000267,2.037267457342768040
0.427000000000000268,2.020464526132288441
0.428000000000000269,2.003282502838726664
0.429000000000000270,1.985726648967214292
0.430000000000000271,1.967802526497583582
0.431000000000000272,1.949515983755251369
0.432000000000000273,1.930873141460478948
0.433000000000000274,1.911880378966103633
0.434000000000000274,1.892544320693171356
0.435000000000000275,1.872871822773153783
0.436000000000000276,1.852869959904676289
0.437000000000000277,1.832546012432085147
0.438000000000000278,1.811907453652471744
0.439000000000000279,1.790961937357167910
0.440000000000000280,1.769717285613084723
0.441000000000000281,1.748181476788801758
0.442000000000000282,1.726362633829511051
0.443000000000000282,1.704269012784723314
0.444000000000000283,1.681908991591773539
0.445000000000000284,1.659291059117965705
0.446000000000000285,1.636423804463554621
0.447000000000000286,1.613315906527322596
0.448000000000000287,1.589976123836216892
0.449000000000000288,1.566413284639896153
0.450000000000000289,1.542636277270835965
0.451000000000000290,1.518654040770172298
0.452000000000000290,1.494475555779095854
0.453000000000000291,1.470109835695395883
0.454000000000000292,1.445565918094270375
0.455000000000000293,1.420852856412369913
0.456000000000000294,1.395979711893683417
0.457000000000000295,1.370955545795626618
0.458000000000000296,1.345789411853443251
0.459000000000000297,1.320490349000835950
0.460000000000000298,1.295067374344431199
0.461000000000000298,1.269529476389620326
0.462000000000000299,1.243885608514961216
0.463000000000000300,1.218144682692323899
0.464000000000000301,1.192315563449637850
0.465000000000000302,1.166407062073086420
0.466000000000000303,1.140427931045341570
0.467000000000000304,1.114386858716394091
0.468000000000000305,1.088292464203356236
0.469000000000000306,1.062153292515547687
0.470000000000000306,1.035977809901042157
0.471000000000000307,1.009774399410827694
0.472000000000000308,0.983551356676575339
0.473000000000000309,0.957316885898003123
0.474000000000000310,0.931079096035788867
0.475000000000000311,0.904845997205789843
0.476000000000000312,0.878625497270532074
0.477000000000000313,0.852425398623600783
0.478000000000000314,0.826253395162823145
0.479000000000000314,0.800117069447869866
0.480000000000000315,0.774023890038075701
0.481000000000000316,0.747981209006122638
0.482000000000000317,0.721996259623354453
0.483000000000000318,0.696076154212372011
0.484000000000000319,0.670227882162678812
0.485000000000000320,0.644458308105069322
0.486000000000000321,0.618774170240510291
0.487000000000000322,0.593182078819297298
0.488000000000000322,0.567688514766274244
0.489000000000000323,0.542299828447917021
0.490000000000000324,0.517022238577152793
0.491000000000000325,0.491861831251800108
0.492000000000000326,0.466824559122558658
0.493000000000000327,0.441916240686504813
0.494000000000000328,0.417142559702132321
0.495000000000000329,0.392509064721959677
0.496000000000000330,0.368021168738880022
0.497000000000000330,0.343684148942306311
0.498000000000000331,0.319503146580460473
0.499000000000000332,0.295483166924975171
0.500000000000000333,0.271629079334149925
0.501000000000000334,0.247945617411304470
0.502000000000000335,0.224437379254584624
0.503000000000000336,0.201108827794807515
0.504000000000000337,0.177964291217840187
0.505000000000000338,0.155007963468196647
0.506000000000000338,0.132243904830502274
0.507000000000000339,0.109676042585592451
0.508000000000000340,0.087308171738083765
0.509000000000000341,0.065143955812252879
0.510000000000000342,0.043186927713233722
0.511000000000000343,0.021440490650473598
0.512000000000000344,-0.000092080879410217
0.513000000000000345,-0.021407640053246080
0.514000000000000346,-0.042503166628253021
0.515000000000000346,-0.063375765797923783
0.516000000000000347,-0.084022666999597401
0.517000000000000348,-0.104441222676304138
0.518000000000000349,-0.124628906995378361
0.519000000000000350,-0.144583314526344042
0.520000000000000351,-0.164302158880454019
0.521000000000000352,-0.183783271314262947
0.522000000000000353,-0.203024599299431147
0.523000000000000353,-0.222024205061091356
0.524000000000000354,-0.240780264086820933
0.525000000000000355,-0.259291063608402594
0.526000000000000356,-0.277555001058330753
0.527000000000000357,-0.295570582503103974
0.528000000000000358,-0.313336421055200598
0.529000000000000359,-0.330851235265552712
0.530000000000000360,-0.348113847498376983
0.531000000000000361,-0.365123182290083725
0.532000000000000361,-0.381878264693949199
0.533000000000000362,-0.398378218612189916
0.534000000000000363,-0.414622265117016664
0.535000000000000364,-0.430609720762216708
0.536000000000000365,-0.446339995886695928
0.537000000000000366,-0.461812592911467312
0.538000000000000367,-0.477027104631383370
0.539000000000000368,-0.491983212503037115
0.540000000000000369,-0.506680684930004843
0.541000000000000369,-0.521119375546751584
0.542000000000000370,-0.535299221502310463
0.543000000000000371,-0.549220241744928672
0.544000000000000372,-0.562882535308750098
0.545000000000000373,-0.576286279603582585
0.546000000000000374,-0.589431728708781133
0.547000000000000375,-0.602319211672167620
0.548000000000000376,-0.614949130814989919
0.549000000000000377,-0.627321960043709881
0.550000000000000377,-0.639438243169571541
0.551000000000000378,-0.651298592236660978
0.552000000000000379,-0.662903685859313474
0.553000000000000380,-0.674254267569553423
0.554000000000000381,-0.685351144175275984
0.555000000000000382,-0.696195184129887790
0.556000000000000383,-0.706787315913942171
0.557000000000000384,-0.717128526429496649
0.558000000000000385,-0.727219859407636560
0.559000000000000385,-0.737062413829815410
0.560000000000000386,-0.746657342363441279
0.561000000000000387,-0.756005849812239061
0.562000000000000388,-0.765109191581804682
0.563000000000000389,-0.773968672160834315
0.564000000000000390,-0.782585643618340376
0.565000000000000391,-0.790961504117318359
0.566000000000000392,-0.799097696445142724
0.567000000000000393,-0.806995706561074555
0.568000000000000393,-0.814657062161110224
0.569000000000000394,-0.822083331260526462
0.570000000000000395,-0.829276120794329663
0.571000000000000396,-0.836237075235825578
0.572000000000000397,-0.842967875233609609
0.573000000000000398,-0.849470236267051981
0.574000000000000399,-0.855745907320556887
0.575000000000000400,-0.861796669576685659
0.576000000000000401,-0.867624335128295399
0.577000000000000401,-0.873230745709856038
0.578000000000000402,-0.878617771447979701
0.579000000000000403,-0.883787309631284046
0.580000000000000404,-0.888741283499695056
0.581000000000000405,-0.893481641053169851
0.582000000000000406,-0.898010353879957202
0.583000000000000407,-0.902329416004361562
0.584000000000000408,-0.906440842754083542
0.585000000000000409,-0.910346669647087658
0.586000000000000409,-0.914048951298009116
0.587000000000000410,-0.917549760344110843
0.588000000000000411,-0.920851186390664322
0.589000000000000412,-0.923955334975843812
0.590000000000000413,-0.926864326554938112
0.591000000000000414,-0.929580295503923848
0.592000000000000415,-0.932105389142280139
0.593000000000000416,-0.934441766774953386
0.594000000000000417,-0.936591598753394150
0.595000000000000417,-0.938557065555601255
0.596000000000000418,-0.940340356884966866
0.597000000000000419,-0.941943670787941612
0.598000000000000420,-0.943369212790261757
0.599000000000000421,-0.944619195051725535
0.600000000000000422,-0.945695835539301810
0.601000000000000423,-0.946601357218460726
0.602000000000000424,-0.947337987262587888
0.603000000000000425,-0.947907956280330311
0.604000000000000425,-0.948313497560668517
0.605000000000000426,-0.948556846335615544
0.606000000000000427,-0.948640239060373758
0.607000000000000428,-0.948565912710673365
0.608000000000000429,-0.948336104097310617
0.609000000000000430,-0.947953049197480802
0.610000000000000431,-0.947418982502933105
0.611000000000000432,-0.946736136384605742
0.612000000000000433,-0.945906740473631436
0.613000000000000433,-0.944933021058523948
0.614000000000000434,-0.943817200498311082
0.615000000000000435,-0.942561496651440400
0.616000000000000436,-0.941168122320270362
0.617000000000000437,-0.939639284710948930
0.618000000000000438,-0.937977184908448280
0.619000000000000439,-0.936184017366567645
0.620000000000000440,-0.934261969412732540
0.621000000000000441,-0.932213220767336259
0.622000000000000441,-0.930039943077457520
0.623000000000000442,-0.927744299464699607
0.624000000000000443,-0.925328444087013535
0.625000000000000444,-0.922794521714240923
0.626000000000000445,-0.920144667317175591
0.627000000000000446,-0.917381005669965277
0.628000000000000447,-0.914505650965631078
0.629000000000000448,-0.911520706444475692
0.630000000000000449,-0.908428264035188837
0.631000000000000449,-0.905230404008468326
0.632000000000000450,-0.901929194642898557
0.633000000000000451,-0.898526691902934216
0.634000000000000452,-0.895024939128723163
0.635000000000000453,-0.891425966737626529
0.636000000000000454,-0.887731791937179771
0.637000000000000455,-0.883944418449336133
0.638000000000000456,-0.880065836245742639
0.639000000000000457,-0.876098021293887697
0.640000000000000457,-0.872042935313916523
0.641000000000000458,-0.867902525545864334
0.642000000000000459,-0.863678724527207509
0.643000000000000460,-0.859373449880423634
0.644000000000000461,-0.854988604110461403
0.645000000000000462,-0.850526074411874111
0.646000000000000463,-0.845987732485422805
0.647000000000000464,-0.841375434364001196
0.648000000000000465,-0.836691020247656958
0.649000000000000465,-0.831936314347525019
0.650000000000000466,-0.827113124738518501
0.651000000000000467,-0.822223243220540745
0.652000000000000468,-0.817268445188110149
0.653000000000000469,-0.812250489508121509
0.654000000000000470,-0.807171118405687671
0.655000000000000471,-0.802032057357769390
0.656000000000000472,-0.796835014994493607
0.657000000000000473,-0.791581683007948511
0.658000000000000473,-0.786273736068329177
0.659000000000000474,-0.780912831747215930
0.660000000000000475,-0.775500610447855898
0.661000000000000476,-0.770038695342252666
0.662000000000000477,-0.764528692314952574
0.663000000000000478,-0.758972189913301509
0.664000000000000479,-0.753370759304089033
0.665000000000000480,-0.747725954236327484
0.666000000000000481,-0.742039311010149860
0.667000000000000481,-0.736312348451505061
0.668000000000000482,-0.730546567892676135
0.669000000000000483,-0.724743453158332107
0.670000000000000484,-0.718904470557050868
0.671000000000000485,-0.713031068878150376
0.672000000000000486,-0.707124679393656086
0.673000000000000487,-0.701186715865343313
0.674000000000000488,-0.695218574556611624
0.675000000000000488,-0.689221634249142734
0.676000000000000489,-0.683197256264196140
0.677000000000000490,-0.677146784488352749
0.678000000000000491,-0.671071545403660763
0.679000000000000492,-0.664972848122006299
0.680000000000000493,-0.658851984423581172
0.681000000000000494,-0.652710228799380010
0.682000000000000495,-0.646548838497516543
0.683000000000000496,-0.640369053573352054
0.684000000000000496,-0.634172096943216301
0.685000000000000497,-0.627959174441674484
0.686000000000000498,-0.621731474882202706
0.687000000000000499,-0.615490170121163471
0.688000000000000500,-0.609236415124972175
0.689000000000000501,-0.602971348040362010
0.690000000000000502,-0.596696090267633261
0.691000000000000503,-0.590411746536776638
0.692000000000000504,-0.584119404986368940
0.693000000000000504,-0.577820137245198984
0.694000000000000505,-0.571514998516412076
0.695000000000000506,-0.565205027664214210
0.696000000000000507,-0.558891247302933714
0.697000000000000508,-0.552574663888397266
0.698000000000000509,-0.546256267811555229
0.699000000000000510,-0.539937033494199303
0.700000000000000511,-0.533617919486758518
0.701000000000000512,-0.527299868568039898
0.702000000000000512,-0.520983807846860825
0.703000000000000513,-0.514670648865476532
0.704000000000000514,-0.508361287704734210
0.705000000000000515,-0.502056605090863028
0.706000000000000516,-0.495757466503845834
0.707000000000000517,-0.489464722287279830
0.708000000000000518,-0.483179207759640683
0.709000000000000519,-0.476901743326956395
0.710000000000000520,-0.470633134596685543
0.711000000000000520,-0.464374172492879933
0.712000000000000521,-0.458125633372455709
0.713000000000000522,-0.451888279142558358
0.714000000000000523,-0.445662857378967214
0.715000000000000524,-0.439450101445427233
0.716000000000000525,-0.433250730613914725
0.717000000000000526,-0.427065450185723894
0.718000000000000527,-0.420894951613329682
0.719000000000000528,-0.414739912622994034
0.720000000000000528,-0.408600997338060268
0.721000000000000529,-0.402478856402805174
0.722000000000000530,-0.396374127106939089
0.723000000000000531,-0.390287433510547399
0.724000000000000532,-0.384219386569556398
0.725000000000000533,-0.378170584261591336
0.726000000000000534,-0.372141611712192455
0.727000000000000535,-0.366133041321389407
0.728000000000000536,-0.360145432890530137
0.729000000000000536,-0.354179333749349179
0.730000000000000537,-0.348235278883261334
0.731000000000000538,-0.342313791060751826
0.732000000000000539,-0.336415380960941590
0.733000000000000540,-0.330540547301180043
0.734000000000000541,-0.324689776964708021
0.735000000000000542,-0.318863545128278192
0.736000000000000543,-0.313062315389803447
0.737000000000000544,-0.307286539895856303
0.738000000000000544,-0.301536659469141988
0.739000000000000545,-0.295813103735760308
0.740000000000000546,-0.290116291252357661
0.741000000000000547,-0.284446629633028025
0.742000000000000548,-0.278804515676049913
0.743000000000000549,-0.273190335490273495
0.744000000000000550,-0.267604464621296168
0.745000000000000551,-0.262047268177288184
0.746000000000000552,-0.256519100954479717
0.747000000000000552,-0.251020307562292488
0.748000000000000553,-0.245551222548061027
0.749000000000000554,-0.240112170521341983
0.750000000000000555,-0.234703466277804751
0.751000000000000556,-0.229325414922623011
0.752000000000000557,-0.223978311993430074
0.753000000000000558,-0.218662443582705451
0.754000000000000559,-0.213378086459711180
0.755000000000000560,-0.208125508191822600
0.756000000000000560,-0.202904967265340547
0.757000000000000561,-0.197716713205683320
0.758000000000000562,-0.192560986697000697
0.759000000000000563,-0.187438019701187286
0.760000000000000564,-0.182348035576239964
0.761000000000000565,-0.177291249193973099
0.762000000000000566,-0.172267867057083579
0.763000000000000567,-0.167278087415534127
0.764000000000000568,-0.162322100382235573
0.765000000000000568,-0.157400088048056941
0.766000000000000569,-0.152512224596084073
0.767000000000000570,-0.147658676415184320
0.768000000000000571,-0.142839602212799843
0.769000000000000572,-0.138055153127024433
0.770000000000000573,-0.133305472837902089
0.771000000000000574,-0.128590697677959054
0.772000000000000575,-0.123910956741967768
0.773000000000000576,-0.119266371995897985
0.774000000000000576,-0.114657058385101693
0.775000000000000577,-0.110083123941684097
0.776000000000000578,-0.105544669891042234
0.777000000000000579,-0.101041790757633781
0.778000000000000580,-0.096574574469861479
0.779000000000000581,-0.092143102464177756
0.780000000000000582,-0.087747449788312198
0.781000000000000583,-0.083387685203698630
0.782000000000000584,-0.079063871287012560
0.783000000000000584,-0.074776064530881481
0.784000000000000585,-0.070524315443744351
0.785000000000000586,-0.066308668648821650
0.786000000000000587,-0.062129162982258943
0.787000000000000588,-0.057985831590378734
0.788000000000000589,-0.053878702026058933
0.789000000000000590,-0.049807796344271606
0.790000000000000591,-0.045773131196704175
0.791000000000000592,-0.041774717925540536
0.792000000000000592,-0.037812562656338013
0.793000000000000593,-0.033886666390044673
0.794000000000000594,-0.029997025094118657
0.795000000000000595,-0.026143629792788219
0.796000000000000596,-0.022326466656395306
0.797000000000000597,-0.018545517089900203
0.798000000000000598,-0.014800757820471976
0.799000000000000599,-0.011092160984199167
0.800000000000000600,-0.007419694211949428
0.801000000000000600,-0.003783320714301036
0.802000000000000601,-0.000182999365634268
0.803000000000000602,0.003381315212677621
0.804000000000000603,0.006909672569945050
0.805000000000000604,0.010402126344710747
0.806000000000000605,0.013858734184204149
0.807000000000000606,0.017279557664612137
0.808000000000000607,0.020664662212278650
0.809000000000000608,0.024014117025732883
0.810000000000000608,0.027327994998583099
0.811000000000000609,0.030606372643322621
0.812000000000000610,0.033849330015914461
0.813000000000000611,0.037056950641312383
0.814000000000000612,0.040229321439792208
0.815000000000000613,0.043366532654124143
0.816000000000000614,0.046468677777640584
0.817000000000000615,0.049535853483107496
0.818000000000000616,0.052568159552439223
0.819000000000000616,0.055565698807270282
0.820000000000000617,0.058528577040351207
0.821000000000000618,0.061456902947763549
0.822000000000000619,0.064350788061962372
0.823000000000000620,0.067210346685652719
0.824000000000000621,0.070035695826475591
0.825000000000000622,0.072826955132492724
0.826000000000000623,0.075584246828495238
0.827000000000000624,0.078307695653113962
0.828000000000000624,0.080997428796708335
0.829000000000000625,0.083653575840086453
0.830000000000000626,0.086276268693969732
0.831000000000000627,0.088865641539273413
0.832000000000000628,0.091421830768145210
0.833000000000000629,0.093944974925797467
0.834000000000000630,0.096435214653088339
0.835000000000000631,0.098892692629879139
0.836000000000000631,0.101317553519144649
0.837000000000000632,0.103709943911827890
0.838000000000000633,0.106070012272469885
0.839000000000000634,0.108397908885544209
0.840000000000000635,0.110693785802551264
0.841000000000000636,0.112957796789849269
0.842000000000000637,0.115190097277182393
0.843000000000000638,0.117390844306960035
0.844000000000000639,0.119560196484229997
0.845000000000000639,0.121698313927370072
0.846000000000000640,0.123805358219485434
0.847000000000000641,0.125881492360480352
0.848000000000000642,0.127926880719857750
0.849000000000000643,0.129941688990185933
0.850000000000000644,0.131926084141218702
0.851000000000000645,0.133880234374752383
0.852000000000000646,0.135804309080093444
0.853000000000000647,0.137698478790214157
0.854000000000000647,0.139562915138567833
0.855000000000000648,0.141397790816547964
0.856000000000000649,0.143203279531586680
0.857000000000000650,0.144979555965904255
0.858000000000000651,0.146726795735894228
0.859000000000000652,0.148445175352120817
0.860000000000000653,0.150134872179945006
0.861000000000000654,0.151796064400784969
0.862000000000000655,0.153428930973945443
0.863000000000000655,0.155033651599098543
0.864000000000000656,0.156610406679324188
0.865000000000000657,0.158159377284773667
0.866000000000000658,0.159680745116895395
0.867000000000000659,0.161174692473246450
0.868000000000000660,0.162641402212899661
0.869000000000000661,0.164081057722398393
0.870000000000000662,0.165493842882279557
0.871000000000000663,0.166879942034144524
0.872000000000000663,0.168239539948317196
0.873000000000000664,0.169572821792003781
0.874000000000000665,0.170879973098021415
0.875000000000000666,0.172161179734051206
0.876000000000000667,0.173416627872422957
0.877000000000000668,0.174646503960423444
0.878000000000000669,0.175850994691114954
0.879000000000000670,0.177030286974682871
0.880000000000000671,0.178184567910266101
0.881000000000000671,0.179314024758314317
0.882000000000000672,0.180418844913413562
0.883000000000000673,0.181499215877628017
0.884000000000000674,0.182555325234298960
0.885000000000000675,0.183587360622348483
0.886000000000000676,0.184595509711037886
0.887000000000000677,0.185579960175196734
0.888000000000000678,0.186540899670931876
0.889000000000000679,0.187478515811760532
0.890000000000000679,0.188392996145227809
0.891000000000000680,0.189284528129946034
0.892000000000000681,0.190153299113090507
0.893000000000000682,0.190999496308328437
0.894000000000000683,0.191823306774172642
0.895000000000000684,0.192624917392761108
0.896000000000000685,0.193404514849061737
0.897000000000000686,0.194162285610495949
0.898000000000000687,0.194898415906949923
0.899000000000000687,0.195613091711225151
0.900000000000000688,0.196306498719859335
0.901000000000000689,0.196978822334359593
0.902000000000000690,0.197630247642812867
0.903000000000000691,0.198260959401890591
0.904000000000000692,0.198871142019234781
0.905000000000000693,0.199460979536211669
0.906000000000000694,0.200030655611037167
0.907000000000000695,0.200580353502277819
0.908000000000000695,0.201110256052695030
0.909000000000000696,0.201620545673469792
0.910000000000000697,0.202111404328747607
0.911000000000000698,0.202583013520563737
0.912000000000000699,0.203035554274088204
0.913000000000000700,0.203469207123204654
0.914000000000000701,0.203884152096459298
0.915000000000000702,0.204280568703284787
0.916000000000000703,0.204658635920593884
0.917000000000000703,0.205018532179665147
0.918000000000000704,0.205360435353361931
0.919000000000000705,0.205684522743652121
0.920000000000000706,0.205990971069433482
0.921000000000000707,0.206279956454671787
0.922000000000000708,0.206551654416836705
0.923000000000000709,0.206806239855606228
0.924000000000000710,0.207043887041908681
0.925000000000000711,0.207264769607203636
0.926000000000000711,0.207469060533077287
0.927000000000000712,0.207656932141097345
0.928000000000000713,0.207828556082956334
0.929000000000000714,0.207984103330859899
0.930000000000000715,0.208123744168220270
0.931000000000000716,0.208247648180579809
0.932000000000000717,0.208355984246793746
0.933000000000000718,0.208448920530498849
0.934000000000000719,0.208526624471790434
0.935000000000000719,0.208589262779176193
0.936000000000000720,0.208637001421766277
0.937000000000000721,0.208670005621698351
0.938000000000000722,0.208688439846798357
0.939000000000000723,0.208692467803483994
0.940000000000000724,0.208682252429888221
0.941000000000000725,0.208657955889207714
0.942000000000000726,0.208619739563275536
0.943000000000000727,0.208567764046359627
0.944000000000000727,0.208502189139164656
0.945000000000000728,0.208423173843047926
0.946000000000000729,0.208330876354458322
0.947000000000000730,0.208225454059553700
0.948000000000000731,0.208107063529052200
0.949000000000000732,0.207975860513248983
0.950000000000000733,0.207831999937264589
0.951000000000000734,0.207675635896441557
0.952000000000000735,0.207506921651977899
0.953000000000000735,0.207326009626715768
0.954000000000000736,0.207133051401117957
0.955000000000000737,0.206928197709436434
0.956000000000000738,0.206711598436042449
0.957000000000000739,0.206483402611940814
0.958000000000000740,0.206243758411456535
0.959000000000000741,0.205992813149084159
0.960000000000000742,0.205730713276502580
0.961000000000000743,0.205457604379758990
0.962000000000000743,0.205173631176609916
0.963000000000000744,0.204878937514016035
0.964000000000000745,0.204573666365792162
0.965000000000000746,0.204257959830418667
0.966000000000000747,0.203931959128986262
0.967000000000000748,0.203595804603306618
0.968000000000000749,0.203249635714141869
0.969000000000000750,0.202893591039606275
0.970000000000000751,0.202527808273674115
0.971000000000000751,0.202152424224854105
0.972000000000000752,0.201767574814984668
0.973000000000000753,0.201373395078143558
0.974000000000000754,0.200970019159724927
0.975000000000000755,0.200557580315606054
0.976000000000000756,0.200136210911463719
0.977000000000000757,0.199706042422199304
0.978000000000000758,0.199267205431492483
0.979000000000000759,0.198819829631455836
0.980000000000000759,0.198364043822431974
0.981000000000000760,0.197899975912883108
0.982000000000000761,0.197427752919388910
0.983000000000000762,0.196947500966770994
0.984000000000000763,0.196459345288320625
0.985000000000000764,0.195963410226104806
0.986000000000000765,0.195459819231414894
0.987000000000000766,0.194948694865289013
0.988000000000000766,0.194430158799140329
0.989000000000000767,0.193904331815480196
0.990000000000000768,0.193371333808736695
0.991000000000000769,0.192831283786175922
0.992000000000000770,0.192284299868897751
0.993000000000000771,0.191730499292920908
0.994000000000000772,0.191169998410380182
0.995000000000000773,0.190602912690770288
0.996000000000000774,0.190029356722310000
0.997000000000000774,0.189449444213361712
0.998000000000000775,0.188863287993944390
0.999000000000000776,0.188271000017318807
1.000000000000000666,0.187672691361656180
1.001000000000000778,0.187068472231768868
1.002000000000000668,0.186458451960930416
1.003000000000000780,0.185842739012754554
1.004000000000000670,0.185221440983149271
1.005000000000000782,0.184594664602336783
1.006000000000000671,0.183962515736943333
1.007000000000000783,0.183325099392153079
1.008000000000000673,0.182682519713924740
1.009000000000000785,0.182034879991268911
1.010000000000000675,0.181382282658593214
1.011000000000000787,0.180724829298095496
1.012000000000000677,0.180062620642223725
1.013000000000000789,0.179395756576186310
1.014000000000000679,0.178724336140529488
1.015000000000000790,0.178048457533748067
1.016000000000000680,0.177368218114963089
1.017000000000000792,0.176683714406650455
1.018000000000000682,0.175995042097414567
1.019000000000000794,0.175302296044809292
1.020000000000000684,0.174605570278205391
1.021000000000000796,0.173904958001712850
1.022000000000000686,0.173200551597139041
1.023000000000000798,0.172492442626986320
1.024000000000000687,0.171780721837510753
1.025000000000000799,0.171065479161794348
1.026000000000000689,0.170346803722881857
1.027000000000000801,0.169624783836938631
1.028000000000000691,0.168899507016462141
1.029000000000000803,0.168171059973508008
1.030000000000000693,0.167439528622982753
1.031000000000000805,0.166704998085929146
1.032000000000000695,0.165967552692889680
1.033000000000000806,0.165227275987268440
1.034000000000000696,0.164484250728733100
1.035000000000000808,0.163738558896663722
1.036000000000000698,0.162990281693605465
1.037000000000000810,0.162239499548757243
1.038000000000000700,0.161486292121505282
1.039000000000000812,0.160730738304959486
1.040000000000000702,0.159972916229522033
1.041000000000000814,0.159212903266483380
1.042000000000000703,0.158450776031654056
1.043000000000000815,0.157686610388986154
1.044000000000000705,0.156920481454244504
1.045000000000000817,0.156152463598698887
1.046000000000000707,0.155382630452812032
1.047000000000000819,0.154611054909970624
1.048000000000000709,0.153837809130231568
1.049000000000000821,0.153062964544069424
1.050000000000000711,0.152286591856162279
1.051000000000000822,0.151508761049174490
1.052000000000000712,0.150729541387570665
1.053000000000000824,0.149949001421432748
1.054000000000000714,0.149167208990296757
1.055000000000000826,0.148384231226999647
1.056000000000000716,0.147600134561539226
1.057000000000000828,0.146814984724947667
1.058000000000000718,0.146028846753175762
1.059000000000000830,0.145241784990982448
1.060000000000000719,0.144453863095838964
1.061000000000000831,0.143665144041841858
1.062000000000000721,0.142875690123635046
1.063000000000000833,0.142085562960326206
1.064000000000000723,0.141294823499439587
1.065000000000000835,0.140503532020844174
1.066000000000000725,0.139711748140700365
1.067000000000000837,0.138919530815428599
1.068000000000000727,0.138126938345640882
1.069000000000000838,0.137334028380128620
1.070000000000000728,0.136540857919808273
1.071000000000000840,0.135747483321700946
1.072000000000000730,0.134953960302895914
1.073000000000000842,0.134160343944526084
1.074000000000000732,0.133366688695750829
1.075000000000000844,0.132573048377715830
1.076000000000000734,0.131779476187539879
1.077000000000000846,0.130986024702290343
1.078000000000000735,0.130192745882952293
1.079000000000000847,0.129399691078416063
1.080000000000000737,0.128606911029430615
1.081000000000000849,0.127814455872598987
1.082000000000000739,0.127022375144332650
1.083000000000000851,0.126230717784822588
1.084000000000000741,0.125439532142000654
1.085000000000000853,0.124648865975508685
1.086000000000000743,0.123858766460648598
1.087000000000000854,0.123069280192333513
1.088000000000000744,0.122280453189037838
1.089000000000000856,0.121492330896747797
1.090000000000000746,0.120704958192888928
1.091000000000000858,0.119918379390258914
1.092000000000000748,0.119132638240964719
1.093000000000000860,0.118347777940325513
1.094000000000000750,0.117563841130804467
1.095000000000000862,0.116780869905897713
1.096000000000000751,0.115998905814041958
1.097000000000000863,0.115217989862508391
1.098000000000000753,0.114438162521277476
1.099000000000000865,0.113659463726914226
1.100000000000000755,0.112881932886446684
1.101000000000000867,0.112105608881205576
1.102000000000000757,0.111330530070688091
1.103000000000000869,0.110556734296382686
1.104000000000000759,0.109784258885612981
1.105000000000000870,0.109013140655341845
1.106000000000000760,0.108243415915997440
1.107000000000000872,0.107475120475253913
1.108000000000000762,0.106708289641831100
1.109000000000000874,0.105942958229265916
1.110000000000000764,0.105179160559683793
1.111000000000000876,0.104416930467551655
1.112000000000000766,0.103656301303414272
1.113000000000000878,0.102897305937633909
1.114000000000000767,0.102139976764103316
1.115000000000000879,0.101384345703958670
1.116000000000000769,0.100630444209270947
1.117000000000000881,0.099878303266726573
1.118000000000000771,0.099127953401300761
1.119000000000000883,0.098379424679908983
1.120000000000000773,0.097632746715053148
1.121000000000000885,0.096887948668451712
1.122000000000000774,0.096145059254657286
1.123000000000000886,0.095404106744658296
1.124000000000000776,0.094665118969461684
1.125000000000000888,0.093928123323683749
1.126000000000000778,0.093193146769097970
1.127000000000000890,0.092460215838180398
1.128000000000000780,0.091729356637658549
1.129000000000000892,0.091000594852010147
1.130000000000000782,0.090273955746979467
1.131000000000000894,0.089549464173062449
1.132000000000000783,0.088827144568982414
1.133000000000000895,0.088107020965140267
1.134000000000000785,0.087389116987076937
1.135000000000000897,0.086673455858878562
1.136000000000000787,0.085960060406612415
1.137000000000000899,0.085248953061707572
1.138000000000000789,0.084540155864356120
1.139000000000000901,0.083833690466853711
1.140000000000000790,0.083129578136975329
1.141000000000000902,0.082427839761308144
1.142000000000000792,0.081728495848556265
1.143000000000000904,0.081031566532858201
1.144000000000000794,0.080337071577066071
1.145000000000000906,0.079645030376033127
1.146000000000000796,0.078955461959847165
1.147000000000000908,0.078268384997088769
1.148000000000000798,0.077583817798044602
1.149000000000000909,0.076901778317918862
1.150000000000000799,0.076222284160025050
1.151000000000000689,0.075545352578956490
1.152000000000000801,0.074871000483744815
1.153000000000000913,0.074199244441003551
1.154000000000000803,0.073530100678052324
1.155000000000000693,0.072863585086026056
1.156000000000000805,0.072199713222958248
1.157000000000000917,0.071538500316873685
1.158000000000000806,0.070879961268826924
1.159000000000000696,0.070224110655956101
1.160000000000000808,0.069570962734504874
1.161000000000000920,0.068920531442828808
1.162000000000000810,0.068272830404384560
1.163000000000000700,0.067627872930711125
1.164000000000000812,0.066985672024378856
1.165000000000000924,0.066346240381938523
1.166000000000000814,0.065709590396837145
1.167000000000000703,0.065075734162330617
1.168000000000000815,0.064444683474365910
1.169000000000000927,0.063816449834466701
1.170000000000000817,0.063191044452574952
1.171000000000000707,0.062568478249903234
1.172000000000000819,0.061948761861744320
1.173000000000000931,0.061331905640284255
1.174000000000000821,0.060717919657394537
1.175000000000000711,0.060106813707390308
1.176000000000000822,0.059498597309796307
1.177000000000000934,0.058893279712079673
1.178000000000000824,0.058290869892371491
1.179000000000000714,0.057691376562173671
1.180000000000000826,0.057094808169036559
1.181000000000000938,0.056501172899241635
1.182000000000000828,0.055910478680445019
1.183000000000000718,0.055322733184316922
1.184000000000000830,0.054737943829161397
1.185000000000000941,0.054156117782523917
1.186000000000000831,0.053577261963764625
1.187000000000000721,0.053001383046644181
1.188000000000000833,0.052428487461862273
1.189000000000000945,0.051858581399602678
1.190000000000000835,0.051291670812043152
1.191000000000000725,0.050727761415876448
1.192000000000000837,0.050166858694766912
1.193000000000000949,0.049608967901853443
1.194000000000000838,0.049054094062174161
1.195000000000000728,0.048502241975121506
1.196000000000000840,0.047953416216855692
1.197000000000000952,0.047407621142700723
1.198000000000000842,0.046864860889549650
1.199000000000000732,0.046325139378211720
1.200000000000000844,0.045788460315795240
1.201000000000000956,0.045254827198018190
1.202000000000000846,0.044724243311547743
1.203000000000000735,0.044196711736301228
1.204000000000000847,0.043672235347737343
1.205000000000000959,0.043150816819122993
1.206000000000000849,0.042632458623800773
1.207000000000000739,0.042117163037425034
1.208000000000000851,0.041604932140188240
1.209000000000000963,0.041095767819032195
1.210000000000000853,0.040589671769838132
1.211000000000000743,0.040086645499611245
1.212000000000000854,0.039586690328636501
1.213000000000000966,0.039089807392633312
1.214000000000000856,0.038595997644873814
1.215000000000000746,0.038105261858315573
1.216000000000000858,0.037617600627682837
1.217000000000000970,0.037133014371568025
1.218000000000000860,0.036651503334491277
1.219000000000000750,0.036173067588954243
1.220000000000000862,0.035697707037480146
1.221000000000000973,0.035225421414640093
1.222000000000000863,0.034756210289055026
1.223000000000000753,0.034290073065394631
1.224000000000000865,0.033827008986350514
1.225000000000000977,0.033367017134599455
1.226000000000000867,0.032910096434752324
1.227000000000000757,0.032456245655287638
1.228000000000000869,0.032005463410472237
1.229000000000000981,0.031557748162252583
1.230000000000000870,0.031113098222161052
1.231000000000000760,0.030671511753177217
1.232000000000000872,0.030232986771583682
1.233000000000000984,0.029797521148833793
1.234000000000000874,0.029365112613349002
1.235000000000000764,0.028935758752363351
1.236000000000000876,0.028509457013709039
1.237000000000000988,0.028086204707610817
1.238000000000000878,0.027665999008454401
1.239000000000000767,0.027248836956550525
1.240000000000000879,0.026834715459874824
1.241000000000000991,0.026423631295802979
1.242000000000000881,0.026015581112827556
1.243000000000000771,0.025610561432256217
1.244000000000000883,0.025208568649909745
1.245000000000000995,0.024809599037790047
1.246000000000000885,0.024413648745742887
1.247000000000000774,0.024020713803112687
1.248000000000000886,0.023630790120370376
1.249000000000000998,0.023243873490739420
1.250000000000000888,0.022859959591798540
1.251000000000000778,0.022479043987084189
1.252000000000000890,0.022101122127662680
1.253000000000001002,0.021726189353710998
1.254000000000000892,0.021354240896055150
1.255000000000000782,0.020985271877730409
1.256000000000000894,0.020619277315494487
1.257000000000001005,0.020256252121355532
1.258000000000000895,0.019896191104067817
1.259000000000000785,0.019539088970628213
1.260000000000000897,0.019184940327749412
1.261000000000001009,0.018833739683326123
1.262000000000000899,0.018485481447891056
1.263000000000000789,0.018140159936053148
1.264000000000000901,0.017797769367919707
1.265000000000001013,0.017458303870523811
1.266000000000000902,0.017121757479217396
1.267000000000000792,0.016788124139066763
1.268000000000000904,0.016457397706229396
1.269000000000001016,0.016129571949321828
1.270000000000000906,0.015804640550772860
1.271000000000000796,0.015482597108168109
1.272000000000000908,0.015163435135582739
1.273000000000001020,0.014847148064894100
1.274000000000000909,0.014533729247094928
1.275000000000000799,0.014223171953591005
1.276000000000000911,0.013915469377473132
1.277000000000001023,0.013610614634806135
1.278000000000000913,0.013308600765879619
1.279000000000000803,0.013009420736459498
1.280000000000000915,0.012713067439022943
1.281000000000001027,0.012419533694000433
1.282000000000000917,0.012128812250971344
1.283000000000000806,0.011840895789885739
1.284000000000000918,0.011555776922245612
1.285000000000001030,0.011273448192298877
1.286000000000000920,0.010993902078201414
1.287000000000000810,0.010717130993188299
1.288000000000000922,0.010443127286712784
1.289000000000001034,0.010171883245596428
1.290000000000000924,0.009903391095156765
1.291000000000000814,0.009637643000314330
1.292000000000000925,0.009374631066722611
1.293000000000001037,0.009114347341839985
1.294000000000000927,0.008856783816036847
1.295000000000000817,0.008601932423665668
1.296000000000000929,0.008349785044124498
1.297000000000001041,0.008100333502923232
1.298000000000000931,0.007853569572716898
1.299000000000000821,0.007609484974351204
1.300000000000000933,0.007368071377891921
1.301000000000001044,0.007129320403631273
1.302000000000000934,0.006893223623103660
1.303000000000000824,0.006659772560076223
1.304000000000000936,0.006428958691546959
1.305000000000001048,0.006200773448706892
1.306000000000000938,0.005975208217921665
1.307000000000000828,0.005752254341683379
1.308000000000000940,0.005531903119566181
1.309000000000001052,0.005314145809156538
1.310000000000000941,0.005098973626991738
1.311000000000000831,0.004886377749479515
1.312000000000000943,0.004676349313814721
1.313000000000001055,0.004468879418867191
1.314000000000000945,0.004263959126093730
1.315000000000000835,0.004061579460418061
1.316000000000000947,0.003861731411099055
1.317000000000001059,0.003664405932606100
1.318000000000000949,0.003469593945481593
1.319000000000000838,0.003277286337175058
1.320000000000000950,0.003087473962900158
1.321000000000001062,0.002900147646461832
1.322000000000000952,0.002715298181077981
1.323000000000000842,0.002532916330198364
1.324000000000000954,0.002352992828308787
1.325000000000001066,0.002175518381735786
1.326000000000000956,0.002000483669426430
1.327000000000000846,0.001827879343743036
1.328000000000000957,0.001657696031226934
1.329000000000001069,0.001489924333374352
1.330000000000000959,0.001324554827381692
1.331000000000000849,0.001161578066905909
1.332000000000000961,0.001000984582806316
1.333000000000001073,0.000842764883873143
1.334000000000000963,0.000686909457554170
1.335000000000000853,0.000533408770679078
1.336000000000000965,0.000382253270163417
1.337000000000001076,0.000233433383716668
1.338000000000000966,0.000086939520536701
1.339000000000000856,-0.000057237928006210
1.340000000000000968,-0.000199108587681243
1.341000000000001080,-0.000338682100730098
1.342000000000000970,-0.000475968125197915
1.343000000000000860,-0.000610976334278164
1.344000000000000972,-0.000743716415654675
1.345000000000001084,-0.000874198070869704
1.346000000000000973,-0.001002431014671568
1.347000000000000863,-0.001128424974399128
1.348000000000000975,-0.001252189689346643
1.349000000000001087,-0.001373734910156328
1.350000000000000977,-0.001493070398208467
1.351000000000000867,-0.001610205925018422
1.352000000000000979,-0.001725151271633584
1.353000000000001091,-0.001837916228060821
1.354000000000000981,-0.001948510592673813
1.355000000000000870,-0.002056944171635084
1.356000000000000982,-0.002163226778337578
1.357000000000001094,-0.002267368232838024
1.358000000000000984,-0.002369378361296329
1.359000000000000874,-0.002469266995434959
1.360000000000000986,-0.002567043971989252
1.361000000000001098,-0.002662719132181740
1.362000000000000988,-0.002756302321173890
1.363000000000000878,-0.002847803387559526
1.364000000000000989,-0.002937232182844997
1.365000000000001101,-0.003024598560922873
1.366000000000000991,-0.003109912377584173
1.367000000000000881,-0.003193183490012874
1.368000000000000993,-0.003274421756288107
1.369000000000001105,-0.003353637034902382
1.370000000000000995,-0.003430839184277013
1.371000000000000885,-0.003506038062289196
1.372000000000000997,-0.003579243525798471
1.373000000000001108,-0.003650465430189845
1.374000000000000998,-0.003719713628896866
1.375000000000000888,-0.003786997972977538
1.376000000000001000,-0.003852328310643892
1.377000000000001112,-0.003915714486826686
1.378000000000001002,-0.003977166342744592
1.379000000000000892,-0.004036693715467637
1.380000000000001004,-0.004094306437492400
1.381000000000001116,-0.004150014336328015
1.382000000000001005,-0.004203827234072456
1.383000000000000895,-0.004255754947009296
1.384000000000001007,-0.004305807285205160
1.385000000000001119,-0.004353994052104282
1.386000000000001009,-0.004400325044143681
1.387000000000000899,-0.004444810050349697
1.388000000000001011,-0.004487458851979119
1.389000000000001123,-0.004528281222113646
1.390000000000001013,-0.004567286925303876
1.391000000000000902,-0.004604485717193217
1.392000000000001014,-0.004639887344157617
1.393000000000001126,-0.004673501542945569
1.394000000000001016,-0.004705338040325076
1.395000000000000906,-0.004735406552731104
1.396000000000001018,-0.004763716785923073
1.397000000000001130,-0.004790278434645979
1.398000000000001020,-0.004815101182295820
1.399000000000000909,-0.004838194700583063
1.400000000000001021,-0.004859568649212891
1.401000000000001133,-0.004879232675564095
1.402000000000001023,-0.004897196414365662
1.403000000000000913,-0.004913469487385890
1.404000000000001025,-0.004928061503131376
1.405000000000001137,-0.004940982056533946
1.406000000000001027,-0.004952240728652517
1.407000000000000917,-0.004961847086388629
1.408000000000001029,-0.004969810682176143
1.409000000000001140,-0.004976141053709579
1.410000000000001030,-0.004980847723658773
1.411000000000000920,-0.004983940199384559
1.412000000000001032,-0.004985427972667068
1.413000000000001144,-0.004985320519440994
1.414000000000001034,-0.004983627299519544
1.415000000000000924,-0.004980357756334606
1.416000000000001036,-0.004975521316686882
1.417000000000001148,-0.004969127390481443
1.418000000000001037,-0.004961185370478363
1.419000000000000927,-0.004951704632048947
1.420000000000001039,-0.004940694532928810
1.421000000000001151,-0.004928164412986796
1.422000000000001041,-0.004914123593977010
1.423000000000000931,-0.004898581379315493
1.424000000000001043,-0.004881547053851139
1.425000000000001155,-0.004863029883636856
1.426000000000001044,-0.004843039115714001
1.427000000000000934,-0.004821583977890777
1.428000000000001046,-0.004798673678531229
1.429000000000001158,-0.004774317406338302
1.430000000000001048,-0.004748524330158386
1.431000000000000938,-0.004721303598764573
1.432000000000001050,-0.004692664340667105
1.433000000000001162,-0.004662615663912770
1.434000000000001052,-0.004631166655885362
1.435000000000000941,-0.004598326383127916
1.436000000000001053,-0.004564103891143668
1.437000000000001165,-0.004528508204217154
1.438000000000001055,-0.004491548325240033
1.439000000000000945,-0.004453233235520901
1.440000000000001057,-0.004413571894622525
1.441000000000001169,-0.004372573240181135
1.442000000000001059,-0.004330246187745368
1.443000000000000949,-0.004286599630613119
1.444000000000001060,-0.004241642439659743
1.445000000000001172,-0.004195383463184670
1.446000000000001062,-0.004147831526764035
1.447000000000000952,-0.004098995433078342
1.448000000000001064,-0.004048883961780192
1.449000000000001176,-0.003997505869339146
1.450000000000001066,-0.003944869888896196
1.451000000000000956,-0.003890984730122744
1.452000000000001068,-0.003835859079087075
1.453000000000001180,-0.003779501598111574
1.454000000000001069,-0.003721920925640644
1.455000000000000959,-0.003663125676114729
1.456000000000001071,-0.003603124439834711
1.457000000000001183,-0.003541925782845702
1.458000000000001073,-0.003479538246806674
1.459000000000000963,-0.003415970348871392
1.460000000000001075,-0.003351230581576104
1.461000000000001187,-0.003285327412717475
1.462000000000001076,-0.003218269285248808
1.463000000000000966,-0.003150064617158639
1.464000000000001078,-0.003080721801373113
1.465000000000001190,-0.003010249205649411
1.466000000000001080,-0.002938655172464508
1.467000000000000970,-0.002865948018927038
1.468000000000001082,-0.002792136036673362
1.469000000000001194,-0.002717227491767637
1.470000000000001084,-0.002641230624618580
1.471000000000000973,-0.002564153649878649
1.472000000000001085,-0.002486004756366061
1.473000000000001197,-0.002406792106967042
1.474000000000001087,-0.002326523838559275
1.475000000000000977,-0.002245208061924775
1.476000000000001089,-0.002162852861676611
1.477000000000001201,-0.002079466296176057
1.478000000000001091,-0.001995056397456509
1.479000000000000981,-0.001909631171153831
1.480000000000001092,-0.001823198596431503
1.481000000000001204,-0.001735766625914339
1.482000000000001094,-0.001647343185618170
1.483000000000000984,-0.001557936174889698
1.484000000000001096,-0.001467553466336428
1.485000000000001208,-0.001376202905766407
1.486000000000001098,-0.001283892312137846
1.487000000000000988,-0.001190629477490218
1.488000000000001100,-0.001096422166893051
1.489000000000001211,-0.001001278118395887
1.490000000000001101,-0.000905205042973567
1.491000000000000991,-0.000808210624471668
1.492000000000001103,-0.000710302519568890
1.493000000000001215,-0.000611488357723142
1.494000000000001105,-0.000511775741125953
1.495000000000000995,-0.000411172244665317
1.496000000000001107,-0.000309685415883745
1.497000000000001219,-0.000207322774935719
1.498000000000001108,-0.000104091814551497
1.499000000000000998,0.000000000000000000
