# AuFCC100UCD_BSAI8
# h[nm],U(h)[kJ/mol]
0.149999999999999994,118.086270313060680337
0.150999999999999995,113.050732399831417752
0.151999999999999996,109.046652944971100396
0.152999999999999997,105.354795312267654595
0.153999999999999998,101.706463821553185767
0.154999999999999999,98.042686424939290646
0.156000000000000000,94.386226419426179746
0.157000000000000001,90.778936593646832875
0.158000000000000002,87.255293949714229029
0.159000000000000002,83.834683454132189695
0.160000000000000003,80.522379154086863196
0.161000000000000004,77.313714141499275456
0.162000000000000005,74.198650074982296587
0.163000000000000006,71.165523545349287815
0.164000000000000007,68.203600392603917157
0.165000000000000008,65.304494526396879905
0.166000000000000009,62.462685641964789340
0.167000000000000010,59.675412959561029425
0.168000000000000010,56.942197834490670516
0.169000000000000011,54.264196442111710894
0.170000000000000012,51.643526555808684009
0.171000000000000013,49.082660627090618277
0.172000000000000014,46.583935447442094357
0.173000000000000015,44.149197539125182743
0.174000000000000016,41.779582172220173675
0.175000000000000017,39.475410837461609503
0.176000000000000018,37.236185228409752312
0.177000000000000018,35.060653535243261558
0.178000000000000019,32.946925624936405086
0.179000000000000020,30.892616286539766435
0.180000000000000021,28.894999260932273444
0.181000000000000022,26.951158616880842800
0.182000000000000023,25.058127757517709711
0.183000000000000024,23.213009686990989877
0.184000000000000025,21.413075002587675044
0.185000000000000026,19.655836356577417234
0.186000000000000026,17.939099865988353599
0.187000000000000027,16.260995184960343352
0.188000000000000028,14.619986760057098962
0.189000000000000029,13.014869238477484004
0.190000000000000030,11.444750166794358748
0.191000000000000031,9.909023072787224606
0.192000000000000032,8.407333826233418961
0.193000000000000033,6.939542878007304516
0.194000000000000034,5.505685622844312732
0.195000000000000034,4.105932752945467001
0.196000000000000035,2.740552092374749726
0.197000000000000036,1.409873043987421193
0.198000000000000037,0.114254453540379691
0.199000000000000038,-1.145943593032982655
0.200000000000000039,-2.370383769951821762
0.201000000000000040,-3.558771244504922660
0.202000000000000041,-4.710869240692808546
0.203000000000000042,-5.826510656732555304
0.204000000000000042,-6.905606050231952509
0.205000000000000043,-7.948148365476559896
0.206000000000000044,-8.954214812355596464
0.207000000000000045,-9.923966320374733030
0.208000000000000046,-10.857644988136168962
0.209000000000000047,-11.755569932424879909
0.210000000000000048,-12.618131915035794677
0.211000000000000049,-13.445787092676946273
0.212000000000000050,-14.239050198219661780
0.213000000000000050,-14.998487422329992214
0.214000000000000051,-15.724709224811704189
0.215000000000000052,-16.418363266149604840
0.216000000000000053,-17.080127612775324764
0.217000000000000054,-17.710704335216245653
0.218000000000000055,-18.310813587019730164
0.219000000000000056,-18.881188224457883251
0.220000000000000057,-19.422569002641875358
0.221000000000000058,-19.935700362796172413
0.222000000000000058,-20.421326807966810435
0.223000000000000059,-20.880189850172254040
0.224000000000000060,-21.313025500724091188
0.225000000000000061,-21.720562266876033419
0.226000000000000062,-22.103519611815070078
0.227000000000000063,-22.462606830995078155
0.228000000000000064,-22.798522295636306723
0.229000000000000065,-23.111953013594273898
0.230000000000000066,-23.403574458468714425
0.231000000000000066,-23.674050619533648643
0.232000000000000067,-23.924034227594685120
0.233000000000000068,-24.154167115019014034
0.234000000000000069,-24.365080671756981445
0.235000000000000070,-24.557396363026221309
0.236000000000000071,-24.731726278326412682
0.237000000000000072,-24.888673685483063025
0.238000000000000073,-25.028833567388854675
0.239000000000000073,-25.152793122945997339
0.240000000000000074,-25.261132217356035312
0.241000000000000075,-25.354423770308336827
0.242000000000000076,-25.433234073754611870
0.243000000000000077,-25.498123033804503734
0.244000000000000078,-25.549644333824691245
0.245000000000000079,-25.588345518067715290
0.246000000000000080,-25.614767997101353103
0.247000000000000081,-25.629446977962704324
0.248000000000000081,-25.632911323335861198
0.249000000000000082,-25.625683345164748772
0.250000000000000111,-25.608278538981345207
0.251000000000000112,-25.581205265873286692
0.252000000000000113,-25.544964389456477960
0.253000000000000114,-25.500048875475055610
0.254000000000000115,-25.446943361749099211
0.255000000000000115,-25.386123706144815060
0.256000000000000116,-25.318056520076964944
0.257000000000000117,-25.243198694785114355
0.258000000000000118,-25.161996927271996327
0.259000000000000119,-25.074887252371425461
0.260000000000000120,-24.982294586939225667
0.261000000000000121,-24.884632291646134661
0.262000000000000122,-24.782301755311976876
0.263000000000000123,-24.675692006162684322
0.264000000000000123,-24.565179353830291831
0.265000000000000124,-24.451127065354189227
0.266000000000000125,-24.333885077892357884
0.267000000000000126,-24.213789750315417137
0.268000000000000127,-24.091163655342477057
0.269000000000000128,-23.966315413388905142
0.270000000000000129,-23.839539568834915428
0.271000000000000130,-23.711116508994471985
0.272000000000000131,-23.581312425666535404
0.273000000000000131,-23.450379318786996663
0.274000000000000132,-23.318555041370409242
0.275000000000000133,-23.186063384635939855
0.276000000000000134,-23.053114201950723583
0.277000000000000135,-22.919903569996471049
0.278000000000000136,-22.786613985369896795
0.279000000000000137,-22.653414594663146886
0.280000000000000138,-22.520461455936288786
0.281000000000000139,-22.387897829386787407
0.282000000000000139,-22.255854494941154087
0.283000000000000140,-22.124450094437996484
0.284000000000000141,-21.993791496038511468
0.285000000000000142,-21.863974178488511768
0.286000000000000143,-21.735082632862454233
0.287000000000000144,-21.607190779443687489
0.288000000000000145,-21.480362397434532795
0.289000000000000146,-21.354651565241955069
0.290000000000000147,-21.230103109149421670
0.291000000000000147,-21.106753058259965172
0.292000000000000148,-20.984629103679232287
0.293000000000000149,-20.863751059997809989
0.294000000000000150,-20.744131327228842565
0.295000000000000151,-20.625775351458496942
0.296000000000000152,-20.508682082571262129
0.297000000000000153,-20.392844427520170569
0.298000000000000154,-20.278249697719751055
0.299000000000000155,-20.164880049249859439
0.300000000000000155,-20.052712914667058186
0.301000000000000156,-19.941721425328420736
0.302000000000000157,-19.831874823239385108
0.303000000000000158,-19.723138861541468003
0.304000000000000159,-19.615476192857581594
0.305000000000000160,-19.508846744811091156
0.306000000000000161,-19.403208082130174006
0.307000000000000162,-19.298515754840622094
0.308000000000000163,-19.194723632137446145
0.309000000000000163,-19.091784221609319872
0.310000000000000164,-18.989648973568879597
0.311000000000000165,-18.888268570316416373
0.312000000000000166,-18.787593200234972812
0.313000000000000167,-18.687572816680322774
0.314000000000000168,-18.588157381690599834
0.315000000000000169,-18.489297094597191062
0.316000000000000170,-18.390942605670815624
0.317000000000000171,-18.293045214984832825
0.318000000000000171,-18.195557056721405331
0.319000000000000172,-18.098431269186512793
0.320000000000000173,-18.001622150834712954
0.321000000000000174,-17.905085302637353095
0.322000000000000175,-17.808777757155603183
0.323000000000000176,-17.712658094704760714
0.324000000000000177,-17.616686547017483377
0.325000000000000178,-17.520825088831841754
0.326000000000000179,-17.425037517845499480
0.327000000000000179,-17.329289523489144642
0.328000000000000180,-17.233548744982407186
0.329000000000000181,-17.137784819142517279
0.330000000000000182,-17.041969418420411131
0.331000000000000183,-16.946076279642159790
0.332000000000000184,-16.850081223933617736
0.333000000000000185,-16.753962168305353231
0.334000000000000186,-16.657699129371625446
0.335000000000000187,-16.561274219672718289
0.336000000000000187,-16.464671637064178356
0.337000000000000188,-16.367877647628766624
0.338000000000000189,-16.270880562559089100
0.339000000000000190,-16.173670709449094574
0.340000000000000191,-16.076240398422136479
0.341000000000000192,-15.978583883512888164
0.342000000000000193,-15.880697319707525850
0.343000000000000194,-15.782578716035155608
0.344000000000000195,-15.684227885089821797
0.345000000000000195,-15.585646389349751217
0.346000000000000196,-15.486837484646210683
0.347000000000000197,-15.387806061121105827
0.348000000000000198,-15.288558581997932606
0.349000000000000199,-15.189103020476721895
0.350000000000000200,-15.089448795049596797
0.351000000000000201,-14.989606703518898456
0.352000000000000202,-14.889588855986270133
0.353000000000000203,-14.789408607066722112
0.354000000000000203,-14.689080487567840905
0.355000000000000204,-14.588620135860889349
0.356000000000000205,-14.488044229156717080
0.357000000000000206,-14.387370414886726522
0.358000000000000207,-14.286617242375541537
0.359000000000000208,-14.185804094980104750
0.360000000000000209,-14.084951122857244599
0.361000000000000210,-13.984079176509876419
0.362000000000000210,-13.883209741250542635
0.363000000000000211,-13.782364872709660375
0.364000000000000212,-13.681567133505172507
0.365000000000000213,-13.580839531179616841
0.366000000000000214,-13.480205457500943567
0.367000000000000215,-13.379688629213276840
0.368000000000000216,-13.279313030315204713
0.369000000000000217,-13.179102855933621186
0.370000000000000218,-13.079082457853326460
0.371000000000000218,-12.979276291754128891
0.372000000000000219,-12.879708866199658601
0.373000000000000220,-12.780404693414917361
0.374000000000000221,-12.681388241882574519
0.375000000000000222,-12.582683890781517277
0.376000000000000223,-12.484315886285056507
0.377000000000000224,-12.386308299730416138
0.378000000000000225,-12.288684987665618564
0.379000000000000226,-12.191469553774776813
0.380000000000000226,-12.094685312678262079
0.381000000000000227,-11.998355255599321367
0.382000000000000228,-11.902502017885129959
0.383000000000000229,-11.807147848366010834
0.384000000000000230,-11.712314580533178088
0.385000000000000231,-11.618023605512201257
0.386000000000000232,-11.524295846806197119
0.387000000000000233,-11.431151736780176265
0.388000000000000234,-11.338611194855442221
0.389000000000000234,-11.246693607380793267
0.390000000000000235,-11.155417809144951846
0.391000000000000236,-11.064802066493442112
0.392000000000000237,-10.974864062010798449
0.393000000000000238,-10.885620880728321680
0.394000000000000239,-10.797088997815835754
0.395000000000000240,-10.709284267715187156
0.396000000000000241,-10.622221914672314469
0.397000000000000242,-10.535916524623823776
0.398000000000000242,-10.450382038393822626
0.399000000000000243,-10.365631746155965942
0.400000000000000244,-10.281678283115521566
0.401000000000000245,-10.198533626366359073
0.402000000000000246,-10.116209092877268105
0.403000000000000247,-10.034715338562381959
0.404000000000000248,-9.954062358390599385
0.405000000000000249,-9.874259487489124965
0.406000000000000250,-9.795315403196537929
0.407000000000000250,-9.717238128021348231
0.408000000000000251,-9.640035033462314829
0.409000000000000252,-9.563712844647628941
0.410000000000000253,-9.488277645750342160
0.411000000000000254,-9.413734886138431790
0.412000000000000255,-9.340089387218352357
0.413000000000000256,-9.267345349931996878
0.414000000000000257,-9.195506362867330807
0.415000000000000258,-9.124575410944427034
0.416000000000000258,-9.054554884638953638
0.417000000000000259,-8.985446589706411302
0.418000000000000260,-8.917251757371223775
0.419000000000000261,-8.849971054945715565
0.420000000000000262,-8.783604596845069779
0.421000000000000263,-8.718151955965286248
0.422000000000000264,-8.653612175392041195
0.423000000000000265,-8.589983780409564673
0.424000000000000266,-8.527264790779529591
0.425000000000000266,-8.465452733260892870
0.426000000000000267,-8.404544654342704035
0.427000000000000268,-8.344537133162964082
0.428000000000000269,-8.285426294587463047
0.429000000000000270,-8.227207822423583394
0.430000000000000271,-8.169876972745095500
0.431000000000000272,-8.113428587304850836
0.432000000000000273,-8.057857107013246534
0.433000000000000274,-8.003156585461383088
0.434000000000000274,-7.949320702468627431
0.435000000000000275,-7.896342777635308785
0.436000000000000276,-7.844215783882217075
0.437000000000000277,-7.792932360959218485
0.438000000000000278,-7.742484828906574634
0.439000000000000279,-7.692865201453043866
0.440000000000000280,-7.644065199335805971
0.441000000000000281,-7.596076263528142469
0.442000000000000282,-7.548889568361514257
0.443000000000000282,-7.502496034529386293
0.444000000000000283,-7.456886341961125986
0.445000000000000284,-7.412050942554790467
0.446000000000000285,-7.367980072758425258
0.447000000000000286,-7.324663765990369946
0.448000000000000287,-7.282091864889302713
0.449000000000000288,-7.240254033385959076
0.450000000000000289,-7.199139768588596056
0.451000000000000290,-7.158738412475214474
0.452000000000000290,-7.119039163385991742
0.453000000000000291,-7.080031087309953008
0.454000000000000292,-7.041703128960547176
0.455000000000000293,-7.004044122635194825
0.456000000000000294,-6.967042802854503059
0.457000000000000295,-6.930687814777241940
0.458000000000000296,-6.894967724387707442
0.459000000000000297,-6.859871028452526609
0.460000000000000298,-6.825386164244390486
0.461000000000000298,-6.791501519030582301
0.462000000000000299,-6.758205439324690644
0.463000000000000300,-6.725486239900059005
0.464000000000000301,-6.693332212564129691
0.465000000000000302,-6.661731634692991122
0.466000000000000303,-6.630672777525900230
0.467000000000000304,-6.600143914219709806
0.468000000000000305,-6.570133327663635114
0.469000000000000306,-6.540629318054908659
0.470000000000000306,-6.511620210236179318
0.471000000000000307,-6.483094360795780275
0.472000000000000308,-6.455040164932280611
0.473000000000000309,-6.427446063084841121
0.474000000000000310,-6.400300547331140066
0.475000000000000311,-6.373592167554978261
0.476000000000000312,-6.347309537385649847
0.477000000000000313,-6.321441339911411994
0.478000000000000314,-6.295976333169631900
0.479000000000000314,-6.270903355416263203
0.480000000000000315,-6.246211330177374066
0.481000000000000316,-6.221889271085791151
0.482000000000000317,-6.197926286505792248
0.483000000000000318,-6.174311583949057436
0.484000000000000319,-6.151034474285137499
0.485000000000000320,-6.128084375749800472
0.486000000000000321,-6.105450817754655368
0.487000000000000322,-6.083123444501596921
0.488000000000000322,-6.061092018405594750
0.489000000000000323,-6.039346423329519986
0.490000000000000324,-6.017876667634646459
0.491000000000000325,-5.996672887050588763
0.492000000000000326,-5.975725347368364027
0.493000000000000327,-5.955024446960490714
0.494000000000000328,-5.934560719131818374
0.495000000000000329,-5.914324834305052292
0.496000000000000330,-5.894307602044682071
0.497000000000000330,-5.874499972923330482
0.498000000000000331,-5.854893040234241397
0.499000000000000332,-5.835478041553876949
0.500000000000000333,-5.816246360158422668
0.501000000000000334,-5.797189526298057949
0.502000000000000335,-5.778299218332840326
0.503000000000000336,-5.759567263733999631
0.504000000000000337,-5.740985639954443442
0.505000000000000338,-5.722546475172240577
0.506000000000000338,-5.704242048910820984
0.507000000000000339,-5.686064792539610835
0.508000000000000340,-5.668007289658762105
0.509000000000000341,-5.650062276371637715
0.510000000000000342,-5.632222641448643152
0.511000000000000343,-5.614481426385951934
0.512000000000000344,-5.596831825362684754
0.513000000000000345,-5.579267185099936022
0.514000000000000346,-5.561781004625204972
0.515000000000000346,-5.544366934945470504
0.516000000000000347,-5.527018778632310614
0.517000000000000348,-5.509730489322385516
0.518000000000000349,-5.492496171136389549
0.519000000000000350,-5.475310078019785642
0.520000000000000351,-5.458166613008339496
0.521000000000000352,-5.441060327421591403
0.522000000000000353,-5.423985919987190485
0.523000000000000353,-5.406938235899144019
0.524000000000000354,-5.389912265812817793
0.525000000000000355,-5.372903144779535900
0.526000000000000356,-5.355906151123556391
0.527000000000000357,-5.338916705264198370
0.528000000000000358,-5.321930368485721985
0.529000000000000359,-5.304942841657578789
0.530000000000000360,-5.287949963907652595
0.531000000000000361,-5.270947711250887124
0.532000000000000361,-5.253932195175810449
0.533000000000000362,-5.236899661191283251
0.534000000000000363,-5.219846487335837004
0.535000000000000364,-5.202769182651804769
0.536000000000000365,-5.185664385626518325
0.537000000000000366,-5.168528862602668639
0.538000000000000367,-5.151359506159924884
0.539000000000000368,-5.134153333469902769
0.540000000000000369,-5.116907484626376679
0.541000000000000369,-5.099619220952743781
0.542000000000000370,-5.082285923288562657
0.543000000000000371,-5.064905090256985432
0.544000000000000372,-5.047474336514897963
0.545000000000000373,-5.029991390987412991
0.546000000000000374,-5.012454095088425099
0.547000000000000375,-4.994860400928798683
0.548000000000000376,-4.977208369513830277
0.549000000000000377,-4.959496168931374349
0.550000000000000377,-4.941722072532192200
0.551000000000000378,-4.923884457103890000
0.552000000000000379,-4.905981801039841272
0.553000000000000380,-4.888012682504373707
0.554000000000000381,-4.869975777595525912
0.555000000000000382,-4.851869858506625555
0.556000000000000383,-4.833693791687768915
0.557000000000000384,-4.815446536008502143
0.558000000000000385,-4.797127140922650135
0.559000000000000385,-4.778734744636459197
0.560000000000000386,-4.760268572281001198
0.561000000000000387,-4.741727934089865926
0.562000000000000388,-4.723112223583034286
0.563000000000000389,-4.704420915757866695
0.564000000000000390,-4.685653565288041555
0.565000000000000391,-4.666809804731295586
0.566000000000000392,-4.647889342746720054
0.567000000000000393,-4.628891962322414066
0.568000000000000393,-4.609817519014147713
0.569000000000000394,-4.590665939195786471
0.570000000000000395,-4.571437218322118134
0.571000000000000396,-4.552131419204629381
0.572000000000000397,-4.532748670300959404
0.573000000000000398,-4.513289164018450705
0.574000000000000399,-4.493753155032422342
0.575000000000000400,-4.474140958619637232
0.576000000000000401,-4.454452949007406737
0.577000000000000401,-4.434689557738857424
0.578000000000000402,-4.414851272054688636
0.579000000000000403,-4.394938633291872065
0.580000000000000404,-4.374952235299668146
0.581000000000000405,-4.354892722873266564
0.582000000000000406,-4.334760790205406167
0.583000000000000407,-4.314557179356237171
0.584000000000000408,-4.294282678741764059
0.585000000000000409,-4.273938121641047694
0.586000000000000409,-4.253524384722459750
0.587000000000000410,-4.233042386589191075
0.588000000000000411,-4.212493086344169413
0.589000000000000412,-4.191877482174636071
0.590000000000000413,-4.171196609956445478
0.591000000000000414,-4.150451541878327433
0.592000000000000415,-4.129643385086158247
0.593000000000000416,-4.108773280347365997
0.594000000000000417,-4.087842400735576476
0.595000000000000417,-4.066851950335598431
0.596000000000000418,-4.045803162968678812
0.597000000000000419,-4.024697300938294475
0.598000000000000420,-4.003535653796265414
0.599000000000000421,-3.982319537129412446
0.600000000000000422,-3.961050291366630116
0.601000000000000423,-3.939729280606430795
0.602000000000000424,-3.918357891464926634
0.603000000000000425,-3.896937531944227207
0.604000000000000425,-3.875469630321165315
0.605000000000000426,-3.853955634056384305
0.606000000000000427,-3.832397008723653187
0.607000000000000428,-3.810795236959334087
0.608000000000000429,-3.789151817432003355
0.609000000000000430,-3.767468263832023379
0.610000000000000431,-3.745746103881077094
0.611000000000000432,-3.723986878361456920
0.612000000000000433,-3.702192140165076584
0.613000000000000433,-3.680363453362040183
0.614000000000000434,-3.658502392288662808
0.615000000000000435,-3.636610540654760193
0.616000000000000436,-3.614689490670144778
0.617000000000000437,-3.592740842190126127
0.618000000000000438,-3.570766201879874924
0.619000000000000439,-3.548767182397472908
0.620000000000000440,-3.526745401595549279
0.621000000000000441,-3.504702481741250431
0.622000000000000441,-3.482640048754455542
0.623000000000000442,-3.460559731463980881
0.624000000000000443,-3.438463160881656044
0.625000000000000444,-3.416351969494062502
0.626000000000000445,-3.394227790571733294
0.627000000000000446,-3.372092257495661549
0.628000000000000447,-3.349947003100887777
0.629000000000000448,-3.327793659036990981
0.630000000000000449,-3.305633855145270417
0.631000000000000449,-3.283469218852423488
0.632000000000000450,-3.261301374580541701
0.633000000000000451,-3.239131943173172878
0.634000000000000452,-3.216962541337276882
0.635000000000000453,-3.194794781100857239
0.636000000000000454,-3.172630269286047966
0.637000000000000455,-3.150470606997493039
0.638000000000000456,-3.128317389125721881
0.639000000000000457,-3.106172203865399162
0.640000000000000457,-3.084036632248179366
0.641000000000000458,-3.061912247689951183
0.642000000000000459,-3.039800615552327834
0.643000000000000460,-3.017703292718048935
0.644000000000000461,-2.995621827180207308
0.645000000000000462,-2.973557757645001409
0.646000000000000463,-2.951512613147817099
0.647000000000000464,-2.929487912682455342
0.648000000000000465,-2.907485164843270908
0.649000000000000465,-2.885505867479984499
0.650000000000000466,-2.863551507365023063
0.651000000000000467,-2.841623559873094784
0.652000000000000468,-2.819723488672863709
0.653000000000000469,-2.797852745430443377
0.654000000000000470,-2.776012769524585977
0.655000000000000471,-2.754204987773265501
0.656000000000000472,-2.732430814171517230
0.657000000000000473,-2.710691649640296408
0.658000000000000473,-2.688988881786163798
0.659000000000000474,-2.667323884671590317
0.660000000000000475,-2.645698018595687095
0.661000000000000476,-2.624112629885129611
0.662000000000000477,-2.602569050695141772
0.663000000000000478,-2.581068598820263738
0.664000000000000479,-2.559612577514787102
0.665000000000000480,-2.538202275322575030
0.666000000000000481,-2.516838965916188720
0.667000000000000481,-2.495523907944992459
0.668000000000000482,-2.474258344892197314
0.669000000000000483,-2.453043504940526809
0.670000000000000484,-2.431880600846398899
0.671000000000000485,-2.410770829822416861
0.672000000000000486,-2.389715373427976797
0.673000000000000487,-2.368715397467858974
0.674000000000000488,-2.347772051898543655
0.675000000000000488,-2.326886470742148383
0.676000000000000489,-2.306059772007821529
0.677000000000000490,-2.285293057620324308
0.678000000000000491,-2.264587413355754197
0.679000000000000492,-2.243943908784168606
0.680000000000000493,-2.223363597218945387
0.681000000000000494,-2.202847515672766932
0.682000000000000495,-2.182396684819991606
0.683000000000000496,-2.162012108965357893
0.684000000000000496,-2.141694776018735258
0.685000000000000497,-2.121445657475895530
0.686000000000000498,-2.101265708405052113
0.687000000000000499,-2.081155867439089757
0.688000000000000500,-2.061117056773275724
0.689000000000000501,-2.041150182168364857
0.690000000000000502,-2.021256132958915153
0.691000000000000503,-2.001435782066680158
0.692000000000000504,-1.981689986018941863
0.693000000000000504,-1.962019584971678610
0.694000000000000505,-1.942425402737344431
0.695000000000000506,-1.922908246817246702
0.696000000000000507,-1.903468908438292306
0.697000000000000508,-1.884108162594009928
0.698000000000000509,-1.864826768089762776
0.699000000000000510,-1.845625467591917257
0.700000000000000511,-1.826504987680994674
0.701000000000000512,-1.807466038908540185
0.702000000000000512,-1.788509315857698567
0.703000000000000513,-1.769635497207312724
0.704000000000000514,-1.750845245799472538
0.705000000000000515,-1.732139208710375300
0.706000000000000516,-1.713518017324404230
0.707000000000000517,-1.694982287411298971
0.708000000000000518,-1.676532619206328789
0.709000000000000519,-1.658169597493374114
0.710000000000000520,-1.639893791690754998
0.711000000000000520,-1.621705755939795823
0.712000000000000521,-1.603606029195945082
0.713000000000000522,-1.585595135322398042
0.714000000000000523,-1.567673583186138142
0.715000000000000524,-1.549841866756235698
0.716000000000000525,-1.532100465204415229
0.717000000000000526,-1.514449843007705354
0.718000000000000527,-1.496890450053137700
0.719000000000000528,-1.479422721744392266
0.720000000000000528,-1.462047079110338155
0.721000000000000529,-1.444763928915289597
0.722000000000000530,-1.427573663771043000
0.723000000000000531,-1.410476662250472968
0.724000000000000532,-1.393473289002712390
0.725000000000000533,-1.376563894869794469
0.726000000000000534,-1.359748817004669652
0.727000000000000535,-1.343028378990573035
0.728000000000000536,-1.326402890961622560
0.729000000000000536,-1.309872649724609150
0.730000000000000537,-1.293437938881910387
0.731000000000000538,-1.277099028955417825
0.732000000000000539,-1.260856177511492815
0.733000000000000540,-1.244709629286808950
0.734000000000000541,-1.228659616315061154
0.735000000000000542,-1.212706358054465694
0.736000000000000543,-1.196850061516028907
0.737000000000000544,-1.181090921392435877
0.738000000000000544,-1.165429120187639001
0.739000000000000545,-1.149864828346937262
0.740000000000000546,-1.134398204387637499
0.741000000000000547,-1.119029395030124885
0.742000000000000548,-1.103758535329401269
0.743000000000000549,-1.088585748806927267
0.744000000000000550,-1.073511147582810743
0.745000000000000551,-1.058534832508269741
0.746000000000000552,-1.043656893298285038
0.747000000000000552,-1.028877408664463422
0.748000000000000553,-1.014196446448007327
0.749000000000000554,-0.999614063752772841
0.750000000000000555,-0.985130307078407541
0.751000000000000556,-0.970745212453455353
0.752000000000000557,-0.956458805568463966
0.753000000000000558,-0.942271101908992770
0.754000000000000559,-0.928182106888553848
0.755000000000000560,-0.914191815981366451
0.756000000000000560,-0.900300214854982350
0.757000000000000561,-0.886507279502651402
0.758000000000000562,-0.872812976375476723
0.759000000000000563,-0.859217262514295421
0.760000000000000564,-0.845720085681237244
0.761000000000000565,-0.832321384490953387
0.762000000000000566,-0.819021088541479925
0.763000000000000567,-0.805819118544723212
0.764000000000000568,-0.792715386456486870
0.765000000000000568,-0.779709795606102207
0.766000000000000569,-0.766802240825545267
0.767000000000000570,-0.753992608578083479
0.768000000000000571,-0.741280777086371190
0.769000000000000572,-0.728666616460043937
0.770000000000000573,-0.716149988822709638
0.771000000000000574,-0.703730748438371578
0.772000000000000575,-0.691408741837241991
0.773000000000000576,-0.679183807940909157
0.774000000000000576,-0.667055778186884885
0.775000000000000577,-0.655024476652477206
0.776000000000000578,-0.643089720177948854
0.777000000000000579,-0.631251318489039259
0.778000000000000580,-0.619509074318698394
0.779000000000000581,-0.607862783528140049
0.780000000000000582,-0.596312235227112186
0.781000000000000583,-0.584857211893440310
0.782000000000000584,-0.573497489491752388
0.783000000000000584,-0.562232837591447154
0.784000000000000585,-0.551063019483851280
0.785000000000000586,-0.539987792298541436
0.786000000000000587,-0.529006907118878988
0.787000000000000588,-0.518120109096677162
0.788000000000000589,-0.507327137566015218
0.789000000000000590,-0.496627726156235627
0.790000000000000591,-0.486021602904022854
0.791000000000000592,-0.475508490364649650
0.792000000000000592,-0.465088105722306633
0.793000000000000593,-0.454760160899559285
0.794000000000000594,-0.444524362665901340
0.795000000000000595,-0.434380412745395295
0.796000000000000596,-0.424328007923397810
0.797000000000000597,-0.414366840152387006
0.798000000000000598,-0.404496596656834462
0.799000000000000599,-0.394716960037162834
0.800000000000000600,-0.385027608372774999
0.801000000000000600,-0.375428215324126680
0.802000000000000601,-0.365918450233861936
0.803000000000000602,-0.356497978227009515
0.804000000000000603,-0.347166460310216529
0.805000000000000604,-0.337923553470037052
0.806000000000000605,-0.328768910770244616
0.807000000000000606,-0.319702181448226430
0.808000000000000607,-0.310723011010362093
0.809000000000000608,-0.301831041326488247
0.810000000000000608,-0.293025910723381688
0.811000000000000609,-0.284307254077253324
0.812000000000000610,-0.275674702905327584
0.813000000000000611,-0.267127885456400427
0.814000000000000612,-0.258666426800469029
0.815000000000000613,-0.250289948917394922
0.816000000000000614,-0.241998070784562286
0.817000000000000615,-0.233790408463616567
0.818000000000000616,-0.225666575186223239
0.819000000000000616,-0.217626181438849292
0.820000000000000617,-0.209668835046594199
0.821000000000000618,-0.201794141256058823
0.822000000000000619,-0.194001702817274357
0.823000000000000620,-0.186291120064631832
0.824000000000000621,-0.178661990996894893
0.825000000000000622,-0.171113911356244819
0.826000000000000623,-0.163646474706379608
0.827000000000000624,-0.156259272509665231
0.828000000000000624,-0.148951894203346286
0.829000000000000625,-0.141723927274802958
0.830000000000000626,-0.134574957335889589
0.831000000000000627,-0.127504568196328244
0.832000000000000628,-0.120512341936181017
0.833000000000000629,-0.113597858977374108
0.834000000000000630,-0.106760698154327621
0.835000000000000631,-0.100000436783650157
0.836000000000000631,-0.093316650732918810
0.837000000000000632,-0.086708914488566657
0.838000000000000633,-0.080176801222830996
0.839000000000000634,-0.073719882859839506
0.840000000000000635,-0.067337730140779012
0.841000000000000636,-0.061029912688163268
0.842000000000000637,-0.054795999069251235
0.843000000000000638,-0.048635556858536579
0.844000000000000639,-0.042548152699402507
0.845000000000000639,-0.036533352364880936
0.846000000000000640,-0.030590720817548746
0.847000000000000641,-0.024719822268580958
0.848000000000000642,-0.018920220235929076
0.849000000000000643,-0.013191477601651447
0.850000000000000644,-0.007533156668430130
0.851000000000000645,-0.001944819215196425
0.852000000000000646,0.003573973448020329
0.853000000000000647,0.009023660426102854
0.854000000000000647,0.014404681185671897
0.855000000000000648,0.019717475502719729
0.856000000000000649,0.024962483411047565
0.857000000000000650,0.030140145151518659
0.858000000000000651,0.035250901122101094
0.859000000000000652,0.040295191828693552
0.860000000000000653,0.045273457836740638
0.861000000000000654,0.050186139723633991
0.862000000000000655,0.055033678031859976
0.863000000000000655,0.059816513222941972
0.864000000000000656,0.064535085632116337
0.865000000000000657,0.069189835423772536
0.866000000000000658,0.073781202547641533
0.867000000000000659,0.078309626695702503
0.868000000000000660,0.082775547259855420
0.869000000000000661,0.087179403290289476
0.870000000000000662,0.091521633454586901
0.871000000000000663,0.095802675997529813
0.872000000000000663,0.100022968701627329
0.873000000000000664,0.104182948848327822
0.874000000000000665,0.108283053179934224
0.875000000000000666,0.112323717862202674
0.876000000000000667,0.116305378447618762
0.877000000000000668,0.120228469839352495
0.878000000000000669,0.124093426255876688
0.879000000000000670,0.127900681196250782
0.880000000000000671,0.131650667406046418
0.881000000000000671,0.135343816843940645
0.882000000000000672,0.138980560648924917
0.883000000000000673,0.142561329108176038
0.884000000000000674,0.146086551625525418
0.885000000000000675,0.149556656690577772
0.886000000000000676,0.152972071848423846
0.887000000000000677,0.156333223669964910
0.888000000000000678,0.159640537722860826
0.889000000000000679,0.162894438543034287
0.890000000000000679,0.166095349606798059
0.891000000000000680,0.169243693303544995
0.892000000000000681,0.172339890909023158
0.893000000000000682,0.175384362559181772
0.894000000000000683,0.178377527224571064
0.895000000000000684,0.181319802685306647
0.896000000000000685,0.184211605506581139
0.897000000000000686,0.187053351014727420
0.898000000000000687,0.189845453273798176
0.899000000000000687,0.192588325062711119
0.900000000000000688,0.195282377852891653
0.901000000000000689,0.197928021786446084
0.902000000000000690,0.200525665654844698
0.903000000000000691,0.203075716878110851
0.904000000000000692,0.205578581484524209
0.905000000000000693,0.208034664090796906
0.906000000000000694,0.210444367882752642
0.907000000000000695,0.212808094596495051
0.908000000000000695,0.215126244500026376
0.909000000000000696,0.217399216375370408
0.910000000000000697,0.219627407501133465
0.911000000000000698,0.221811213635542182
0.912000000000000699,0.223951028999927720
0.913000000000000700,0.226047246262644747
0.914000000000000701,0.228100256523468131
0.915000000000000702,0.230110449298382480
0.916000000000000703,0.232078212504830905
0.917000000000000703,0.234003932447377494
0.918000000000000704,0.235887993803791662
0.919000000000000705,0.237730779611548815
0.920000000000000706,0.239532671254730184
0.921000000000000707,0.241294048451329679
0.922000000000000708,0.243015289240973514
0.923000000000000709,0.244696769972992889
0.924000000000000710,0.246338865294929932
0.925000000000000711,0.247941948141385093
0.926000000000000711,0.249506389723269217
0.927000000000000712,0.251032559517406384
0.928000000000000713,0.252520825256513537
0.929000000000000714,0.253971552919526666
0.930000000000000715,0.255385106722307964
0.931000000000000716,0.256761849108676388
0.932000000000000717,0.258102140741786001
0.933000000000000718,0.259406340495869303
0.934000000000000719,0.260674805448283586
0.935000000000000719,0.261907890871904525
0.936000000000000720,0.263105950227843999
0.937000000000000721,0.264269335158484608
0.938000000000000722,0.265398395480830662
0.939000000000000723,0.266493479180171355
0.940000000000000724,0.267554932404049317
0.941000000000000725,0.268583099456529861
0.942000000000000726,0.269578322792767611
0.943000000000000727,0.270540943013866941
0.944000000000000727,0.271471298862027921
0.945000000000000728,0.272369727215975799
0.946000000000000729,0.273236563086672102
0.947000000000000730,0.274072139613298404
0.948000000000000731,0.274876788059508215
0.949000000000000732,0.275650837809944926
0.950000000000000733,0.276394616367032386
0.951000000000000734,0.277108449347998553
0.952000000000000735,0.277792660482176601
0.953000000000000735,0.278447571608547384
0.954000000000000736,0.279073502673518548
0.955000000000000737,0.279670771728957601
0.956000000000000738,0.280239694930445815
0.957000000000000739,0.280780586535780696
0.958000000000000740,0.281293758903703395
0.959000000000000741,0.281779522492843881
0.960000000000000742,0.282238185860887447
0.961000000000000743,0.282670055663977182
0.962000000000000743,0.283075436656304191
0.963000000000000744,0.283454631689925685
0.964000000000000745,0.283807941714775247
0.965000000000000746,0.284135665778892321
0.966000000000000747,0.284438101028840429
0.967000000000000748,0.284715542710317016
0.968000000000000749,0.284968284168963137
0.969000000000000750,0.285196616851361440
0.970000000000000751,0.285400830306209052
0.971000000000000751,0.285581212185683497
0.972000000000000752,0.285738048246991228
0.973000000000000753,0.285871622354059718
0.974000000000000754,0.285982216479444218
0.975000000000000755,0.286070110706371394
0.976000000000000756,0.286135583230961443
0.977000000000000757,0.286178910364605632
0.978000000000000758,0.286200366536516537
0.979000000000000759,0.286200224296405903
0.980000000000000759,0.286178754317345352
0.981000000000000760,0.286136225398763544
0.982000000000000761,0.286072904469579004
0.983000000000000762,0.285989056591497093
0.984000000000000763,0.285884944962439824
0.985000000000000764,0.285760830920096798
0.986000000000000765,0.285616973945641950
0.987000000000000766,0.285453631667558216
0.988000000000000766,0.285271059865600862
0.989000000000000767,0.285069512474878384
0.990000000000000768,0.284849241590079238
0.991000000000000769,0.284610497469791945
0.992000000000000770,0.284353528540963185
0.993000000000000771,0.284078581403462926
0.994000000000000772,0.283785900834767513
0.995000000000000773,0.283475729794744447
0.996000000000000774,0.283148309430563461
0.997000000000000774,0.282803879081692355
0.998000000000000775,0.282442676285013461
0.999000000000000776,0.282064936780024644
1.000000000000000666,0.281670894514158443
1.001000000000000778,0.281260781648176306
1.002000000000000668,0.280834828561674410
1.003000000000000780,0.280393263858676245
1.004000000000000670,0.279936314373298356
1.005000000000000782,0.279464205175533831
1.006000000000000671,0.278977159577089129
1.007000000000000783,0.278475399137331103
1.008000000000000673,0.277959143669294528
1.009000000000000785,0.277428611245774892
1.010000000000000675,0.276884018205505567
1.011000000000000787,0.276325579159393153
1.012000000000000677,0.275753506996839148
1.013000000000000789,0.275168012892128444
1.014000000000000679,0.274569306310880334
1.015000000000000790,0.273957595016576294
1.016000000000000680,0.273333085077136773
1.017000000000000792,0.272695980871587751
1.018000000000000682,0.272046485096751223
1.019000000000000794,0.271384798774029046
1.020000000000000684,0.270711121256222764
1.021000000000000796,0.270025650234416326
1.022000000000000686,0.269328581744916473
1.023000000000000798,0.268620110176232774
1.024000000000000687,0.267900428276125979
1.025000000000000799,0.267169727158680925
1.026000000000000689,0.266428196311457255
1.027000000000000801,0.265676023602653688
1.028000000000000691,0.264913395288340237
1.029000000000000803,0.264140496019718174
1.030000000000000693,0.263357508850431743
1.031000000000000805,0.262564615243906618
1.032000000000000695,0.261761995080740217
1.033000000000000806,0.260949826666114160
1.034000000000000696,0.260128286737246639
1.035000000000000808,0.259297550470891258
1.036000000000000698,0.258457791490844524
1.037000000000000810,0.257609181875496085
1.038000000000000700,0.256751892165414386
1.039000000000000812,0.255886091370947977
1.040000000000000702,0.255011946979858461
1.041000000000000814,0.254129624964976764
1.042000000000000703,0.253239289791897526
1.043000000000000815,0.252341104426666962
1.044000000000000705,0.251435230343518445
1.045000000000000817,0.250521827532618591
1.046000000000000707,0.249601054507831682
1.047000000000000819,0.248673068314495010
1.048000000000000709,0.247738024537243862
1.049000000000000821,0.246796077307792128
1.050000000000000711,0.245847379312792158
1.051000000000000822,0.244892081801657835
1.052000000000000712,0.243930334594433751
1.053000000000000824,0.242962286089656671
1.054000000000000714,0.241988083272230259
1.055000000000000826,0.241007871721317268
1.056000000000000716,0.240021795618225647
1.057000000000000828,0.239029997754318047
1.058000000000000718,0.238032619538917245
1.059000000000000830,0.237029801007215740
1.060000000000000719,0.236021680828194136
1.061000000000000831,0.235008396312549023
1.062000000000000721,0.233990083420604039
1.063000000000000833,0.232966876770238501
1.064000000000000723,0.231938909644819613
1.065000000000000835,0.230906314001123103
1.066000000000000725,0.229869220477249392
1.067000000000000837,0.228827758400563519
1.068000000000000727,0.227782055795595045
1.069000000000000838,0.226732239391971818
1.070000000000000728,0.225678434632322122
1.071000000000000840,0.224620765680184242
1.072000000000000730,0.223559355427909001
1.073000000000000842,0.222494325504552337
1.074000000000000732,0.221425796283770460
1.075000000000000844,0.220353886891688638
1.076000000000000734,0.219278715214784981
1.077000000000000846,0.218200397907745092
1.078000000000000735,0.217119050401316377
1.079000000000000847,0.216034786910152821
1.080000000000000737,0.214947720440638534
1.081000000000000849,0.213857962798720880
1.082000000000000739,0.212765624597702541
1.083000000000000851,0.211670815266044698
1.084000000000000741,0.210573643055139842
1.085000000000000853,0.209474215047087770
1.086000000000000743,0.208372637162438534
1.087000000000000854,0.207269014167931503
1.088000000000000744,0.206163449684215433
1.089000000000000856,0.205056046193556218
1.090000000000000746,0.203946905047518584
1.091000000000000858,0.202836126474635059
1.092000000000000748,0.201723809588067654
1.093000000000000860,0.200610052393231542
1.094000000000000750,0.199494951795413988
1.095000000000000862,0.198378603607372139
1.096000000000000751,0.197261102556905155
1.097000000000000863,0.196142542294415551
1.098000000000000753,0.195023015400437427
1.099000000000000865,0.193902613393153817
1.100000000000000755,0.192781426735900707
1.101000000000000867,0.191659544844619167
1.102000000000000757,0.190537056095318347
1.103000000000000869,0.189414047831496568
1.104000000000000759,0.188290606371551317
1.105000000000000870,0.187166817016150983
1.106000000000000760,0.186042764055602300
1.107000000000000872,0.184918530777172602
1.108000000000000762,0.183794199472407299
1.109000000000000874,0.182669851444408587
1.110000000000000764,0.181545567015098913
1.111000000000000876,0.180421425532452745
1.112000000000000766,0.179297505377710192
1.113000000000000878,0.178173883972550601
1.114000000000000767,0.177050637786255044
1.115000000000000879,0.175927842342838620
1.116000000000000769,0.174805572228154044
1.117000000000000881,0.173683901096964494
1.118000000000000771,0.172562901679994996
1.119000000000000883,0.171442645790959025
1.120000000000000773,0.170323204333546446
1.121000000000000885,0.169204647308398459
1.122000000000000774,0.168087043820044857
1.123000000000000886,0.166970462083807891
1.124000000000000776,0.165854969432692845
1.125000000000000888,0.164740632324240577
1.126000000000000778,0.163627516347350233
1.127000000000000890,0.162515686229073114
1.128000000000000780,0.161405205841387900
1.129000000000000892,0.160296138207927819
1.130000000000000782,0.159188545510698193
1.131000000000000894,0.158082489096743273
1.132000000000000783,0.156978029484809378
1.133000000000000895,0.155875226371945119
1.134000000000000785,0.154774138640110165
1.135000000000000897,0.153674824362712931
1.136000000000000787,0.152577340811152873
1.137000000000000899,0.151481744461309853
1.138000000000000789,0.150388091000018487
1.139000000000000901,0.149296435331486788
1.140000000000000790,0.148206831583718834
1.141000000000000902,0.147119333114886341
1.142000000000000792,0.146033992519661926
1.143000000000000904,0.144950861635530837
1.144000000000000794,0.143869991549081894
1.145000000000000906,0.142791432602252966
1.146000000000000796,0.141715234398538503
1.147000000000000908,0.140641445809188081
1.148000000000000798,0.139570114979355009
1.149000000000000909,0.138501289334218736
1.150000000000000799,0.137435015585080172
1.151000000000000689,0.136371339735418401
1.152000000000000801,0.135310307086915105
1.153000000000000913,0.134251962245457379
1.154000000000000803,0.133196349127099767
1.155000000000000693,0.132143510963993072
1.156000000000000805,0.131093490310285332
1.157000000000000917,0.130046329047997733
1.158000000000000806,0.129002068392847641
1.159000000000000696,0.127960748900066257
1.160000000000000808,0.126922410470161562
1.161000000000000920,0.125887092354665192
1.162000000000000810,0.124854833161832504
1.163000000000000700,0.123825670862332246
1.164000000000000812,0.122799642794871239
1.165000000000000924,0.121776785671828564
1.166000000000000814,0.120757135584820000
1.167000000000000703,0.119740728010250971
1.168000000000000815,0.118727597814831373
1.169000000000000927,0.117717779261064789
1.170000000000000817,0.116711306012689905
1.171000000000000707,0.115708211140115050
1.172000000000000819,0.114708527125792575
1.173000000000000931,0.113712285869581264
1.174000000000000821,0.112719518694073900
1.175000000000000711,0.111730256349880694
1.176000000000000822,0.110744529020897264
1.177000000000000934,0.109762366329530472
1.178000000000000824,0.108783797341898317
1.179000000000000714,0.107808850572990833
1.180000000000000826,0.106837553991802905
1.181000000000000938,0.105869935026443998
1.182000000000000828,0.104906020569199884
1.183000000000000718,0.103945836981575598
1.184000000000000830,0.102989410099304957
1.185000000000000941,0.102036765237321234
1.186000000000000831,0.101087927194703567
1.187000000000000721,0.100142920259594259
1.188000000000000833,0.099201768214074296
1.189000000000000945,0.098264494339019556
1.190000000000000835,0.097331121418916172
1.191000000000000725,0.096401671746659118
1.192000000000000837,0.095476167128289408
1.193000000000000949,0.094554628887748710
1.194000000000000838,0.093637077871550609
1.195000000000000728,0.092723534453461737
1.196000000000000840,0.091814018539129780
1.197000000000000952,0.090908549570685615
1.198000000000000842,0.090007146531327464
1.199000000000000732,0.089109827949845635
1.200000000000000844,0.088216611905161307
1.201000000000000956,0.087327516030779248
1.202000000000000846,0.086442557519268631
1.203000000000000735,0.085561753126661561
1.204000000000000847,0.084685119176864013
1.205000000000000959,0.083812671566005290
1.206000000000000849,0.082944425766779781
1.207000000000000739,0.082080396832744609
1.208000000000000851,0.081220599402596405
1.209000000000000963,0.080365047704410442
1.210000000000000853,0.079513755559860150
1.211000000000000743,0.078666736388402991
1.212000000000000854,0.077824003211430612
1.213000000000000966,0.076985568656403131
1.214000000000000856,0.076151444960937981
1.215000000000000746,0.075321643976893587
1.216000000000000858,0.074496177174387085
1.217000000000000970,0.073675055645831850
1.218000000000000860,0.072858290109904494
1.219000000000000750,0.072045890915498331
1.220000000000000862,0.071237868045659056
1.221000000000000973,0.070434231121476704
1.222000000000000863,0.069634989405957165
1.223000000000000753,0.068840151807864250
1.224000000000000865,0.068049726885531306
1.225000000000000977,0.067263722850650257
1.226000000000000867,0.066482147572028943
1.227000000000000757,0.065705008579319116
1.228000000000000869,0.064932313066731237
1.229000000000000981,0.064164067896692267
1.230000000000000870,0.063400279603510828
1.231000000000000760,0.062640954396989537
1.232000000000000872,0.061886098166022287
1.233000000000000984,0.061135716482171532
1.234000000000000874,0.060389814603185731
1.235000000000000764,0.059648397476544913
1.236000000000000876,0.058911469742921066
1.237000000000000988,0.058179035739661142
1.238000000000000878,0.057451099504206835
1.239000000000000767,0.056727664777512586
1.240000000000000879,0.056008735007425627
1.241000000000000991,0.055294313352048284
1.242000000000000881,0.054584402683062250
1.243000000000000771,0.053879005589035744
1.244000000000000883,0.053178124378715809
1.245000000000000995,0.052481761084267074
1.246000000000000885,0.051789917464508541
1.247000000000000774,0.051102595008119887
1.248000000000000886,0.050419794936820847
1.249000000000000998,0.049741518208525411
1.250000000000000888,0.049067765520465635
1.251000000000000778,0.048398537312309337
1.252000000000000890,0.047733833769227157
1.253000000000001002,0.047073654824965235
1.254000000000000892,0.046418000164860737
1.255000000000000782,0.045766869228859322
1.256000000000000894,0.045120261214497401
1.257000000000001005,0.044478175079861133
1.258000000000000895,0.043840609546521400
1.259000000000000785,0.043207563102456610
1.260000000000000897,0.042579034004921912
1.261000000000001009,0.041955020283336586
1.262000000000000899,0.041335519742112144
1.263000000000000789,0.040720529963480585
1.264000000000000901,0.040110048310279291
1.265000000000001013,0.039504071928738727
1.266000000000000902,0.038902597751224267
1.267000000000000792,0.038305622498965818
1.268000000000000904,0.037713142684764243
1.269000000000001016,0.037125154615674540
1.270000000000000906,0.036541654395666867
1.271000000000000796,0.035962637928263923
1.272000000000000908,0.035388100919161544
1.273000000000001020,0.034818038878818090
1.274000000000000909,0.034252447125035182
1.275000000000000799,0.033691320785504006
1.276000000000000911,0.033134654800331599
1.277000000000001023,0.032582443924561597
1.278000000000000913,0.032034682730649425
1.279000000000000803,0.031491365610941111
1.280000000000000915,0.030952486780100309
1.281000000000001027,0.030418040277556013
1.282000000000000917,0.029888019969888484
1.283000000000000806,0.029362419553221088
1.284000000000000918,0.028841232555578616
1.285000000000001030,0.028324452339235019
1.286000000000000920,0.027812072103026532
1.287000000000000810,0.027304084884667002
1.288000000000000922,0.026800483563014017
1.289000000000001034,0.026301260860345527
1.290000000000000924,0.025806409344595903
1.291000000000000814,0.025315921431570954
1.292000000000000925,0.024829789387172042
1.293000000000001037,0.024348005329553085
1.294000000000000927,0.023870561231310473
1.295000000000000817,0.023397448921605873
1.296000000000000929,0.022928660088313273
1.297000000000001041,0.022464186280116035
1.298000000000000931,0.022004018908590474
1.299000000000000821,0.021548149250285292
1.300000000000000933,0.021096568448772772
1.301000000000001044,0.020649267516673720
1.302000000000000934,0.020206237337682151
1.303000000000000824,0.019767468668554767
1.304000000000000936,0.019332952141096284
1.305000000000001048,0.018902678264110094
1.306000000000000938,0.018476637425348271
1.307000000000000828,0.018054819893439197
1.308000000000000940,0.017637215819789987
1.309000000000001052,0.017223815240474345
1.310000000000000941,0.016814608078109368
1.311000000000000831,0.016409584143713497
1.312000000000000943,0.016008733138545072
1.313000000000001055,0.015612044655908274
1.314000000000000945,0.015219508182975983
1.315000000000000835,0.014831113102573198
1.316000000000000947,0.014446848694943748
1.317000000000001059,0.014066704139501313
1.318000000000000949,0.013690668516580847
1.319000000000000838,0.013318730809144547
1.320000000000000950,0.012950879904495749
1.321000000000001062,0.012587104595970473
1.322000000000000952,0.012227393584603747
1.323000000000000842,0.011871735480790508
1.324000000000000954,0.011520118805925086
1.325000000000001066,0.011172531994033411
1.326000000000000956,0.010828963393373364
1.327000000000000846,0.010489401268037896
1.328000000000000957,0.010153833799530909
1.329000000000001069,0.009822249088335977
1.330000000000000959,0.009494635155452270
1.331000000000000849,0.009170979943947676
1.332000000000000961,0.008851271320465186
1.333000000000001073,0.008535497076731523
1.334000000000000963,0.008223644931043468
1.335000000000000853,0.007915702529750594
1.336000000000000965,0.007611657448706356
1.337000000000001076,0.007311497194721718
1.338000000000000966,0.007015209206995453
1.339000000000000856,0.006722780858522988
1.340000000000000968,0.006434199457519954
1.341000000000001080,0.006149452248791698
1.342000000000000970,0.005868526415120754
1.343000000000000860,0.005591409078624991
1.344000000000000972,0.005318087302109603
1.345000000000001084,0.005048548090390170
1.346000000000000973,0.004782778391633417
1.347000000000000863,0.004520765098647723
1.348000000000000975,0.004262495050190107
1.349000000000001087,0.004007955032238618
1.350000000000000977,0.003757131779269020
1.351000000000000867,0.003510011975499204
1.352000000000000979,0.003266582256146959
1.353000000000001091,0.003026829208648851
1.354000000000000981,0.002790739373874735
1.355000000000000870,0.002558299247347740
1.356000000000000982,0.002329495280418935
1.357000000000001094,0.002104313881455917
1.358000000000000984,0.001882741417013584
1.359000000000000874,0.001664764212977636
1.360000000000000986,0.001450368555721003
1.361000000000001098,0.001239540693219238
1.362000000000000988,0.001032266836192781
1.363000000000000878,0.000828533159189986
1.364000000000000989,0.000628325801689889
1.365000000000001101,0.000431630869201180
1.366000000000000991,0.000238434434312380
1.367000000000000881,0.000048722537765097
1.368000000000000993,-0.000137518810498069
1.369000000000001105,-0.000320303630297518
1.370000000000000995,-0.000499645970186188
1.371000000000000885,-0.000675559906441746
1.372000000000000997,-0.000848059542051763
1.373000000000001108,-0.001017159005733047
1.374000000000000998,-0.001182872450923039
1.375000000000000888,-0.001345214054845580
1.376000000000001000,-0.001504198017515841
1.377000000000001112,-0.001659838560809285
1.378000000000001002,-0.001812149927510647
1.379000000000000892,-0.001961146380394051
1.380000000000001004,-0.002106842201289475
1.381000000000001116,-0.002249251690192881
1.382000000000001005,-0.002388389164347331
1.383000000000000895,-0.002524268957365647
1.384000000000001007,-0.002656905418352833
1.385000000000001119,-0.002786312911029004
1.386000000000001009,-0.002912505812879748
1.387000000000000899,-0.003035498514292183
1.388000000000001011,-0.003155305417741387
1.389000000000001123,-0.003271940936928498
1.390000000000001013,-0.003385419495986954
1.391000000000000902,-0.003495755528652301
1.392000000000001014,-0.003602963477477773
1.393000000000001126,-0.003707057793028482
1.394000000000001016,-0.003808052933106371
1.395000000000000906,-0.003905963361973438
1.396000000000001018,-0.004000803549584514
1.397000000000001130,-0.004092587970839376
1.398000000000001020,-0.004181331104830786
1.399000000000000909,-0.004267047434102373
1.400000000000001021,-0.004349751443929815
1.401000000000001133,-0.004429457621593966
1.402000000000001023,-0.004506180455670398
1.403000000000000913,-0.004579934435324826
1.404000000000001025,-0.004650734049619465
1.405000000000001137,-0.004718593786833163
1.406000000000001027,-0.004783528133768149
1.407000000000000917,-0.004845551575103068
1.408000000000001029,-0.004904678592706138
1.409000000000001140,-0.004960923665002778
1.410000000000001030,-0.005014301266321256
1.411000000000000920,-0.005064825866255375
1.412000000000001032,-0.005112511929036355
1.413000000000001144,-0.005157373912914452
1.414000000000001034,-0.005199426269544378
1.415000000000000924,-0.005238683443370550
1.416000000000001036,-0.005275159871046911
1.417000000000001148,-0.005308869980832122
1.418000000000001037,-0.005339828192010202
1.419000000000000927,-0.005368048914318588
1.420000000000001039,-0.005393546547372459
1.421000000000001151,-0.005416335480118091
1.422000000000001041,-0.005436430090263324
1.423000000000000931,-0.005453844743740710
1.424000000000001043,-0.005468593794166232
1.425000000000001155,-0.005480691582308651
1.426000000000001044,-0.005490152435562255
1.427000000000000934,-0.005496990667434700
1.428000000000001046,-0.005501220577028241
1.429000000000001158,-0.005502856448537168
1.430000000000001048,-0.005501912550753349
1.431000000000000938,-0.005498403136578733
1.432000000000001050,-0.005492342442532832
1.433000000000001162,-0.005483744688282196
1.434000000000001052,-0.005472624076163111
1.435000000000000941,-0.005458994790727015
1.436000000000001053,-0.005442870998273700
1.437000000000001165,-0.005424266846398617
1.438000000000001055,-0.005403196463561870
1.439000000000000945,-0.005379673958631978
1.440000000000001057,-0.005353713420463509
1.441000000000001169,-0.005325328917462476
1.442000000000001059,-0.005294534497174699
1.443000000000000949,-0.005261344185869948
1.444000000000001060,-0.005225771988124804
1.445000000000001172,-0.005187831886428235
1.446000000000001062,-0.005147537840785987
1.447000000000000952,-0.005104903788319582
1.448000000000001064,-0.005059943642892703
1.449000000000001176,-0.005012671294729562
1.450000000000001066,-0.004963100610029332
1.451000000000000956,-0.004911245430613956
1.452000000000001068,-0.004857119573557699
1.453000000000001180,-0.004800736830830425
1.454000000000001069,-0.004742110968944670
1.455000000000000959,-0.004681255728613931
1.456000000000001071,-0.004618184824403421
1.457000000000001183,-0.004552911944408304
1.458000000000001073,-0.004485450749908792
1.459000000000000963,-0.004415814875050482
1.460000000000001075,-0.004344017926528178
1.461000000000001187,-0.004270073483263260
1.462000000000001076,-0.004193995096104832
1.463000000000000966,-0.004115796287511139
1.464000000000001078,-0.004035490551257120
1.465000000000001190,-0.003953091352148228
1.466000000000001080,-0.003868612125704333
1.467000000000000970,-0.003782066277904158
1.468000000000001082,-0.003693467184888272
1.469000000000001194,-0.003602828192682717
1.470000000000001084,-0.003510162616934604
1.471000000000000973,-0.003415483742638812
1.472000000000001085,-0.003318804823884579
1.473000000000001197,-0.003220139083590593
1.474000000000001087,-0.003119499713254710
1.475000000000000977,-0.003016899872702184
1.476000000000001089,-0.002912352689850395
1.477000000000001201,-0.002805871260461618
1.478000000000001091,-0.002697468647905452
1.479000000000000981,-0.002587157882939478
1.480000000000001092,-0.002474951963465795
1.481000000000001204,-0.002360863854324771
1.482000000000001094,-0.002244906487064673
1.483000000000000984,-0.002127092759735271
1.484000000000001096,-0.002007435536674182
1.485000000000001208,-0.001885947648294330
1.486000000000001098,-0.001762641890896427
1.487000000000000988,-0.001637531026457090
1.488000000000001100,-0.001510627782440275
1.489000000000001211,-0.001381944851605111
1.490000000000001101,-0.001251494891825956
1.491000000000000991,-0.001119290525894129
1.492000000000001103,-0.000985344341358232
1.493000000000001215,-0.000849668890333212
1.494000000000001105,-0.000712276689335130
1.495000000000000995,-0.000573180219112479
1.496000000000001107,-0.000432391924484699
1.497000000000001219,-0.000289924214174397
1.498000000000001108,-0.000145789460657996
1.499000000000000998,0.000000000000000000
