# CNT15-NH2-2_CS-9357-AC
# h[nm],U(h)[kJ/mol]
0.149999999999999994,115.788355153783868445
0.150999999999999995,113.486831192466297580
0.151999999999999996,111.671508730622619510
0.152999999999999997,110.011758512575596569
0.153999999999999998,108.364903932540215692
0.154999999999999999,106.686091041801660140
0.156000000000000000,104.975906626457643256
0.157000000000000001,103.251545517017206066
0.158000000000000002,101.532233606933715464
0.159000000000000002,99.832933703084549393
0.160000000000000003,98.162582955095956549
0.161000000000000004,96.524576027532347666
0.162000000000000005,94.918158061349714671
0.163000000000000006,93.339993725215180120
0.164000000000000007,91.785549577929572251
0.165000000000000008,90.250146418018601935
0.166000000000000009,88.729660589682879390
0.167000000000000010,87.220914827067659303
0.168000000000000010,85.721824301410251223
0.169000000000000011,84.231367783070865585
0.170000000000000012,82.749447202305887572
0.171000000000000013,81.276687508417836625
0.172000000000000014,79.814216176467112973
0.173000000000000015,78.363449951674965632
0.174000000000000016,76.925906386941804271
0.175000000000000017,75.503049732494019963
0.176000000000000018,74.096174739521217134
0.177000000000000018,72.706327720333234765
0.178000000000000019,71.334261468176208609
0.179000000000000020,69.980419069034155655
0.180000000000000021,68.644940945533420518
0.181000000000000022,67.327689407764765406
0.182000000000000023,66.028285339952702770
0.183000000000000024,64.746152261552822438
0.184000000000000025,63.480563742257608340
0.185000000000000026,62.230690932232917589
0.186000000000000026,60.995647729327842512
0.187000000000000027,59.774531803831258969
0.188000000000000028,58.566460315418950699
0.189000000000000029,57.370599675683273233
0.190000000000000030,56.186189131444834288
0.191000000000000031,55.012558273345462112
0.192000000000000032,53.849138819234859454
0.193000000000000033,52.695471192892725298
0.194000000000000034,51.551206526831698795
0.195000000000000034,50.416104774432099589
0.196000000000000035,49.290029631996446824
0.197000000000000036,48.172940955053611845
0.198000000000000037,47.064885313809874390
0.199000000000000038,45.965985277244115537
0.200000000000000039,44.876427949980552512
0.201000000000000040,43.796453215605588127
0.202000000000000041,42.726342068361375937
0.203000000000000042,41.666405345064148946
0.204000000000000042,40.616973102786886329
0.205000000000000043,39.578384826784784423
0.206000000000000044,38.550980598240180086
0.207000000000000045,37.535093303145487198
0.208000000000000046,36.531041922160518709
0.209000000000000047,35.539125906446038528
0.210000000000000048,34.559620615970864321
0.211000000000000049,33.592773774164143674
0.212000000000000050,32.638802875497020750
0.213000000000000050,31.697893470053458032
0.214000000000000051,30.770198240782093535
0.215000000000000052,29.855836784323638966
0.216000000000000053,28.954896004512249874
0.217000000000000054,28.067431028322069153
0.218000000000000055,27.193466556683961954
0.219000000000000056,26.332998566794209694
0.220000000000000057,25.485996287880791300
0.221000000000000058,24.652404378552137842
0.222000000000000058,23.832145240524617691
0.223000000000000059,23.025121410472927153
0.224000000000000060,22.231217978758539999
0.225000000000000061,21.450304990705269859
0.226000000000000062,20.682239792773895459
0.227000000000000063,19.926869292339503659
0.228000000000000064,19.184032105723126449
0.229000000000000065,18.453560574619100265
0.230000000000000066,17.735282636065011985
0.231000000000000066,17.029023535600639860
0.232000000000000067,16.334607377260343952
0.233000000000000068,15.651858507543300547
0.234000000000000069,14.980602733529078563
0.235000000000000070,14.320668377873127852
0.236000000000000071,13.671887175558628869
0.237000000000000072,13.034095019026045392
0.238000000000000073,12.407132559686125717
0.239000000000000073,11.790845674879472327
0.240000000000000074,11.185085810107013415
0.241000000000000075,10.589710206860690533
0.242000000000000076,10.004582026659051053
0.243000000000000077,9.429570381971865700
0.244000000000000078,8.864550284630629662
0.245000000000000079,8.309402522092938170
0.246000000000000080,7.764013471586217463
0.247000000000000081,7.228274861718269051
0.248000000000000081,6.702083490634048069
0.249000000000000082,6.185340909234367857
0.250000000000000111,5.677953077370663237
0.251000000000000112,5.179830000304924909
0.252000000000000113,4.690885352085542692
0.253000000000000114,4.211036091853115337
0.254000000000000115,3.740202078457632417
0.255000000000000115,3.278305688153804631
0.256000000000000116,2.825271439545649521
0.257000000000000117,2.381025629382253150
0.258000000000000118,1.945495982267420043
0.259000000000000119,1.518611316837847225
0.260000000000000120,1.100301230490908111
0.261000000000000121,0.690495804305320093
0.262000000000000122,0.289125329394790465
0.263000000000000123,-0.103879944431485599
0.264000000000000123,-0.488590037159823409
0.265000000000000124,-0.865075443969629321
0.266000000000000125,-1.233407317557011940
0.267000000000000126,-1.593657627635620244
0.268000000000000127,-1.945899298068468397
0.269000000000000128,-2.290206322257115179
0.270000000000000129,-2.626653857561540129
0.271000000000000130,-2.955318299646047198
0.272000000000000131,-3.276277337744731621
0.273000000000000131,-3.589609991918249587
0.274000000000000132,-3.895396633431583489
0.275000000000000133,-4.193718989423885546
0.276000000000000134,-4.484660133066810772
0.277000000000000135,-4.768304460418584689
0.278000000000000136,-5.044737655180886904
0.279000000000000137,-5.314046642553321931
0.280000000000000138,-5.576319533358900848
0.281000000000000139,-5.831645559585164840
0.282000000000000139,-6.080115002448953199
0.283000000000000140,-6.321819114051403510
0.284000000000000141,-6.556850033643089937
0.285000000000000142,-6.785300699469340557
0.286000000000000143,-7.007264757112858788
0.287000000000000144,-7.222836465195709543
0.288000000000000145,-7.432110599247264915
0.289000000000000146,-7.635182354486905965
0.290000000000000147,-7.832147248214454294
0.291000000000000147,-8.023101022443920982
0.292000000000000148,-8.208139547361280819
0.293000000000000149,-8.387358726131683540
0.294000000000000150,-8.560854401529159219
0.295000000000000151,-8.728722264810128806
0.296000000000000152,-8.891057767203069062
0.297000000000000153,-9.047956034339069475
0.298000000000000154,-9.199511783903535189
0.299000000000000155,-9.345819246746289721
0.300000000000000155,-9.486972091647423611
0.301000000000000156,-9.623063353898292149
0.302000000000000157,-9.754185367822133301
0.303000000000000158,-9.880429703325575019
0.304000000000000159,-10.001887106542419303
0.305000000000000160,-10.118647444602686392
0.306000000000000161,-10.230799654534711962
0.307000000000000162,-10.338431696284585470
0.308000000000000163,-10.441630509816009820
0.309000000000000163,-10.540481976234898909
0.310000000000000164,-10.635070882865971242
0.311000000000000165,-10.725480892193413496
0.312000000000000166,-10.811794514564915914
0.313000000000000167,-10.894093084546472738
0.314000000000000168,-10.972456740805881736
0.315000000000000169,-11.046964409394451678
0.316000000000000170,-11.117693790289774114
0.317000000000000171,-11.184721347056717278
0.318000000000000171,-11.248122299479724973
0.319000000000000172,-11.307970619016460390
0.320000000000000173,-11.364339026920697862
0.321000000000000174,-11.417298994881267760
0.322000000000000175,-11.466920748023934351
0.323000000000000176,-11.513273270123406178
0.324000000000000177,-11.556424310874234607
0.325000000000000178,-11.596440395071159202
0.326000000000000179,-11.633386833552311401
0.327000000000000179,-11.667327735761373830
0.328000000000000180,-11.698326023788522932
0.329000000000000181,-11.726443447754050453
0.330000000000000182,-11.751740602402170666
0.331000000000000183,-11.774276944777849252
0.332000000000000184,-11.794110812863440430
0.333000000000000185,-11.811299445057320767
0.334000000000000186,-11.825899000381516757
0.335000000000000187,-11.837964579310517266
0.336000000000000187,-11.847550245118858570
0.337000000000000188,-11.854709045649830301
0.338000000000000189,-11.859493035413553486
0.339000000000000190,-11.861953297927458451
0.340000000000000191,-11.862139968217483954
0.341000000000000192,-11.860102255403623062
0.342000000000000193,-11.855888465298225043
0.343000000000000194,-11.849546022950816493
0.344000000000000195,-11.841121495077384651
0.345000000000000195,-11.830660612317725366
0.346000000000000196,-11.818208291268044619
0.347000000000000197,-11.803808656241242758
0.348000000000000198,-11.787505060711136906
0.349000000000000199,-11.769340108401161515
0.350000000000000200,-11.749355673982126547
0.351000000000000201,-11.727592923347295084
0.352000000000000202,-11.704092333436708628
0.353000000000000203,-11.678893711586239235
0.354000000000000203,-11.652036214380169454
0.355000000000000204,-11.623558365988936103
0.356000000000000205,-11.593498075977088035
0.357000000000000206,-11.561892656569103366
0.358000000000000207,-11.528778839363067021
0.359000000000000208,-11.494192791485257743
0.360000000000000209,-11.458170131180605011
0.361000000000000210,-11.420745942836123987
0.362000000000000210,-11.381954791436774244
0.363000000000000211,-11.341830736454678430
0.364000000000000212,-11.300407345174722451
0.365000000000000213,-11.257717705460780877
0.366000000000000214,-11.213794437968632067
0.367000000000000215,-11.168669707812686198
0.368000000000000216,-11.122375235695070472
0.369000000000000217,-11.074942308506507516
0.370000000000000218,-11.026401789409680632
0.371000000000000218,-10.976784127416312487
0.372000000000000219,-10.926119366470290473
0.373000000000000220,-10.874437154049724441
0.374000000000000221,-10.821766749301344746
0.375000000000000222,-10.768137030721250724
0.376000000000000223,-10.713576503396476269
0.377000000000000224,-10.658113305822103811
0.378000000000000225,-10.601775216308995553
0.379000000000000226,-10.544589658997338688
0.380000000000000226,-10.486583709491593908
0.381000000000000227,-10.427784100132127421
0.382000000000000228,-10.368217224919295205
0.383000000000000229,-10.307909144105407151
0.384000000000000230,-10.246885588469988093
0.385000000000000231,-10.185171963293942810
0.386000000000000232,-10.122793352047628090
0.387000000000000233,-10.059774519808064142
0.388000000000000234,-9.996139916420014870
0.389000000000000234,-9.931913679415741214
0.390000000000000235,-9.867119636707577968
0.391000000000000236,-9.801781309067591152
0.392000000000000237,-9.735921912407935253
0.393000000000000238,-9.669564359875471027
0.394000000000000239,-9.602731263773629067
0.395000000000000240,-9.535444937324315973
0.396000000000000241,-9.467727396282246133
0.397000000000000242,-9.399600360413561617
0.398000000000000242,-9.331085254850533417
0.399000000000000243,-9.262203211333337904
0.400000000000000244,-9.192975069349813566
0.401000000000000245,-9.123421377183646541
0.402000000000000246,-9.053562392880841969
0.403000000000000247,-8.983418085144139198
0.404000000000000248,-8.913008134164549290
0.405000000000000249,-8.842351932398816672
0.406000000000000250,-8.771468585301091636
0.407000000000000250,-8.700376912016860587
0.408000000000000251,-8.629095446046687101
0.409000000000000252,-8.557642435886986476
0.410000000000000253,-8.486035845654589238
0.411000000000000254,-8.414293355701591537
0.412000000000000255,-8.342432363226478742
0.413000000000000256,-8.270469982887362903
0.414000000000000257,-8.198423047422483734
0.415000000000000258,-8.126308108283192055
0.416000000000000258,-8.054141436283915212
0.417000000000000259,-7.981939022273548900
0.418000000000000260,-7.909716577832287321
0.419000000000000261,-7.837489535997532286
0.420000000000000262,-7.765273052022388711
0.421000000000000263,-7.693082004169859545
0.422000000000000264,-7.620930994545533466
0.423000000000000265,-7.548834349971346391
0.424000000000000266,-7.476806122902880603
0.425000000000000266,-7.404860092392022253
0.426000000000000267,-7.333009765097040500
0.427000000000000268,-7.261268376341527997
0.428000000000000269,-7.189648891223645144
0.429000000000000270,-7.118164005776884906
0.430000000000000271,-7.046826148183174432
0.431000000000000272,-6.975647480039261161
0.432000000000000273,-6.904639897676815963
0.433000000000000274,-6.833815033536827066
0.434000000000000274,-6.763184257598372717
0.435000000000000275,-6.692758678861975064
0.436000000000000276,-6.622549146887502403
0.437000000000000277,-6.552566253386268968
0.438000000000000278,-6.482820333867200802
0.439000000000000279,-6.413321469336527691
0.440000000000000280,-6.344079488050388349
0.441000000000000281,-6.275103967319762610
0.442000000000000282,-6.206404235366965949
0.443000000000000282,-6.137989373232694668
0.444000000000000283,-6.069868216732869470
0.445000000000000284,-6.002049358464099704
0.446000000000000285,-5.934541149856629616
0.447000000000000286,-5.867351703273810060
0.448000000000000287,-5.800488894156516473
0.449000000000000288,-5.733960363211552114
0.450000000000000289,-5.667773518642425401
0.451000000000000290,-5.601935538421246363
0.452000000000000290,-5.536453372600304235
0.453000000000000291,-5.471333745661748793
0.454000000000000292,-5.406583158904017417
0.455000000000000293,-5.342207892863324759
0.456000000000000294,-5.278214009768793957
0.457000000000000295,-5.214607356029574703
0.458000000000000296,-5.151393564752364540
0.459000000000000297,-5.088578058287792416
0.460000000000000298,-5.026166050803947627
0.461000000000000298,-4.964162550885585112
0.462000000000000299,-4.902572364157263607
0.463000000000000300,-4.841400095928848124
0.464000000000000301,-4.780650153861782492
0.465000000000000302,-4.720326750654558978
0.466000000000000303,-4.660433906745682364
0.467000000000000304,-4.600975453032630114
0.468000000000000305,-4.541955033605271197
0.469000000000000306,-4.483376108492043599
0.470000000000000306,-4.425241956417577782
0.471000000000000307,-4.367555677569975536
0.472000000000000308,-4.310320196376515867
0.473000000000000309,-4.253538264286103043
0.474000000000000310,-4.197212462557148527
0.475000000000000311,-4.141345205049311140
0.476000000000000312,-4.085938741017946185
0.477000000000000313,-4.030995157909535997
0.478000000000000314,-3.976516384157080530
0.479000000000000314,-3.922504191973950949
0.480000000000000315,-3.868960200144949457
0.481000000000000316,-3.815885876813370992
0.482000000000000317,-3.763282542262762043
0.483000000000000318,-3.711151371692235301
0.484000000000000319,-3.659493397984148633
0.485000000000000320,-3.608309514463047485
0.486000000000000321,-3.557600477644728976
0.487000000000000322,-3.507366909974398705
0.488000000000000322,-3.457609302552803854
0.489000000000000323,-3.408328017849511671
0.490000000000000324,-3.359523292402156081
0.491000000000000325,-3.311195239500889009
0.492000000000000326,-3.263343851856975952
0.493000000000000327,-3.215969004254836339
0.494000000000000328,-3.169070456186534379
0.495000000000000329,-3.122647854468024065
0.496000000000000330,-3.076700735836296996
0.497000000000000330,-3.031228529526766025
0.498000000000000331,-2.986230559830059583
0.499000000000000332,-2.941706048627718229
0.500000000000000333,-2.897654117905991811
0.501000000000000334,-2.854073792247159069
0.502000000000000335,-2.810964001297831416
0.503000000000000336,-2.768323582213654710
0.504000000000000337,-2.726151282079844584
0.505000000000000338,-2.684445760307109019
0.506000000000000338,-2.643205591002474542
0.507000000000000339,-2.602429265314523565
0.508000000000000340,-2.562115193752688036
0.509000000000000341,-2.522261708480217912
0.510000000000000342,-2.482867065580374621
0.511000000000000343,-2.443929447295617674
0.512000000000000344,-2.405446964239382091
0.513000000000000345,-2.367417657580228596
0.514000000000000346,-2.329839501198078811
0.515000000000000346,-2.292710403812276088
0.516000000000000347,-2.256028211081257062
0.517000000000000348,-2.219790707673722885
0.518000000000000349,-2.183995619310975744
0.519000000000000350,-2.148640614780434888
0.520000000000000351,-2.113723307920093220
0.521000000000000352,-2.079241259573857636
0.522000000000000353,-2.045191979517675396
0.523000000000000353,-2.011572928356305745
0.524000000000000354,-1.978381519390843835
0.525000000000000355,-1.945615120456757108
0.526000000000000356,-1.913271055732580495
0.527000000000000357,-1.881346607519218894
0.528000000000000358,-1.849839017989772127
0.529000000000000359,-1.818745490910128382
0.530000000000000360,-1.788063193330131195
0.531000000000000361,-1.757789257245568448
0.532000000000000361,-1.727920781230928515
0.533000000000000362,-1.698454832043112317
0.534000000000000363,-1.669388446196119258
0.535000000000000364,-1.640718631506870695
0.536000000000000365,-1.612442368612279964
0.537000000000000366,-1.584556612457713287
0.538000000000000367,-1.557058293756948153
0.539000000000000368,-1.529944320423896054
0.540000000000000369,-1.503211578976090701
0.541000000000000369,-1.476856935910303203
0.542000000000000370,-1.450877239050326173
0.543000000000000371,-1.425269318867191881
0.544000000000000372,-1.400029989772038075
0.545000000000000373,-1.375156051381804412
0.546000000000000374,-1.350644289757967353
0.547000000000000375,-1.326491478618585962
0.548000000000000376,-1.302694380523881534
0.549000000000000377,-1.279249748035563572
0.550000000000000377,-1.256154324850156989
0.551000000000000378,-1.233404846906616559
0.552000000000000379,-1.210998043468450192
0.553000000000000380,-1.188930638180636601
0.554000000000000381,-1.167199350101565170
0.555000000000000382,-1.145800894710360174
0.556000000000000383,-1.124731984889723257
0.557000000000000384,-1.103989331884741354
0.558000000000000385,-1.083569646237783068
0.559000000000000385,-1.063469638699902742
0.560000000000000386,-1.043686021118941598
0.561000000000000387,-1.024215507304682138
0.562000000000000388,-1.005054813871318231
0.563000000000000389,-0.986200661057546446
0.564000000000000390,-0.967649773524577150
0.565000000000000391,-0.949398881132360706
0.566000000000000392,-0.931444719694324741
0.567000000000000393,-0.913784031710956790
0.568000000000000393,-0.896413567082478324
0.569000000000000394,-0.879330083800960338
0.570000000000000395,-0.862530348622178478
0.571000000000000396,-0.846011137717473716
0.572000000000000397,-0.829769237305995278
0.573000000000000398,-0.813801444267535978
0.574000000000000399,-0.798104566736373422
0.575000000000000400,-0.782675424676300024
0.576000000000000401,-0.767510850437246761
0.577000000000000401,-0.752607689293770754
0.578000000000000402,-0.737962799965670602
0.579000000000000403,-0.723573055121066178
0.580000000000000404,-0.709435341862263757
0.581000000000000405,-0.695546562194650053
0.582000000000000406,-0.681903633478944671
0.583000000000000407,-0.668503488867109863
0.584000000000000408,-0.655343077722190803
0.585000000000000409,-0.642419366022394578
0.586000000000000409,-0.629729336749693447
0.587000000000000410,-0.617269990263238033
0.588000000000000411,-0.605038344657863325
0.589000000000000412,-0.593031436107995580
0.590000000000000413,-0.581246319197192052
0.591000000000000414,-0.569680067233640508
0.592000000000000415,-0.558329772551894643
0.593000000000000416,-0.547192546801067436
0.594000000000000417,-0.536265521219810304
0.595000000000000417,-0.525545846898356261
0.596000000000000418,-0.515030695027799190
0.597000000000000419,-0.504717257137020203
0.598000000000000420,-0.494602745317379078
0.599000000000000421,-0.484684392435531575
0.600000000000000422,-0.474959452334580479
0.601000000000000423,-0.465425200023824204
0.602000000000000424,-0.456078931857357150
0.603000000000000425,-0.446917965701764508
0.604000000000000425,-0.437939641093165022
0.605000000000000426,-0.429141319383812392
0.606000000000000427,-0.420520383878581927
0.607000000000000428,-0.412074239961401911
0.608000000000000429,-0.403800315212127559
0.609000000000000430,-0.395696059513769627
0.610000000000000431,-0.387758945150614875
0.611000000000000432,-0.379986466897234199
0.612000000000000433,-0.372376142098681306
0.613000000000000433,-0.364925510742155734
0.614000000000000434,-0.357632135520242977
0.615000000000000435,-0.350493601885991157
0.616000000000000436,-0.343507518100040266
0.617000000000000437,-0.336671515270016763
0.618000000000000438,-0.329983247382352241
0.619000000000000439,-0.323440391326743182
0.620000000000000440,-0.317040646913496260
0.621000000000000441,-0.310781736883872839
0.622000000000000441,-0.304661406913683652
0.623000000000000442,-0.298677425610281655
0.624000000000000443,-0.292827584503159433
0.625000000000000444,-0.287109698028342908
0.626000000000000445,-0.281521603506705964
0.627000000000000446,-0.276061161116446963
0.628000000000000447,-0.270726253859860988
0.629000000000000448,-0.265514787524572804
0.630000000000000449,-0.260424690639422973
0.631000000000000449,-0.255453914425139705
0.632000000000000450,-0.250600432739981394
0.633000000000000451,-0.245862242020505301
0.634000000000000452,-0.241237361217583712
0.635000000000000453,-0.236723831727872980
0.636000000000000454,-0.232319717320827956
0.637000000000000455,-0.228023104061462506
0.638000000000000456,-0.223832100228943620
0.639000000000000457,-0.219744836231206053
0.640000000000000457,-0.215759464515717120
0.641000000000000458,-0.211874159476472590
0.642000000000000459,-0.208087117357464602
0.643000000000000460,-0.204396556152616732
0.644000000000000461,-0.200800715502448046
0.645000000000000462,-0.197297856587480475
0.646000000000000463,-0.193886262018575894
0.647000000000000464,-0.190564235724301229
0.648000000000000465,-0.187330102835448042
0.649000000000000465,-0.184182209566799454
0.650000000000000466,-0.181118923096293266
0.651000000000000467,-0.178138631441644213
0.652000000000000468,-0.175239743334581088
0.653000000000000469,-0.172420688092764313
0.654000000000000470,-0.169679915489517386
0.655000000000000471,-0.167015895621453719
0.656000000000000472,-0.164427118774099712
0.657000000000000473,-0.161912095285606766
0.658000000000000473,-0.159469355408676322
0.659000000000000474,-0.157097449170741754
0.660000000000000475,-0.154794946232537700
0.661000000000000476,-0.152560435745107775
0.662000000000000477,-0.150392526205383542
0.663000000000000478,-0.148289845310360213
0.664000000000000479,-0.146251039810028016
0.665000000000000480,-0.144274775359019031
0.666000000000000481,-0.142359736367210277
0.667000000000000481,-0.140504625849177167
0.668000000000000482,-0.138708165272755479
0.669000000000000483,-0.136969094406605624
0.670000000000000484,-0.135286171166999258
0.671000000000000485,-0.133658171463797409
0.672000000000000486,-0.132083889045728847
0.673000000000000487,-0.130562135345050040
0.674000000000000488,-0.129091739321590321
0.675000000000000488,-0.127671547306295985
0.676000000000000489,-0.126300422844345145
0.677000000000000490,-0.124977246537809422
0.678000000000000491,-0.123700915888024870
0.679000000000000492,-0.122470345137653730
0.680000000000000493,-0.121284465112501724
0.681000000000000494,-0.120142223063192444
0.682000000000000495,-0.119042582506670325
0.683000000000000496,-0.117984523067655750
0.684000000000000496,-0.116967040320048704
0.685000000000000497,-0.115989145628350568
0.686000000000000498,-0.115049865989159866
0.687000000000000499,-0.114148243872746025
0.688000000000000500,-0.113283337064781331
0.689000000000000501,-0.112454218508266354
0.690000000000000502,-0.111659976145674772
0.691000000000000503,-0.110899712761360306
0.692000000000000504,-0.110172545824263723
0.693000000000000504,-0.109477607330988727
0.694000000000000505,-0.108814043649189923
0.695000000000000506,-0.108181015361443936
0.696000000000000507,-0.107577697109505460
0.697000000000000508,-0.107003277439052205
0.698000000000000509,-0.106456958644946822
0.699000000000000510,-0.105937956617013884
0.700000000000000511,-0.105445500686381741
0.701000000000000512,-0.104978833472425273
0.702000000000000512,-0.104537210730303615
0.703000000000000513,-0.104119901199159107
0.704000000000000514,-0.103726186450970675
0.705000000000000515,-0.103355360740097060
0.706000000000000516,-0.103006730853531930
0.707000000000000517,-0.102679615961913481
0.708000000000000518,-0.102373347471237428
0.709000000000000519,-0.102087268875419385
0.710000000000000520,-0.101820735609579854
0.711000000000000520,-0.101573114904195030
0.712000000000000521,-0.101343785640054571
0.713000000000000522,-0.101132138204061126
0.714000000000000523,-0.100937574345929162
0.715000000000000524,-0.100759507035708240
0.716000000000000525,-0.100597360322268375
0.717000000000000526,-0.100450569192637909
0.718000000000000527,-0.100318579432289681
0.719000000000000528,-0.100200847486353245
0.720000000000000528,-0.100096840321805464
0.721000000000000529,-0.100006035290549272
0.722000000000000530,-0.099927919993554770
0.723000000000000531,-0.099861992145897555
0.724000000000000532,-0.099807759442835028
0.725000000000000533,-0.099764739426879509
0.726000000000000534,-0.099732459355843031
0.727000000000000535,-0.099710456071945508
0.728000000000000536,-0.099698275871899292
0.729000000000000536,-0.099695474378061075
0.730000000000000537,-0.099701616410605126
0.731000000000000538,-0.099716275860723430
0.732000000000000539,-0.099739035564900352
0.733000000000000540,-0.099769487180224603
0.734000000000000541,-0.099807231060756688
0.735000000000000542,-0.099851876134958301
0.736000000000000543,-0.099903039784195208
0.737000000000000544,-0.099960347722294479
0.738000000000000544,-0.100023433876190240
0.739000000000000545,-0.100091940267617072
0.740000000000000546,-0.100165516895904166
0.741000000000000547,-0.100243821621817192
0.742000000000000548,-0.100326520052535423
0.743000000000000549,-0.100413285427622026
0.744000000000000550,-0.100503798506146810
0.745000000000000551,-0.100597747454857583
0.746000000000000552,-0.100694827737436127
0.747000000000000552,-0.100794742004840621
0.748000000000000553,-0.100897199986708791
0.749000000000000554,-0.101001918383859274
0.750000000000000555,-0.101108620761864845
0.751000000000000556,-0.101217037445683250
0.752000000000000557,-0.101326905415405760
0.753000000000000558,-0.101437968203009987
0.754000000000000559,-0.101549975790251781
0.755000000000000560,-0.101662684507574139
0.756000000000000560,-0.101775856934115949
0.757000000000000561,-0.101889261798748382
0.758000000000000562,-0.102002673882185868
0.759000000000000563,-0.102115873920166481
0.760000000000000564,-0.102228648507655714
0.761000000000000565,-0.102340790004118373
0.762000000000000566,-0.102452096439822005
0.763000000000000567,-0.102562371423184626
0.764000000000000568,-0.102671424049150598
0.765000000000000568,-0.102779068808620228
0.766000000000000569,-0.102885125498865901
0.767000000000000570,-0.102989419135019106
0.768000000000000571,-0.103091779862507324
0.769000000000000572,-0.103192042870582326
0.770000000000000573,-0.103290048306779528
0.771000000000000574,-0.103385641192436498
0.772000000000000575,-0.103478671339161624
0.773000000000000576,-0.103568993266324919
0.774000000000000576,-0.103656466119508114
0.775000000000000577,-0.103740953589956983
0.776000000000000578,-0.103822323834980107
0.777000000000000579,-0.103900449399338624
0.778000000000000580,-0.103975207137570025
0.779000000000000581,-0.104046478137292800
0.780000000000000582,-0.104114147643429383
0.781000000000000583,-0.104178104983402769
0.782000000000000584,-0.104238243493242913
0.783000000000000584,-0.104294460444620873
0.784000000000000585,-0.104346656972829049
0.785000000000000586,-0.104394738005644874
0.786000000000000587,-0.104438612193127778
0.787000000000000588,-0.104478191838305798
0.788000000000000589,-0.104513392828745860
0.789000000000000590,-0.104544134569047320
0.790000000000000591,-0.104570339914174776
0.791000000000000592,-0.104591935103688388
0.792000000000000592,-0.104608849696844169
0.793000000000000593,-0.104621016508530881
0.794000000000000594,-0.104628371546081997
0.795000000000000595,-0.104630853946942964
0.796000000000000596,-0.104628405917123496
0.797000000000000597,-0.104620972670552898
0.798000000000000598,-0.104608502369207490
0.799000000000000599,-0.104590946064074153
0.800000000000000600,-0.104568257636928050
0.801000000000000600,-0.104540393742903470
0.802000000000000601,-0.104507313753862047
0.803000000000000602,-0.104468979702548870
0.804000000000000603,-0.104425356227542371
0.805000000000000604,-0.104376410518966331
0.806000000000000605,-0.104322112264947253
0.807000000000000606,-0.104262433598887427
0.808000000000000607,-0.104197349047432275
0.809000000000000608,-0.104126835479207355
0.810000000000000608,-0.104050872054315152
0.811000000000000609,-0.103969440174501465
0.812000000000000610,-0.103882523434124269
0.813000000000000611,-0.103790107571757578
0.814000000000000612,-0.103692180422571265
0.815000000000000613,-0.103588731871382442
0.816000000000000614,-0.103479753806386771
0.817000000000000615,-0.103365240073609560
0.818000000000000616,-0.103245186432022878
0.819000000000000616,-0.103119590509328424
0.820000000000000617,-0.102988451758409288
0.821000000000000618,-0.102851771414453896
0.822000000000000619,-0.102709552452729252
0.823000000000000620,-0.102561799546977458
0.824000000000000621,-0.102408519028468842
0.825000000000000622,-0.102249718845692922
0.826000000000000623,-0.102085408524661303
0.827000000000000624,-0.101915599129828810
0.828000000000000624,-0.101740303225630768
0.829000000000000625,-0.101559534838613463
0.830000000000000626,-0.101373309420182883
0.831000000000000627,-0.101181643809913707
0.832000000000000628,-0.100984556199484168
0.833000000000000629,-0.100782066097134138
0.834000000000000630,-0.100574194292738367
0.835000000000000631,-0.100360962823427366
0.836000000000000631,-0.100142394939756491
0.837000000000000632,-0.099918515072449574
0.838000000000000633,-0.099689348799654770
0.839000000000000634,-0.099454922814764438
0.840000000000000635,-0.099215264894766911
0.841000000000000636,-0.098970403869090229
0.842000000000000637,-0.098720369589019072
0.843000000000000638,-0.098465192897570455
0.844000000000000639,-0.098204905599907660
0.845000000000000639,-0.097939540434250599
0.846000000000000640,-0.097669131043261886
0.847000000000000641,-0.097393711945960609
0.848000000000000642,-0.097113318510062968
0.849000000000000643,-0.096827986924843290
0.850000000000000644,-0.096537754174459894
0.851000000000000645,-0.096242658011709628
0.852000000000000646,-0.095942736932293188
0.853000000000000647,-0.095638030149491751
0.854000000000000647,-0.095328577569301104
0.855000000000000648,-0.095014419766023456
0.856000000000000649,-0.094695597958271066
0.857000000000000650,-0.094372153985423507
0.858000000000000651,-0.094044130284477251
0.859000000000000652,-0.093711569867340971
0.860000000000000653,-0.093374516298548413
0.861000000000000654,-0.093033013673339687
0.862000000000000655,-0.092687106596200275
0.863000000000000655,-0.092336840159741765
0.864000000000000656,-0.091982259924023660
0.865000000000000657,-0.091623411896216103
0.866000000000000658,-0.091260342510685863
0.867000000000000659,-0.090893098609434370
0.868000000000000660,-0.090521727422903597
0.869000000000000661,-0.090146276551159255
0.870000000000000662,-0.089766793945434839
0.871000000000000663,-0.089383327890033906
0.872000000000000663,-0.088995926984560450
0.873000000000000664,-0.088604640126533282
0.874000000000000665,-0.088209516494304196
0.875000000000000666,-0.087810605530348473
0.876000000000000667,-0.087407956924852537
0.877000000000000668,-0.087001620599653148
0.878000000000000669,-0.086591646692499830
0.879000000000000670,-0.086178085541610300
0.880000000000000671,-0.085760987670575176
0.881000000000000671,-0.085340403773534385
0.882000000000000672,-0.084916384700695818
0.883000000000000673,-0.084488981444123618
0.884000000000000674,-0.084058245123841885
0.885000000000000675,-0.083624226974212665
0.886000000000000676,-0.083186978330626160
0.887000000000000677,-0.082746550616447020
0.888000000000000678,-0.082302995330251844
0.889000000000000679,-0.081856364033352585
0.890000000000000679,-0.081406708337568606
0.891000000000000680,-0.080954079893285250
0.892000000000000681,-0.080498530377763139
0.893000000000000682,-0.080040111483710832
0.894000000000000683,-0.079578874908104946
0.895000000000000684,-0.079114872341282491
0.896000000000000685,-0.078648155456254185
0.897000000000000686,-0.078178775898278360
0.898000000000000687,-0.077706785274671605
0.899000000000000687,-0.077232235144847339
0.900000000000000688,-0.076755177010600986
0.901000000000000689,-0.076275662306607789
0.902000000000000690,-0.075793742391166874
0.903000000000000691,-0.075309468537141697
0.904000000000000692,-0.074822891923142482
0.905000000000000693,-0.074334063624904162
0.906000000000000694,-0.073843034606898311
0.907000000000000695,-0.073349855714120157
0.908000000000000695,-0.072854577664124551
0.909000000000000696,-0.072357251039215323
0.910000000000000697,-0.071857926278877687
0.911000000000000698,-0.071356653672370554
0.912000000000000699,-0.070853483351530328
0.913000000000000700,-0.070348465283770548
0.914000000000000701,-0.069841649265228484
0.915000000000000702,-0.069333084914152715
0.916000000000000703,-0.068822821664418457
0.917000000000000703,-0.068310908759251970
0.918000000000000704,-0.067797395245114342
0.919000000000000705,-0.067282329965755644
0.920000000000000706,-0.066765761556453931
0.921000000000000707,-0.066247738438391240
0.922000000000000708,-0.065728308813219311
0.923000000000000709,-0.065207520657776824
0.924000000000000710,-0.064685421718947991
0.925000000000000711,-0.064162059508700020
0.926000000000000711,-0.063637481299258239
0.927000000000000712,-0.063111734118430143
0.928000000000000713,-0.062584864745081931
0.929000000000000714,-0.062056919704760835
0.930000000000000715,-0.061527945265446596
0.931000000000000716,-0.060997987433451792
0.932000000000000717,-0.060467091949463356
0.933000000000000718,-0.059935304284704637
0.934000000000000719,-0.059402669637241536
0.935000000000000719,-0.058869232928415838
0.936000000000000720,-0.058335038799396166
0.937000000000000721,-0.057800131607863812
0.938000000000000722,-0.057264555424828535
0.939000000000000723,-0.056728354031537941
0.940000000000000724,-0.056191570916538792
0.941000000000000725,-0.055654249272821830
0.942000000000000726,-0.055116431995116219
0.943000000000000727,-0.054578161677253115
0.944000000000000727,-0.054039480609683034
0.945000000000000728,-0.053500430777075850
0.946000000000000729,-0.052961053856015586
0.947000000000000730,-0.052421391212838064
0.948000000000000731,-0.051881483901521794
0.949000000000000732,-0.051341372661728647
0.950000000000000733,-0.050801097916893169
0.951000000000000734,-0.050260699772458860
0.952000000000000735,-0.049720218014161037
0.953000000000000735,-0.049179692106424797
0.954000000000000736,-0.048639161190863076
0.955000000000000737,-0.048098664084846907
0.956000000000000738,-0.047558239280168293
0.957000000000000739,-0.047017924941785513
0.958000000000000740,-0.046477758906662489
0.959000000000000741,-0.045937778682673673
0.960000000000000742,-0.045398021447608787
0.961000000000000743,-0.044858524048239354
0.962000000000000743,-0.044319322999466150
0.963000000000000744,-0.043780454483548684
0.964000000000000745,-0.043241954349412456
0.965000000000000746,-0.042703858112007415
0.966000000000000747,-0.042166200951760990
0.967000000000000748,-0.041629017714079883
0.968000000000000749,-0.041092342908950433
0.969000000000000750,-0.040556210710561501
0.970000000000000751,-0.040020654957043836
0.971000000000000751,-0.039485709150216805
0.972000000000000752,-0.038951406455441866
0.973000000000000753,-0.038417779701534330
0.974000000000000754,-0.037884861380697091
0.975000000000000755,-0.037352683648555318
0.976000000000000756,-0.036821278324228261
0.977000000000000757,-0.036290676890454912
0.978000000000000758,-0.035760910493776762
0.979000000000000759,-0.035232009944795931
0.980000000000000759,-0.034704005718431880
0.981000000000000760,-0.034176927954288838
0.982000000000000761,-0.033650806457043589
0.983000000000000762,-0.033125670696872549
0.984000000000000763,-0.032601549809946263
0.985000000000000764,-0.032078472598965700
0.986000000000000765,-0.031556467533735803
0.987000000000000766,-0.031035562751783950
0.988000000000000766,-0.030515786059029899
0.989000000000000767,-0.029997164930496468
0.990000000000000768,-0.029479726511057801
0.991000000000000769,-0.028963497616213790
0.992000000000000770,-0.028448504732926937
0.993000000000000771,-0.027934774020497155
0.994000000000000772,-0.027422331311438990
0.995000000000000773,-0.026911202112446131
0.996000000000000774,-0.026401411605342283
0.997000000000000774,-0.025892984648100893
0.998000000000000775,-0.025385945775881807
0.999000000000000776,-0.024880319202099405
1.000000000000000666,-0.024376128819532477
1.001000000000000778,-0.023873398201456925
1.002000000000000668,-0.023372150602806948
1.003000000000000780,-0.022872408961370543
1.004000000000000670,-0.022374195899005821
1.005000000000000782,-0.021877533722899717
1.006000000000000671,-0.021382444426836948
1.007000000000000783,-0.020888949692490388
1.008000000000000673,-0.020397070890764278
1.009000000000000785,-0.019906829083131714
1.010000000000000675,-0.019418245023012728
1.011000000000000787,-0.018931339157160814
1.012000000000000677,-0.018446131627096223
1.013000000000000789,-0.017962642270535987
1.014000000000000679,-0.017480890622841007
1.015000000000000790,-0.017000895918521407
1.016000000000000680,-0.016522677092717371
1.017000000000000792,-0.016046252782717301
1.018000000000000682,-0.015571641329499352
1.019000000000000794,-0.015098860779275757
1.020000000000000684,-0.014627928885072392
1.021000000000000796,-0.014158863108305646
1.022000000000000686,-0.013691680620383567
1.023000000000000798,-0.013226398304326970
1.024000000000000687,-0.012763032756392706
1.025000000000000799,-0.012301600287721308
1.026000000000000689,-0.011842116925995188
1.027000000000000801,-0.011384598417102678
1.028000000000000691,-0.010929060226828281
1.029000000000000803,-0.010475517542536289
1.030000000000000693,-0.010023985274879677
1.031000000000000805,-0.009574478059521635
1.032000000000000695,-0.009127010258843115
1.033000000000000806,-0.008681595963702365
1.034000000000000696,-0.008238248995156712
1.035000000000000808,-0.007796982906226432
1.036000000000000698,-0.007357810983645212
1.037000000000000810,-0.006920746249654966
1.038000000000000700,-0.006485801463745233
1.039000000000000812,-0.006052989124459424
1.040000000000000702,-0.005622321471179720
1.041000000000000814,-0.005193810485925451
1.042000000000000703,-0.004767467895139229
1.043000000000000815,-0.004343305171510041
1.044000000000000705,-0.003921333535782283
1.045000000000000817,-0.003501563958555091
1.046000000000000707,-0.003084007162123926
1.047000000000000819,-0.002668673622291437
1.048000000000000709,-0.002255573570194125
1.049000000000000821,-0.001844716994141209
1.050000000000000711,-0.001436113641429092
1.051000000000000822,-0.001029773020199758
1.052000000000000712,-0.000625704401261632
1.053000000000000824,-0.000223916819927342
1.054000000000000714,0.000175580922135046
1.055000000000000826,0.000572780255072322
1.056000000000000716,0.000967672838993787
1.057000000000000828,0.001360250562140143
1.058000000000000718,0.001750505539034046
1.059000000000000830,0.002138430108640355
1.060000000000000719,0.002524016832518994
1.061000000000000831,0.002907258492994577
1.062000000000000721,0.003288148091307703
1.063000000000000833,0.003666678845771368
1.064000000000000723,0.004042844189948118
1.065000000000000835,0.004416637770802828
1.066000000000000725,0.004788053446863515
1.067000000000000837,0.005157085286412575
1.068000000000000727,0.005523727565623649
1.069000000000000838,0.005887974766767690
1.070000000000000728,0.006249821576364926
1.071000000000000840,0.006609262883376153
1.072000000000000730,0.006966293777378956
1.073000000000000842,0.007320909546754699
1.074000000000000732,0.007673105676884694
1.075000000000000844,0.008022877848332244
1.076000000000000734,0.008370221935044487
1.077000000000000846,0.008715134002559783
1.078000000000000735,0.009057610306201676
1.079000000000000847,0.009397647289301212
1.080000000000000737,0.009735241581400567
1.081000000000000849,0.010070389996484580
1.082000000000000739,0.010403089531199249
1.083000000000000851,0.010733337363083857
1.084000000000000741,0.011061130848801832
1.085000000000000853,0.011386467522392734
1.086000000000000743,0.011709345093511977
1.087000000000000854,0.012029761445684847
1.088000000000000744,0.012347714634559753
1.089000000000000856,0.012663202886188279
1.090000000000000746,0.012976224595284663
1.091000000000000858,0.013286778323501919
1.092000000000000748,0.013594862797723414
1.093000000000000860,0.013900476908348332
1.094000000000000750,0.014203619707594400
1.095000000000000862,0.014504290407794589
1.096000000000000751,0.014802488379711376
1.097000000000000863,0.015098213150863371
1.098000000000000753,0.015391464403835448
1.099000000000000865,0.015682241974620259
1.100000000000000755,0.015970545850960010
1.101000000000000867,0.016256376170691665
1.102000000000000757,0.016539733220097396
1.103000000000000869,0.016820617432269459
1.104000000000000759,0.017099029385491144
1.105000000000000870,0.017374969801592706
1.106000000000000760,0.017648439544362272
1.107000000000000872,0.017919439617920512
1.108000000000000762,0.018187971165127097
1.109000000000000874,0.018454035465998300
1.110000000000000764,0.018717633936114732
1.111000000000000876,0.018978768125056583
1.112000000000000766,0.019237439714829534
1.113000000000000878,0.019493650518314660
1.114000000000000767,0.019747402477711389
1.115000000000000879,0.019998697663009955
1.116000000000000769,0.020247538270443309
1.117000000000000881,0.020493926620977154
1.118000000000000771,0.020737865158790395
1.119000000000000883,0.020979356449763741
1.120000000000000773,0.021218403179987119
1.121000000000000885,0.021455008154274445
1.122000000000000774,0.021689174294676004
1.123000000000000886,0.021920904639012452
1.124000000000000776,0.022150202339403961
1.125000000000000888,0.022377070660831836
1.126000000000000778,0.022601512979681895
1.127000000000000890,0.022823532782301377
1.128000000000000780,0.023043133663595516
1.129000000000000892,0.023260319325587163
1.130000000000000782,0.023475093576017316
1.131000000000000894,0.023687460326945197
1.132000000000000783,0.023897423593354578
1.133000000000000895,0.024104987491768298
1.134000000000000785,0.024310156238891888
1.135000000000000897,0.024512934150221106
1.136000000000000787,0.024713325638717792
1.137000000000000899,0.024911335213439065
1.138000000000000789,0.025106967478220350
1.139000000000000901,0.025300227130326598
1.140000000000000790,0.025491118959153687
1.141000000000000902,0.025679647844913174
1.142000000000000792,0.025865818757321905
1.143000000000000904,0.026049636754326116
1.144000000000000794,0.026231106980802887
1.145000000000000906,0.026410234667309757
1.146000000000000796,0.026587025128794101
1.147000000000000908,0.026761483763358785
1.148000000000000798,0.026933616051007681
1.149000000000000909,0.027103427552409142
1.150000000000000799,0.027270923907676319
1.151000000000000689,0.027436110835139065
1.152000000000000801,0.027598994130138006
1.153000000000000913,0.027759579663826462
1.154000000000000803,0.027917873381976748
1.155000000000000693,0.028073881303805691
1.156000000000000805,0.028227609520784826
1.157000000000000917,0.028379064195496694
1.158000000000000806,0.028528251560464069
1.159000000000000696,0.028675177917012830
1.160000000000000808,0.028819849634133927
1.161000000000000920,0.028962273147352013
1.162000000000000810,0.029102454957607087
1.163000000000000700,0.029240401630147971
1.164000000000000812,0.029376119793424787
1.165000000000000924,0.029509616138007472
1.166000000000000814,0.029640897415486579
1.167000000000000703,0.029769970437414705
1.168000000000000815,0.029896842074226597
1.169000000000000927,0.030021519254194912
1.170000000000000817,0.030144008962369538
1.171000000000000707,0.030264318239551564
1.172000000000000819,0.030382454181246531
1.173000000000000931,0.030498423936655295
1.174000000000000821,0.030612234707657865
1.175000000000000711,0.030723893747804099
1.176000000000000822,0.030833408361317781
1.177000000000000934,0.030940785902116470
1.178000000000000824,0.031046033772821474
1.179000000000000714,0.031149159423798912
1.180000000000000826,0.031250170352184165
1.181000000000000938,0.031349074100940670
1.182000000000000828,0.031445878257909586
1.183000000000000718,0.031540590454867859
1.184000000000000830,0.031633218366605612
1.185000000000000941,0.031723769710011132
1.186000000000000831,0.031812252243144323
1.187000000000000721,0.031898673764347296
1.188000000000000833,0.031983042111339358
1.189000000000000945,0.032065365160332836
1.190000000000000835,0.032145650825153881
1.191000000000000725,0.032223907056379029
1.192000000000000837,0.032300141840451088
1.193000000000000949,0.032374363198853770
1.194000000000000838,0.032446579187234960
1.195000000000000728,0.032516797894593816
1.196000000000000840,0.032585027442430491
1.197000000000000952,0.032651275983931118
1.198000000000000842,0.032715551703155418
1.199000000000000732,0.032777862814216518
1.200000000000000844,0.032838217560503639
1.201000000000000956,0.032896624213864953
1.202000000000000846,0.032953091073842804
1.203000000000000735,0.033007626466881310
1.204000000000000847,0.033060238745576641
1.205000000000000959,0.033110936287891329
1.206000000000000849,0.033159727496420870
1.207000000000000739,0.033206620797641292
1.208000000000000851,0.033251624641163359
1.209000000000000963,0.033294747499009472
1.210000000000000853,0.033335997864883858
1.211000000000000743,0.033375384253462842
1.212000000000000854,0.033412915199675444
1.213000000000000966,0.033448599258012135
1.214000000000000856,0.033482445001815173
1.215000000000000746,0.033514461022611984
1.216000000000000858,0.033544655929408723
1.217000000000000970,0.033573038348039229
1.218000000000000860,0.033599616920486033
1.219000000000000750,0.033624400304222354
1.220000000000000862,0.033647397171561448
1.221000000000000973,0.033668616209012611
1.222000000000000863,0.033688066116634288
1.223000000000000753,0.033705755607414248
1.224000000000000865,0.033721693406632690
1.225000000000000977,0.033735888251247820
1.226000000000000867,0.033748348889288675
1.227000000000000757,0.033759084079243981
1.228000000000000869,0.033768102589470710
1.229000000000000981,0.033775413197583398
1.230000000000000870,0.033781024689899894
1.231000000000000760,0.033784945860835761
1.232000000000000872,0.033787185512337808
1.233000000000000984,0.033787752453331620
1.234000000000000874,0.033786655499142150
1.235000000000000764,0.033783903470956486
1.236000000000000876,0.033779505195265416
1.237000000000000988,0.033773469503333597
1.238000000000000878,0.033765805230649260
1.239000000000000767,0.033756521216414787
1.240000000000000879,0.033745626303008244
1.241000000000000991,0.033733129335475620
1.242000000000000881,0.033719039161020523
1.243000000000000771,0.033703364628494534
1.244000000000000883,0.033686114587907406
1.245000000000000995,0.033667297889923217
1.246000000000000885,0.033646923385383463
1.247000000000000774,0.033624999924824164
1.248000000000000886,0.033601536357998861
1.249000000000000998,0.033576541533409589
1.250000000000000888,0.033550024297843192
1.251000000000000778,0.033521993495916329
1.252000000000000890,0.033492457969619548
1.253000000000001002,0.033461426557878565
1.254000000000000892,0.033428908096096388
1.255000000000000782,0.033394911415734842
1.256000000000000894,0.033359445343879447
1.257000000000001005,0.033322518702807995
1.258000000000000895,0.033284140309577243
1.259000000000000785,0.033244318975609401
1.260000000000000897,0.033203063506282118
1.261000000000001009,0.033160382700518569
1.262000000000000899,0.033116285350402640
1.263000000000000789,0.033070780240773978
1.264000000000000901,0.033023876148841773
1.265000000000001013,0.032975581843808735
1.266000000000000902,0.032925906086484678
1.267000000000000792,0.032874857628918008
1.268000000000000904,0.032822445214027426
1.269000000000001016,0.032768677575240338
1.270000000000000906,0.032713563436126455
1.271000000000000796,0.032657111510056611
1.272000000000000908,0.032599330499847368
1.273000000000001020,0.032540229097417273
1.274000000000000909,0.032479815983447402
1.275000000000000799,0.032418099827054569
1.276000000000000911,0.032355089285446989
1.277000000000001023,0.032290793003616335
1.278000000000000913,0.032225219614004166
1.279000000000000803,0.032158377736192789
1.280000000000000915,0.032090275976586202
1.281000000000001027,0.032020922928120629
1.282000000000000917,0.031950327169938807
1.283000000000000806,0.031878497267109382
1.284000000000000918,0.031805441770323774
1.285000000000001030,0.031731169215614072
1.286000000000000920,0.031655688124059514
1.287000000000000810,0.031579007001514628
1.288000000000000922,0.031501134338320580
1.289000000000001034,0.031422078609045452
1.290000000000000924,0.031341848272213119
1.291000000000000814,0.031260451770027092
1.292000000000000925,0.031177897528129071
1.293000000000001037,0.031094193955324711
1.294000000000000927,0.031009349443344481
1.295000000000000817,0.030923372366589756
1.296000000000000929,0.030836271081888356
1.297000000000001041,0.030748053928257291
1.298000000000000931,0.030658729226662872
1.299000000000000821,0.030568305279786288
1.300000000000000933,0.030476790371802391
1.301000000000001044,0.030384192768147029
1.302000000000000934,0.030290520715300844
1.303000000000000824,0.030195782440561099
1.304000000000000936,0.030099986151845781
1.305000000000001048,0.030003140037465952
1.306000000000000938,0.029905252265922166
1.307000000000000828,0.029806330985713260
1.308000000000000940,0.029706384325124586
1.309000000000001052,0.029605420392027022
1.310000000000000941,0.029503447273698968
1.311000000000000831,0.029400473036627316
1.312000000000000943,0.029296505726328703
1.313000000000001055,0.029191553367147405
1.314000000000000945,0.029085623962103940
1.315000000000000835,0.028978725492698958
1.316000000000000947,0.028870865918747723
1.317000000000001059,0.028762053178205377
1.318000000000000949,0.028652295187011449
1.319000000000000838,0.028541599838911101
1.320000000000000950,0.028429975005306307
1.321000000000001062,0.028317428535099654
1.322000000000000952,0.028203968254531538
1.323000000000000842,0.028089601967036866
1.324000000000000954,0.027974337453091143
1.325000000000001066,0.027858182470075793
1.326000000000000956,0.027741144752120962
1.327000000000000846,0.027623232009983716
1.328000000000000957,0.027504451930894198
1.329000000000001069,0.027384812178441586
1.330000000000000959,0.027264320392424678
1.331000000000000849,0.027142984188736941
1.332000000000000961,0.027020811159240776
1.333000000000001073,0.026897808871641969
1.334000000000000963,0.026773984869367284
1.335000000000000853,0.026649346671459535
1.336000000000000965,0.026523901772449777
1.337000000000001076,0.026397657642255424
1.338000000000000966,0.026270621726071152
1.339000000000000856,0.026142801444256097
1.340000000000000968,0.026014204192238245
1.341000000000001080,0.025884837340411637
1.342000000000000970,0.025754708234033568
1.343000000000000860,0.025623824193135823
1.344000000000000972,0.025492192512425810
1.345000000000001084,0.025359820461194220
1.346000000000000973,0.025226715283234769
1.347000000000000863,0.025092884196749415
1.348000000000000975,0.024958334394272658
1.349000000000001087,0.024823073042581016
1.350000000000000977,0.024687107282620441
1.351000000000000867,0.024550444229424491
1.352000000000000979,0.024413090972052347
1.353000000000001091,0.024275054573497129
1.354000000000000981,0.024136342070627197
1.355000000000000870,0.023996960474122177
1.356000000000000982,0.023856916768399149
1.357000000000001094,0.023716217911548366
1.358000000000000984,0.023574870835279670
1.359000000000000874,0.023432882444858381
1.360000000000000986,0.023290259619047075
1.361000000000001098,0.023147009210049464
1.362000000000000988,0.023003138043463801
1.363000000000000878,0.022858652918226974
1.364000000000000989,0.022713560606559199
1.365000000000001101,0.022567867853930453
1.366000000000000991,0.022421581379005733
1.367000000000000881,0.022274707873602639
1.368000000000000993,0.022127254002651715
1.369000000000001105,0.021979226404154627
1.370000000000000995,0.021830631689150618
1.371000000000000885,0.021681476441678438
1.372000000000000997,0.021531767218738888
1.373000000000001108,0.021381510550262224
1.374000000000000998,0.021230712939093708
1.375000000000000888,0.021079380860935946
1.376000000000001000,0.020927520764348433
1.377000000000001112,0.020775139070705495
1.378000000000001002,0.020622242174182303
1.379000000000000892,0.020468836441727777
1.380000000000001004,0.020314928213046639
1.381000000000001116,0.020160523800574613
1.382000000000001005,0.020005629489473351
1.383000000000000895,0.019850251537604068
1.384000000000001007,0.019694396175518131
1.385000000000001119,0.019538069606442676
1.386000000000001009,0.019381278006271953
1.387000000000000899,0.019224027523561144
1.388000000000001011,0.019066324279502035
1.389000000000001123,0.018908174367943009
1.390000000000001013,0.018749583855361122
1.391000000000000902,0.018590558780871812
1.392000000000001014,0.018431105156221168
1.393000000000001126,0.018271228965787624
1.394000000000001016,0.018110936166578308
1.395000000000000906,0.017950232688236416
1.396000000000001018,0.017789124433046651
1.397000000000001130,0.017627617275930461
1.398000000000001020,0.017465717064460623
1.399000000000000909,0.017303429618863980
1.400000000000001021,0.017140760732036676
1.401000000000001133,0.016977716169542849
1.402000000000001023,0.016814301669637783
1.403000000000000913,0.016650522943273634
1.404000000000001025,0.016486385674112487
1.405000000000001137,0.016321895518547146
1.406000000000001027,0.016157058105711775
1.407000000000000917,0.015991879037495549
1.408000000000001029,0.015826363888576056
1.409000000000001140,0.015660518206419793
1.410000000000001030,0.015494347511318746
1.411000000000000920,0.015327857296400738
1.412000000000001032,0.015161053027659965
1.413000000000001144,0.014993940143976595
1.414000000000001034,0.014826524057142673
1.415000000000000924,0.014658810151892507
1.416000000000001036,0.014490803785920566
1.417000000000001148,0.014322510289915828
1.418000000000001037,0.014153934967593523
1.419000000000000927,0.013985083095719325
1.420000000000001039,0.013815959924144796
1.421000000000001151,0.013646570675834862
1.422000000000001041,0.013476920546904253
1.423000000000000931,0.013307014706652567
1.424000000000001043,0.013136858297595821
1.425000000000001155,0.012966456435503631
1.426000000000001044,0.012795814209437961
1.427000000000000934,0.012624936681785029
1.428000000000001046,0.012453828888300555
1.429000000000001158,0.012282495838146858
1.430000000000001048,0.012110942513927303
1.431000000000000938,0.011939173871738384
1.432000000000001050,0.011767194841200534
1.433000000000001162,0.011595010325506524
1.434000000000001052,0.011422625201466637
1.435000000000000941,0.011250044319544754
1.436000000000001053,0.011077272503912432
1.437000000000001165,0.010904314552493079
1.438000000000001055,0.010731175236999794
1.439000000000000945,0.010557859302992417
1.440000000000001057,0.010384371469920673
1.441000000000001169,0.010210716431178138
1.442000000000001059,0.010036898854144594
1.443000000000000949,0.009862923380236106
1.444000000000001060,0.009688794624961829
1.445000000000001172,0.009514517177975464
1.446000000000001062,0.009340095603115365
1.447000000000000952,0.009165534438475131
1.448000000000001064,0.008990838196442391
1.449000000000001176,0.008816011363755866
1.450000000000001066,0.008641058401568437
1.451000000000000956,0.008465983745492473
1.452000000000001068,0.008290791805657515
1.453000000000001180,0.008115486966771637
1.454000000000001069,0.007940073588172756
1.455000000000000959,0.007764556003887814
1.456000000000001071,0.007588938522694560
1.457000000000001183,0.007413225428171751
1.458000000000001073,0.007237420978763663
1.459000000000000963,0.007061529407844189
1.460000000000001075,0.006885554923767865
1.461000000000001187,0.006709501709938860
1.462000000000001076,0.006533373924859792
1.463000000000000966,0.006357175702208710
1.464000000000001078,0.006180911150894241
1.465000000000001190,0.006004584355110605
1.466000000000001080,0.005828199374416466
1.467000000000000970,0.005651760243784898
1.468000000000001082,0.005475270973671559
1.469000000000001194,0.005298735550083851
1.470000000000001084,0.005122157934637720
1.471000000000000973,0.004945542064629859
1.472000000000001085,0.004768891853095763
1.473000000000001197,0.004592211188883153
1.474000000000001087,0.004415503936712877
1.475000000000000977,0.004238773937252911
1.476000000000001089,0.004062025007174578
1.477000000000001201,0.003885260939227221
1.478000000000001091,0.003708485502308382
1.479000000000000981,0.003531702441523654
1.480000000000001092,0.003354915478264711
1.481000000000001204,0.003178128310269915
1.482000000000001094,0.003001344611698686
1.483000000000000984,0.002824568033196861
1.484000000000001096,0.002647802201970619
1.485000000000001208,0.002471050721858953
1.486000000000001098,0.002294317173392382
1.487000000000000988,0.002117605113876208
1.488000000000001100,0.001940918077458802
1.489000000000001211,0.001764259575194725
1.490000000000001101,0.001587633095126875
1.491000000000000991,0.001411042102354124
1.492000000000001103,0.001234490039098222
1.493000000000001215,0.001057980324783755
1.494000000000001105,0.000881516356110408
1.495000000000000995,0.000705101507118531
1.496000000000001107,0.000528739129269737
1.497000000000001219,0.000352432551516054
1.498000000000001108,0.000176185080373689
1.499000000000000998,0.000000000000000000
