# CNT15-NH2-2_BSAI9
# h[nm],U(h)[kJ/mol]
0.149999999999999994,119.544428216127812448
0.150999999999999995,118.452946611275905298
0.151999999999999996,116.316323076082383636
0.152999999999999997,114.023564900241652253
0.153999999999999998,111.877341769668717575
0.154999999999999999,109.915618879927137641
0.156000000000000000,108.080794477175032853
0.157000000000000001,106.300747188602301208
0.158000000000000002,104.521384043023971344
0.159000000000000002,102.714354142494840971
0.160000000000000003,100.873550390308054148
0.161000000000000004,99.007828061954711529
0.162000000000000005,97.133658064706793311
0.163000000000000006,95.269295570614133339
0.164000000000000007,93.430883444718048736
0.165000000000000008,91.630336539832995868
0.166000000000000009,89.874619901602400773
0.167000000000000010,88.165986548934881739
0.168000000000000010,86.502784800987939207
0.169000000000000011,84.880526191961990889
0.170000000000000012,83.292992540921545697
0.171000000000000013,81.733239531197099836
0.172000000000000014,80.194417960620924646
0.173000000000000015,78.670381436917821816
0.174000000000000016,77.156082088841216660
0.175000000000000017,75.647776341913441911
0.176000000000000018,74.143073745957394749
0.177000000000000018,72.640865848478895828
0.178000000000000019,71.141171414490329994
0.179000000000000020,69.644930687158677074
0.180000000000000021,68.153776220947804632
0.181000000000000022,66.669802075325051760
0.182000000000000023,65.195347493429125052
0.183000000000000024,63.732806019437745704
0.184000000000000025,62.284466557433290745
0.185000000000000026,60.852389236034198916
0.186000000000000026,59.438316118165268165
0.187000000000000027,58.043614727065801162
0.188000000000000028,56.669250957666733370
0.189000000000000029,55.315787101229865641
0.190000000000000030,53.983400322251746672
0.191000000000000031,52.671916887020302056
0.192000000000000032,51.380857659971617579
0.193000000000000033,50.109490776860830863
0.194000000000000034,48.856887905918924275
0.195000000000000034,47.621981065930569343
0.196000000000000035,46.403617541995906493
0.197000000000000036,45.200610994829915512
0.198000000000000037,44.011787376202292421
0.199000000000000038,42.836024727544227630
0.200000000000000039,41.672286342988762442
0.201000000000000040,40.519647119085092868
0.202000000000000041,39.377313191635948897
0.203000000000000042,38.244635178630588257
0.204000000000000042,37.121115511892114114
0.205000000000000043,36.006410454708003499
0.206000000000000044,34.900327474763841451
0.207000000000000045,33.802818677685877446
0.208000000000000046,32.713971012772695701
0.209000000000000047,31.633993945036529283
0.210000000000000048,30.563205251941457874
0.211000000000000049,29.502015554088739435
0.212000000000000050,28.450912130793074795
0.213000000000000050,27.410442507637263532
0.214000000000000051,26.381198236685342806
0.215000000000000052,25.363799223522608628
0.216000000000000053,24.358878890599235945
0.217000000000000054,23.367070404948712792
0.218000000000000055,22.388994141298876883
0.219000000000000056,21.425246499613621154
0.220000000000000057,20.476390149622897496
0.221000000000000058,19.542945734119925305
0.222000000000000058,18.625385027713370789
0.223000000000000059,17.724125518182333394
0.224000000000000060,16.839526353317197049
0.225000000000000061,15.971885576797802742
0.226000000000000062,15.121438561856598071
0.227000000000000063,14.288357540760111775
0.228000000000000064,13.472752121066179143
0.229000000000000065,12.674670675719166724
0.230000000000000066,11.894102492893356526
0.231000000000000066,11.130980572654296523
0.232000000000000067,10.385184960588404124
0.233000000000000068,9.656546513177081792
0.234000000000000069,8.944850995531908211
0.235000000000000070,8.249843418856908528
0.236000000000000071,7.571232532396956927
0.237000000000000072,6.908695392429727633
0.238000000000000073,6.261881938863947283
0.239000000000000073,5.630419518045318483
0.240000000000000074,5.013917298296503233
0.241000000000000075,4.411970532417992530
0.242000000000000076,3.824164628752286799
0.243000000000000077,3.250078999394595769
0.244000000000000078,2.689290660665605959
0.245000000000000079,2.141377567006367055
0.246000000000000080,1.605921664991492248
0.247000000000000081,1.082511659169779872
0.248000000000000081,0.570745485934689434
0.249000000000000082,0.070232495605388981
0.250000000000000111,-0.419404653621904433
0.251000000000000112,-0.898528383191868896
0.252000000000000113,-1.367484853972592118
0.253000000000000114,-1.826602886977413132
0.254000000000000115,-2.276193131981711471
0.255000000000000115,-2.716547469633757927
0.256000000000000116,-3.147938631639314533
0.257000000000000117,-3.570620022882143196
0.258000000000000118,-3.984825728896270736
0.259000000000000119,-4.390770691901880518
0.260000000000000120,-4.788651038624368361
0.261000000000000121,-5.178644543307391324
0.262000000000000122,-5.560911209681336231
0.263000000000000123,-5.935593956131315352
0.264000000000000123,-6.302819388903716735
0.265000000000000124,-6.662698648873846885
0.266000000000000125,-7.015328318152567633
0.267000000000000126,-7.360791373617686872
0.268000000000000127,-7.699158175303122853
0.269000000000000128,-8.030487478448447902
0.270000000000000129,-8.354827458894384051
0.271000000000000130,-8.672216742393606737
0.272000000000000131,-8.982685429281421108
0.273000000000000131,-9.286256106810887090
0.274000000000000132,-9.582944842293622756
0.275000000000000133,-9.872762150996488018
0.276000000000000134,-10.155713933520479131
0.277000000000000135,-10.431802378127228437
0.278000000000000136,-10.701026824179937336
0.279000000000000137,-10.963384583524803162
0.280000000000000138,-11.218871717256076792
0.281000000000000139,-11.467483765882786173
0.282000000000000139,-11.709216431445597095
0.283000000000000140,-11.944066210620878365
0.284000000000000141,-12.172030978294490211
0.285000000000000142,-12.393110521492499032
0.286000000000000143,-12.607307023920238720
0.287000000000000144,-12.814625501686526476
0.288000000000000145,-13.015074191079161636
0.289000000000000146,-13.208664889509947216
0.290000000000000147,-13.395413250968630337
0.291000000000000147,-13.575339037512367923
0.292000000000000148,-13.748466328477121579
0.293000000000000149,-13.914823689227796777
0.294000000000000150,-14.074444301370320431
0.295000000000000151,-14.227366056430582830
0.296000000000000152,-14.373631615065750822
0.297000000000000153,-14.513288433914016906
0.298000000000000154,-14.646388762211568491
0.299000000000000155,-14.772989610311858755
0.300000000000000155,-14.893152692234085777
0.301000000000000156,-15.006944344346706544
0.302000000000000157,-15.114435422259068886
0.303000000000000158,-15.215701177951597600
0.304000000000000159,-15.310821119123582790
0.305000000000000160,-15.399878852678591912
0.306000000000000161,-15.482961914202576281
0.307000000000000162,-15.560161585219187685
0.308000000000000163,-15.631572699932116066
0.309000000000000163,-15.697293443086383746
0.310000000000000164,-15.757425140500169292
0.311000000000000165,-15.812072043736213445
0.312000000000000166,-15.861341110299116863
0.313000000000000167,-15.905341780660823048
0.314000000000000168,-15.944185753333211863
0.315000000000000169,-15.977986759123856686
0.316000000000000170,-16.006860335629333747
0.317000000000000171,-16.030923602939861183
0.318000000000000171,-16.050295041450539202
0.319000000000000172,-16.065094272598237524
0.320000000000000173,-16.075441843268599484
0.321000000000000174,-16.081459014545963271
0.322000000000000175,-16.083267555410419192
0.323000000000000176,-16.080989541919279873
0.324000000000000177,-16.074747162347623686
0.325000000000000178,-16.064662528701571631
0.326000000000000179,-16.050857494961270788
0.327000000000000179,-16.033453482355636055
0.328000000000000180,-16.012571311920034134
0.329000000000000181,-15.988331044539981107
0.330000000000000182,-15.960851828638080718
0.331000000000000183,-15.930251755620171039
0.332000000000000184,-15.896647723156224430
0.333000000000000185,-15.860155306335872893
0.334000000000000186,-15.820888636704177443
0.335000000000000187,-15.778960289152388796
0.336000000000000187,-15.734481176609932618
0.337000000000000188,-15.687560452457677940
0.338000000000000189,-15.638305420559202474
0.339000000000000190,-15.586821452785315500
0.340000000000000191,-15.533211913887788214
0.341000000000000192,-15.477578093561637829
0.342000000000000193,-15.420019145519754389
0.343000000000000194,-15.360632033390910323
0.344000000000000195,-15.299511483240323173
0.345000000000000195,-15.236749942502731514
0.346000000000000196,-15.172437545109209722
0.347000000000000197,-15.106662082582639428
0.348000000000000198,-15.039508980871280741
0.349000000000000199,-14.971061282685699467
0.350000000000000200,-14.901399635101707730
0.351000000000000201,-14.830602282189943253
0.352000000000000202,-14.758745062431978923
0.353000000000000203,-14.685901410683268153
0.354000000000000203,-14.612142364443943876
0.355000000000000204,-14.537536574200348838
0.356000000000000205,-14.462150317602839422
0.357000000000000206,-14.386047517248513827
0.358000000000000207,-14.309289761840858546
0.359000000000000208,-14.231936330503106802
0.360000000000000209,-14.154044220026403167
0.361000000000000210,-14.075668174838932956
0.362000000000000210,-13.996860719487859370
0.363000000000000211,-13.917672193431261718
0.364000000000000212,-13.838150787943664710
0.365000000000000213,-13.758342584944514897
0.366000000000000214,-13.678291597565614524
0.367000000000000215,-13.598039812279830940
0.368000000000000216,-13.517627232420156957
0.369000000000000217,-13.437091922924656373
0.370000000000000218,-13.356470056149760239
0.371000000000000218,-13.275795958600776103
0.372000000000000219,-13.195102158435620510
0.373000000000000220,-13.114419433603995202
0.374000000000000221,-13.033776860491235183
0.375000000000000222,-12.953201862942213651
0.376000000000000223,-12.872720261547630827
0.377000000000000224,-12.792356323080966263
0.378000000000000225,-12.712132809980754899
0.379000000000000226,-12.632071029779051941
0.380000000000000226,-12.552190884382914859
0.381000000000000227,-12.472510919121367223
0.382000000000000228,-12.393048371476327318
0.383000000000000229,-12.313819219421297646
0.384000000000000230,-12.234838229296926215
0.385000000000000231,-12.156119003158034175
0.386000000000000232,-12.077674025531397461
0.387000000000000233,-11.999514709528652290
0.388000000000000234,-11.921651442263211607
0.389000000000000234,-11.844093629524811817
0.390000000000000235,-11.766849739669286379
0.391000000000000236,-11.689927346685729859
0.392000000000000237,-11.613333172406720806
0.393000000000000238,-11.537073127831600772
0.394000000000000239,-11.461152353535865700
0.395000000000000240,-11.385575259143701388
0.396000000000000241,-11.310345561843643480
0.397000000000000242,-11.235466323930509702
0.398000000000000242,-11.160939989360004532
0.399000000000000243,-11.086768419304728894
0.400000000000000244,-11.012952926703347245
0.401000000000000245,-10.939494309797142435
0.402000000000000246,-10.866392884650240447
0.403000000000000247,-10.793648516652392999
0.404000000000000248,-10.721260651005035669
0.405000000000000249,-10.649228342193326924
0.406000000000000250,-10.577550282448736851
0.407000000000000250,-10.506224829208452576
0.408000000000000251,-10.435250031579261787
0.409000000000000252,-10.364623655815325520
0.410000000000000253,-10.294343209820340235
0.411000000000000254,-10.224405966685893077
0.412000000000000255,-10.154808987279002608
0.413000000000000256,-10.085549141892878211
0.414000000000000257,-10.016623130975652600
0.415000000000000258,-9.948027504953094180
0.416000000000000258,-9.879758683161600885
0.417000000000000259,-9.811812971908855374
0.418000000000000260,-9.744186581679906922
0.419000000000000261,-9.676875643506971159
0.420000000000000262,-9.609876224521821442
0.421000000000000263,-9.543184342710006263
0.422000000000000264,-9.476795980886269177
0.423000000000000265,-9.410707099911075346
0.424000000000000266,-9.344913651168342383
0.425000000000000266,-9.279411588324316895
0.426000000000000267,-9.214196878388070999
0.427000000000000268,-9.149265512093933239
0.428000000000000269,-9.084613513626145220
0.429000000000000270,-9.020236949706220031
0.430000000000000271,-8.956131938063167652
0.431000000000000272,-8.892294655306910656
0.432000000000000273,-8.828721344224874201
0.433000000000000274,-8.765408320521787644
0.434000000000000274,-8.702351979022285633
0.435000000000000275,-8.639548799355972974
0.436000000000000276,-8.576995351144244495
0.437000000000000277,-8.514688298707781655
0.438000000000000278,-8.452624405313653000
0.439000000000000279,-8.390800536980442814
0.440000000000000280,-8.329213665859494853
0.441000000000000281,-8.267860873210270967
0.442000000000000282,-8.206739351987261344
0.443000000000000282,-8.145846409055561566
0.444000000000000283,-8.085179467052068247
0.445000000000000284,-8.024736065908625093
0.446000000000000285,-7.964513864053182957
0.447000000000000286,-7.904510639304842989
0.448000000000000287,-7.844724289477836621
0.449000000000000288,-7.785152832709625770
0.450000000000000289,-7.725794407527466490
0.451000000000000290,-7.666647272667674429
0.452000000000000290,-7.607709806661371310
0.453000000000000291,-7.548980507199940071
0.454000000000000292,-7.490457990293353241
0.455000000000000293,-7.432140989233708694
0.456000000000000294,-7.374028353376390399
0.457000000000000295,-7.316119046750491961
0.458000000000000296,-7.258412146509958696
0.459000000000000297,-7.200906841236518474
0.460000000000000298,-7.143602429104980445
0.461000000000000298,-7.086498315921256008
0.462000000000000299,-7.029594013042986589
0.463000000000000300,-6.972889135192259502
0.464000000000000301,-6.916383398169749341
0.465000000000000302,-6.860076616479005907
0.466000000000000303,-6.803968700869421404
0.467000000000000304,-6.748059655806040169
0.468000000000000305,-6.692349576874043748
0.469000000000000306,-6.636838648125372053
0.470000000000000306,-6.581527139374744984
0.471000000000000307,-6.526415403451797381
0.472000000000000308,-6.471503873416091679
0.473000000000000309,-6.416793059741093153
0.474000000000000310,-6.362283547473198020
0.475000000000000311,-6.307975993371405465
0.476000000000000312,-6.253871123033229118
0.477000000000000313,-6.199969728011723191
0.478000000000000314,-6.146272662928745412
0.479000000000000314,-6.092780842589003321
0.480000000000000315,-6.039495239099198720
0.481000000000000316,-5.986416878996567270
0.482000000000000317,-5.933546840390557797
0.483000000000000318,-5.880886250121461600
0.484000000000000319,-5.828436280939398806
0.485000000000000320,-5.776198148706961355
0.486000000000000321,-5.724173109628518219
0.487000000000000322,-5.672362457509094291
0.488000000000000322,-5.620767521045398674
0.489000000000000323,-5.569389661151623372
0.490000000000000324,-5.518230268322198206
0.491000000000000325,-5.467290760033693076
0.492000000000000326,-5.416572578187789588
0.493000000000000327,-5.366077186597220106
0.494000000000000328,-5.315806068516235605
0.495000000000000329,-5.265760724217203759
0.496000000000000330,-5.215942668614615307
0.497000000000000330,-5.166353428937855874
0.498000000000000331,-5.116994542453694450
0.499000000000000332,-5.067867554239680494
0.500000000000000333,-5.018974015009116663
0.501000000000000334,-4.970315478988473146
0.502000000000000335,-4.921893501847859120
0.503000000000000336,-4.873709638685133072
0.504000000000000337,-4.825765442064018806
0.505000000000000338,-4.778062460106643705
0.506000000000000338,-4.730602234640755910
0.507000000000000339,-4.683386299401754549
0.508000000000000340,-4.636416178289656465
0.509000000000000341,-4.589693383681076710
0.510000000000000342,-4.543219414796046962
0.511000000000000343,-4.496995756119673615
0.512000000000000344,-4.451023875878354019
0.513000000000000345,-4.405305224570382094
0.514000000000000346,-4.359841233550620920
0.515000000000000346,-4.314633313668825743
0.516000000000000347,-4.269682853961269231
0.517000000000000348,-4.224991220395275526
0.518000000000000349,-4.180559754665948091
0.519000000000000350,-4.136389773044820473
0.520000000000000351,-4.092482565279635054
0.521000000000000352,-4.048839393544772847
0.522000000000000353,-4.005461491441602462
0.523000000000000353,-3.962350063048056370
0.524000000000000354,-3.919506282016876675
0.525000000000000355,-3.876931290721553403
0.526000000000000356,-3.834626199449394424
0.527000000000000357,-3.792592085640915656
0.528000000000000358,-3.750829993174595867
0.529000000000000359,-3.709340931696442745
0.530000000000000360,-3.668125875993271556
0.531000000000000361,-3.627185765409056906
0.532000000000000361,-3.586521503303348624
0.533000000000000362,-3.546133956551000388
0.534000000000000363,-3.506023955082238963
0.535000000000000364,-3.466192291462244501
0.536000000000000365,-3.426639720509334630
0.537000000000000366,-3.387366958950867257
0.538000000000000367,-3.348374685115886429
0.539000000000000368,-3.309663538663790039
0.540000000000000369,-3.271234120347867869
0.541000000000000369,-3.233086991813043376
0.542000000000000370,-3.195222675426757419
0.543000000000000371,-3.157641654142158583
0.544000000000000372,-3.120344371392707483
0.545000000000000373,-3.083331231017303331
0.546000000000000374,-3.046602597214990382
0.547000000000000375,-3.010158794528427606
0.548000000000000376,-2.974000107855252484
0.549000000000000377,-2.938126782486413902
0.550000000000000377,-2.902539024170625925
0.551000000000000378,-2.867236999204130221
0.552000000000000379,-2.832220834544906918
0.553000000000000380,-2.797490617950470160
0.554000000000000381,-2.763046398138433002
0.555000000000000382,-2.728888184969104902
0.556000000000000383,-2.695015949649148368
0.557000000000000384,-2.661429624955715223
0.558000000000000385,-2.628129105480087269
0.559000000000000385,-2.595114247890189851
0.560000000000000386,-2.562384871211137671
0.561000000000000387,-2.529940757123111617
0.562000000000000388,-2.497781650275815668
0.563000000000000389,-2.465907258618794895
0.564000000000000390,-2.434317253746914211
0.565000000000000391,-2.403011271260285131
0.566000000000000392,-2.371988911137981937
0.567000000000000393,-2.341249738124886015
0.568000000000000393,-2.310793282130944259
0.569000000000000394,-2.280619038642269558
0.570000000000000395,-2.250726469143439878
0.571000000000000396,-2.221115001550320933
0.572000000000000397,-2.191784030652923043
0.573000000000000398,-2.162732918567570106
0.574000000000000399,-2.133960995197951682
0.575000000000000400,-2.105467558704342323
0.576000000000000401,-2.077251875980567597
0.577000000000000401,-2.049313183138150585
0.578000000000000402,-2.021650685997047781
0.579000000000000403,-1.994263560582544725
0.580000000000000404,-1.967150953627820886
0.581000000000000405,-1.940311983081627334
0.582000000000000406,-1.913745738620688197
0.583000000000000407,-1.887451282166313193
0.584000000000000408,-1.861427648404814672
0.585000000000000409,-1.835673845311283969
0.586000000000000409,-1.810188854676294978
0.587000000000000410,-1.784971632635169003
0.588000000000000411,-1.760021110199346595
0.589000000000000412,-1.735336193789563719
0.590000000000000413,-1.710915765770365526
0.591000000000000414,-1.686758684985678824
0.592000000000000415,-1.662863787295091100
0.593000000000000416,-1.639229886110422196
0.594000000000000417,-1.615855772932341505
0.595000000000000417,-1.592740217886753795
0.596000000000000418,-1.569881970260467607
0.597000000000000419,-1.547279759036113145
0.598000000000000420,-1.524932293425786511
0.599000000000000421,-1.502838263403326824
0.600000000000000422,-1.480996340234841835
0.601000000000000423,-1.459405177007328192
0.602000000000000424,-1.438063409155059480
0.603000000000000425,-1.416969654983571525
0.604000000000000425,-1.396122516190991592
0.605000000000000426,-1.375520578386493664
0.606000000000000427,-1.355162411605740358
0.607000000000000428,-1.335046570822944867
0.608000000000000429,-1.315171596459645764
0.609000000000000430,-1.295536014889673293
0.610000000000000431,-1.276138338940473016
0.611000000000000432,-1.256977068390367824
0.612000000000000433,-1.238050690461708570
0.613000000000000433,-1.219357680309809400
0.614000000000000434,-1.200896501507440428
0.615000000000000435,-1.182665606524760493
0.616000000000000436,-1.164663437204618068
0.617000000000000437,-1.146888425233076436
0.618000000000000438,-1.129338992605016356
0.619000000000000439,-1.112013552084726076
0.620000000000000440,-1.094910507661437382
0.621000000000000441,-1.078028254999632951
0.622000000000000441,-1.061365181884088127
0.623000000000000442,-1.044919668659545220
0.624000000000000443,-1.028690088664948821
0.625000000000000444,-1.012674808662207271
0.626000000000000445,-0.996872189259332075
0.627000000000000446,-0.981280585328009769
0.628000000000000447,-0.965898346415445475
0.629000000000000448,-0.950723817150505690
0.630000000000000449,-0.935755337644079033
0.631000000000000449,-0.920991243883611643
0.632000000000000450,-0.906429868121822913
0.633000000000000451,-0.892069539259528588
0.634000000000000452,-0.877908583222556382
0.635000000000000453,-0.863945323332750648
0.636000000000000454,-0.850178080673020142
0.637000000000000455,-0.836605174446448219
0.638000000000000456,-0.823224922329407249
0.639000000000000457,-0.810035640818727698
0.640000000000000457,-0.797035645572887752
0.641000000000000458,-0.784223251747188654
0.642000000000000459,-0.771596774323028645
0.643000000000000460,-0.759154528431117193
0.644000000000000461,-0.746894829668821369
0.645000000000000462,-0.734815994411508022
0.646000000000000463,-0.722916340117969347
0.647000000000000464,-0.711194185629942965
0.648000000000000465,-0.699647851465742154
0.649000000000000465,-0.688275660107993570
0.650000000000000466,-0.677075936285564062
0.651000000000000467,-0.666047007249631506
0.652000000000000468,-0.655187203043998023
0.653000000000000469,-0.644494856769621705
0.654000000000000470,-0.633968304843446018
0.655000000000000471,-0.623605887251528213
0.656000000000000472,-0.613405947796516582
0.657000000000000473,-0.603366834339509106
0.658000000000000473,-0.593486899036359539
0.659000000000000474,-0.583764498568432266
0.660000000000000475,-0.574197994367886322
0.661000000000000476,-0.564785752837493105
0.662000000000000477,-0.555526145565091278
0.663000000000000478,-0.546417549532652203
0.664000000000000479,-0.537458347320107110
0.665000000000000480,-0.528646927303828784
0.666000000000000481,-0.519981683850026521
0.667000000000000481,-0.511461017502875204
0.668000000000000482,-0.503083335167666346
0.669000000000000483,-0.494847050288812540
0.670000000000000484,-0.486750583022932226
0.671000000000000485,-0.478792360406971595
0.672000000000000486,-0.470970816521444735
0.673000000000000487,-0.463284392648887711
0.674000000000000488,-0.455731537427498501
0.675000000000000488,-0.448310707000090847
0.676000000000000489,-0.441020365158432071
0.677000000000000490,-0.433858983482920901
0.678000000000000491,-0.426825041477795097
0.679000000000000492,-0.419917026701834728
0.680000000000000493,-0.413133434894645268
0.681000000000000494,-0.406472770098615044
0.682000000000000495,-0.399933544776540861
0.683000000000000496,-0.393514279925053501
0.684000000000000496,-0.387213505183838014
0.685000000000000497,-0.381029758940754859
0.686000000000000498,-0.374961588432910942
0.687000000000000499,-0.369007549843720251
0.688000000000000500,-0.363166208396030421
0.689000000000000501,-0.357436138441394213
0.690000000000000502,-0.351815923545511944
0.691000000000000503,-0.346304156569916477
0.692000000000000504,-0.340899439749967281
0.693000000000000504,-0.335600384769233151
0.694000000000000505,-0.330405612830243167
0.695000000000000506,-0.325313754721795134
0.696000000000000507,-0.320323450882749827
0.697000000000000508,-0.315433351462449330
0.698000000000000509,-0.310642116377809696
0.699000000000000510,-0.305948415367110371
0.700000000000000511,-0.301350928040573229
0.701000000000000512,-0.296848343927783032
0.702000000000000512,-0.292439362521986934
0.703000000000000513,-0.288122693321357926
0.704000000000000514,-0.283897055867260495
0.705000000000000515,-0.279761179779575986
0.706000000000000516,-0.275713804789153749
0.707000000000000517,-0.271753680767446437
0.708000000000000518,-0.267879567753338987
0.709000000000000519,-0.264090235977321786
0.710000000000000520,-0.260384465882942395
0.711000000000000520,-0.256761048145698001
0.712000000000000521,-0.253218783689348914
0.713000000000000522,-0.249756483699727860
0.714000000000000523,-0.246372969636137279
0.715000000000000524,-0.243067073240285925
0.716000000000000525,-0.239837636542962196
0.717000000000000526,-0.236683511868340524
0.718000000000000527,-0.233603561836083606
0.719000000000000528,-0.230596659361234912
0.720000000000000528,-0.227661687651993683
0.721000000000000529,-0.224797540205336016
0.722000000000000530,-0.222003120800665421
0.723000000000000531,-0.219277343491392523
0.724000000000000532,-0.216619132594604080
0.725000000000000533,-0.214027422678823243
0.726000000000000534,-0.211501158549880441
0.727000000000000535,-0.209039295235006806
0.728000000000000536,-0.206640797965120360
0.729000000000000536,-0.204304642155419935
0.730000000000000537,-0.202029813384281803
0.731000000000000538,-0.199815307370503958
0.732000000000000539,-0.197660129948980440
0.733000000000000540,-0.195563297044804962
0.734000000000000541,-0.193523834645861481
0.735000000000000542,-0.191540778773942211
0.736000000000000543,-0.189613175454448307
0.737000000000000544,-0.187740080684671518
0.738000000000000544,-0.185920560400757939
0.739000000000000545,-0.184153690443317697
0.740000000000000546,-0.182438556521793471
0.741000000000000547,-0.180774254177551524
0.742000000000000548,-0.179159888745838047
0.743000000000000549,-0.177594575316479097
0.744000000000000550,-0.176077438693516747
0.745000000000000551,-0.174607613353734675
0.746000000000000552,-0.173184243404110289
0.747000000000000552,-0.171806482538263056
0.748000000000000553,-0.170473493991882219
0.749000000000000554,-0.169184450497216560
0.750000000000000555,-0.167938534236640596
0.751000000000000556,-0.166734936795292776
0.752000000000000557,-0.165572859112910975
0.753000000000000558,-0.164451511434752951
0.754000000000000559,-0.163370113261795430
0.755000000000000560,-0.162327893300101750
0.756000000000000560,-0.161324089409490418
0.757000000000000561,-0.160357948551448332
0.758000000000000562,-0.159428726736377702
0.759000000000000563,-0.158535688970198291
0.760000000000000564,-0.157678109200289962
0.761000000000000565,-0.156855270260853802
0.762000000000000566,-0.156066463817682355
0.763000000000000567,-0.155310990312377967
0.764000000000000568,-0.154588158906042050
0.765000000000000568,-0.153897287422487761
0.766000000000000569,-0.153237702290925454
0.767000000000000570,-0.152608738488251433
0.768000000000000571,-0.152009739480838041
0.769000000000000572,-0.151440057165996234
0.770000000000000573,-0.150899051812977525
0.771000000000000574,-0.150386092003667204
0.772000000000000575,-0.149900554572898720
0.773000000000000576,-0.149441824548475488
0.774000000000000576,-0.149009295090863164
0.775000000000000577,-0.148602367432642324
0.776000000000000578,-0.148220450817650728
0.777000000000000579,-0.147862962439938517
0.778000000000000580,-0.147529327382451336
0.779000000000000581,-0.147218978555553798
0.780000000000000582,-0.146931356635332300
0.781000000000000583,-0.146665910001762489
0.782000000000000584,-0.146422094676707887
0.783000000000000584,-0.146199374261778203
0.784000000000000585,-0.145997219876105477
0.785000000000000586,-0.145815110093978906
0.786000000000000587,-0.145652530882427966
0.787000000000000588,-0.145508975538725965
0.788000000000000589,-0.145383944627821310
0.789000000000000590,-0.145276945919775885
0.790000000000000591,-0.145187494327132433
0.791000000000000592,-0.145115111842296557
0.792000000000000592,-0.145059327474924421
0.793000000000000593,-0.145019677189308110
0.794000000000000594,-0.144995703841808737
0.795000000000000595,-0.144986957118347803
0.796000000000000596,-0.144992993471891152
0.797000000000000597,-0.145013376060084631
0.798000000000000598,-0.145047674682904193
0.799000000000000599,-0.145095465720425365
0.800000000000000600,-0.145156332070694005
0.801000000000000600,-0.145229863087699168
0.802000000000000601,-0.145315654519474535
0.803000000000000602,-0.145413308446333156
0.804000000000000603,-0.145522433219253094
0.805000000000000604,-0.145642643398412458
0.806000000000000605,-0.145773559691857263
0.807000000000000606,-0.145914808894406056
0.808000000000000607,-0.146066023826672275
0.809000000000000608,-0.146226843274300689
0.810000000000000608,-0.146396911927425988
0.811000000000000609,-0.146575880320276741
0.812000000000000610,-0.146763404771067307
0.813000000000000611,-0.146959147322039158
0.814000000000000612,-0.147162775679786667
0.815000000000000613,-0.147373963155799453
0.816000000000000614,-0.147592388607226843
0.817000000000000615,-0.147817736377924114
0.818000000000000616,-0.148049696239745426
0.819000000000000616,-0.148287963334083617
0.820000000000000617,-0.148532238113689818
0.821000000000000618,-0.148782226284771918
0.822000000000000619,-0.149037638749377199
0.823000000000000620,-0.149298191548033199
0.824000000000000621,-0.149563605802701144
0.825000000000000622,-0.149833607660026874
0.826000000000000623,-0.150107928234884308
0.827000000000000624,-0.150386303554220752
0.828000000000000624,-0.150668474501219285
0.829000000000000625,-0.150954186759767656
0.830000000000000626,-0.151243190759251911
0.831000000000000627,-0.151535241619664335
0.832000000000000628,-0.151830099097055637
0.833000000000000629,-0.152127527529279521
0.834000000000000630,-0.152427295782104344
0.835000000000000631,-0.152729177195651544
0.836000000000000631,-0.153032949531157370
0.837000000000000632,-0.153338394918103776
0.838000000000000633,-0.153645299801661722
0.839000000000000634,-0.153953454890507879
0.840000000000000635,-0.154262655104989016
0.841000000000000636,-0.154572699525610785
0.842000000000000637,-0.154883391341927273
0.843000000000000638,-0.155194537801741750
0.844000000000000639,-0.155505950160692796
0.845000000000000639,-0.155817443632195823
0.846000000000000640,-0.156128837337733917
0.847000000000000641,-0.156439954257545116
0.848000000000000642,-0.156750621181627858
0.849000000000000643,-0.157060668661147540
0.850000000000000644,-0.157369930960212789
0.851000000000000645,-0.157678246007984441
0.852000000000000646,-0.157985455351204063
0.853000000000000647,-0.158291404107053696
0.854000000000000647,-0.158595940916398559
0.855000000000000648,-0.158898917897416003
0.856000000000000649,-0.159200190599581404
0.857000000000000650,-0.159499617958038409
0.858000000000000651,-0.159797062248324795
0.859000000000000652,-0.160092389041493505
0.860000000000000653,-0.160385467159606637
0.861000000000000654,-0.160676168631581462
0.862000000000000655,-0.160964368649444634
0.863000000000000655,-0.161249945524924859
0.864000000000000656,-0.161532780646458873
0.865000000000000657,-0.161812758436529258
0.866000000000000658,-0.162089766309418903
0.867000000000000659,-0.162363694629312050
0.868000000000000660,-0.162634436668772253
0.869000000000000661,-0.162901888567595410
0.870000000000000662,-0.163165949292043977
0.871000000000000663,-0.163426520594448371
0.872000000000000663,-0.163683506973160642
0.873000000000000664,-0.163936815632912875
0.874000000000000665,-0.164186356445512327
0.875000000000000666,-0.164432041910933746
0.876000000000000667,-0.164673787118753384
0.877000000000000668,-0.164911509709965654
0.878000000000000669,-0.165145129839172067
0.879000000000000670,-0.165374570137106491
0.880000000000000671,-0.165599755673561055
0.881000000000000671,-0.165820613920637960
0.882000000000000672,-0.166037074716396421
0.883000000000000673,-0.166249070228833729
0.884000000000000674,-0.166456534920240179
0.885000000000000675,-0.166659405511897785
0.886000000000000676,-0.166857620949153990
0.887000000000000677,-0.167051122366830535
0.888000000000000678,-0.167239853054989313
0.889000000000000679,-0.167423758425064628
0.890000000000000679,-0.167602785976326912
0.891000000000000680,-0.167776885262704262
0.892000000000000681,-0.167946007859947177
0.893000000000000682,-0.168110107333141662
0.894000000000000683,-0.168269139204553164
0.895000000000000684,-0.168423060921837203
0.896000000000000685,-0.168571831826563712
0.897000000000000686,-0.168715413123091906
0.898000000000000687,-0.168853767847785663
0.899000000000000687,-0.168986860838546804
0.900000000000000688,-0.169114658704700827
0.901000000000000689,-0.169237129797193908
0.902000000000000690,-0.169354244179141189
0.903000000000000691,-0.169465973596674729
0.904000000000000692,-0.169572291450142271
0.905000000000000693,-0.169673172765606506
0.906000000000000694,-0.169768594166689490
0.907000000000000695,-0.169858533846701215
0.908000000000000695,-0.169942971541131166
0.909000000000000696,-0.170021888500406393
0.910000000000000697,-0.170095267463002325
0.911000000000000698,-0.170163092628837165
0.912000000000000699,-0.170225349632986606
0.913000000000000700,-0.170282025519714941
0.914000000000000701,-0.170333108716773346
0.915000000000000702,-0.170378589010057951
0.916000000000000703,-0.170418457518509675
0.917000000000000703,-0.170452706669356857
0.918000000000000704,-0.170481330173625850
0.919000000000000705,-0.170504323001955838
0.920000000000000706,-0.170521681360713412
0.921000000000000707,-0.170533402668372774
0.922000000000000708,-0.170539485532209045
0.923000000000000709,-0.170539929725269518
0.924000000000000710,-0.170534736163609424
0.925000000000000711,-0.170523906883834619
0.926000000000000711,-0.170507445020907256
0.927000000000000712,-0.170485354786232446
0.928000000000000713,-0.170457641446016189
0.929000000000000714,-0.170424311299903181
0.930000000000000715,-0.170385371659870943
0.931000000000000716,-0.170340830829401269
0.932000000000000717,-0.170290698082919245
0.933000000000000718,-0.170234983645483173
0.934000000000000719,-0.170173698672748425
0.935000000000000719,-0.170106855231187126
0.936000000000000720,-0.170034466278552315
0.937000000000000721,-0.169956545644612433
0.938000000000000722,-0.169873108012137453
0.939000000000000723,-0.169784168898113375
0.940000000000000724,-0.169689744635236922
0.941000000000000725,-0.169589852353621118
0.942000000000000726,-0.169484509962784469
0.943000000000000727,-0.169373736133833275
0.944000000000000727,-0.169257550281930264
0.945000000000000728,-0.169135972548973113
0.946000000000000729,-0.169009023786500151
0.947000000000000730,-0.168876725538860406
0.948000000000000731,-0.168739100026577715
0.949000000000000732,-0.168596170129977685
0.950000000000000733,-0.168447959373003303
0.951000000000000734,-0.168294491907302446
0.952000000000000735,-0.168135792496484748
0.953000000000000735,-0.167971886500628387
0.954000000000000736,-0.167802799861009294
0.955000000000000737,-0.167628559085027856
0.956000000000000738,-0.167449191231360123
0.957000000000000739,-0.167264723895313383
0.958000000000000740,-0.167075185194402093
0.959000000000000741,-0.166880603754114343
0.960000000000000742,-0.166681008693904925
0.961000000000000743,-0.166476429613370641
0.962000000000000743,-0.166266896578637191
0.963000000000000744,-0.166052440108941934
0.964000000000000745,-0.165833091163428176
0.965000000000000746,-0.165608881128105595
0.966000000000000747,-0.165379841803027255
0.967000000000000748,-0.165146005389645439
0.968000000000000749,-0.164907404478376179
0.969000000000000750,-0.164664072036313835
0.970000000000000751,-0.164416041395178236
0.971000000000000751,-0.164163346239393160
0.972000000000000752,-0.163906020594387219
0.973000000000000753,-0.163644098815069056
0.974000000000000754,-0.163377615574449658
0.975000000000000755,-0.163106605852474884
0.976000000000000756,-0.162831104925017428
0.977000000000000757,-0.162551148353033803
0.978000000000000758,-0.162266771971899010
0.979000000000000759,-0.161978011880926143
0.980000000000000759,-0.161684904433004262
0.981000000000000760,-0.161387486224453758
0.982000000000000761,-0.161085794085021744
0.983000000000000762,-0.160779865068024164
0.984000000000000763,-0.160469736440666838
0.985000000000000764,-0.160155445674526054
0.986000000000000765,-0.159837030436166566
0.987000000000000766,-0.159514528577919368
0.988000000000000766,-0.159187978128822322
0.989000000000000767,-0.158857417285706765
0.990000000000000768,-0.158522884404423636
0.991000000000000769,-0.158184417991215659
0.992000000000000770,-0.157842056694248306
0.993000000000000771,-0.157495839295282020
0.994000000000000772,-0.157145804701464525
0.995000000000000773,-0.156791991937299618
0.996000000000000774,-0.156434440136715758
0.997000000000000774,-0.156073188535300222
0.998000000000000775,-0.155708276462656781
0.999000000000000776,-0.155339743334892699
1.000000000000000666,-0.154967628647249833
1.001000000000000778,-0.154591971966856923
1.002000000000000668,-0.154212812925611592
1.003000000000000780,-0.153830191213191581
1.004000000000000670,-0.153444146570189094
1.005000000000000782,-0.153054718781379828
1.006000000000000671,-0.152661947669100545
1.007000000000000783,-0.152265873086746995
1.008000000000000673,-0.151866534912410200
1.009000000000000785,-0.151463973042611388
1.010000000000000675,-0.151058227386164312
1.011000000000000787,-0.150649337858140553
1.012000000000000677,-0.150237344373973986
1.013000000000000789,-0.149822286843651287
1.014000000000000679,-0.149404205166012771
1.015000000000000790,-0.148983139223197558
1.016000000000000680,-0.148559128875157070
1.017000000000000792,-0.148132213954289244
1.018000000000000682,-0.147702434260189586
1.019000000000000794,-0.147269829554486587
1.020000000000000684,-0.146834439555800250
1.021000000000000796,-0.146396303934784533
1.022000000000000686,-0.145955462309277528
1.023000000000000798,-0.145511954239554764
1.024000000000000687,-0.145065819223667070
1.025000000000000799,-0.144617096692892022
1.026000000000000689,-0.144165826007266074
1.027000000000000801,-0.143712046451213327
1.028000000000000691,-0.143255797229277365
1.029000000000000803,-0.142797117461923972
1.030000000000000693,-0.142336046181454956
1.031000000000000805,-0.141872622327999937
1.032000000000000695,-0.141406884745588490
1.033000000000000806,-0.140938872178335062
1.034000000000000696,-0.140468623266674003
1.035000000000000808,-0.139996176543705164
1.036000000000000698,-0.139521570431603431
1.037000000000000810,-0.139044843238147753
1.038000000000000700,-0.138566033153264684
1.039000000000000812,-0.138085178245713702
1.040000000000000702,-0.137602316459823404
1.041000000000000814,-0.137117485612311879
1.042000000000000703,-0.136630723389164127
1.043000000000000815,-0.136142067342619077
1.044000000000000705,-0.135651554888209402
1.045000000000000817,-0.135159223301861392
1.046000000000000707,-0.134665109717104270
1.047000000000000819,-0.134169251122318395
1.048000000000000709,-0.133671684358061066
1.049000000000000821,-0.133172446114474236
1.050000000000000711,-0.132671572928735271
1.051000000000000822,-0.132169101182609439
1.052000000000000712,-0.131665067100033950
1.053000000000000824,-0.131159506744782162
1.054000000000000714,-0.130652456018201163
1.055000000000000826,-0.130143950656993385
1.056000000000000716,-0.129634026231078170
1.057000000000000828,-0.129122718141498422
1.058000000000000718,-0.128610061618399940
1.059000000000000830,-0.128096091719064831
1.060000000000000719,-0.127580843326009802
1.061000000000000831,-0.127064351145124821
1.062000000000000721,-0.126546649703890735
1.063000000000000833,-0.126027773349646349
1.064000000000000723,-0.125507756247892732
1.065000000000000835,-0.124986632380678170
1.066000000000000725,-0.124464435545027730
1.067000000000000837,-0.123941199351400716
1.068000000000000727,-0.123416957222253029
1.069000000000000838,-0.122891742390590683
1.070000000000000728,-0.122365587898618872
1.071000000000000840,-0.121838526596416502
1.072000000000000730,-0.121310591140670734
1.073000000000000842,-0.120781813993452530
1.074000000000000732,-0.120252227421034988
1.075000000000000844,-0.119721863492776207
1.076000000000000734,-0.119190754080031686
1.077000000000000846,-0.118658930855110145
1.078000000000000735,-0.118126425290290313
1.079000000000000847,-0.117593268656858776
1.080000000000000737,-0.117059492024215978
1.081000000000000849,-0.116525126258992320
1.082000000000000739,-0.115990202024238223
1.083000000000000851,-0.115454749778633084
1.084000000000000741,-0.114918799775746705
1.085000000000000853,-0.114382382063325738
1.086000000000000743,-0.113845526482632534
1.087000000000000854,-0.113308262667818044
1.088000000000000744,-0.112770620045333933
1.089000000000000856,-0.112232627833365434
1.090000000000000746,-0.111694315041322878
1.091000000000000858,-0.111155710469362817
1.092000000000000748,-0.110616842707929042
1.093000000000000860,-0.110077740137348834
1.094000000000000750,-0.109538430927442060
1.095000000000000862,-0.108998943037183785
1.096000000000000751,-0.108459304214389277
1.097000000000000863,-0.107919541995418200
1.098000000000000753,-0.107379683704940415
1.099000000000000865,-0.106839756455707535
1.100000000000000755,-0.106299787148356306
1.101000000000000867,-0.105759802471254785
1.102000000000000757,-0.105219828900370446
1.103000000000000869,-0.104679892699168220
1.104000000000000759,-0.104140019918521537
1.105000000000000870,-0.103600236396686474
1.106000000000000760,-0.103060567759258731
1.107000000000000872,-0.102521039419193813
1.108000000000000762,-0.101981676576838695
1.109000000000000874,-0.101442504219977067
1.110000000000000764,-0.100903547123924617
1.111000000000000876,-0.100364829851623760
1.112000000000000766,-0.099826376753784196
1.113000000000000878,-0.099288211969030593
1.114000000000000767,-0.098750359424086956
1.115000000000000879,-0.098212842833963615
1.116000000000000769,-0.097675685702195106
1.117000000000000881,-0.097138911321072358
1.118000000000000771,-0.096602542771910854
1.119000000000000883,-0.096066602925341291
1.120000000000000773,-0.095531114441613746
1.121000000000000885,-0.094996099770918385
1.122000000000000774,-0.094461581153739177
1.123000000000000886,-0.093927580621215603
1.124000000000000776,-0.093394119995533334
1.125000000000000888,-0.092861220890312415
1.126000000000000778,-0.092328904711039703
1.127000000000000890,-0.091797192655514379
1.128000000000000780,-0.091266105714278734
1.129000000000000892,-0.090735664671115365
1.130000000000000782,-0.090205890103524297
1.131000000000000894,-0.089676802383227103
1.132000000000000783,-0.089148421676694151
1.133000000000000895,-0.088620767945681106
1.134000000000000785,-0.088093860947763308
1.135000000000000897,-0.087567720236931712
1.136000000000000787,-0.087042365164143182
1.137000000000000899,-0.086517814877938692
1.138000000000000789,-0.085994088325030443
1.139000000000000901,-0.085471204250947785
1.140000000000000790,-0.084949181200651647
1.141000000000000902,-0.084428037519182042
1.142000000000000792,-0.083907791352336863
1.143000000000000904,-0.083388460647321389
1.144000000000000794,-0.082870063153452966
1.145000000000000906,-0.082352616422829483
1.146000000000000796,-0.081836137811067994
1.147000000000000908,-0.081320644477995946
1.148000000000000798,-0.080806153388393392
1.149000000000000909,-0.080292681312728015
1.150000000000000799,-0.079780244827896238
1.151000000000000689,-0.079268860317994100
1.152000000000000801,-0.078758543975078948
1.153000000000000913,-0.078249311799944307
1.154000000000000803,-0.077741179602911062
1.155000000000000693,-0.077234163004613138
1.156000000000000805,-0.076728277436818149
1.157000000000000917,-0.076223538143217737
1.158000000000000806,-0.075719960180265430
1.159000000000000696,-0.075217558417992075
1.160000000000000808,-0.074716347540845635
1.161000000000000920,-0.074216342048532224
1.162000000000000810,-0.073717556256869043
1.163000000000000700,-0.073220004298632985
1.164000000000000812,-0.072723700124432786
1.165000000000000924,-0.072228657503565052
1.166000000000000814,-0.071734890024906364
1.167000000000000703,-0.071242411097777861
1.168000000000000815,-0.070751233952845050
1.169000000000000927,-0.070261371643000975
1.170000000000000817,-0.069772837044272354
1.171000000000000707,-0.069285642856709892
1.172000000000000819,-0.068799801605314223
1.173000000000000931,-0.068315325640933469
1.174000000000000821,-0.067832227141183088
1.175000000000000711,-0.067350518111372049
1.176000000000000822,-0.066870210385428216
1.177000000000000934,-0.066391315626820810
1.178000000000000824,-0.065913845329503395
1.179000000000000714,-0.065437810818840966
1.180000000000000826,-0.064963223252562596
1.181000000000000938,-0.064490093621692557
1.182000000000000828,-0.064018432751503485
1.183000000000000718,-0.063548251302470937
1.184000000000000830,-0.063079559771219387
1.185000000000000941,-0.062612368491471518
1.186000000000000831,-0.062146687635025066
1.187000000000000721,-0.061682527212692614
1.188000000000000833,-0.061219897075279230
1.189000000000000945,-0.060758806914537056
1.190000000000000835,-0.060299266264139825
1.191000000000000725,-0.059841284500634528
1.192000000000000837,-0.059384870844440329
1.193000000000000949,-0.058930034360783132
1.194000000000000838,-0.058476783960703174
1.195000000000000728,-0.058025128401997972
1.196000000000000840,-0.057575076290219719
1.197000000000000952,-0.057126636079642357
1.198000000000000842,-0.056679816074232378
1.199000000000000732,-0.056234624428640655
1.200000000000000844,-0.055791069149157546
1.201000000000000956,-0.055349158094716230
1.202000000000000846,-0.054908898977851631
1.203000000000000735,-0.054470299365693954
1.204000000000000847,-0.054033366680927820
1.205000000000000959,-0.053598108202798575
1.206000000000000849,-0.053164531068065290
1.207000000000000739,-0.052732642271989261
1.208000000000000851,-0.052302448669316513
1.209000000000000963,-0.051873956975249068
1.210000000000000853,-0.051447173766425401
1.211000000000000743,-0.051022105481891032
1.212000000000000854,-0.050598758424083880
1.213000000000000966,-0.050177138759798900
1.214000000000000856,-0.049757252521175258
1.215000000000000746,-0.049339105606648517
1.216000000000000858,-0.048922703781948518
1.217000000000000970,-0.048508052681048137
1.218000000000000860,-0.048095157807141978
1.219000000000000750,-0.047684024533617343
1.220000000000000862,-0.047274658105015237
1.221000000000000973,-0.046867063637994914
1.222000000000000863,-0.046461246122305830
1.223000000000000753,-0.046057210421736772
1.224000000000000865,-0.045654961275086975
1.225000000000000977,-0.045254503297122557
1.226000000000000867,-0.044855840979524997
1.227000000000000757,-0.044458978691854931
1.228000000000000869,-0.044063920682494442
1.229000000000000981,-0.043670671079618070
1.230000000000000870,-0.043279233892110275
1.231000000000000760,-0.042889613010534525
1.232000000000000872,-0.042501812208075543
1.233000000000000984,-0.042115835141464206
1.234000000000000874,-0.041731685351936165
1.235000000000000764,-0.041349366266153764
1.236000000000000876,-0.040968881197148151
1.237000000000000988,-0.040590233345243823
1.238000000000000878,-0.040213425798998406
1.239000000000000767,-0.039838461536114457
1.240000000000000879,-0.039465343424372155
1.241000000000000991,-0.039094074222548070
1.242000000000000881,-0.038724656581327163
1.243000000000000771,-0.038357093044227610
1.244000000000000883,-0.037991386048499144
1.245000000000000995,-0.037627537926046929
1.246000000000000885,-0.037265550904324880
1.247000000000000774,-0.036905427107243330
1.248000000000000886,-0.036547168556066545
1.249000000000000998,-0.036190777170312868
1.250000000000000888,-0.035836254768644951
1.251000000000000778,-0.035483603069758188
1.252000000000000890,-0.035132823693270102
1.253000000000001002,-0.034783918160596609
1.254000000000000892,-0.034436887895848547
1.255000000000000782,-0.034091734226688195
1.256000000000000894,-0.033748458385211635
1.257000000000001005,-0.033407061508821924
1.258000000000000895,-0.033067544641089915
1.259000000000000785,-0.032729908732615984
1.260000000000000897,-0.032394154641891347
1.261000000000001009,-0.032060283136157108
1.262000000000000899,-0.031728294892246593
1.263000000000000789,-0.031398190497441657
1.264000000000000901,-0.031069970450316720
1.265000000000001013,-0.030743635161574072
1.266000000000000902,-0.030419184954885915
1.267000000000000792,-0.030096620067727630
1.268000000000000904,-0.029775940652203653
1.269000000000001016,-0.029457146775874955
1.270000000000000906,-0.029140238422589265
1.271000000000000796,-0.028825215493283828
1.272000000000000908,-0.028512077806810400
1.273000000000001020,-0.028200825100743725
1.274000000000000909,-0.027891457032190335
1.275000000000000799,-0.027583973178581495
1.276000000000000911,-0.027278373038488467
1.277000000000001023,-0.026974656032400717
1.278000000000000913,-0.026672821503528225
1.279000000000000803,-0.026372868718582253
1.280000000000000915,-0.026074796868567764
1.281000000000001027,-0.025778605069542604
1.282000000000000917,-0.025484292363417111
1.283000000000000806,-0.025191857718707401
1.284000000000000918,-0.024901300031312294
1.285000000000001030,-0.024612618125267178
1.286000000000000920,-0.024325810753513834
1.287000000000000810,-0.024040876598643769
1.288000000000000922,-0.023757814273663171
1.289000000000001034,-0.023476622322725949
1.290000000000000924,-0.023197299221877500
1.291000000000000814,-0.022919843379808978
1.292000000000000925,-0.022644253138569288
1.293000000000001037,-0.022370526774315041
1.294000000000000927,-0.022098662498025393
1.295000000000000817,-0.021828658456226866
1.296000000000000929,-0.021560512731713131
1.297000000000001041,-0.021294223344255576
1.298000000000000931,-0.021029788251318876
1.299000000000000821,-0.020767205348763289
1.300000000000000933,-0.020506472471543143
1.301000000000001044,-0.020247587394409593
1.302000000000000934,-0.019990547832599310
1.303000000000000824,-0.019735351442534584
1.304000000000000936,-0.019481995822488236
1.305000000000001048,-0.019230478513283845
1.306000000000000938,-0.018980796998969682
1.307000000000000828,-0.018732948707475751
1.308000000000000940,-0.018486931011298880
1.309000000000001052,-0.018242741228167506
1.310000000000000941,-0.018000376621690843
1.311000000000000831,-0.017759834402021939
1.312000000000000943,-0.017521111726503787
1.313000000000001055,-0.017284205700335963
1.314000000000000945,-0.017049113377192761
1.315000000000000835,-0.016815831759879073
1.316000000000000947,-0.016584357800960341
1.317000000000001059,-0.016354688403402044
1.318000000000000949,-0.016126820421182339
1.319000000000000838,-0.015900750659933162
1.320000000000000950,-0.015676475877546777
1.321000000000001062,-0.015453992784792741
1.322000000000000952,-0.015233298045935734
1.323000000000000842,-0.015014388279334595
1.324000000000000954,-0.014797260058055216
1.325000000000001066,-0.014581909910454832
1.326000000000000956,-0.014368334320794891
1.327000000000000846,-0.014156529729814720
1.328000000000000957,-0.013946492535335827
1.329000000000001069,-0.013738219092825674
1.330000000000000959,-0.013531705715995785
1.331000000000000849,-0.013326948677364368
1.332000000000000961,-0.013123944208826958
1.333000000000001073,-0.012922688502229721
1.334000000000000963,-0.012723177709932787
1.335000000000000853,-0.012525407945358558
1.336000000000000965,-0.012329375283561582
1.337000000000001076,-0.012135075761769381
1.338000000000000966,-0.011942505379931353
1.339000000000000856,-0.011751660101267611
1.340000000000000968,-0.011562535852800829
1.341000000000001080,-0.011375128525894422
1.342000000000000970,-0.011189433976787882
1.343000000000000860,-0.011005448027117748
1.344000000000000972,-0.010823166464446690
1.345000000000001084,-0.010642585042785693
1.346000000000000973,-0.010463699483101149
1.347000000000000863,-0.010286505473835321
1.348000000000000975,-0.010110998671408826
1.349000000000001087,-0.009937174700732229
1.350000000000000977,-0.009765029155702426
1.351000000000000867,-0.009594557599702593
1.352000000000000979,-0.009425755566084722
1.353000000000001091,-0.009258618558679167
1.354000000000000981,-0.009093142052266929
1.355000000000000870,-0.008929321493058908
1.356000000000000982,-0.008767152299183813
1.357000000000001094,-0.008606629861161598
1.358000000000000984,-0.008447749542368620
1.359000000000000874,-0.008290506679505875
1.360000000000000986,-0.008134896583070646
1.361000000000001098,-0.007980914537810588
1.362000000000000988,-0.007828555803176932
1.363000000000000878,-0.007677815613782104
1.364000000000000989,-0.007528689179854581
1.365000000000001101,-0.007381171687670471
1.366000000000000991,-0.007235258300005179
1.367000000000000881,-0.007090944156572394
1.368000000000000993,-0.006948224374455221
1.369000000000001105,-0.006807094048541479
1.370000000000000995,-0.006667548251946706
1.371000000000000885,-0.006529582036441330
1.372000000000000997,-0.006393190432874132
1.373000000000001108,-0.006258368451591850
1.374000000000000998,-0.006125111082833766
1.375000000000000888,-0.005993413297176046
1.376000000000001000,-0.005863270045908473
1.377000000000001112,-0.005734676261456084
1.378000000000001002,-0.005607626857771849
1.379000000000000892,-0.005482116730735389
1.380000000000001004,-0.005358140758547467
1.381000000000001116,-0.005235693802123582
1.382000000000001005,-0.005114770705473478
1.383000000000000895,-0.004995366296090072
1.384000000000001007,-0.004877475385329904
1.385000000000001119,-0.004761092768789506
1.386000000000001009,-0.004646213226679692
1.387000000000000899,-0.004532831524190474
1.388000000000001011,-0.004420942411877743
1.389000000000001123,-0.004310540625998005
1.390000000000001013,-0.004201620888894832
1.391000000000000902,-0.004094177909343259
1.392000000000001014,-0.003988206382909867
1.393000000000001126,-0.003883700992301753
1.394000000000001016,-0.003780656407720259
1.395000000000000906,-0.003679067287199293
1.396000000000001018,-0.003578928276947707
1.397000000000001130,-0.003480234011697060
1.398000000000001020,-0.003382979115029723
1.399000000000000909,-0.003287158199715246
1.400000000000001021,-0.003192765868035910
1.401000000000001133,-0.003099796712123971
1.402000000000001023,-0.003008245314273251
1.403000000000000913,-0.002918106247267147
1.404000000000001025,-0.002829374074699281
1.405000000000001137,-0.002742043351280221
1.406000000000001027,-0.002656108623155518
1.407000000000000917,-0.002571564428219653
1.408000000000001029,-0.002488405296406424
1.409000000000001140,-0.002406625750013617
1.410000000000001030,-0.002326220303985172
1.411000000000000920,-0.002247183466219730
1.412000000000001032,-0.002169509737861225
1.413000000000001144,-0.002093193613594527
1.414000000000001034,-0.002018229581930534
1.415000000000000924,-0.001944612125493202
1.416000000000001036,-0.001872335721309142
1.417000000000001148,-0.001801394841083681
1.418000000000001037,-0.001731783951477178
1.419000000000000927,-0.001663497514385044
1.420000000000001039,-0.001596529987207436
1.421000000000001151,-0.001530875823123491
1.422000000000001041,-0.001466529471356453
1.423000000000000931,-0.001403485377434987
1.424000000000001043,-0.001341737983462360
1.425000000000001155,-0.001281281728370446
1.426000000000001044,-0.001222111048180163
1.427000000000000934,-0.001164220376255227
1.428000000000001046,-0.001107604143552882
1.429000000000001158,-0.001052256778870086
1.430000000000001048,-0.000998172709100755
1.431000000000000938,-0.000945346359467577
1.432000000000001050,-0.000893772153771672
1.433000000000001162,-0.000843444514630342
1.434000000000001052,-0.000794357863709407
1.435000000000000941,-0.000746506621966672
1.436000000000001053,-0.000699885209873920
1.437000000000001165,-0.000654488047647963
1.438000000000001055,-0.000610309555487967
1.439000000000000945,-0.000567344153787146
1.440000000000001057,-0.000525586263363265
1.441000000000001169,-0.000485030305669263
1.442000000000001059,-0.000445670703021886
1.443000000000000949,-0.000407501878814068
1.444000000000001060,-0.000370518257721421
1.445000000000001172,-0.000334714265915289
1.446000000000001062,-0.000300084331279927
1.447000000000000952,-0.000266622883603435
1.448000000000001064,-0.000234324354793173
1.449000000000001176,-0.000203183179077045
1.450000000000001066,-0.000173193793191308
1.451000000000000956,-0.000144350636589292
1.452000000000001068,-0.000116648151634196
1.453000000000001180,-0.000090080783785794
1.454000000000001069,-0.000064642981798031
1.455000000000000959,-0.000040329197904282
1.456000000000001071,-0.000017133887999421
1.457000000000001183,0.000004948488164576
1.458000000000001073,0.000025923466807281
1.459000000000000963,0.000045796579940087
1.460000000000001075,0.000064573355180038
1.461000000000001187,0.000082259315584567
1.462000000000001076,0.000098859979462784
1.463000000000000966,0.000114380860221723
1.464000000000001078,0.000128827466187427
1.465000000000001190,0.000142205300431254
1.466000000000001080,0.000154519860619901
1.467000000000000970,0.000165776638837942
1.468000000000001082,0.000175981121430576
1.469000000000001194,0.000185138788847694
1.470000000000001084,0.000193255115479804
1.471000000000000973,0.000200335569508835
1.472000000000001085,0.000206385612745564
1.473000000000001197,0.000211410700485150
1.474000000000001087,0.000215416281351632
1.475000000000000977,0.000218407797158572
1.476000000000001089,0.000220390682748954
1.477000000000001201,0.000221370365858521
1.478000000000001091,0.000221352266976169
1.479000000000000981,0.000220341799193921
1.480000000000001092,0.000218344368077064
1.481000000000001204,0.000215365371519158
1.482000000000001094,0.000211410199610432
1.483000000000000984,0.000206484234500529
1.484000000000001096,0.000200592850268230
1.485000000000001208,0.000193741412798864
1.486000000000001098,0.000185935279637528
1.487000000000000988,0.000177179799877095
1.488000000000001100,0.000167480314032080
1.489000000000001211,0.000156842153903632
1.490000000000001101,0.000145270642469285
1.491000000000000991,0.000132771093759552
1.492000000000001103,0.000119348812733194
1.493000000000001215,0.000105009095166858
1.494000000000001105,0.000089757227539986
1.495000000000000995,0.000073598486915808
1.496000000000001107,0.000056538140831698
1.497000000000001219,0.000038581447189984
1.498000000000001108,0.000019733654144479
1.499000000000000998,0.000000000000000000
