# C-amorph-2_GLNSCA-AC
# h[nm],U(h)[kJ/mol]
0.149999999999999994,95.157293519281637373
0.150999999999999995,92.430402211591484729
0.151999999999999996,90.137278163002278575
0.152999999999999997,87.978314443987272853
0.153999999999999998,85.839983946030244510
0.154999999999999999,83.696813739067209781
0.156000000000000000,81.558483141101788760
0.157000000000000001,79.443400068630722899
0.158000000000000002,77.367179717465063504
0.159000000000000002,75.339015668618699806
0.160000000000000003,73.361835928527781903
0.161000000000000004,71.433945072358312700
0.162000000000000005,69.550952401890953070
0.163000000000000006,67.707431150890613480
0.164000000000000007,65.898114654631825715
0.165000000000000008,64.118622620091628050
0.166000000000000009,62.365795293814031197
0.167000000000000010,60.637740296883478663
0.168000000000000010,58.933693817607675669
0.169000000000000011,57.253781196123171071
0.170000000000000012,55.598741071334600861
0.171000000000000013,53.969657141014792501
0.172000000000000014,52.367724496466465212
0.173000000000000015,50.794064179753412702
0.174000000000000016,49.249589987928118262
0.175000000000000017,47.734925129645837671
0.176000000000000018,46.250362495566868404
0.177000000000000018,44.795860402723675975
0.178000000000000019,43.371065150512080777
0.179000000000000020,41.975352115102921857
0.180000000000000021,40.607878044504971626
0.181000000000000022,39.267638426513336469
0.182000000000000023,37.953525094540189855
0.183000000000000024,36.664380484578295238
0.184000000000000025,35.399046082863705465
0.185000000000000026,34.156403567642925623
0.186000000000000026,32.935407935362533749
0.187000000000000027,31.735112514637698666
0.188000000000000028,30.554686224457960009
0.189000000000000029,29.393423746197282043
0.190000000000000030,28.250749474569602171
0.191000000000000031,27.126216213323335325
0.192000000000000032,26.019499608450495032
0.193000000000000033,24.930389284007581807
0.194000000000000034,23.858777579666586632
0.195000000000000034,22.804646698418643780
0.196000000000000035,21.768054968372752001
0.197000000000000036,20.749122812813247663
0.198000000000000037,19.748018913950495801
0.199000000000000038,18.764946952639043332
0.200000000000000039,17.800133211758826235
0.201000000000000040,16.853815246755875279
0.202000000000000041,15.926231753873716812
0.203000000000000042,15.017613705016117365
0.204000000000000042,14.128176767587239837
0.205000000000000043,13.258114987329864931
0.206000000000000044,12.407595681165563661
0.207000000000000045,11.576755464262213025
0.208000000000000046,10.765697319889085293
0.209000000000000047,9.974488610963929247
0.210000000000000048,9.203159927497154058
0.211000000000000049,8.451704663424859376
0.212000000000000050,7.720079218717691205
0.213000000000000050,7.008203727391508764
0.214000000000000051,6.315963218458070294
0.215000000000000052,5.643209124382702058
0.216000000000000053,4.989761059793707432
0.217000000000000054,4.355408801638974481
0.218000000000000055,3.739914410411596002
0.219000000000000056,3.143014440241751029
0.220000000000000057,2.564422193404850780
0.221000000000000058,2.003829982016768874
0.222000000000000058,1.460911366291293811
0.223000000000000059,0.935323344692355674
0.224000000000000060,0.426708476604694353
0.225000000000000061,-0.065303077216941216
0.226000000000000062,-0.541091607153505239
0.227000000000000063,-1.001046007503787250
0.228000000000000064,-1.445562034001474538
0.229000000000000065,-1.875040668164495106
0.230000000000000066,-2.289886588660569267
0.231000000000000066,-2.690506748358711508
0.232000000000000067,-3.077309054568011071
0.233000000000000068,-3.450701149096418785
0.234000000000000069,-3.811089284146771838
0.235000000000000070,-4.158877289663994503
0.236000000000000071,-4.494465627517851836
0.237000000000000072,-4.818250527817260931
0.238000000000000073,-5.130623202673663563
0.239000000000000073,-5.431969132836453440
0.240000000000000074,-5.722667422792850900
0.241000000000000075,-6.003090220135362642
0.242000000000000076,-6.273602195239173618
0.243000000000000077,-6.534560077545651602
0.244000000000000078,-6.786312245005804655
0.245000000000000079,-7.029198363491465429
0.246000000000000080,-7.263549073225521013
0.247000000000000081,-7.489685719512072737
0.248000000000000081,-7.707920125258641342
0.249000000000000082,-7.918554402974431916
0.250000000000000111,-8.121880804100598539
0.251000000000000112,-8.318181603678890923
0.252000000000000113,-8.507729018497226292
0.253000000000000114,-8.690785156961414515
0.254000000000000115,-8.867601999038168259
0.255000000000000115,-9.038421404691966643
0.256000000000000116,-9.203475149303072200
0.257000000000000117,-9.362984984605834171
0.258000000000000118,-9.517162723726872997
0.259000000000000119,-9.666210348935548424
0.260000000000000120,-9.810320140744055450
0.261000000000000121,-9.949674827013678780
0.262000000000000122,-10.084447750739753857
0.263000000000000123,-10.214803055199933368
0.264000000000000123,-10.340895885162204593
0.265000000000000124,-10.462872602859228266
0.266000000000000125,-10.580871017447114113
0.267000000000000126,-10.695020626678520159
0.268000000000000127,-10.805442869534497063
0.269000000000000128,-10.912251388575217703
0.270000000000000129,-11.015552300788842288
0.271000000000000130,-11.115444475739423069
0.272000000000000131,-11.212019819839428081
0.273000000000000131,-11.305363565600064391
0.274000000000000132,-11.395554564743594739
0.275000000000000133,-11.482665584095398614
0.276000000000000134,-11.566763603210363343
0.277000000000000135,-11.647910112727043241
0.278000000000000136,-11.726161412485080149
0.279000000000000137,-11.801568908485046805
0.280000000000000138,-11.874179407815494969
0.281000000000000139,-11.944035410719584078
0.282000000000000139,-12.011175399022144816
0.283000000000000140,-12.075634120187876519
0.284000000000000141,-12.137442866331635827
0.285000000000000142,-12.196629747552830025
0.286000000000000143,-12.253219959016822926
0.287000000000000144,-12.307236041257045400
0.288000000000000145,-12.358698133222400628
0.289000000000000146,-12.407624217643945741
0.290000000000000147,-12.454030358344358120
0.291000000000000147,-12.497930929161407576
0.292000000000000148,-12.539338834203705986
0.293000000000000149,-12.578265719202212480
0.294000000000000150,-12.614722173764956636
0.295000000000000151,-12.648717924384708766
0.296000000000000152,-12.680262018089582199
0.297000000000000153,-12.709362996665394263
0.298000000000000154,-12.736029061414974706
0.299000000000000155,-12.760268228454487272
0.300000000000000155,-12.782088474579390791
0.301000000000000156,-12.801497873763077351
0.302000000000000157,-12.818504724380002102
0.303000000000000158,-12.833117667271281448
0.304000000000000159,-12.845345794795354877
0.305000000000000160,-12.855198751028348525
0.306000000000000161,-12.862686823299423367
0.307000000000000162,-12.867821025264655432
0.308000000000000163,-12.870613171739336167
0.309000000000000163,-12.871075945523463346
0.310000000000000164,-12.869222956467870844
0.311000000000000165,-12.865068793039474926
0.312000000000000166,-12.858629066653785245
0.313000000000000167,-12.849920449050529214
0.314000000000000168,-12.838960702994626217
0.315000000000000169,-12.825768706589631307
0.316000000000000170,-12.810364471494571248
0.317000000000000171,-12.792769155337015974
0.318000000000000171,-12.773005068616640756
0.319000000000000172,-12.751095676393477518
0.320000000000000173,-12.727065595053868918
0.321000000000000174,-12.700940584445248760
0.322000000000000175,-12.672747535668005270
0.323000000000000176,-12.642514454808857494
0.324000000000000177,-12.610270442895970433
0.325000000000000178,-12.576045672350485205
0.326000000000000179,-12.539871360204122297
0.327000000000000179,-12.501779738345486948
0.328000000000000180,-12.461804021051541724
0.329000000000000181,-12.419978370053502914
0.330000000000000182,-12.376337857378430840
0.331000000000000183,-12.330918426200824456
0.332000000000000184,-12.283756849929606147
0.333000000000000185,-12.234890689748221249
0.334000000000000186,-12.184358250816826441
0.335000000000000187,-12.132198537337107069
0.336000000000000187,-12.078451206671655171
0.337000000000000188,-12.023156522700961801
0.338000000000000189,-11.966355308592707019
0.339000000000000190,-11.908088899149067430
0.340000000000000191,-11.848399092889222217
0.341000000000000192,-11.787328104015877273
0.342000000000000193,-11.724918514405803904
0.343000000000000194,-11.661213225756499767
0.344000000000000195,-11.596255412012430597
0.345000000000000195,-11.530088472186800885
0.346000000000000196,-11.462755983686390593
0.347000000000000197,-11.394301656239818499
0.348000000000000198,-11.324769286521812361
0.349000000000000199,-11.254202713558907334
0.350000000000000200,-11.182645774995050303
0.351000000000000201,-11.110142264288567659
0.352000000000000202,-11.036735888905564451
0.353000000000000203,-10.962470229568381797
0.354000000000000203,-10.887388700611719372
0.355000000000000204,-10.811534511492951083
0.356000000000000205,-10.734950629497856056
0.357000000000000206,-10.657679743677451967
0.358000000000000207,-10.579764230046311724
0.359000000000000208,-10.501246118068237934
0.360000000000000209,-10.422167058450201083
0.361000000000000210,-10.342568292261162810
0.362000000000000210,-10.262490621388199230
0.363000000000000211,-10.181974380338395747
0.364000000000000212,-10.101059409391289989
0.365000000000000213,-10.019785029103042362
0.366000000000000214,-9.938190016160360685
0.367000000000000215,-9.856312580578947546
0.368000000000000216,-9.774190344238594008
0.369000000000000217,-9.691860320744158486
0.370000000000000218,-9.609358896599307087
0.371000000000000218,-9.526721813677522022
0.372000000000000219,-9.443984152972870305
0.373000000000000220,-9.361180319610967970
0.374000000000000221,-9.278344029098887447
0.375000000000000222,-9.195508294791064685
0.376000000000000223,-9.112705416546882375
0.377000000000000224,-9.029966970554243133
0.378000000000000225,-8.947323800292272367
0.379000000000000226,-8.864806008605256693
0.380000000000000226,-8.782442950859097763
0.381000000000000227,-8.700263229150550615
0.382000000000000228,-8.618294687539188814
0.383000000000000229,-8.536564408271152260
0.384000000000000230,-8.455098708963381782
0.385000000000000231,-8.373923140716904356
0.386000000000000232,-8.293062487127034643
0.387000000000000233,-8.212540764158644535
0.388000000000000234,-8.132381220854123072
0.389000000000000234,-8.052606340842084265
0.390000000000000235,-7.973237844614439851
0.391000000000000236,-7.894296692540055282
0.392000000000000237,-7.815803088582947922
0.393000000000000238,-7.737776484693634771
0.394000000000000239,-7.660235585842168682
0.395000000000000240,-7.583198355661994405
0.396000000000000241,-7.506682022674064925
0.397000000000000242,-7.430703087060974710
0.398000000000000242,-7.355277327961601941
0.399000000000000243,-7.280419811256924945
0.400000000000000244,-7.206144897818435702
0.401000000000000245,-7.132466252191131950
0.402000000000000246,-7.059396851683493068
0.403000000000000247,-6.986948995837539478
0.404000000000000248,-6.915134316252817825
0.405000000000000249,-6.843963786738588517
0.406000000000000250,-6.773447733769245360
0.407000000000000250,-6.703595847218743131
0.408000000000000251,-6.634417191350260978
0.409000000000000252,-6.565920216038347412
0.410000000000000253,-6.498112768201080414
0.411000000000000254,-6.431002103420856209
0.412000000000000255,-6.364594897732805734
0.413000000000000256,-6.298897259560790829
0.414000000000000257,-6.233914741781346081
0.415000000000000258,-6.169652353896937669
0.416000000000000258,-6.106114574300312015
0.417000000000000259,-6.043305362612597875
0.418000000000000260,-5.981228172078381533
0.419000000000000261,-5.919885962001690594
0.420000000000000262,-5.859281210207483603
0.421000000000000263,-5.799415925513916825
0.422000000000000264,-5.740291660201215507
0.423000000000000265,-5.681909522463697293
0.424000000000000266,-5.624270188832173112
0.425000000000000266,-5.567373916554349655
0.426000000000000267,-5.511220555921664932
0.427000000000000268,-5.455809562531529266
0.428000000000000269,-5.401140009474405979
0.429000000000000270,-5.347210599435917366
0.430000000000000271,-5.294019676704492028
0.431000000000000272,-5.241565239075827165
0.432000000000000273,-5.189844949645769034
0.433000000000000274,-5.138856148483873731
0.434000000000000274,-5.088595864180255113
0.435000000000000275,-5.039060825258973253
0.436000000000000276,-4.990247471451562333
0.437000000000000277,-4.942151964824723187
0.438000000000000278,-4.894770200756803469
0.439000000000000279,-4.848097818757958422
0.440000000000000280,-4.802130213129325753
0.441000000000000281,-4.756862543456986891
0.442000000000000282,-4.712289744936901670
0.443000000000000282,-4.668406538527174021
0.444000000000000283,-4.625207440924674174
0.445000000000000284,-4.582686774363098792
0.446000000000000285,-4.540838676229986604
0.447000000000000286,-4.499657108500661806
0.448000000000000287,-4.459135866987058883
0.449000000000000288,-4.419268590400040608
0.450000000000000289,-4.380048769223794380
0.451000000000000290,-4.341469754401347636
0.452000000000000290,-4.303524765830433196
0.453000000000000291,-4.266206900669145874
0.454000000000000292,-4.229509141451151422
0.455000000000000293,-4.193424364010321703
0.456000000000000294,-4.157945345214978161
0.457000000000000295,-4.123064770512058885
0.458000000000000296,-4.088775241281742190
0.459000000000000297,-4.055069282003256781
0.460000000000000298,-4.021939347232708961
0.461000000000000298,-3.989377828394011338
0.462000000000000299,-3.957377060384104972
0.463000000000000300,-3.925929327993743723
0.464000000000000301,-3.895026872145396002
0.465000000000000302,-3.864661895949812909
0.466000000000000303,-3.834826570582962724
0.467000000000000304,-3.805513040985164963
0.468000000000000305,-3.776713431384383313
0.469000000000000306,-3.748419850645622553
0.470000000000000306,-3.720624397448638376
0.471000000000000307,-3.693319165296018447
0.472000000000000308,-3.666496247354058546
0.473000000000000309,-3.640147741128623604
0.474000000000000310,-3.614265752978474300
0.475000000000000311,-3.588842402468479520
0.476000000000000312,-3.563869826565277066
0.477000000000000313,-3.539340183677832208
0.478000000000000314,-3.515245657545571056
0.479000000000000314,-3.491578460976727083
0.480000000000000315,-3.468330839439469404
0.481000000000000316,-3.445495074508630129
0.482000000000000317,-3.423063487170625141
0.483000000000000318,-3.401028440989382950
0.484000000000000319,-3.379382345135968357
0.485000000000000320,-3.358117657284724000
0.486000000000000321,-3.337226886378623192
0.487000000000000322,-3.316702595266654896
0.488000000000000322,-3.296537403215973772
0.489000000000000323,-3.276723988301630808
0.490000000000000324,-3.257255089676597493
0.491000000000000325,-3.238123509724891935
0.492000000000000326,-3.219322116100473696
0.493000000000000327,-3.200843843654754828
0.494000000000000328,-3.182681696255336590
0.495000000000000329,-3.164828748498748290
0.496000000000000330,-3.147278147319830577
0.497000000000000330,-3.130023113500455700
0.498000000000000331,-3.113056943080182659
0.499000000000000332,-3.096373008671523319
0.500000000000000333,-3.079964760682361913
0.501000000000000334,-3.063825728448095642
0.502000000000000335,-3.047949521276049900
0.503000000000000336,-3.032329829404674104
0.504000000000000337,-3.016960424879966407
0.505000000000000338,-3.001835162351587094
0.506000000000000338,-2.986947979791080954
0.507000000000000339,-2.972292899134552080
0.508000000000000340,-2.957864026852158101
0.509000000000000341,-2.943655554446732658
0.510000000000000342,-2.929661758883779221
0.511000000000000343,-2.915877002955100217
0.512000000000000344,-2.902295735578226399
0.513000000000000345,-2.888912492033836266
0.514000000000000346,-2.875721894143281610
0.515000000000000346,-2.862718650388276220
0.516000000000000347,-2.849897555974813201
0.517000000000000348,-2.837253492843352376
0.518000000000000349,-2.824781429627149620
0.519000000000000350,-2.812476421560775375
0.520000000000000351,-2.800333610340626223
0.521000000000000352,-2.788348223939327131
0.522000000000000353,-2.776515576375808259
0.523000000000000353,-2.764831067442863777
0.524000000000000354,-2.753290182393899332
0.525000000000000355,-2.741888491590590782
0.526000000000000356,-2.730621650113085330
0.527000000000000357,-2.719485397334410415
0.528000000000000358,-2.708475556460621991
0.529000000000000359,-2.697588034038283844
0.530000000000000360,-2.686818819430760286
0.531000000000000361,-2.676163984264818829
0.532000000000000361,-2.665619681848941269
0.533000000000000362,-2.655182146564792678
0.534000000000000363,-2.644847693233175256
0.535000000000000364,-2.634612716455803749
0.536000000000000365,-2.624473689934215148
0.537000000000000366,-2.614427165767051697
0.538000000000000367,-2.604469773726935777
0.539000000000000368,-2.594598220518178344
0.540000000000000369,-2.584809289016393841
0.541000000000000369,-2.575099837491248156
0.542000000000000370,-2.565466798813347715
0.543000000000000371,-2.555907179646370153
0.544000000000000372,-2.546418059625485952
0.545000000000000373,-2.536996590523022288
0.546000000000000374,-2.527639995402378936
0.547000000000000375,-2.518345567761104853
0.548000000000000376,-2.509110670664097320
0.549000000000000377,-2.499932735867741673
0.550000000000000377,-2.490809262935880675
0.551000000000000378,-2.481737818348441316
0.552000000000000379,-2.472716034603509083
0.553000000000000380,-2.463741609313625514
0.554000000000000381,-2.454812304297036007
0.555000000000000382,-2.445925944664672169
0.556000000000000383,-2.437080417903453977
0.557000000000000384,-2.428273672956710705
0.558000000000000385,-2.419503719302254829
0.559000000000000385,-2.410768626028826134
0.560000000000000386,-2.402066520911420699
0.561000000000000387,-2.393395589486160269
0.562000000000000388,-2.384754074125205126
0.563000000000000389,-2.376140273112269163
0.564000000000000390,-2.367552539719246063
0.565000000000000391,-2.358989281284432860
0.566000000000000392,-2.350448958292841617
0.567000000000000393,-2.341930083459039746
0.568000000000000393,-2.333431220812948403
0.569000000000000394,-2.324950984789027508
0.570000000000000395,-2.316488039319255954
0.571000000000000396,-2.308041096930239178
0.572000000000000397,-2.299608917844885969
0.573000000000000398,-2.291190309088917409
0.574000000000000399,-2.282784123602603632
0.575000000000000400,-2.274389259358009063
0.576000000000000401,-2.266004658482035694
0.577000000000000401,-2.257629306385608992
0.578000000000000402,-2.249262230899192083
0.579000000000000403,-2.240902501414941295
0.580000000000000404,-2.232549228035730415
0.581000000000000405,-2.224201560731271066
0.582000000000000406,-2.215858688501538332
0.583000000000000407,-2.207519838547707725
0.584000000000000408,-2.199184275450805526
0.585000000000000409,-2.190851300358230169
0.586000000000000409,-2.182520250178328958
0.587000000000000410,-2.174190496783185544
0.588000000000000411,-2.165861446219743414
0.589000000000000412,-2.157532537929432337
0.590000000000000413,-2.149203243976384847
0.591000000000000414,-2.140873068284396830
0.592000000000000415,-2.132541545882708611
0.593000000000000416,-2.124208242160707361
0.594000000000000417,-2.115872752131648049
0.595000000000000417,-2.107534699705483128
0.596000000000000418,-2.099193736970810686
0.597000000000000419,-2.090849543486103190
0.598000000000000420,-2.082501825580169275
0.599000000000000421,-2.074150315661972943
0.600000000000000422,-2.065794771539802621
0.601000000000000423,-2.057434975749850015
0.602000000000000424,-2.049070734894210766
0.603000000000000425,-2.040701878988339324
0.604000000000000425,-2.032328260817958032
0.605000000000000426,-2.023949755305433307
0.606000000000000427,-2.015566258885650885
0.607000000000000428,-2.007177688891300882
0.608000000000000429,-1.998783982947709204
0.609000000000000430,-1.990385098377018380
0.610000000000000431,-1.981981011611891663
0.611000000000000432,-1.973571717618558763
0.612000000000000433,-1.965157229329258071
0.613000000000000433,-1.956737577084047830
0.614000000000000434,-1.948312808081910985
0.615000000000000435,-1.939882985841125063
0.616000000000000436,-1.931448189668880655
0.617000000000000437,-1.923008514140084557
0.618000000000000438,-1.914564068585285828
0.619000000000000439,-1.906114976587679477
0.620000000000000440,-1.897661375489153812
0.621000000000000441,-1.889203415905287731
0.622000000000000441,-1.880741261249263774
0.623000000000000442,-1.872275087264608784
0.624000000000000443,-1.863805081566715982
0.625000000000000444,-1.855331443193080743
0.626000000000000445,-1.846854382162145924
0.627000000000000446,-1.838374119040730337
0.628000000000000447,-1.829890884519933980
0.629000000000000448,-1.821404918999451450
0.630000000000000449,-1.812916472180210459
0.631000000000000449,-1.804425802665265532
0.632000000000000450,-1.795933177568855399
0.633000000000000451,-1.787438872133555678
0.634000000000000452,-1.778943169355415632
0.635000000000000453,-1.770446359617017240
0.636000000000000454,-1.761948740328368235
0.637000000000000455,-1.753450615575526284
0.638000000000000456,-1.744952295776880602
0.639000000000000457,-1.736454097346990411
0.640000000000000457,-1.727956342367915399
0.641000000000000458,-1.719459358267894533
0.642000000000000459,-1.710963477507357222
0.643000000000000460,-1.702469037272095420
0.644000000000000461,-1.693976379173570690
0.645000000000000462,-1.685485848956229660
0.646000000000000463,-1.676997796211728398
0.647000000000000464,-1.668512574099999979
0.648000000000000465,-1.660030539077059997
0.649000000000000465,-1.651552050629441437
0.650000000000000466,-1.643077471015197855
0.651000000000000467,-1.634607165011342289
0.652000000000000468,-1.626141499667667745
0.653000000000000469,-1.617680844066817114
0.654000000000000470,-1.609225569090559249
0.655000000000000471,-1.600776047192119522
0.656000000000000472,-1.592332652174522245
0.657000000000000473,-1.583895758974816159
0.658000000000000473,-1.575465743454124157
0.659000000000000474,-1.567042982193399769
0.660000000000000475,-1.558627852294808047
0.661000000000000476,-1.550220731188637346
0.662000000000000477,-1.541821996445666532
0.663000000000000478,-1.533432025594869241
0.664000000000000479,-1.525051195946406368
0.665000000000000480,-1.516679884419753765
0.666000000000000481,-1.508318467376973837
0.667000000000000481,-1.499967320460926956
0.668000000000000482,-1.491626818438445357
0.669000000000000483,-1.483297335048304522
0.670000000000000484,-1.474979242853945438
0.671000000000000485,-1.466672913100853126
0.672000000000000486,-1.458378715578497742
0.673000000000000487,-1.450097018486789624
0.674000000000000488,-1.441828188306905734
0.675000000000000488,-1.433572589676455733
0.676000000000000489,-1.425330585268909989
0.677000000000000490,-1.417102535677145614
0.678000000000000491,-1.408888799301118766
0.679000000000000492,-1.400689732239515539
0.680000000000000493,-1.392505688185327495
0.681000000000000494,-1.384337018325293434
0.682000000000000495,-1.376184071243091056
0.683000000000000496,-1.368047192826245206
0.684000000000000496,-1.359926726176642342
0.685000000000000497,-1.351823011524602824
0.686000000000000498,-1.343736386146425321
0.687000000000000499,-1.335667184285333153
0.688000000000000500,-1.327615737075749536
0.689000000000000501,-1.319582372470843756
0.690000000000000502,-1.311567415173264806
0.691000000000000503,-1.303571186568994289
0.692000000000000504,-1.295594004664257337
0.693000000000000504,-1.287636184025441333
0.694000000000000505,-1.279698035721894556
0.695000000000000506,-1.271779867271639164
0.696000000000000507,-1.263881982589833308
0.697000000000000508,-1.256004681939983492
0.698000000000000509,-1.248148261887835009
0.699000000000000510,-1.240313015257847207
0.700000000000000511,-1.232499231092235137
0.701000000000000512,-1.224707194612490779
0.702000000000000512,-1.216937187183332325
0.703000000000000513,-1.209189486279029335
0.704000000000000514,-1.201464365452037386
0.705000000000000515,-1.193762094303890908
0.706000000000000516,-1.186082938458300484
0.707000000000000517,-1.178427159536401092
0.708000000000000518,-1.170795015134076911
0.709000000000000519,-1.163186758801365572
0.710000000000000520,-1.155602640023804861
0.711000000000000520,-1.148042904205758497
0.712000000000000521,-1.140507792655608643
0.713000000000000522,-1.132997542572786731
0.714000000000000523,-1.125512387036620598
0.715000000000000524,-1.118052554996877834
0.716000000000000525,-1.110618271266063939
0.717000000000000526,-1.103209756513318096
0.718000000000000527,-1.095827227259944303
0.719000000000000528,-1.088470895876485045
0.720000000000000528,-1.081140970581342176
0.721000000000000529,-1.073837655440813776
0.722000000000000530,-1.066561150370633371
0.723000000000000531,-1.059311651138836963
0.724000000000000532,-1.052089349370014748
0.725000000000000533,-1.044894432550871999
0.726000000000000534,-1.037727084037027847
0.727000000000000535,-1.030587483061089715
0.728000000000000536,-1.023475804741879269
0.729000000000000536,-1.016392220094849863
0.730000000000000537,-1.009336896043603549
0.731000000000000538,-1.002309995432493217
0.732000000000000539,-0.995311677040286780
0.733000000000000540,-0.988342095594832770
0.734000000000000541,-0.981401401788717265
0.735000000000000542,-0.974489742295856720
0.736000000000000543,-0.967607259789029506
0.737000000000000544,-0.960754092958261863
0.738000000000000544,-0.953930376530102486
0.739000000000000545,-0.947136241287682035
0.740000000000000546,-0.940371814091600200
0.741000000000000547,-0.933637217901545191
0.742000000000000548,-0.926932571798695371
0.743000000000000549,-0.920257991008769594
0.744000000000000550,-0.913613586925796306
0.745000000000000551,-0.906999467136536786
0.746000000000000552,-0.900415735445511567
0.747000000000000552,-0.893862491900660472
0.748000000000000553,-0.887339832819547425
0.749000000000000554,-0.880847850816134370
0.750000000000000555,-0.874386634828088871
0.751000000000000556,-0.867956270144577879
0.752000000000000557,-0.861556838434565320
0.753000000000000558,-0.855188417775540777
0.754000000000000559,-0.848851082682719360
0.755000000000000560,-0.842544904138624928
0.756000000000000560,-0.836269949623099307
0.757000000000000561,-0.830026283143655341
0.758000000000000562,-0.823813965266198323
0.759000000000000563,-0.817633053146097133
0.760000000000000564,-0.811483600559544604
0.761000000000000565,-0.805365657935235291
0.762000000000000566,-0.799279272386308914
0.763000000000000567,-0.793224487742570483
0.764000000000000568,-0.787201344582931006
0.765000000000000568,-0.781209880268110446
0.766000000000000569,-0.775250128973514752
0.767000000000000570,-0.769322121722340713
0.768000000000000571,-0.763425886418824362
0.769000000000000572,-0.757561447881694883
0.770000000000000573,-0.751728827877744088
0.771000000000000574,-0.745928045155550334
0.772000000000000575,-0.740159115479315899
0.773000000000000576,-0.734422051662808051
0.774000000000000576,-0.728716863603403597
0.775000000000000577,-0.723043558316214363
0.776000000000000578,-0.717402139968260300
0.777000000000000579,-0.711792609912738738
0.778000000000000580,-0.706214966723290205
0.779000000000000581,-0.700669206228338393
0.780000000000000582,-0.695155321545419924
0.781000000000000583,-0.689673303115552194
0.782000000000000584,-0.684223138737577563
0.783000000000000584,-0.678804813602506885
0.784000000000000585,-0.673418310327849823
0.785000000000000586,-0.668063608991895208
0.786000000000000587,-0.662740687167974407
0.787000000000000588,-0.657449519958664075
0.788000000000000589,-0.652190080029916297
0.789000000000000590,-0.646962337645162866
0.790000000000000591,-0.641766260699297875
0.791000000000000592,-0.636601814752613460
0.792000000000000592,-0.631468963064623634
0.793000000000000593,-0.626367666627797526
0.794000000000000594,-0.621297884201188144
0.795000000000000595,-0.616259572343952788
0.796000000000000596,-0.611252685448729904
0.797000000000000597,-0.606277175774931232
0.798000000000000598,-0.601332993481861200
0.799000000000000599,-0.596420086661719195
0.800000000000000600,-0.591538401372458278
0.801000000000000600,-0.586687881670482136
0.802000000000000601,-0.581868469643190944
0.803000000000000602,-0.577080105441370561
0.804000000000000603,-0.572322727311412982
0.805000000000000604,-0.567596271627365478
0.806000000000000605,-0.562900672922791112
0.807000000000000606,-0.558235863922481146
0.808000000000000607,-0.553601775573941968
0.809000000000000608,-0.548998337078721699
0.810000000000000608,-0.544425475923546287
0.811000000000000609,-0.539883117911221566
0.812000000000000610,-0.535371187191389097
0.813000000000000611,-0.530889606291025107
0.814000000000000612,-0.526438296144770113
0.815000000000000613,-0.522017176125039839
0.816000000000000614,-0.517626164071897654
0.817000000000000615,-0.513265176322744154
0.818000000000000616,-0.508934127741773712
0.819000000000000616,-0.504632931749202096
0.820000000000000617,-0.500361500350273047
0.821000000000000618,-0.496119744164047916
0.822000000000000619,-0.491907572451962927
0.823000000000000620,-0.487724893146143479
0.824000000000000621,-0.483571612877494394
0.825000000000000622,-0.479447637003558746
0.826000000000000623,-0.475352869636138320
0.827000000000000624,-0.471287213668668659
0.828000000000000624,-0.467250570803366572
0.829000000000000625,-0.463242841578120568
0.830000000000000626,-0.459263925393156025
0.831000000000000627,-0.455313720537445232
0.832000000000000628,-0.451392124214888113
0.833000000000000629,-0.447499032570219613
0.834000000000000630,-0.443634340714699316
0.835000000000000631,-0.439797942751541437
0.836000000000000631,-0.435989731801093405
0.837000000000000632,-0.432209600025782792
0.838000000000000633,-0.428457438654785139
0.839000000000000634,-0.424733138008477173
0.840000000000000635,-0.421036587522621963
0.841000000000000636,-0.417367675772294056
0.842000000000000637,-0.413726290495590177
0.843000000000000638,-0.410112318617043337
0.844000000000000639,-0.406525646270826546
0.845000000000000639,-0.402966158823685305
0.846000000000000640,-0.399433740897618850
0.847000000000000641,-0.395928276392332135
0.848000000000000642,-0.392449648507412541
0.849000000000000643,-0.388997739764265549
0.850000000000000644,-0.385572432027826983
0.851000000000000645,-0.382173606527971832
0.852000000000000646,-0.378801143880736491
0.853000000000000647,-0.375454924109249910
0.854000000000000647,-0.372134826664435314
0.855000000000000648,-0.368840730445461840
0.856000000000000649,-0.365572513819958089
0.857000000000000650,-0.362330054643971056
0.858000000000000651,-0.359113230281680296
0.859000000000000652,-0.355921917624876349
0.860000000000000653,-0.352755993112200961
0.861000000000000654,-0.349615332748121843
0.862000000000000655,-0.346499812121704776
0.863000000000000655,-0.343409306425104532
0.864000000000000656,-0.340343690471854698
0.865000000000000657,-0.337302838714890252
0.866000000000000658,-0.334286625264354487
0.867000000000000659,-0.331294923905167127
0.868000000000000660,-0.328327608114342695
0.869000000000000661,-0.325384551078095829
0.870000000000000662,-0.322465625708705128
0.871000000000000663,-0.319570704661154947
0.872000000000000663,-0.316699660349530454
0.873000000000000664,-0.313852364963207786
0.874000000000000665,-0.311028690482797909
0.875000000000000666,-0.308228508695882975
0.876000000000000667,-0.305451691212512588
0.877000000000000668,-0.302698109480489363
0.878000000000000669,-0.299967634800433980
0.879000000000000670,-0.297260138340616820
0.880000000000000671,-0.294575491151594870
0.881000000000000671,-0.291913564180606211
0.882000000000000672,-0.289274228285775536
0.883000000000000673,-0.286657354250083152
0.884000000000000674,-0.284062812795142117
0.885000000000000675,-0.281490474594745632
0.886000000000000676,-0.278940210288226687
0.887000000000000677,-0.276411890493594048
0.888000000000000678,-0.273905385820462921
0.889000000000000679,-0.271420566882799807
0.890000000000000679,-0.268957304311442047
0.891000000000000680,-0.266515468766435226
0.892000000000000681,-0.264094930949159590
0.893000000000000682,-0.261695561614261274
0.894000000000000683,-0.259317231581389529
0.895000000000000684,-0.256959811746745537
0.896000000000000685,-0.254623173094427613
0.897000000000000686,-0.252307186707590558
0.898000000000000687,-0.250011723779424488
0.899000000000000687,-0.247736655623927160
0.900000000000000688,-0.245481853686507157
0.901000000000000689,-0.243247189554395893
0.902000000000000690,-0.241032534966883011
0.903000000000000691,-0.238837761825361733
0.904000000000000692,-0.236662742203201354
0.905000000000000693,-0.234507348355440376
0.906000000000000694,-0.232371452728312500
0.907000000000000695,-0.230254927968574663
0.908000000000000695,-0.228157646932700769
0.909000000000000696,-0.226079482695862671
0.910000000000000697,-0.224020308560779563
0.911000000000000698,-0.221979998066371698
0.912000000000000699,-0.219958424996265167
0.913000000000000700,-0.217955463387136034
0.914000000000000701,-0.215970987536864445
0.915000000000000702,-0.214004872012570402
0.916000000000000703,-0.212056991658453681
0.917000000000000703,-0.210127221603501196
0.918000000000000704,-0.208215437269023113
0.919000000000000705,-0.206321514376041598
0.920000000000000706,-0.204445328952534922
0.921000000000000707,-0.202586757340512513
0.922000000000000708,-0.200745676202958467
0.923000000000000709,-0.198921962530626717
0.924000000000000710,-0.197115493648672258
0.925000000000000711,-0.195326147223165048
0.926000000000000711,-0.193553801267440456
0.927000000000000712,-0.191798334148319677
0.928000000000000713,-0.190059624592186893
0.929000000000000714,-0.188337551690937521
0.930000000000000715,-0.186631994907772492
0.931000000000000716,-0.184942834082874985
0.932000000000000717,-0.183269949438954860
0.933000000000000718,-0.181613221586642726
0.934000000000000719,-0.179972531529780738
0.935000000000000719,-0.178347760670566596
0.936000000000000720,-0.176738790814576940
0.937000000000000721,-0.175145504175665961
0.938000000000000722,-0.173567783380745078
0.939000000000000723,-0.172005511474429718
0.940000000000000724,-0.170458571923578189
0.941000000000000725,-0.168926848621700987
0.942000000000000726,-0.167410225893265180
0.943000000000000727,-0.165908588497865855
0.944000000000000727,-0.164421821634301801
0.945000000000000728,-0.162949810944528789
0.946000000000000729,-0.161492442517493479
0.947000000000000730,-0.160049602892878340
0.948000000000000731,-0.158621179064713902
0.949000000000000732,-0.157207058484907625
0.950000000000000733,-0.155807129066641958
0.951000000000000734,-0.154421279187698490
0.952000000000000735,-0.153049397693647504
0.953000000000000735,-0.151691373900953941
0.954000000000000736,-0.150347097599983825
0.955000000000000737,-0.149016459057906753
0.956000000000000738,-0.147699349021501364
0.957000000000000739,-0.146395658719866484
0.958000000000000740,-0.145105279867035947
0.959000000000000741,-0.143828104664500911
0.960000000000000742,-0.142564025803643885
0.961000000000000743,-0.141312936468072803
0.962000000000000743,-0.140074730335872949
0.963000000000000744,-0.138849301581767226
0.964000000000000745,-0.137636544879198963
0.965000000000000746,-0.136436355402310389
0.966000000000000747,-0.135248628827853212
0.967000000000000748,-0.134073261337005895
0.968000000000000749,-0.132910149617123385
0.969000000000000750,-0.131759190863380948
0.970000000000000751,-0.130620282780370051
0.971000000000000751,-0.129493323583585090
0.972000000000000752,-0.128378212000848924
0.973000000000000753,-0.127274847273675579
0.974000000000000754,-0.126183129158522839
0.975000000000000755,-0.125102957928005770
0.976000000000000756,-0.124034234372017590
0.977000000000000757,-0.122976859798786184
0.978000000000000758,-0.121930736035854984
0.979000000000000759,-0.120895765431011701
0.980000000000000759,-0.119871850853119022
0.981000000000000760,-0.118858895692903199
0.982000000000000761,-0.117856803863676432
0.983000000000000762,-0.116865479801974786
0.984000000000000763,-0.115884828468145962
0.985000000000000764,-0.114914755346882141
0.986000000000000765,-0.113955166447671591
0.987000000000000766,-0.113005968305201376
0.988000000000000766,-0.112067067979699703
0.989000000000000767,-0.111138373057222822
0.990000000000000768,-0.110219791649873861
0.991000000000000769,-0.109311232395970404
0.992000000000000770,-0.108412604460156770
0.993000000000000771,-0.107523817533469984
0.994000000000000772,-0.106644781833327748
0.995000000000000773,-0.105775408103495991
0.996000000000000774,-0.104915607613972936
0.997000000000000774,-0.104065292160844147
0.998000000000000775,-0.103224374066079205
0.999000000000000776,-0.102392766177277217
1.000000000000000666,-0.101570381867366916
1.001000000000000778,-0.100757135034261980
1.002000000000000668,-0.099952940100462323
1.003000000000000780,-0.099157712012612281
1.004000000000000670,-0.098371366241021496
1.005000000000000782,-0.097593818779130342
1.006000000000000671,-0.096824986142942382
1.007000000000000783,-0.096064785370398073
1.008000000000000673,-0.095313134020731480
1.009000000000000785,-0.094569950173763587
1.010000000000000675,-0.093835152429167373
1.011000000000000787,-0.093108659905687854
1.012000000000000677,-0.092390392240333033
1.013000000000000789,-0.091680269587514074
1.014000000000000679,-0.090978212618154683
1.015000000000000790,-0.090284142518768526
1.016000000000000680,-0.089597980990499329
1.017000000000000792,-0.088919650248111867
1.018000000000000682,-0.088249073018974444
1.019000000000000794,-0.087586172541985099
1.020000000000000684,-0.086930872566481091
1.021000000000000796,-0.086283097351105967
1.022000000000000686,-0.085642771662646611
1.023000000000000798,-0.085009820774850295
1.024000000000000687,-0.084384170467193320
1.025000000000000799,-0.083765747023640813
1.026000000000000689,-0.083154477231359006
1.027000000000000801,-0.082550288379414277
1.028000000000000691,-0.081953108257437152
1.029000000000000803,-0.081362865154258626
1.030000000000000693,-0.080779487856523335
1.031000000000000805,-0.080202905647283260
1.032000000000000695,-0.079633048304546428
1.033000000000000806,-0.079069846099830088
1.034000000000000696,-0.078513229796665529
1.035000000000000808,-0.077963130649087151
1.036000000000000698,-0.077419480400104435
1.037000000000000810,-0.076882211280156154
1.038000000000000700,-0.076351256005515872
1.039000000000000812,-0.075826547776710523
1.040000000000000702,-0.075308020276899382
1.041000000000000814,-0.074795607670240863
1.042000000000000703,-0.074289244600223667
1.043000000000000815,-0.073788866188007507
1.044000000000000705,-0.073294408030722610
1.045000000000000817,-0.072805806199754269
1.046000000000000707,-0.072322997239022760
1.047000000000000819,-0.071845918163235142
1.048000000000000709,-0.071374506456115067
1.049000000000000821,-0.070908700068640959
1.050000000000000711,-0.070448437417233251
1.051000000000000822,-0.069993657381965779
1.052000000000000712,-0.069544299304729079
1.053000000000000824,-0.069100302987396001
1.054000000000000714,-0.068661608689976616
1.055000000000000826,-0.068228157128747052
1.056000000000000716,-0.067799889474381161
1.057000000000000828,-0.067376747350052071
1.058000000000000718,-0.066958672829537116
1.059000000000000830,-0.066545608435303008
1.060000000000000719,-0.066137497136586787
1.061000000000000831,-0.065734282347450934
1.062000000000000721,-0.065335907924848710
1.063000000000000833,-0.064942318166667873
1.064000000000000723,-0.064553457809758630
1.065000000000000835,-0.064169272027966989
1.066000000000000725,-0.063789706430154317
1.067000000000000837,-0.063414707058193201
1.068000000000000727,-0.063044220384987068
1.069000000000000838,-0.062678193312445285
1.070000000000000728,-0.062316573169480451
1.071000000000000840,-0.061959307709981246
1.072000000000000730,-0.061606345110786741
1.073000000000000842,-0.061257633969650740
1.074000000000000732,-0.060913123303196058
1.075000000000000844,-0.060572762544876438
1.076000000000000734,-0.060236501542917764
1.077000000000000846,-0.059904290558260465
1.078000000000000735,-0.059576080262502620
1.079000000000000847,-0.059251821735824106
1.080000000000000737,-0.058931466464926675
1.081000000000000849,-0.058614966340945665
1.082000000000000739,-0.058302273657380312
1.083000000000000851,-0.057993341108006594
1.084000000000000741,-0.057688121784795821
1.085000000000000853,-0.057386569175819226
1.086000000000000743,-0.057088637163162835
1.087000000000000854,-0.056794280020828758
1.088000000000000744,-0.056503452412647960
1.089000000000000856,-0.056216109390167621
1.090000000000000746,-0.055932206390565176
1.091000000000000858,-0.055651699234543939
1.092000000000000748,-0.055374544124226301
1.093000000000000860,-0.055100697641057628
1.094000000000000750,-0.054830116743697144
1.095000000000000862,-0.054562758765916097
1.096000000000000751,-0.054298581414496873
1.097000000000000863,-0.054037542767119175
1.098000000000000753,-0.053779601270266861
1.099000000000000865,-0.053524715737119810
1.100000000000000755,-0.053272845345444887
1.101000000000000867,-0.053023949635501798
1.102000000000000757,-0.052777988507938509
1.103000000000000869,-0.052534922221693856
1.104000000000000759,-0.052294711391888182
1.105000000000000870,-0.052057316987742706
1.106000000000000760,-0.051822700330466723
1.107000000000000872,-0.051590823091177150
1.108000000000000762,-0.051361647288802492
1.109000000000000874,-0.051135135287991296
1.110000000000000764,-0.050911249797028747
1.111000000000000876,-0.050689953865748302
1.112000000000000766,-0.050471210883455034
1.113000000000000878,-0.050254984576844262
1.114000000000000767,-0.050041239007929575
1.115000000000000879,-0.049829938571964209
1.116000000000000769,-0.049621047995377560
1.117000000000000881,-0.049414532333708967
1.118000000000000771,-0.049210356969545101
1.119000000000000883,-0.049008487610463072
1.120000000000000773,-0.048808890286978775
1.121000000000000885,-0.048611531350491052
1.122000000000000774,-0.048416377471241903
1.123000000000000886,-0.048223395636273390
1.124000000000000776,-0.048032553147394103
1.125000000000000888,-0.047843817619139029
1.126000000000000778,-0.047657156976749424
1.127000000000000890,-0.047472539454153743
1.128000000000000780,-0.047289933591936936
1.129000000000000892,-0.047109308235341471
1.130000000000000782,-0.046930632532252312
1.131000000000000894,-0.046753875931199923
1.132000000000000783,-0.046579008179357159
1.133000000000000895,-0.046405999320559173
1.134000000000000785,-0.046234819693301538
1.135000000000000897,-0.046065439928779629
1.136000000000000787,-0.045897830948899092
1.137000000000000899,-0.045731963964317071
1.138000000000000789,-0.045567810472470813
1.139000000000000901,-0.045405342255638505
1.140000000000000790,-0.045244531378972101
1.141000000000000902,-0.045085350188556327
1.142000000000000792,-0.044927771309481328
1.143000000000000904,-0.044771767643903393
1.144000000000000794,-0.044617312369125570
1.145000000000000906,-0.044464378935668444
1.146000000000000796,-0.044312941065376490
1.147000000000000908,-0.044162972749498985
1.148000000000000798,-0.044014448246799072
1.149000000000000909,-0.043867342081660529
1.150000000000000799,-0.043721629042201685
1.151000000000000689,-0.043577284178402495
1.152000000000000801,-0.043434282800233467
1.153000000000000913,-0.043292600475789159
1.154000000000000803,-0.043152213029435317
1.155000000000000693,-0.043013096539957073
1.156000000000000805,-0.042875227338724578
1.157000000000000917,-0.042738582007846956
1.158000000000000806,-0.042603137378357518
1.159000000000000696,-0.042468870528385487
1.160000000000000808,-0.042335758781347752
1.161000000000000920,-0.042203779704143574
1.162000000000000810,-0.042072911105359795
1.163000000000000700,-0.041943131033474683
1.164000000000000812,-0.041814417775086141
1.165000000000000924,-0.041686749853125829
1.166000000000000814,-0.041560106025102725
1.167000000000000703,-0.041434465281338269
1.168000000000000815,-0.041309806843219540
1.169000000000000927,-0.041186110161449421
1.170000000000000817,-0.041063354914321878
1.171000000000000707,-0.040941521005980121
1.172000000000000819,-0.040820588564711428
1.173000000000000931,-0.040700537941227452
1.174000000000000821,-0.040581349706957454
1.175000000000000711,-0.040463004652361488
1.176000000000000822,-0.040345483785236669
1.177000000000000934,-0.040228768329037767
1.178000000000000824,-0.040112839721206731
1.179000000000000714,-0.039997679611505563
1.180000000000000826,-0.039883269860369518
1.181000000000000938,-0.039769592537247864
1.182000000000000828,-0.039656629918972189
1.183000000000000718,-0.039544364488123727
1.184000000000000830,-0.039432778931409646
1.185000000000000941,-0.039321856138043614
1.186000000000000831,-0.039211579198149542
1.187000000000000721,-0.039101931401150772
1.188000000000000833,-0.038992896234189237
1.189000000000000945,-0.038884457380538209
1.190000000000000835,-0.038776598718030970
1.191000000000000725,-0.038669304317485831
1.192000000000000837,-0.038562558441169237
1.193000000000000949,-0.038456345541219392
1.194000000000000838,-0.038350650258129622
1.195000000000000728,-0.038245457419197368
1.196000000000000840,-0.038140752037009222
1.197000000000000952,-0.038036519307925218
1.198000000000000842,-0.037932744610561932
1.199000000000000732,-0.037829413504304778
1.200000000000000844,-0.037726511727800657
1.201000000000000956,-0.037624025197492805
1.202000000000000846,-0.037521940006128449
1.203000000000000735,-0.037420242421306295
1.204000000000000847,-0.037318918884003412
1.205000000000000959,-0.037217956007140132
1.206000000000000849,-0.037117340574124288
1.207000000000000739,-0.037017059537423860
1.208000000000000851,-0.036917100017140256
1.209000000000000963,-0.036817449299590910
1.210000000000000853,-0.036718094835898399
1.211000000000000743,-0.036619024240589049
1.212000000000000854,-0.036520225290200992
1.213000000000000966,-0.036421685921897547
1.214000000000000856,-0.036323394232095560
1.215000000000000746,-0.036225338475084662
1.216000000000000858,-0.036127507061684425
1.217000000000000970,-0.036029888557874784
1.218000000000000860,-0.035932471683460490
1.219000000000000750,-0.035835245310735807
1.220000000000000862,-0.035738198463152127
1.221000000000000973,-0.035641320313998040
1.222000000000000863,-0.035544600185092652
1.223000000000000753,-0.035448027545473111
1.224000000000000865,-0.035351592010106091
1.225000000000000977,-0.035255283338596968
1.226000000000000867,-0.035159091433907927
1.227000000000000757,-0.035063006341089248
1.228000000000000869,-0.034967018246007474
1.229000000000000981,-0.034871117474106469
1.230000000000000870,-0.034775294489136209
1.231000000000000760,-0.034679539891928998
1.232000000000000872,-0.034583844419164053
1.233000000000000984,-0.034488198942132543
1.234000000000000874,-0.034392594465537649
1.235000000000000764,-0.034297022126268881
1.236000000000000876,-0.034201473192212430
1.237000000000000988,-0.034105939061049750
1.238000000000000878,-0.034010411259078888
1.239000000000000767,-0.033914881440030173
1.240000000000000879,-0.033819341383899713
1.241000000000000991,-0.033723782995783845
1.242000000000000881,-0.033628198304725056
1.243000000000000771,-0.033532579462567415
1.244000000000000883,-0.033436918742808699
1.245000000000000995,-0.033341208539477571
1.246000000000000885,-0.033245441366003950
1.247000000000000774,-0.033149609854100384
1.248000000000000886,-0.033053706752654552
1.249000000000000998,-0.032957724926626603
1.250000000000000888,-0.032861657355955691
1.251000000000000778,-0.032765497134467879
1.252000000000000890,-0.032669237468802202
1.253000000000001002,-0.032572871677329029
1.254000000000000892,-0.032476393189097778
1.255000000000000782,-0.032379795542765946
1.256000000000000894,-0.032283072385555091
1.257000000000001005,-0.032186217472206492
1.258000000000000895,-0.032089224663945544
1.259000000000000785,-0.031992087927447101
1.260000000000000897,-0.031894801333821728
1.261000000000001009,-0.031797359057595398
1.262000000000000899,-0.031699755375701660
1.263000000000000789,-0.031601984666483486
1.264000000000000901,-0.031504041408700348
1.265000000000001013,-0.031405920180537179
1.266000000000000902,-0.031307615658628572
1.267000000000000792,-0.031209122617085461
1.268000000000000904,-0.031110435926528256
1.269000000000001016,-0.031011550553128979
1.270000000000000906,-0.030912461557660316
1.271000000000000796,-0.030813164094549362
1.272000000000000908,-0.030713653410936726
1.273000000000001020,-0.030613924845751324
1.274000000000000909,-0.030513973828780367
1.275000000000000799,-0.030413795879751026
1.276000000000000911,-0.030313386607426517
1.277000000000001023,-0.030212741708690503
1.278000000000000913,-0.030111856967658474
1.279000000000000803,-0.030010728254779379
1.280000000000000915,-0.029909351525960061
1.281000000000001027,-0.029807722821671444
1.282000000000000917,-0.029705838266094391
1.283000000000000806,-0.029603694066241238
1.284000000000000918,-0.029501286511104861
1.285000000000001030,-0.029398611970799238
1.286000000000000920,-0.029295666895722682
1.287000000000000810,-0.029192447815705978
1.288000000000000922,-0.029088951339192877
1.289000000000001034,-0.028985174152400726
1.290000000000000924,-0.028881113018503546
1.291000000000000814,-0.028776764776824337
1.292000000000000925,-0.028672126342012650
1.293000000000001037,-0.028567194703257765
1.294000000000000927,-0.028461966923480631
1.295000000000000817,-0.028356440138550154
1.296000000000000929,-0.028250611556495719
1.297000000000001041,-0.028144478456729315
1.298000000000000931,-0.028038038189279441
1.299000000000000821,-0.027931288174018305
1.300000000000000933,-0.027824225899902039
1.301000000000001044,-0.027716848924221594
1.302000000000000934,-0.027609154871848333
1.303000000000000824,-0.027501141434499266
1.304000000000000936,-0.027392806369988993
1.305000000000001048,-0.027284147501511542
1.306000000000000938,-0.027175162716909763
1.307000000000000828,-0.027065849967950278
1.308000000000000940,-0.026956207269616443
1.309000000000001052,-0.026846232699403762
1.310000000000000941,-0.026735924396609413
1.311000000000000831,-0.026625280561637550
1.312000000000000943,-0.026514299455306162
1.313000000000001055,-0.026402979398173827
1.314000000000000945,-0.026291318769842448
1.315000000000000835,-0.026179316008290689
1.316000000000000947,-0.026066969609204342
1.317000000000001059,-0.025954278125315238
1.318000000000000949,-0.025841240165732561
1.319000000000000838,-0.025727854395303562
1.320000000000000950,-0.025614119533954965
1.321000000000001062,-0.025500034356052376
1.322000000000000952,-0.025385597689767031
1.323000000000000842,-0.025270808416439739
1.324000000000000954,-0.025155665469956207
1.325000000000001066,-0.025040167836120175
1.326000000000000956,-0.024924314552046609
1.327000000000000846,-0.024808104705538389
1.328000000000000957,-0.024691537434489354
1.329000000000001069,-0.024574611926274727
1.330000000000000959,-0.024457327417163673
1.331000000000000849,-0.024339683191720200
1.332000000000000961,-0.024221678582216931
1.333000000000001073,-0.024103312968057698
1.334000000000000963,-0.023984585775199747
1.335000000000000853,-0.023865496475576526
1.336000000000000965,-0.023746044586538562
1.337000000000001076,-0.023626229670285090
1.338000000000000966,-0.023506051333307579
1.339000000000000856,-0.023385509225840637
1.340000000000000968,-0.023264603041307629
1.341000000000001080,-0.023143332515781111
1.342000000000000970,-0.023021697427444327
1.343000000000000860,-0.022899697596053644
1.344000000000000972,-0.022777332882411856
1.345000000000001084,-0.022654603187846373
1.346000000000000973,-0.022531508453677802
1.347000000000000863,-0.022408048660715510
1.348000000000000975,-0.022284223828736537
1.349000000000001087,-0.022160034015987071
1.350000000000000977,-0.022035479318672526
1.351000000000000867,-0.021910559870465841
1.352000000000000979,-0.021785275842002582
1.353000000000001091,-0.021659627440404210
1.354000000000000981,-0.021533614908787288
1.355000000000000870,-0.021407238525775689
1.356000000000000982,-0.021280498605033515
1.357000000000001094,-0.021153395494790249
1.358000000000000984,-0.021025929577365356
1.359000000000000874,-0.020898101268712103
1.360000000000000986,-0.020769911017952829
1.361000000000001098,-0.020641359306927735
1.362000000000000988,-0.020512446649731793
1.363000000000000878,-0.020383173592278380
1.364000000000000989,-0.020253540711853930
1.365000000000001101,-0.020123548616667469
1.366000000000000991,-0.019993197945426606
1.367000000000000881,-0.019862489366898835
1.368000000000000993,-0.019731423579485964
1.369000000000001105,-0.019600001310797539
1.370000000000000995,-0.019468223317231477
1.371000000000000885,-0.019336090383558609
1.372000000000000997,-0.019203603322507031
1.373000000000001108,-0.019070762974359418
1.374000000000000998,-0.018937570206531494
1.375000000000000888,-0.018804025913194449
1.376000000000001000,-0.018670131014856171
1.377000000000001112,-0.018535886457977963
1.378000000000001002,-0.018401293214580273
1.379000000000000892,-0.018266352281856614
1.380000000000001004,-0.018131064681787906
1.381000000000001116,-0.017995431460768756
1.382000000000001005,-0.017859453689222930
1.383000000000000895,-0.017723132461235774
1.384000000000001007,-0.017586468894184790
1.385000000000001119,-0.017449464128371249
1.386000000000001009,-0.017312119326662108
1.387000000000000899,-0.017174435674121035
1.388000000000001011,-0.017036414377672813
1.389000000000001123,-0.016898056665725570
1.390000000000001013,-0.016759363787842284
1.391000000000000902,-0.016620337014383361
1.392000000000001014,-0.016480977636171883
1.393000000000001126,-0.016341286964149333
1.394000000000001016,-0.016201266329044509
1.395000000000000906,-0.016060917081037150
1.396000000000001018,-0.015920240589428140
1.397000000000001130,-0.015779238242318222
1.398000000000001020,-0.015637911446281832
1.399000000000000909,-0.015496261626046398
1.400000000000001021,-0.015354290224176342
1.401000000000001133,-0.015211998700762664
1.402000000000001023,-0.015069388533107533
1.403000000000000913,-0.014926461215418574
1.404000000000001025,-0.014783218258505615
1.405000000000001137,-0.014639661189478580
1.406000000000001027,-0.014495791551445394
1.407000000000000917,-0.014351610903227424
1.408000000000001029,-0.014207120819049091
1.409000000000001140,-0.014062322888265722
1.410000000000001030,-0.013917218715065219
1.411000000000000920,-0.013771809918190075
1.412000000000001032,-0.013626098130650605
1.413000000000001144,-0.013480084999454384
1.414000000000001034,-0.013333772185324106
1.415000000000000924,-0.013187161362424590
1.416000000000001036,-0.013040254218099647
1.417000000000001148,-0.012893052452599613
1.418000000000001037,-0.012745557778815387
1.419000000000000927,-0.012597771922019881
1.420000000000001039,-0.012449696619606118
1.421000000000001151,-0.012301333620836186
1.422000000000001041,-0.012152684686580385
1.423000000000000931,-0.012003751589068875
1.424000000000001043,-0.011854536111643407
1.425000000000001155,-0.011705040048511134
1.426000000000001044,-0.011555265204500018
1.427000000000000934,-0.011405213394821461
1.428000000000001046,-0.011254886444824809
1.429000000000001158,-0.011104286189765233
1.430000000000001048,-0.010953414474573346
1.431000000000000938,-0.010802273153617859
1.432000000000001050,-0.010650864090481424
1.433000000000001162,-0.010499189157733213
1.434000000000001052,-0.010347250236701409
1.435000000000000941,-0.010195049217259416
1.436000000000001053,-0.010042587997599366
1.437000000000001165,-0.009889868484015461
1.438000000000001055,-0.009736892590698929
1.439000000000000945,-0.009583662239513808
1.440000000000001057,-0.009430179359794741
1.441000000000001169,-0.009276445888132357
1.442000000000001059,-0.009122463768175285
1.443000000000000949,-0.008968234950426788
1.444000000000001060,-0.008813761392036327
1.445000000000001172,-0.008659045056604720
1.446000000000001062,-0.008504087913994523
1.447000000000000952,-0.008348891940121070
1.448000000000001064,-0.008193459116773173
1.449000000000001176,-0.008037791431419418
1.450000000000001066,-0.007881890877013473
1.451000000000000956,-0.007725759451816594
1.452000000000001068,-0.007569399159210441
1.453000000000001180,-0.007412812007513805
1.454000000000001069,-0.007256000009805150
1.455000000000000959,-0.007098965183743411
1.456000000000001071,-0.006941709551389697
1.457000000000001183,-0.006784235139041900
1.458000000000001073,-0.006626543977053628
1.459000000000000963,-0.006468638099666729
1.460000000000001075,-0.006310519544846821
1.461000000000001187,-0.006152190354111105
1.462000000000001076,-0.005993652572374557
1.463000000000000966,-0.005834908247774451
1.464000000000001078,-0.005675959431517567
1.465000000000001190,-0.005516808177726636
1.466000000000001080,-0.005357456543267787
1.467000000000000970,-0.005197906587612743
1.468000000000001082,-0.005038160372677214
1.469000000000001194,-0.004878219962668241
1.470000000000001084,-0.004718087423939824
1.471000000000000973,-0.004557764824840786
1.472000000000001085,-0.004397254235573384
1.473000000000001197,-0.004236557728045215
1.474000000000001087,-0.004075677375727874
1.475000000000000977,-0.003914615253514461
1.476000000000001089,-0.003753373437585346
1.477000000000001201,-0.003591954005267105
1.478000000000001091,-0.003430359034894672
1.479000000000000981,-0.003268590605683769
1.480000000000001092,-0.003106650797589283
1.481000000000001204,-0.002944541691184696
1.482000000000001094,-0.002782265367523338
1.483000000000000984,-0.002619823908020067
1.484000000000001096,-0.002457219394317386
1.485000000000001208,-0.002294453908160490
1.486000000000001098,-0.002131529531283606
1.487000000000000988,-0.001968448345278946
1.488000000000001100,-0.001805212431479016
1.489000000000001211,-0.001641823870842709
1.490000000000001101,-0.001478284743834139
1.491000000000000991,-0.001314597130305193
1.492000000000001103,-0.001150763109390318
1.493000000000001215,-0.000986784759384332
1.494000000000001105,-0.000822664157634925
1.495000000000000995,-0.000658403380435457
1.496000000000001107,-0.000494004502914771
1.497000000000001219,-0.000329469598928033
1.498000000000001108,-0.000164800740957671
1.499000000000000998,0.000000000000000000
