# hydroxyapatite-010-ph14_BGLC-AC
# h[nm],U(h)[kJ/mol]
0.149999999999999994,186.708769503195128436
0.150999999999999995,183.379735192612599803
0.151999999999999996,180.365605897696525517
0.152999999999999997,177.454628869996156482
0.153999999999999998,174.557313877018401627
0.154999999999999999,171.649938837990902130
0.156000000000000000,168.740140343464730677
0.157000000000000001,165.847003063387944621
0.158000000000000002,162.990410484371949451
0.159000000000000002,160.186101710185084812
0.160000000000000003,157.444069932330364736
0.161000000000000004,154.768769918252019124
0.162000000000000005,152.160173776019234992
0.163000000000000006,149.615100236268006029
0.164000000000000007,147.128497252589397704
0.165000000000000008,144.694520689293483429
0.166000000000000009,142.307352050611655159
0.167000000000000010,139.961756216477681392
0.168000000000000010,137.653410544396308524
0.169000000000000011,135.379049608540810823
0.170000000000000012,133.136472209142453949
0.171000000000000013,130.924453739875843894
0.172000000000000014,128.742600572344684906
0.173000000000000015,126.591175702399397096
0.174000000000000016,124.470917630013602206
0.175000000000000017,122.382867924864015663
0.176000000000000018,120.328217441067380378
0.177000000000000018,118.308176755433322569
0.178000000000000019,116.323873060115644762
0.179000000000000020,114.376273323633085965
0.180000000000000021,112.466131897166107478
0.181000000000000022,110.593959734740820977
0.182000000000000023,108.760011874579078039
0.183000000000000024,106.964289669138821637
0.184000000000000025,105.206554347146038708
0.185000000000000026,103.486348755802055166
0.186000000000000026,101.803024497274094529
0.187000000000000027,100.155772088752911486
0.188000000000000028,98.543652201885890918
0.189000000000000029,96.965626448787944014
0.190000000000000030,95.420586560789502073
0.191000000000000031,93.907381142395337292
0.192000000000000032,92.424839471771718991
0.193000000000000033,90.971792059508942430
0.194000000000000034,89.547087871210123922
0.195000000000000034,88.149608270173345659
0.196000000000000035,86.778277848661588223
0.197000000000000036,85.432072395084375671
0.198000000000000037,84.110024295039465869
0.199000000000000038,82.811225691605116594
0.200000000000000039,81.534829739201143184
0.201000000000000040,80.280050279953471204
0.202000000000000041,79.046160255489581914
0.203000000000000042,77.832489143621543803
0.204000000000000042,76.638419681075021117
0.205000000000000043,75.463384102458476832
0.206000000000000044,74.306860093750273677
0.207000000000000045,73.168366627039233663
0.208000000000000046,72.047459813075803936
0.209000000000000047,70.943728880074147014
0.210000000000000048,69.856792361611809383
0.211000000000000049,68.786294553669364404
0.212000000000000050,67.731902280945817552
0.213000000000000050,66.693301995568347706
0.214000000000000051,65.670197217083440933
0.215000000000000052,64.662306311008975968
0.216000000000000053,63.669360594027409661
0.217000000000000054,62.691102746879813878
0.218000000000000055,61.727285510922044409
0.219000000000000056,60.777670640884466025
0.220000000000000057,59.842028084380146424
0.221000000000000058,58.920135357912762686
0.222000000000000058,58.011777089311785005
0.223000000000000059,57.116744697485799520
0.224000000000000060,56.234836181944771738
0.225000000000000061,55.365855996548233975
0.226000000000000062,54.509614984248990766
0.227000000000000063,53.665930352103750067
0.228000000000000064,52.834625668416933308
0.229000000000000065,52.015530866486543005
0.230000000000000066,51.208482241969953463
0.231000000000000066,50.413322433328914940
0.232000000000000067,49.629900377108739917
0.233000000000000068,48.858071231928377642
0.234000000000000069,48.097696266987306046
0.235000000000000070,47.348642712621206385
0.236000000000000071,46.610783571956424964
0.237000000000000072,45.883997394024703453
0.238000000000000073,45.168168009810486296
0.239000000000000073,44.463184233622470742
0.240000000000000074,43.768939532916888879
0.241000000000000075,43.085331670272395854
0.242000000000000076,42.412262321631274631
0.243000000000000077,41.749636675201514890
0.244000000000000078,41.097363015568575406
0.245000000000000079,40.455352297613544010
0.246000000000000080,39.823517714788366106
0.247000000000000081,39.201774266173238459
0.248000000000000081,38.590038326550200054
0.249000000000000082,37.988227223482262218
0.250000000000000111,37.396258825100460399
0.251000000000000112,36.814051141982744753
0.252000000000000113,36.241521946167161161
0.253000000000000114,35.678588409987426644
0.254000000000000115,35.125166767057308448
0.255000000000000115,34.581171997367675885
0.256000000000000116,34.046517538104275502
0.257000000000000117,33.521115021446419746
0.258000000000000118,33.004874040274188474
0.259000000000000119,32.497701942394542129
0.260000000000000120,31.999503653599163044
0.261000000000000121,31.510181529590216343
0.262000000000000122,31.029635236555225930
0.263000000000000123,30.557761659940968713
0.264000000000000123,30.094454840767333792
0.265000000000000124,29.639605938637298976
0.266000000000000125,29.193103220436977807
0.267000000000000126,28.754832073579972729
0.268000000000000127,28.324675042532312830
0.269000000000000128,27.902511887257389844
0.270000000000000129,27.488219662142665101
0.271000000000000130,27.081672813911012554
0.272000000000000131,26.682743296978173930
0.273000000000000131,26.291300704692268653
0.274000000000000132,25.907212414880198992
0.275000000000000133,25.530343748128803583
0.276000000000000134,25.160558137242411192
0.277000000000000135,24.797717306344932098
0.278000000000000136,24.441681458128378779
0.279000000000000137,24.092309467793619149
0.280000000000000138,23.749459082279450683
0.281000000000000139,23.412987123432191794
0.282000000000000139,23.082749693829978099
0.283000000000000140,22.758602384041054734
0.284000000000000141,22.440400480164381491
0.285000000000000142,22.127999170572042686
0.286000000000000143,21.821253750845187369
0.287000000000000144,21.520019825969662008
0.288000000000000145,21.224153508930278633
0.289000000000000146,20.933511614917517107
0.290000000000000147,20.647951850432040288
0.291000000000000147,20.367332996645082233
0.292000000000000148,20.091515086441798843
0.293000000000000149,19.820359574643525491
0.294000000000000150,19.553729500970050026
0.295000000000000151,19.291489645366699079
0.296000000000000152,19.033506675381637763
0.297000000000000153,18.779649285336557085
0.298000000000000154,18.529788327088937194
0.299000000000000155,18.283796932235937049
0.300000000000000155,18.041550625658704377
0.301000000000000156,17.802927430351889626
0.302000000000000157,17.567807963525311266
0.303000000000000158,17.336075524004648685
0.304000000000000159,17.107616170994241145
0.305000000000000160,16.882318794298672771
0.306000000000000161,16.660075176130128227
0.307000000000000162,16.440780044656456482
0.308000000000000163,16.224331119469475482
0.309000000000000163,16.010629149175379382
0.310000000000000164,15.799577941329033592
0.311000000000000165,15.591084384950416819
0.312000000000000166,15.385058465877335721
0.313000000000000167,15.181413275220197789
0.314000000000000168,14.980065011196042946
0.315000000000000169,14.780932974626864507
0.316000000000000170,14.583939558394510172
0.317000000000000171,14.389010231149182317
0.318000000000000171,14.196073515571949741
0.319000000000000172,14.005060961493592586
0.320000000000000173,13.815907114172521375
0.321000000000000174,13.628549478033846754
0.322000000000000175,13.442928476169452523
0.323000000000000176,13.258987405896258238
0.324000000000000177,13.076672390665461165
0.325000000000000178,12.895932328611106499
0.326000000000000179,12.716718838020234728
0.327000000000000179,12.538986200001037474
0.328000000000000180,12.362691298618047497
0.329000000000000181,12.187793558756258250
0.330000000000000182,12.014254881968025046
0.331000000000000183,11.842039580548226141
0.332000000000000184,11.671114310074697684
0.333000000000000185,11.501448000642024994
0.334000000000000186,11.333011787007583493
0.335000000000000187,11.165778937859659692
0.336000000000000187,10.999724784407948874
0.337000000000000188,10.834826648487673850
0.338000000000000189,10.671063770358735212
0.339000000000000190,10.508417236372203263
0.340000000000000191,10.346869906667171435
0.341000000000000192,10.186406343051562118
0.342000000000000193,10.027012737211498106
0.343000000000000194,9.868676839384766808
0.344000000000000195,9.711387887625413384
0.345000000000000195,9.555136537777240591
0.346000000000000196,9.399914794266328144
0.347000000000000197,9.245715941813820393
0.348000000000000198,9.092534478162741962
0.349000000000000199,8.940366047904488411
0.350000000000000200,8.789207377483434058
0.351000000000000201,8.639056211450613532
0.352000000000000202,8.489911250030704792
0.353000000000000203,8.341772088059681067
0.354000000000000203,8.194639155343995895
0.355000000000000204,8.048513658486294631
0.356000000000000205,7.903397524216396519
0.357000000000000206,7.759293344260828285
0.358000000000000207,7.616204321778914377
0.359000000000000208,7.474134219388244738
0.360000000000000209,7.333087308797320070
0.361000000000000210,7.193068322059149367
0.362000000000000210,7.054082404454550037
0.363000000000000211,6.916135069010453940
0.364000000000000212,6.779232152654306454
0.365000000000000213,6.643379774002238669
0.366000000000000214,6.508584292775308811
0.367000000000000215,6.374852270834988843
0.368000000000000216,6.242190434825996448
0.369000000000000217,6.110605640412292594
0.370000000000000218,5.980104838089017605
0.371000000000000218,5.850695040551350701
0.372000000000000219,5.722383291598821309
0.373000000000000220,5.595176636551746796
0.374000000000000221,5.469082094154947171
0.375000000000000222,5.344106629942061204
0.376000000000000223,5.220257131032252751
0.377000000000000224,5.097540382330308262
0.378000000000000225,4.975963044099435351
0.379000000000000226,4.855531630875577598
0.380000000000000226,4.736252491690722266
0.381000000000000227,4.618131791572459122
0.382000000000000228,4.501175494285986289
0.383000000000000229,4.385389346284569001
0.384000000000000230,4.270778861833916196
0.385000000000000231,4.157349309275606863
0.386000000000000232,4.045105698394723781
0.387000000000000233,3.934052768856348248
0.388000000000000234,3.824194979676012629
0.389000000000000234,3.715536499688804728
0.390000000000000235,3.608081198982217241
0.391000000000000236,3.501832641257939027
0.392000000000000237,3.396794077087955888
0.393000000000000238,3.292968438030714928
0.394000000000000239,3.190358331573443174
0.395000000000000240,3.088966036867026865
0.396000000000000241,2.988793501220437854
0.397000000000000242,2.889842337322014565
0.398000000000000242,2.792113821155526754
0.399000000000000243,2.695608890579562544
0.400000000000000244,2.600328144539094666
0.401000000000000245,2.506271842878958545
0.402000000000000246,2.413439906729590412
0.403000000000000247,2.321831919435690672
0.404000000000000248,2.231447127999596880
0.405000000000000249,2.142284445011482852
0.406000000000000250,2.054342451039398387
0.407000000000000250,1.967619397452693208
0.408000000000000251,1.882113209653220931
0.409000000000000252,1.797821490689385460
0.410000000000000253,1.714741525228715258
0.411000000000000254,1.632870283865551553
0.412000000000000255,1.552204427741023407
0.413000000000000256,1.472740313453140049
0.414000000000000257,1.394473998235844947
0.415000000000000258,1.317401245386121911
0.416000000000000258,1.241517529919469620
0.417000000000000259,1.166818044434288826
0.418000000000000260,1.093297705166817124
0.419000000000000261,1.020951158218568633
0.420000000000000262,0.949772785939304365
0.421000000000000263,0.879756713448767491
0.422000000000000264,0.810896815281621719
0.423000000000000265,0.743186722140107947
0.424000000000000266,0.676619827739986968
0.425000000000000266,0.611189295735829141
0.426000000000000267,0.546888066712210574
0.427000000000000268,0.483708865228154483
0.428000000000000269,0.421644206902630714
0.429000000000000270,0.360686405529513199
0.430000000000000271,0.300827580210995094
0.431000000000000272,0.242059662498905231
0.432000000000000273,0.184374403534082271
0.433000000000000274,0.127763381174256618
0.434000000000000274,0.072218007101542095
0.435000000000000275,0.017729533901116312
0.436000000000000276,-0.035710937896939757
0.437000000000000277,-0.088112452820136689
0.438000000000000278,-0.139484193507460219
0.439000000000000279,-0.189835473821339556
0.440000000000000280,-0.239175732023868715
0.441000000000000281,-0.287514524023092299
0.442000000000000282,-0.334861516694905770
0.443000000000000282,-0.381226481285412255
0.444000000000000283,-0.426619286898659689
0.445000000000000284,-0.471049894073889586
0.446000000000000285,-0.514528348456429696
0.447000000000000286,-0.557064774565904641
0.448000000000000287,-0.598669369665003059
0.449000000000000288,-0.639352397732054323
0.450000000000000289,-0.679124183540004589
0.451000000000000290,-0.717995106844409703
0.452000000000000290,-0.755975596682678330
0.453000000000000291,-0.793076125786438269
0.454000000000000292,-0.829307205108905543
0.455000000000000293,-0.864679378468652615
0.456000000000000294,-0.899203217311102643
0.457000000000000295,-0.932889315588859125
0.458000000000000296,-0.965748284761636100
0.459000000000000297,-0.997790748916588699
0.460000000000000298,-1.029027340009464719
0.461000000000000298,-1.059468693226917946
0.462000000000000299,-1.089125442470166183
0.463000000000000300,-1.118008215959939378
0.464000000000000301,-1.146127631962655657
0.465000000000000302,-1.173494294637457358
0.466000000000000303,-1.200118790003748881
0.467000000000000304,-1.226011682028692151
0.468000000000000305,-1.251183508833944247
0.469000000000000306,-1.275644779020937758
0.470000000000000306,-1.299405968113849008
0.471000000000000307,-1.322477515119166336
0.472000000000000308,-1.344869819200939176
0.473000000000000309,-1.366593236470530881
0.474000000000000310,-1.387658076889565661
0.475000000000000311,-1.408074601284933891
0.476000000000000312,-1.427853018474328328
0.477000000000000313,-1.447003482501081573
0.478000000000000314,-1.465536089976609446
0.479000000000000314,-1.483460877529133359
0.480000000000000315,-1.500787819356961261
0.481000000000000316,-1.517526824884795733
0.482000000000000317,-1.533687736521345268
0.483000000000000318,-1.549280327516607159
0.484000000000000319,-1.564314299917048512
0.485000000000000320,-1.578799282616930366
0.486000000000000321,-1.592744829504073367
0.487000000000000322,-1.606160417698181631
0.488000000000000322,-1.619055445879915567
0.489000000000000323,-1.631439232708974618
0.490000000000000324,-1.643321015329261003
0.491000000000000325,-1.654709947959308591
0.492000000000000326,-1.665615100566100182
0.493000000000000327,-1.676045457620502166
0.494000000000000328,-1.686009916932306396
0.495000000000000329,-1.695517288563204161
0.496000000000000330,-1.704576293815624144
0.497000000000000330,-1.713195564295874052
0.498000000000000331,-1.721383641049373026
0.499000000000000332,-1.729148973766496455
0.500000000000000333,-1.736499920057019919
0.501000000000000334,-1.743444744791315504
0.502000000000000335,-1.749991619506677365
0.503000000000000336,-1.756148621876807425
0.504000000000000337,-1.761923735242834299
0.505000000000000338,-1.767324848204005816
0.506000000000000338,-1.772359754266414456
0.507000000000000339,-1.777036151547979559
0.508000000000000340,-1.781361642537992562
0.509000000000000341,-1.785343733909649178
0.510000000000000342,-1.788989836383733545
0.511000000000000343,-1.792307264642049036
0.512000000000000344,-1.795303237288784715
0.513000000000000345,-1.797984876858357950
0.514000000000000346,-1.800359209868189314
0.515000000000000346,-1.802433166914759521
0.516000000000000347,-1.804213582811543093
0.517000000000000348,-1.805707196767335931
0.518000000000000349,-1.806920652603429600
0.519000000000000350,-1.807860499008332678
0.520000000000000351,-1.808533189828461563
0.521000000000000352,-1.808945084393660307
0.522000000000000353,-1.809102447875922781
0.523000000000000353,-1.809011451680218041
0.524000000000000354,-1.808678173866007155
0.525000000000000355,-1.808108599598198030
0.526000000000000356,-1.807308621626289025
0.527000000000000357,-1.806284040790522738
0.528000000000000358,-1.805040566553798298
0.529000000000000359,-1.803583817558238156
0.530000000000000360,-1.801919322205187246
0.531000000000000361,-1.800052519257640871
0.532000000000000361,-1.797988758463923586
0.533000000000000362,-1.795733301201607457
0.534000000000000363,-1.793291321140585426
0.535000000000000364,-1.790667904924403420
0.536000000000000365,-1.787868052868692104
0.537000000000000366,-1.784896679675928466
0.538000000000000367,-1.781758615165413229
0.539000000000000368,-1.778458605017743110
0.540000000000000369,-1.775001311532698356
0.541000000000000369,-1.771391314399884509
0.542000000000000370,-1.767633111481071051
0.543000000000000371,-1.763731119603645592
0.544000000000000372,-1.759689675364197514
0.545000000000000373,-1.755513035941595135
0.546000000000000374,-1.751205379918744143
0.547000000000000375,-1.746770808112303897
0.548000000000000376,-1.742213344409723419
0.549000000000000377,-1.737536936612822602
0.550000000000000377,-1.732745457287370838
0.551000000000000378,-1.727842704617881919
0.552000000000000379,-1.722832403267188228
0.553000000000000380,-1.717718205240020835
0.554000000000000381,-1.712503690750110108
0.555000000000000382,-1.707192369090301254
0.556000000000000383,-1.701787679504951356
0.557000000000000384,-1.696292992064353466
0.558000000000000385,-1.690711608540423017
0.559000000000000385,-1.685046763283349236
0.560000000000000386,-1.679301624098670676
0.561000000000000387,-1.673479293124302769
0.562000000000000388,-1.667582807707113091
0.563000000000000389,-1.661615141278652175
0.564000000000000390,-1.655579204229570944
0.565000000000000391,-1.649477844782391900
0.566000000000000392,-1.643313849862227283
0.567000000000000393,-1.637089945965157556
0.568000000000000393,-1.630808800023801464
0.569000000000000394,-1.624473020269864065
0.570000000000000395,-1.618085157093345217
0.571000000000000396,-1.611647703897968409
0.572000000000000397,-1.605163097952771123
0.573000000000000398,-1.598633721239357319
0.574000000000000399,-1.592061901294713921
0.575000000000000400,-1.585449912049241128
0.576000000000000401,-1.578799974659782501
0.577000000000000401,-1.572114258337518944
0.578000000000000402,-1.565394881170332653
0.579000000000000403,-1.558643910939581323
0.580000000000000404,-1.551863365931088534
0.581000000000000405,-1.545055215740023691
0.582000000000000406,-1.538221382069710597
0.583000000000000407,-1.531363739523985190
0.584000000000000408,-1.524484116393127309
0.585000000000000409,-1.517584295433116903
0.586000000000000409,-1.510666014638079480
0.587000000000000410,-1.503730968005899227
0.588000000000000411,-1.496780806296700073
0.589000000000000412,-1.489817137784294365
0.590000000000000413,-1.482841529000300751
0.591000000000000414,-1.475855505470972329
0.592000000000000415,-1.468860552446606516
0.593000000000000416,-1.461858115623408505
0.594000000000000417,-1.454849601857790331
0.595000000000000417,-1.447836379873089552
0.596000000000000418,-1.440819780958443319
0.597000000000000419,-1.433801099660058087
0.598000000000000420,-1.426781594464533676
0.599000000000000421,-1.419762488474442419
0.600000000000000422,-1.412744970075958451
0.601000000000000423,-1.405730193598567990
0.602000000000000424,-1.398719279966873286
0.603000000000000425,-1.391713317344414724
0.604000000000000425,-1.384713361769473350
0.605000000000000426,-1.377720437782931517
0.606000000000000427,-1.370735539048132612
0.607000000000000428,-1.363759628962659676
0.608000000000000429,-1.356793641262247219
0.609000000000000430,-1.349838480616548209
0.610000000000000431,-1.342895023217050010
0.611000000000000432,-1.335964117356924330
0.612000000000000433,-1.329046584002950837
0.613000000000000433,-1.322143217359527334
0.614000000000000434,-1.315254785424746276
0.615000000000000435,-1.308382030538583596
0.616000000000000436,-1.301525669923207840
0.617000000000000437,-1.294686396215550372
0.618000000000000438,-1.287864877992001666
0.619000000000000439,-1.281061760285366891
0.620000000000000440,-1.274277665094163181
0.621000000000000441,-1.267513191884190205
0.622000000000000441,-1.260768918082529222
0.623000000000000442,-1.254045399563906482
0.624000000000000443,-1.247343171129575490
0.625000000000000444,-1.240662746978717923
0.626000000000000445,-1.234004621172389404
0.627000000000000446,-1.227369268090127807
0.628000000000000447,-1.220757142879236090
0.629000000000000448,-1.214168681896804047
0.630000000000000449,-1.207604303144525604
0.631000000000000449,-1.201064406696403353
0.632000000000000450,-1.194549375119344337
0.633000000000000451,-1.188059573886789400
0.634000000000000452,-1.181595351785316605
0.635000000000000453,-1.175157041314454975
0.636000000000000454,-1.168744959079579537
0.637000000000000455,-1.162359406178151255
0.638000000000000456,-1.156000668579184820
0.639000000000000457,-1.149669017496148138
0.640000000000000457,-1.143364709753321495
0.641000000000000458,-1.137087988145618178
0.642000000000000459,-1.130839081792079703
0.643000000000000460,-1.124618206482956406
0.644000000000000461,-1.118425565020558565
0.645000000000000462,-1.112261347553920920
0.646000000000000463,-1.106125731907296572
0.647000000000000464,-1.100018883902638356
0.648000000000000465,-1.093940957676093451
0.649000000000000465,-1.087892095988565178
0.650000000000000466,-1.081872430530478324
0.651000000000000467,-1.075882082220723568
0.652000000000000468,-1.069921161499978624
0.653000000000000469,-1.063989768618335718
0.654000000000000470,-1.058087993917456338
0.655000000000000471,-1.052215918107205495
0.656000000000000472,-1.046373612536889874
0.657000000000000473,-1.040561139461170237
0.658000000000000473,-1.034778552300737342
0.659000000000000474,-1.029025895897766052
0.660000000000000475,-1.023303206766292162
0.661000000000000476,-1.017610513337504630
0.662000000000000477,-1.011947836200118411
0.663000000000000478,-1.006315188335793032
0.664000000000000479,-1.000712575349791411
0.665000000000000480,-0.995139995696773694
0.666000000000000481,-0.989597440902035053
0.667000000000000481,-0.984084895777984192
0.668000000000000482,-0.978602338636204605
0.669000000000000483,-0.973149741494919396
0.670000000000000484,-0.967727070282117241
0.671000000000000485,-0.962334285034299741
0.672000000000000486,-0.956971340090941758
0.673000000000000487,-0.951638184284785082
0.674000000000000488,-0.946334761127919144
0.675000000000000488,-0.941061008993819170
0.676000000000000489,-0.935816861295403646
0.677000000000000490,-0.930602246659045229
0.678000000000000491,-0.925417089094790923
0.679000000000000492,-0.920261308162707126
0.680000000000000493,-0.915134819135470345
0.681000000000000494,-0.910037533157278866
0.682000000000000495,-0.904969357399092345
0.683000000000000496,-0.899930195210340900
0.684000000000000496,-0.894919946267089594
0.685000000000000497,-0.889938506716739908
0.686000000000000498,-0.884985769319374560
0.687000000000000499,-0.880061623585722708
0.688000000000000500,-0.875165955911863080
0.689000000000000501,-0.870298649710710803
0.690000000000000502,-0.865459585540338416
0.691000000000000503,-0.860648641229187716
0.692000000000000504,-0.855865691998188183
0.693000000000000504,-0.851110610579973725
0.694000000000000505,-0.846383267335026446
0.695000000000000506,-0.841683530365049171
0.696000000000000507,-0.837011265623420764
0.697000000000000508,-0.832366337022888536
0.698000000000000509,-0.827748606540543497
0.699000000000000510,-0.823157934320085438
0.700000000000000511,-0.818594178771466674
0.701000000000000512,-0.814057196667959837
0.702000000000000512,-0.809546843240670055
0.703000000000000513,-0.805062972270576105
0.704000000000000514,-0.800605436178136509
0.705000000000000515,-0.796174086110482127
0.706000000000000516,-0.791768772026283818
0.707000000000000517,-0.787389342778325063
0.708000000000000518,-0.783035646193762203
0.709000000000000519,-0.778707529152287026
0.710000000000000520,-0.774404837661994971
0.711000000000000520,-0.770127416933219289
0.712000000000000521,-0.765875111450252999
0.713000000000000522,-0.761647765041009395
0.714000000000000523,-0.757445220944745534
0.715000000000000524,-0.753267321877754692
0.716000000000000525,-0.749113910097202074
0.717000000000000526,-0.744984827463061494
0.718000000000000527,-0.740879915498183106
0.719000000000000528,-0.736799015446604311
0.720000000000000528,-0.732741968330108628
0.721000000000000529,-0.728708615002979343
0.722000000000000530,-0.724698796205166751
0.723000000000000531,-0.720712352613706919
0.724000000000000532,-0.716749124892607448
0.725000000000000533,-0.712808953741096873
0.726000000000000534,-0.708891679940325981
0.727000000000000535,-0.704997144398581854
0.728000000000000536,-0.701125188195004467
0.729000000000000536,-0.697275652621837105
0.730000000000000537,-0.693448379225307887
0.731000000000000538,-0.689643209845060112
0.732000000000000539,-0.685859986652285647
0.733000000000000540,-0.682098552186501728
0.734000000000000541,-0.678358749391046900
0.735000000000000542,-0.674640421647280775
0.736000000000000543,-0.670943412807617934
0.737000000000000544,-0.667267567227262548
0.738000000000000544,-0.663612729794847200
0.739000000000000545,-0.659978745961859237
0.740000000000000546,-0.656365461770972436
0.741000000000000547,-0.652772723883252914
0.742000000000000548,-0.649200379604364164
0.743000000000000549,-0.645648276909602248
0.744000000000000550,-0.642116264468019504
0.745000000000000551,-0.638604191665490650
0.746000000000000552,-0.635111908626835975
0.747000000000000552,-0.631639266236979857
0.748000000000000553,-0.628186116161169039
0.749000000000000554,-0.624752310864313154
0.750000000000000555,-0.621337703629435079
0.751000000000000556,-0.617942148575247874
0.752000000000000557,-0.614565500672936360
0.753000000000000558,-0.611207615762036638
0.754000000000000559,-0.607868350565630711
0.755000000000000560,-0.604547562704675356
0.756000000000000560,-0.601245110711638331
0.757000000000000561,-0.597960854043336654
0.758000000000000562,-0.594694653093107872
0.759000000000000563,-0.591446369202276112
0.760000000000000564,-0.588215864670927013
0.761000000000000565,-0.585003002768012870
0.762000000000000566,-0.581807647740846035
0.763000000000000567,-0.578629664823931078
0.764000000000000568,-0.575468920247201088
0.765000000000000568,-0.572325281243694084
0.766000000000000569,-0.569198616056586615
0.767000000000000570,-0.566088793945741964
0.768000000000000571,-0.562995685193644513
0.769000000000000572,-0.559919161110858710
0.770000000000000573,-0.556859094040947911
0.771000000000000574,-0.553815357364908611
0.772000000000000575,-0.550787825505109851
0.773000000000000576,-0.547776373928758220
0.774000000000000576,-0.544780879150922992
0.775000000000000577,-0.541801218737108625
0.776000000000000578,-0.538837271305393162
0.777000000000000579,-0.535888916528169390
0.778000000000000580,-0.532956035133452688
0.779000000000000581,-0.530038508905824934
0.780000000000000582,-0.527136220686980406
0.781000000000000583,-0.524249054375926504
0.782000000000000584,-0.521376894928802348
0.783000000000000584,-0.518519628358362739
0.784000000000000585,-0.515677141733156486
0.785000000000000586,-0.512849323176321814
0.786000000000000587,-0.510036061864146406
0.787000000000000588,-0.507237248024260179
0.788000000000000589,-0.504452772933567717
0.789000000000000590,-0.501682528915915027
0.790000000000000591,-0.498926409339446875
0.791000000000000592,-0.496184308613732916
0.792000000000000592,-0.493456122186630874
0.793000000000000593,-0.490741746540897084
0.794000000000000594,-0.488041079190588423
0.795000000000000595,-0.485354018677217891
0.796000000000000596,-0.482680464565684808
0.797000000000000597,-0.480020317440026989
0.798000000000000598,-0.477373478898948711
0.799000000000000599,-0.474739851551146064
0.800000000000000600,-0.472119339010493300
0.801000000000000600,-0.469511845890991597
0.802000000000000601,-0.466917277801584152
0.803000000000000602,-0.464335541340805957
0.804000000000000603,-0.461766544091260278
0.805000000000000604,-0.459210194613977385
0.806000000000000605,-0.456666402442572061
0.807000000000000606,-0.454135078077334220
0.808000000000000607,-0.451616132979140328
0.809000000000000608,-0.449109479563255032
0.810000000000000608,-0.446615031193044132
0.811000000000000609,-0.444132702173485439
0.812000000000000610,-0.441662407744715491
0.813000000000000611,-0.439204064075323586
0.814000000000000612,-0.436757588255654916
0.815000000000000613,-0.434322898290998793
0.816000000000000614,-0.431899913094655641
0.817000000000000615,-0.429488552480960462
0.818000000000000616,-0.427088737158230369
0.819000000000000616,-0.424700388721620414
0.820000000000000617,-0.422323429645917514
0.821000000000000618,-0.419957783278289920
0.822000000000000619,-0.417603373830976454
0.823000000000000620,-0.415260126373896199
0.824000000000000621,-0.412927966827226434
0.825000000000000622,-0.410606821953952206
0.826000000000000623,-0.408296619352354173
0.827000000000000624,-0.405997287448450539
0.828000000000000624,-0.403708755488437876
0.829000000000000625,-0.401430953531056733
0.830000000000000626,-0.399163812439975563
0.831000000000000627,-0.396907263876126237
0.832000000000000628,-0.394661240290022253
0.833000000000000629,-0.392425674914060274
0.834000000000000630,-0.390200501754811302
0.835000000000000631,-0.387985655585294631
0.836000000000000631,-0.385781071937246978
0.837000000000000632,-0.383586687093402268
0.838000000000000633,-0.381402438079728068
0.839000000000000634,-0.379228262657699489
0.840000000000000635,-0.377064099316568091
0.841000000000000636,-0.374909887265618524
0.842000000000000637,-0.372765566426454198
0.843000000000000638,-0.370631077425277844
0.844000000000000639,-0.368506361585186348
0.845000000000000639,-0.366391360918492892
0.846000000000000640,-0.364286018119027333
0.847000000000000641,-0.362190276554522295
0.848000000000000642,-0.360104080258939363
0.849000000000000643,-0.358027373924866721
0.850000000000000644,-0.355960102895950870
0.851000000000000645,-0.353902213159302592
0.852000000000000646,-0.351853651337970419
0.853000000000000647,-0.349814364683440460
0.854000000000000647,-0.347784301068142010
0.855000000000000648,-0.345763408978004949
0.856000000000000649,-0.343751637505056051
0.857000000000000650,-0.341748936340028731
0.858000000000000651,-0.339755255765015973
0.859000000000000652,-0.337770546646167180
0.860000000000000653,-0.335794760426434358
0.861000000000000654,-0.333827849118307818
0.862000000000000655,-0.331869765296666397
0.863000000000000655,-0.329920462091598587
0.864000000000000656,-0.327979893181323034
0.865000000000000657,-0.326048012785100649
0.866000000000000658,-0.324124775656238429
0.867000000000000659,-0.322210137075123804
0.868000000000000660,-0.320304052842274811
0.869000000000000661,-0.318406479271476472
0.870000000000000662,-0.316517373182948591
0.871000000000000663,-0.314636691896583109
0.872000000000000663,-0.312764393225170578
0.873000000000000664,-0.310900435467758640
0.874000000000000665,-0.309044777402993132
0.875000000000000666,-0.307197378282559386
0.876000000000000667,-0.305358197824630306
0.877000000000000668,-0.303527196207404981
0.878000000000000669,-0.301704334062687263
0.879000000000000670,-0.299889572469497268
0.880000000000000671,-0.298082872947776079
0.881000000000000671,-0.296284197452096387
0.882000000000000672,-0.294493508365482382
0.883000000000000673,-0.292710768493227802
0.884000000000000674,-0.290935941056817637
0.885000000000000675,-0.289168989687868860
0.886000000000000676,-0.287409878422148268
0.887000000000000677,-0.285658571693638730
0.888000000000000678,-0.283915034328652061
0.889000000000000679,-0.282179231540021336
0.890000000000000679,-0.280451128921327397
0.891000000000000680,-0.278730692441190420
0.892000000000000681,-0.277017888437619653
0.893000000000000682,-0.275312683612412901
0.894000000000000683,-0.273615045025616621
0.895000000000000684,-0.271924940090047806
0.896000000000000685,-0.270242336565867047
0.897000000000000686,-0.268567202555199280
0.898000000000000687,-0.266899506496835526
0.899000000000000687,-0.265239217160963381
0.900000000000000688,-0.263586303643975284
0.901000000000000689,-0.261940735363317634
0.902000000000000690,-0.260302482052413797
0.903000000000000691,-0.258671513755625804
0.904000000000000692,-0.257047800823283379
0.905000000000000693,-0.255431313906760715
0.906000000000000694,-0.253822023953628406
0.907000000000000695,-0.252219902202827861
0.908000000000000695,-0.250624920179935096
0.909000000000000696,-0.249037049692456547
0.910000000000000697,-0.247456262825202833
0.911000000000000698,-0.245882531935686405
0.912000000000000699,-0.244315829649604993
0.913000000000000700,-0.242756128856370962
0.914000000000000701,-0.241203402704668612
0.915000000000000702,-0.239657624598115904
0.916000000000000703,-0.238118768190934610
0.917000000000000703,-0.236586807383697778
0.918000000000000704,-0.235061716319131808
0.919000000000000705,-0.233543469377946955
0.920000000000000706,-0.232032041174764364
0.921000000000000707,-0.230527406554048853
0.922000000000000708,-0.229029540586120628
0.923000000000000709,-0.227538418563232925
0.924000000000000710,-0.226054015995651447
0.925000000000000711,-0.224576308607845249
0.926000000000000711,-0.223105272334679500
0.927000000000000712,-0.221640883317693549
0.928000000000000713,-0.220183117901398356
0.929000000000000714,-0.218731952629675680
0.930000000000000715,-0.217287364242152448
0.931000000000000716,-0.215849329670683321
0.932000000000000717,-0.214417826035870840
0.933000000000000718,-0.212992830643614628
0.934000000000000719,-0.211574320981728514
0.935000000000000719,-0.210162274716601732
0.936000000000000720,-0.208756669689894286
0.937000000000000721,-0.207357483915296875
0.938000000000000722,-0.205964695575340390
0.939000000000000723,-0.204578283018224644
0.940000000000000724,-0.203198224754720463
0.941000000000000725,-0.201824499455110329
0.942000000000000726,-0.200457085946175395
0.943000000000000727,-0.199095963208210602
0.944000000000000727,-0.197741110372113227
0.945000000000000728,-0.196392506716497467
0.946000000000000729,-0.195050131664844584
0.947000000000000730,-0.193713964782731146
0.948000000000000731,-0.192383985775047922
0.949000000000000732,-0.191060174483319301
0.950000000000000733,-0.189742510883011417
0.951000000000000734,-0.188430975080930957
0.952000000000000735,-0.187125547312630813
0.953000000000000735,-0.185826207939853327
0.954000000000000736,-0.184532937448052575
0.955000000000000737,-0.183245716443916573
0.956000000000000738,-0.181964525652953790
0.957000000000000739,-0.180689345917105670
0.958000000000000740,-0.179420158192410112
0.959000000000000741,-0.178156943546680296
0.960000000000000742,-0.176899683157262733
0.961000000000000743,-0.175648358308792413
0.962000000000000743,-0.174402950390996514
0.963000000000000744,-0.173163440896556470
0.964000000000000745,-0.171929811418984863
0.965000000000000746,-0.170702043650533375
0.966000000000000747,-0.169480119380162636
0.967000000000000748,-0.168264020491519395
0.968000000000000749,-0.167053728960975423
0.969000000000000750,-0.165849226855669246
0.970000000000000751,-0.164650496331622487
0.971000000000000751,-0.163457519631849346
0.972000000000000752,-0.162270279084513774
0.973000000000000753,-0.161088757101153862
0.974000000000000754,-0.159912936174877507
0.975000000000000755,-0.158742798878637820
0.976000000000000756,-0.157578327863520495
0.977000000000000757,-0.156419505857063018
0.978000000000000758,-0.155266315661617083
0.979000000000000759,-0.154118740152732664
0.980000000000000759,-0.152976762277562489
0.981000000000000760,-0.151840365053319354
0.982000000000000761,-0.150709531565752564
0.983000000000000762,-0.149584244967643831
0.984000000000000763,-0.148464488477338535
0.985000000000000764,-0.147350245377325578
0.986000000000000765,-0.146241499012809750
0.987000000000000766,-0.145138232790336497
0.988000000000000766,-0.144040430176435696
0.989000000000000767,-0.142948074696297778
0.990000000000000768,-0.141861149932482056
0.991000000000000769,-0.140779639523618882
0.992000000000000770,-0.139703527163177021
0.993000000000000771,-0.138632796598255115
0.994000000000000772,-0.137567431628352360
0.995000000000000773,-0.136507416104228146
0.996000000000000774,-0.135452733926737179
0.997000000000000774,-0.134403369045713483
0.998000000000000775,-0.133359305458871147
0.999000000000000776,-0.132320527210728983
1.000000000000000666,-0.131287018391559651
1.001000000000000778,-0.130258763136363837
1.002000000000000668,-0.129235745623862475
1.003000000000000780,-0.128217950075511483
1.004000000000000670,-0.127205360754544528
1.005000000000000782,-0.126197961965032801
1.006000000000000671,-0.125195738050974004
1.007000000000000783,-0.124198673395380557
1.008000000000000673,-0.123206752419418836
1.009000000000000785,-0.122219959581545745
1.010000000000000675,-0.121238279376678595
1.011000000000000787,-0.120261696335377061
1.012000000000000677,-0.119290195023049203
1.013000000000000789,-0.118323760039181020
1.014000000000000679,-0.117362376016563338
1.015000000000000790,-0.116406027620575434
1.016000000000000680,-0.115454699548452597
1.017000000000000792,-0.114508376528592221
1.018000000000000682,-0.113567043319852790
1.019000000000000794,-0.112630684710911685
1.020000000000000684,-0.111699285519610253
1.021000000000000796,-0.110772830592310384
1.022000000000000686,-0.109851304803293817
1.023000000000000798,-0.108934693054159884
1.024000000000000687,-0.108022980273239672
1.025000000000000799,-0.107116151415036859
1.026000000000000689,-0.106214191459680765
1.027000000000000801,-0.105317085412381564
1.028000000000000691,-0.104424818302919012
1.029000000000000803,-0.103537375185140251
1.030000000000000693,-0.102654741136459254
1.031000000000000805,-0.101776901257402658
1.032000000000000695,-0.100903840671130007
1.033000000000000806,-0.100035544522994041
1.034000000000000696,-0.099171997980118415
1.035000000000000808,-0.098313186230961885
1.036000000000000698,-0.097459094484917977
1.037000000000000810,-0.096609707971940739
1.038000000000000700,-0.095765011942140141
1.039000000000000812,-0.094924991665421232
1.040000000000000702,-0.094089632431146653
1.041000000000000814,-0.093258919547775362
1.042000000000000703,-0.092432838342537169
1.043000000000000815,-0.091611374161120265
1.044000000000000705,-0.090794512367364771
1.045000000000000817,-0.089982238342951326
1.046000000000000707,-0.089174537487140701
1.047000000000000819,-0.088371395216484516
1.048000000000000709,-0.087572796964569544
1.049000000000000821,-0.086778728181760648
1.050000000000000711,-0.085989174334961185
1.051000000000000822,-0.085204120907387285
1.052000000000000712,-0.084423553398334433
1.053000000000000824,-0.083647457322980540
1.054000000000000714,-0.082875818212170230
1.055000000000000826,-0.082108621612230676
1.056000000000000716,-0.081345853084786396
1.057000000000000828,-0.080587498206585909
1.058000000000000718,-0.079833542569328578
1.059000000000000830,-0.079083971779518022
1.060000000000000719,-0.078338771458307144
1.061000000000000831,-0.077597927241365730
1.062000000000000721,-0.076861424778731646
1.063000000000000833,-0.076129249734714910
1.064000000000000723,-0.075401387787753765
1.065000000000000835,-0.074677824630320841
1.066000000000000725,-0.073958545968827089
1.067000000000000837,-0.073243537523504126
1.068000000000000727,-0.072532785028356708
1.069000000000000838,-0.071826274231045373
1.070000000000000728,-0.071123990892838579
1.071000000000000840,-0.070425920788536628
1.072000000000000730,-0.069732049706419372
1.073000000000000842,-0.069042363448192340
1.074000000000000732,-0.068356847828926412
1.075000000000000844,-0.067675488677040110
1.076000000000000734,-0.066998271834258202
1.077000000000000846,-0.066325183155572384
1.078000000000000735,-0.065656208509236466
1.079000000000000847,-0.064991333776728277
1.080000000000000737,-0.064330544852770122
1.081000000000000849,-0.063673827645291309
1.082000000000000739,-0.063021168075442197
1.083000000000000851,-0.062372552077599230
1.084000000000000741,-0.061727965599376836
1.085000000000000853,-0.061087394601630651
1.086000000000000743,-0.060450825058484300
1.087000000000000854,-0.059818242957359491
1.088000000000000744,-0.059189634298994799
1.089000000000000856,-0.058564985097477394
1.090000000000000746,-0.057944281380284846
1.091000000000000858,-0.057327509188331606
1.092000000000000748,-0.056714654575998502
1.093000000000000860,-0.056105703611202172
1.094000000000000750,-0.055500642375422862
1.095000000000000862,-0.054899456963789374
1.096000000000000751,-0.054302133485122181
1.097000000000000863,-0.053708658061991169
1.098000000000000753,-0.053119016830804132
1.099000000000000865,-0.052533195941863273
1.100000000000000755,-0.051951181559436087
1.101000000000000867,-0.051372959861842447
1.102000000000000757,-0.050798517041529836
1.103000000000000869,-0.050227839305157465
1.104000000000000759,-0.049660912873675696
1.105000000000000870,-0.049097723982429613
1.106000000000000760,-0.048538258881226849
1.107000000000000872,-0.047982503834459046
1.108000000000000762,-0.047430445121176494
1.109000000000000874,-0.046882069035204164
1.110000000000000764,-0.046337361885225220
1.111000000000000876,-0.045796309994890670
1.112000000000000766,-0.045258899702936242
1.113000000000000878,-0.044725117363275210
1.114000000000000767,-0.044194949345119583
1.115000000000000879,-0.043668382033079142
1.116000000000000769,-0.043145401827286267
1.117000000000000881,-0.042625995143503334
1.118000000000000771,-0.042110148413247325
1.119000000000000883,-0.041597848083903440
1.120000000000000773,-0.041089080618846398
1.121000000000000885,-0.040583832497565364
1.122000000000000774,-0.040082090215776370
1.123000000000000886,-0.039583840285559210
1.124000000000000776,-0.039089069235486017
1.125000000000000888,-0.038597763610728142
1.126000000000000778,-0.038109909973202509
1.127000000000000890,-0.037625494901706538
1.128000000000000780,-0.037144504992023770
1.129000000000000892,-0.036666926857079382
1.130000000000000782,-0.036192747127064176
1.131000000000000894,-0.035721952449561153
1.132000000000000783,-0.035254529489690260
1.133000000000000895,-0.034790464930245124
1.134000000000000785,-0.034329745471810710
1.135000000000000897,-0.033872357832925304
1.136000000000000787,-0.033418288750196402
1.137000000000000899,-0.032967524978451276
1.138000000000000789,-0.032520053290864555
1.139000000000000901,-0.032075860479114864
1.140000000000000790,-0.031634933353505645
1.141000000000000902,-0.031197258743106970
1.142000000000000792,-0.030762823495906165
1.143000000000000904,-0.030331614478936664
1.144000000000000794,-0.029903618578436326
1.145000000000000906,-0.029478822699955175
1.146000000000000796,-0.029057213768533607
1.147000000000000908,-0.028638778728819602
1.148000000000000798,-0.028223504545215033
1.149000000000000909,-0.027811378202023996
1.150000000000000799,-0.027402386703577825
1.151000000000000689,-0.026996517074393635
1.152000000000000801,-0.026593756359304534
1.153000000000000913,-0.026194091623612071
1.154000000000000803,-0.025797509953208543
1.155000000000000693,-0.025403998454729050
1.156000000000000805,-0.025013544255701188
1.157000000000000917,-0.024626134504658174
1.158000000000000806,-0.024241756371310045
1.159000000000000696,-0.023860397046661104
1.160000000000000808,-0.023482043743154830
1.161000000000000920,-0.023106683694815989
1.162000000000000810,-0.022734304157391548
1.163000000000000700,-0.022364892408480767
1.164000000000000812,-0.021998435747676525
1.165000000000000924,-0.021634921496697625
1.166000000000000814,-0.021274336999541441
1.167000000000000703,-0.020916669622595509
1.168000000000000815,-0.020561906754799564
1.169000000000000927,-0.020210035807753681
1.170000000000000817,-0.019861044215875236
1.171000000000000707,-0.019514919436515211
1.172000000000000819,-0.019171648950108429
1.173000000000000931,-0.018831220260289404
1.174000000000000821,-0.018493620894031542
1.175000000000000711,-0.018158838401779617
1.176000000000000822,-0.017826860357578189
1.177000000000000934,-0.017497674359197180
1.178000000000000824,-0.017171268028271514
1.179000000000000714,-0.016847629010408739
1.180000000000000826,-0.016526744975343129
1.181000000000000938,-0.016208603617033461
1.182000000000000828,-0.015893192653808369
1.183000000000000718,-0.015580499828490080
1.184000000000000830,-0.015270512908506183
1.185000000000000941,-0.014963219686014339
1.186000000000000831,-0.014658607978037993
1.187000000000000721,-0.014356665626568140
1.188000000000000833,-0.014057380498696467
1.189000000000000945,-0.013760740486729945
1.190000000000000835,-0.013466733508312257
1.191000000000000725,-0.013175347506524809
1.192000000000000837,-0.012886570450031965
1.193000000000000949,-0.012600390333164842
1.194000000000000838,-0.012316795176057077
1.195000000000000728,-0.012035773024745797
1.196000000000000840,-0.011757311951285182
1.197000000000000952,-0.011481400053869937
1.198000000000000842,-0.011208025456919971
1.199000000000000732,-0.010937176311219843
1.200000000000000844,-0.010668840793990563
1.201000000000000956,-0.010403007109028962
1.202000000000000846,-0.010139663486797387
1.203000000000000735,-0.009878798184523831
1.204000000000000847,-0.009620399486310228
1.205000000000000959,-0.009364455703244229
1.206000000000000849,-0.009110955173482886
1.207000000000000739,-0.008859886262358185
1.208000000000000851,-0.008611237362483336
1.209000000000000963,-0.008364996893836654
1.210000000000000853,-0.008121153303874581
1.211000000000000743,-0.007879695067606041
1.212000000000000854,-0.007640610687707450
1.213000000000000966,-0.007403888694590993
1.214000000000000856,-0.007169517646528542
1.215000000000000746,-0.006937486129706949
1.216000000000000858,-0.006707782758344635
1.217000000000000970,-0.006480396174762521
1.218000000000000860,-0.006255315049477528
1.219000000000000750,-0.006032528081286345
1.220000000000000862,-0.005812023997354934
1.221000000000000973,-0.005593791553289995
1.222000000000000863,-0.005377819533235411
1.223000000000000753,-0.005164096749937075
1.224000000000000865,-0.004952612044836139
1.225000000000000977,-0.004743354288139050
1.226000000000000867,-0.004536312378900613
1.227000000000000757,-0.004331475245091612
1.228000000000000869,-0.004128831843675645
1.229000000000000981,-0.003928371160696037
1.230000000000000870,-0.003730082211321936
1.231000000000000760,-0.003533954039939111
1.232000000000000872,-0.003339975720226288
1.233000000000000984,-0.003148136355187456
1.234000000000000874,-0.002958425077264117
1.235000000000000764,-0.002770831048370260
1.236000000000000876,-0.002585343459969129
1.237000000000000988,-0.002401951533132368
1.238000000000000878,-0.002220644518610575
1.239000000000000767,-0.002041411696881820
1.240000000000000879,-0.001864242378221154
1.241000000000000991,-0.001689125902757595
1.242000000000000881,-0.001516051640526689
1.243000000000000771,-0.001345008991533042
1.244000000000000883,-0.001175987385799858
1.245000000000000995,-0.001008976283429691
1.246000000000000885,-0.000843965174650840
1.247000000000000774,-0.000680943579868177
1.248000000000000886,-0.000519901049719668
1.249000000000000998,-0.000360827165117920
1.250000000000000888,-0.000203711537307280
1.251000000000000778,-0.000048543807898034
1.252000000000000890,0.000104686351072988
1.253000000000001002,0.000255989237115849
1.254000000000000892,0.000405375117225917
1.255000000000000782,0.000552854227856660
1.256000000000000894,0.000698436774873336
1.257000000000001005,0.000842132933510387
1.258000000000000895,0.000983952848336600
1.259000000000000785,0.001123906633219561
1.260000000000000897,0.001262004371285735
1.261000000000001009,0.001398256114884910
1.262000000000000899,0.001532671885562941
1.263000000000000789,0.001665261674022619
1.264000000000000901,0.001796035440091894
1.265000000000001013,0.001925003112701322
1.266000000000000902,0.002052174589842787
1.267000000000000792,0.002177559738556014
1.268000000000000904,0.002301168394887113
1.269000000000001016,0.002423010363871812
1.270000000000000906,0.002543095419506115
1.271000000000000796,0.002661433304726805
1.272000000000000908,0.002778033731387199
1.273000000000001020,0.002892906380231802
1.274000000000000909,0.003006060900880839
1.275000000000000799,0.003117506911813703
1.276000000000000911,0.003227254000338226
1.277000000000001023,0.003335311722587465
1.278000000000000913,0.003441689603500274
1.279000000000000803,0.003546397136796505
1.280000000000000915,0.003649443784970815
1.281000000000001027,0.003750838979288609
1.282000000000000917,0.003850592119754850
1.283000000000000806,0.003948712575120857
1.284000000000000918,0.004045209682858446
1.285000000000001030,0.004140092749167791
1.286000000000000920,0.004233371048955709
1.287000000000000810,0.004325053825839312
1.288000000000000922,0.004415150292129555
1.289000000000001034,0.004503669628836927
1.290000000000000924,0.004590620985665970
1.291000000000000814,0.004676013480998879
1.292000000000000925,0.004759856201921727
1.293000000000001037,0.004842158204188170
1.294000000000000927,0.004922928512245774
1.295000000000000817,0.005002176119236272
1.296000000000000929,0.005079909986977908
1.297000000000001041,0.005156139045990842
1.298000000000000931,0.005230872195486942
1.299000000000000821,0.005304118303375951
1.300000000000000933,0.005375886206283018
1.301000000000001044,0.005446184709540789
1.302000000000000934,0.005515022587204326
1.303000000000000824,0.005582408582054417
1.304000000000000936,0.005648351405621504
1.305000000000001048,0.005712859738173969
1.306000000000000938,0.005775942228748063
1.307000000000000828,0.005837607495148125
1.308000000000000940,0.005897864123970997
1.309000000000001052,0.005956720670603733
1.310000000000000941,0.006014185659256560
1.311000000000000831,0.006070267582961318
1.312000000000000943,0.006124974903606736
1.313000000000001055,0.006178316051932647
1.314000000000000945,0.006230299427568886
1.315000000000000835,0.006280933399044906
1.316000000000000947,0.006330226303807298
1.317000000000001059,0.006378186448242093
1.318000000000000949,0.006424822107708253
1.319000000000000838,0.006470141526531420
1.320000000000000950,0.006514152918057495
1.321000000000001062,0.006556864464660686
1.322000000000000952,0.006598284317762955
1.323000000000000842,0.006638420597878657
1.324000000000000954,0.006677281394618574
1.325000000000001066,0.006714874766733601
1.326000000000000956,0.006751208742130641
1.327000000000000846,0.006786291317907332
1.328000000000000957,0.006820130460377846
1.329000000000001069,0.006852734105109099
1.330000000000000959,0.006884110156938297
1.331000000000000849,0.006914266490013703
1.332000000000000961,0.006943210947831647
1.333000000000001073,0.006970951343257728
1.334000000000000963,0.006997495458561684
1.335000000000000853,0.007022851045456380
1.336000000000000965,0.007047025825132130
1.337000000000001076,0.007070027488285541
1.338000000000000966,0.007091863695165276
1.339000000000000856,0.007112542075597797
1.340000000000000968,0.007132070229033782
1.341000000000001080,0.007150455724583228
1.342000000000000970,0.007167706101051793
1.343000000000000860,0.007183828866977954
1.344000000000000972,0.007198831500684866
1.345000000000001084,0.007212721450302428
1.346000000000000973,0.007225506133825041
1.347000000000000863,0.007237192939141041
1.348000000000000975,0.007247789224086376
1.349000000000001087,0.007257302316480363
1.350000000000000977,0.007265739514164674
1.351000000000000867,0.007273108085052089
1.352000000000000979,0.007279415267186141
1.353000000000001091,0.007284668268754869
1.354000000000000981,0.007288874268160261
1.355000000000000870,0.007292040414061540
1.356000000000000982,0.007294173825413269
1.357000000000001094,0.007295281591518541
1.358000000000000984,0.007295370772076934
1.359000000000000874,0.007294448397232532
1.360000000000000986,0.007292521467626034
1.361000000000001098,0.007289596954429514
1.362000000000000988,0.007285681799419783
1.363000000000000878,0.007280782915012757
1.364000000000000989,0.007274907184309266
1.365000000000001101,0.007268061461171813
1.366000000000000991,0.007260252570249366
1.367000000000000881,0.007251487307041909
1.368000000000000993,0.007241772437953630
1.369000000000001105,0.007231114700344707
1.370000000000000995,0.007219520802585470
1.371000000000000885,0.007206997424109475
1.372000000000000997,0.007193551215470976
1.373000000000001108,0.007179188798392927
1.374000000000000998,0.007163916765838628
1.375000000000000888,0.007147741682046407
1.376000000000001000,0.007130670082599050
1.377000000000001112,0.007112708474485402
1.378000000000001002,0.007093863336142164
1.379000000000000892,0.007074141117524385
1.380000000000001004,0.007053548240161574
1.381000000000001116,0.007032091097205748
1.382000000000001005,0.007009776053505845
1.383000000000000895,0.006986609445659478
1.384000000000001007,0.006962597582068808
1.385000000000001119,0.006937746743008630
1.386000000000001009,0.006912063180675795
1.387000000000000899,0.006885553119271677
1.388000000000001011,0.006858222755027904
1.389000000000001123,0.006830078256304553
1.390000000000001013,0.006801125763629864
1.391000000000000902,0.006771371389767975
1.392000000000001014,0.006740821219785068
1.393000000000001126,0.006709481311106327
1.394000000000001016,0.006677357693578795
1.395000000000000906,0.006644456369542940
1.396000000000001018,0.006610783313889227
1.397000000000001130,0.006576344474124642
1.398000000000001020,0.006541145770433594
1.399000000000000909,0.006505193095749604
1.400000000000001021,0.006468492315815319
1.401000000000001133,0.006431049269244203
1.402000000000001023,0.006392869767596748
1.403000000000000913,0.006353959595440897
1.404000000000001025,0.006314324510408800
1.405000000000001137,0.006273970243280946
1.406000000000001027,0.006232902498040471
1.407000000000000917,0.006191126951938431
1.408000000000001029,0.006148649255573094
1.409000000000001140,0.006105475032946586
1.410000000000001030,0.006061609881533797
1.411000000000000920,0.006017059372356371
1.412000000000001032,0.005971829050045010
1.413000000000001144,0.005925924432906980
1.414000000000001034,0.005879351013001114
1.415000000000000924,0.005832114256205632
1.416000000000001036,0.005784219602272449
1.417000000000001148,0.005735672464916200
1.418000000000001037,0.005686478231877595
1.419000000000000927,0.005636642264987804
1.420000000000001039,0.005586169900241274
1.421000000000001151,0.005535066447863886
1.422000000000001041,0.005483337192392179
1.423000000000000931,0.005430987392729914
1.424000000000001043,0.005378022282225460
1.425000000000001155,0.005324447068748919
1.426000000000001044,0.005270266934749944
1.427000000000000934,0.005215487037338301
1.428000000000001046,0.005160112508349485
1.429000000000001158,0.005104148454425710
1.430000000000001048,0.005047599957071658
1.431000000000000938,0.004990472072743024
1.432000000000001050,0.004932769832905670
1.433000000000001162,0.004874498244111174
1.434000000000001052,0.004815662288077232
1.435000000000000941,0.004756266921742356
1.436000000000001053,0.004696317077359291
1.437000000000001165,0.004635817662552569
1.438000000000001055,0.004574773560391822
1.439000000000000945,0.004513189629473261
1.440000000000001057,0.004451070703984697
1.441000000000001169,0.004388421593784943
1.442000000000001059,0.004325247084468997
1.443000000000000949,0.004261551937448036
1.444000000000001060,0.004197340890020397
1.445000000000001172,0.004132618655445316
1.446000000000001062,0.004067389923011708
1.447000000000000952,0.004001659358120825
1.448000000000001064,0.003935431602354184
1.449000000000001176,0.003868711273542615
1.450000000000001066,0.003801502965853597
1.451000000000000956,0.003733811249853186
1.452000000000001068,0.003665640672583875
1.453000000000001180,0.003596995757637007
1.454000000000001069,0.003527881005235162
1.455000000000000959,0.003458300892291846
1.456000000000001071,0.003388259872497801
1.457000000000001183,0.003317762376390031
1.458000000000001073,0.003246812811425803
1.459000000000000963,0.003175415562062404
1.460000000000001075,0.003103574989823523
1.461000000000001187,0.003031295433380218
1.462000000000001076,0.002958581208619889
1.463000000000000966,0.002885436608727333
1.464000000000001078,0.002811865904254270
1.465000000000001190,0.002737873343195362
1.466000000000001080,0.002663463151061722
1.467000000000000970,0.002588639530960035
1.468000000000001082,0.002513406663658898
1.469000000000001194,0.002437768707676908
1.470000000000001084,0.002361729799341176
1.471000000000000973,0.002285294052875365
1.472000000000001085,0.002208465560461553
1.473000000000001197,0.002131248392333587
1.474000000000001087,0.002053646596829153
1.475000000000000977,0.001975664200485266
1.476000000000001089,0.001897305208099526
1.477000000000001201,0.001818573602806974
1.478000000000001091,0.001739473346161578
1.479000000000000981,0.001660008378205181
1.480000000000001092,0.001580182617541168
1.481000000000001204,0.001499999961414769
1.482000000000001094,0.001419464285781196
1.483000000000000984,0.001338579445381402
1.484000000000001096,0.001257349273826527
1.485000000000001208,0.001175777583659433
1.486000000000001098,0.001093868166433093
1.487000000000000988,0.001011624792791160
1.488000000000001100,0.000929051212536734
1.489000000000001211,0.000846151154705142
1.490000000000001101,0.000762928327643449
1.491000000000000991,0.000679386419083682
1.492000000000001103,0.000595529096216709
1.493000000000001215,0.000511360005759700
1.494000000000001105,0.000426882774047291
1.495000000000000995,0.000342101007089286
1.496000000000001107,0.000257018290650676
1.497000000000001219,0.000171638190326526
1.498000000000001108,0.000085964251617039
1.499000000000000998,0.000000000000000000
