# ZnO1m210NBDry_BGLC-JS
# h[nm],U(h)[kJ/mol]
0.149999999999999994,191.982704698775791030
0.150999999999999995,189.157705807107220153
0.151999999999999996,186.531568690324291993
0.152999999999999997,183.951203209387244897
0.153999999999999998,181.361487913510103454
0.154999999999999999,178.754609267238322445
0.156000000000000000,176.141826498901025388
0.157000000000000001,173.538840856639950516
0.158000000000000002,170.959116223994953998
0.159000000000000002,168.411605398111504428
0.160000000000000003,165.900719438983088594
0.161000000000000004,163.427270452145563695
0.162000000000000005,160.989682829370025274
0.163000000000000006,158.585115489688377011
0.164000000000000007,156.210343748118930307
0.165000000000000008,153.862365174638966892
0.166000000000000009,151.538753263463490839
0.167000000000000010,149.237808321161367076
0.168000000000000010,146.958561181813536223
0.169000000000000011,144.700681314630429597
0.170000000000000012,142.464332207074534153
0.171000000000000013,140.250006869962703604
0.172000000000000014,138.058366720046365117
0.173000000000000015,135.890098822534412193
0.174000000000000016,133.745799835260953614
0.175000000000000017,131.625889984393182885
0.176000000000000018,129.530556850567137417
0.177000000000000018,127.459726415506494845
0.178000000000000019,125.413057459089031909
0.179000000000000020,123.389954767914602485
0.180000000000000021,121.389596511926782796
0.181000000000000022,119.410971394792838396
0.182000000000000023,117.452921651535717729
0.183000000000000024,115.514188550739845596
0.184000000000000025,113.593457683741235087
0.185000000000000026,111.689401937650970353
0.186000000000000026,109.800720619045591775
0.187000000000000027,107.926173700801797395
0.188000000000000028,106.064610596242374640
0.189000000000000029,104.214993220246626038
0.190000000000000030,102.376413378979037816
0.191000000000000031,100.548104744296111335
0.192000000000000032,98.729449823382722684
0.193000000000000033,96.919982437210919102
0.194000000000000034,95.119386281566022490
0.195000000000000034,93.327490169817892252
0.196000000000000035,91.544260554822898257
0.197000000000000036,89.769791904987670250
0.198000000000000037,88.004295472356446339
0.199000000000000038,86.248086943453785125
0.200000000000000039,84.501573410511895190
0.201000000000000040,82.765240044837042888
0.202000000000000041,81.039636797919456512
0.203000000000000042,79.325365401356791040
0.204000000000000042,77.623066885099859746
0.205000000000000043,75.933409785885572774
0.206000000000000044,74.257079174561070545
0.207000000000000045,72.594766592631813751
0.208000000000000046,70.947160954853004000
0.209000000000000047,69.314940445939058122
0.210000000000000048,67.698765415274579027
0.211000000000000049,66.099272253576245362
0.212000000000000050,64.517068219419698494
0.213000000000000050,62.952727171033835418
0.214000000000000051,61.406786149373388639
0.215000000000000052,59.879742751823606284
0.216000000000000053,58.372053231588907352
0.217000000000000054,56.884131255512087932
0.218000000000000055,55.416347252432636594
0.219000000000000056,53.969028284922558214
0.220000000000000057,52.542458379055766216
0.221000000000000058,51.136879249547931181
0.222000000000000058,49.752491360916202723
0.223000000000000059,48.389455269089687306
0.224000000000000060,47.047893191982559813
0.225000000000000061,45.727890761797766572
0.226000000000000062,44.429498916149412935
0.227000000000000063,43.152735889387251689
0.228000000000000064,41.897589269708291226
0.229000000000000065,40.664018091687857748
0.230000000000000066,39.451954937721396277
0.231000000000000066,38.261308025499275232
0.232000000000000067,37.091963262028556869
0.233000000000000068,35.943786247847938853
0.234000000000000069,34.816624217954938558
0.235000000000000070,33.710307908575380509
0.236000000000000071,32.624653341260362538
0.237000000000000072,31.559463517900439911
0.238000000000000073,30.514530022115383900
0.239000000000000073,29.489634524121935755
0.240000000000000074,28.484550187610459204
0.241000000000000075,27.499042978398961168
0.242000000000000076,26.532872875685210801
0.243000000000000077,25.585794987605176232
0.244000000000000078,24.657560573542756543
0.245000000000000079,23.747917976235086712
0.246000000000000080,22.856613467196840617
0.247000000000000081,21.983392009354037810
0.248000000000000081,21.127997941051642528
0.249000000000000082,20.290175585787192603
0.250000000000000111,19.469669792136990338
0.251000000000000112,18.666226408393203684
0.252000000000000113,17.879592696425852694
0.253000000000000114,17.109517689237108584
0.254000000000000115,16.355752496586028144
0.255000000000000115,15.618050562945123616
0.256000000000000116,14.896167881905622465
0.257000000000000117,14.189863170984448715
0.258000000000000118,13.498898010608243681
0.259000000000000119,12.823036950858954341
0.260000000000000120,12.162047589368750522
0.261000000000000121,11.515700623551088810
0.262000000000000122,10.883769880151227483
0.263000000000000123,10.266032324898294092
0.264000000000000123,9.662268054840687626
0.265000000000000124,9.072260275752046965
0.266000000000000125,8.495795266805064472
0.267000000000000126,7.932662334527445402
0.268000000000000127,7.382653757878036238
0.269000000000000128,6.845564726114004017
0.270000000000000129,6.321193270960033139
0.271000000000000130,5.809340194439355898
0.272000000000000131,5.309808993584959502
0.273000000000000131,4.822405783115490507
0.274000000000000132,4.346939217036192460
0.275000000000000133,3.883220410009111223
0.276000000000000134,3.431062859229138784
0.277000000000000135,2.990282367443960698
0.278000000000000136,2.560696967663537382
0.279000000000000137,2.142126850021460527
0.280000000000000138,1.734394291174278901
0.281000000000000139,1.337323586554328703
0.282000000000000139,0.950740985729293997
0.283000000000000140,0.574474631064037622
0.284000000000000141,0.208354499829430218
0.285000000000000142,-0.147787650143215654
0.286000000000000143,-0.494118331204324357
0.287000000000000144,-0.830802373002704542
0.288000000000000145,-1.158002965987319444
0.289000000000000146,-1.475881701331143159
0.290000000000000147,-1.784598607339589638
0.291000000000000147,-2.084312182425326565
0.292000000000000148,-2.375179424750038404
0.293000000000000149,-2.657355858647223013
0.294000000000000150,-2.930995557953114172
0.295000000000000151,-3.196251166382088726
0.296000000000000152,-3.453273915090806945
0.297000000000000153,-3.702213637580869410
0.298000000000000154,-3.943218782094069841
0.299000000000000155,-4.176436421656658737
0.300000000000000155,-4.402012261930378756
0.301000000000000156,-4.620090647027693009
0.302000000000000157,-4.830814563448208254
0.303000000000000158,-5.034325642290527369
0.304000000000000159,-5.230764159891815979
0.305000000000000160,-5.420269037043234484
0.306000000000000161,-5.602977836925946420
0.307000000000000162,-5.779026761907710252
0.308000000000000163,-5.948550649335087925
0.309000000000000163,-6.111682966451317256
0.310000000000000164,-6.268555804564461376
0.311000000000000165,-6.419299872584550926
0.312000000000000166,-6.564044490043147384
0.313000000000000167,-6.702917579702462270
0.314000000000000168,-6.836045659855595424
0.315000000000000169,-6.963553836413376885
0.316000000000000170,-7.085565794867777711
0.317000000000000171,-7.202203792215629896
0.318000000000000171,-7.313588648921017565
0.319000000000000172,-7.419839740989158550
0.320000000000000173,-7.521074992218922617
0.321000000000000174,-7.617410866695959903
0.322000000000000175,-7.708962361583290956
0.323000000000000176,-7.795843000261212907
0.324000000000000177,-7.878164825863587239
0.325000000000000178,-7.956038395252745588
0.326000000000000179,-8.029572773471425506
0.327000000000000179,-8.098875528705104188
0.328000000000000180,-8.164052727784639529
0.329000000000000181,-8.225208932255256400
0.330000000000000182,-8.282447195033743270
0.331000000000000183,-8.335869057673111371
0.332000000000000184,-8.385574548249802973
0.333000000000000185,-8.431662179886153297
0.334000000000000186,-8.474228949917510079
0.335000000000000187,-8.513370339710798262
0.336000000000000187,-8.549180315139020436
0.337000000000000188,-8.581751327713140753
0.338000000000000189,-8.611174316371421611
0.339000000000000190,-8.637538709923740399
0.340000000000000191,-8.660932430146370820
0.341000000000000192,-8.681441895521505359
0.342000000000000193,-8.699152025613598127
0.343000000000000194,-8.714146246073701363
0.344000000000000195,-8.726506494260885205
0.345000000000000195,-8.736313225469555022
0.346000000000000196,-8.743645419749427106
0.347000000000000197,-8.748580589304619792
0.348000000000000198,-8.751194786457103802
0.349000000000000199,-8.751562612158997112
0.350000000000000200,-8.749757225037686936
0.351000000000000201,-8.745850350956880348
0.352000000000000202,-8.739912293076383065
0.353000000000000203,-8.732011942392919224
0.354000000000000203,-8.722216788744011851
0.355000000000000204,-8.710592932256352228
0.356000000000000205,-8.697205095220329696
0.357000000000000206,-8.682116634372025743
0.358000000000000207,-8.665389553563580094
0.359000000000000208,-8.647084516803362320
0.360000000000000209,-8.627260861646984580
0.361000000000000210,-8.605976612920285262
0.362000000000000210,-8.583288496755677954
0.363000000000000211,-8.559251954923164263
0.364000000000000212,-8.533921159437749537
0.365000000000000213,-8.507349027424885080
0.366000000000000214,-8.479587236226073799
0.367000000000000215,-8.450686238726792254
0.368000000000000216,-8.420695278889473556
0.369000000000000217,-8.389662407474183681
0.370000000000000218,-8.357634497930419570
0.371000000000000218,-8.324657262443317052
0.372000000000000219,-8.290775268118341756
0.373000000000000220,-8.256031953288658798
0.374000000000000221,-8.220469643929879666
0.375000000000000222,-8.184129570167007373
0.376000000000000223,-8.147051882859411620
0.377000000000000224,-8.109275670249319390
0.378000000000000225,-8.070838974660293985
0.379000000000000226,-8.031778809232280381
0.380000000000000226,-7.992131174680491945
0.381000000000000227,-7.951931076065380744
0.382000000000000228,-7.911212539561996770
0.383000000000000229,-7.870008629216869167
0.384000000000000230,-7.828351463681228140
0.385000000000000231,-7.786272232910019575
0.386000000000000232,-7.743801214816049772
0.387000000000000233,-7.700967791869592460
0.388000000000000234,-7.657800467633704145
0.389000000000000234,-7.614326883226327780
0.390000000000000235,-7.570573833700317223
0.391000000000000236,-7.526567284333165908
0.392000000000000237,-7.482332386818410619
0.393000000000000238,-7.437893495351263873
0.394000000000000239,-7.393274182601189182
0.395000000000000240,-7.348497255564717889
0.396000000000000241,-7.303584771292020328
0.397000000000000242,-7.258558052481101086
0.398000000000000242,-7.213437702933960693
0.399000000000000243,-7.168243622869280962
0.400000000000000244,-7.122995024086466564
0.401000000000000245,-7.077710444976522908
0.402000000000000246,-7.032407765375056741
0.403000000000000247,-6.987104221253443548
0.404000000000000248,-6.941816419244264402
0.405000000000000249,-6.896560350997492428
0.406000000000000250,-6.851351407364056456
0.407000000000000250,-6.806204392403957470
0.408000000000000251,-6.761133537215988198
0.409000000000000252,-6.716152513586768791
0.410000000000000253,-6.671274447456691625
0.411000000000000254,-6.626511932200917165
0.412000000000000255,-6.581877041723487309
0.413000000000000256,-6.537381343363212416
0.414000000000000257,-6.493035910609724404
0.415000000000000258,-6.448851335628857484
0.416000000000000258,-6.404837741596122846
0.417000000000000259,-6.361004794837791465
0.418000000000000260,-6.317361716778814085
0.419000000000000261,-6.273917295697318153
0.420000000000000262,-6.230679898285366392
0.421000000000000263,-6.187657481016012539
0.422000000000000264,-6.144857601316630280
0.423000000000000265,-6.102287428548757831
0.424000000000000266,-6.059953754795029290
0.425000000000000266,-6.017863005453379266
0.426000000000000267,-5.976021249639410726
0.427000000000000268,-5.934434210397580678
0.428000000000000269,-5.893107274722036770
0.429000000000000270,-5.852045503388241698
0.430000000000000271,-5.811253640596197201
0.431000000000000272,-5.770736123426754460
0.432000000000000273,-5.730497091112034980
0.433000000000000274,-5.690540394121471834
0.434000000000000274,-5.650869603064827551
0.435000000000000275,-5.611488017413749141
0.436000000000000276,-5.572398674043453681
0.437000000000000277,-5.533604355596148494
0.438000000000000278,-5.495107598667955173
0.439000000000000279,-5.456910701821145793
0.440000000000000280,-5.419015733423417025
0.441000000000000281,-5.381424539316170375
0.442000000000000282,-5.344138750313780051
0.443000000000000282,-5.307159789535619510
0.444000000000000283,-5.270488879573145269
0.445000000000000284,-5.234127049493837447
0.446000000000000285,-5.198075141684156186
0.447000000000000286,-5.162333818533782370
0.448000000000000287,-5.126903568962957181
0.449000000000000288,-5.091784714795451805
0.450000000000000289,-5.056977416979017370
0.451000000000000290,-5.022481681655726504
0.452000000000000290,-4.988297366084374573
0.453000000000000291,-4.954424184417071331
0.454000000000000292,-4.920861713332419285
0.455000000000000293,-4.887609397527361565
0.456000000000000294,-4.854666555070055622
0.457000000000000295,-4.822032382616020740
0.458000000000000296,-4.789705960489719416
0.459000000000000297,-4.757686257633960913
0.460000000000000298,-4.725972136429254178
0.461000000000000298,-4.694562357385462015
0.462000000000000299,-4.663455583707931673
0.463000000000000300,-4.632650385740328502
0.464000000000000301,-4.602145245286474839
0.465000000000000302,-4.571938559813359504
0.466000000000000303,-4.542028646537469960
0.467000000000000304,-4.512413746396765291
0.468000000000000305,-4.483092027910363875
0.469000000000000306,-4.454061590928127146
0.470000000000000306,-4.425320470272387396
0.471000000000000307,-4.396866639273751431
0.472000000000000308,-4.368698013203312414
0.473000000000000309,-4.340812452603213245
0.474000000000000310,-4.313207766517701103
0.475000000000000311,-4.285881715626689292
0.476000000000000312,-4.258832015283955386
0.477000000000000313,-4.232056338461847034
0.478000000000000314,-4.205552318604565798
0.479000000000000314,-4.179317552392059376
0.480000000000000315,-4.153349602416296804
0.481000000000000316,-4.127645999772047603
0.482000000000000317,-4.102204246563886159
0.483000000000000318,-4.077021818331422409
0.484000000000000319,-4.052096166394532517
0.485000000000000320,-4.027424720120446722
0.486000000000000321,-4.003004889114499143
0.487000000000000322,-3.978834065336291026
0.488000000000000322,-3.954909625142970953
0.489000000000000323,-3.931228931261504300
0.490000000000000324,-3.907789334691449845
0.491000000000000325,-3.884588176540036297
0.492000000000000326,-3.861622789791085975
0.493000000000000327,-3.838890501009527778
0.494000000000000328,-3.816388631982949420
0.495000000000000329,-3.794114501301886211
0.496000000000000330,-3.772065425880247069
0.497000000000000330,-3.750238722417579051
0.498000000000000331,-3.728631708804396538
0.499000000000000332,-3.707241705472315463
0.500000000000000333,-3.686066036690255565
0.501000000000000334,-3.665102031808111782
0.502000000000000335,-3.644347026449394455
0.503000000000000336,-3.623798363654105792
0.504000000000000337,-3.603453394973202162
0.505000000000000338,-3.583309481515966066
0.506000000000000338,-3.563363994951576075
0.507000000000000339,-3.543614318466101309
0.508000000000000340,-3.524057847676147048
0.509000000000000341,-3.504691991500480608
0.510000000000000342,-3.485514172990610948
0.511000000000000343,-3.466521830121697345
0.512000000000000344,-3.447712416544751246
0.513000000000000345,-3.429083402301363659
0.514000000000000346,-3.410632274502040762
0.515000000000000346,-3.392356537969095420
0.516000000000000347,-3.374253715845287438
0.517000000000000348,-3.356321350169198858
0.518000000000000349,-3.338557002418242270
0.519000000000000350,-3.320958254020443867
0.520000000000000351,-3.303522706835808176
0.521000000000000352,-3.286247983608345802
0.522000000000000353,-3.269131728389530256
0.523000000000000353,-3.252171606934177728
0.524000000000000354,-3.235365307069641094
0.525000000000000355,-3.218710539039070451
0.526000000000000356,-3.202205035819649659
0.527000000000000357,-3.185846553416666005
0.528000000000000358,-3.169632871134056007
0.529000000000000359,-3.153561791822411475
0.530000000000000360,-3.137631142104999160
0.531000000000000361,-3.121838772582702148
0.532000000000000361,-3.106182558018494522
0.533000000000000362,-3.090660397502222878
0.534000000000000363,-3.075270214596331542
0.535000000000000364,-3.060009957463247776
0.536000000000000365,-3.044877598975038957
0.537000000000000366,-3.029871136806034926
0.538000000000000367,-3.014988593508930670
0.539000000000000368,-3.000228016575154477
0.540000000000000369,-2.985587478479865720
0.541000000000000369,-2.971065076712386510
0.542000000000000370,-2.956658933792430499
0.543000000000000371,-2.942367197272793611
0.544000000000000372,-2.928188039729008985
0.545000000000000373,-2.914119658736484375
0.546000000000000374,-2.900160276835580753
0.547000000000000375,-2.886308141485180556
0.548000000000000376,-2.872561525005223437
0.549000000000000377,-2.858918724508610509
0.550000000000000377,-2.845378061822980698
0.551000000000000378,-2.831937883402779299
0.552000000000000379,-2.818596560232051296
0.553000000000000380,-2.805352487718367538
0.554000000000000381,-2.792204085578254613
0.555000000000000382,-2.779149797714628001
0.556000000000000383,-2.766188092086409700
0.557000000000000384,-2.753317460570947617
0.558000000000000385,-2.740536418819353948
0.559000000000000385,-2.727843506105289695
0.560000000000000386,-2.715237285167424020
0.561000000000000387,-2.702716342045955678
0.562000000000000388,-2.690279285913448781
0.563000000000000389,-2.677924748900394558
0.564000000000000390,-2.665651385915663862
0.565000000000000391,-2.653457874462246124
0.566000000000000392,-2.641342914448499446
0.567000000000000393,-2.629305227995216931
0.568000000000000393,-2.617343559238717976
0.569000000000000394,-2.605456674130272710
0.570000000000000395,-2.593643360232099404
0.571000000000000396,-2.581902426510103155
0.572000000000000397,-2.570232703123718210
0.573000000000000398,-2.558633041212915238
0.574000000000000399,-2.547102312682747005
0.575000000000000400,-2.535639409985496417
0.576000000000000401,-2.524243245900723576
0.577000000000000401,-2.512912753313411685
0.578000000000000402,-2.501646884990305963
0.579000000000000403,-2.490444613354688919
0.580000000000000404,-2.479304930259835338
0.581000000000000405,-2.468226846761131021
0.582000000000000406,-2.457209392887228727
0.583000000000000407,-2.446251617410220458
0.584000000000000408,-2.435352587615103204
0.585000000000000409,-2.424511389068602973
0.586000000000000409,-2.413727125387533867
0.587000000000000410,-2.402998918006836959
0.588000000000000411,-2.392325905947363385
0.589000000000000412,-2.381707245583641885
0.590000000000000413,-2.371142110411610382
0.591000000000000414,-2.360629690816526960
0.592000000000000415,-2.350169193841165072
0.593000000000000416,-2.339759842954321378
0.594000000000000417,-2.329400877819800986
0.595000000000000417,-2.319091554066037286
0.596000000000000418,-2.308831143056224278
0.597000000000000419,-2.298618931659349052
0.598000000000000420,-2.288454222021935269
0.599000000000000421,-2.278336331340753862
0.600000000000000422,-2.268264591636512062
0.601000000000000423,-2.258238349528592703
0.602000000000000424,-2.248256966010932167
0.603000000000000425,-2.238319816229115133
0.604000000000000425,-2.228426289258700788
0.605000000000000426,-2.218575787884876416
0.606000000000000427,-2.208767728383567608
0.607000000000000428,-2.199001540303821223
0.608000000000000429,-2.189276666251898984
0.609000000000000430,-2.179592561676682028
0.610000000000000431,-2.169948694656849142
0.611000000000000432,-2.160344545689576456
0.612000000000000433,-2.150779607480909128
0.613000000000000433,-2.141253384737911158
0.614000000000000434,-2.131765393962511190
0.615000000000000435,-2.122315163247110892
0.616000000000000436,-2.112902232072031872
0.617000000000000437,-2.103526151104844644
0.618000000000000438,-2.094186482001496152
0.619000000000000439,-2.084882797209352212
0.620000000000000440,-2.075614679772200155
0.621000000000000441,-2.066381723137147297
0.622000000000000441,-2.057183530963524909
0.623000000000000442,-2.048019716933710210
0.624000000000000443,-2.038889904566003608
0.625000000000000444,-2.029793727029519435
0.626000000000000445,-2.020730826961036897
0.627000000000000446,-2.011700856283980876
0.628000000000000447,-2.002703476029382479
0.629000000000000448,-1.993738356158931024
0.630000000000000449,-1.984805175390083054
0.631000000000000449,-1.975903621023237688
0.632000000000000450,-1.967033388771001423
0.633000000000000451,-1.958194182589548138
0.634000000000000452,-1.949385714512020584
0.635000000000000453,-1.940607704484072826
0.636000000000000454,-1.931859880201448387
0.637000000000000455,-1.923141976949702237
0.638000000000000456,-1.914453737445950265
0.639000000000000457,-1.905794911682738846
0.640000000000000457,-1.897165256774014042
0.641000000000000458,-1.888564536803089666
0.642000000000000459,-1.879992522672802036
0.643000000000000460,-1.871448991957608055
0.644000000000000461,-1.862933728757849794
0.645000000000000462,-1.854446523556005477
0.646000000000000463,-1.845987173075003041
0.647000000000000464,-1.837555480138571840
0.648000000000000465,-1.829151253533639387
0.649000000000000465,-1.820774307874701181
0.650000000000000466,-1.812424463470255542
0.651000000000000467,-1.804101546191174466
0.652000000000000468,-1.795805387341111725
0.653000000000000469,-1.787535823528826784
0.654000000000000470,-1.779292696542542629
0.655000000000000471,-1.771075853226182328
0.656000000000000472,-1.762885145357579564
0.657000000000000473,-1.754720429528576320
0.658000000000000473,-1.746581567027074566
0.659000000000000474,-1.738468423720932687
0.660000000000000475,-1.730380869943771716
0.661000000000000476,-1.722318780382607883
0.662000000000000477,-1.714282033967379659
0.663000000000000478,-1.706270513762239815
0.664000000000000479,-1.698284106858767517
0.665000000000000480,-1.690322704270816656
0.666000000000000481,-1.682386200831344159
0.667000000000000481,-1.674474495090797266
0.668000000000000482,-1.666587489217447482
0.669000000000000483,-1.658725088899292599
0.670000000000000484,-1.650887203247773272
0.671000000000000485,-1.643073744703150485
0.672000000000000486,-1.635284628941539253
0.673000000000000487,-1.627519774783685591
0.674000000000000488,-1.619779104105280920
0.675000000000000488,-1.612062541748965572
0.676000000000000489,-1.604370015437964314
0.677000000000000490,-1.596701455691227567
0.678000000000000491,-1.589056795740235728
0.679000000000000492,-1.581435971447303412
0.680000000000000493,-1.573838921225418463
0.681000000000000494,-1.566265585959653039
0.682000000000000495,-1.558715908929994232
0.683000000000000496,-1.551189835735734990
0.684000000000000496,-1.543687314221274587
0.685000000000000497,-1.536208294403384134
0.686000000000000498,-1.528752728399917604
0.687000000000000499,-1.521320570359895541
0.688000000000000500,-1.513911776394999631
0.689000000000000501,-1.506526304512445069
0.690000000000000502,-1.499164114549212723
0.691000000000000503,-1.491825168107600685
0.692000000000000504,-1.484509428492086780
0.693000000000000504,-1.477216860647557084
0.694000000000000505,-1.469947431098711732
0.695000000000000506,-1.462701107890852281
0.696000000000000507,-1.455477860531831702
0.697000000000000508,-1.448277659935268469
0.698000000000000509,-1.441100478364990112
0.699000000000000510,-1.433946289380638506
0.700000000000000511,-1.426815067784484414
0.701000000000000512,-1.419706789569387118
0.702000000000000512,-1.412621431867904231
0.703000000000000513,-1.405558972902529957
0.704000000000000514,-1.398519391937055101
0.705000000000000515,-1.391502669228995126
0.706000000000000516,-1.384508785983126211
0.707000000000000517,-1.377537724306081568
0.708000000000000518,-1.370589467161938080
0.709000000000000519,-1.363663998328946025
0.710000000000000520,-1.356761302357137655
0.711000000000000520,-1.349881364527043548
0.712000000000000521,-1.343024170809332896
0.713000000000000522,-1.336189707825413242
0.714000000000000523,-1.329377962809046743
0.715000000000000524,-1.322588923568803310
0.716000000000000525,-1.315822578451531610
0.717000000000000526,-1.309078916306677609
0.718000000000000527,-1.302357926451489734
0.719000000000000528,-1.295659598637123988
0.720000000000000528,-1.288983923015636801
0.721000000000000529,-1.282330890107723276
0.722000000000000530,-1.275700490771424223
0.723000000000000531,-1.269092716171521307
0.724000000000000532,-1.262507557749834586
0.725000000000000533,-1.255945007196267227
0.726000000000000534,-1.249405056420609395
0.727000000000000535,-1.242887697525149937
0.728000000000000536,-1.236392922777994396
0.729000000000000536,-1.229920724587143299
0.730000000000000537,-1.223471095475307191
0.731000000000000538,-1.217044028055379146
0.732000000000000539,-1.210639515006669775
0.733000000000000540,-1.204257549051774845
0.734000000000000541,-1.197898122934153209
0.735000000000000542,-1.191561229396316923
0.736000000000000543,-1.185246861158739673
0.737000000000000544,-1.178955010899316758
0.738000000000000544,-1.172685671233534954
0.739000000000000545,-1.166438834695176840
0.740000000000000546,-1.160214493717679263
0.741000000000000547,-1.154012640616031593
0.742000000000000548,-1.147833267569348559
0.743000000000000549,-1.141676366603866288
0.744000000000000550,-1.135541929576607822
0.745000000000000551,-1.129429948159550445
0.746000000000000552,-1.123340413824332362
0.747000000000000552,-1.117273317827490731
0.748000000000000553,-1.111228651196187966
0.749000000000000554,-1.105206404714460744
0.750000000000000555,-1.099206568909978365
0.751000000000000556,-1.093229134041227013
0.752000000000000557,-1.087274090085259104
0.753000000000000558,-1.081341426725781929
0.754000000000000559,-1.075431133341829604
0.755000000000000560,-1.069543198996776079
0.756000000000000560,-1.063677612427869068
0.757000000000000561,-1.057834362036103704
0.758000000000000562,-1.052013435876567593
0.759000000000000563,-1.046214821649196880
0.760000000000000564,-1.040438506689912002
0.761000000000000565,-1.034684477962139137
0.762000000000000566,-1.028952722048731561
0.763000000000000567,-1.023243225144258917
0.764000000000000568,-1.017555973047645335
0.765000000000000568,-1.011890951155210772
0.766000000000000569,-1.006248144453996574
0.767000000000000570,-1.000627537515506926
0.768000000000000571,-0.995029114489696553
0.769000000000000572,-0.989452859099380633
0.770000000000000573,-0.983898754634885853
0.771000000000000574,-0.978366783949064733
0.772000000000000575,-0.972856929452584618
0.773000000000000576,-0.967369173109523972
0.774000000000000576,-0.961903496433252903
0.775000000000000577,-0.956459880482624869
0.776000000000000578,-0.951038305858393107
0.777000000000000579,-0.945638752699961671
0.778000000000000580,-0.940261200682333431
0.779000000000000581,-0.934905629013375483
0.780000000000000582,-0.929572016431279402
0.781000000000000583,-0.924260341202331581
0.782000000000000584,-0.918970581118854546
0.783000000000000584,-0.913702713497418273
0.784000000000000585,-0.908456715177290319
0.785000000000000586,-0.903232562519058257
0.786000000000000587,-0.898030231403522450
0.787000000000000588,-0.892849697230770900
0.788000000000000589,-0.887690934919428187
0.789000000000000590,-0.882553918906191170
0.790000000000000591,-0.877438623145454066
0.791000000000000592,-0.872345021109196317
0.792000000000000592,-0.867273085787021669
0.793000000000000593,-0.862222789686373003
0.794000000000000594,-0.857194104832935566
0.795000000000000595,-0.852187002771220170
0.796000000000000596,-0.847201454565246648
0.797000000000000597,-0.842237430799475328
0.798000000000000598,-0.837294901579825557
0.799000000000000599,-0.832373836534869627
0.800000000000000600,-0.827474204817181480
0.801000000000000600,-0.822595975104801647
0.802000000000000601,-0.817739115602856059
0.803000000000000602,-0.812903594045301991
0.804000000000000603,-0.808089377696814992
0.805000000000000604,-0.803296433354793060
0.806000000000000605,-0.798524727351439867
0.807000000000000606,-0.793774225556063806
0.808000000000000607,-0.789044893377384038
0.809000000000000608,-0.784336695766002512
0.810000000000000608,-0.779649597217006329
0.811000000000000609,-0.774983561772569329
0.812000000000000610,-0.770338553024797590
0.813000000000000611,-0.765714534118531187
0.814000000000000612,-0.761111467754330806
0.815000000000000613,-0.756529316191534962
0.816000000000000614,-0.751968041251357855
0.817000000000000615,-0.747427604320120009
0.818000000000000616,-0.742907966352553517
0.819000000000000616,-0.738409087875150028
0.820000000000000617,-0.733930928989604991
0.821000000000000618,-0.729473449376339955
0.822000000000000619,-0.725036608298095020
0.823000000000000620,-0.720620364603550279
0.824000000000000621,-0.716224676731037624
0.825000000000000622,-0.711849502712320836
0.826000000000000623,-0.707494800176421523
0.827000000000000624,-0.703160526353480808
0.828000000000000624,-0.698846638078715054
0.829000000000000625,-0.694553091796366484
0.830000000000000626,-0.690279843563756934
0.831000000000000627,-0.686026849055344057
0.832000000000000628,-0.681794063566861008
0.833000000000000629,-0.677581442019438707
0.834000000000000630,-0.673388938963823014
0.835000000000000631,-0.669216508584601799
0.836000000000000631,-0.665064104704456871
0.837000000000000632,-0.660931680788487075
0.838000000000000633,-0.656819189948499749
0.839000000000000634,-0.652726584947386335
0.840000000000000635,-0.648653818203512644
0.841000000000000636,-0.644600841795089474
0.842000000000000637,-0.640567607464640032
0.843000000000000638,-0.636554066623423731
0.844000000000000639,-0.632560170355906726
0.845000000000000639,-0.628585869424259425
0.846000000000000640,-0.624631114272828691
0.847000000000000641,-0.620695855032700861
0.848000000000000642,-0.616780041526181377
0.849000000000000643,-0.612883623271348710
0.850000000000000644,-0.609006549486635684
0.851000000000000645,-0.605148769095328332
0.852000000000000646,-0.601310230730178974
0.853000000000000647,-0.597490882737954476
0.854000000000000647,-0.593690673184005258
0.855000000000000648,-0.589909549856848736
0.856000000000000649,-0.586147460272752219
0.857000000000000650,-0.582404351680310350
0.858000000000000651,-0.578680171065007687
0.859000000000000652,-0.574974865153803472
0.860000000000000653,-0.571288380419723851
0.861000000000000654,-0.567620663086386701
0.862000000000000655,-0.563971659132612713
0.863000000000000655,-0.560341314296942672
0.864000000000000656,-0.556729574082218570
0.865000000000000657,-0.553136383760091555
0.866000000000000658,-0.549561688375580837
0.867000000000000659,-0.546005432751595188
0.868000000000000660,-0.542467561493424011
0.869000000000000661,-0.538948018993243960
0.870000000000000662,-0.535446749434607683
0.871000000000000663,-0.531963696796931673
0.872000000000000663,-0.528498804859915516
0.873000000000000664,-0.525052017208024857
0.874000000000000665,-0.521623277234883664
0.875000000000000666,-0.518212528147720564
0.876000000000000667,-0.514819712971723464
0.877000000000000668,-0.511444774554437154
0.878000000000000669,-0.508087655570126251
0.879000000000000670,-0.504748298524081318
0.880000000000000671,-0.501426645756973821
0.881000000000000671,-0.498122639449110227
0.882000000000000672,-0.494836221624748496
0.883000000000000673,-0.491567334156321478
0.884000000000000674,-0.488315918768686519
0.885000000000000675,-0.485081917043317989
0.886000000000000676,-0.481865270422508485
0.887000000000000677,-0.478665920213523499
0.888000000000000678,-0.475483807592726238
0.889000000000000679,-0.472318873609715695
0.890000000000000679,-0.469171059191393236
0.891000000000000680,-0.466040305146038558
0.892000000000000681,-0.462926552167341909
0.893000000000000682,-0.459829740838414103
0.894000000000000683,-0.456749811635760561
0.895000000000000684,-0.453686704933262241
0.896000000000000685,-0.450640361006085510
0.897000000000000686,-0.447610720034587684
0.898000000000000687,-0.444597722108206361
0.899000000000000687,-0.441601307229285200
0.900000000000000688,-0.438621415316907015
0.901000000000000689,-0.435657986210671644
0.902000000000000690,-0.432710959674475704
0.903000000000000691,-0.429780275400225176
0.904000000000000692,-0.426865873011546770
0.905000000000000693,-0.423967692067456325
0.906000000000000694,-0.421085672066017325
0.907000000000000695,-0.418219752447925253
0.908000000000000695,-0.415369872600126755
0.909000000000000696,-0.412535971859337269
0.910000000000000697,-0.409717989515596126
0.911000000000000698,-0.406915864815734885
0.912000000000000699,-0.404129536966849501
0.913000000000000700,-0.401358945139742018
0.914000000000000701,-0.398604028472288152
0.915000000000000702,-0.395864726072848228
0.916000000000000703,-0.393140977023571980
0.917000000000000703,-0.390432720383727616
0.918000000000000704,-0.387739895192968420
0.919000000000000705,-0.385062440474570278
0.920000000000000706,-0.382400295238668808
0.921000000000000707,-0.379753398485413729
0.922000000000000708,-0.377121689208133326
0.923000000000000709,-0.374505106396469445
0.924000000000000710,-0.371903589039430993
0.925000000000000711,-0.369317076128482025
0.926000000000000711,-0.366745506660550169
0.927000000000000712,-0.364188819641027617
0.928000000000000713,-0.361646954086726979
0.929000000000000714,-0.359119849028829374
0.930000000000000715,-0.356607443515763234
0.931000000000000716,-0.354109676616081559
0.932000000000000717,-0.351626487421306977
0.933000000000000718,-0.349157815048721620
0.934000000000000719,-0.346703598644159283
0.935000000000000719,-0.344263777384741454
0.936000000000000720,-0.341838290481584928
0.937000000000000721,-0.339427077182487491
0.938000000000000722,-0.337030076774589515
0.939000000000000723,-0.334647228586973544
0.940000000000000724,-0.332278471993270208
0.941000000000000725,-0.329923746414202523
0.942000000000000726,-0.327582991320133743
0.943000000000000727,-0.325256146233537324
0.944000000000000727,-0.322943150731488049
0.945000000000000728,-0.320643944448093687
0.946000000000000729,-0.318358467076882146
0.947000000000000730,-0.316086658373207763
0.948000000000000731,-0.313828458156565737
0.949000000000000732,-0.311583806312937917
0.950000000000000733,-0.309352642797050048
0.951000000000000734,-0.307134907634665666
0.952000000000000735,-0.304930540924779947
0.953000000000000735,-0.302739482841825502
0.954000000000000736,-0.300561673637853410
0.955000000000000737,-0.298397053644659238
0.956000000000000738,-0.296245563275907564
0.957000000000000739,-0.294107143029193996
0.958000000000000740,-0.291981733488121731
0.959000000000000741,-0.289869275324303732
0.960000000000000742,-0.287769709299379450
0.961000000000000743,-0.285682976266970090
0.962000000000000743,-0.283609017174618394
0.963000000000000744,-0.281547773065701223
0.964000000000000745,-0.279499185081329204
0.965000000000000746,-0.277463194462180429
0.966000000000000747,-0.275439742550344813
0.967000000000000748,-0.273428770791111941
0.968000000000000749,-0.271430220734771743
0.969000000000000750,-0.269444034038330393
0.970000000000000751,-0.267470152467265854
0.971000000000000751,-0.265508517897189988
0.972000000000000752,-0.263559072315525555
0.973000000000000753,-0.261621757823174317
0.974000000000000754,-0.259696516636095387
0.975000000000000755,-0.257783291086920774
0.976000000000000756,-0.255882023626510580
0.977000000000000757,-0.253992656825490548
0.978000000000000758,-0.252115133375761524
0.979000000000000759,-0.250249396092014353
0.980000000000000759,-0.248395387913149690
0.981000000000000760,-0.246553051903748488
0.982000000000000761,-0.244722331255486175
0.983000000000000762,-0.242903169288504112
0.984000000000000763,-0.241095509452779883
0.985000000000000764,-0.239299295329486184
0.986000000000000765,-0.237514470632287006
0.987000000000000766,-0.235740979208637208
0.988000000000000766,-0.233978765041053333
0.989000000000000767,-0.232227772248365966
0.990000000000000768,-0.230487945086948226
0.991000000000000769,-0.228759227951889965
0.992000000000000770,-0.227041565378196891
0.993000000000000771,-0.225334902041957857
0.994000000000000772,-0.223639182761441097
0.995000000000000773,-0.221954352498245328
0.996000000000000774,-0.220280356358358548
0.997000000000000774,-0.218617139593242277
0.998000000000000775,-0.216964647600871668
0.999000000000000776,-0.215322825926757166
1.000000000000000666,-0.213691620264949478
1.001000000000000778,-0.212070976459026422
1.002000000000000668,-0.210460840503046281
1.003000000000000780,-0.208861158542491848
1.004000000000000670,-0.207271876875184585
1.005000000000000782,-0.205692941952196506
1.006000000000000671,-0.204124300378724893
1.007000000000000783,-0.202565898914937870
1.008000000000000673,-0.201017684476836322
1.009000000000000785,-0.199479604137059174
1.010000000000000675,-0.197951605125691044
1.011000000000000787,-0.196433634831033016
1.012000000000000677,-0.194925640800386019
1.013000000000000789,-0.193427570740781818
1.014000000000000679,-0.191939372519693979
1.015000000000000790,-0.190460994165776665
1.016000000000000680,-0.188992383869531877
1.017000000000000792,-0.187533489983985030
1.018000000000000682,-0.186084261025334985
1.019000000000000794,-0.184644645673591790
1.020000000000000684,-0.183214592773197127
1.021000000000000796,-0.181794051333622142
1.022000000000000686,-0.180382970529944675
1.023000000000000798,-0.178981299703425384
1.024000000000000687,-0.177588988362046368
1.025000000000000799,-0.176205986181051599
1.026000000000000689,-0.174832243003464255
1.027000000000000801,-0.173467708840575829
1.028000000000000691,-0.172112333872444012
1.029000000000000803,-0.170766068448349490
1.030000000000000693,-0.169428863087246806
1.031000000000000805,-0.168100668478219445
1.032000000000000695,-0.166781435480870349
1.033000000000000806,-0.165471115125760210
1.034000000000000696,-0.164169658614775310
1.035000000000000808,-0.162877017321509387
1.036000000000000698,-0.161593142791620903
1.037000000000000810,-0.160317986743206159
1.038000000000000700,-0.159051501067088485
1.039000000000000812,-0.157793637827161326
1.040000000000000702,-0.156544349260695353
1.041000000000000814,-0.155303587778623881
1.042000000000000703,-0.154071305965801930
1.043000000000000815,-0.152847456581295171
1.044000000000000705,-0.151631992558620532
1.045000000000000817,-0.150424867005965052
1.046000000000000707,-0.149226033206433961
1.047000000000000819,-0.148035444618247608
1.048000000000000709,-0.146853054874938188
1.049000000000000821,-0.145678817785539760
1.050000000000000711,-0.144512687334745288
1.051000000000000822,-0.143354617683094238
1.052000000000000712,-0.142204563167091930
1.053000000000000824,-0.141062478299358585
1.054000000000000714,-0.139928317768751753
1.055000000000000826,-0.138802036440476145
1.056000000000000716,-0.137683589356187047
1.057000000000000828,-0.136572931734074310
1.058000000000000718,-0.135470018968943784
1.059000000000000830,-0.134374806632278687
1.060000000000000719,-0.133287250472306606
1.061000000000000831,-0.132207306414028197
1.062000000000000721,-0.131134930559258456
1.063000000000000833,-0.130070079186662302
1.064000000000000723,-0.129012708751739369
1.065000000000000835,-0.127962775886851482
1.066000000000000725,-0.126920237401213554
1.067000000000000837,-0.125885050280848787
1.068000000000000727,-0.124857171688603108
1.069000000000000838,-0.123836558964067617
1.070000000000000728,-0.122823169623561837
1.071000000000000840,-0.121816961360060177
1.072000000000000730,-0.120817892043135283
1.073000000000000842,-0.119825919718880833
1.074000000000000732,-0.118841002609817448
1.075000000000000844,-0.117863099114815337
1.076000000000000734,-0.116892167808989852
1.077000000000000846,-0.115928167443574703
1.078000000000000735,-0.114971056945828654
1.079000000000000847,-0.114020795418879523
1.080000000000000737,-0.113077342141622503
1.081000000000000849,-0.112140656568539804
1.082000000000000739,-0.111210698329572380
1.083000000000000851,-0.110287427229951551
1.084000000000000741,-0.109370803250037188
1.085000000000000853,-0.108460786545129778
1.086000000000000743,-0.107557337445298634
1.087000000000000854,-0.106660416455182830
1.088000000000000744,-0.105769984253809707
1.089000000000000856,-0.104886001694361311
1.090000000000000746,-0.104008429803980992
1.091000000000000858,-0.103137229783556550
1.092000000000000748,-0.102272363007479522
1.093000000000000860,-0.101413791023426472
1.094000000000000750,-0.100561475552099377
1.095000000000000862,-0.099715378487001183
1.096000000000000751,-0.098875461894173247
1.097000000000000863,-0.098041688011920355
1.098000000000000753,-0.097214019250571534
1.099000000000000865,-0.096392418192194712
1.100000000000000755,-0.095576847590311931
1.101000000000000867,-0.094767270369622403
1.102000000000000757,-0.093963649625714685
1.103000000000000869,-0.093165948624769498
1.104000000000000759,-0.092374130803246676
1.105000000000000870,-0.091588159767600680
1.106000000000000760,-0.090807999293937458
1.107000000000000872,-0.090033613327723458
1.108000000000000762,-0.089264965983454084
1.109000000000000874,-0.088502021544317591
1.110000000000000764,-0.087744744461868557
1.111000000000000876,-0.086993099355677977
1.112000000000000766,-0.086247051013010709
1.113000000000000878,-0.085506564388454664
1.114000000000000767,-0.084771604603585210
1.115000000000000879,-0.084042136946588852
1.116000000000000769,-0.083318126871917017
1.117000000000000881,-0.082599539999908961
1.118000000000000771,-0.081886342116422123
1.119000000000000883,-0.081178499172461602
1.120000000000000773,-0.080475977283795991
1.121000000000000885,-0.079778742730567662
1.122000000000000774,-0.079086761956912346
1.123000000000000886,-0.078400001570560901
1.124000000000000776,-0.077718428342456666
1.125000000000000888,-0.077042009206328130
1.126000000000000778,-0.076370711258305329
1.127000000000000890,-0.075704501756525627
1.128000000000000780,-0.075043348120679920
1.129000000000000892,-0.074387217931637453
1.130000000000000782,-0.073736078931012486
1.131000000000000894,-0.073089899020737883
1.132000000000000783,-0.072448646262647090
1.133000000000000895,-0.071812288878053188
1.134000000000000785,-0.071180795247290013
1.135000000000000897,-0.070554133909319389
1.136000000000000787,-0.069932273561251729
1.137000000000000899,-0.069315183057937949
1.138000000000000789,-0.068702831411499105
1.139000000000000901,-0.068095187790913059
1.140000000000000790,-0.067492221521536472
1.141000000000000902,-0.066893902084655871
1.142000000000000792,-0.066300199117055855
1.143000000000000904,-0.065711082410536845
1.144000000000000794,-0.065126521911480453
1.145000000000000906,-0.064546487720353596
1.146000000000000796,-0.063970950091285533
1.147000000000000908,-0.063399879431571660
1.148000000000000798,-0.062833246301215770
1.149000000000000909,-0.062271021412463011
1.150000000000000799,-0.061713175629312000
1.151000000000000689,-0.061159679967060218
1.152000000000000801,-0.060610505591813177
1.153000000000000913,-0.060065623820012272
1.154000000000000803,-0.059525006117951230
1.155000000000000693,-0.058988624101287426
1.156000000000000805,-0.058456449534577404
1.157000000000000917,-0.057928454330764122
1.158000000000000806,-0.057404610550711312
1.159000000000000696,-0.056884890402703857
1.160000000000000808,-0.056369266241954631
1.161000000000000920,-0.055857710570119498
1.162000000000000810,-0.055350196034803234
1.163000000000000700,-0.054846695429055667
1.164000000000000812,-0.054347181690886349
1.165000000000000924,-0.053851627902752261
1.166000000000000814,-0.053360007291078315
1.167000000000000703,-0.052872293225737055
1.168000000000000815,-0.052388459219564101
1.169000000000000927,-0.051908478927838543
1.170000000000000817,-0.051432326147798468
1.171000000000000707,-0.050959974818113041
1.172000000000000819,-0.050491399018404916
1.173000000000000931,-0.050026572968720442
1.174000000000000821,-0.049565471029025719
1.175000000000000711,-0.049108067698710053
1.176000000000000822,-0.048654337616068737
1.177000000000000934,-0.048204255557789621
1.178000000000000824,-0.047757796438452758
1.179000000000000714,-0.047314935310003227
1.180000000000000826,-0.046875647361261694
1.181000000000000938,-0.046439907917387543
1.182000000000000828,-0.046007692439381229
1.183000000000000718,-0.045578976523570340
1.184000000000000830,-0.045153735901092409
1.185000000000000941,-0.044731946437367741
1.186000000000000831,-0.044313584131611558
1.187000000000000721,-0.043898625116292153
1.188000000000000833,-0.043487045656633111
1.189000000000000945,-0.043078822150089346
1.190000000000000835,-0.042673931125836992
1.191000000000000725,-0.042272349244236118
1.192000000000000837,-0.041874053296355927
1.193000000000000949,-0.041479020203407192
1.194000000000000838,-0.041087227016269975
1.195000000000000728,-0.040698650914943957
1.196000000000000840,-0.040313269208048987
1.197000000000000952,-0.039931059332309234
1.198000000000000842,-0.039551998852020522
1.199000000000000732,-0.039176065458557591
1.200000000000000844,-0.038803236969824649
1.201000000000000956,-0.038433491329771655
1.202000000000000846,-0.038066806607854761
1.203000000000000735,-0.037703160998533665
1.204000000000000847,-0.037342532820737184
1.205000000000000959,-0.036984900517377517
1.206000000000000849,-0.036630242654801880
1.207000000000000739,-0.036278537922292783
1.208000000000000851,-0.035929765131554825
1.209000000000000963,-0.035583903216192828
1.210000000000000853,-0.035240931231200950
1.211000000000000743,-0.034900828352445359
1.212000000000000854,-0.034563573876155308
1.213000000000000966,-0.034229147218399425
1.214000000000000856,-0.033897527914593412
1.215000000000000746,-0.033568695618955958
1.216000000000000858,-0.033242630104031626
1.217000000000000970,-0.032919311260149194
1.218000000000000860,-0.032598719094929743
1.219000000000000750,-0.032280833732768480
1.220000000000000862,-0.031965635414329271
1.221000000000000973,-0.031653104496025847
1.222000000000000863,-0.031343221449528703
1.223000000000000753,-0.031035966861240476
1.224000000000000865,-0.030731321431798742
1.225000000000000977,-0.030429265975574011
1.226000000000000867,-0.030129781420148556
1.227000000000000757,-0.029832848805823299
1.228000000000000869,-0.029538449285103775
1.229000000000000981,-0.029246564122220098
1.230000000000000870,-0.028957174692585262
1.231000000000000760,-0.028670262482323759
1.232000000000000872,-0.028385809087772218
1.233000000000000984,-0.028103796214946276
1.234000000000000874,-0.027824205679083086
1.235000000000000764,-0.027547019404110012
1.236000000000000876,-0.027272219422165688
1.237000000000000988,-0.026999787873092585
1.238000000000000878,-0.026729707003953319
1.239000000000000767,-0.026461959168520049
1.240000000000000879,-0.026196526826794166
1.241000000000000991,-0.025933392544507987
1.242000000000000881,-0.025672538992627773
1.243000000000000771,-0.025413948946875375
1.244000000000000883,-0.025157605287221784
1.245000000000000995,-0.024903490997415907
1.246000000000000885,-0.024651589164485954
1.247000000000000774,-0.024401882978251854
1.248000000000000886,-0.024154355730843409
1.249000000000000998,-0.023908990816217751
1.250000000000000888,-0.023665771729673525
1.251000000000000778,-0.023424682067365043
1.252000000000000890,-0.023185705525826928
1.253000000000001002,-0.022948825901484386
1.254000000000000892,-0.022714027090194981
1.255000000000000782,-0.022481293086744368
1.256000000000000894,-0.022250607984387567
1.257000000000001005,-0.022021955974368436
1.258000000000000895,-0.021795321345446605
1.259000000000000785,-0.021570688483422102
1.260000000000000897,-0.021348041870662186
1.261000000000001009,-0.021127366085642946
1.262000000000000899,-0.020908645802459085
1.263000000000000789,-0.020691865790373881
1.264000000000000901,-0.020477010913348269
1.265000000000001013,-0.020264066129566431
1.266000000000000902,-0.020053016490984354
1.267000000000000792,-0.019843847142856745
1.268000000000000904,-0.019636543323283046
1.269000000000001016,-0.019431090362738518
1.270000000000000906,-0.019227473683627171
1.271000000000000796,-0.019025678799814698
1.272000000000000908,-0.018825691316169523
1.273000000000001020,-0.018627496928119276
1.274000000000000909,-0.018431081421189831
1.275000000000000799,-0.018236430670547733
1.276000000000000911,-0.018043530640564437
1.277000000000001023,-0.017852367384351246
1.278000000000000913,-0.017662927043317584
1.279000000000000803,-0.017475195846725730
1.280000000000000915,-0.017289160111250496
1.281000000000001027,-0.017104806240511281
1.282000000000000917,-0.016922120724661247
1.283000000000000806,-0.016741090139923462
1.284000000000000918,-0.016561701148164482
1.285000000000001030,-0.016383940496443927
1.286000000000000920,-0.016207795016587062
1.287000000000000810,-0.016033251624743040
1.288000000000000922,-0.015860297320959643
1.289000000000001034,-0.015688919188738607
1.290000000000000924,-0.015519104394604665
1.291000000000000814,-0.015350840187695497
1.292000000000000925,-0.015184113899301421
1.293000000000001037,-0.015018912942470004
1.294000000000000927,-0.014855224811561324
1.295000000000000817,-0.014693037081822185
1.296000000000000929,-0.014532337408980855
1.297000000000001041,-0.014373113528804696
1.298000000000000931,-0.014215353256698010
1.299000000000000821,-0.014059044487276674
1.300000000000000933,-0.013904175193944995
1.301000000000001044,-0.013750733428492218
1.302000000000000934,-0.013598707320668119
1.303000000000000824,-0.013448085077787756
1.304000000000000936,-0.013298854984291796
1.305000000000001048,-0.013151005401365068
1.306000000000000938,-0.013004524766520345
1.307000000000000828,-0.012859401593180161
1.308000000000000940,-0.012715624470282136
1.309000000000001052,-0.012573182061884371
1.310000000000000941,-0.012432063106746617
1.311000000000000831,-0.012292256417938730
1.312000000000000943,-0.012153750882431686
1.313000000000001055,-0.012016535460728299
1.314000000000000945,-0.011880599186431934
1.315000000000000835,-0.011745931165870180
1.316000000000000947,-0.011612520577704460
1.317000000000001059,-0.011480356672534071
1.318000000000000949,-0.011349428772498145
1.319000000000000838,-0.011219726270907658
1.320000000000000950,-0.011091238631841438
1.321000000000001062,-0.010963955389761899
1.322000000000000952,-0.010837866149141211
1.323000000000000842,-0.010712960584068509
1.324000000000000954,-0.010589228437880006
1.325000000000001066,-0.010466659522763442
1.326000000000000956,-0.010345243719402097
1.327000000000000846,-0.010224970976575546
1.328000000000000957,-0.010105831310808725
1.329000000000001069,-0.009987814805971704
1.330000000000000959,-0.009870911612936278
1.331000000000000849,-0.009755111949186681
1.332000000000000961,-0.009640406098451796
1.333000000000001073,-0.009526784410344191
1.334000000000000963,-0.009414237299999437
1.335000000000000853,-0.009302755247695171
1.336000000000000965,-0.009192328798506339
1.337000000000001076,-0.009082948561932796
1.338000000000000966,-0.008974605211541625
1.339000000000000856,-0.008867289484615180
1.340000000000000968,-0.008760992181785993
1.341000000000001080,-0.008655704166683129
1.342000000000000970,-0.008551416365585386
1.343000000000000860,-0.008448119767060898
1.344000000000000972,-0.008345805421620622
1.345000000000001084,-0.008244464441374099
1.346000000000000973,-0.008144087999669248
1.347000000000000863,-0.008044667330757749
1.348000000000000975,-0.007946193729440417
1.349000000000001087,-0.007848658550735146
1.350000000000000977,-0.007752053209528424
1.351000000000000867,-0.007656369180239162
1.352000000000000979,-0.007561597996463892
1.353000000000001091,-0.007467731250669714
1.354000000000000981,-0.007374760593836042
1.355000000000000870,-0.007282677735118951
1.356000000000000982,-0.007191474441531741
1.357000000000001094,-0.007101142537609328
1.358000000000000984,-0.007011673905072002
1.359000000000000874,-0.006923060482498941
1.360000000000000986,-0.006835294265008217
1.361000000000001098,-0.006748367303928536
1.362000000000000988,-0.006662271706466827
1.363000000000000878,-0.006576999635393889
1.364000000000000989,-0.006492543308730338
1.365000000000001101,-0.006408894999407100
1.366000000000000991,-0.006326047034961264
1.367000000000000881,-0.006243991797219882
1.368000000000000993,-0.006162721721979727
1.369000000000001105,-0.006082229298695603
1.370000000000000995,-0.006002507070166002
1.371000000000000885,-0.005923547632222951
1.372000000000000997,-0.005845343633424126
1.373000000000001108,-0.005767887774749340
1.374000000000000998,-0.005691172809272499
1.375000000000000888,-0.005615191541888574
1.376000000000001000,-0.005539936828986766
1.377000000000001112,-0.005465401578151763
1.378000000000001002,-0.005391578747869758
1.379000000000000892,-0.005318461347220647
1.380000000000001004,-0.005246042435586099
1.381000000000001116,-0.005174315122353075
1.382000000000001005,-0.005103272566609833
1.383000000000000895,-0.005032907976861527
1.384000000000001007,-0.004963214610732895
1.385000000000001119,-0.004894185774678086
1.386000000000001009,-0.004825814823693976
1.387000000000000899,-0.004758095161017298
1.388000000000001011,-0.004691020237869790
1.389000000000001123,-0.004624583553130977
1.390000000000001013,-0.004558778653086385
1.391000000000000902,-0.004493599131126992
1.392000000000001014,-0.004429038627475249
1.393000000000001126,-0.004365090828901286
1.394000000000001016,-0.004301749468452974
1.395000000000000906,-0.004239008325164923
1.396000000000001018,-0.004176861223785783
1.397000000000001130,-0.004115302034511438
1.398000000000001020,-0.004054324672708052
1.399000000000000909,-0.003993923098634543
1.400000000000001021,-0.003934091317172509
1.401000000000001133,-0.003874823377571361
1.402000000000001023,-0.003816113373155730
1.403000000000000913,-0.003757955441075801
1.404000000000001025,-0.003700343762044016
1.405000000000001137,-0.003643272560053983
1.406000000000001027,-0.003586736102133641
1.407000000000000917,-0.003530728698083260
1.408000000000001029,-0.003475244700198997
1.409000000000001140,-0.003420278503033986
1.410000000000001030,-0.003365824543127372
1.411000000000000920,-0.003311877298754935
1.412000000000001032,-0.003258431289668876
1.413000000000001144,-0.003205481076848600
1.414000000000001034,-0.003153021262245319
1.415000000000000924,-0.003101046488528718
1.416000000000001036,-0.003049551438845778
1.417000000000001148,-0.002998530836565416
1.418000000000001037,-0.002947979445027644
1.419000000000000927,-0.002897892067302897
1.420000000000001039,-0.002848263545945000
1.421000000000001151,-0.002799088762753321
1.422000000000001041,-0.002750362638521060
1.423000000000000931,-0.002702080132796590
1.424000000000001043,-0.002654236243649000
1.425000000000001155,-0.002606826007423021
1.426000000000001044,-0.002559844498505433
1.427000000000000934,-0.002513286829087565
1.428000000000001046,-0.002467148148929651
1.429000000000001158,-0.002421423645122617
1.430000000000001048,-0.002376108541871091
1.431000000000000938,-0.002331198100238967
1.432000000000001050,-0.002286687617938222
1.433000000000001162,-0.002242572429094146
1.434000000000001052,-0.002198847904008726
1.435000000000000941,-0.002155509448951948
1.436000000000001053,-0.002112552505917773
1.437000000000001165,-0.002069972552407144
1.438000000000001055,-0.002027765101214225
1.439000000000000945,-0.001985925700189178
1.440000000000001057,-0.001944449932028010
1.441000000000001169,-0.001903333414043914
1.442000000000001059,-0.001862571797955490
1.443000000000000949,-0.001822160769674538
1.444000000000001060,-0.001782096049077316
1.445000000000001172,-0.001742373389791213
1.446000000000001062,-0.001702988578998286
1.447000000000000952,-0.001663937437195748
1.448000000000001064,-0.001625215818006517
1.449000000000001176,-0.001586819607960820
1.450000000000001066,-0.001548744726281558
1.451000000000000956,-0.001510987124682089
1.452000000000001068,-0.001473542787159848
1.453000000000001180,-0.001436407729787330
1.454000000000001069,-0.001399578000506443
1.455000000000000959,-0.001363049678930877
1.456000000000001071,-0.001326818876132673
1.457000000000001183,-0.001290881734454114
1.458000000000001073,-0.001255234427298402
1.459000000000000963,-0.001219873158925566
1.460000000000001075,-0.001184794164269201
1.461000000000001187,-0.001149993708719124
1.462000000000001076,-0.001115468087952792
1.463000000000000966,-0.001081213627709566
1.464000000000001078,-0.001047226683614307
1.465000000000001190,-0.001013503640987226
1.466000000000001080,-0.000980040914636852
1.467000000000000970,-0.000946834948682328
1.468000000000001082,-0.000913882216360978
1.469000000000001194,-0.000881179219831633
1.470000000000001084,-0.000848722489996784
1.471000000000000973,-0.000816508586308693
1.472000000000001085,-0.000784534096592689
1.473000000000001197,-0.000752795636849801
1.474000000000001087,-0.000721289851084139
1.475000000000000977,-0.000690013411108980
1.476000000000001089,-0.000658963016379768
1.477000000000001201,-0.000628135393803327
1.478000000000001091,-0.000597527297556154
1.479000000000000981,-0.000567135508913921
1.480000000000001092,-0.000536956836066310
1.481000000000001204,-0.000506988113946247
1.482000000000001094,-0.000477226204049878
1.483000000000000984,-0.000447667994266861
1.484000000000001096,-0.000418310398702592
1.485000000000001208,-0.000389150357496821
1.486000000000001098,-0.000360184836674536
1.487000000000000988,-0.000331410827954762
1.488000000000001100,-0.000302825348582550
1.489000000000001211,-0.000274425441176159
1.490000000000001101,-0.000246208173539993
1.491000000000000991,-0.000218170638503640
1.492000000000001103,-0.000190309953765135
1.493000000000001215,-0.000162623261713572
1.494000000000001105,-0.000135107729266051
1.495000000000000995,-0.000107760547712363
1.496000000000001107,-0.000080578932545883
1.497000000000001219,-0.000053560123303584
1.498000000000001108,-0.000026701383407871
1.499000000000000998,0.000000000000000000
