# ZnO1m210NBDry_CS-5439-AC
# h[nm],U(h)[kJ/mol]
0.149999999999999994,119.166416029986251601
0.150999999999999995,118.317125057807828625
0.151999999999999996,117.128261914889918671
0.152999999999999997,115.872022737456290997
0.153999999999999998,114.643346796399214327
0.154999999999999999,113.457193226249430040
0.156000000000000000,112.299488371093232786
0.157000000000000001,111.151404676040030495
0.158000000000000002,109.999029299015703032
0.159000000000000002,108.835607070849135880
0.160000000000000003,107.660474604159475120
0.161000000000000004,106.476914986392102946
0.162000000000000005,105.290035714264291755
0.163000000000000006,104.105127089990759259
0.164000000000000007,102.926610612643202103
0.165000000000000008,101.757517931340629502
0.166000000000000009,100.599374831906629879
0.167000000000000010,99.452354225063146487
0.168000000000000010,98.315578566164845142
0.169000000000000011,97.187478921601424986
0.170000000000000012,96.066145903836485331
0.171000000000000013,94.949632441690084761
0.172000000000000014,93.836188073724429159
0.173000000000000015,92.724418906967727594
0.174000000000000016,91.613377097292854501
0.175000000000000017,90.502589529901115384
0.176000000000000018,89.392038222810498382
0.177000000000000018,88.282105688443465397
0.178000000000000019,87.173497784152843337
0.179000000000000020,86.067155030418504680
0.180000000000000021,84.964161403117344662
0.181000000000000022,83.865657518010010563
0.182000000000000023,82.772763124395765999
0.183000000000000024,81.686512034439545005
0.184000000000000025,80.607801099362390573
0.185000000000000026,79.537353625544795932
0.186000000000000026,78.475696696063195645
0.187000000000000027,77.423151201777130836
0.188000000000000028,76.379832956409472899
0.189000000000000029,75.345663033553208265
0.190000000000000030,74.320385381425992932
0.191000000000000031,73.303589807059807981
0.192000000000000032,72.294738542888040911
0.193000000000000033,71.293194787391783507
0.194000000000000034,70.298251824390575848
0.195000000000000034,69.309161554138825068
0.196000000000000035,68.325161499296100942
0.197000000000000036,67.345499569507609294
0.198000000000000037,66.369456072398122615
0.199000000000000038,65.396362641536867955
0.200000000000000039,64.425617910804874100
0.201000000000000040,63.456699898678984084
0.202000000000000041,62.489175175589252831
0.203000000000000042,61.522704973955661956
0.204000000000000042,60.557048465626031941
0.205000000000000043,59.592063477451702624
0.206000000000000044,58.627704945070249209
0.207000000000000045,57.664021420078483970
0.208000000000000046,56.701149949078477164
0.209000000000000047,55.739309636828622274
0.210000000000000048,54.778794192012938424
0.211000000000000049,53.819963734824952439
0.212000000000000050,52.863236122281172413
0.213000000000000050,51.909078021352229371
0.214000000000000051,50.957995932806753103
0.215000000000000052,50.010527341089904496
0.216000000000000053,49.067232138388646945
0.217000000000000054,48.128684444883944593
0.218000000000000055,47.195464922519079209
0.219000000000000056,46.268153656751465519
0.220000000000000057,45.347323659916767724
0.221000000000000058,44.433535031148089445
0.222000000000000058,43.527329791292807215
0.223000000000000059,42.629227396949630702
0.224000000000000060,41.739720925533596585
0.225000000000000061,40.859273913068435036
0.226000000000000062,39.988317818073397802
0.227000000000000063,39.127250078308392744
0.228000000000000064,38.276432722108538087
0.229000000000000065,37.436191492414366166
0.230000000000000066,36.606815439225293574
0.231000000000000066,35.788556934909976803
0.232000000000000067,34.981632066448760554
0.233000000000000068,34.186221359112742846
0.234000000000000069,33.402470787170585709
0.235000000000000070,32.630493028832333380
0.236000000000000071,31.870368924680370526
0.237000000000000072,31.122149101197880583
0.238000000000000073,30.385855723598773181
0.239000000000000073,29.661484344912814493
0.240000000000000074,28.949005821113608761
0.241000000000000075,28.248368264944911488
0.242000000000000076,27.559499013948265400
0.243000000000000077,26.882306590984502037
0.244000000000000078,26.216682638241604053
0.245000000000000079,25.562503808303961961
0.246000000000000080,24.919633598306191402
0.247000000000000081,24.287924115490920229
0.248000000000000081,23.667217764627771714
0.249000000000000082,23.057348849722536954
0.250000000000000111,22.458145084248794632
0.251000000000000112,21.869429005770992802
0.252000000000000113,21.291019292298191345
0.253000000000000114,20.722731979020910131
0.254000000000000115,20.164381575239232802
0.255000000000000115,19.615782082302722245
0.256000000000000116,19.076747914254902128
0.257000000000000117,18.547094723618535284
0.258000000000000118,18.026640135381537533
0.259000000000000119,17.515204392755443052
0.260000000000000120,17.012610918688828576
0.261000000000000121,16.518686797437275970
0.262000000000000122,16.033263180725946029
0.263000000000000123,15.556175623202403102
0.264000000000000123,15.087264351970949505
0.265000000000000124,14.626374475036579170
0.266000000000000125,14.173356133471520124
0.267000000000000126,13.728064602059120602
0.268000000000000127,13.290360343072901372
0.269000000000000128,12.860109017721896407
0.270000000000000129,12.437181459639049308
0.271000000000000130,12.021453614614358685
0.272000000000000131,11.612806450583638807
0.273000000000000131,11.211125841678811099
0.274000000000000132,10.816302429933168483
0.275000000000000133,10.428231468015788153
0.276000000000000134,10.046812646147177617
0.277000000000000135,9.671949906126480201
0.278000000000000136,9.303551245178866225
0.279000000000000137,8.941528512114651051
0.280000000000000138,8.585797198079378134
0.281000000000000139,8.236276223967156085
0.282000000000000139,7.892887726371031754
0.283000000000000140,7.555556843752723850
0.284000000000000141,7.224211504332041400
0.285000000000000142,6.898782217022966456
0.286000000000000143,6.579201866579974300
0.287000000000000144,6.265405513964277695
0.288000000000000145,5.957330202795329654
0.289000000000000146,5.654914772619306085
0.290000000000000147,5.358099679600857534
0.291000000000000147,5.066826825130173795
0.292000000000000148,4.781039392730784598
0.293000000000000149,4.500681693557604390
0.294000000000000150,4.225699020685779850
0.295000000000000151,3.956037512311728399
0.296000000000000152,3.691644023915411132
0.297000000000000153,3.432466009369042670
0.298000000000000154,3.178451410919783449
0.299000000000000155,2.929548557923848939
0.300000000000000155,2.685706074165162605
0.301000000000000156,2.446872793553599656
0.302000000000000157,2.212997683964730733
0.303000000000000158,1.984029778955827883
0.304000000000000159,1.759918117069419807
0.305000000000000160,1.540611688417418135
0.306000000000000161,1.326059388223843838
0.307000000000000162,1.116209976993216113
0.308000000000000163,0.911012046963882716
0.309000000000000163,0.710413994500639134
0.310000000000000164,0.514363998078743778
0.311000000000000165,0.322810001511735500
0.312000000000000166,0.135699702077566015
0.313000000000000167,-0.047019456798173917
0.314000000000000168,-0.225400288637436497
0.315000000000000169,-0.399495863111617278
0.316000000000000170,-0.569359501670256396
0.317000000000000171,-0.735044769906908257
0.318000000000000171,-0.896605466962522635
0.319000000000000172,-1.054095612255780523
0.320000000000000173,-1.207569429818010631
0.321000000000000174,-1.357081330498631555
0.322000000000000175,-1.502685892294756576
0.323000000000000176,-1.644437839046026584
0.324000000000000177,-1.782392017723401612
0.325000000000000178,-1.916603374527691361
0.326000000000000179,-2.047126930001575307
0.327000000000000179,-2.174017753345925286
0.328000000000000180,-2.297330936119384770
0.329000000000000181,-2.417121565487997170
0.330000000000000182,-2.533444697179874971
0.331000000000000183,-2.646355328288718223
0.332000000000000184,-2.755908370058594237
0.333000000000000185,-2.862158620771877438
0.334000000000000186,-2.965160738851870370
0.335000000000000187,-3.064969216281619779
0.336000000000000187,-3.161638352431141552
0.337000000000000188,-3.255222228375747484
0.338000000000000189,-3.345774681780009363
0.339000000000000190,-3.433349282413382664
0.340000000000000191,-3.517999308355610033
0.341000000000000192,-3.599777722942921088
0.342000000000000193,-3.678737152498890772
0.343000000000000194,-3.754929864887414315
0.344000000000000195,-3.828407748918819742
0.345000000000000195,-3.899222294634996366
0.346000000000000196,-3.967424574493308320
0.347000000000000197,-4.033065225464770087
0.348000000000000198,-4.096194432056914358
0.349000000000000199,-4.156861910267675597
0.350000000000000200,-4.215116892472764221
0.351000000000000201,-4.271008113245230220
0.352000000000000202,-4.324583796102738020
0.353000000000000203,-4.375891641175075897
0.354000000000000203,-4.424978813781729414
0.355000000000000204,-4.471891933906718464
0.356000000000000205,-4.516677066555956799
0.357000000000000206,-4.559379712980373256
0.358000000000000207,-4.600044802746049655
0.359000000000000208,-4.638716686631519259
0.360000000000000209,-4.675439130330777182
0.361000000000000210,-4.710255308939442997
0.362000000000000210,-4.743207802200716472
0.363000000000000211,-4.774338590486746803
0.364000000000000212,-4.803689051490674267
0.365000000000000213,-4.831299957603802042
0.366000000000000214,-4.857211473952239622
0.367000000000000215,-4.881463157066901815
0.368000000000000216,-4.904093954160870794
0.369000000000000217,-4.925142202987723650
0.370000000000000218,-4.944645632254914602
0.371000000000000218,-4.962641362566003522
0.372000000000000219,-4.979165907866097918
0.373000000000000220,-4.994255177364999909
0.374000000000000221,-5.007944477912872117
0.375000000000000222,-5.020268516803606751
0.376000000000000223,-5.031261404981824725
0.377000000000000224,-5.040956660629499098
0.378000000000000225,-5.049387213109019612
0.379000000000000226,-5.056585407239980512
0.380000000000000226,-5.062583007887647035
0.381000000000000227,-5.067411204841486771
0.382000000000000228,-5.071100617963050894
0.383000000000000229,-5.073681302582899733
0.384000000000000230,-5.075182755127039869
0.385000000000000231,-5.075633918954093993
0.386000000000000232,-5.075063190384865308
0.387000000000000233,-5.073498424906966342
0.388000000000000234,-5.070966943537451144
0.389000000000000234,-5.067495539327522280
0.390000000000000235,-5.063110483993687794
0.391000000000000236,-5.057837534660619028
0.392000000000000237,-5.051701940701516236
0.393000000000000238,-5.044728450662558927
0.394000000000000239,-5.036941319258476213
0.395000000000000240,-5.028364314427113513
0.396000000000000241,-5.019020724431340952
0.397000000000000242,-5.008933364997259829
0.398000000000000242,-4.998124586478400744
0.399000000000000243,-4.986616281035923137
0.400000000000000244,-4.974429889825670692
0.401000000000000245,-4.961586410183288720
0.402000000000000246,-4.948106402799142600
0.403000000000000247,-4.934009998875418468
0.404000000000000248,-4.919316907258147964
0.405000000000000249,-4.904046421537456624
0.406000000000000250,-4.888217427109696089
0.407000000000000250,-4.871848408195724289
0.408000000000000251,-4.854957454809851747
0.409000000000000252,-4.837562269674481108
0.410000000000000253,-4.819680175075871098
0.411000000000000254,-4.801328119656732341
0.412000000000000255,-4.782522685141817220
0.413000000000000256,-4.763280092993018577
0.414000000000000257,-4.743616210990666993
0.415000000000000258,-4.723546559738303507
0.416000000000000258,-4.703086319088149558
0.417000000000000259,-4.682250334485154042
0.418000000000000260,-4.661053123227424599
0.419000000000000261,-4.639508880641375121
0.420000000000000262,-4.617631486169964106
0.421000000000000263,-4.595434509372784859
0.422000000000000264,-4.572931215836828933
0.423000000000000265,-4.550134572997061255
0.424000000000000266,-4.527057255866180796
0.425000000000000266,-4.503711652672846455
0.426000000000000267,-4.480109870408223394
0.427000000000000268,-4.456263740280511421
0.428000000000000269,-4.432184823077419900
0.429000000000000270,-4.407884414436771259
0.430000000000000271,-4.383373550025259746
0.431000000000000272,-4.358663010625894785
0.432000000000000273,-4.333763327134418475
0.433000000000000274,-4.308684785465328737
0.434000000000000274,-4.283437431368088077
0.435000000000000275,-4.258031075154272926
0.436000000000000276,-4.232475296336458470
0.437000000000000277,-4.206779448179683634
0.438000000000000278,-4.180952662166474099
0.439000000000000279,-4.155003852376403906
0.440000000000000280,-4.128941719781225927
0.441000000000000281,-4.102774756456694760
0.442000000000000282,-4.076511249712246432
0.443000000000000282,-4.050159286139608739
0.444000000000000283,-4.023726755581717995
0.445000000000000284,-3.997221355023042211
0.446000000000000285,-3.970650592402578560
0.447000000000000286,-3.944021790350982659
0.448000000000000287,-3.917342089852839937
0.449000000000000288,-3.890618453835704482
0.450000000000000289,-3.863857670686972945
0.451000000000000290,-3.837066357700054109
0.452000000000000290,-3.810250964451198374
0.453000000000000291,-3.783417776108180419
0.454000000000000292,-3.756572916672334284
0.455000000000000293,-3.729722352155138143
0.456000000000000294,-3.702871893690750760
0.457000000000000295,-3.676027200585834098
0.458000000000000296,-3.649193783307862482
0.459000000000000297,-3.622377006413357581
0.460000000000000298,-3.595582091417219850
0.461000000000000298,-3.568814119604515334
0.462000000000000299,-3.542078034785919982
0.463000000000000300,-3.515378645998051610
0.464000000000000301,-3.488720630150003554
0.465000000000000302,-3.462108534617190259
0.466000000000000303,-3.435546779783722915
0.467000000000000304,-3.409039661534519983
0.468000000000000305,-3.382591353698253478
0.469000000000000306,-3.356205910442268792
0.470000000000000306,-3.329887268620659313
0.471000000000000307,-3.303639250076432887
0.472000000000000308,-3.277465563898990020
0.473000000000000309,-3.251369808637861958
0.474000000000000310,-3.225355474473777573
0.475000000000000311,-3.199425945347992517
0.476000000000000312,-3.173584501050993101
0.477000000000000313,-3.147834319271354264
0.478000000000000314,-3.122178477605812130
0.479000000000000314,-3.096619955531436652
0.480000000000000315,-3.071161636340740131
0.481000000000000316,-3.045806309040679505
0.482000000000000317,-3.020556670216288264
0.483000000000000318,-2.995415325859872357
0.484000000000000319,-2.970384793166486403
0.485000000000000320,-2.945467502296518880
0.486000000000000321,-2.920665798106146571
0.487000000000000322,-2.895981941846391461
0.488000000000000322,-2.871418112831432001
0.489000000000000323,-2.846976410077044495
0.490000000000000324,-2.822658853909663534
0.491000000000000325,-2.798467387546852869
0.492000000000000326,-2.774403878649741362
0.493000000000000327,-2.750470120848147459
0.494000000000000328,-2.726667835238907767
0.495000000000000329,-2.702998671858063418
0.496000000000000330,-2.679464211127421613
0.497000000000000330,-2.656065965276146468
0.498000000000000331,-2.632805379737737539
0.499000000000000332,-2.609683834523166990
0.500000000000000333,-2.586702645570482240
0.501000000000000334,-2.563863066071420782
0.502000000000000335,-2.541166287775586952
0.503000000000000336,-2.518613442272567671
0.504000000000000337,-2.496205602252484557
0.505000000000000338,-2.473943782745400721
0.506000000000000338,-2.451828942340024131
0.507000000000000339,-2.429861984382095219
0.508000000000000340,-2.408043758152849545
0.509000000000000341,-2.386375060028034234
0.510000000000000342,-2.364856634617695796
0.511000000000000343,-2.343489175887250919
0.512000000000000344,-2.322273328260093805
0.513000000000000345,-2.301209687702134410
0.514000000000000346,-2.280298802788613521
0.515000000000000346,-2.259541175753437159
0.516000000000000347,-2.238937263521424192
0.517000000000000348,-2.218487478723774498
0.518000000000000349,-2.198192190696949044
0.519000000000000350,-2.178051726465394911
0.520000000000000351,-2.158066371708255549
0.521000000000000352,-2.138236371710459327
0.522000000000000353,-2.118561932298349770
0.523000000000000353,-2.099043220760147932
0.524000000000000354,-2.079680366751542220
0.525000000000000355,-2.060473463186565102
0.526000000000000356,-2.041422567114027142
0.527000000000000357,-2.022527700579795695
0.528000000000000358,-2.003788851474987087
0.529000000000000359,-1.985205974370503057
0.530000000000000360,-1.966778991337897242
0.531000000000000361,-1.948507792756962065
0.532000000000000361,-1.930392238110103076
0.533000000000000362,-1.912432156763805846
0.534000000000000363,-1.894627348737270678
0.535000000000000364,-1.876977585458512010
0.536000000000000365,-1.859482610508021994
0.537000000000000366,-1.842142140350226498
0.538000000000000367,-1.824955865052841464
0.539000000000000368,-1.807923448994419591
0.540000000000000369,-1.791044531560083586
0.541000000000000369,-1.774318727825787700
0.542000000000000370,-1.757745629231102003
0.543000000000000371,-1.741324804240792501
0.544000000000000372,-1.725055798995291267
0.545000000000000373,-1.708938137950235303
0.546000000000000374,-1.692971324505168962
0.547000000000000375,-1.677154841621615988
0.548000000000000376,-1.661488152430629750
0.549000000000000377,-1.645970700829960887
0.550000000000000377,-1.630601912070963166
0.551000000000000378,-1.615381193335406751
0.552000000000000379,-1.600307934302305224
0.553000000000000380,-1.585381507704883397
0.554000000000000381,-1.570601269877801354
0.555000000000000382,-1.555966561294827688
0.556000000000000383,-1.541476707096955501
0.557000000000000384,-1.527131017611237374
0.558000000000000385,-1.512928788860312013
0.559000000000000385,-1.498869303062849045
0.560000000000000386,-1.484951829124967482
0.561000000000000387,-1.471175623122770837
0.562000000000000388,-1.457539928776071747
0.563000000000000389,-1.444043977913490817
0.564000000000000390,-1.430686990928953461
0.565000000000000391,-1.417468177229753490
0.566000000000000392,-1.404386735676255604
0.567000000000000393,-1.391441855013387130
0.568000000000000393,-1.378632714293957395
0.569000000000000394,-1.365958483293962633
0.570000000000000395,-1.353418322919967665
0.571000000000000396,-1.341011385608631645
0.572000000000000397,-1.328736815718545738
0.573000000000000398,-1.316593749914391598
0.574000000000000399,-1.304581317543624719
0.575000000000000400,-1.292698641005663784
0.576000000000000401,-1.280944836113769636
0.577000000000000401,-1.269319012449712236
0.578000000000000402,-1.257820273711230730
0.579000000000000403,-1.246447718052455800
0.580000000000000404,-1.235200438417414892
0.581000000000000405,-1.224077522866591439
0.582000000000000406,-1.213078054896772562
0.583000000000000407,-1.202201113754157946
0.584000000000000408,-1.191445774740898855
0.585000000000000409,-1.180811109515111479
0.586000000000000409,-1.170296186384465198
0.587000000000000410,-1.159900070593454569
0.588000000000000411,-1.149621824604382780
0.589000000000000412,-1.139460508372232450
0.590000000000000413,-1.129415179613407316
0.591000000000000414,-1.119484894068505820
0.592000000000000415,-1.109668705759192520
0.593000000000000416,-1.099965667239211964
0.594000000000000417,-1.090374829839658721
0.595000000000000417,-1.080895243908646997
0.596000000000000418,-1.071525959045276810
0.597000000000000419,-1.062266024328226255
0.598000000000000420,-1.053114488538816618
0.599000000000000421,-1.044070400378797947
0.600000000000000422,-1.035132808682835748
0.601000000000000423,-1.026300762625812490
0.602000000000000424,-1.017573311925031643
0.603000000000000425,-1.008949507037373294
0.604000000000000425,-1.000428399351483533
0.605000000000000426,-0.992009041375082612
0.606000000000000427,-0.983690486917502382
0.607000000000000428,-0.975471791267376709
0.608000000000000429,-0.967352011365829378
0.609000000000000430,-0.959330205974892936
0.610000000000000431,-0.951405435841560787
0.611000000000000432,-0.943576763857298162
0.612000000000000433,-0.935843255213182568
0.613000000000000433,-0.928203977550784209
0.614000000000000434,-0.920658001108764390
0.615000000000000435,-0.913204398865307021
0.616000000000000436,-0.905842246676440643
0.617000000000000437,-0.898570623410372860
0.618000000000000438,-0.891388611077799098
0.619000000000000439,-0.884295294958313827
0.620000000000000440,-0.877289763723022475
0.621000000000000441,-0.870371109553343070
0.622000000000000441,-0.863538428256121593
0.623000000000000442,-0.856790819375077839
0.624000000000000443,-0.850127386298679122
0.625000000000000444,-0.843547236364520558
0.626000000000000445,-0.837049480960185610
0.627000000000000446,-0.830633235620771293
0.628000000000000447,-0.824297620123034092
0.629000000000000448,-0.818041758576272371
0.630000000000000449,-0.811864779509985701
0.631000000000000449,-0.805765815958372933
0.632000000000000450,-0.799744005541723202
0.633000000000000451,-0.793798490544779578
0.634000000000000452,-0.787928417992072805
0.635000000000000453,-0.782132939720371234
0.636000000000000454,-0.776411212448194776
0.637000000000000455,-0.770762397842567060
0.638000000000000456,-0.765185662582931747
0.639000000000000457,-0.759680178422396546
0.640000000000000457,-0.754245122246310684
0.641000000000000458,-0.748879676128181959
0.642000000000000459,-0.743583027383112993
0.643000000000000460,-0.738354368618633683
0.644000000000000461,-0.733192897783149222
0.645000000000000462,-0.728097818211941195
0.646000000000000463,-0.723068338670798894
0.647000000000000464,-0.718103673397358366
0.648000000000000465,-0.713203042140169052
0.649000000000000465,-0.708365670195522545
0.650000000000000466,-0.703590788442144843
0.651000000000000467,-0.698877633373715890
0.652000000000000468,-0.694225447129346418
0.653000000000000469,-0.689633477521987004
0.654000000000000470,-0.685100978064872801
0.655000000000000471,-0.680627207995997408
0.656000000000000472,-0.676211432300683146
0.657000000000000473,-0.671852921732281838
0.658000000000000473,-0.667550952831079014
0.659000000000000474,-0.663304807941374142
0.660000000000000475,-0.659113775226864540
0.661000000000000476,-0.654977148684276700
0.662000000000000477,-0.650894228155388554
0.663000000000000478,-0.646864319337375981
0.664000000000000479,-0.642886733791642628
0.665000000000000480,-0.638960788950999170
0.666000000000000481,-0.635085808125456452
0.667000000000000481,-0.631261120506420137
0.668000000000000482,-0.627486061169565734
0.669000000000000483,-0.623759971076208841
0.670000000000000484,-0.620082197073370311
0.671000000000000485,-0.616452091892495946
0.672000000000000486,-0.612869014146847690
0.673000000000000487,-0.609332328327683248
0.674000000000000488,-0.605841404799146166
0.675000000000000488,-0.602395619791975534
0.676000000000000489,-0.598994355396084699
0.677000000000000490,-0.595636999551926394
0.678000000000000491,-0.592322946040817255
0.679000000000000492,-0.589051594474152784
0.680000000000000493,-0.585822350281572812
0.681000000000000494,-0.582634624698134429
0.682000000000000495,-0.579487834750459063
0.683000000000000496,-0.576381403241955637
0.684000000000000496,-0.573314758737084817
0.685000000000000497,-0.570287335544718443
0.686000000000000498,-0.567298573700644182
0.687000000000000499,-0.564347918949184235
0.688000000000000500,-0.561434822724003579
0.689000000000000501,-0.558558742128119623
0.690000000000000502,-0.555719139913135929
0.691000000000000503,-0.552915484457716655
0.692000000000000504,-0.550147249745319145
0.693000000000000504,-0.547413915341277257
0.694000000000000505,-0.544714966369120202
0.695000000000000506,-0.542049893486317935
0.696000000000000507,-0.539418192859333456
0.697000000000000508,-0.536819366138077236
0.698000000000000509,-0.534252920429786449
0.699000000000000510,-0.531718368272308561
0.700000000000000511,-0.529215227606848360
0.701000000000000512,-0.526743021750188278
0.702000000000000512,-0.524301279366381490
0.703000000000000513,-0.521889534437977920
0.704000000000000514,-0.519507326236765321
0.705000000000000515,-0.517154199294055372
0.706000000000000516,-0.514829703370544234
0.707000000000000517,-0.512533393425767536
0.708000000000000518,-0.510264829587112390
0.709000000000000519,-0.508023577118523972
0.710000000000000520,-0.505809206388766919
0.711000000000000520,-0.503621292839404044
0.712000000000000521,-0.501459416952410697
0.713000000000000522,-0.499323164217470972
0.714000000000000523,-0.497212125099014191
0.715000000000000524,-0.495125895002905214
0.716000000000000525,-0.493064074242930417
0.717000000000000526,-0.491026268006992783
0.718000000000000527,-0.489012086323059314
0.719000000000000528,-0.487021144024908481
0.720000000000000528,-0.485053060717670181
0.721000000000000529,-0.483107460743116390
0.722000000000000530,-0.481183973144839794
0.723000000000000531,-0.479282231633188449
0.724000000000000532,-0.477401874550095251
0.725000000000000533,-0.475542544833735203
0.726000000000000534,-0.473703889983037196
0.727000000000000535,-0.471885562022094418
0.728000000000000536,-0.470087217464443152
0.729000000000000536,-0.468308517277247316
0.730000000000000537,-0.466549126845404394
0.731000000000000538,-0.464808715935536743
0.732000000000000539,-0.463086958659951420
0.733000000000000540,-0.461383533440518634
0.734000000000000541,-0.459698122972506618
0.735000000000000542,-0.458030414188359880
0.736000000000000543,-0.456380098221482899
0.737000000000000544,-0.454746870369957368
0.738000000000000544,-0.453130430060290135
0.739000000000000545,-0.451530480811115076
0.740000000000000546,-0.449946730196929878
0.741000000000000547,-0.448378889811817505
0.742000000000000548,-0.446826675233243709
0.743000000000000549,-0.445289805985794374
0.744000000000000550,-0.443768005505022600
0.745000000000000551,-0.442261001101307616
0.746000000000000552,-0.440768523923772360
0.747000000000000552,-0.439290308924254969
0.748000000000000553,-0.437826094821335332
0.749000000000000554,-0.436375624064446466
0.750000000000000555,-0.434938642798057717
0.751000000000000556,-0.433514900825929417
0.752000000000000557,-0.432104151575493756
0.753000000000000558,-0.430706152062259762
0.754000000000000559,-0.429320662854403401
0.755000000000000560,-0.427947448037393319
0.756000000000000560,-0.426586275178787389
0.757000000000000561,-0.425236915293081885
0.758000000000000562,-0.423899142806729690
0.759000000000000563,-0.422572735523275955
0.760000000000000564,-0.421257474588614511
0.761000000000000565,-0.419953144456379768
0.762000000000000566,-0.418659532853491001
0.763000000000000567,-0.417376430745824423
0.764000000000000568,-0.416103632304036020
0.765000000000000568,-0.414840934869564026
0.766000000000000569,-0.413588138920737314
0.767000000000000570,-0.412345048039100326
0.768000000000000571,-0.411111468875830721
0.769000000000000572,-0.409887211118404537
0.770000000000000573,-0.408672087457360944
0.771000000000000574,-0.407465913553290371
0.772000000000000575,-0.406268508003959750
0.773000000000000576,-0.405079692311644646
0.774000000000000576,-0.403899290850621817
0.775000000000000577,-0.402727130834868441
0.776000000000000578,-0.401563042285920102
0.777000000000000579,-0.400406858000950661
0.778000000000000580,-0.399258413521006106
0.779000000000000581,-0.398117547099466618
0.780000000000000582,-0.396984099670678547
0.781000000000000583,-0.395857914818805168
0.782000000000000584,-0.394738838746861664
0.783000000000000584,-0.393626720245948636
0.784000000000000585,-0.392521410664715076
0.785000000000000586,-0.391422763878987112
0.786000000000000587,-0.390330636261638386
0.787000000000000588,-0.389244886652650557
0.788000000000000589,-0.388165376329372480
0.789000000000000590,-0.387091968977027023
0.790000000000000591,-0.386024530659386578
0.791000000000000592,-0.384962929789686381
0.792000000000000592,-0.383907037101748672
0.793000000000000593,-0.382856725621309679
0.794000000000000594,-0.381811870637575379
0.795000000000000595,-0.380772349675002952
0.796000000000000596,-0.379738042465255998
0.797000000000000597,-0.378708830919431139
0.798000000000000598,-0.377684599100471752
0.799000000000000599,-0.376665233195801974
0.800000000000000600,-0.375650621490198289
0.801000000000000600,-0.374640654338857682
0.802000000000000601,-0.373635224140698941
0.803000000000000602,-0.372634225311881895
0.804000000000000603,-0.371637554259552305
0.805000000000000604,-0.370645109355806746
0.806000000000000605,-0.369656790911850219
0.807000000000000606,-0.368672501152430887
0.808000000000000607,-0.367692144190444714
0.809000000000000608,-0.366715626001776263
0.810000000000000608,-0.365742854400393891
0.811000000000000609,-0.364773739013586396
0.812000000000000610,-0.363808191257527558
0.813000000000000611,-0.362846124312949825
0.814000000000000612,-0.361887453101125189
0.815000000000000613,-0.360932094260027592
0.816000000000000614,-0.359979966120705708
0.817000000000000615,-0.359030988683896379
0.818000000000000616,-0.358085083596851539
0.819000000000000616,-0.357142174130374745
0.820000000000000617,-0.356202185156073714
0.821000000000000618,-0.355265043123844770
0.822000000000000619,-0.354330676039571635
0.823000000000000620,-0.353399013443018606
0.824000000000000621,-0.352469986385952061
0.825000000000000622,-0.351543527410489443
0.826000000000000623,-0.350619570527647917
0.827000000000000624,-0.349698051196097537
0.828000000000000624,-0.348778906301149938
0.829000000000000625,-0.347862074133931110
0.830000000000000626,-0.346947494370789200
0.831000000000000627,-0.346035108052893670
0.832000000000000628,-0.345124857566064147
0.833000000000000629,-0.344216686620774925
0.834000000000000630,-0.343310540232397154
0.835000000000000631,-0.342406364701631716
0.836000000000000631,-0.341504107595146378
0.837000000000000632,-0.340603717726431665
0.838000000000000633,-0.339705145136832809
0.839000000000000634,-0.338808341076806852
0.840000000000000635,-0.337913257987380700
0.841000000000000636,-0.337019849481781208
0.842000000000000637,-0.336128070327307071
0.843000000000000638,-0.335237876427359749
0.844000000000000639,-0.334349224803687395
0.845000000000000639,-0.333462073578830620
0.846000000000000640,-0.332576381958737233
0.847000000000000641,-0.331692110215618674
0.848000000000000642,-0.330809219670931687
0.849000000000000643,-0.329927672678598738
0.850000000000000644,-0.329047432608424839
0.851000000000000645,-0.328168463829647039
0.852000000000000646,-0.327290731694734827
0.853000000000000647,-0.326414202523336860
0.854000000000000647,-0.325538843586416937
0.855000000000000648,-0.324664623090590077
0.856000000000000649,-0.323791510162626806
0.857000000000000650,-0.322919474834143627
0.858000000000000651,-0.322048488026464352
0.859000000000000652,-0.321178521535664119
0.860000000000000653,-0.320309548017812418
0.861000000000000654,-0.319441540974340854
0.862000000000000655,-0.318574474737646107
0.863000000000000655,-0.317708324456809910
0.864000000000000656,-0.316843066083540681
0.865000000000000657,-0.315978676358233790
0.866000000000000658,-0.315115132796254027
0.867000000000000659,-0.314252413674353304
0.868000000000000660,-0.313390498017254715
0.869000000000000661,-0.312529365584408914
0.870000000000000662,-0.311668996856922120
0.871000000000000663,-0.310809373024643842
0.872000000000000663,-0.309950475973388206
0.873000000000000664,-0.309092288272366233
0.874000000000000665,-0.308234793161719700
0.875000000000000666,-0.307377974540270715
0.876000000000000667,-0.306521816953370663
0.877000000000000668,-0.305666305580940822
0.878000000000000669,-0.304811426225664539
0.879000000000000670,-0.303957165301304955
0.880000000000000671,-0.303103509821206207
0.881000000000000671,-0.302250447386910370
0.882000000000000672,-0.301397966176962684
0.883000000000000673,-0.300546054935820484
0.884000000000000674,-0.299694702962945869
0.885000000000000675,-0.298843900102004456
0.886000000000000676,-0.297993636730245648
0.887000000000000677,-0.297143903747994986
0.888000000000000678,-0.296294692568293772
0.889000000000000679,-0.295445995106689674
0.890000000000000679,-0.294597803771149580
0.891000000000000680,-0.293750111452118434
0.892000000000000681,-0.292902911512705699
0.893000000000000682,-0.292056197779011595
0.894000000000000683,-0.291209964530574128
0.895000000000000684,-0.290364206490971111
0.896000000000000685,-0.289518918818524429
0.897000000000000686,-0.288674097097147808
0.898000000000000687,-0.287829737327322976
0.899000000000000687,-0.286985835917189624
0.900000000000000688,-0.286142389673777642
0.901000000000000689,-0.285299395794343380
0.902000000000000690,-0.284456851857850079
0.903000000000000691,-0.283614755816543440
0.904000000000000692,-0.282773105987671469
0.905000000000000693,-0.281931901045303412
0.906000000000000694,-0.281091140012287688
0.907000000000000695,-0.280250822252293696
0.908000000000000695,-0.279410947462006398
0.909000000000000696,-0.278571515663399605
0.910000000000000697,-0.277732527196153101
0.911000000000000698,-0.276893982710152975
0.912000000000000699,-0.276055883158120630
0.913000000000000700,-0.275218229788350865
0.914000000000000701,-0.274381024137534013
0.915000000000000702,-0.273544268023724668
0.916000000000000703,-0.272707963539376874
0.917000000000000703,-0.271872113044508035
0.918000000000000704,-0.271036719159961137
0.919000000000000705,-0.270201784760753516
0.920000000000000706,-0.269367312969558237
0.921000000000000707,-0.268533307150247313
0.922000000000000708,-0.267699770901563272
0.923000000000000709,-0.266866708050883361
0.924000000000000710,-0.266034122648057203
0.925000000000000711,-0.265202018959372565
0.926000000000000711,-0.264370401461594018
0.927000000000000712,-0.263539274836099624
0.928000000000000713,-0.262708643963112942
0.929000000000000714,-0.261878513916030342
0.930000000000000715,-0.261048889955821872
0.931000000000000716,-0.260219777525534934
0.932000000000000717,-0.259391182244888663
0.933000000000000718,-0.258563109904940469
0.934000000000000719,-0.257735566462856613
0.935000000000000719,-0.256908558036754664
0.936000000000000720,-0.256082090900628778
0.937000000000000721,-0.255256171479368077
0.938000000000000722,-0.254430806343858396
0.939000000000000723,-0.253606002206144099
0.940000000000000724,-0.252781765914696144
0.941000000000000725,-0.251958104449738596
0.942000000000000726,-0.251135024918676453
0.943000000000000727,-0.250312534551564714
0.944000000000000727,-0.249490640696695520
0.945000000000000728,-0.248669350816235341
0.946000000000000729,-0.247848672481926352
0.947000000000000730,-0.247028613370902900
0.948000000000000731,-0.246209181261526799
0.949000000000000732,-0.245390384029343794
0.950000000000000733,-0.244572229643069738
0.951000000000000734,-0.243754726160687468
0.952000000000000735,-0.242937881725572680
0.953000000000000735,-0.242121704562705764
0.954000000000000736,-0.241306202974963385
0.955000000000000737,-0.240491385339454633
0.956000000000000738,-0.239677260103937917
0.957000000000000739,-0.238863835783288792
0.958000000000000740,-0.238051120956051326
0.959000000000000741,-0.237239124261027889
0.960000000000000742,-0.236427854393957665
0.961000000000000743,-0.235617320104236472
0.962000000000000743,-0.234807530191698394
0.963000000000000744,-0.233998493503471183
0.964000000000000745,-0.233190218930886234
0.965000000000000746,-0.232382715406430573
0.966000000000000747,-0.231575991900780320
0.967000000000000748,-0.230770057419865726
0.968000000000000749,-0.229964921002028033
0.969000000000000750,-0.229160591715184214
0.970000000000000751,-0.228357078654098350
0.971000000000000751,-0.227554390937654005
0.972000000000000752,-0.226752537706215840
0.973000000000000753,-0.225951528119048201
0.974000000000000754,-0.225151371351746871
0.975000000000000755,-0.224352076593760691
0.976000000000000756,-0.223553653045944684
0.977000000000000757,-0.222756109918163553
0.978000000000000758,-0.221959456426945978
0.979000000000000759,-0.221163701793202078
0.980000000000000759,-0.220368855239949146
0.981000000000000760,-0.219574925990130509
0.982000000000000761,-0.218781923264456696
0.983000000000000762,-0.217989856279283772
0.984000000000000763,-0.217198734244553965
0.985000000000000764,-0.216408566361781490
0.986000000000000765,-0.215619361822065592
0.987000000000000766,-0.214831129804157694
0.988000000000000766,-0.214043879472568033
0.989000000000000767,-0.213257619975721985
0.990000000000000768,-0.212472360444151687
0.991000000000000769,-0.211688109988713957
0.992000000000000770,-0.210904877698869175
0.993000000000000771,-0.210122672641007091
0.994000000000000772,-0.209341503856766614
0.995000000000000773,-0.208561380361454690
0.996000000000000774,-0.207782311142450909
0.997000000000000774,-0.207004305157681007
0.998000000000000775,-0.206227371334114729
0.999000000000000776,-0.205451518566297286
1.000000000000000666,-0.204676755714927883
1.001000000000000778,-0.203903091605462550
1.002000000000000668,-0.203130535026754350
1.003000000000000780,-0.202359094729732736
1.004000000000000670,-0.201588779426099929
1.005000000000000782,-0.200819597787091381
1.006000000000000671,-0.200051558442238958
1.007000000000000783,-0.199284669978168905
1.008000000000000673,-0.198518940937456922
1.009000000000000785,-0.197754379817483172
1.010000000000000675,-0.196990995069337205
1.011000000000000787,-0.196228795096740460
1.012000000000000677,-0.195467788255014790
1.013000000000000789,-0.194707982850066769
1.014000000000000679,-0.193949387137388352
1.015000000000000790,-0.193192009321128289
1.016000000000000680,-0.192435857553147238
1.017000000000000792,-0.191680939932120570
1.018000000000000682,-0.190927264502660898
1.019000000000000794,-0.190174839254478478
1.020000000000000684,-0.189423672121558334
1.021000000000000796,-0.188673770981360789
1.022000000000000686,-0.187925143654051940
1.023000000000000798,-0.187177797901763865
1.024000000000000687,-0.186431741427862674
1.025000000000000799,-0.185686981876261342
1.026000000000000689,-0.184943526830744498
1.027000000000000801,-0.184201383814311004
1.028000000000000691,-0.183460560288555452
1.029000000000000803,-0.182721063653056653
1.030000000000000693,-0.181982901244793271
1.031000000000000805,-0.181246080337593540
1.032000000000000695,-0.180510608141576517
1.033000000000000806,-0.179776491802654065
1.034000000000000696,-0.179043738402015457
1.035000000000000808,-0.178312354955656144
1.036000000000000698,-0.177582348413911323
1.037000000000000810,-0.176853725661041683
1.038000000000000700,-0.176126493514779436
1.039000000000000812,-0.175400658725946762
1.040000000000000702,-0.174676227978074972
1.041000000000000814,-0.173953207887036304
1.042000000000000703,-0.173231605000689987
1.043000000000000815,-0.172511425798567597
1.044000000000000705,-0.171792676691556789
1.045000000000000817,-0.171075364021594345
1.046000000000000707,-0.170359494061409433
1.047000000000000819,-0.169645073014248554
1.048000000000000709,-0.168932107013634425
1.049000000000000821,-0.168220602123135388
1.050000000000000711,-0.167510564336147055
1.051000000000000822,-0.166801999575703352
1.052000000000000712,-0.166094913694285140
1.053000000000000824,-0.165389312473648992
1.054000000000000714,-0.164685201624679145
1.055000000000000826,-0.163982586787239482
1.056000000000000716,-0.163281473530054372
1.057000000000000828,-0.162581867350585718
1.058000000000000718,-0.161883773674938336
1.059000000000000830,-0.161187197857769776
1.060000000000000719,-0.160492145182220464
1.061000000000000831,-0.159798620859846280
1.062000000000000721,-0.159106630030566715
1.063000000000000833,-0.158416177762639637
1.064000000000000723,-0.157727269052620522
1.065000000000000835,-0.157039908825354513
1.066000000000000725,-0.156354101933980250
1.067000000000000837,-0.155669853159916771
1.068000000000000727,-0.154987167212912891
1.069000000000000838,-0.154306048731046447
1.070000000000000728,-0.153626502280787142
1.071000000000000840,-0.152948532357031042
1.072000000000000730,-0.152272143383173464
1.073000000000000842,-0.151597339711173007
1.074000000000000732,-0.150924125621622468
1.075000000000000844,-0.150252505323853397
1.076000000000000734,-0.149582482956028551
1.077000000000000846,-0.148914062585240148
1.078000000000000735,-0.148247248207641236
1.079000000000000847,-0.147582043748552827
1.080000000000000737,-0.146918453062616722
1.081000000000000849,-0.146256479933917966
1.082000000000000739,-0.145596128076142167
1.083000000000000851,-0.144937401132732818
1.084000000000000741,-0.144280302677059463
1.085000000000000853,-0.143624836212578877
1.086000000000000743,-0.142971005173020194
1.087000000000000854,-0.142318812922577059
1.088000000000000744,-0.141668262756096480
1.089000000000000856,-0.141019357899274195
1.090000000000000746,-0.140372101508865699
1.091000000000000858,-0.139726496672904876
1.092000000000000748,-0.139082546410914887
1.093000000000000860,-0.138440253674141811
1.094000000000000750,-0.137799621345776807
1.095000000000000862,-0.137160652241205133
1.096000000000000751,-0.136523349108246650
1.097000000000000863,-0.135887714627391715
1.098000000000000753,-0.135253751412076684
1.099000000000000865,-0.134621462008931381
1.100000000000000755,-0.133990848898044773
1.101000000000000867,-0.133361914493232703
1.102000000000000757,-0.132734661142321436
1.103000000000000869,-0.132109091127422029
1.104000000000000759,-0.131485206665205606
1.105000000000000870,-0.130863009907212280
1.106000000000000760,-0.130242502940119215
1.107000000000000872,-0.129623687786058567
1.108000000000000762,-0.129006566402908418
1.109000000000000874,-0.128391140684600447
1.110000000000000764,-0.127777412461428069
1.111000000000000876,-0.127165383500354084
1.112000000000000766,-0.126555055505339492
1.113000000000000878,-0.125946430117650998
1.114000000000000767,-0.125339508916194303
1.115000000000000879,-0.124734293417826644
1.116000000000000769,-0.124130785077702671
1.117000000000000881,-0.123528985289594370
1.118000000000000771,-0.122928895386233167
1.119000000000000883,-0.122330516639647738
1.120000000000000773,-0.121733850261505488
1.121000000000000885,-0.121138897403452711
1.122000000000000774,-0.120545659157463333
1.123000000000000886,-0.119954136556186544
1.124000000000000776,-0.119364330573308350
1.125000000000000888,-0.118776242123883297
1.126000000000000778,-0.118189872064706769
1.127000000000000890,-0.117605221194678727
1.128000000000000780,-0.117022290255139244
1.129000000000000892,-0.116441079930252350
1.130000000000000782,-0.115861590847362916
1.131000000000000894,-0.115283823577353520
1.132000000000000783,-0.114707778635024127
1.133000000000000895,-0.114133456479457163
1.134000000000000785,-0.113560857514372837
1.135000000000000897,-0.112989982088529464
1.136000000000000787,-0.112420830496064189
1.137000000000000899,-0.111853402976893099
1.138000000000000789,-0.111287699717065841
1.139000000000000901,-0.110723720849162668
1.140000000000000790,-0.110161466452653484
1.141000000000000902,-0.109600936554281311
1.142000000000000792,-0.109042131128450293
1.143000000000000904,-0.108485050097589714
1.144000000000000794,-0.107929693332557280
1.145000000000000906,-0.107376060652991032
1.146000000000000796,-0.106824151827722452
1.147000000000000908,-0.106273966575137074
1.148000000000000798,-0.105725504563566844
1.149000000000000909,-0.105178765411676339
1.150000000000000799,-0.104633748688833933
1.151000000000000689,-0.104090453915512818
1.152000000000000801,-0.103548880563666984
1.153000000000000913,-0.103009028057117466
1.154000000000000803,-0.102470895771939796
1.155000000000000693,-0.101934483036839857
1.156000000000000805,-0.101399789133557988
1.157000000000000917,-0.100866813297232877
1.158000000000000806,-0.100335554716804179
1.159000000000000696,-0.099806012535389579
1.160000000000000808,-0.099278185850667500
1.161000000000000920,-0.098752073715268757
1.162000000000000810,-0.098227675137161102
1.163000000000000700,-0.097704989080028087
1.164000000000000812,-0.097184014463657875
1.165000000000000924,-0.096664750164321633
1.166000000000000814,-0.096147195015169107
1.167000000000000703,-0.095631347806595726
1.168000000000000815,-0.095117207286639679
1.169000000000000927,-0.094604772161350964
1.170000000000000817,-0.094094041095184849
1.171000000000000707,-0.093585012711370791
1.172000000000000819,-0.093077685592306697
1.173000000000000931,-0.092572058279927122
1.174000000000000821,-0.092068129276083460
1.175000000000000711,-0.091565897042926683
1.176000000000000822,-0.091065360003284357
1.177000000000000934,-0.090566516541030567
1.178000000000000824,-0.090069365001472806
1.179000000000000714,-0.089573903691712198
1.180000000000000826,-0.089080130881034142
1.181000000000000938,-0.088588044801264365
1.182000000000000828,-0.088097643647153390
1.183000000000000718,-0.087608925576744684
1.184000000000000830,-0.087121888711744325
1.185000000000000941,-0.086636531137880737
1.186000000000000831,-0.086152850905289680
1.187000000000000721,-0.085670846028865932
1.188000000000000833,-0.085190514488638722
1.189000000000000945,-0.084711854230131084
1.190000000000000835,-0.084234863164727447
1.191000000000000725,-0.083759539170023947
1.192000000000000837,-0.083285880090212233
1.193000000000000949,-0.082813883736409355
1.194000000000000838,-0.082343547887045759
1.195000000000000728,-0.081874870288196663
1.196000000000000840,-0.081407848653955367
1.197000000000000952,-0.080942480666783459
1.198000000000000842,-0.080478763977855305
1.199000000000000732,-0.080016696207426935
1.200000000000000844,-0.079556274945162847
1.201000000000000956,-0.079097497750507562
1.202000000000000846,-0.078640362153019797
1.203000000000000735,-0.078184865652724533
1.204000000000000847,-0.077731005720445390
1.205000000000000959,-0.077278779798174282
1.206000000000000849,-0.076828185299382928
1.207000000000000739,-0.076379219609377880
1.208000000000000851,-0.075931880085641765
1.209000000000000963,-0.075486164058160957
1.210000000000000853,-0.075042068829771130
1.211000000000000743,-0.074599591676480240
1.212000000000000854,-0.074158729847810273
1.213000000000000966,-0.073719480567119716
1.214000000000000856,-0.073281841031946543
1.215000000000000746,-0.072845808414314275
1.216000000000000858,-0.072411379861080011
1.217000000000000970,-0.071978552494243120
1.218000000000000860,-0.071547323411274830
1.219000000000000750,-0.071117689685437718
1.220000000000000862,-0.070689648366107902
1.221000000000000973,-0.070263196479084550
1.222000000000000863,-0.069838331026917846
1.223000000000000753,-0.069415048989209749
1.224000000000000865,-0.068993347322939269
1.225000000000000977,-0.068573222962767466
1.226000000000000867,-0.068154672821344131
1.227000000000000757,-0.067737693789619219
1.228000000000000869,-0.067322282737143718
1.229000000000000981,-0.066908436512390548
1.230000000000000870,-0.066496151943026161
1.231000000000000760,-0.066085425836237985
1.232000000000000872,-0.065676254979029541
1.233000000000000984,-0.065268636138499259
1.234000000000000874,-0.064862566062158983
1.235000000000000764,-0.064458041478210923
1.236000000000000876,-0.064055059095848757
1.237000000000000988,-0.063653615605542307
1.238000000000000878,-0.063253707679333554
1.239000000000000767,-0.062855331971110026
1.240000000000000879,-0.062458485116901760
1.241000000000000991,-0.062063163735160652
1.242000000000000881,-0.061669364427037701
1.243000000000000771,-0.061277083776666630
1.244000000000000883,-0.060886318351439692
1.245000000000000995,-0.060497064702286329
1.246000000000000885,-0.060109319363944147
1.247000000000000774,-0.059723078855229414
1.248000000000000886,-0.059338339679312548
1.249000000000000998,-0.058955098323984413
1.250000000000000888,-0.058573351261923937
1.251000000000000778,-0.058193094950960630
1.252000000000000890,-0.057814325834342005
1.253000000000001002,-0.057437040340987788
1.254000000000000892,-0.057061234885763867
1.255000000000000782,-0.056686905869724510
1.256000000000000894,-0.056314049680373957
1.257000000000001005,-0.055942662691927582
1.258000000000000895,-0.055572741265556079
1.259000000000000785,-0.055204281749639664
1.260000000000000897,-0.054837280480014551
1.261000000000001009,-0.054471733780229348
1.262000000000000899,-0.054107637961773980
1.263000000000000789,-0.053744989324339590
1.264000000000000901,-0.053383784156052938
1.265000000000001013,-0.053024018733714373
1.266000000000000902,-0.052665689323044461
1.267000000000000792,-0.052308792178911503
1.268000000000000904,-0.051953323545571861
1.269000000000001016,-0.051599279656900254
1.270000000000000906,-0.051246656736627774
1.271000000000000796,-0.050895450998561950
1.272000000000000908,-0.050545658646817850
1.273000000000001020,-0.050197275876048941
1.274000000000000909,-0.049850298871668343
1.275000000000000799,-0.049504723810064821
1.276000000000000911,-0.049160546858839020
1.277000000000001023,-0.048817764177006367
1.278000000000000913,-0.048476371915223235
1.279000000000000803,-0.048136366216004388
1.280000000000000915,-0.047797743213934651
1.281000000000001027,-0.047460499035871503
1.282000000000000917,-0.047124629801175280
1.283000000000000806,-0.046790131621900315
1.284000000000000918,-0.046457000603015705
1.285000000000001030,-0.046125232842597730
1.286000000000000920,-0.045794824432043808
1.287000000000000810,-0.045465771456270773
1.288000000000000922,-0.045138069993918339
1.289000000000001034,-0.044811716117542651
1.290000000000000924,-0.044486705893813282
1.291000000000000814,-0.044163035383719879
1.292000000000000925,-0.043840700642747303
1.293000000000001037,-0.043519697721088900
1.294000000000000927,-0.043200022663822377
1.295000000000000817,-0.042881671511097265
1.296000000000000929,-0.042564640298336801
1.297000000000001041,-0.042248925056408551
1.298000000000000931,-0.041934521811816755
1.299000000000000821,-0.041621426586884322
1.300000000000000933,-0.041309635399927429
1.301000000000001044,-0.040999144265442503
1.302000000000000934,-0.040689949194277590
1.303000000000000824,-0.040382046193818757
1.304000000000000936,-0.040075431268146736
1.305000000000001048,-0.039770100418227275
1.306000000000000938,-0.039466049642077020
1.307000000000000828,-0.039163274934925683
1.308000000000000940,-0.038861772289391486
1.309000000000001052,-0.038561537695654138
1.310000000000000941,-0.038262567141604531
1.311000000000000831,-0.037964856613021868
1.312000000000000943,-0.037668402093722526
1.313000000000001055,-0.037373199565741637
1.314000000000000945,-0.037079245009466980
1.315000000000000835,-0.036786534403813735
1.316000000000000947,-0.036495063726375496
1.317000000000001059,-0.036204828953579862
1.318000000000000949,-0.035915826060834585
1.319000000000000838,-0.035628051022694583
1.320000000000000950,-0.035341499812997425
1.321000000000001062,-0.035056168405014666
1.322000000000000952,-0.034772052771608206
1.323000000000000842,-0.034489148885363898
1.324000000000000954,-0.034207452718746659
1.325000000000001066,-0.033926960244232106
1.326000000000000956,-0.033647667434462000
1.327000000000000846,-0.033369570262369329
1.328000000000000957,-0.033092664701332770
1.329000000000001069,-0.032816946725296732
1.330000000000000959,-0.032542412308922908
1.331000000000000849,-0.032269057427718482
1.332000000000000961,-0.031996878058163036
1.333000000000001073,-0.031725870177847920
1.334000000000000963,-0.031456029765610030
1.335000000000000853,-0.031187352801649870
1.336000000000000965,-0.030919835267668803
1.337000000000001076,-0.030653473146990951
1.338000000000000966,-0.030388262424687906
1.339000000000000856,-0.030124199087704407
1.340000000000000968,-0.029861279124982605
1.341000000000001080,-0.029599498527574951
1.342000000000000970,-0.029338853288773718
1.343000000000000860,-0.029079339404224490
1.344000000000000972,-0.028820952872043039
1.345000000000001084,-0.028563689692935351
1.346000000000000973,-0.028307545870307049
1.347000000000000863,-0.028052517410379896
1.348000000000000975,-0.027798600322300637
1.349000000000001087,-0.027545790618257526
1.350000000000000977,-0.027294084313587468
1.351000000000000867,-0.027043477426884323
1.352000000000000979,-0.026793965980096850
1.353000000000001091,-0.026545545998655738
1.354000000000000981,-0.026298213511560538
1.355000000000000870,-0.026051964551487682
1.356000000000000982,-0.025806795154894042
1.357000000000001094,-0.025562701362122152
1.358000000000000984,-0.025319679217493153
1.359000000000000874,-0.025077724769406628
1.360000000000000986,-0.024836834070442022
1.361000000000001098,-0.024597003177456656
1.362000000000000988,-0.024358228151673718
1.363000000000000878,-0.024120505058778850
1.364000000000000989,-0.023883829969022847
1.365000000000001101,-0.023648198957298510
1.366000000000000991,-0.023413608103239791
1.367000000000000881,-0.023180053491312518
1.368000000000000993,-0.022947531210900363
1.369000000000001105,-0.022716037356394089
1.370000000000000995,-0.022485568027275100
1.371000000000000885,-0.022256119328202054
1.372000000000000997,-0.022027687369096955
1.373000000000001108,-0.021800268265230717
1.374000000000000998,-0.021573858137291957
1.375000000000000888,-0.021348453111488530
1.376000000000001000,-0.021124049319612197
1.377000000000001112,-0.020900642899121906
1.378000000000001002,-0.020678229993224318
1.379000000000000892,-0.020456806750946341
1.380000000000001004,-0.020236369327214669
1.381000000000001116,-0.020016913882933040
1.382000000000001005,-0.019798436585048158
1.383000000000000895,-0.019580933606628725
1.384000000000001007,-0.019364401126936038
1.385000000000001119,-0.019148835331495827
1.386000000000001009,-0.018934232412168239
1.387000000000000899,-0.018720588567209380
1.388000000000001011,-0.018507900001358660
1.389000000000001123,-0.018296162925882237
1.390000000000001013,-0.018085373558655592
1.391000000000000902,-0.017875528124222783
1.392000000000001014,-0.017666622853859271
1.393000000000001126,-0.017458653985640088
1.394000000000001016,-0.017251617764501792
1.395000000000000906,-0.017045510442300699
1.396000000000001018,-0.016840328277871332
1.397000000000001130,-0.016636067537095626
1.398000000000001020,-0.016432724492954066
1.399000000000000909,-0.016230295425587134
1.400000000000001021,-0.016028776622347050
1.401000000000001133,-0.015828164377865304
1.402000000000001023,-0.015628454994095396
1.403000000000000913,-0.015429644780372722
1.404000000000001025,-0.015231730053476011
1.405000000000001137,-0.015034707137663042
1.406000000000001027,-0.014838572364738511
1.407000000000000917,-0.014643322074101248
1.408000000000001029,-0.014448952612786791
1.409000000000001140,-0.014255460335527831
1.410000000000001030,-0.014062841604795529
1.411000000000000920,-0.013871092790850543
1.412000000000001032,-0.013680210271790663
1.413000000000001144,-0.013490190433596106
1.414000000000001034,-0.013301029670174432
1.415000000000000924,-0.013112724383405522
1.416000000000001036,-0.012925270983190485
1.417000000000001148,-0.012738665887489236
1.418000000000001037,-0.012552905522362934
1.419000000000000927,-0.012367986322018236
1.420000000000001039,-0.012183904728848435
1.421000000000001151,-0.012000657193475000
1.422000000000001041,-0.011818240174782415
1.423000000000000931,-0.011636650139961255
1.424000000000001043,-0.011455883564546483
1.425000000000001155,-0.011275936932450503
1.426000000000001044,-0.011096806736006003
1.427000000000000934,-0.010918489475997920
1.428000000000001046,-0.010740981661699239
1.429000000000001158,-0.010564279810904556
1.430000000000001048,-0.010388380449972352
1.431000000000000938,-0.010213280113842713
1.432000000000001050,-0.010038975346084340
1.433000000000001162,-0.009865462698922025
1.434000000000001052,-0.009692738733262006
1.435000000000000941,-0.009520800018734569
1.436000000000001053,-0.009349643133710483
1.437000000000001165,-0.009179264665338902
1.438000000000001055,-0.009009661209577446
1.439000000000000945,-0.008840829371213013
1.440000000000001057,-0.008672765763896976
1.441000000000001169,-0.008505467010164280
1.442000000000001059,-0.008338929741464711
1.443000000000000949,-0.008173150598190784
1.444000000000001060,-0.008008126229697338
1.445000000000001172,-0.007843853294324183
1.446000000000001062,-0.007680328459432504
1.447000000000000952,-0.007517548401411339
1.448000000000001064,-0.007355509805712415
1.449000000000001176,-0.007194209366869713
1.450000000000001066,-0.007033643788516152
1.451000000000000956,-0.006873809783408713
1.452000000000001068,-0.006714704073449040
1.453000000000001180,-0.006556323389701008
1.454000000000001069,-0.006398664472411619
1.455000000000000959,-0.006241724071030996
1.456000000000001071,-0.006085498944225404
1.457000000000001183,-0.005929985859902462
1.458000000000001073,-0.005775181595224213
1.459000000000000963,-0.005621082936619930
1.460000000000001075,-0.005467686679808841
1.461000000000001187,-0.005314989629810851
1.462000000000001076,-0.005162988600969520
1.463000000000000966,-0.005011680416954116
1.464000000000001078,-0.004861061910783788
1.465000000000001190,-0.004711129924837776
1.466000000000001080,-0.004561881310867855
1.467000000000000970,-0.004413312930011510
1.468000000000001082,-0.004265421652806270
1.469000000000001194,-0.004118204359195325
1.470000000000001084,-0.003971657938545562
1.471000000000000973,-0.003825779289653492
1.472000000000001085,-0.003680565320761391
1.473000000000001197,-0.003536012949557367
1.474000000000001087,-0.003392119103196012
1.475000000000000977,-0.003248880718295717
1.476000000000001089,-0.003106294740957419
1.477000000000001201,-0.002964358126768158
1.478000000000001091,-0.002823067840807477
1.479000000000000981,-0.002682420857654983
1.480000000000001092,-0.002542414161399473
1.481000000000001204,-0.002403044745642388
1.482000000000001094,-0.002264309613506613
1.483000000000000984,-0.002126205777641609
1.484000000000001096,-0.001988730260223674
1.485000000000001208,-0.001851880092963783
1.486000000000001098,-0.001715652317117305
1.487000000000000988,-0.001580043983478632
1.488000000000001100,-0.001445052152387443
1.489000000000001211,-0.001310673893738778
1.490000000000001101,-0.001176906286974320
1.491000000000000991,-0.001043746421093119
1.492000000000001103,-0.000911191394651652
1.493000000000001215,-0.000779238315764551
1.494000000000001105,-0.000647884302103091
1.495000000000000995,-0.000517126480902131
1.496000000000001107,-0.000386961988955433
1.497000000000001219,-0.000257387972618732
1.498000000000001108,-0.000128401587808321
1.499000000000000998,0.000000000000000000
