# ZnO1m210NBDry_TANNIC-ARM-ANION-AC
# h[nm],U(h)[kJ/mol]
0.149999999999999994,123.255008437597751936
0.150999999999999995,118.967905553381200434
0.151999999999999996,117.251060528485680834
0.152999999999999997,116.158548900711622309
0.153999999999999998,114.924848810835072754
0.154999999999999999,113.365214545835172544
0.156000000000000000,111.541184981783132457
0.157000000000000001,109.586106792220604689
0.158000000000000002,107.623800242563604002
0.159000000000000002,105.738736331832484439
0.160000000000000003,103.972522679314778316
0.161000000000000004,102.332008767446865249
0.162000000000000005,100.800906830504032996
0.163000000000000006,99.350836890302190341
0.164000000000000007,97.950057564186437276
0.165000000000000008,96.569449459492972210
0.166000000000000009,95.185978683047920867
0.167000000000000010,93.784146572641162720
0.168000000000000010,92.355995553220537886
0.169000000000000011,90.900194178754219365
0.170000000000000012,89.420629604621709063
0.171000000000000013,87.924828854602623096
0.172000000000000014,86.422430338091672297
0.173000000000000015,84.923842848540147088
0.174000000000000016,83.439163389969280615
0.175000000000000017,81.977376967969945554
0.176000000000000018,80.545828656299690351
0.177000000000000018,79.149937921877381086
0.178000000000000019,77.793114453642147055
0.179000000000000020,76.476830972817680276
0.180000000000000021,75.200809497025048245
0.181000000000000022,73.963281526089048157
0.182000000000000023,72.761288268973160598
0.183000000000000024,71.590993359450649791
0.184000000000000025,70.447986835151738205
0.185000000000000026,69.327565042277569773
0.186000000000000026,68.224976321122341005
0.187000000000000027,67.135626704461699887
0.188000000000000028,66.055243395129593864
0.189000000000000029,64.979996516835996090
0.190000000000000030,63.906581628206922119
0.191000000000000031,62.832266849537177222
0.192000000000000032,61.754909278001946404
0.193000000000000033,60.672945762241226930
0.194000000000000034,59.585363166802039814
0.195000000000000034,58.491653066407572226
0.196000000000000035,57.391755443340649379
0.197000000000000036,56.285995480309793493
0.198000000000000037,55.175016996342662878
0.199000000000000038,54.059715504159591148
0.200000000000000039,52.941173304245772613
0.201000000000000040,51.820598495370106207
0.202000000000000041,50.699269288603019845
0.203000000000000042,49.578484571326100649
0.204000000000000042,48.459521284155691490
0.205000000000000043,47.343598848496490916
0.206000000000000044,46.231850614356019946
0.207000000000000045,45.125302083985111778
0.208000000000000046,44.024855502503086768
0.209000000000000047,42.931280286793409573
0.210000000000000048,41.845208683125036941
0.211000000000000049,40.767135996591541414
0.212000000000000050,39.697424716136531231
0.213000000000000050,38.636311862526277139
0.214000000000000051,37.583918908411405368
0.215000000000000052,36.540263655337881232
0.216000000000000053,35.505273498461711768
0.217000000000000054,34.478799562536593726
0.218000000000000055,33.460631249706366930
0.219000000000000056,32.450510798444142324
0.220000000000000057,31.448147511744672045
0.221000000000000058,30.453231369918462690
0.222000000000000058,29.465445797886928858
0.223000000000000059,28.484479407906245996
0.224000000000000060,27.510036585551187471
0.225000000000000061,26.541846829208271430
0.226000000000000062,25.579672791067736171
0.227000000000000063,24.623317000632244600
0.228000000000000064,23.672627280156525842
0.229000000000000065,22.727500885368918659
0.230000000000000066,21.787887424549793991
0.231000000000000066,20.853790624839948720
0.232000000000000067,19.925269026854081744
0.233000000000000068,19.002435697619894484
0.234000000000000069,18.085457057904125833
0.235000000000000070,17.174550923470462749
0.236000000000000071,16.269983861079996501
0.237000000000000072,15.372067959414261296
0.238000000000000073,14.481157112881271942
0.239000000000000073,13.597642912739392074
0.240000000000000074,12.721950235396699114
0.241000000000000075,11.854532612359177435
0.242000000000000076,10.995867460311997021
0.243000000000000077,10.146451243414826848
0.244000000000000078,9.306794633238904879
0.245000000000000079,8.477417725008164595
0.246000000000000080,7.658845362054174544
0.247000000000000081,6.851602613750062076
0.248000000000000081,6.056210445741394999
0.249000000000000082,5.273181615104750364
0.250000000000000111,4.503016817191764609
0.251000000000000112,3.746201105397600095
0.252000000000000113,3.003200599954164662
0.253000000000000114,2.274459497113082485
0.254000000000000115,1.560397385753677924
0.255000000000000115,0.861406874536914891
0.256000000000000116,0.177851529217910281
0.257000000000000117,-0.489935883379074011
0.258000000000000118,-1.141654850940947874
0.259000000000000119,-1.777038279372804341
0.260000000000000120,-2.395853375205501123
0.261000000000000121,-2.997902258949291188
0.262000000000000122,-3.583022323004773746
0.263000000000000123,-4.151086348821067418
0.264000000000000123,-4.702002398810249062
0.265000000000000124,-5.235713499105664859
0.266000000000000125,-5.752197129616055449
0.267000000000000126,-6.251464537997160065
0.268000000000000127,-6.733559894161553316
0.269000000000000128,-7.198559301793373777
0.270000000000000129,-7.646569683050034705
0.271000000000000130,-8.077727552234684083
0.272000000000000131,-8.492197693727607799
0.273000000000000131,-8.890171758890113907
0.274000000000000132,-9.271866796013007672
0.275000000000000133,-9.637523726689028791
0.276000000000000134,-9.987405781256075699
0.277000000000000135,-10.321796905195466110
0.278000000000000136,-10.641000147590707670
0.279000000000000137,-10.945336041961407858
0.280000000000000138,-11.235140988995306444
0.281000000000000139,-11.510765649915288833
0.282000000000000139,-11.772573358441897895
0.283000000000000140,-12.020938558553378783
0.284000000000000141,-12.256245274506053278
0.285000000000000142,-12.478885618864055118
0.286000000000000143,-12.689258343600359424
0.287000000000000144,-12.887767438673694897
0.288000000000000145,-13.074820781861152597
0.289000000000000146,-13.250828843032689264
0.290000000000000147,-13.416203445496259761
0.291000000000000147,-13.571356586517140386
0.292000000000000148,-13.716699318626492499
0.293000000000000149,-13.852640692878253503
0.294000000000000150,-13.979586764793490161
0.295000000000000151,-14.097939663343618477
0.296000000000000152,-14.208096722969624892
0.297000000000000153,-14.310449678311835342
0.298000000000000154,-14.405383921032816730
0.299000000000000155,-14.493277817853805089
0.300000000000000155,-14.574502088691067669
0.301000000000000156,-14.649419243571273341
0.302000000000000157,-14.718383076823926103
0.303000000000000158,-14.781738216891236348
0.304000000000000159,-14.839819729961437389
0.305000000000000160,-14.892952775518143227
0.306000000000000161,-14.941452311805244690
0.307000000000000162,-14.985622849131905454
0.308000000000000163,-15.025758248884518054
0.309000000000000163,-15.062141566070783583
0.310000000000000164,-15.095044933193785042
0.311000000000000165,-15.124729483239701011
0.312000000000000166,-15.151445309561443864
0.313000000000000167,-15.175431460448828958
0.314000000000000168,-15.196915966195451375
0.315000000000000169,-15.216115896499752935
0.316000000000000170,-15.233237446073635724
0.317000000000000171,-15.248476046374127790
0.318000000000000171,-15.262016501422394299
0.319000000000000172,-15.274033145728074246
0.320000000000000173,-15.284690022395039932
0.321000000000000174,-15.294141079546642814
0.322000000000000175,-15.302530383273722947
0.323000000000000176,-15.309992345375860623
0.324000000000000177,-15.316651964236324801
0.325000000000000178,-15.322625077241303515
0.326000000000000179,-15.328018623226650874
0.327000000000000179,-15.332930913507066606
0.328000000000000180,-15.337451910115214915
0.329000000000000181,-15.341663509950885569
0.330000000000000182,-15.345639833611357972
0.331000000000000183,-15.349447517745579361
0.332000000000000184,-15.353146009844158115
0.333000000000000185,-15.356787864445934133
0.334000000000000186,-15.360419039808817843
0.335000000000000187,-15.364079194157975294
0.336000000000000187,-15.367801980688309271
0.337000000000000188,-15.371615340559316110
0.338000000000000189,-15.375541793180980576
0.339000000000000190,-15.379598723146344241
0.340000000000000191,-15.383798663222043146
0.341000000000000192,-15.388149572861852477
0.342000000000000193,-15.392655111758845266
0.343000000000000194,-15.397314908001160205
0.344000000000000195,-15.402124820442613995
0.345000000000000195,-15.407077194944355014
0.346000000000000196,-15.412161114185357391
0.347000000000000197,-15.417362640780236660
0.348000000000000198,-15.422665053480205444
0.349000000000000199,-15.428049076269024553
0.350000000000000200,-15.433493100199507708
0.351000000000000201,-15.438973397847471247
0.352000000000000202,-15.444464330290003318
0.353000000000000203,-15.449938546542458795
0.354000000000000203,-15.455367175414494341
0.355000000000000204,-15.460720009769403305
0.356000000000000205,-15.465965683193442004
0.357000000000000206,-15.471071839102506829
0.358000000000000207,-15.476005292332061458
0.359000000000000208,-15.480732183274355407
0.360000000000000209,-15.485218124642347703
0.361000000000000210,-15.489428340954594532
0.362000000000000210,-15.493327800848385678
0.363000000000000211,-15.496881342340433463
0.364000000000000212,-15.500053791164978279
0.365000000000000213,-15.502810072328752966
0.366000000000000214,-15.505115315030622014
0.367000000000000215,-15.506934951100976861
0.368000000000000216,-15.508234807122596166
0.369000000000000217,-15.508981190399859784
0.370000000000000218,-15.509140968948003092
0.371000000000000218,-15.508681645677668826
0.372000000000000219,-15.507571426953228766
0.373000000000000220,-15.505779285705614257
0.374000000000000221,-15.503275019281820946
0.375000000000000222,-15.500029302214510807
0.376000000000000223,-15.496013734095601677
0.377000000000000224,-15.491200882737402367
0.378000000000000225,-15.485564322804588500
0.379000000000000226,-15.479078670099024606
0.380000000000000226,-15.471719611678381057
0.381000000000000227,-15.463463931987211808
0.382000000000000228,-15.454289535177570869
0.383000000000000229,-15.444175463793294867
0.384000000000000230,-15.433101913989768050
0.385000000000000231,-15.421050247457793958
0.386000000000000232,-15.408003000217021849
0.387000000000000233,-15.393943888441176782
0.388000000000000234,-15.378857811473462647
0.389000000000000234,-15.362730852187221231
0.390000000000000235,-15.345550274842707950
0.391000000000000236,-15.327304520587185621
0.392000000000000237,-15.307983200741372087
0.393000000000000238,-15.287577088011328641
0.394000000000000239,-15.266078105760445993
0.395000000000000240,-15.243479315472365343
0.396000000000000241,-15.219774902531280958
0.397000000000000242,-15.194960160441684849
0.398000000000000242,-15.169031473605750548
0.399000000000000243,-15.141986298772014408
0.400000000000000244,-15.113823145265067538
0.401000000000000245,-15.084541554101582150
0.402000000000000246,-15.054142076094089830
0.403000000000000247,-15.022626249039664259
0.404000000000000248,-14.989996574086784875
0.405000000000000249,-14.956256491369648742
0.406000000000000250,-14.921410354995142455
0.407000000000000250,-14.885463407464206043
0.408000000000000251,-14.848421753605109075
0.409000000000000252,-14.810292334092924449
0.410000000000000253,-14.771082898625547131
0.411000000000000254,-14.730801978823285125
0.412000000000000255,-14.689458860915507898
0.413000000000000256,-14.647063558274629358
0.414000000000000257,-14.603626783854252835
0.415000000000000258,-14.559159922585383384
0.416000000000000258,-14.513675003781312256
0.417000000000000259,-14.467184673599003730
0.418000000000000260,-14.419702167601792908
0.419000000000000261,-14.371241283465455041
0.420000000000000262,-14.321816353867053095
0.421000000000000263,-14.271442219593330591
0.422000000000000264,-14.220134202902823262
0.423000000000000265,-14.167908081173607115
0.424000000000000266,-14.114780060866214839
0.425000000000000266,-14.060766751828822407
0.426000000000000267,-14.005885141969955043
0.427000000000000268,-13.950152572321689703
0.428000000000000269,-13.893586712514377268
0.429000000000000270,-13.836205536682104622
0.430000000000000271,-13.778027299816113072
0.431000000000000272,-13.719070514581883202
0.432000000000000273,-13.659353928613729323
0.433000000000000274,-13.598896502299282929
0.434000000000000274,-13.537717387064683194
0.435000000000000275,-13.475835904169873203
0.436000000000000276,-13.413271524022084336
0.437000000000000277,-13.350043846014113313
0.438000000000000278,-13.286172578893019391
0.439000000000000279,-13.221677521663536936
0.440000000000000280,-13.156578545029404381
0.441000000000000281,-13.090895573374774941
0.442000000000000282,-13.024648567287096412
0.443000000000000282,-12.957857506621408561
0.444000000000000283,-12.890542374105820045
0.445000000000000284,-12.822723139486502220
0.446000000000000285,-12.754419744210062859
0.447000000000000286,-12.685652086640631708
0.448000000000000287,-12.616440007807614876
0.449000000000000288,-12.546803277680513844
0.450000000000000289,-12.476761581965503112
0.451000000000000290,-12.406334509418810441
0.452000000000000290,-12.335541539670931144
0.453000000000000291,-12.264402031555443173
0.454000000000000292,-12.192935211935719053
0.455000000000000293,-12.121160165022480726
0.456000000000000294,-12.049095822174725967
0.457000000000000295,-11.976760952176359609
0.458000000000000296,-11.904174151980317475
0.459000000000000297,-11.831353837912121918
0.460000000000000298,-11.758318237324086653
0.461000000000000298,-11.685085380691649704
0.462000000000000299,-11.611673094142760831
0.463000000000000300,-11.538098992411299548
0.464000000000000301,-11.464380472205380812
0.465000000000000302,-11.390534705981151475
0.466000000000000303,-11.316578636112669898
0.467000000000000304,-11.242528969448468246
0.468000000000000305,-11.168402172245205151
0.469000000000000306,-11.094214465468791531
0.470000000000000306,-11.019981820453635279
0.471000000000000307,-10.945719954910060778
0.472000000000000308,-10.871444329270657292
0.473000000000000309,-10.797170143365828920
0.474000000000000310,-10.722912333419056807
0.475000000000000311,-10.648685569352405622
0.476000000000000312,-10.574504252392994630
0.477000000000000313,-10.500382512970819704
0.478000000000000314,-10.426334208898982325
0.479000000000000314,-10.352372923826949958
0.480000000000000315,-10.278511965957813246
0.481000000000000316,-10.204764367020707994
0.482000000000000317,-10.131142881489306973
0.483000000000000318,-10.057659986037858602
0.484000000000000319,-9.984327879226048807
0.485000000000000320,-9.911158481404227061
0.486000000000000321,-9.838163434830638820
0.487000000000000322,-9.765354103992454071
0.488000000000000322,-9.692741576122454461
0.489000000000000323,-9.620336661903589714
0.490000000000000324,-9.548149896353468336
0.491000000000000325,-9.476191539881261505
0.492000000000000326,-9.404471579509397827
0.493000000000000327,-9.332999730252918624
0.494000000000000328,-9.261785436649116576
0.495000000000000329,-9.190837874430638266
0.496000000000000330,-9.120165952334966519
0.497000000000000330,-9.049778314043843253
0.498000000000000331,-8.979683340245768974
0.499000000000000332,-8.909889150815599734
0.500000000000000333,-8.840403607104612149
0.501000000000000334,-8.771234314335231375
0.502000000000000335,-8.702388624094378855
0.503000000000000336,-8.633873636919812355
0.504000000000000337,-8.565696204973690442
0.505000000000000338,-8.497862934798089185
0.506000000000000338,-8.430380190147056751
0.507000000000000339,-8.363254094890116619
0.508000000000000340,-8.296490535982197656
0.509000000000000341,-8.230095166495306813
0.510000000000000342,-8.164073408706965296
0.511000000000000343,-8.098430457241148517
0.512000000000000344,-8.033171282257123735
0.513000000000000345,-7.968300632682047357
0.514000000000000346,-7.903823039483194535
0.515000000000000346,-7.839742818975712346
0.516000000000000347,-7.776064076162178651
0.517000000000000348,-7.712790708100277115
0.518000000000000349,-7.649926407294792341
0.519000000000000350,-7.587474665110740091
0.520000000000000351,-7.525438775204071007
0.521000000000000352,-7.463821836966919143
0.522000000000000353,-7.402626758984185429
0.523000000000000353,-7.341856262498462904
0.524000000000000354,-7.281512884880683600
0.525000000000000355,-7.221598983103381997
0.526000000000000356,-7.162116737214274664
0.527000000000000357,-7.103068153807477358
0.528000000000000358,-7.044455069489894861
0.529000000000000359,-6.986279154340683029
0.530000000000000360,-6.928541915361300596
0.531000000000000361,-6.871244699914290877
0.532000000000000361,-6.814388699148577366
0.533000000000000362,-6.757974951409506659
0.534000000000000363,-6.702004345631692672
0.535000000000000364,-6.646477624713004850
0.536000000000000365,-6.591395388867982597
0.537000000000000366,-6.536758098959161600
0.538000000000000367,-6.482566079804739090
0.539000000000000368,-6.428819523461325680
0.540000000000000369,-6.375518492480201971
0.541000000000000369,-6.322662923136132207
0.542000000000000370,-6.270252628627256186
0.543000000000000371,-6.218287302245136594
0.544000000000000372,-6.166766520513855987
0.545000000000000373,-6.115689746297184648
0.546000000000000374,-6.065056331872876072
0.547000000000000375,-6.014865521973264961
0.548000000000000376,-5.965116456791428767
0.549000000000000377,-5.915808174952070786
0.550000000000000377,-5.866939616446501304
0.551000000000000378,-5.818509625531099516
0.552000000000000379,-5.770516953588699316
0.553000000000000380,-5.722960261952309224
0.554000000000000381,-5.675838124690742781
0.555000000000000382,-5.629149031355797028
0.556000000000000383,-5.582891389690415096
0.557000000000000384,-5.537063528297730741
0.558000000000000385,-5.491663699270491250
0.559000000000000385,-5.446690080780766330
0.560000000000000386,-5.402140779629608147
0.561000000000000387,-5.358013833756582578
0.562000000000000388,-5.314307214708932747
0.563000000000000389,-5.271018830070379302
0.564000000000000390,-5.228146525849375337
0.565000000000000391,-5.185688088826855058
0.566000000000000392,-5.143641248863407789
0.567000000000000393,-5.102003681165963478
0.568000000000000393,-5.060773008513940852
0.569000000000000394,-5.019946803444987893
0.570000000000000395,-4.979522590400479842
0.571000000000000396,-4.939497847830681465
0.572000000000000397,-4.899870010260021225
0.573000000000000398,-4.860636470312328150
0.574000000000000399,-4.821794580696492361
0.575000000000000400,-4.783341656152551025
0.576000000000000401,-4.745274975358532821
0.577000000000000401,-4.707591782798330904
0.578000000000000402,-4.670289290590722509
0.579000000000000403,-4.633364680279965953
0.580000000000000404,-4.596815104588211298
0.581000000000000405,-4.560637689129962702
0.582000000000000406,-4.524829534089046312
0.583000000000000407,-4.489387715858275563
0.584000000000000408,-4.454309288642265052
0.585000000000000409,-4.419591286023687005
0.586000000000000409,-4.385230722493347777
0.587000000000000410,-4.351224594944487656
0.588000000000000411,-4.317569884131616575
0.589000000000000412,-4.284263556094387582
0.590000000000000413,-4.251302563546775382
0.591000000000000414,-4.218683847232071571
0.592000000000000415,-4.186404337244087337
0.593000000000000416,-4.154460954314906473
0.594000000000000417,-4.122850611069695859
0.595000000000000417,-4.091570213249058341
0.596000000000000418,-4.060616660899087904
0.597000000000000419,-4.029986849529979764
0.598000000000000420,-3.999677671243224264
0.599000000000000421,-3.969686015828125303
0.600000000000000422,-3.940008771827909761
0.601000000000000423,-3.910642827575983915
0.602000000000000424,-3.881585072202708542
0.603000000000000425,-3.852832396613189214
0.604000000000000425,-3.824381694436515211
0.605000000000000426,-3.796229862946881362
0.606000000000000427,-3.768373803957141721
0.607000000000000428,-3.740810424684997137
0.608000000000000429,-3.713536638592670691
0.609000000000000430,-3.686549366200053246
0.610000000000000431,-3.659845535872182865
0.611000000000000432,-3.633422084581233946
0.612000000000000433,-3.607275958643547220
0.613000000000000433,-3.581404114432202412
0.614000000000000434,-3.555803519065509732
0.615000000000000435,-3.530471151071830516
0.616000000000000436,-3.505404001031232841
0.617000000000000437,-3.480599072194450194
0.618000000000000438,-3.456053381079436271
0.619000000000000439,-3.431763958046048835
0.620000000000000440,-3.407727847849302272
0.621000000000000441,-3.383942110171537898
0.622000000000000441,-3.360403820134001851
0.623000000000000442,-3.337110068788180506
0.624000000000000443,-3.314057963587352162
0.625000000000000444,-3.291244628838792430
0.626000000000000445,-3.268667206136911751
0.627000000000000446,-3.246322854777906830
0.628000000000000447,-3.224208752156148883
0.629000000000000448,-3.202322094142819875
0.630000000000000449,-3.180660095447140900
0.631000000000000449,-3.159219989960543984
0.632000000000000450,-3.137999031084246937
0.633000000000000451,-3.116994492040543463
0.634000000000000452,-3.096203666168164226
0.635000000000000453,-3.075623867202167183
0.636000000000000454,-3.055252429538586334
0.637000000000000455,-3.035086708484327822
0.638000000000000456,-3.015124080492545211
0.639000000000000457,-2.995361943383944237
0.640000000000000457,-2.975797716554297700
0.641000000000000458,-2.956428841168484922
0.642000000000000459,-2.937252780341505165
0.643000000000000460,-2.918267019306619581
0.644000000000000461,-2.899469065571108839
0.645000000000000462,-2.880856449059868041
0.646000000000000463,-2.862426722247157329
0.647000000000000464,-2.844177460276862135
0.648000000000000465,-2.826106261071550829
0.649000000000000465,-2.808210745430563371
0.650000000000000466,-2.790488557117550616
0.651000000000000467,-2.772937362937622385
0.652000000000000468,-2.755554852804476873
0.653000000000000469,-2.738338739797750776
0.654000000000000470,-2.721286760210890332
0.655000000000000471,-2.704396673589779532
0.656000000000000472,-2.687666262762419045
0.657000000000000473,-2.671093333859897001
0.658000000000000473,-2.654675716328942947
0.659000000000000474,-2.638411262936243951
0.660000000000000475,-2.622297849764882560
0.661000000000000476,-2.606333376202990326
0.662000000000000477,-2.590515764925016562
0.663000000000000478,-2.574842961865687840
0.664000000000000479,-2.559312936187064569
0.665000000000000480,-2.543923680238679985
0.666000000000000481,-2.528673209511276276
0.667000000000000481,-2.513559562584037899
0.668000000000000482,-2.498580801065860335
0.669000000000000483,-2.483735009530536608
0.670000000000000484,-2.469020295446330060
0.671000000000000485,-2.454434789099972480
0.672000000000000486,-2.439976643515341603
0.673000000000000487,-2.425644034367031576
0.674000000000000488,-2.411435159888923430
0.675000000000000488,-2.397348240777996686
0.676000000000000489,-2.383381520093614370
0.677000000000000490,-2.369533263152293401
0.678000000000000491,-2.355801757418308107
0.679000000000000492,-2.342185312390192564
0.680000000000000493,-2.328682259483307870
0.681000000000000494,-2.315290951908707928
0.682000000000000495,-2.302009764548345494
0.683000000000000496,-2.288837093826901814
0.684000000000000496,-2.275771357580271825
0.685000000000000497,-2.262810994920918084
0.686000000000000498,-2.249954466100236861
0.687000000000000499,-2.237200252368035880
0.688000000000000500,-2.224546855829273806
0.689000000000000501,-2.211992799298239998
0.690000000000000502,-2.199536626150234486
0.691000000000000503,-2.187176900170917371
0.692000000000000504,-2.174912205403425780
0.693000000000000504,-2.162741145993441805
0.694000000000000505,-2.150662346032189198
0.695000000000000506,-2.138674449397665267
0.696000000000000507,-2.126776119594044889
0.697000000000000508,-2.114966039589458280
0.698000000000000509,-2.103242911652255298
0.699000000000000510,-2.091605457185766959
0.700000000000000511,-2.080052416561809281
0.701000000000000512,-2.068582548952876188
0.702000000000000512,-2.057194632163228398
0.703000000000000513,-2.045887462458909845
0.704000000000000514,-2.034659854396815515
0.705000000000000515,-2.023510640652858239
0.706000000000000516,-2.012438671849372973
0.707000000000000517,-2.001442816381804768
0.708000000000000518,-1.990521960244727939
0.709000000000000519,-1.979675006857397390
0.710000000000000520,-1.968900876888736162
0.711000000000000520,-1.958198508081979483
0.712000000000000521,-1.947566855078978421
0.713000000000000522,-1.937004889244195782
0.714000000000000523,-1.926511598488608756
0.715000000000000524,-1.916085987093348875
0.716000000000000525,-1.905727075533403037
0.717000000000000526,-1.895433900301239705
0.718000000000000527,-1.885205513730478399
0.719000000000000528,-1.875040983819718621
0.720000000000000528,-1.864939394056523980
0.721000000000000529,-1.854899843241573532
0.722000000000000530,-1.844921445313183472
0.723000000000000531,-1.835003329172044007
0.724000000000000532,-1.825144638506408512
0.725000000000000533,-1.815344531617679724
0.726000000000000534,-1.805602181246419802
0.727000000000000535,-1.795916774398930826
0.728000000000000536,-1.786287512174324688
0.729000000000000536,-1.776713609592224685
0.730000000000000537,-1.767194295421092631
0.731000000000000538,-1.757728812007178787
0.732000000000000539,-1.748316415104232302
0.733000000000000540,-1.738956373703916869
0.734000000000000541,-1.729647969867004420
0.735000000000000542,-1.720390498555348868
0.736000000000000543,-1.711183267464753799
0.737000000000000544,-1.702025596858625978
0.738000000000000544,-1.692916819402601858
0.739000000000000545,-1.683856280000007200
0.740000000000000546,-1.674843335628344310
0.741000000000000547,-1.665877355176667907
0.742000000000000548,-1.656957719284064323
0.743000000000000549,-1.648083820179019110
0.744000000000000550,-1.639255061519907075
0.745000000000000551,-1.630470858236523712
0.746000000000000552,-1.621730636372692214
0.747000000000000552,-1.613033832929962941
0.748000000000000553,-1.604379895712427784
0.749000000000000554,-1.595768283172665836
0.750000000000000555,-1.587198464258859021
0.751000000000000556,-1.578669918263017280
0.752000000000000557,-1.570182134670462526
0.753000000000000558,-1.561734613010394845
0.754000000000000559,-1.553326862707770539
0.755000000000000560,-1.544958402936303710
0.756000000000000560,-1.536628762472773690
0.757000000000000561,-1.528337479552482892
0.758000000000000562,-1.520084101726020043
0.759000000000000563,-1.511868185717254676
0.760000000000000564,-1.503689297282601478
0.761000000000000565,-1.495547011071534538
0.762000000000000566,-1.487440910488396550
0.763000000000000567,-1.479370587555474348
0.764000000000000568,-1.471335642777353403
0.765000000000000568,-1.463335685006609044
0.766000000000000569,-1.455370331310722687
0.767000000000000570,-1.447439206840370307
0.768000000000000571,-1.439541944698927489
0.769000000000000572,-1.431678185813381132
0.770000000000000573,-1.423847578806448633
0.771000000000000574,-1.416049779870089731
0.772000000000000575,-1.408284452640256701
0.773000000000000576,-1.400551268073007005
0.774000000000000576,-1.392849904321887378
0.775000000000000577,-1.385180046616673710
0.776000000000000578,-1.377541387143357721
0.777000000000000579,-1.369933624925505189
0.778000000000000580,-1.362356465706871189
0.779000000000000581,-1.354809621835353584
0.780000000000000582,-1.347292812148227270
0.781000000000000583,-1.339805761858694932
0.782000000000000584,-1.332348202443720764
0.783000000000000584,-1.324919871533158933
0.784000000000000585,-1.317520512800194776
0.785000000000000586,-1.310149875853027668
0.786000000000000587,-1.302807716127884152
0.787000000000000588,-1.295493794783287189
0.788000000000000589,-1.288207878595565514
0.789000000000000590,-1.280949739855708147
0.790000000000000591,-1.273719156267402619
0.791000000000000592,-1.266515910846375048
0.792000000000000592,-1.259339791820972554
0.793000000000000593,-1.252190592533972469
0.794000000000000594,-1.245068111345659201
0.795000000000000595,-1.237972151538125454
0.796000000000000596,-1.230902521220765600
0.797000000000000597,-1.223859033237044924
0.798000000000000598,-1.216841505072435714
0.799000000000000599,-1.209849758763574146
0.800000000000000600,-1.202883620808623766
0.801000000000000600,-1.195942922078812920
0.802000000000000601,-1.189027497731156791
0.803000000000000602,-1.182137187122364264
0.804000000000000603,-1.175271833723904757
0.805000000000000604,-1.168431285038248557
0.806000000000000605,-1.161615392516199385
0.807000000000000606,-1.154824011475466650
0.808000000000000607,-1.148057001020283518
0.809000000000000608,-1.141314223962186736
0.810000000000000608,-1.134595546741939964
0.811000000000000609,-1.127900839352481199
0.812000000000000610,-1.121229975263089429
0.813000000000000611,-1.114582831344516078
0.814000000000000612,-1.107959287795290848
0.815000000000000613,-1.101359228069070051
0.816000000000000614,-1.094782538803020788
0.817000000000000615,-1.088229109747298695
0.818000000000000616,-1.081698833695561301
0.819000000000000616,-1.075191606416497470
0.820000000000000617,-1.068707326586393780
0.821000000000000618,-1.062245895722735201
0.822000000000000619,-1.055807218118802293
0.823000000000000620,-1.049391200779249633
0.824000000000000621,-1.042997753356686541
0.825000000000000622,-1.036626788089251017
0.826000000000000623,-1.030278219739140244
0.827000000000000624,-1.023951965532095665
0.828000000000000624,-1.017647945097851281
0.829000000000000625,-1.011366080411518098
0.830000000000000626,-1.005106295735900046
0.831000000000000627,-0.998868517564731606
0.832000000000000628,-0.992652674566853910
0.833000000000000629,-0.986458697531237938
0.834000000000000630,-0.980286519312959070
0.835000000000000631,-0.974136074780034500
0.836000000000000631,-0.968007300761116851
0.837000000000000632,-0.961900135994099514
0.838000000000000633,-0.955814521075528334
0.839000000000000634,-0.949750398410889707
0.840000000000000635,-0.943707712165744006
0.841000000000000636,-0.937686408217646927
0.842000000000000637,-0.931686434108948247
0.843000000000000638,-0.925707739000345420
0.844000000000000639,-0.919750273625264514
0.845000000000000639,-0.913813990245043728
0.846000000000000640,-0.907898842604852319
0.847000000000000641,-0.902004785890463401
0.848000000000000642,-0.896131776685692771
0.849000000000000643,-0.890279772930659186
0.850000000000000644,-0.884448733880794480
0.851000000000000645,-0.878638620066524823
0.852000000000000646,-0.872849393253761874
0.853000000000000647,-0.867081016405055416
0.854000000000000647,-0.861333453641468294
0.855000000000000648,-0.855606670205170006
0.856000000000000649,-0.849900632422712521
0.857000000000000650,-0.844215307668982673
0.858000000000000651,-0.838550664331831563
0.859000000000000652,-0.832906671777376650
0.860000000000000653,-0.827283300315972303
0.861000000000000654,-0.821680521168790867
0.862000000000000655,-0.816098306435094178
0.863000000000000655,-0.810536629060099600
0.864000000000000656,-0.804995462803494766
0.865000000000000657,-0.799474782208538737
0.866000000000000658,-0.793974562571813980
0.867000000000000659,-0.788494779913543553
0.868000000000000660,-0.783035410948508370
0.869000000000000661,-0.777596433057545999
0.870000000000000662,-0.772177824259639989
0.871000000000000663,-0.766779563184567636
0.872000000000000663,-0.761401629046084771
0.873000000000000664,-0.756044001615715278
0.874000000000000665,-0.750706661197018343
0.875000000000000666,-0.745389588600469111
0.876000000000000667,-0.740092765118783968
0.877000000000000668,-0.734816172502838261
0.878000000000000669,-0.729559792938075269
0.879000000000000670,-0.724323609021389592
0.880000000000000671,-0.719107603738570633
0.881000000000000671,-0.713911760442173859
0.882000000000000672,-0.708736062829942393
0.883000000000000673,-0.703580494923647937
0.884000000000000674,-0.698445041048445514
0.885000000000000675,-0.693329685812659080
0.886000000000000676,-0.688234414088061075
0.887000000000000677,-0.683159210990561649
0.888000000000000678,-0.678104061861372398
0.889000000000000679,-0.673068952248595531
0.890000000000000679,-0.668053867889242037
0.891000000000000680,-0.663058794691677500
0.892000000000000681,-0.658083718718480037
0.893000000000000682,-0.653128626169718118
0.894000000000000683,-0.648193503366612411
0.895000000000000684,-0.643278336735628842
0.896000000000000685,-0.638383112792931584
0.897000000000000686,-0.633507818129233957
0.898000000000000687,-0.628652439395044338
0.899000000000000687,-0.623816963286248916
0.900000000000000688,-0.619001376530102121
0.901000000000000689,-0.614205665871548345
0.902000000000000690,-0.609429818059923578
0.903000000000000691,-0.604673819835982895
0.904000000000000692,-0.599937657919290768
0.905000000000000693,-0.595221318995940996
0.906000000000000694,-0.590524789706624365
0.907000000000000695,-0.585848056634985626
0.908000000000000695,-0.581191106296359616
0.909000000000000696,-0.576553925126768840
0.910000000000000697,-0.571936499472275539
0.911000000000000698,-0.567338815578610212
0.912000000000000699,-0.562760859581111328
0.913000000000000700,-0.558202617494978015
0.914000000000000701,-0.553664075205769324
0.915000000000000702,-0.549145218460249440
0.916000000000000703,-0.544646032857455387
0.917000000000000703,-0.540166503840081358
0.918000000000000704,-0.535706616686118520
0.919000000000000705,-0.531266356500750159
0.920000000000000706,-0.526845708208542041
0.921000000000000707,-0.522444656545841712
0.922000000000000708,-0.518063186053473457
0.923000000000000709,-0.513701281069671944
0.924000000000000710,-0.509358925723223832
0.925000000000000711,-0.505036103926900792
0.926000000000000711,-0.500732799371090498
0.927000000000000712,-0.496448995517668412
0.928000000000000713,-0.492184675594101229
0.929000000000000714,-0.487939822587771577
0.930000000000000715,-0.483714419240501847
0.931000000000000716,-0.479508448043315494
0.932000000000000717,-0.475321891231395621
0.933000000000000718,-0.471154730779254460
0.934000000000000719,-0.467006948396095911
0.935000000000000719,-0.462878525521390416
0.936000000000000720,-0.458769443320621473
0.937000000000000721,-0.454679682681246533
0.938000000000000722,-0.450609224208834092
0.939000000000000723,-0.446558048223371529
0.940000000000000724,-0.442526134755778178
0.941000000000000725,-0.438513463544561333
0.942000000000000726,-0.434520014032687918
0.943000000000000727,-0.430545765364567345
0.944000000000000727,-0.426590696383258028
0.945000000000000728,-0.422654785627802787
0.946000000000000729,-0.418738011330713422
0.947000000000000730,-0.414840351415652453
0.948000000000000731,-0.410961783495211896
0.949000000000000732,-0.407102284868893993
0.950000000000000733,-0.403261832521195906
0.951000000000000734,-0.399440403119873721
0.952000000000000735,-0.395637973014309363
0.953000000000000735,-0.391854518234032279
0.954000000000000736,-0.388090014487384394
0.955000000000000737,-0.384344437160300811
0.956000000000000738,-0.380617761315225400
0.957000000000000739,-0.376909961690136686
0.958000000000000740,-0.373221012697731447
0.959000000000000741,-0.369550888424677093
0.960000000000000742,-0.365899562631038622
0.961000000000000743,-0.362267008749768860
0.962000000000000743,-0.358653199886331542
0.963000000000000744,-0.355058108818440910
0.964000000000000745,-0.351481707995908277
0.965000000000000746,-0.347923969540562317
0.966000000000000747,-0.344384865246309790
0.967000000000000748,-0.340864366579267497
0.968000000000000749,-0.337362444678020512
0.969000000000000750,-0.333879070353930052
0.970000000000000751,-0.330414214091589220
0.971000000000000751,-0.326967846049310507
0.972000000000000752,-0.323539936059740629
0.973000000000000753,-0.320130453630566691
0.974000000000000754,-0.316739367945259420
0.975000000000000755,-0.313366647863946690
0.976000000000000756,-0.310012261924341614
0.977000000000000757,-0.306676178342744521
0.978000000000000758,-0.303358365015134357
0.979000000000000759,-0.300058789518334035
0.980000000000000759,-0.296777419111216301
0.981000000000000760,-0.293514220736019404
0.982000000000000761,-0.290269161019714173
0.983000000000000762,-0.287042206275418987
0.984000000000000763,-0.283833322503901420
0.985000000000000764,-0.280642475395135649
0.986000000000000765,-0.277469630329918282
0.987000000000000766,-0.274314752381531579
0.988000000000000766,-0.271177806317479453
0.989000000000000767,-0.268058756601278259
0.990000000000000768,-0.264957567394295435
0.991000000000000769,-0.261874202557618618
0.992000000000000770,-0.258808625654013191
0.993000000000000771,-0.255760799949914519
0.994000000000000772,-0.252730688417440508
0.995000000000000773,-0.249718253736497420
0.996000000000000774,-0.246723458296883719
0.997000000000000774,-0.243746264200465801
0.998000000000000775,-0.240786633263384647
0.999000000000000776,-0.237844527018299112
1.000000000000000666,-0.234919906716670790
1.001000000000000778,-0.232012733331093457
1.002000000000000668,-0.229122967557642443
1.003000000000000780,-0.226250569818266190
1.004000000000000670,-0.223395500263212865
1.005000000000000782,-0.220557718773489675
1.006000000000000671,-0.217737184963350122
1.007000000000000783,-0.214933858182796367
1.008000000000000673,-0.212147697520141731
1.009000000000000785,-0.209378661804566490
1.010000000000000675,-0.206626709608729170
1.011000000000000787,-0.203891799251366024
1.012000000000000677,-0.201173888799959732
1.013000000000000789,-0.198472936073396333
1.014000000000000679,-0.195788898644638415
1.015000000000000790,-0.193121733843463372
1.016000000000000680,-0.190471398759173516
1.017000000000000792,-0.187837850243341264
1.018000000000000682,-0.185221044912579569
1.019000000000000794,-0.182620939151318579
1.020000000000000684,-0.180037489114605209
1.021000000000000796,-0.177470650730911478
1.022000000000000686,-0.174920379704954693
1.023000000000000798,-0.172386631520538153
1.024000000000000687,-0.169869361443399980
1.025000000000000799,-0.167368524524069834
1.026000000000000689,-0.164884075600744778
1.027000000000000801,-0.162415969302157015
1.028000000000000691,-0.159964160050479753
1.029000000000000803,-0.157528602064203577
1.030000000000000693,-0.155109249361050194
1.031000000000000805,-0.152706055760884141
1.032000000000000695,-0.150318974888614176
1.033000000000000806,-0.147947960177133547
1.034000000000000696,-0.145592964870224162
1.035000000000000808,-0.143253942025496517
1.036000000000000698,-0.140930844517305309
1.037000000000000810,-0.138623625039712900
1.038000000000000700,-0.136332236109387328
1.039000000000000812,-0.134056630068552785
1.040000000000000702,-0.131796759087932147
1.041000000000000814,-0.129552575169675971
1.042000000000000703,-0.127324030150287759
1.043000000000000815,-0.125111075703569885
1.044000000000000705,-0.122913663343557161
1.045000000000000817,-0.120731744427421808
1.046000000000000707,-0.118565270158427730
1.047000000000000819,-0.116414191588836632
1.048000000000000709,-0.114278459622828565
1.049000000000000821,-0.112158025019417157
1.050000000000000711,-0.110052838395349489
1.051000000000000822,-0.107962850228024682
1.052000000000000712,-0.105888010858379442
1.053000000000000824,-0.103828270493775965
1.054000000000000714,-0.101783579210895953
1.055000000000000826,-0.099753886958609220
1.056000000000000716,-0.097739143560848063
1.057000000000000828,-0.095739298719460603
1.058000000000000718,-0.093754302017071509
1.059000000000000830,-0.091784102919916677
1.060000000000000719,-0.089828650780689301
1.061000000000000831,-0.087887894841351177
1.062000000000000721,-0.085961784235955005
1.063000000000000833,-0.084050267993454289
1.064000000000000723,-0.082153295040481758
1.065000000000000835,-0.080270814204149873
1.066000000000000725,-0.078402774214816437
1.067000000000000837,-0.076549123708832448
1.068000000000000727,-0.074709811231317827
1.069000000000000838,-0.072884785238869237
1.070000000000000728,-0.071073994102305513
1.071000000000000840,-0.069277386109367331
1.072000000000000730,-0.067494909467425923
1.073000000000000842,-0.065726512306162152
1.074000000000000732,-0.063972142680233338
1.075000000000000844,-0.062231748571946445
1.076000000000000734,-0.060505277893894052
1.077000000000000846,-0.058792678491583553
1.078000000000000735,-0.057093898146059696
1.079000000000000847,-0.055408884576501095
1.080000000000000737,-0.053737585442817537
1.081000000000000849,-0.052079948348207596
1.082000000000000739,-0.050435920841727599
1.083000000000000851,-0.048805450420830385
1.084000000000000741,-0.047188484533897290
1.085000000000000853,-0.045584970582737992
1.086000000000000743,-0.043994855925096811
1.087000000000000854,-0.042418087877127565
1.088000000000000744,-0.040854613715866149
1.089000000000000856,-0.039304380681661998
1.090000000000000746,-0.037767335980618766
1.091000000000000858,-0.036243426787018349
1.092000000000000748,-0.034732600245700997
1.093000000000000860,-0.033234803474465432
1.094000000000000750,-0.031749983566412975
1.095000000000000862,-0.030278087592319546
1.096000000000000751,-0.028819062602952285
1.097000000000000863,-0.027372855631379357
1.098000000000000753,-0.025939413695283166
1.099000000000000865,-0.024518683799230521
1.100000000000000755,-0.023110612936933273
1.101000000000000867,-0.021715148093493529
1.102000000000000757,-0.020332236247640668
1.103000000000000869,-0.018961824373933435
1.104000000000000759,-0.017603859444947245
1.105000000000000870,-0.016258288433466089
1.106000000000000760,-0.014925058314619172
1.107000000000000872,-0.013604116068034505
1.108000000000000762,-0.012295408679960696
1.109000000000000874,-0.010998883145361276
1.110000000000000764,-0.009714486470010802
1.111000000000000876,-0.008442165672549972
1.112000000000000766,-0.007181867786551793
1.113000000000000878,-0.005933539862541493
1.114000000000000767,-0.004697128970018416
1.115000000000000879,-0.003472582199442342
1.116000000000000769,-0.002259846664225002
1.117000000000000881,-0.001058869502677695
1.118000000000000771,0.000130402120041273
1.119000000000000883,0.001308021009998411
1.120000000000000773,0.002474039942585171
1.121000000000000885,0.003628511660628630
1.122000000000000774,0.004771488872524409
1.123000000000000886,0.005903024250376521
1.124000000000000776,0.007023170428168113
1.125000000000000888,0.008131979999952077
1.126000000000000778,0.009229505518048830
1.127000000000000890,0.010315799491248234
1.128000000000000780,0.011390914383086270
1.129000000000000892,0.012454902610067053
1.130000000000000782,0.013507816539950257
1.131000000000000894,0.014549708490044288
1.132000000000000783,0.015580630725513134
1.133000000000000895,0.016600635457696987
1.134000000000000785,0.017609774842481420
1.135000000000000897,0.018608100978622401
1.136000000000000787,0.019595665906167382
1.137000000000000899,0.020572521604821658
1.138000000000000789,0.021538719992386844
1.139000000000000901,0.022494312923173842
1.140000000000000790,0.023439352186472993
1.141000000000000902,0.024373889505017000
1.142000000000000792,0.025297976533456324
1.143000000000000904,0.026211664856878557
1.144000000000000794,0.027115005989311936
1.145000000000000906,0.028008051372288834
1.146000000000000796,0.028890852373367082
1.147000000000000908,0.029763460284730859
1.148000000000000798,0.030625926321765605
1.149000000000000909,0.031478301621665407
1.150000000000000799,0.032320637242067171
1.151000000000000689,0.033152984159676255
1.152000000000000801,0.033975393268930766
1.153000000000000913,0.034787915380675313
1.154000000000000803,0.035590601220846521
1.155000000000000693,0.036383501429196587
1.156000000000000805,0.037166666557987227
1.157000000000000917,0.037940147070762077
1.158000000000000806,0.038703993341079081
1.159000000000000696,0.039458255651294828
1.160000000000000808,0.040202984191354742
1.161000000000000920,0.040938229057592604
1.162000000000000810,0.041664040251549614
1.163000000000000700,0.042380467678824162
1.164000000000000812,0.043087561147908272
1.165000000000000924,0.043785370369076260
1.166000000000000814,0.044473944953246747
1.167000000000000703,0.045153334410904834
1.168000000000000815,0.045823588151001612
1.169000000000000927,0.046484755479898644
1.170000000000000817,0.047136885600301881
1.171000000000000707,0.047780027610241790
1.172000000000000819,0.048414230502027845
1.173000000000000931,0.049039543161260600
1.174000000000000821,0.049656014365836207
1.175000000000000711,0.050263692784959201
1.176000000000000822,0.050862626978189093
1.177000000000000934,0.051452865394493376
1.178000000000000824,0.052034456371307082
1.179000000000000714,0.052607448133626299
1.180000000000000826,0.053171888793091412
1.181000000000000938,0.053727826347110555
1.182000000000000828,0.054275308677978217
1.183000000000000718,0.054814383552009384
1.184000000000000830,0.055345098618704756
1.185000000000000941,0.055867501409915796
1.186000000000000831,0.056381639339018706
1.187000000000000721,0.056887559700118454
1.188000000000000833,0.057385309667253040
1.189000000000000945,0.057874936293620741
1.190000000000000835,0.058356486510808839
1.191000000000000725,0.058830007128063203
1.192000000000000837,0.059295544831519588
1.193000000000000949,0.059753146183518804
1.194000000000000838,0.060202857621862060
1.195000000000000728,0.060644725459142790
1.196000000000000840,0.061078795882043138
1.197000000000000952,0.061505114950670438
1.198000000000000842,0.061923728597904105
1.199000000000000732,0.062334682628736857
1.200000000000000844,0.062738022719665984
1.201000000000000956,0.063133794418044981
1.202000000000000846,0.063522043141500881
1.203000000000000735,0.063902814177318648
1.204000000000000847,0.064276152681883636
1.205000000000000959,0.064642103680076030
1.206000000000000849,0.065000712064747071
1.207000000000000739,0.065352022596155440
1.208000000000000851,0.065696079901431309
1.209000000000000963,0.066032928474060643
1.210000000000000853,0.066362612673366794
1.211000000000000743,0.066685176724022369
1.212000000000000854,0.067000664715547859
1.213000000000000966,0.067309120601846420
1.214000000000000856,0.067610588200723590
1.215000000000000746,0.067905111193460682
1.216000000000000858,0.068192733124335866
1.217000000000000970,0.068473497400224709
1.218000000000000860,0.068747447290160718
1.219000000000000750,0.069014625924929768
1.220000000000000862,0.069275076296672386
1.221000000000000973,0.069528841258497551
1.222000000000000863,0.069775963524093626
1.223000000000000753,0.070016485667378975
1.224000000000000865,0.070250450122127134
1.225000000000000977,0.070477899181625989
1.226000000000000867,0.070698874998350120
1.227000000000000757,0.070913419583620185
1.228000000000000869,0.071121574807299609
1.229000000000000981,0.071323382397469090
1.230000000000000870,0.071518883940156569
1.231000000000000760,0.071708120879027365
1.232000000000000872,0.071891134515112476
1.233000000000000984,0.072067966006553547
1.234000000000000874,0.072238656368323328
1.235000000000000764,0.072403246471996280
1.236000000000000876,0.072561777045494047
1.237000000000000988,0.072714288672870039
1.238000000000000878,0.072860821794066166
1.239000000000000767,0.073001416704725222
1.240000000000000879,0.073136113555971979
1.241000000000000991,0.073264952354220966
1.242000000000000881,0.073387972960998499
1.243000000000000771,0.073505215092750431
1.244000000000000883,0.073616718320694607
1.245000000000000995,0.073722522070637397
1.246000000000000885,0.073822665622840594
1.247000000000000774,0.073917188111870619
1.248000000000000886,0.074006128526464335
1.249000000000000998,0.074089525709402651
1.250000000000000888,0.074167418357387924
1.251000000000000778,0.074239845020940526
1.252000000000000890,0.074306844104290920
1.253000000000001002,0.074368453865290229
1.254000000000000892,0.074424712415309874
1.255000000000000782,0.074475657719178495
1.256000000000000894,0.074521327595101008
1.257000000000001005,0.074561759714593626
1.258000000000000895,0.074596991602428317
1.259000000000000785,0.074627060636586945
1.260000000000000897,0.074652004048214066
1.261000000000001009,0.074671858921577128
1.262000000000000899,0.074686662194053399
1.263000000000000789,0.074696450656096161
1.264000000000000901,0.074701260951220844
1.265000000000001013,0.074701129576005068
1.266000000000000902,0.074696092880080805
1.267000000000000792,0.074686187066145646
1.268000000000000904,0.074671448189972692
1.269000000000001016,0.074651912160434597
1.270000000000000906,0.074627614739517789
1.271000000000000796,0.074598591542368781
1.272000000000000908,0.074564878037327115
1.273000000000001020,0.074526509545968136
1.274000000000000909,0.074483521243155007
1.275000000000000799,0.074435948157102000
1.276000000000000911,0.074383825169424850
1.277000000000001023,0.074327187015225490
1.278000000000000913,0.074266068283154102
1.279000000000000803,0.074200503415501953
1.280000000000000915,0.074130526708270778
1.281000000000001027,0.074056172311289012
1.282000000000000917,0.073977474228289736
1.283000000000000806,0.073894466317024066
1.284000000000000918,0.073807182289363046
1.285000000000001030,0.073715655711425285
1.286000000000000920,0.073619920003683476
1.287000000000000810,0.073520008441095214
1.288000000000000922,0.073415954153230822
1.289000000000001034,0.073307790124413033
1.290000000000000924,0.073195549193859802
1.291000000000000814,0.073079264055814233
1.292000000000000925,0.072958967259719759
1.293000000000001037,0.072834691210348718
1.294000000000000927,0.072706468167986121
1.295000000000000817,0.072574330248580149
1.296000000000000929,0.072438309423916450
1.297000000000001041,0.072298437521794365
1.298000000000000931,0.072154746226203131
1.299000000000000821,0.072007267077501630
1.300000000000000933,0.071856031472616017
1.301000000000001044,0.071701070665225367
1.302000000000000934,0.071542415765960127
1.303000000000000824,0.071380097742596321
1.304000000000000936,0.071214147420274210
1.305000000000001048,0.071044595481697698
1.306000000000000938,0.070871472467342350
1.307000000000000828,0.070694808775690815
1.308000000000000940,0.070514634663441142
1.309000000000001052,0.070330980245723984
1.310000000000000941,0.070143875496352731
1.311000000000000831,0.069953350248039545
1.312000000000000943,0.069759434192646685
1.313000000000001055,0.069562156881403034
1.314000000000000945,0.069361547725173306
1.315000000000000835,0.069157635994693337
1.316000000000000947,0.068950450820823281
1.317000000000001059,0.068740021194795942
1.318000000000000949,0.068526375968490344
1.319000000000000838,0.068309543854672070
1.320000000000000950,0.068089553427273991
1.321000000000001062,0.067866433121662045
1.322000000000000952,0.067640211234897232
1.323000000000000842,0.067410915926020137
1.324000000000000954,0.067178575216319272
1.325000000000001066,0.066943216989621454
1.326000000000000956,0.066704868992564045
1.327000000000000846,0.066463558834894298
1.328000000000000957,0.066219313989738682
1.329000000000001069,0.065972161793924525
1.330000000000000959,0.065722129448242003
1.331000000000000849,0.065469244017766007
1.332000000000000961,0.065213532432148447
1.333000000000001073,0.064955021485921888
1.334000000000000963,0.064693737838797560
1.335000000000000853,0.064429708015989823
1.336000000000000965,0.064162958408512230
1.337000000000001076,0.063893515273497695
1.338000000000000966,0.063621404734514039
1.339000000000000856,0.063346652781878260
1.340000000000000968,0.063069285272982195
1.341000000000001080,0.062789327932614186
1.342000000000000970,0.062506806353280459
1.343000000000000860,0.062221745995535913
1.344000000000000972,0.061934172188314297
1.345000000000001084,0.061644110129253672
1.346000000000000973,0.061351584885039001
1.347000000000000863,0.061056621391730535
1.348000000000000975,0.060759244455110328
1.349000000000001087,0.060459478751008398
1.350000000000000977,0.060157348825659485
1.351000000000000867,0.059852879096032055
1.352000000000000979,0.059546093850192883
1.353000000000001091,0.059237017247632154
1.354000000000000981,0.058925673319625907
1.355000000000000870,0.058612085969587779
1.356000000000000982,0.058296278973416549
1.357000000000001094,0.057978275979848483
1.358000000000000984,0.057658100510818766
1.359000000000000874,0.057335775961819990
1.360000000000000986,0.057011325602252680
1.361000000000001098,0.056684772575791430
1.362000000000000988,0.056356139900749634
1.363000000000000878,0.056025450470441017
1.364000000000000989,0.055692727053533564
1.365000000000001101,0.055357992294434520
1.366000000000000991,0.055021268713648500
1.367000000000000881,0.054682578708142471
1.368000000000000993,0.054341944551723510
1.369000000000001105,0.053999388395402713
1.370000000000000995,0.053654932267777358
1.371000000000000885,0.053308598075397548
1.372000000000000997,0.052960407603142204
1.373000000000001108,0.052610382514591804
1.374000000000000998,0.052258544352424996
1.375000000000000888,0.051904914538762024
1.376000000000001000,0.051549514375576977
1.377000000000001112,0.051192365045059085
1.378000000000001002,0.050833487610001248
1.379000000000000892,0.050472903014182446
1.380000000000001004,0.050110632082746395
1.381000000000001116,0.049746695522584719
1.382000000000001005,0.049381113922733581
1.383000000000000895,0.049013907754743367
1.384000000000001007,0.048645097373076859
1.385000000000001119,0.048274703015489716
1.386000000000001009,0.047902744803418683
1.387000000000000899,0.047529242742381364
1.388000000000001011,0.047154216722338618
1.389000000000001123,0.046777686518121413
1.390000000000001013,0.046399671789789557
1.391000000000000902,0.046020192083041575
1.392000000000001014,0.045639266829598235
1.393000000000001126,0.045256915347597938
1.394000000000001016,0.044873156841984285
1.395000000000000906,0.044488010404907186
1.396000000000001018,0.044101495016115724
1.397000000000001130,0.043713629543343999
1.398000000000001020,0.043324432742714344
1.399000000000000909,0.042933923259127413
1.400000000000001021,0.042542119626665174
1.401000000000001133,0.042149040268971941
1.402000000000001023,0.041754703499669532
1.403000000000000913,0.041359127522739736
1.404000000000001025,0.040962330432921391
1.405000000000001137,0.040564330216118466
1.406000000000001027,0.040165144749786164
1.407000000000000917,0.039764791803329425
1.408000000000001029,0.039363289038509053
1.409000000000001140,0.038960654009828607
1.410000000000001030,0.038556904164943756
1.411000000000000920,0.038152056845047529
1.412000000000001032,0.037746129285277638
1.413000000000001144,0.037339138615115161
1.414000000000001034,0.036931101858776239
1.415000000000000924,0.036522035935618549
1.416000000000001036,0.036111957660530512
1.417000000000001148,0.035700883744337511
1.418000000000001037,0.035288830794198117
1.419000000000000927,0.034875815314002037
1.420000000000001039,0.034461853704771526
1.421000000000001151,0.034046962265051120
1.422000000000001041,0.033631157191314799
1.423000000000000931,0.033214454578363396
1.424000000000001043,0.032796870419717079
1.425000000000001155,0.032378420608019834
1.426000000000001044,0.031959120935431518
1.427000000000000934,0.031538987094028414
1.428000000000001046,0.031118034676201799
1.429000000000001158,0.030696279175056140
1.430000000000001048,0.030273735984798145
1.431000000000000938,0.029850420401144200
1.432000000000001050,0.029426347621710862
1.433000000000001162,0.029001532746411894
1.434000000000001052,0.028575990777856847
1.435000000000000941,0.028149736621740380
1.436000000000001053,0.027722785087246054
1.437000000000001165,0.027295150887441978
1.438000000000001055,0.026866848639661385
1.439000000000000945,0.026437892865914102
1.440000000000001057,0.026008297993269498
1.441000000000001169,0.025578078354260670
1.442000000000001059,0.025147248187265846
1.443000000000000949,0.024715821636907765
1.444000000000001060,0.024283812754444929
1.445000000000001172,0.023851235498168914
1.446000000000001062,0.023418103733783373
1.447000000000000952,0.022984431234811142
1.448000000000001064,0.022550231682970483
1.449000000000001176,0.022115518668570155
1.450000000000001066,0.021680305690909750
1.451000000000000956,0.021244606158653132
1.452000000000001068,0.020808433390221998
1.453000000000001180,0.020371800614191714
1.454000000000001069,0.019934720969669147
1.455000000000000959,0.019497207506683677
1.456000000000001071,0.019059273186577647
1.457000000000001183,0.018620930882382421
1.458000000000001073,0.018182193379209097
1.459000000000000963,0.017743073374643464
1.460000000000001075,0.017303583479109479
1.461000000000001187,0.016863736216273011
1.462000000000001076,0.016423544023405446
1.463000000000000966,0.015983019251781565
1.464000000000001078,0.015542174167059174
1.465000000000001190,0.015101020949648348
1.466000000000001080,0.014659571695104876
1.467000000000000970,0.014217838414504663
1.468000000000001082,0.013775833034818840
1.469000000000001194,0.013333567399301343
1.470000000000001084,0.012891053267855335
1.471000000000000973,0.012448302317422562
1.472000000000001085,0.012005326142343804
1.473000000000001197,0.011562136254748999
1.474000000000001087,0.011118744084921845
1.475000000000000977,0.010675160981682587
1.476000000000001089,0.010231398212752285
1.477000000000001201,0.009787466965125226
1.478000000000001091,0.009343378345452659
1.479000000000000981,0.008899143380396643
1.480000000000001092,0.008454773017015237
1.481000000000001204,0.008010278123120346
1.482000000000001094,0.007565669487652568
1.483000000000000984,0.007120957821044524
1.484000000000001096,0.006676153755590173
1.485000000000001208,0.006231267845816527
1.486000000000001098,0.005786310568832178
1.487000000000000988,0.005341292324709286
1.488000000000001100,0.004896223436841007
1.489000000000001211,0.004451114152295239
1.490000000000001101,0.004005974642190428
1.491000000000000991,0.003560815002050573
1.492000000000001103,0.003115645252156976
1.493000000000001215,0.002670475337920753
1.494000000000001105,0.002225315130236372
1.495000000000000995,0.001780174425833939
1.496000000000001107,0.001335062947641339
1.497000000000001219,0.000889990345138279
1.498000000000001108,0.000444966194708452
1.499000000000000998,0.000000000000000000
