# CNT15-COO--3_BSAI13
# h[nm],U(h)[kJ/mol]
0.149999999999999994,114.592846931427999380
0.150999999999999995,114.166639426295390081
0.151999999999999996,111.694285539953369835
0.152999999999999997,108.870917721919823862
0.153999999999999998,106.295981483603299012
0.154999999999999999,104.063081234089310101
0.156000000000000000,102.074912064946985879
0.157000000000000001,100.197608488166025609
0.158000000000000002,98.325394189741686546
0.159000000000000002,96.398342714032736467
0.160000000000000003,94.398216633418343235
0.161000000000000004,92.336245733434324734
0.162000000000000005,90.239973074214248072
0.163000000000000006,88.142362665866826887
0.164000000000000007,86.074178770255429072
0.165000000000000008,84.059531346983945355
0.166000000000000009,82.113995218078912330
0.167000000000000010,80.244574626415214880
0.168000000000000010,78.450829235543807272
0.169000000000000011,76.726600726309612810
0.170000000000000012,75.061923549814494550
0.171000000000000013,73.444839091437899015
0.172000000000000014,71.862946013212010143
0.173000000000000015,70.304606917129092380
0.174000000000000016,68.759793858221598839
0.175000000000000017,67.220596182682882613
0.176000000000000018,65.681438034771986167
0.177000000000000018,64.139063963491494746
0.178000000000000019,62.592353161406457218
0.179000000000000020,61.042019106555265751
0.180000000000000021,59.490244185430810830
0.181000000000000022,57.940290049664817218
0.182000000000000023,56.396115263529317474
0.183000000000000024,54.862023063154410352
0.184000000000000025,53.342354267467136708
0.185000000000000026,51.841233805030682902
0.186000000000000026,50.362374026226248702
0.187000000000000027,48.908933916732067360
0.188000000000000028,47.483430404761492127
0.189000000000000029,46.087696011287221154
0.190000000000000030,44.722875964732835996
0.191000000000000031,43.389457425492807374
0.192000000000000032,42.087323488326937593
0.193000000000000033,40.815825016222326838
0.194000000000000034,39.573863991395931805
0.195000000000000034,38.359982851570109119
0.196000000000000035,37.172455135691350847
0.197000000000000036,36.009373633733062547
0.198000000000000037,34.868733076474413224
0.199000000000000038,33.748505182717963180
0.200000000000000039,32.646704583707084169
0.201000000000000040,31.561444756662091038
0.202000000000000041,30.490983617281631979
0.203000000000000042,29.433758845744641519
0.204000000000000042,28.388413356832916890
0.205000000000000043,27.353811579373076057
0.206000000000000044,26.329047391858590998
0.207000000000000045,25.313444679203321641
0.208000000000000046,24.306551539613106883
0.209000000000000047,23.308129189810465220
0.210000000000000048,22.318136600040773487
0.211000000000000049,21.336711845419561229
0.212000000000000050,20.364151094393587726
0.213000000000000050,19.400886074638190593
0.214000000000000051,18.447460766941109256
0.215000000000000052,17.504507983014789829
0.216000000000000053,16.572726387396247816
0.217000000000000054,15.652858429557671371
0.218000000000000055,14.745669562314603240
0.219000000000000056,13.851929038252617232
0.220000000000000057,12.972392498354594181
0.221000000000000058,12.107786497046326701
0.222000000000000058,11.258795045856615502
0.223000000000000059,10.426048203916977286
0.224000000000000060,9.610112697461312692
0.225000000000000061,8.811484512022971671
0.226000000000000062,8.030583369724473286
0.227000000000000063,7.267748979382020025
0.228000000000000064,6.523238928516069457
0.229000000000000065,5.797228073146313498
0.230000000000000066,5.089809272830057019
0.231000000000000066,4.400995314149446891
0.232000000000000067,3.730721865170157692
0.233000000000000068,3.078851305708645736
0.234000000000000069,2.445177283028487913
0.235000000000000070,1.829429849349310855
0.236000000000000071,1.231281045853122258
0.237000000000000072,0.650350807313476276
0.238000000000000073,0.086213071706666172
0.239000000000000073,-0.461598010116180180
0.240000000000000074,-0.993581858676048646
0.241000000000000075,-1.510265327066317997
0.242000000000000076,-2.012196711380350500
0.243000000000000077,-2.499939972214108685
0.244000000000000078,-2.974069219119021223
0.245000000000000079,-3.435163500455117536
0.246000000000000080,-3.883801932283027725
0.247000000000000081,-4.320559191784949959
0.248000000000000081,-4.746001393244215549
0.249000000000000082,-5.160682357855520763
0.250000000000000111,-5.565140282581859665
0.251000000000000112,-5.959894807907141434
0.252000000000000113,-6.345444479637468049
0.253000000000000114,-6.722264595846414004
0.254000000000000115,-7.090805426614677387
0.255000000000000115,-7.451490791337567643
0.256000000000000116,-7.804716976031507158
0.257000000000000117,-8.150851971217800696
0.258000000000000118,-8.490235009557512313
0.259000000000000119,-8.823176381414022273
0.260000000000000120,-9.149957505887570619
0.261000000000000121,-9.470831234557467226
0.262000000000000122,-9.786022365146759938
0.263000000000000123,-10.095728342550497558
0.264000000000000123,-10.400120125110936087
0.265000000000000124,-10.699343194645523525
0.266000000000000125,-10.993518689508682940
0.267000000000000126,-11.282744640865871588
0.268000000000000127,-11.567097293355363519
0.269000000000000128,-11.846632492383898594
0.270000000000000129,-12.121387121427813938
0.271000000000000130,-12.391380573872917026
0.272000000000000131,-12.656616245105860585
0.273000000000000131,-12.917083031755344891
0.274000000000000132,-13.172756826158257937
0.275000000000000133,-13.423601995284546007
0.276000000000000134,-13.669572834485695267
0.277000000000000135,-13.910614987526201958
0.278000000000000136,-14.146666825412125945
0.279000000000000137,-14.377660777537277781
0.280000000000000138,-14.603524609623747210
0.281000000000000139,-14.824182643837238160
0.282000000000000139,-15.039556917304318873
0.283000000000000140,-15.249568276050393223
0.284000000000000141,-15.454137402110470489
0.285000000000000142,-15.653185772242299123
0.286000000000000143,-15.846636547291646835
0.287000000000000144,-16.034415391825135089
0.288000000000000145,-16.216451224158213051
0.289000000000000146,-16.392676897364836464
0.290000000000000147,-16.563029812266321983
0.291000000000000147,-16.727452463758375245
0.292000000000000148,-16.885892922152805795
0.293000000000000149,-17.038305251484068492
0.294000000000000150,-17.184649866965060028
0.295000000000000151,-17.324893833972254242
0.296000000000000152,-17.459011111101819580
0.297000000000000153,-17.586982739966124711
0.298000000000000154,-17.708796984499034721
0.299000000000000155,-17.824449422608914517
0.300000000000000155,-17.933942993064050597
0.301000000000000156,-18.037288000518017839
0.302000000000000157,-18.134502081584944477
0.303000000000000158,-18.225610134858246880
0.304000000000000159,-18.310644217734036943
0.305000000000000160,-18.389643412852826998
0.306000000000000161,-18.462653666913872996
0.307000000000000162,-18.529727604545250585
0.308000000000000163,-18.590924319832545564
0.309000000000000163,-18.646309148020755231
0.310000000000000164,-18.695953419809590912
0.311000000000000165,-18.739934200561357613
0.312000000000000166,-18.778334016637465709
0.313000000000000167,-18.811240570971119013
0.314000000000000168,-18.838746449874868460
0.315000000000000169,-18.860948822970694749
0.316000000000000170,-18.877949138019211262
0.317000000000000171,-18.889852812313101538
0.318000000000000171,-18.896768922190204876
0.319000000000000172,-18.898809892112765851
0.320000000000000173,-18.896091184652327399
0.321000000000000174,-18.888730992615354154
0.322000000000000175,-18.876849934442947898
0.323000000000000176,-18.860570753918942444
0.324000000000000177,-18.840018025125271350
0.325000000000000178,-18.815317863491152650
0.326000000000000179,-18.786597643694577187
0.327000000000000179,-18.753985725089375336
0.328000000000000180,-18.717611185250625283
0.329000000000000181,-18.677603562154253325
0.330000000000000182,-18.634092605433327350
0.331000000000000183,-18.587208037085325429
0.332000000000000184,-18.537079321938580989
0.333000000000000185,-18.483835448126029632
0.334000000000000186,-18.427604717756278063
0.335000000000000187,-18.368514547919094326
0.336000000000000187,-18.306691282112517172
0.337000000000000188,-18.242260012132256008
0.338000000000000189,-18.175344410422187735
0.339000000000000190,-18.106066572844788709
0.340000000000000191,-18.034546871794717049
0.341000000000000192,-17.960903819546068405
0.342000000000000193,-17.885253941693701307
0.343000000000000194,-17.807711660522620889
0.344000000000000195,-17.728389188114672237
0.345000000000000195,-17.647396428981149796
0.346000000000000196,-17.564840891989980776
0.347000000000000197,-17.480827611340355787
0.348000000000000198,-17.395459076322786984
0.349000000000000199,-17.308835169590356173
0.350000000000000200,-17.221053113656871858
0.351000000000000201,-17.132207425328736861
0.352000000000000202,-17.042389877770951045
0.353000000000000203,-16.951689469902355256
0.354000000000000203,-16.860192402811726708
0.355000000000000204,-16.767982062883728389
0.356000000000000205,-16.675139011323242499
0.357000000000000206,-16.581740979766458111
0.358000000000000207,-16.487862871668323095
0.359000000000000208,-16.393576769158443085
0.360000000000000209,-16.298951945060547786
0.361000000000000210,-16.204054879774517417
0.362000000000000210,-16.108949282724736918
0.363000000000000211,-16.013696118083760922
0.364000000000000212,-15.918353634486411607
0.365000000000000213,-15.822977398455474685
0.366000000000000214,-15.727620331267306852
0.367000000000000215,-15.632332748992780580
0.368000000000000216,-15.537162405456621528
0.369000000000000217,-15.442154537865828701
0.370000000000000218,-15.347351914866356637
0.371000000000000218,-15.252794886794854179
0.372000000000000219,-15.158521437901208984
0.373000000000000220,-15.064567240325843045
0.374000000000000221,-14.970965709624204365
0.375000000000000222,-14.877748061639508137
0.376000000000000223,-14.784943370533431661
0.377000000000000224,-14.692578627792780566
0.378000000000000225,-14.600678802038808968
0.379000000000000226,-14.509266899474045687
0.380000000000000226,-14.418364024810028212
0.381000000000000227,-14.327989442527108821
0.382000000000000228,-14.238160638325961571
0.383000000000000229,-14.148893380637952433
0.384000000000000230,-14.060201782069293941
0.385000000000000231,-13.972098360661629357
0.386000000000000232,-13.884594100858729249
0.387000000000000233,-13.797698514076326859
0.388000000000000234,-13.711419698778930965
0.389000000000000234,-13.625764399974423569
0.390000000000000235,-13.540738068043278730
0.391000000000000236,-13.456344916826219915
0.392000000000000237,-13.372587980899464100
0.393000000000000238,-13.289469171973337325
0.394000000000000239,-13.206989334354839016
0.395000000000000240,-13.125148299421070419
0.396000000000000241,-13.043944939054835430
0.397000000000000242,-12.963377217999148883
0.398000000000000242,-12.883442245092123102
0.399000000000000243,-12.804136323348094706
0.400000000000000244,-12.725454998855200373
0.401000000000000245,-12.647393108464038747
0.402000000000000246,-12.569944826245547986
0.403000000000000247,-12.493103708700196819
0.404000000000000248,-12.416862738704207203
0.405000000000000249,-12.341214368181599781
0.406000000000000250,-12.266150559494214178
0.407000000000000250,-12.191662825544794302
0.408000000000000251,-12.117742268590856014
0.409000000000000252,-12.044379617770008650
0.410000000000000253,-11.971565265339489059
0.411000000000000254,-11.899289301635210592
0.412000000000000255,-11.827541548757691814
0.413000000000000256,-11.756311592994293846
0.414000000000000257,-11.685588815988763756
0.415000000000000258,-11.615362424671292985
0.416000000000000258,-11.545621479963367406
0.417000000000000259,-11.476354924273428182
0.418000000000000260,-11.407551607800630933
0.419000000000000261,-11.339200313665148911
0.420000000000000262,-11.271289781884565429
0.421000000000000263,-11.203808732217037658
0.422000000000000264,-11.136745885892477048
0.423000000000000265,-11.070089986254123104
0.424000000000000266,-11.003829818333469959
0.425000000000000266,-10.937954227381917249
0.426000000000000267,-10.872452136383341070
0.427000000000000268,-10.807312562572082726
0.428000000000000269,-10.742524632981112376
0.429000000000000270,-10.678077599045719737
0.430000000000000271,-10.613960850287961435
0.431000000000000272,-10.550163927107577777
0.432000000000000273,-10.486676532704970910
0.433000000000000274,-10.423488544162045955
0.434000000000000274,-10.360590022706642088
0.435000000000000275,-10.297971223186239698
0.436000000000000276,-10.235622602776604850
0.437000000000000277,-10.173534828950774767
0.438000000000000278,-10.111698786733754218
0.439000000000000279,-10.050105585268060082
0.440000000000000280,-9.988746563714846260
0.441000000000000281,-9.927613296515328756
0.442000000000000282,-9.866697598036784811
0.443000000000000282,-9.805991526627002131
0.444000000000000283,-9.745487388100936954
0.445000000000000284,-9.685177738682735793
0.446000000000000285,-9.625055387425936360
0.447000000000000286,-9.565113398134561962
0.448000000000000287,-9.505345090806720521
0.449000000000000288,-9.445744042622781222
0.450000000000000289,-9.386304088498874876
0.451000000000000290,-9.327019321226691417
0.452000000000000290,-9.267884091219674048
0.453000000000000291,-9.208893005885409266
0.454000000000000292,-9.150040928643498717
0.455000000000000293,-9.091322977607678268
0.456000000000000294,-9.032734523950542993
0.457000000000000295,-8.974271189968678897
0.458000000000000296,-8.915928846865494251
0.459000000000000297,-8.857703612268686300
0.460000000000000298,-8.799591847498566821
0.461000000000000298,-8.741590154603262164
0.462000000000000299,-8.683695373176036014
0.463000000000000300,-8.625904576969629645
0.464000000000000301,-8.568215070322178661
0.465000000000000302,-8.510624384408478349
0.466000000000000303,-8.453130273330128119
0.467000000000000304,-8.395730710057568658
0.468000000000000305,-8.338423882236558171
0.469000000000000306,-8.281208187871110127
0.470000000000000306,-8.224082230894676826
0.471000000000000307,-8.167044816640551375
0.472000000000000308,-8.110094947222558304
0.473000000000000309,-8.053231816836067480
0.474000000000000310,-7.996454806989534703
0.475000000000000311,-7.939763481675823797
0.476000000000000312,-7.883157582492756887
0.477000000000000313,-7.826637023721255915
0.478000000000000314,-7.770201887369694305
0.479000000000000314,-7.713852418192345795
0.480000000000000315,-7.657589018689459515
0.481000000000000316,-7.601412244096356297
0.482000000000000317,-7.545322797368304357
0.483000000000000318,-7.489321524167834809
0.484000000000000319,-7.433409407860662732
0.485000000000000320,-7.377587564526206343
0.486000000000000321,-7.321857237988209199
0.487000000000000322,-7.266219794870838022
0.488000000000000322,-7.210676719685160663
0.489000000000000323,-7.155229609950877645
0.490000000000000324,-7.099880171357606962
0.491000000000000325,-7.044630212969947181
0.492000000000000326,-6.989481642480197543
0.493000000000000327,-6.934436461512501815
0.494000000000000328,-6.879496760981664849
0.495000000000000329,-6.824664716510016049
0.496000000000000330,-6.769942583905072198
0.497000000000000330,-6.715332694700971494
0.498000000000000331,-6.660837451765947215
0.499000000000000332,-6.606459324978429137
0.500000000000000333,-6.552200846973711634
0.501000000000000334,-6.498064608963195710
0.502000000000000335,-6.444053256627979565
0.503000000000000336,-6.390169486088391082
0.504000000000000337,-6.336416039950849566
0.505000000000000338,-6.282795703433341927
0.506000000000000338,-6.229311300570633314
0.507000000000000339,-6.175965690500138550
0.508000000000000340,-6.122761763829284831
0.509000000000000341,-6.069702439085146395
0.510000000000000342,-6.016790659246733064
0.511000000000000343,-5.964029388360559736
0.512000000000000344,-5.911421608239640690
0.513000000000000345,-5.858970315246280869
0.514000000000000346,-5.806678517158682773
0.515000000000000346,-5.754549230121357439
0.516000000000000347,-5.702585475679287974
0.517000000000000348,-5.650790277895720415
0.518000000000000349,-5.599166660553128949
0.519000000000000350,-5.547717644437254236
0.520000000000000351,-5.496446244703571793
0.521000000000000352,-5.445355468325871584
0.522000000000000353,-5.394448311626254267
0.523000000000000353,-5.343727757885933904
0.524000000000000354,-5.293196775036314250
0.525000000000000355,-5.242858313429335837
0.526000000000000356,-5.192715303686499695
0.527000000000000357,-5.142770654625702598
0.528000000000000358,-5.093027251264829580
0.529000000000000359,-5.043487952901429594
0.530000000000000360,-4.994155591267245953
0.531000000000000361,-4.945032968756797764
0.532000000000000361,-4.896122856728832851
0.533000000000000362,-4.847427993879652952
0.534000000000000363,-4.798951084687201885
0.535000000000000364,-4.750694797924757573
0.536000000000000365,-4.702661765243126624
0.537000000000000366,-4.654854579820169036
0.538000000000000367,-4.607275795076382074
0.539000000000000368,-4.559927923455541432
0.540000000000000369,-4.512813435268898665
0.541000000000000369,-4.465934757602023630
0.542000000000000370,-4.419294273282791785
0.543000000000000371,-4.372894319909408800
0.544000000000000372,-4.326737188937227252
0.545000000000000373,-4.280825124823031125
0.546000000000000374,-4.235160324225569539
0.547000000000000375,-4.189744935261063397
0.548000000000000376,-4.144581056812486786
0.549000000000000377,-4.099670737891278449
0.550000000000000377,-4.055015977050238085
0.551000000000000378,-4.010618721846421764
0.552000000000000379,-3.966480868352740607
0.553000000000000380,-3.922604260717002855
0.554000000000000381,-3.878990690767182059
0.555000000000000382,-3.835641897661747457
0.556000000000000383,-3.792559567583668301
0.557000000000000384,-3.749745333477108922
0.558000000000000385,-3.707200774825401446
0.559000000000000385,-3.664927417469267645
0.560000000000000386,-3.622926733463996296
0.561000000000000387,-3.581200140974514223
0.562000000000000388,-3.539749004207099148
0.563000000000000389,-3.498574633376681842
0.564000000000000390,-3.457678284708554095
0.565000000000000391,-3.417061160473399362
0.566000000000000392,-3.376724409054544740
0.567000000000000393,-3.336669125046379580
0.568000000000000393,-3.296896349382810509
0.569000000000000394,-3.257407069494760776
0.570000000000000395,-3.218202219495709393
0.571000000000000396,-3.179282680394130534
0.572000000000000397,-3.140649280332004523
0.573000000000000398,-3.102302794848251999
0.574000000000000399,-3.064243947166274573
0.575000000000000400,-3.026473408504515739
0.576000000000000401,-2.988991798409214251
0.577000000000000401,-2.951799685108426718
0.578000000000000402,-2.914897585886335296
0.579000000000000403,-2.878285967477061558
0.580000000000000404,-2.841965246477104579
0.581000000000000405,-2.805935789775510614
0.582000000000000406,-2.770197915001010092
0.583000000000000407,-2.734751890985256395
0.584000000000000408,-2.699597938241447004
0.585000000000000409,-2.664736229457479233
0.586000000000000409,-2.630166890002928248
0.587000000000000410,-2.595889998449118163
0.588000000000000411,-2.561905587101511284
0.589000000000000412,-2.528213642543794659
0.590000000000000413,-2.494814106192877912
0.591000000000000414,-2.461706874864208583
0.592000000000000415,-2.428891801346755752
0.593000000000000416,-2.396368694986933168
0.594000000000000417,-2.364137322280929432
0.595000000000000417,-2.332197407474883022
0.596000000000000418,-2.300548633172097901
0.597000000000000419,-2.269190640947047477
0.598000000000000420,-2.238123031965297827
0.599000000000000421,-2.207345367609037545
0.600000000000000422,-2.176857170107556527
0.601000000000000423,-2.146657923172231808
0.602000000000000424,-2.116747072635484450
0.603000000000000425,-2.087124027093250511
0.604000000000000425,-2.057788158550486912
0.605000000000000426,-2.028738803069257024
0.606000000000000427,-1.999975261419011163
0.607000000000000428,-1.971496799728481353
0.608000000000000429,-1.943302650139050014
0.609000000000000430,-1.915392011458852295
0.610000000000000431,-1.887764049817574286
0.611000000000000432,-1.860417899321308299
0.612000000000000433,-1.833352662707217418
0.613000000000000433,-1.806567411997703987
0.614000000000000434,-1.780061189153666179
0.615000000000000435,-1.753833006726527088
0.616000000000000436,-1.727881848508778573
0.617000000000000437,-1.702206670182732751
0.618000000000000438,-1.676806399967141203
0.619000000000000439,-1.651679939261415431
0.620000000000000440,-1.626826163287267146
0.621000000000000441,-1.602243921727398712
0.622000000000000441,-1.577932039361072736
0.623000000000000442,-1.553889316696294598
0.624000000000000443,-1.530114530598379430
0.625000000000000444,-1.506606434914743886
0.626000000000000445,-1.483363761095604749
0.627000000000000446,-1.460385218810527075
0.628000000000000447,-1.437669496560508131
0.629000000000000448,-1.415215262285505871
0.630000000000000449,-1.393021163967197440
0.631000000000000449,-1.371085830226799640
0.632000000000000450,-1.349407870917860741
0.633000000000000451,-1.327985877713790064
0.634000000000000452,-1.306818424690051383
0.635000000000000453,-1.285904068900864061
0.636000000000000454,-1.265241350950283783
0.637000000000000455,-1.244828795557587853
0.638000000000000456,-1.224664912116774529
0.639000000000000457,-1.204748195250177067
0.640000000000000457,-1.185077125356019501
0.641000000000000458,-1.165650169149833992
0.642000000000000459,-1.146465780199731999
0.643000000000000460,-1.127522399455309854
0.644000000000000461,-1.108818455770285816
0.645000000000000462,-1.090352366418672503
0.646000000000000463,-1.072122537604474291
0.647000000000000464,-1.054127364964871250
0.648000000000000465,-1.036365234066823904
0.649000000000000465,-1.018834520897031526
0.650000000000000466,-1.001533592345264179
0.651000000000000467,-0.984460806680960809
0.652000000000000468,-0.967614514023129146
0.653000000000000469,-0.950993056803476122
0.654000000000000470,-0.934594770222786031
0.655000000000000471,-0.918417982700490243
0.656000000000000472,-0.902461016317449571
0.657000000000000473,-0.886722187251907989
0.658000000000000473,-0.871199806208661998
0.659000000000000474,-0.855892178841377360
0.660000000000000475,-0.840797606168129041
0.661000000000000476,-0.825914384980085403
0.662000000000000477,-0.811240808243439915
0.663000000000000478,-0.796775165494510218
0.664000000000000479,-0.782515743228118232
0.665000000000000480,-0.768460825279129289
0.666000000000000481,-0.754608693197357461
0.667000000000000481,-0.740957626615649012
0.668000000000000482,-0.727505903611393889
0.669000000000000483,-0.714251801061266289
0.670000000000000484,-0.701193594989414137
0.671000000000000485,-0.688329560909016314
0.672000000000000486,-0.675657974157278352
0.673000000000000487,-0.663177110223929667
0.674000000000000488,-0.650885245073197338
0.675000000000000488,-0.638780655459344038
0.676000000000000489,-0.626861619235841938
0.677000000000000490,-0.615126415658120096
0.678000000000000491,-0.603573325680051842
0.679000000000000492,-0.592200632244159531
0.680000000000000493,-0.581006620565581833
0.681000000000000494,-0.569989578409912268
0.682000000000000495,-0.559147796364880323
0.683000000000000496,-0.548479568106006399
0.684000000000000496,-0.537983190656217913
0.685000000000000497,-0.527656964639524606
0.686000000000000498,-0.517499194528798445
0.687000000000000499,-0.507508188887704437
0.688000000000000500,-0.497682260606835125
0.689000000000000501,-0.488019727134150372
0.690000000000000502,-0.478518910699727296
0.691000000000000503,-0.469178138534905809
0.692000000000000504,-0.459995743085889697
0.693000000000000504,-0.450970062221891177
0.694000000000000505,-0.442099439437787178
0.695000000000000506,-0.433382224051501175
0.696000000000000507,-0.424816771396017756
0.697000000000000508,-0.416401443006194971
0.698000000000000509,-0.408134606800417188
0.699000000000000510,-0.400014637257110284
0.700000000000000511,-0.392039915586243903
0.701000000000000512,-0.384208829895845816
0.702000000000000512,-0.376519775353599595
0.703000000000000513,-0.368971154343605612
0.704000000000000514,-0.361561376618352026
0.705000000000000515,-0.354288859445970661
0.706000000000000516,-0.347152027752839154
0.707000000000000517,-0.340149314261612878
0.708000000000000518,-0.333279159624693067
0.709000000000000519,-0.326540012553298176
0.710000000000000520,-0.319930329942086977
0.711000000000000520,-0.313448576989494576
0.712000000000000521,-0.307093227313791073
0.713000000000000522,-0.300862763064929317
0.714000000000000523,-0.294755675032307207
0.715000000000000524,-0.288770462748385914
0.716000000000000525,-0.282905634588391852
0.717000000000000526,-0.277159707866009408
0.718000000000000527,-0.271531208925223033
0.719000000000000528,-0.266018673228344271
0.720000000000000528,-0.260620645440309273
0.721000000000000529,-0.255335679509224422
0.722000000000000530,-0.250162338743373236
0.723000000000000531,-0.245099195884582594
0.724000000000000532,-0.240144833178128930
0.725000000000000533,-0.235297842439202209
0.726000000000000534,-0.230556825115958736
0.727000000000000535,-0.225920392349293120
0.728000000000000536,-0.221387165029307470
0.729000000000000536,-0.216955773848621108
0.730000000000000537,-0.212624859352512796
0.731000000000000538,-0.208393071985975092
0.732000000000000539,-0.204259072137759456
0.733000000000000540,-0.200221530181445839
0.734000000000000541,-0.196279126513591973
0.735000000000000542,-0.192430551589033216
0.736000000000000543,-0.188674505953392246
0.737000000000000544,-0.185009700272822569
0.738000000000000544,-0.181434855361094188
0.739000000000000545,-0.177948702204003217
0.740000000000000546,-0.174549981981240554
0.741000000000000547,-0.171237446085690193
0.742000000000000548,-0.168009856140317021
0.743000000000000549,-0.164865984012546374
0.744000000000000550,-0.161804611826331379
0.745000000000000551,-0.158824531971887645
0.746000000000000552,-0.155924547113141521
0.747000000000000552,-0.153103470192977792
0.748000000000000553,-0.150360124436293485
0.749000000000000554,-0.147693343350940420
0.750000000000000555,-0.145101970726603413
0.751000000000000556,-0.142584860631614185
0.752000000000000557,-0.140140877407842257
0.753000000000000558,-0.137768895663577251
0.754000000000000559,-0.135467800264590266
0.755000000000000560,-0.133236486323306508
0.756000000000000560,-0.131073859186205788
0.757000000000000561,-0.128978834419442551
0.758000000000000562,-0.126950337792762546
0.759000000000000563,-0.124987305261765824
0.760000000000000564,-0.123088682948515465
0.761000000000000565,-0.121253427120581042
0.762000000000000566,-0.119480504168524182
0.763000000000000567,-0.117768890581879199
0.764000000000000568,-0.116117572923670018
0.765000000000000568,-0.114525547803518271
0.766000000000000569,-0.112991821849327698
0.767000000000000570,-0.111515411677664877
0.768000000000000571,-0.110095343862763512
0.769000000000000572,-0.108730654904338267
0.770000000000000573,-0.107420391194079382
0.771000000000000574,-0.106163608981001772
0.772000000000000575,-0.104959374335589287
0.773000000000000576,-0.103806763112829992
0.774000000000000576,-0.102704860914132293
0.775000000000000577,-0.101652763048203323
0.776000000000000578,-0.100649574490856167
0.777000000000000579,-0.099694409843861881
0.778000000000000580,-0.098786393292788793
0.779000000000000581,-0.097924658563944195
0.780000000000000582,-0.097108348880379294
0.781000000000000583,-0.096336616917042456
0.782000000000000584,-0.095608624755078253
0.783000000000000584,-0.094923543835296720
0.784000000000000585,-0.094280554910882858
0.785000000000000586,-0.093678847999320775
0.786000000000000587,-0.093117622333604724
0.787000000000000588,-0.092596086312741716
0.788000000000000589,-0.092113457451557482
0.789000000000000590,-0.091668962329895104
0.790000000000000591,-0.091261836541144073
0.791000000000000592,-0.090891324640192978
0.792000000000000592,-0.090556680090810651
0.793000000000000593,-0.090257165212454374
0.794000000000000594,-0.089992051126578335
0.795000000000000595,-0.089760617702440704
0.796000000000000596,-0.089562153502381711
0.797000000000000597,-0.089395955726722320
0.798000000000000598,-0.089261330158163926
0.799000000000000599,-0.089157591105805720
0.800000000000000600,-0.089084061348764260
0.801000000000000600,-0.089040072079423452
0.802000000000000601,-0.089024962846327466
0.803000000000000602,-0.089038081496746982
0.804000000000000603,-0.089078784118945722
0.805000000000000604,-0.089146434984146899
0.806000000000000605,-0.089240406488201390
0.807000000000000606,-0.089360079093064426
0.808000000000000607,-0.089504841267971785
0.809000000000000608,-0.089674089430426374
0.810000000000000608,-0.089867227887003423
0.811000000000000609,-0.090083668773919601
0.812000000000000610,-0.090322831997494288
0.813000000000000611,-0.090584145174401831
0.814000000000000612,-0.090867043571836378
0.815000000000000613,-0.091170970047538047
0.816000000000000614,-0.091495374989694761
0.817000000000000615,-0.091839716256785581
0.818000000000000616,-0.092203459117336170
0.819000000000000616,-0.092586076189604322
0.820000000000000617,-0.092987047381219864
0.821000000000000618,-0.093405859828802229
0.822000000000000619,-0.093842007837555169
0.823000000000000620,-0.094294992820830925
0.824000000000000621,-0.094764323239717646
0.825000000000000622,-0.095249514542646185
0.826000000000000623,-0.095750089105014119
0.827000000000000624,-0.096265576168852979
0.828000000000000624,-0.096795511782545682
0.829000000000000625,-0.097339438740605466
0.830000000000000626,-0.097896906523530863
0.831000000000000627,-0.098467471237737733
0.832000000000000628,-0.099050695555602586
0.833000000000000629,-0.099646148655573377
0.834000000000000630,-0.100253406162428699
0.835000000000000631,-0.100872050087642370
0.836000000000000631,-0.101501668769880052
0.837000000000000632,-0.102141856815644513
0.838000000000000633,-0.102792215040053175
0.839000000000000634,-0.103452350407787413
0.840000000000000635,-0.104121875974212491
0.841000000000000636,-0.104800410826641849
0.842000000000000637,-0.105487580025824396
0.843000000000000638,-0.106183014547577129
0.844000000000000639,-0.106886351224647208
0.845000000000000639,-0.107597232688758454
0.846000000000000640,-0.108315307312866274
0.847000000000000641,-0.109040229153652440
0.848000000000000642,-0.109771657894202998
0.849000000000000643,-0.110509258786947215
0.850000000000000644,-0.111252702596823655
0.851000000000000645,-0.112001665544668325
0.852000000000000646,-0.112755829250881456
0.853000000000000647,-0.113514880679313743
0.854000000000000647,-0.114278512081424921
0.855000000000000648,-0.115046420940703678
0.856000000000000649,-0.115818309917353784
0.857000000000000650,-0.116593886793248072
0.858000000000000651,-0.117372864417153749
0.859000000000000652,-0.118154960650243626
0.860000000000000653,-0.118939898311903616
0.861000000000000654,-0.119727405125793343
0.862000000000000655,-0.120517213666242726
0.863000000000000655,-0.121309061304899754
0.864000000000000656,-0.122102690157720656
0.865000000000000657,-0.122897847032219398
0.866000000000000658,-0.123694283375061900
0.867000000000000659,-0.124491755219946973
0.868000000000000660,-0.125290023135797707
0.869000000000000661,-0.126088852175274851
0.870000000000000662,-0.126888011823607594
0.871000000000000663,-0.127687275947748813
0.872000000000000663,-0.128486422745830414
0.873000000000000664,-0.129285234696972340
0.874000000000000665,-0.130083498511393170
0.875000000000000666,-0.130881005080870583
0.876000000000000667,-0.131677549429515234
0.877000000000000668,-0.132472930664882027
0.878000000000000669,-0.133266951929429722
0.879000000000000670,-0.134059420352286129
0.880000000000000671,-0.134850147001383341
0.881000000000000671,-0.135638946835901775
0.882000000000000672,-0.136425638659082693
0.883000000000000673,-0.137210045071357201
0.884000000000000674,-0.137991992423832699
0.885000000000000675,-0.138771310772110357
0.886000000000000676,-0.139547833830461154
0.887000000000000677,-0.140321398926333052
0.888000000000000678,-0.141091846955203520
0.889000000000000679,-0.141859022335791896
0.890000000000000679,-0.142622772965606770
0.891000000000000680,-0.143382950176839913
0.892000000000000681,-0.144139408692612186
0.893000000000000682,-0.144892006583565658
0.894000000000000683,-0.145640605224793496
0.895000000000000684,-0.146385069253141320
0.896000000000000685,-0.147125266524830212
0.897000000000000686,-0.147861068073440793
0.898000000000000687,-0.148592348068250169
0.899000000000000687,-0.149318983772897929
0.900000000000000688,-0.150040855504420007
0.901000000000000689,-0.150757846592612876
0.902000000000000690,-0.151469843339759297
0.903000000000000691,-0.152176734980685097
0.904000000000000692,-0.152878413643175864
0.905000000000000693,-0.153574774308723988
0.906000000000000694,-0.154265714773643731
0.907000000000000695,-0.154951135610488788
0.908000000000000695,-0.155630940129868500
0.909000000000000696,-0.156305034342553245
0.910000000000000697,-0.156973326921962669
0.911000000000000698,-0.157635729166965222
0.912000000000000699,-0.158292154965032988
0.913000000000000700,-0.158942520755743388
0.914000000000000701,-0.159586745494582460
0.915000000000000702,-0.160224750617137923
0.916000000000000703,-0.160856460003579449
0.917000000000000703,-0.161481799943507198
0.918000000000000704,-0.162100699101114576
0.919000000000000705,-0.162713088480689466
0.920000000000000706,-0.163318901392452198
0.921000000000000707,-0.163918073418710286
0.922000000000000708,-0.164510542380353952
0.923000000000000709,-0.165096248303679194
0.924000000000000710,-0.165675133387519047
0.925000000000000711,-0.166247141970720824
0.926000000000000711,-0.166812220499934688
0.927000000000000712,-0.167370317497728432
0.928000000000000713,-0.167921383531013935
0.929000000000000714,-0.168465371179807949
0.930000000000000715,-0.169002235006288831
0.931000000000000716,-0.169531931524187274
0.932000000000000717,-0.170054419168482879
0.933000000000000718,-0.170569658265407570
0.934000000000000719,-0.171077611002770247
0.935000000000000719,-0.171578241400590054
0.936000000000000720,-0.172071515282015919
0.937000000000000721,-0.172557400244583298
0.938000000000000722,-0.173035865631755270
0.939000000000000723,-0.173506882504761206
0.940000000000000724,-0.173970423614756564
0.941000000000000725,-0.174426463375252305
0.942000000000000726,-0.174874977834875683
0.943000000000000727,-0.175315944650388411
0.944000000000000727,-0.175749343060030538
0.945000000000000728,-0.176175153857141831
0.946000000000000729,-0.176593359364057123
0.947000000000000730,-0.177003943406322306
0.948000000000000731,-0.177406891287163859
0.949000000000000732,-0.177802189762272883
0.950000000000000733,-0.178189827014831714
0.951000000000000734,-0.178569792630871416
0.952000000000000735,-0.178942077574857972
0.953000000000000735,-0.179306674165579938
0.954000000000000736,-0.179663576052314922
0.955000000000000737,-0.180012778191252582
0.956000000000000738,-0.180354276822201232
0.957000000000000739,-0.180688069445550548
0.958000000000000740,-0.181014154799516241
0.959000000000000741,-0.181332532837631483
0.960000000000000742,-0.181643204706521233
0.961000000000000743,-0.181946172723917554
0.962000000000000743,-0.182241440356944617
0.963000000000000744,-0.182529012200656815
0.964000000000000745,-0.182808893956845686
0.965000000000000746,-0.183081092413070218
0.966000000000000747,-0.183345615421967534
0.967000000000000748,-0.183602471880788709
0.968000000000000749,-0.183851671711213360
0.969000000000000750,-0.184093225839364327
0.970000000000000751,-0.184327146176117423
0.971000000000000751,-0.184553445597597260
0.972000000000000752,-0.184772137925954871
0.973000000000000753,-0.184983237910377990
0.974000000000000754,-0.185186761208305545
0.975000000000000755,-0.185382724366909141
0.976000000000000756,-0.185571144804794141
0.977000000000000757,-0.185752040793922685
0.978000000000000758,-0.185925431441768735
0.979000000000000759,-0.186091336673719715
0.980000000000000759,-0.186249777215654277
0.981000000000000760,-0.186400774576789108
0.982000000000000761,-0.186544351032729733
0.983000000000000762,-0.186680529608718615
0.984000000000000763,-0.186809334063126886
0.985000000000000764,-0.186930788871154663
0.986000000000000765,-0.187044919208728760
0.987000000000000766,-0.187151750936619649
0.988000000000000766,-0.187251310584772235
0.989000000000000767,-0.187343625336840985
0.990000000000000768,-0.187428723014921916
0.991000000000000769,-0.187506632064486894
0.992000000000000770,-0.187577381539527993
0.993000000000000771,-0.187641001087903270
0.994000000000000772,-0.187697520936856127
0.995000000000000773,-0.187746971878767294
0.996000000000000774,-0.187789385257058711
0.997000000000000774,-0.187824792952321185
0.998000000000000775,-0.187853227368617814
0.999000000000000776,-0.187874721419972912
1.000000000000000666,-0.187889308517058262
1.001000000000000778,-0.187897022554050996
1.002000000000000668,-0.187897897895682120
1.003000000000000780,-0.187891969364461037
1.004000000000000670,-0.187879272228081345
1.005000000000000782,-0.187859842187009324
1.006000000000000671,-0.187833715362237724
1.007000000000000783,-0.187800928283210600
1.008000000000000673,-0.187761517875940726
1.009000000000000785,-0.187715521451271350
1.010000000000000675,-0.187662976693326849
1.011000000000000787,-0.187603921648111432
1.012000000000000677,-0.187538394712297968
1.013000000000000789,-0.187466434622155259
1.014000000000000679,-0.187388080442639687
1.015000000000000790,-0.187303371556673037
1.016000000000000680,-0.187212347654551081
1.017000000000000792,-0.187115048723508121
1.018000000000000682,-0.187011515037461551
1.019000000000000794,-0.186901787146883297
1.020000000000000684,-0.186785905868841640
1.021000000000000796,-0.186663912277181210
1.022000000000000686,-0.186535847692856388
1.023000000000000798,-0.186401753674414639
1.024000000000000687,-0.186261672008614987
1.025000000000000799,-0.186115644701209004
1.026000000000000689,-0.185963713967841893
1.027000000000000801,-0.185805922225108389
1.028000000000000691,-0.185642312081751693
1.029000000000000803,-0.185472926329978777
1.030000000000000693,-0.185297807936938563
1.031000000000000805,-0.185117000036320367
1.032000000000000695,-0.184930545920075823
1.033000000000000806,-0.184738489030306957
1.034000000000000696,-0.184540872951240525
1.035000000000000808,-0.184337741401362665
1.036000000000000698,-0.184129138225662847
1.037000000000000810,-0.183915107388033600
1.038000000000000700,-0.183695692963743384
1.039000000000000812,-0.183470939132078320
1.040000000000000702,-0.183240890169089066
1.041000000000000814,-0.183005590440459887
1.042000000000000703,-0.182765084394481719
1.043000000000000815,-0.182519416555170511
1.044000000000000705,-0.182268631515488472
1.045000000000000817,-0.182012773930660121
1.046000000000000707,-0.181751888511642423
1.047000000000000819,-0.181486020018676919
1.048000000000000709,-0.181215213254954183
1.049000000000000821,-0.180939513060410506
1.050000000000000711,-0.180658964305596637
1.051000000000000822,-0.180373611885696394
1.052000000000000712,-0.180083500714613820
1.053000000000000824,-0.179788675719178836
1.054000000000000714,-0.179489181833467570
1.055000000000000826,-0.179185063993203608
1.056000000000000716,-0.178876367130278602
1.057000000000000828,-0.178563136167356140
1.058000000000000718,-0.178245416012586005
1.059000000000000830,-0.177923251554409800
1.060000000000000719,-0.177596687656468688
1.061000000000000831,-0.177265769152591263
1.062000000000000721,-0.176930540841891498
1.063000000000000833,-0.176591047483958014
1.064000000000000723,-0.176247333794114364
1.065000000000000835,-0.175899444438794184
1.066000000000000725,-0.175547424031000598
1.067000000000000837,-0.175191317125825835
1.068000000000000727,-0.174831168216110278
1.069000000000000838,-0.174467021728128169
1.070000000000000728,-0.174098922017406538
1.071000000000000840,-0.173726913364596974
1.072000000000000730,-0.173351039971447629
1.073000000000000842,-0.172971345956844574
1.074000000000000732,-0.172587875352934433
1.075000000000000844,-0.172200672101340491
1.076000000000000734,-0.171809780049440614
1.077000000000000846,-0.171415242946726359
1.078000000000000735,-0.171017104441248791
1.079000000000000847,-0.170615408076119857
1.080000000000000737,-0.170210197286114973
1.081000000000000849,-0.169801515394317037
1.082000000000000739,-0.169389405608858096
1.083000000000000851,-0.168973911019724254
1.084000000000000741,-0.168555074595630516
1.085000000000000853,-0.168132939180957119
1.086000000000000743,-0.167707547492770614
1.087000000000000854,-0.167278942117900453
1.088000000000000744,-0.166847165510091905
1.089000000000000856,-0.166412259987206768
1.090000000000000746,-0.165974267728508706
1.091000000000000858,-0.165533230772010376
1.092000000000000748,-0.165089191011867309
1.093000000000000860,-0.164642190195854937
1.094000000000000750,-0.164192269922887574
1.095000000000000862,-0.163739471640615170
1.096000000000000751,-0.163283836643074692
1.097000000000000863,-0.162825406068383582
1.098000000000000753,-0.162364220896525052
1.099000000000000865,-0.161900321947161197
1.100000000000000755,-0.161433749877509303
1.101000000000000867,-0.160964545180283330
1.102000000000000757,-0.160492748181685352
1.103000000000000869,-0.160018399039450310
1.104000000000000759,-0.159541537740931300
1.105000000000000870,-0.159062204101273058
1.106000000000000760,-0.158580437761588949
1.107000000000000872,-0.158096278187233902
1.108000000000000762,-0.157609764666102492
1.109000000000000874,-0.157120936306975378
1.110000000000000764,-0.156629832037931849
1.111000000000000876,-0.156136490604789985
1.112000000000000766,-0.155640950569612524
1.113000000000000878,-0.155143250309248193
1.114000000000000767,-0.154643428013925111
1.115000000000000879,-0.154141521685878941
1.116000000000000769,-0.153637569138043661
1.117000000000000881,-0.153131607992769314
1.118000000000000771,-0.152623675680592291
1.119000000000000883,-0.152113809439047981
1.120000000000000773,-0.151602046311523686
1.121000000000000885,-0.151088423146147427
1.122000000000000774,-0.150572976594727875
1.123000000000000886,-0.150055743111728812
1.124000000000000776,-0.149536758953289467
1.125000000000000888,-0.149016060176262732
1.126000000000000778,-0.148493682637320823
1.127000000000000890,-0.147969661992090051
1.128000000000000780,-0.147444033694295817
1.129000000000000892,-0.146916832994988256
1.130000000000000782,-0.146388094941770935
1.131000000000000894,-0.145857854378077023
1.132000000000000783,-0.145326145942480139
1.133000000000000895,-0.144793004068044268
1.134000000000000785,-0.144258462981681351
1.135000000000000897,-0.143722556703593185
1.136000000000000787,-0.143185319046685411
1.137000000000000899,-0.142646783616064088
1.138000000000000789,-0.142106983808526932
1.139000000000000901,-0.141565952812120505
1.140000000000000790,-0.141023723605695428
1.141000000000000902,-0.140480328958499018
1.142000000000000792,-0.139935801429826506
1.143000000000000904,-0.139390173368656833
1.144000000000000794,-0.138843476913356995
1.145000000000000906,-0.138295743991372427
1.146000000000000796,-0.137747006318998638
1.147000000000000908,-0.137197295401126851
1.148000000000000798,-0.136646642531050355
1.149000000000000909,-0.136095078790287149
1.150000000000000799,-0.135542635048416071
1.151000000000000689,-0.134989341962966497
1.152000000000000801,-0.134435229979305404
1.153000000000000913,-0.133880329330562570
1.154000000000000803,-0.133324670037578252
1.155000000000000693,-0.132768281908864971
1.156000000000000805,-0.132211194540616972
1.157000000000000917,-0.131653437316706923
1.158000000000000806,-0.131095039408739900
1.159000000000000696,-0.130536029776102513
1.160000000000000808,-0.129976437166048120
1.161000000000000920,-0.129416290113800070
1.162000000000000810,-0.128855616942677720
1.163000000000000700,-0.128294445764231935
1.164000000000000812,-0.127732804478418255
1.165000000000000924,-0.127170720773769508
1.166000000000000814,-0.126608222127610692
1.167000000000000703,-0.126045335806268199
1.168000000000000815,-0.125482088865319585
1.169000000000000927,-0.124918508149841442
1.170000000000000817,-0.124354620294697543
1.171000000000000707,-0.123790451724814218
1.172000000000000819,-0.123226028655510841
1.173000000000000931,-0.122661377092812288
1.174000000000000821,-0.122096522833795240
1.175000000000000711,-0.121531491466948791
1.176000000000000822,-0.120966308372554371
1.177000000000000934,-0.120400998723063785
1.178000000000000824,-0.119835587483519440
1.179000000000000714,-0.119270099411960234
1.180000000000000826,-0.118704559059871831
1.181000000000000938,-0.118138990772620772
1.182000000000000828,-0.117573418689926476
1.183000000000000718,-0.117007866746338923
1.184000000000000830,-0.116442358671722881
1.185000000000000941,-0.115876917991758518
1.186000000000000831,-0.115311568028468564
1.187000000000000721,-0.114746331900733425
1.188000000000000833,-0.114181232524841580
1.189000000000000945,-0.113616292615034475
1.190000000000000835,-0.113051534684076402
1.191000000000000725,-0.112486981043815271
1.192000000000000837,-0.111922653805797426
1.193000000000000949,-0.111358574881827058
1.194000000000000838,-0.110794765984609356
1.195000000000000728,-0.110231248628339246
1.196000000000000840,-0.109668044129350647
1.197000000000000952,-0.109105173606745029
1.198000000000000842,-0.108542657983034668
1.199000000000000732,-0.107980517984813812
1.200000000000000844,-0.107418774143401979
1.201000000000000956,-0.106857446795542807
1.202000000000000846,-0.106296556084070432
1.203000000000000735,-0.105736121958613108
1.204000000000000847,-0.105176164176276579
1.205000000000000959,-0.104616702302378600
1.206000000000000849,-0.104057755711137762
1.207000000000000739,-0.103499343586410303
1.208000000000000851,-0.102941484922422083
1.209000000000000963,-0.102384198524502978
1.210000000000000853,-0.101827503009833051
1.211000000000000743,-0.101271416808189810
1.212000000000000854,-0.100715958162715460
1.213000000000000966,-0.100161145130671730
1.214000000000000856,-0.099606995584223437
1.215000000000000746,-0.099053527211195244
1.216000000000000858,-0.098500757515879667
1.217000000000000970,-0.097948703819803765
1.218000000000000860,-0.097397383262531598
1.219000000000000750,-0.096846812802467500
1.220000000000000862,-0.096297009217652704
1.221000000000000973,-0.095747989106575032
1.222000000000000863,-0.095199768888992481
1.223000000000000753,-0.094652364806733308
1.224000000000000865,-0.094105792924538745
1.225000000000000977,-0.093560069130878928
1.226000000000000867,-0.093015209138783361
1.227000000000000757,-0.092471228486681323
1.228000000000000869,-0.091928142539232122
1.229000000000000981,-0.091385966488188669
1.230000000000000870,-0.090844715353212036
1.231000000000000760,-0.090304403982745973
1.232000000000000872,-0.089765047054863850
1.233000000000000984,-0.089226659078113807
1.234000000000000874,-0.088689254392393724
1.235000000000000764,-0.088152847169797557
1.236000000000000876,-0.087617451415490599
1.237000000000000988,-0.087083080968567220
1.238000000000000878,-0.086549749502932039
1.239000000000000767,-0.086017470528155462
1.240000000000000879,-0.085486257390360532
1.241000000000000991,-0.084956123273091183
1.242000000000000881,-0.084427081198189910
1.243000000000000771,-0.083899144026682124
1.244000000000000883,-0.083372324459646235
1.245000000000000995,-0.082846635039111965
1.246000000000000885,-0.082322088148928302
1.247000000000000774,-0.081798696015657341
1.248000000000000886,-0.081276470709455761
1.249000000000000998,-0.080755424144967711
1.250000000000000888,-0.080235568082210329
1.251000000000000778,-0.079716914127459917
1.252000000000000890,-0.079199473734145889
1.253000000000001002,-0.078683258203734938
1.254000000000000892,-0.078168278686636450
1.255000000000000782,-0.077654546183078876
1.256000000000000894,-0.077142071544004959
1.257000000000001005,-0.076630865471972481
1.258000000000000895,-0.076120938522039522
1.259000000000000785,-0.075612301102656626
1.260000000000000897,-0.075104963476560663
1.261000000000001009,-0.074598935761672619
1.262000000000000899,-0.074094227931979242
1.263000000000000789,-0.073590849818434015
1.264000000000000901,-0.073088811109847857
1.265000000000001013,-0.072588121353774515
1.266000000000000902,-0.072088789957408417
1.267000000000000792,-0.071590826188471596
1.268000000000000904,-0.071094239176103524
1.269000000000001016,-0.070599037911747473
1.270000000000000906,-0.070105231250049374
1.271000000000000796,-0.069612827909729516
1.272000000000000908,-0.069121836474478254
1.273000000000001020,-0.068632265393840791
1.274000000000000909,-0.068144122984101135
1.275000000000000799,-0.067657417429158442
1.276000000000000911,-0.067172156781422993
1.277000000000001023,-0.066688348962680513
1.278000000000000913,-0.066206001764983299
1.279000000000000803,-0.065725122851520823
1.280000000000000915,-0.065245719757507398
1.281000000000001027,-0.064767799891033984
1.282000000000000917,-0.064291370533969008
1.283000000000000806,-0.063816438842810602
1.284000000000000918,-0.063343011849566325
1.285000000000001030,-0.062871096462613046
1.286000000000000920,-0.062400699467574074
1.287000000000000810,-0.061931827528170710
1.288000000000000922,-0.061464487187099938
1.289000000000001034,-0.060998684866881127
1.290000000000000924,-0.060534426870717958
1.291000000000000814,-0.060071719383365044
1.292000000000000925,-0.059610568471965476
1.293000000000001037,-0.059150980086920414
1.294000000000000927,-0.058692960062726042
1.295000000000000817,-0.058236514118827042
1.296000000000000929,-0.057781647860461770
1.297000000000001041,-0.057328366779502871
1.298000000000000931,-0.056876676255303550
1.299000000000000821,-0.056426581555532228
1.300000000000000933,-0.055978087837006710
1.301000000000001044,-0.055531200146531776
1.302000000000000934,-0.055085923421725136
1.303000000000000824,-0.054642262491857385
1.304000000000000936,-0.054200222078658246
1.305000000000001048,-0.053759806797158416
1.306000000000000938,-0.053321021156505957
1.307000000000000828,-0.052883869560771249
1.308000000000000940,-0.052448356309775825
1.309000000000001052,-0.052014485599906304
1.310000000000000941,-0.051582261524913450
1.311000000000000831,-0.051151688076724058
1.312000000000000943,-0.050722769146240299
1.313000000000001055,-0.050295508524158553
1.314000000000000945,-0.049869909901742046
1.315000000000000835,-0.049445976871632810
1.316000000000000947,-0.049023712928636762
1.317000000000001059,-0.048603121470522218
1.318000000000000949,-0.048184205798790389
1.319000000000000838,-0.047766969119477115
1.320000000000000950,-0.047351414543919577
1.321000000000001062,-0.046937545089535196
1.322000000000000952,-0.046525363680603414
1.323000000000000842,-0.046114873149026320
1.324000000000000954,-0.045706076235109583
1.325000000000001066,-0.045298975588308338
1.326000000000000956,-0.044893573768010016
1.327000000000000846,-0.044489873244273205
1.328000000000000957,-0.044087876398600616
1.329000000000001069,-0.043687585524673209
1.330000000000000959,-0.043289002829115852
1.331000000000000849,-0.042892130432231244
1.332000000000000961,-0.042496970368743218
1.333000000000001073,-0.042103524588539165
1.334000000000000963,-0.041711794957408156
1.335000000000000853,-0.041321783257761598
1.336000000000000965,-0.040933491189376330
1.337000000000001076,-0.040546920370112191
1.338000000000000966,-0.040162072336633069
1.339000000000000856,-0.039778948545132517
1.340000000000000968,-0.039397550372042921
1.341000000000001080,-0.039017879114748043
1.342000000000000970,-0.038639935992297578
1.343000000000000860,-0.038263722146105267
1.344000000000000972,-0.037889238640653633
1.345000000000001084,-0.037516486464199153
1.346000000000000973,-0.037145466529454926
1.347000000000000863,-0.036776179674290442
1.348000000000000975,-0.036408626662416614
1.349000000000001087,-0.036042808184074362
1.350000000000000977,-0.035678724856712432
1.351000000000000867,-0.035316377225669646
1.352000000000000979,-0.034955765764835986
1.353000000000001091,-0.034596890877344480
1.354000000000000981,-0.034239752896226147
1.355000000000000870,-0.033884352085069715
1.356000000000000982,-0.033530688638692435
1.357000000000001094,-0.033178762683794695
1.358000000000000984,-0.032828574279608738
1.359000000000000874,-0.032480123418551277
1.360000000000000986,-0.032133410026872311
1.361000000000001098,-0.031788433965299692
1.362000000000000988,-0.031445195029669172
1.363000000000000878,-0.031103692951569895
1.364000000000000989,-0.030763927398979086
1.365000000000001101,-0.030425897976879650
1.366000000000000991,-0.030089604227894744
1.367000000000000881,-0.029755045632909167
1.368000000000000993,-0.029422221611685874
1.369000000000001105,-0.029091131523483305
1.370000000000000995,-0.028761774667664421
1.371000000000000885,-0.028434150284305716
1.372000000000000997,-0.028108257554804533
1.373000000000001108,-0.027784095602482871
1.374000000000000998,-0.027461663493166626
1.375000000000000888,-0.027140960235811147
1.376000000000001000,-0.026821984783064478
1.377000000000001112,-0.026504736031869935
1.378000000000001002,-0.026189212824043778
1.379000000000000892,-0.025875413946857391
1.380000000000001004,-0.025563338133613472
1.381000000000001116,-0.025252984064224836
1.382000000000001005,-0.024944350365775345
1.383000000000000895,-0.024637435613092624
1.384000000000001007,-0.024332238329310474
1.385000000000001119,-0.024028756986428416
1.386000000000001009,-0.023726990005868615
1.387000000000000899,-0.023426935759023014
1.388000000000001011,-0.023128592567820138
1.389000000000001123,-0.022831958705244852
1.390000000000001013,-0.022537032395903735
1.391000000000000902,-0.022243811816552793
1.392000000000001014,-0.021952295096637493
1.393000000000001126,-0.021662480318823035
1.394000000000001016,-0.021374365519528791
1.395000000000000906,-0.021087948689448154
1.396000000000001018,-0.020803227774068060
1.397000000000001130,-0.020520200674200552
1.398000000000001020,-0.020238865246487540
1.399000000000000909,-0.019959219303918800
1.400000000000001021,-0.019681260616333025
1.401000000000001133,-0.019404986910939104
1.402000000000001023,-0.019130395872801194
1.403000000000000913,-0.018857485145347446
1.404000000000001025,-0.018586252330867196
1.405000000000001137,-0.018316694990996512
1.406000000000001027,-0.018048810647212577
1.407000000000000917,-0.017782596781323563
1.408000000000001029,-0.017518050835936737
1.409000000000001140,-0.017255170214958274
1.410000000000001030,-0.016993952284050894
1.411000000000000920,-0.016734394371118726
1.412000000000001032,-0.016476493766772887
1.413000000000001144,-0.016220247724799512
1.414000000000001034,-0.015965653462620893
1.415000000000000924,-0.015712708161756163
1.416000000000001036,-0.015461408968282686
1.417000000000001148,-0.015211752993286389
1.418000000000001037,-0.014963737313310216
1.419000000000000927,-0.014717358970805575
1.420000000000001039,-0.014472614974574754
1.421000000000001151,-0.014229502300215238
1.422000000000001041,-0.013988017890555381
1.423000000000000931,-0.013748158656087884
1.424000000000001043,-0.013509921475405215
1.425000000000001155,-0.013273303195627245
1.426000000000001044,-0.013038300632826766
1.427000000000000934,-0.012804910572455686
1.428000000000001046,-0.012573129769757796
1.429000000000001158,-0.012342954950190074
1.430000000000001048,-0.012114382809839262
1.431000000000000938,-0.011887410015825287
1.432000000000001050,-0.011662033206716507
1.433000000000001162,-0.011438248992929615
1.434000000000001052,-0.011216053957130642
1.435000000000000941,-0.010995444654640956
1.436000000000001053,-0.010776417613824345
1.437000000000001165,-0.010558969336480418
1.438000000000001055,-0.010343096298246502
1.439000000000000945,-0.010128794948969722
1.440000000000001057,-0.009916061713101656
1.441000000000001169,-0.009704892990068607
1.442000000000001059,-0.009495285154663035
1.443000000000000949,-0.009287234557413458
1.444000000000001060,-0.009080737524953794
1.445000000000001172,-0.008875790360394653
1.446000000000001062,-0.008672389343697903
1.447000000000000952,-0.008470530732028077
1.448000000000001064,-0.008270210760123756
1.449000000000001176,-0.008071425640657789
1.450000000000001066,-0.007874171564578921
1.451000000000000956,-0.007678444701480202
1.452000000000001068,-0.007484241199942935
1.453000000000001180,-0.007291557187882977
1.454000000000001069,-0.007100388772900213
1.455000000000000959,-0.006910732042615664
1.456000000000001071,-0.006722583065011697
1.457000000000001183,-0.006535937888775813
1.458000000000001073,-0.006350792543627711
1.459000000000000963,-0.006167143040646970
1.460000000000001075,-0.005984985372613290
1.461000000000001187,-0.005804315514320557
1.462000000000001076,-0.005625129422916066
1.463000000000000966,-0.005447423038203293
1.464000000000001078,-0.005271192282969219
1.465000000000001190,-0.005096433063306599
1.466000000000001080,-0.004923141268911835
1.467000000000000970,-0.004751312773407764
1.468000000000001082,-0.004580943434649759
1.469000000000001194,-0.004412029095025373
1.470000000000001084,-0.004244565581764588
1.471000000000000973,-0.004078548707233017
1.472000000000001085,-0.003913974269239445
1.473000000000001197,-0.003750838051323890
1.474000000000001087,-0.003589135823053084
1.475000000000000977,-0.003428863340307259
1.476000000000001089,-0.003270016345577198
1.477000000000001201,-0.003112590568244340
1.478000000000001091,-0.002956581724859725
1.479000000000000981,-0.002801985519436431
1.480000000000001092,-0.002648797643714035
1.481000000000001204,-0.002497013777448850
1.482000000000001094,-0.002346629588676776
1.483000000000000984,-0.002197640733993611
1.484000000000001096,-0.002050042858818180
1.485000000000001208,-0.001903831597655078
1.486000000000001098,-0.001759002574373953
1.487000000000000988,-0.001615551402458086
1.488000000000001100,-0.001473473685265649
1.489000000000001211,-0.001332765016297020
1.490000000000001101,-0.001193420979440927
1.491000000000000991,-0.001055437149227210
1.492000000000001103,-0.000918809091087717
1.493000000000001215,-0.000783532361593326
1.494000000000001105,-0.000649602508706090
1.495000000000000995,-0.000517015072023451
1.496000000000001107,-0.000385765583020060
1.497000000000001219,-0.000255849565285952
1.498000000000001108,-0.000127262534768436
1.499000000000000998,0.000000000000000000
