# Fe111_ALA-AC
# h[nm],U(h)[kJ/mol]
0.149999999999999994,58.588473279269365435
0.150999999999999995,54.916801742868628367
0.151999999999999996,51.466169516567745745
0.152999999999999997,48.074987705323181331
0.153999999999999998,44.737152933233303997
0.154999999999999999,41.489112517459410867
0.156000000000000000,38.362612580059717970
0.157000000000000001,35.370774484011334948
0.158000000000000002,32.509195435305997535
0.159000000000000002,29.762281668806433998
0.160000000000000003,27.110021781149999498
0.161000000000000004,24.533220100782966000
0.162000000000000005,22.016694014877437269
0.163000000000000006,19.550642110021762221
0.164000000000000007,17.130654055774147793
0.165000000000000008,14.756867252249142197
0.166000000000000009,12.432702783711587102
0.167000000000000010,10.163503783426387272
0.168000000000000010,7.955289468823073307
0.169000000000000011,5.813744708341134881
0.170000000000000012,3.743493681448660571
0.171000000000000013,1.747656691102918769
0.172000000000000014,-0.172341601283563156
0.173000000000000015,-2.016760367670298759
0.174000000000000016,-3.787380545233547391
0.175000000000000017,-5.487244139343504301
0.176000000000000018,-7.120340528488401155
0.177000000000000018,-8.691277219016511069
0.178000000000000019,-10.204963647779219826
0.179000000000000020,-11.666328116587710184
0.180000000000000021,-13.080080365255241759
0.181000000000000022,-14.450525953791043321
0.182000000000000023,-15.781433623599335547
0.183000000000000024,-17.075953098580470169
0.184000000000000025,-18.336578242412130635
0.185000000000000026,-19.565148937154940967
0.186000000000000026,-20.762884304684838810
0.187000000000000027,-21.930439774006895703
0.188000000000000028,-23.067980837257046289
0.189000000000000029,-24.175266989736353906
0.190000000000000030,-25.251740193351043473
0.191000000000000031,-26.296613141160360527
0.192000000000000032,-27.308953558685676200
0.193000000000000033,-28.287761700531518727
0.194000000000000034,-29.232039051111904371
0.195000000000000034,-30.140846992348230060
0.196000000000000035,-31.013354846791845176
0.197000000000000036,-31.848877238027235137
0.198000000000000037,-32.646901134066666827
0.199000000000000038,-33.407103260812647250
0.200000000000000039,-34.129358801452170269
0.201000000000000040,-34.813742445368859535
0.202000000000000041,-35.460522928968778444
0.203000000000000042,-36.070152232786298896
0.204000000000000042,-36.643250575864627194
0.205000000000000043,-37.180588290253780315
0.206000000000000044,-37.683065574987203661
0.207000000000000045,-38.151691028299850927
0.208000000000000046,-38.587559746113626602
0.209000000000000047,-38.991831659707941071
0.210000000000000048,-39.365710670651083092
0.211000000000000049,-39.710425030100537924
0.212000000000000050,-40.027209305184001664
0.213000000000000050,-40.317288179243398361
0.214000000000000051,-40.581862246493201951
0.215000000000000052,-40.822095885771560120
0.216000000000000053,-41.039107232761537603
0.217000000000000054,-41.233960215178790065
0.218000000000000055,-41.407658570537655862
0.219000000000000056,-41.561141730594002297
0.220000000000000057,-41.695282429658597323
0.221000000000000058,-41.810885874825245878
0.222000000000000058,-41.908690303877150996
0.223000000000000059,-41.989368750316010903
0.224000000000000060,-42.053531833722004762
0.225000000000000061,-42.101731396654862749
0.226000000000000062,-42.134464815753482014
0.227000000000000063,-42.152179823859611929
0.228000000000000064,-42.155279691218574101
0.229000000000000065,-42.144128626512774360
0.230000000000000066,-42.119057272144658555
0.231000000000000066,-42.080368182364260576
0.232000000000000067,-42.028341187153252179
0.233000000000000068,-41.963238558920906485
0.234000000000000069,-41.885309912782993536
0.235000000000000070,-41.794796784278872792
0.236000000000000071,-41.691936840683261778
0.237000000000000072,-41.576967693473079635
0.238000000000000073,-41.450130289942279660
0.239000000000000073,-41.311671871374528564
0.240000000000000074,-41.161848493567774199
0.241000000000000075,-41.000927112861802470
0.242000000000000076,-40.829187247172640696
0.243000000000000077,-40.646922226924544930
0.244000000000000078,-40.454440055240993956
0.245000000000000079,-40.252063900366010785
0.246000000000000080,-40.040132246102636771
0.247000000000000081,-39.818998728141295373
0.248000000000000081,-39.589031685575832853
0.249000000000000082,-39.350613457740401202
0.250000000000000111,-39.104139456812006870
0.251000000000000112,-38.850017046478363625
0.252000000000000113,-38.588664256433261812
0.253000000000000114,-38.320508361589574520
0.254000000000000115,-38.045984353752423601
0.255000000000000115,-37.765533332121435706
0.256000000000000116,-37.479600837440614214
0.257000000000000117,-37.188635152931546202
0.258000000000000118,-36.893085593366265584
0.259000000000000119,-36.593400801799589317
0.260000000000000120,-36.290027071614616716
0.261000000000000121,-35.983406709666368783
0.262000000000000122,-35.673976454463634411
0.263000000000000123,-35.362165961522428859
0.264000000000000123,-35.048396366278623759
0.265000000000000124,-34.733078933268998867
0.266000000000000125,-34.416613798697866855
0.267000000000000126,-34.099388811999958193
0.268000000000000127,-33.781778480604188530
0.269000000000000128,-33.464143020794764993
0.270000000000000129,-33.146827516362129984
0.271000000000000130,-32.830161185635432730
0.272000000000000131,-32.514456756491824763
0.273000000000000131,-32.200009948042193741
0.274000000000000132,-31.887099056897636018
0.275000000000000133,-31.575984645221968350
0.276000000000000134,-31.266909327167883959
0.277000000000000135,-30.960097649776422202
0.278000000000000136,-30.655756063983158555
0.279000000000000137,-30.354072981016962274
0.280000000000000138,-30.055218909193950338
0.281000000000000139,-29.759346665891182937
0.282000000000000139,-29.466591659331932362
0.283000000000000140,-29.177072234716298738
0.284000000000000141,-28.890890079186466011
0.285000000000000142,-28.608130680117476174
0.286000000000000143,-28.328863831267863560
0.287000000000000144,-28.053144181405549773
0.288000000000000145,-27.781011820137830881
0.289000000000000146,-27.512492895816187399
0.290000000000000147,-27.247600260552651719
0.291000000000000147,-26.986334137571628133
0.292000000000000148,-26.728682806324435717
0.293000000000000149,-26.474623301011849463
0.294000000000000150,-26.224122118387533931
0.295000000000000151,-25.977135930952321985
0.296000000000000152,-25.733612301889952079
0.297000000000000153,-25.493490398340657777
0.298000000000000154,-25.256701699854026799
0.299000000000000155,-25.023170699108096215
0.300000000000000155,-24.792815592224268784
0.301000000000000156,-24.565548956246392009
0.302000000000000157,-24.341278411586099395
0.303000000000000158,-24.119907267464149925
0.304000000000000159,-23.901335148598086278
0.305000000000000160,-23.685458601598881501
0.306000000000000161,-23.472171679743549788
0.307000000000000162,-23.261366504985943493
0.308000000000000163,-23.052933806253349758
0.309000000000000163,-22.846763433252863962
0.310000000000000164,-22.642744845177748658
0.311000000000000165,-22.440767573859844219
0.312000000000000166,-22.240721661060931069
0.313000000000000167,-22.042498069731809807
0.314000000000000168,-21.845989069194693855
0.315000000000000169,-21.651088594321059588
0.316000000000000170,-21.457692578884611123
0.317000000000000171,-21.265699263367366711
0.318000000000000171,-21.075009477585417983
0.319000000000000172,-20.885526898582234878
0.320000000000000173,-20.697158284308947884
0.321000000000000174,-20.509813683675723439
0.322000000000000175,-20.323406623614655331
0.323000000000000176,-20.137854273844173036
0.324000000000000177,-19.953077590067348268
0.325000000000000178,-19.769001436372459324
0.326000000000000179,-19.585554687634157744
0.327000000000000179,-19.402670312737473779
0.328000000000000180,-19.220285439465833122
0.329000000000000181,-19.038341401908116524
0.330000000000000182,-18.856783771248252890
0.331000000000000183,-18.675562370806538581
0.332000000000000184,-18.494631276201825898
0.333000000000000185,-18.313948801501510388
0.334000000000000186,-18.133477472219787785
0.335000000000000187,-17.953183986015609719
0.336000000000000187,-17.773039161929908403
0.337000000000000188,-17.593017878987303959
0.338000000000000189,-17.413099004971101635
0.339000000000000190,-17.233265316161855196
0.340000000000000191,-17.053503408809561392
0.341000000000000192,-16.873803603088624925
0.342000000000000193,-16.694159840260727634
0.343000000000000194,-16.514569573748143938
0.344000000000000195,-16.335033654794241187
0.345000000000000195,-16.155556213363219342
0.346000000000000196,-15.976144534904562988
0.347000000000000197,-15.796808933581667489
0.348000000000000198,-15.617562622537409567
0.349000000000000199,-15.438421581742403532
0.350000000000000200,-15.259404423945332141
0.351000000000000201,-15.080532259217680036
0.352000000000000202,-14.901828558558886328
0.353000000000000203,-14.723319017001790243
0.354000000000000203,-14.545031416632099308
0.355000000000000204,-14.366995489910451056
0.356000000000000205,-14.189242783660617420
0.357000000000000206,-14.011806524062823343
0.358000000000000207,-13.834721482967498929
0.359000000000000208,-13.658023845821588793
0.360000000000000209,-13.481751081476801346
0.361000000000000210,-13.305941814127640654
0.362000000000000210,-13.130635697605617551
0.363000000000000211,-12.955873292235921213
0.364000000000000212,-12.781695944443011825
0.365000000000000213,-12.608145669272762035
0.366000000000000214,-12.435265035980751946
0.367000000000000215,-12.263097056818832442
0.368000000000000216,-12.091685079135599423
0.369000000000000217,-11.921072680890711482
0.370000000000000218,-11.751303569667683746
0.371000000000000218,-11.582421485255835591
0.372000000000000219,-11.414470105858296023
0.373000000000000220,-11.247492957970305127
0.374000000000000221,-11.081533329959940559
0.375000000000000222,-10.916634189372057762
0.376000000000000223,-10.752838103965476790
0.377000000000000224,-10.590187166483508108
0.378000000000000225,-10.428722923148637136
0.379000000000000226,-10.268486305863280705
0.380000000000000226,-10.109517568090645057
0.381000000000000227,-9.951856224381996796
0.382000000000000228,-9.795540993509991523
0.383000000000000229,-9.640609745161119903
0.384000000000000230,-9.487099450134522272
0.385000000000000231,-9.335046133989274963
0.386000000000000232,-9.184484834077192517
0.387000000000000233,-9.035449559893951488
0.388000000000000234,-8.887973256677415890
0.389000000000000234,-8.742087772178596339
0.390000000000000235,-8.597823826527401181
0.391000000000000236,-8.455210985113062350
0.392000000000000237,-8.314277634396237460
0.393000000000000238,-8.175050960568395197
0.394000000000000239,-8.037556930972016289
0.395000000000000240,-7.901820278194014335
0.396000000000000241,-7.767864486743779828
0.397000000000000242,-7.635711782226292321
0.398000000000000242,-7.505383122920538774
0.399000000000000243,-7.376898193672962734
0.400000000000000244,-7.250275402015631698
0.401000000000000245,-7.125531876419373134
0.402000000000000246,-7.002683466592008799
0.403000000000000247,-6.881744745732545354
0.404000000000000248,-6.762729014653201531
0.405000000000000249,-6.645648307681540246
0.406000000000000250,-6.530513400256397816
0.407000000000000250,-6.417333818132237688
0.408000000000000251,-6.306117848107875012
0.409000000000000252,-6.196872550197045193
0.410000000000000253,-6.089603771159425527
0.411000000000000254,-5.984316159312740524
0.412000000000000255,-5.881013180547791208
0.413000000000000256,-5.779697135470305724
0.414000000000000257,-5.680369177594964292
0.415000000000000258,-5.583029332519101828
0.416000000000000258,-5.487676518005176973
0.417000000000000259,-5.394308564903153247
0.418000000000000260,-5.302922238845882319
0.419000000000000261,-5.213513262652374358
0.420000000000000262,-5.126076339376069768
0.421000000000000263,-5.040605175936995863
0.422000000000000264,-4.957092507278793470
0.423000000000000265,-4.875530120993527561
0.424000000000000266,-4.795908882359358749
0.425000000000000266,-4.718218759737883516
0.426000000000000267,-4.642448850280123551
0.427000000000000268,-4.568587405892071907
0.428000000000000269,-4.496621859412607947
0.429000000000000270,-4.426538850958494642
0.430000000000000271,-4.358324254393245667
0.431000000000000272,-4.291963203878249367
0.432000000000000273,-4.227440120466663842
0.433000000000000274,-4.164738738702233434
0.434000000000000274,-4.103842133187031394
0.435000000000000275,-4.044732745083894798
0.436000000000000276,-3.987392408521041265
0.437000000000000277,-3.931802376867936655
0.438000000000000278,-3.877943348853333028
0.439000000000000279,-3.825795494497804761
0.440000000000000280,-3.775338480834769861
0.441000000000000281,-3.726551497395486301
0.442000000000000282,-3.679413281435079508
0.443000000000000282,-3.633902142877925456
0.444000000000000283,-3.589995988962315643
0.445000000000000284,-3.547672348565609646
0.446000000000000285,-3.506908396192277788
0.447000000000000286,-3.467680975608842253
0.448000000000000287,-3.429966623110556778
0.449000000000000288,-3.393741590406220698
0.450000000000000289,-3.358981867108442376
0.451000000000000290,-3.325663202817913167
0.452000000000000290,-3.293761128791238946
0.453000000000000291,-3.263250979183014433
0.454000000000000292,-3.234107911853746575
0.455000000000000293,-3.206306928736164963
0.456000000000000294,-3.179822895753537715
0.457000000000000295,-3.154630562284223227
0.458000000000000296,-3.130704580167872564
0.459000000000000297,-3.108019522249152899
0.460000000000000298,-3.086549900455967776
0.461000000000000298,-3.066270183409558925
0.462000000000000299,-3.047154813564949105
0.463000000000000300,-3.029178223880474086
0.464000000000000301,-3.012314854016099552
0.465000000000000302,-2.996539166060638415
0.466000000000000303,-2.981825659788689631
0.467000000000000304,-2.968148887448462947
0.468000000000000305,-2.955483468082515941
0.469000000000000306,-2.943804101383527438
0.470000000000000306,-2.933085581087961469
0.471000000000000307,-2.923302807910805434
0.472000000000000308,-2.914430802025033351
0.473000000000000309,-2.906444715089698150
0.474000000000000310,-2.899319841831081046
0.475000000000000311,-2.893031631181583130
0.476000000000000312,-2.887555696981311648
0.477000000000000313,-2.882867828247670516
0.478000000000000314,-2.878943999018532374
0.479000000000000314,-2.875760377774779109
0.480000000000000315,-2.873293336448232260
0.481000000000000316,-2.871519459021242504
0.482000000000000317,-2.870415549724363302
0.483000000000000318,-2.869958640838706554
0.484000000000000319,-2.870126000109738840
0.485000000000000320,-2.870895137779469586
0.486000000000000321,-2.872243813243999799
0.487000000000000322,-2.874150041343602968
0.488000000000000322,-2.876592098292594102
0.489000000000000323,-2.879548527256239332
0.490000000000000324,-2.882998143582177875
0.491000000000000325,-2.886920039693745110
0.492000000000000326,-2.891293589652701890
0.493000000000000327,-2.896098453398892936
0.494000000000000328,-2.901314580674393628
0.495000000000000329,-2.906922214639688029
0.496000000000000330,-2.912901895189467183
0.497000000000000330,-2.919234461975565242
0.498000000000000331,-2.925901057144657091
0.499000000000000332,-2.932883127798124878
0.500000000000000333,-2.940162428181685161
0.501000000000000334,-2.947721021612224046
0.502000000000000335,-2.955541282149168669
0.503000000000000336,-2.963605896017861951
0.504000000000000337,-2.971897862792176603
0.505000000000000338,-2.980400496343641237
0.506000000000000338,-2.989097425564226640
0.507000000000000339,-2.997972594869945162
0.508000000000000340,-3.007010264492252727
0.509000000000000341,-3.016195010564165280
0.510000000000000342,-3.025511725008054320
0.511000000000000343,-3.034945615231773086
0.512000000000000344,-3.044482203639895967
0.513000000000000345,-3.054107326966567282
0.514000000000000346,-3.063807135436531937
0.515000000000000346,-3.073568091760672694
0.516000000000000347,-3.083376969972351667
0.517000000000000348,-3.093220854110785289
0.518000000000000349,-3.103087136757454623
0.519000000000000350,-3.112963517431543092
0.520000000000000351,-3.122838000850342688
0.521000000000000352,-3.132698895060220146
0.522000000000000353,-3.142534809443903843
0.523000000000000353,-3.152334652609593224
0.524000000000000354,-3.162087630167253138
0.525000000000000355,-3.171783242397460345
0.526000000000000356,-3.181411281817938974
0.527000000000000357,-3.190961830652864872
0.528000000000000358,-3.200425258209969037
0.529000000000000359,-3.209792218170123057
0.530000000000000360,-3.219053645794351493
0.531000000000000361,-3.228200755052701876
0.532000000000000361,-3.237225035679624163
0.533000000000000362,-3.246118250160132224
0.534000000000000363,-3.254872430651154502
0.535000000000000364,-3.263479875842141276
0.536000000000000365,-3.271933147759065186
0.537000000000000366,-3.280225068515738140
0.538000000000000367,-3.288348717016312150
0.539000000000000368,-3.296297425612672694
0.540000000000000369,-3.304064776720427865
0.541000000000000369,-3.311644599396925237
0.542000000000000370,-3.319030965884854023
0.543000000000000371,-3.326218188124622888
0.544000000000000372,-3.333200814238864496
0.545000000000000373,-3.339973624992097712
0.546000000000000374,-3.346531630228651188
0.547000000000000375,-3.352870065291721602
0.548000000000000376,-3.358984387426468654
0.549000000000000377,-3.364870272169834919
0.550000000000000377,-3.370523609729770609
0.551000000000000378,-3.375940501356448742
0.552000000000000379,-3.381117255707899893
0.553000000000000380,-3.386050385212493019
0.554000000000000381,-3.390736602430551194
0.555000000000000382,-3.395172816417323158
0.556000000000000383,-3.399356129089439627
0.557000000000000384,-3.403283831596925602
0.558000000000000385,-3.406953400702733781
0.559000000000000385,-3.410362495171713526
0.560000000000000386,-3.413508952170805966
0.561000000000000387,-3.416390783682259347
0.562000000000000388,-3.419006172931523313
0.563000000000000389,-3.421353470831398624
0.564000000000000390,-3.423431192444026827
0.565000000000000391,-3.425238013462171605
0.566000000000000392,-3.426772766711180029
0.567000000000000393,-3.428034438672971085
0.568000000000000393,-3.429022166033335761
0.569000000000000394,-3.429735232253753541
0.570000000000000395,-3.430173064168887898
0.571000000000000396,-3.430335228610827958
0.572000000000000397,-3.430221429061153238
0.573000000000000398,-3.429831502331794901
0.574000000000000399,-3.429165415275579498
0.575000000000000400,-3.428223261527416188
0.576000000000000401,-3.427005258276853539
0.577000000000000401,-3.425511743072864768
0.578000000000000402,-3.423743170661545321
0.579000000000000403,-3.421700109857417793
0.580000000000000404,-3.419383240448951256
0.581000000000000405,-3.416793350138959795
0.582000000000000406,-3.413931331520315471
0.583000000000000407,-3.410798179087598747
0.584000000000000408,-3.407394986285070981
0.585000000000000409,-3.403722942591421941
0.586000000000000409,-3.399783330641694246
0.587000000000000410,-3.395577523386727137
0.588000000000000411,-3.391106981290425093
0.589000000000000412,-3.386373249565155952
0.590000000000000413,-3.381377955445505901
0.591000000000000414,-3.376122805500639146
0.592000000000000415,-3.370609582985410135
0.593000000000000416,-3.364840145230415747
0.594000000000000417,-3.358816421071120661
0.595000000000000417,-3.352540408316107889
0.596000000000000418,-3.346014171254594771
0.597000000000000419,-3.339239838203219790
0.598000000000000420,-3.332219599092123730
0.599000000000000421,-3.324955703090348713
0.600000000000000422,-3.317450456270516490
0.601000000000000423,-3.309706219312730013
0.602000000000000424,-3.301725405247650347
0.603000000000000425,-3.293510477238671630
0.604000000000000425,-3.285063946403033786
0.605000000000000426,-3.276388369671825451
0.606000000000000427,-3.267486347688663528
0.607000000000000428,-3.258360522746947652
0.608000000000000429,-3.249013576765447997
0.609000000000000430,-3.239448229302115401
0.610000000000000431,-3.229667235605842457
0.611000000000000432,-3.219673384705960650
0.612000000000000433,-3.209469497539291893
0.613000000000000433,-3.199058425114443160
0.614000000000000434,-3.188443046713127060
0.615000000000000435,-3.177626268128199705
0.616000000000000436,-3.166611019938200933
0.617000000000000437,-3.155400255818012312
0.618000000000000438,-3.143996950885415753
0.619000000000000439,-3.132404100083190368
0.620000000000000440,-3.120624716596449133
0.621000000000000441,-3.108661830304872531
0.622000000000000441,-3.096518486269532744
0.623000000000000442,-3.084197743253924706
0.624000000000000443,-3.071702672278890489
0.625000000000000444,-3.059036355211067093
0.626000000000000445,-3.046201883384481945
0.627000000000000446,-3.033202356254961707
0.628000000000000447,-3.020040880086964474
0.629000000000000448,-3.006720566672450357
0.630000000000000449,-2.993244532081422271
0.631000000000000449,-2.979615895443756823
0.632000000000000450,-2.965837777761936245
0.633000000000000451,-2.951913300754271052
0.634000000000000452,-2.937845585728268372
0.635000000000000453,-2.923637752483672081
0.636000000000000454,-2.909292918244880788
0.637000000000000455,-2.894814196622243596
0.638000000000000456,-2.880204696601905923
0.639000000000000457,-2.865467521563772380
0.640000000000000457,-2.850605768327176825
0.641000000000000458,-2.835622526223882112
0.642000000000000459,-2.820520876197996962
0.643000000000000460,-2.805303889932385886
0.644000000000000461,-2.789974629001203965
0.645000000000000462,-2.774536144048131092
0.646000000000000463,-2.758991473989899745
0.647000000000000464,-2.743343645244737505
0.648000000000000465,-2.727595670985301091
0.649000000000000465,-2.711750550415713334
0.650000000000000466,-2.695811268072306532
0.651000000000000467,-2.679780793147675588
0.652000000000000468,-2.663662078837633285
0.653000000000000469,-2.647458061710686206
0.654000000000000470,-2.631171661099661385
0.655000000000000471,-2.614805778515039592
0.656000000000000472,-2.598363297079666623
0.657000000000000473,-2.581847080984424281
0.658000000000000473,-2.565259974964487988
0.659000000000000474,-2.548604803795805118
0.660000000000000475,-2.531884371811389478
0.661000000000000476,-2.515101462437087321
0.662000000000000477,-2.498258837746430761
0.663000000000000478,-2.481359238034214876
0.664000000000000479,-2.464405381408417917
0.665000000000000480,-2.447399963400143541
0.666000000000000481,-2.430345656591188508
0.667000000000000481,-2.413245110258884996
0.668000000000000482,-2.396100950037896471
0.669000000000000483,-2.378915777598598513
0.670000000000000484,-2.361692170341680885
0.671000000000000485,-2.344432681108683081
0.672000000000000486,-2.327139837908063225
0.673000000000000487,-2.309816143656540532
0.674000000000000488,-2.292464075935298773
0.675000000000000488,-2.275086086760791826
0.676000000000000489,-2.257684602369814719
0.677000000000000490,-2.240262023018482207
0.678000000000000491,-2.222820722794868864
0.679000000000000492,-2.205363049444945212
0.680000000000000493,-2.187891324211517663
0.681000000000000494,-2.170407841685892070
0.682000000000000495,-2.152914869671929132
0.683000000000000496,-2.135414649062236769
0.684000000000000496,-2.117909393726150391
0.685000000000000497,-2.100401290409303456
0.686000000000000498,-2.082892498644395296
0.687000000000000499,-2.065385150672983006
0.688000000000000500,-2.047881351377947912
0.689000000000000501,-2.030383178226404794
0.690000000000000502,-2.012892681222781199
0.691000000000000503,-1.995411882871783060
0.692000000000000504,-1.977942778151021930
0.693000000000000504,-1.960487334493034695
0.694000000000000505,-1.943047491776414004
0.695000000000000506,-1.925625162325868445
0.696000000000000507,-1.908222230920902263
0.697000000000000508,-1.890840554812920349
0.698000000000000509,-1.873481963750516233
0.699000000000000510,-1.856148260012664419
0.700000000000000511,-1.838841218449695614
0.701000000000000512,-1.821562586531687344
0.702000000000000512,-1.804314084404194052
0.703000000000000513,-1.787097404950990676
0.704000000000000514,-1.769914213863677421
0.705000000000000515,-1.752766149717917443
0.706000000000000516,-1.735654824056106715
0.707000000000000517,-1.718581821476254490
0.708000000000000518,-1.701548699726926461
0.709000000000000519,-1.684556989807996619
0.710000000000000520,-1.667608196077051019
0.711000000000000520,-1.650703796361262077
0.712000000000000521,-1.633845242074516646
0.713000000000000522,-1.617033958339654687
0.714000000000000523,-1.600271344115621330
0.715000000000000524,-1.583558772329353381
0.716000000000000525,-1.566897590012256591
0.717000000000000526,-1.550289118441063430
0.718000000000000527,-1.533734653282966987
0.719000000000000528,-1.517235464744804974
0.720000000000000528,-1.500792797726197225
0.721000000000000529,-1.484407871976424209
0.722000000000000530,-1.468081882254960835
0.723000000000000531,-1.451815998495452842
0.724000000000000532,-1.435611365973036957
0.725000000000000533,-1.419469105474847836
0.726000000000000534,-1.403390313473563689
0.727000000000000535,-1.387376062303870450
0.728000000000000536,-1.371427400341700631
0.729000000000000536,-1.355545352186127372
0.730000000000000537,-1.339730918843779373
0.731000000000000538,-1.323985077915637465
0.732000000000000539,-1.308308783786138019
0.733000000000000540,-1.292702967814400195
0.734000000000000541,-1.277168538527514441
0.735000000000000542,-1.261706381815749456
0.736000000000000543,-1.246317361129589241
0.737000000000000544,-1.231002317678444147
0.738000000000000544,-1.215762070631013714
0.739000000000000545,-1.200597417317091020
0.740000000000000546,-1.185509133430816986
0.741000000000000547,-1.170497973235194555
0.742000000000000548,-1.155564669767825903
0.743000000000000549,-1.140709935047760748
0.744000000000000550,-1.125934460283332106
0.745000000000000551,-1.111238916080969918
0.746000000000000552,-1.096623952654799616
0.747000000000000552,-1.082090200037048033
0.748000000000000553,-1.067638268289091474
0.749000000000000554,-1.053268747713091980
0.750000000000000555,-1.038982209064183593
0.751000000000000556,-1.024779203763056312
0.752000000000000557,-1.010660264108924178
0.753000000000000558,-0.996625903492786014
0.754000000000000559,-0.982676616610900666
0.755000000000000560,-0.968812879678415784
0.756000000000000560,-0.955035150643082864
0.757000000000000561,-0.941343869398993505
0.758000000000000562,-0.927739458000269579
0.759000000000000563,-0.914222320874660488
0.760000000000000564,-0.900792845036965439
0.761000000000000565,-0.887451400302244564
0.762000000000000566,-0.874198339498739707
0.763000000000000567,-0.861033998680497570
0.764000000000000568,-0.847958697339559975
0.765000000000000568,-0.834972738617762666
0.766000000000000569,-0.822076409518030182
0.767000000000000570,-0.809269981115140480
0.768000000000000571,-0.796553708765909141
0.769000000000000572,-0.783927832318759066
0.770000000000000573,-0.771392576322616264
0.771000000000000574,-0.758948150235090657
0.772000000000000575,-0.746594748629926697
0.773000000000000576,-0.734332551403631073
0.774000000000000576,-0.722161723981308734
0.775000000000000577,-0.710082417521621267
0.776000000000000578,-0.698094769120818470
0.777000000000000579,-0.686198902015894840
0.778000000000000580,-0.674394925786719224
0.779000000000000581,-0.662682936557203228
0.780000000000000582,-0.651063017195421923
0.781000000000000583,-0.639535237512695698
0.782000000000000584,-0.628099654461554469
0.783000000000000584,-0.616756312332621959
0.784000000000000585,-0.605505242950339140
0.785000000000000586,-0.594346465867521712
0.786000000000000587,-0.583279988558744078
0.787000000000000588,-0.572305806612500634
0.788000000000000589,-0.561423903922124823
0.789000000000000590,-0.550634252875477515
0.790000000000000591,-0.539936814543329979
0.791000000000000592,-0.529331538866489870
0.792000000000000592,-0.518818364841570512
0.793000000000000593,-0.508397220705475439
0.794000000000000594,-0.498068024118503760
0.795000000000000595,-0.487830682346108102
0.796000000000000596,-0.477685092439274039
0.797000000000000597,-0.467631141413519136
0.798000000000000598,-0.457668706426464400
0.799000000000000599,-0.447797654954014579
0.800000000000000600,-0.438017844965099212
0.801000000000000600,-0.428329125094973784
0.802000000000000601,-0.418731334817080636
0.803000000000000602,-0.409224304613444723
0.804000000000000603,-0.399807856143604756
0.805000000000000604,-0.390481802412065981
0.806000000000000605,-0.381245947934278184
0.807000000000000606,-0.372100088901122672
0.808000000000000607,-0.363044013341882299
0.809000000000000608,-0.354077501285750995
0.810000000000000608,-0.345200324921799750
0.811000000000000609,-0.336412248757452015
0.812000000000000610,-0.327713029775428821
0.813000000000000611,-0.319102417589193221
0.814000000000000612,-0.310580154596855063
0.815000000000000613,-0.302145976133574745
0.816000000000000614,-0.293799610622405172
0.817000000000000615,-0.285540779723648719
0.818000000000000616,-0.277369198482658508
0.819000000000000616,-0.269284575476113675
0.820000000000000617,-0.261286612956775410
0.821000000000000618,-0.253375006996701346
0.822000000000000619,-0.245549447628952311
0.823000000000000620,-0.237809618987750104
0.824000000000000621,-0.230155199447126257
0.825000000000000622,-0.222585861758035547
0.826000000000000623,-0.215101273183957303
0.827000000000000624,-0.207701095634977684
0.828000000000000624,-0.200384985800357684
0.829000000000000625,-0.193152595279576289
0.830000000000000626,-0.186003570711885280
0.831000000000000627,-0.178937553904346652
0.832000000000000628,-0.171954181958378277
0.833000000000000629,-0.165053087394790160
0.834000000000000630,-0.158233898277349377
0.835000000000000631,-0.151496238334845545
0.836000000000000631,-0.144839727081682718
0.837000000000000632,-0.138263979936996823
0.838000000000000633,-0.131768608342290816
0.839000000000000634,-0.125353219877640892
0.840000000000000635,-0.119017418376408959
0.841000000000000636,-0.112760804038523996
0.842000000000000637,-0.106582973542330220
0.843000000000000638,-0.100483520154973860
0.844000000000000639,-0.094462033841390569
0.845000000000000639,-0.088518101371847971
0.846000000000000640,-0.082651306428089447
0.847000000000000641,-0.076861229708062501
0.848000000000000642,-0.071147449029267257
0.849000000000000643,-0.065509539430682426
0.850000000000000644,-0.059947073273354315
0.851000000000000645,-0.054459620339563995
0.852000000000000646,-0.049046747930673214
0.853000000000000647,-0.043708020963586953
0.854000000000000647,-0.038443002065882741
0.855000000000000648,-0.033251251669588630
0.856000000000000649,-0.028132328103651121
0.857000000000000650,-0.023085787685064744
0.858000000000000651,-0.018111184808697400
0.859000000000000652,-0.013208072035824076
0.860000000000000653,-0.008376000181347520
0.861000000000000654,-0.003614518399755223
0.862000000000000655,0.001076825730198788
0.863000000000000655,0.005698486122093066
0.864000000000000656,0.010250918099668710
0.865000000000000657,0.014734578315908242
0.866000000000000658,0.019149924673370500
0.867000000000000659,0.023497416245711954
0.868000000000000660,0.027777513200456218
0.869000000000000661,0.031990676722943388
0.870000000000000662,0.036137368941489743
0.871000000000000663,0.040218052853721799
0.872000000000000663,0.044233192254080955
0.873000000000000664,0.048183251662507275
0.874000000000000665,0.052068696254255295
0.875000000000000666,0.055889991790875317
0.876000000000000667,0.059647604552302488
0.877000000000000668,0.063342001270086143
0.878000000000000669,0.066973649061730423
0.879000000000000670,0.070543015366126838
0.880000000000000671,0.074050567880081977
0.881000000000000671,0.077496774495930482
0.882000000000000672,0.080882103240215525
0.883000000000000673,0.084207022213428379
0.884000000000000674,0.087471999530798900
0.885000000000000675,0.090677503264125797
0.886000000000000676,0.093824001384637271
0.887000000000000677,0.096911961706861866
0.888000000000000678,0.099941851833531326
0.889000000000000679,0.102914139101447449
0.890000000000000679,0.105829290528369008
0.891000000000000680,0.108687772760850149
0.892000000000000681,0.111490052023068414
0.893000000000000682,0.114236594066596586
0.894000000000000683,0.116927864121124075
0.895000000000000684,0.119564326846118035
0.896000000000000685,0.122146446283406943
0.897000000000000686,0.124674685810690217
0.898000000000000687,0.127149508095929564
0.899000000000000687,0.129571375052678794
0.900000000000000688,0.131940747796260943
0.901000000000000689,0.134258086600839904
0.902000000000000690,0.136523850857358575
0.903000000000000691,0.138738499032323187
0.904000000000000692,0.140902488627454636
0.905000000000000693,0.143016276140153331
0.906000000000000694,0.145080317024811611
0.907000000000000695,0.147095065654930773
0.908000000000000695,0.149060975286046643
0.909000000000000696,0.150978498019464835
0.910000000000000697,0.152848084766772502
0.911000000000000698,0.154670185215135481
0.912000000000000699,0.156445247793365882
0.913000000000000700,0.158173719638739468
0.914000000000000701,0.159856046564587351
0.915000000000000702,0.161492673028605260
0.916000000000000703,0.163084042101906912
0.917000000000000703,0.164630595438796989
0.918000000000000704,0.166132773247270521
0.919000000000000705,0.167591014260196930
0.920000000000000706,0.169005755707215710
0.921000000000000707,0.170377433287312252
0.922000000000000708,0.171706481142082618
0.923000000000000709,0.172993331829648794
0.924000000000000710,0.174238416299255461
0.925000000000000711,0.175442163866500994
0.926000000000000711,0.176605002189231808
0.927000000000000712,0.177727357244048478
0.928000000000000713,0.178809653303457800
0.929000000000000714,0.179852312913631379
0.930000000000000715,0.180855756872783990
0.931000000000000716,0.181820404210142700
0.932000000000000717,0.182746672165504109
0.933000000000000718,0.183634976169408548
0.934000000000000719,0.184485729823849087
0.935000000000000719,0.185299344883577244
0.936000000000000720,0.186076231237955803
0.937000000000000721,0.186816796893374548
0.938000000000000722,0.187521447956205206
0.939000000000000723,0.188190588616291482
0.940000000000000724,0.188824621130974535
0.941000000000000725,0.189423945809635258
0.942000000000000726,0.189988960998757062
0.943000000000000727,0.190520063067483314
0.944000000000000727,0.191017646393692092
0.945000000000000728,0.191482103350545413
0.946000000000000729,0.191913824293532265
0.947000000000000730,0.192313197547993198
0.948000000000000731,0.192680609397098634
0.949000000000000732,0.193016444070308435
0.950000000000000733,0.193321083732281768
0.951000000000000734,0.193594908472225991
0.952000000000000735,0.193838296293705054
0.953000000000000735,0.194051623104868148
0.954000000000000736,0.194235262709116230
0.955000000000000737,0.194389586796188812
0.956000000000000738,0.194514964933659051
0.957000000000000739,0.194611764558842437
0.958000000000000740,0.194680350971122074
0.959000000000000741,0.194721087324634667
0.960000000000000742,0.194734334621380289
0.961000000000000743,0.194720451704703396
0.962000000000000743,0.194679795253139110
0.963000000000000744,0.194612719774648196
0.964000000000000745,0.194519577601203253
0.965000000000000746,0.194400718883739609
0.966000000000000747,0.194256491587462193
0.967000000000000748,0.194087241487485962
0.968000000000000749,0.193893312164831133
0.969000000000000750,0.193675045002746821
0.970000000000000751,0.193432779183362158
0.971000000000000751,0.193166851684662161
0.972000000000000752,0.192877597277790025
0.973000000000000753,0.192565348524642660
0.974000000000000754,0.192230435775796404
0.975000000000000755,0.191873187168712156
0.976000000000000756,0.191493928626255305
0.977000000000000757,0.191092983855488868
0.978000000000000758,0.190670674346774704
0.979000000000000759,0.190227319373128617
0.980000000000000759,0.189763235989866857
0.981000000000000760,0.189278739034530991
0.982000000000000761,0.188774141127051293
0.983000000000000762,0.188249752670193504
0.984000000000000763,0.187705881850258383
0.985000000000000764,0.187142834638013511
0.986000000000000765,0.186560914789900500
0.987000000000000766,0.185960423849457712
0.988000000000000766,0.185341661148991338
0.989000000000000767,0.184704923811469884
0.990000000000000768,0.184050506752671927
0.991000000000000769,0.183378702683513667
0.992000000000000770,0.182689802112630695
0.993000000000000771,0.181984093349164155
0.994000000000000772,0.181261862505744942
0.995000000000000773,0.180523393501699853
0.996000000000000774,0.179768968066450402
0.997000000000000774,0.178998865743109303
0.998000000000000775,0.178213363892276211
0.999000000000000776,0.177412737696005601
1.000000000000000666,0.176597260161985681
1.001000000000000778,0.175767202127875277
1.002000000000000668,0.174922832265829831
1.003000000000000780,0.174064417087203854
1.004000000000000670,0.173192220947401138
1.005000000000000782,0.172306506050924374
1.006000000000000671,0.171407532456559902
1.007000000000000783,0.170495558082732812
1.008000000000000673,0.169570838713016259
1.009000000000000785,0.168633628001785218
1.010000000000000675,0.167684177480034169
1.011000000000000787,0.166722736561315366
1.012000000000000677,0.165749552547840351
1.013000000000000789,0.164764870636712440
1.014000000000000679,0.163768933926278754
1.015000000000000790,0.162761983422643197
1.016000000000000680,0.161744258046273959
1.017000000000000792,0.160715994638770954
1.018000000000000682,0.159677427969711350
1.019000000000000794,0.158628790743662623
1.020000000000000684,0.157570313607272638
1.021000000000000796,0.156502225156489705
1.022000000000000686,0.155424751943892436
1.023000000000000798,0.154338118486115755
1.024000000000000687,0.153242547271399021
1.025000000000000799,0.152138258767206380
1.026000000000000689,0.151025471427987196
1.027000000000000801,0.149904401702981610
1.028000000000000691,0.148775264044164468
1.029000000000000803,0.147638270914246444
1.030000000000000693,0.146493632794784834
1.031000000000000805,0.145341558194365950
1.032000000000000695,0.144182253656875786
1.033000000000000806,0.143015923769845649
1.034000000000000696,0.141842771172877802
1.035000000000000808,0.140662996566155440
1.036000000000000698,0.139476798719001899
1.037000000000000810,0.138284374478535199
1.038000000000000700,0.137085918778376559
1.039000000000000812,0.135881624647422539
1.040000000000000702,0.134671683218692301
1.041000000000000814,0.133456283738220272
1.042000000000000703,0.132235613574029409
1.043000000000000815,0.131009858225132947
1.044000000000000705,0.129779201330617877
1.045000000000000817,0.128543824678757912
1.046000000000000707,0.127303908216198497
1.047000000000000819,0.126059630057166860
1.048000000000000709,0.124811166492766690
1.049000000000000821,0.123558692000254669
1.050000000000000711,0.122302379252430260
1.051000000000000822,0.121042399127012840
1.052000000000000712,0.119778920716087242
1.053000000000000824,0.118512111335576112
1.054000000000000714,0.117242136534742761
1.055000000000000826,0.115969160105741848
1.056000000000000716,0.114693344093183075
1.057000000000000828,0.113414848803743376
1.058000000000000718,0.112133832815796183
1.059000000000000830,0.110850452989069176
1.060000000000000719,0.109564864474325410
1.061000000000000831,0.108277220723085363
1.062000000000000721,0.106987673497333222
1.063000000000000833,0.105696372879283948
1.064000000000000723,0.104403467281149270
1.065000000000000835,0.103109103454921927
1.066000000000000725,0.101813426502172996
1.067000000000000837,0.100516579883879104
1.068000000000000727,0.099218705430242735
1.069000000000000838,0.097919943350539954
1.070000000000000728,0.096620432242970858
1.071000000000000840,0.095320309104517678
1.072000000000000730,0.094019709340818755
1.073000000000000842,0.092718766776039796
1.074000000000000732,0.091417613662755498
1.075000000000000844,0.090116380691832781
1.076000000000000734,0.088815197002324681
1.077000000000000846,0.087514190191350316
1.078000000000000735,0.086213486323988051
1.079000000000000847,0.084913209943164411
1.080000000000000737,0.083613484079539530
1.081000000000000849,0.082314430261397148
1.082000000000000739,0.081016168524510629
1.083000000000000851,0.079718817422032254
1.084000000000000741,0.078422494034352044
1.085000000000000853,0.077127313978964593
1.086000000000000743,0.075833391420317323
1.087000000000000854,0.074540839079660443
1.088000000000000744,0.073249768244874530
1.089000000000000856,0.071960288780302445
1.090000000000000746,0.070672509136547684
1.091000000000000858,0.069386536360282844
1.092000000000000748,0.068102476104032444
1.093000000000000860,0.066820432635941535
1.094000000000000750,0.065540508849524143
1.095000000000000862,0.064262806273416337
1.096000000000000751,0.062987425081083501
1.097000000000000863,0.061714464100529068
1.098000000000000753,0.060444020823980406
1.099000000000000865,0.059176191417548506
1.100000000000000755,0.057911070730887901
1.101000000000000867,0.056648752306798965
1.102000000000000757,0.055389328390850180
1.103000000000000869,0.054132889940947782
1.104000000000000759,0.052879526636899141
1.105000000000000870,0.051629326889943525
1.106000000000000760,0.050382377852266028
1.107000000000000872,0.049138765426475953
1.108000000000000762,0.047898574275073394
1.109000000000000874,0.046661887829879845
1.110000000000000764,0.045428788301444908
1.111000000000000876,0.044199356688425014
1.112000000000000766,0.042973672786941523
1.113000000000000878,0.041751815199896840
1.114000000000000767,0.040533861346271613
1.115000000000000879,0.039319887470390148
1.116000000000000769,0.038109968651163048
1.117000000000000881,0.036904178811280060
1.118000000000000771,0.035702590726391328
1.119000000000000883,0.034505276034253539
1.120000000000000773,0.033312305243832871
1.121000000000000885,0.032123747744395567
1.122000000000000774,0.030939671814543861
1.123000000000000886,0.029760144631233155
1.124000000000000776,0.028585232278757210
1.125000000000000888,0.027414999757687623
1.126000000000000778,0.026249510993787851
1.127000000000000890,0.025088828846895089
1.128000000000000780,0.023933015119757595
1.129000000000000892,0.022782130566842650
1.130000000000000782,0.021636234903116836
1.131000000000000894,0.020495386812765064
1.132000000000000783,0.019359643957910254
1.133000000000000895,0.018229062987258914
1.134000000000000785,0.017103699544740003
1.135000000000000897,0.015983608278086214
1.136000000000000787,0.014868842847388314
1.137000000000000899,0.013759455933611170
1.138000000000000789,0.012655499247070573
1.139000000000000901,0.011557023535860855
1.140000000000000790,0.010464078594266801
1.141000000000000902,0.009376713271124059
1.142000000000000792,0.008294975478133853
1.143000000000000904,0.007218912198140659
1.144000000000000794,0.006148569493397432
1.145000000000000906,0.005083992513749436
1.146000000000000796,0.004025225504806362
1.147000000000000908,0.002972311816067968
1.148000000000000798,0.001925293909005660
1.149000000000000909,0.000884213365109360
1.150000000000000799,-0.000150889106110963
1.151000000000000689,-0.001179973659157846
1.152000000000000801,-0.002203001304630059
1.153000000000000913,-0.003219933901330441
1.154000000000000803,-0.004230734148431716
1.155000000000000693,-0.005235365577677903
1.156000000000000805,-0.006233792545619327
1.157000000000000917,-0.007225980225896928
1.158000000000000806,-0.008211894601566450
1.159000000000000696,-0.009191502457461522
1.160000000000000808,-0.010164771372603489
1.161000000000000920,-0.011131669712643922
1.162000000000000810,-0.012092166622360279
1.163000000000000700,-0.013046232018176226
1.164000000000000812,-0.013993836580753710
1.165000000000000924,-0.014934951747587749
1.166000000000000814,-0.015869549705670710
1.167000000000000703,-0.016797603384198896
1.168000000000000815,-0.017719086447299894
1.169000000000000927,-0.018633973286822703
1.170000000000000817,-0.019542239015165282
1.171000000000000707,-0.020443859458130730
1.172000000000000819,-0.021338811147844937
1.173000000000000931,-0.022227071315707198
1.174000000000000821,-0.023108617885374973
1.175000000000000711,-0.023983429465811636
1.176000000000000822,-0.024851485344350742
1.177000000000000934,-0.025712765479826150
1.178000000000000824,-0.026567250495721100
1.179000000000000714,-0.027414921673383857
1.180000000000000826,-0.028255760945268205
1.181000000000000938,-0.029089750888217691
1.182000000000000828,-0.029916874716800067
1.183000000000000718,-0.030737116276672295
1.184000000000000830,-0.031550460037999127
1.185000000000000941,-0.032356891088906846
1.186000000000000831,-0.033156395128981386
1.187000000000000721,-0.033948958462801528
1.188000000000000833,-0.034734567993526512
1.189000000000000945,-0.035513211216511964
1.190000000000000835,-0.036284876212978420
1.191000000000000725,-0.037049551643708274
1.192000000000000837,-0.037807226742807933
1.193000000000000949,-0.038557891311476279
1.194000000000000838,-0.039301535711849814
1.195000000000000728,-0.040038150860865082
1.196000000000000840,-0.040767728224172246
1.197000000000000952,-0.041490259810091079
1.198000000000000842,-0.042205738163597378
1.199000000000000732,-0.042914156360367807
1.200000000000000844,-0.043615508000843059
1.201000000000000956,-0.044309787204360608
1.202000000000000846,-0.044996988603291606
1.203000000000000735,-0.045677107337258736
1.204000000000000847,-0.046350139047360205
1.205000000000000959,-0.047016079870451082
1.206000000000000849,-0.047674926433463695
1.207000000000000739,-0.048326675847768216
1.208000000000000851,-0.048971325703563176
1.209000000000000963,-0.049608874064326722
1.210000000000000853,-0.050239319461280220
1.211000000000000743,-0.050862660887917820
1.212000000000000854,-0.051478897794556000
1.213000000000000966,-0.052088030082938351
1.214000000000000856,-0.052690058100862615
1.215000000000000746,-0.053284982636860836
1.216000000000000858,-0.053872804914918769
1.217000000000000970,-0.054453526589215415
1.218000000000000860,-0.055027149738926397
1.219000000000000750,-0.055593676863055164
1.220000000000000862,-0.056153110875291533
1.221000000000000973,-0.056705455098929082
1.222000000000000863,-0.057250713261806453
1.223000000000000753,-0.057788889491291698
1.224000000000000865,-0.058319988309303607
1.225000000000000977,-0.058844014627372029
1.226000000000000867,-0.059360973741734789
1.227000000000000757,-0.059870871328473706
1.228000000000000869,-0.060373713438677826
1.229000000000000981,-0.060869506493665647
1.230000000000000870,-0.061358257280224239
1.231000000000000760,-0.061839972945892233
1.232000000000000872,-0.062314660994278570
1.233000000000000984,-0.062782329280420129
1.234000000000000874,-0.063242986006182278
1.235000000000000764,-0.063696639715670328
1.236000000000000876,-0.064143299290713524
1.237000000000000988,-0.064582973946352346
1.238000000000000878,-0.065015673226383047
1.239000000000000767,-0.065441406998930168
1.240000000000000879,-0.065860185452052175
1.241000000000000991,-0.066272019089380685
1.242000000000000881,-0.066676918725809775
1.243000000000000771,-0.067074895483204278
1.244000000000000883,-0.067465960786140269
1.245000000000000995,-0.067850126357700491
1.246000000000000885,-0.068227404215287724
1.247000000000000774,-0.068597806666475830
1.248000000000000886,-0.068961346304893617
1.249000000000000998,-0.069318036006148803
1.250000000000000888,-0.069667888923783255
1.251000000000000778,-0.070010918485252788
1.252000000000000890,-0.070347138387959404
1.253000000000001002,-0.070676562595293896
1.254000000000000892,-0.070999205332732671
1.255000000000000782,-0.071315081083954429
1.256000000000000894,-0.071624204586996476
1.257000000000001005,-0.071926590830436204
1.258000000000000895,-0.072222255049614964
1.259000000000000785,-0.072511212722880275
1.260000000000000897,-0.072793479567884692
1.261000000000001009,-0.073069071537880795
1.262000000000000899,-0.073338004818084682
1.263000000000000789,-0.073600295822043194
1.264000000000000901,-0.073855961188054570
1.265000000000001013,-0.074105017775599635
1.266000000000000902,-0.074347482661815123
1.267000000000000792,-0.074583373138006212
1.268000000000000904,-0.074812706706168616
1.269000000000001016,-0.075035501075562699
1.270000000000000906,-0.075251774159299470
1.271000000000000796,-0.075461544070975023
1.272000000000000908,-0.075664829121317959
1.273000000000001020,-0.075861647814881167
1.274000000000000909,-0.076052018846749614
1.275000000000000799,-0.076235961099289873
1.276000000000000911,-0.076413493638925536
1.277000000000001023,-0.076584635712932572
1.278000000000000913,-0.076749406746282139
1.279000000000000803,-0.076907826338487445
1.280000000000000915,-0.077059914260510148
1.281000000000001027,-0.077205690451662812
1.282000000000000917,-0.077345175016565793
1.283000000000000806,-0.077478388222117126
1.284000000000000918,-0.077605350494494948
1.285000000000001030,-0.077726082416190528
1.286000000000000920,-0.077840604723068668
1.287000000000000810,-0.077948938301441575
1.288000000000000922,-0.078051104185197756
1.289000000000001034,-0.078147123552928716
1.290000000000000924,-0.078237017725103247
1.291000000000000814,-0.078320808161261496
1.292000000000000925,-0.078398516457228132
1.293000000000001037,-0.078470164342369489
1.294000000000000927,-0.078535773676855741
1.295000000000000817,-0.078595366448975496
1.296000000000000929,-0.078648964772441252
1.297000000000001041,-0.078696590883752623
1.298000000000000931,-0.078738267139578252
1.299000000000000821,-0.078774016014143675
1.300000000000000933,-0.078803860096667400
1.301000000000001044,-0.078827822088814420
1.302000000000000934,-0.078845924802169121
1.303000000000000824,-0.078858191155737736
1.304000000000000936,-0.078864644173478063
1.305000000000001048,-0.078865306981852706
1.306000000000000938,-0.078860202807400234
1.307000000000000828,-0.078849354974333791
1.308000000000000940,-0.078832786902169175
1.309000000000001052,-0.078810522103371181
1.310000000000000941,-0.078782584181027945
1.311000000000000831,-0.078748996826533357
1.312000000000000943,-0.078709783817316345
1.313000000000001055,-0.078664969014584266
1.314000000000000945,-0.078614576361080518
1.315000000000000835,-0.078558629878867386
1.316000000000000947,-0.078497153667145575
1.317000000000001059,-0.078430171900082474
1.318000000000000949,-0.078357708824664377
1.319000000000000838,-0.078279788758575025
1.320000000000000950,-0.078196436088097163
1.321000000000001062,-0.078107675266026466
1.322000000000000952,-0.078013530809618398
1.323000000000000842,-0.077914027298554608
1.324000000000000954,-0.077809189372923498
1.325000000000001066,-0.077699041731226909
1.326000000000000956,-0.077583609128413361
1.327000000000000846,-0.077462916373920498
1.328000000000000957,-0.077336988329746503
1.329000000000001069,-0.077205849908541166
1.330000000000000959,-0.077069526071720934
1.331000000000000849,-0.076928041827589028
1.332000000000000961,-0.076781422229496771
1.333000000000001073,-0.076629692374010919
1.334000000000000963,-0.076472877399105424
1.335000000000000853,-0.076311002482368509
1.336000000000000965,-0.076144092839243532
1.337000000000001076,-0.075972173721266439
1.338000000000000966,-0.075795270414344265
1.339000000000000856,-0.075613408237044169
1.340000000000000968,-0.075426612538888355
1.341000000000001080,-0.075234908698698352
1.342000000000000970,-0.075038322122927881
1.343000000000000860,-0.074836878244029487
1.344000000000000972,-0.074630602518838809
1.345000000000001084,-0.074419520426978997
1.346000000000000973,-0.074203657469266354
1.347000000000000863,-0.073983039166162237
1.348000000000000975,-0.073757691056216296
1.349000000000001087,-0.073527638694548314
1.350000000000000977,-0.073292907651328176
1.351000000000000867,-0.073053523510294371
1.352000000000000979,-0.072809511867271290
1.353000000000001091,-0.072560898328710835
1.354000000000000981,-0.072307708510262303
1.355000000000000870,-0.072049968035329745
1.356000000000000982,-0.071787702533685244
1.357000000000001094,-0.071520937640065493
1.358000000000000984,-0.071249698992797789
1.359000000000000874,-0.070974012232454226
1.360000000000000986,-0.070693903000496425
1.361000000000001098,-0.070409396937962707
1.362000000000000988,-0.070120519684143637
1.363000000000000878,-0.069827296875308933
1.364000000000000989,-0.069529754143416805
1.365000000000001101,-0.069227917114849769
1.366000000000000991,-0.068921811409181230
1.367000000000000881,-0.068611462637933579
1.368000000000000993,-0.068296896403367974
1.369000000000001105,-0.067978138297279431
1.370000000000000995,-0.067655213899816297
1.371000000000000885,-0.067328148778309643
1.372000000000000997,-0.066996968486112557
1.373000000000001108,-0.066661698561467017
1.374000000000000998,-0.066322364526360464
1.375000000000000888,-0.065978991885439944
1.376000000000001000,-0.065631606124888275
1.377000000000001112,-0.065280232711358549
1.378000000000001002,-0.064924897090892025
1.379000000000000892,-0.064565624687873052
1.380000000000001004,-0.064202440903974367
1.381000000000001116,-0.063835371117141756
1.382000000000001005,-0.063464440680569695
1.383000000000000895,-0.063089674921702227
1.384000000000001007,-0.062711099141251725
1.385000000000001119,-0.062328738612213219
1.386000000000001009,-0.061942618578910633
1.387000000000000899,-0.061552764256041462
1.388000000000001011,-0.061159200827752593
1.389000000000001123,-0.060761953446700101
1.390000000000001013,-0.060361047233156051
1.391000000000000902,-0.059956507274095051
1.392000000000001014,-0.059548358622324257
1.393000000000001126,-0.059136626295598904
1.394000000000001016,-0.058721335275764640
1.395000000000000906,-0.058302510507911819
1.396000000000001018,-0.057880176899531913
1.397000000000001130,-0.057454359319702095
1.398000000000001020,-0.057025082598266906
1.399000000000000909,-0.056592371525032228
1.400000000000001021,-0.056156250848985990
1.401000000000001133,-0.055716745277512393
1.402000000000001023,-0.055273879475629409
1.403000000000000913,-0.054827678065229035
1.404000000000001025,-0.054378165624332508
1.405000000000001137,-0.053925366686368527
1.406000000000001027,-0.053469305739429838
1.407000000000000917,-0.053010007225587255
1.408000000000001029,-0.052547495540164066
1.409000000000001140,-0.052081795031064970
1.410000000000001030,-0.051612929998089196
1.411000000000000920,-0.051140924692261357
1.412000000000001032,-0.050665803315169990
1.413000000000001144,-0.050187590018330043
1.414000000000001034,-0.049706308902536418
1.415000000000000924,-0.049221984017233142
1.416000000000001036,-0.048734639359905393
1.417000000000001148,-0.048244298875466010
1.418000000000001037,-0.047750986455657757
1.419000000000000927,-0.047254725938466149
1.420000000000001039,-0.046755541107536817
1.421000000000001151,-0.046253455691615743
1.422000000000001041,-0.045748493363980139
1.423000000000000931,-0.045240677741893491
1.424000000000001043,-0.044730032386059146
1.425000000000001155,-0.044216580800098729
1.426000000000001044,-0.043700346430019202
1.427000000000000934,-0.043181352663707706
1.428000000000001046,-0.042659622830420629
1.429000000000001158,-0.042135180200289522
1.430000000000001048,-0.041608047983833815
1.431000000000000938,-0.041078249331488889
1.432000000000001050,-0.040545807333128327
1.433000000000001162,-0.040010745017605986
1.434000000000001052,-0.039473085352301464
1.435000000000000941,-0.038932851242680609
1.436000000000001053,-0.038390065531856671
1.437000000000001165,-0.037844751000158258
1.438000000000001055,-0.037296930364721301
1.439000000000000945,-0.036746626279063298
1.440000000000001057,-0.036193861332690355
1.441000000000001169,-0.035638658050694508
1.442000000000001059,-0.035081038893368909
1.443000000000000949,-0.034521026255833032
1.444000000000001060,-0.033958642467648181
1.445000000000001172,-0.033393909792460395
1.446000000000001062,-0.032826850427645729
1.447000000000000952,-0.032257486503948961
1.448000000000001064,-0.031685840085152323
1.449000000000001176,-0.031111933167737894
1.450000000000001066,-0.030535787680550965
1.451000000000000956,-0.029957425484489521
1.452000000000001068,-0.029376868372185099
1.453000000000001180,-0.028794138067697005
1.454000000000001069,-0.028209256226211399
1.455000000000000959,-0.027622244433748232
1.456000000000001071,-0.027033124206871696
1.457000000000001183,-0.026441916992422078
1.458000000000001073,-0.025848644167226008
1.459000000000000963,-0.025253327037841961
1.460000000000001075,-0.024655986840297073
1.461000000000001187,-0.024056644739830019
1.462000000000001076,-0.023455321830651348
1.463000000000000966,-0.022852039135692885
1.464000000000001078,-0.022246817606378384
1.465000000000001190,-0.021639678122403899
1.466000000000001080,-0.021030641491489512
1.467000000000000970,-0.020419728449193222
1.468000000000001082,-0.019806959658681747
1.469000000000001194,-0.019192355710531996
1.470000000000001084,-0.018575937122530133
1.471000000000000973,-0.017957724339480032
1.472000000000001085,-0.017337737733018093
1.473000000000001197,-0.016715997601431078
1.474000000000001087,-0.016092524169474855
1.475000000000000977,-0.015467337588210044
1.476000000000001089,-0.014840457934839017
1.477000000000001201,-0.014211905212538567
1.478000000000001091,-0.013581699350310759
1.479000000000000981,-0.012949860202838068
1.480000000000001092,-0.012316407550327580
1.481000000000001204,-0.011681361098390065
1.482000000000001094,-0.011044740477888971
1.483000000000000984,-0.010406565244825998
1.484000000000001096,-0.009766854880214344
1.485000000000001208,-0.009125628789951858
1.486000000000001098,-0.008482906304722537
1.487000000000000988,-0.007838706679877547
1.488000000000001100,-0.007193049095334986
1.489000000000001211,-0.006545952655479449
1.490000000000001101,-0.005897436389075840
1.491000000000000991,-0.005247519249164559
1.492000000000001103,-0.004596220112995551
1.493000000000001215,-0.003943557781929688
1.494000000000001105,-0.003289550981376295
1.495000000000000995,-0.002634218360715031
1.496000000000001107,-0.001977578493232918
1.497000000000001219,-0.001319649876056394
1.498000000000001108,-0.000660450930099655
1.499000000000000998,0.000000000000000000
