# graphene_MAMM-AC
# h[nm],U(h)[kJ/mol]
0.149999999999999994,96.640633260164037210
0.150999999999999995,95.879132201391882973
0.151999999999999996,93.972087295407845886
0.152999999999999997,91.827971804651099319
0.153999999999999998,89.801308688849132977
0.154999999999999999,87.973613120754677652
0.156000000000000000,86.310840601675693051
0.157000000000000001,84.745869879051241469
0.158000000000000002,83.217087445534872359
0.159000000000000002,81.682541289167033938
0.160000000000000003,80.121531039320487366
0.161000000000000004,78.530603451903544965
0.162000000000000005,76.917830792058936140
0.163000000000000006,75.297350891511129589
0.164000000000000007,73.685023737555368939
0.165000000000000008,72.095429088610686108
0.166000000000000009,70.540105633268410656
0.167000000000000010,69.026791881068248813
0.168000000000000010,67.559393273104888067
0.169000000000000011,66.138419241380660196
0.170000000000000012,64.761677863683061673
0.171000000000000013,63.425066743257239921
0.172000000000000014,62.123347245497924973
0.173000000000000015,60.850830706147078786
0.174000000000000016,59.601938128610775891
0.175000000000000017,58.371619329082122363
0.176000000000000018,57.155634434144019451
0.177000000000000018,55.950711398790780038
0.178000000000000019,54.754599157323013969
0.179000000000000020,53.566038402623348702
0.180000000000000021,52.384671887992148243
0.181000000000000022,51.210914434377230009
0.182000000000000023,50.045800182608658702
0.183000000000000024,48.890821558411047931
0.184000000000000025,47.747771273404232772
0.185000000000000026,46.618595704992287665
0.186000000000000026,45.505265326577628571
0.187000000000000027,44.409665572368282938
0.188000000000000028,43.333509643894956298
0.189000000000000029,42.278273289886421082
0.190000000000000030,41.245150487198927181
0.191000000000000031,40.235028175313786392
0.192000000000000032,39.248477701945375884
0.193000000000000033,38.285760372922801764
0.194000000000000034,37.346844418236933905
0.195000000000000034,36.431430744588553239
0.196000000000000035,35.538985004731564743
0.197000000000000036,34.668773742785148784
0.198000000000000037,33.819902645500278027
0.199000000000000038,32.991355220515529822
0.200000000000000039,32.182030517039414974
0.201000000000000040,31.390778789498085644
0.202000000000000041,30.616434271460843064
0.203000000000000042,29.857844469596567905
0.204000000000000042,29.113895601977606731
0.205000000000000043,28.383533990142517212
0.206000000000000044,27.665783369859887841
0.207000000000000045,26.959758212524697285
0.208000000000000046,26.264673249372368247
0.209000000000000047,25.579849466539702263
0.210000000000000048,24.904716893066229488
0.211000000000000049,24.238814538976804158
0.212000000000000050,23.581787859380877848
0.213000000000000050,22.933384125742332316
0.214000000000000051,22.293446079626157541
0.215000000000000052,21.661904229625996265
0.216000000000000053,21.038768130895554975
0.217000000000000054,20.424116960582317404
0.218000000000000055,19.818089673084084978
0.219000000000000056,19.220874987772525344
0.220000000000000057,18.632701429780674118
0.221000000000000058,18.053827612562280081
0.222000000000000058,17.484532919927566752
0.223000000000000059,16.925108715720213581
0.224000000000000060,16.375850181637204628
0.225000000000000061,15.837048858207262825
0.226000000000000062,15.308985940817242621
0.227000000000000063,14.791926362007567164
0.228000000000000064,14.286113673068509655
0.229000000000000065,13.791765722220063140
0.230000000000000066,13.309071113267368247
0.231000000000000066,12.838186417467529310
0.232000000000000067,12.379234102280474161
0.233000000000000068,11.932301133539457538
0.234000000000000069,11.497438202195565893
0.235000000000000070,11.074659522984926951
0.236000000000000071,10.663943149960994461
0.237000000000000072,10.265231752651146735
0.238000000000000073,9.878433796471060901
0.239000000000000073,9.503425071802888979
0.240000000000000074,9.140050517663430796
0.241000000000000075,8.788126288023045518
0.242000000000000076,8.447442011456065103
0.243000000000000077,8.117763197797682295
0.244000000000000078,7.798833748749409267
0.245000000000000079,7.490378532825076263
0.246000000000000080,7.192105988585311138
0.247000000000000081,6.903710723700950957
0.248000000000000081,6.624876080959865021
0.249000000000000082,6.355276645837664162
0.250000000000000111,6.094580673650979996
0.251000000000000112,5.842452417571751155
0.252000000000000113,5.598554341875276563
0.253000000000000114,5.362549207707750121
0.254000000000000115,5.134102021373530000
0.255000000000000115,4.912881837653674033
0.256000000000000116,4.698563412967803110
0.257000000000000117,4.490828705281957767
0.258000000000000118,4.289368219547497141
0.259000000000000119,4.093882199133904720
0.260000000000000120,3.904081665198948947
0.261000000000000121,3.719689307231272668
0.262000000000000122,3.540440229111150749
0.263000000000000123,3.366082555977055968
0.264000000000000123,3.196377907967719700
0.265000000000000124,3.031101747544660441
0.266000000000000125,2.870043607598626867
0.267000000000000126,2.713007207917941255
0.268000000000000127,2.559810467857329908
0.269000000000000128,2.410285423205094979
0.270000000000000129,2.264278055313809102
0.271000000000000130,2.121648040546255221
0.272000000000000131,1.982268428003783445
0.273000000000000131,1.846025253357753027
0.274000000000000132,1.712817096405041983
0.275000000000000133,1.582554589724017857
0.276000000000000134,1.455159885525243668
0.277000000000000135,1.330566087478812332
0.278000000000000136,1.208716653963295418
0.279000000000000137,1.089564778826457303
0.280000000000000138,0.973072755379811971
0.281000000000000139,0.859211328972537602
0.282000000000000139,0.747959043109694965
0.283000000000000140,0.639301583698470566
0.284000000000000141,0.533231125627868785
0.285000000000000142,0.429745685514385301
0.286000000000000143,0.328848484081433579
0.287000000000000144,0.230547321285766105
0.288000000000000145,0.134853966960836319
0.289000000000000146,0.041783569417913231
0.290000000000000147,-0.048645915870122618
0.291000000000000147,-0.136414275677035318
0.292000000000000148,-0.221499564982920616
0.293000000000000149,-0.303878608212351020
0.294000000000000150,-0.383527474729588758
0.295000000000000151,-0.460421927804228637
0.296000000000000152,-0.534537846478757794
0.297000000000000153,-0.605851619971333522
0.298000000000000154,-0.674340514432713145
0.299000000000000155,-0.739983012046157462
0.300000000000000155,-0.802759122613735387
0.301000000000000156,-0.862650667912162938
0.302000000000000157,-0.919641539227080584
0.303000000000000158,-0.973717928586365966
0.304000000000000159,-1.024868534312364243
0.305000000000000160,-1.073084741599233283
0.306000000000000161,-1.118360778896917207
0.307000000000000162,-1.160693850947144279
0.308000000000000163,-1.200084249370544587
0.309000000000000163,-1.236535441748274344
0.310000000000000164,-1.270054140176614554
0.311000000000000165,-1.300650350299889846
0.312000000000000166,-1.328337401846447774
0.313000000000000167,-1.353131961704513220
0.314000000000000168,-1.375054030580622033
0.315000000000000169,-1.394126924283222602
0.316000000000000170,-1.410377240668806875
0.317000000000000171,-1.423834813277673694
0.318000000000000171,-1.434532652672115383
0.319000000000000172,-1.442506876471706168
0.320000000000000173,-1.447796629058796691
0.321000000000000174,-1.450443991902881313
0.322000000000000175,-1.450493885425680585
0.323000000000000176,-1.447993963299598175
0.324000000000000177,-1.442994500041403505
0.325000000000000178,-1.435548272730525765
0.326000000000000179,-1.425710437648037399
0.327000000000000179,-1.413538402597701360
0.328000000000000180,-1.399091695635463317
0.329000000000000181,-1.382431830898466885
0.330000000000000182,-1.363622172188457826
0.331000000000000183,-1.342727794929259533
0.332000000000000184,-1.319815347081927381
0.333000000000000185,-1.294952909566188248
0.334000000000000186,-1.268209856701772109
0.335000000000000187,-1.239656717148997611
0.336000000000000187,-1.209365035794378596
0.337000000000000188,-1.177407236994031159
0.338000000000000189,-1.143856489555866274
0.339000000000000190,-1.108786573810285114
0.340000000000000191,-1.072271751088957448
0.341000000000000192,-1.034386635902394769
0.342000000000000193,-0.995206071078627019
0.343000000000000194,-0.954805006098761178
0.344000000000000195,-0.913258378838902374
0.345000000000000195,-0.870641000903685680
0.346000000000000196,-0.827027446712673586
0.347000000000000197,-0.782491946478693245
0.348000000000000198,-0.737108283195816227
0.349000000000000199,-0.690949693734417614
0.350000000000000200,-0.644088774121879148
0.351000000000000201,-0.596597389069289274
0.352000000000000202,-0.548546585787813901
0.353000000000000203,-0.500006512122509128
0.354000000000000203,-0.451046339016482833
0.355000000000000204,-0.401734187304608192
0.356000000000000205,-0.352137058823157711
0.357000000000000206,-0.302320771809839628
0.358000000000000207,-0.252349900557715057
0.359000000000000208,-0.202287719276518535
0.360000000000000209,-0.152196150105577077
0.361000000000000210,-0.102135715214145995
0.362000000000000210,-0.052165492917367648
0.363000000000000211,-0.002343077729151366
0.364000000000000212,0.047275455732848325
0.365000000000000213,0.096635585080536227
0.366000000000000214,0.145684368822104782
0.367000000000000215,0.194370471461640493
0.368000000000000216,0.242644185134601564
0.369000000000000217,0.290457447885397957
0.370000000000000218,0.337763858695741881
0.371000000000000218,0.384518689374678813
0.372000000000000219,0.430678893422720477
0.373000000000000220,0.476203111983808991
0.374000000000000221,0.521051676999570779
0.375000000000000222,0.565186611680911555
0.376000000000000223,0.608571628411862298
0.377000000000000224,0.651172124200631419
0.378000000000000225,0.692955173792068502
0.379000000000000226,0.733889520555125907
0.380000000000000226,0.773945565257718737
0.381000000000000227,0.813095352840248586
0.382000000000000228,0.851312557297462691
0.383000000000000229,0.888572464776678728
0.384000000000000230,0.924851954998671788
0.385000000000000231,0.960129481105304050
0.386000000000000232,0.994385048036088071
0.387000000000000233,1.027600189533449893
0.388000000000000234,1.059757943874214625
0.389000000000000234,1.090842828422270205
0.390000000000000235,1.120840813095007382
0.391000000000000236,1.149739292833313886
0.392000000000000237,1.177527059162520651
0.393000000000000238,1.204194270928744093
0.394000000000000239,1.229732424292549142
0.395000000000000240,1.254134322058996442
0.396000000000000241,1.277394042420409992
0.397000000000000242,1.299506907185451254
0.398000000000000242,1.320469449565250475
0.399000000000000243,1.340279381584680518
0.400000000000000244,1.358935561184094754
0.401000000000000245,1.376437959073959494
0.402000000000000246,1.392787625402441165
0.403000000000000247,1.407986656293002348
0.404000000000000248,1.422038160306654975
0.405000000000000249,1.434946224880810695
0.406000000000000250,1.446715882794185504
0.407000000000000250,1.457353078704649363
0.408000000000000251,1.466864635804532968
0.409000000000000252,1.475258222635397853
0.410000000000000253,1.482542320102062661
0.411000000000000254,1.488726188723226596
0.412000000000000255,1.493819836153968295
0.413000000000000256,1.497833985013034219
0.414000000000000257,1.500780041045913116
0.415000000000000258,1.502670061652430888
0.416000000000000258,1.503516724805814997
0.417000000000000259,1.503333298388043859
0.418000000000000260,1.502133609964583894
0.419000000000000261,1.499932017019727670
0.420000000000000262,1.496743377672006492
0.421000000000000263,1.492583021887479600
0.422000000000000264,1.487466723207097941
0.423000000000000265,1.481410671002757029
0.424000000000000266,1.474431443275091569
0.425000000000000266,1.466545980004783090
0.426000000000000267,1.457771557067598200
0.427000000000000268,1.448125760722136279
0.428000000000000269,1.437626462678010864
0.429000000000000270,1.426291795750928681
0.430000000000000271,1.414140130109996063
0.431000000000000272,1.401190050121497999
0.432000000000000273,1.387460331792320201
0.433000000000000274,1.372969920815212186
0.434000000000000274,1.357737911217081095
0.435000000000000275,1.341783524610733469
0.436000000000000276,1.325126090049479677
0.437000000000000277,1.307785024483324232
0.438000000000000278,1.289779813814669440
0.439000000000000279,1.271129994550724396
0.440000000000000280,1.251855136049172978
0.441000000000000281,1.231974823353038762
0.442000000000000282,1.211508640609989973
0.443000000000000282,1.190476155070966380
0.444000000000000283,1.168896901662257459
0.445000000000000284,1.146790368124908754
0.446000000000000285,1.124175980714747336
0.447000000000000286,1.101073090455920944
0.448000000000000287,1.077500959940552283
0.449000000000000288,1.053478750666656083
0.450000000000000289,1.029025510906214746
0.451000000000000290,1.004160164095009966
0.452000000000000290,0.978901497735513493
0.453000000000000291,0.953268152803961932
0.454000000000000292,0.927278613652461559
0.455000000000000293,0.900951198396837905
0.456000000000000294,0.874304049780761816
0.457000000000000295,0.847355126506530665
0.458000000000000296,0.820122195022769729
0.459000000000000297,0.792622821759253804
0.460000000000000298,0.764874365798856148
0.461000000000000298,0.736893971976756434
0.462000000000000299,0.708698564396755493
0.463000000000000300,0.680304840354738038
0.464000000000000301,0.651729264659136276
0.465000000000000302,0.622988064338373393
0.466000000000000303,0.594097223725149171
0.467000000000000304,0.565072479907602565
0.468000000000000305,0.535929318537276655
0.469000000000000306,0.506682969983965004
0.470000000000000306,0.477348405827526523
0.471000000000000307,0.447940335676827783
0.472000000000000308,0.418473204306069491
0.473000000000000309,0.388961189098795068
0.474000000000000310,0.359418197790075555
0.475000000000000311,0.329857866497259677
0.476000000000000312,0.300293558030111596
0.477000000000000313,0.270738360470868744
0.478000000000000314,0.241205086015274517
0.479000000000000314,0.211706270065437435
0.480000000000000315,0.182254170565732648
0.481000000000000316,0.152860767572929657
0.482000000000000317,0.123537763052005894
0.483000000000000318,0.094296580889127915
0.484000000000000319,0.065148367113516056
0.485000000000000320,0.036103990320015523
0.486000000000000321,0.007174042284344539
0.487000000000000322,-0.021631161236840436
0.488000000000000322,-0.050301579528765197
0.489000000000000323,-0.078827445771808294
0.490000000000000324,-0.107199265732632859
0.491000000000000325,-0.135407816300391698
0.492000000000000326,-0.163444143875114689
0.493000000000000327,-0.191299562615185825
0.494000000000000328,-0.218965652550677847
0.495000000000000329,-0.246434257569152215
0.496000000000000330,-0.273697483280353981
0.497000000000000330,-0.300747694766130669
0.498000000000000331,-0.327577514221640165
0.499000000000000332,-0.354179818493858156
0.500000000000000333,-0.380547736523220048
0.501000000000000334,-0.406674646694000219
0.502000000000000335,-0.432554174098991662
0.503000000000000336,-0.458180187723785104
0.504000000000000337,-0.483546797555912566
0.505000000000000338,-0.508648351623842587
0.506000000000000338,-0.533479432970776046
0.507000000000000339,-0.558034856567996784
0.508000000000000340,-0.582309666172360463
0.509000000000000341,-0.606299131132436386
0.510000000000000342,-0.629998743147591522
0.511000000000000343,-0.653404212984252220
0.512000000000000344,-0.676511467153365187
0.513000000000000345,-0.699316644552981925
0.514000000000000346,-0.721816093079818533
0.515000000000000346,-0.744006366213342707
0.516000000000000347,-0.765884219576024705
0.517000000000000348,-0.787446607473111682
0.518000000000000349,-0.808690679415223990
0.519000000000000350,-0.829613776626926702
0.520000000000000351,-0.850213428544355332
0.521000000000000352,-0.870487349304808200
0.522000000000000353,-0.890433434231109322
0.523000000000000353,-0.910049756313508595
0.524000000000000354,-0.929334562691651600
0.525000000000000355,-0.948286271139180181
0.526000000000000356,-0.966903466553294622
0.527000000000000357,-0.985184897451621522
0.528000000000000358,-1.003129472478570872
0.529000000000000359,-1.020736256923241658
0.530000000000000360,-1.038004469250922934
0.531000000000000361,-1.054933477650093820
0.532000000000000361,-1.071522796596731997
0.533000000000000362,-1.087772083437671844
0.534000000000000363,-1.103681134994670909
0.535000000000000364,-1.119249884190757882
0.536000000000000365,-1.134478396700327130
0.537000000000000366,-1.149366867624429744
0.538000000000000367,-1.163915618192545853
0.539000000000000368,-1.178125092492171566
0.540000000000000369,-1.191995854227334117
0.541000000000000369,-1.205528583507225360
0.542000000000000370,-1.218724073665948149
0.543000000000000371,-1.231583228114422335
0.544000000000000372,-1.244107057225332547
0.545000000000000373,-1.256296675252007500
0.546000000000000374,-1.268153297282030634
0.547000000000000375,-1.279678236226320598
0.548000000000000376,-1.290872899844401456
0.549000000000000377,-1.301738787806461684
0.550000000000000377,-1.312277488792842783
0.551000000000000378,-1.322490677631428024
0.552000000000000379,-1.332380112473493083
0.553000000000000380,-1.341947632008400726
0.554000000000000381,-1.351195152717562076
0.555000000000000382,-1.360124666168043728
0.556000000000000383,-1.368738236346060066
0.557000000000000384,-1.377037997030714500
0.558000000000000385,-1.385026149208137269
0.559000000000000385,-1.392704958526282066
0.560000000000000386,-1.400076752790492041
0.561000000000000387,-1.407143919499993290
0.562000000000000388,-1.413908903425373120
0.563000000000000389,-1.420374204227160542
0.564000000000000390,-1.426542374115455480
0.565000000000000391,-1.432416015550687316
0.566000000000000392,-1.437997778985419917
0.567000000000000393,-1.443290360647180970
0.568000000000000393,-1.448296500362205697
0.569000000000000394,-1.453018979420017898
0.570000000000000395,-1.457460618478714665
0.571000000000000396,-1.461624275510764015
0.572000000000000397,-1.465512843789222419
0.573000000000000398,-1.469129249914100876
0.574000000000000399,-1.472476451878711678
0.575000000000000400,-1.475557437175757602
0.576000000000000401,-1.478375220942901747
0.577000000000000401,-1.480932844147594407
0.578000000000000402,-1.483233371810818157
0.579000000000000403,-1.485279891269503549
0.580000000000000404,-1.487075510477307017
0.581000000000000405,-1.488623356343384607
0.582000000000000406,-1.489926573108898866
0.583000000000000407,-1.490988320760832764
0.584000000000000408,-1.491811773482843329
0.585000000000000409,-1.492400118142701571
0.586000000000000409,-1.492756552816013604
0.587000000000000410,-1.492884285345806639
0.588000000000000411,-1.492786531937570382
0.589000000000000412,-1.492466515789418136
0.590000000000000413,-1.491927465756872184
0.591000000000000414,-1.491172615051932659
0.592000000000000415,-1.490205199975994654
0.593000000000000416,-1.489028458686145084
0.594000000000000417,-1.487645629994474028
0.595000000000000417,-1.486059952199941137
0.596000000000000418,-1.484274661952321051
0.597000000000000419,-1.482292993147874327
0.598000000000000420,-1.480118175856201201
0.599000000000000421,-1.477753435277915139
0.600000000000000422,-1.475201990732637025
0.601000000000000423,-1.472467054676871223
0.602000000000000424,-1.469551831751327642
0.603000000000000425,-1.466459517857238604
0.604000000000000425,-1.463193299261170921
0.605000000000000426,-1.459756351727942825
0.606000000000000427,-1.456151839681175897
0.607000000000000428,-1.452382915390964424
0.608000000000000429,-1.448452718188343535
0.609000000000000430,-1.444364373705938620
0.610000000000000431,-1.440120993144506034
0.611000000000000432,-1.435725672564797106
0.612000000000000433,-1.431181492204343098
0.613000000000000433,-1.426491515818747446
0.614000000000000434,-1.421658790046981702
0.615000000000000435,-1.416686343800266146
0.616000000000000436,-1.411577187674119660
0.617000000000000437,-1.406334313383125645
0.618000000000000438,-1.400960693217965014
0.619000000000000439,-1.395459279524297491
0.620000000000000440,-1.389833004203083089
0.621000000000000441,-1.384084778231889690
0.622000000000000441,-1.378217491206791268
0.623000000000000442,-1.372234010904400670
0.624000000000000443,-1.366137182863677024
0.625000000000000444,-1.359929829987072347
0.626000000000000445,-1.353614752160573032
0.627000000000000446,-1.347194725892317146
0.628000000000000447,-1.340672503969314588
0.629000000000000448,-1.334050815131919920
0.630000000000000449,-1.327332363765634238
0.631000000000000449,-1.320519829609890561
0.632000000000000450,-1.313615867483414412
0.633000000000000451,-1.306623107025791430
0.634000000000000452,-1.299544152454864321
0.635000000000000453,-1.292381582339596768
0.636000000000000454,-1.285137949388048595
0.637000000000000455,-1.277815780250093791
0.638000000000000456,-1.270417575334519711
0.639000000000000457,-1.262945808640182799
0.640000000000000457,-1.255402927600865803
0.641000000000000458,-1.247791352943468546
0.642000000000000459,-1.240113478559266236
0.643000000000000460,-1.232371671387817891
0.644000000000000461,-1.224568271313280166
0.645000000000000462,-1.216705591072754222
0.646000000000000463,-1.208785916176359887
0.647000000000000464,-1.200811504838749988
0.648000000000000465,-1.192784587921736694
0.649000000000000465,-1.184707368887720769
0.650000000000000466,-1.176582023763668605
0.651000000000000467,-1.168410701115283556
0.652000000000000468,-1.160195522031152171
0.653000000000000469,-1.151938580116509403
0.654000000000000470,-1.143641941496436720
0.655000000000000471,-1.135307644828125406
0.656000000000000472,-1.126937701322001883
0.657000000000000473,-1.118534094771419962
0.658000000000000473,-1.110098781590684425
0.659000000000000474,-1.101633690861129500
0.660000000000000475,-1.093140724385019302
0.661000000000000476,-1.084621756747000676
0.662000000000000477,-1.076078635382915483
0.663000000000000478,-1.067513180655667027
0.664000000000000479,-1.058927185937994508
0.665000000000000480,-1.050322417701823552
0.666000000000000481,-1.041700615614094660
0.667000000000000481,-1.033063492638707892
0.668000000000000482,-1.024412735144519138
0.669000000000000483,-1.015750003019051828
0.670000000000000484,-1.007076929787787511
0.671000000000000485,-0.998395122738824581
0.672000000000000486,-0.989706163052668009
0.673000000000000487,-0.981011605937041731
0.674000000000000488,-0.972312980766411372
0.675000000000000488,-0.963611791226143710
0.676000000000000489,-0.954909515461079605
0.677000000000000490,-0.946207606228298692
0.678000000000000491,-0.937507491053986897
0.679000000000000492,-0.928810572394165979
0.680000000000000493,-0.920118227799143873
0.681000000000000494,-0.911431810081543170
0.682000000000000495,-0.902752647487692128
0.683000000000000496,-0.894082043872297616
0.684000000000000496,-0.885421278876182272
0.685000000000000497,-0.876771608106969857
0.686000000000000498,-0.868134263322568378
0.687000000000000499,-0.859510452617306742
0.688000000000000500,-0.850901360610579416
0.689000000000000501,-0.842308148637878396
0.690000000000000502,-0.833731954944080256
0.691000000000000503,-0.825173894878830749
0.692000000000000504,-0.816635061093930359
0.693000000000000504,-0.808116523742614334
0.694000000000000505,-0.799619330680529705
0.695000000000000506,-0.791144507668409824
0.696000000000000507,-0.782693058576213851
0.697000000000000508,-0.774265965588700533
0.698000000000000509,-0.765864189412313046
0.699000000000000510,-0.757488669483226573
0.700000000000000511,-0.749140324176523431
0.701000000000000512,-0.740820051016335190
0.702000000000000512,-0.732528726886897408
0.703000000000000513,-0.724267208244397942
0.704000000000000514,-0.716036331329536035
0.705000000000000515,-0.707836912380702565
0.706000000000000516,-0.699669747847695422
0.707000000000000517,-0.691535614605879423
0.708000000000000518,-0.683435270170707376
0.709000000000000519,-0.675369452912554791
0.710000000000000520,-0.667338882271720779
0.711000000000000520,-0.659344258973605823
0.712000000000000521,-0.651386265243920848
0.713000000000000522,-0.643465565023894959
0.714000000000000523,-0.635582804185421568
0.715000000000000524,-0.627738610746024328
0.716000000000000525,-0.619933595083653866
0.717000000000000526,-0.612168350151181762
0.718000000000000527,-0.604443451690574229
0.719000000000000528,-0.596759458446670665
0.720000000000000528,-0.589116912380531099
0.721000000000000529,-0.581516338882242190
0.722000000000000530,-0.573958246983216624
0.723000000000000531,-0.566443129567838932
0.724000000000000532,-0.558971463584489348
0.725000000000000533,-0.551543710255848252
0.726000000000000534,-0.544160315288444774
0.727000000000000535,-0.536821709081420018
0.728000000000000536,-0.529528306934450077
0.729000000000000536,-0.522280509254778202
0.730000000000000537,-0.515078701763356128
0.731000000000000538,-0.507923255699984977
0.732000000000000539,-0.500814528027505701
0.733000000000000540,-0.493752861634922546
0.734000000000000541,-0.486738585539494450
0.735000000000000542,-0.479772015087690906
0.736000000000000543,-0.472853452155071352
0.737000000000000544,-0.465983185344947426
0.738000000000000544,-0.459161490185916565
0.739000000000000545,-0.452388629328127567
0.740000000000000546,-0.445664852738349437
0.741000000000000547,-0.438990397893734674
0.742000000000000548,-0.432365489974345762
0.743000000000000549,-0.425790342054305548
0.744000000000000550,-0.419265155291654867
0.745000000000000551,-0.412790119116849930
0.746000000000000552,-0.406365411419874256
0.747000000000000552,-0.399991198735968945
0.748000000000000553,-0.393667636429943735
0.749000000000000554,-0.387394868879055554
0.750000000000000555,-0.381173029654471418
0.751000000000000556,-0.375002241701232308
0.752000000000000557,-0.368882617516795297
0.753000000000000558,-0.362814259328033628
0.754000000000000559,-0.356797259266799394
0.755000000000000560,-0.350831699543931397
0.756000000000000560,-0.344917652621784643
0.757000000000000561,-0.339055181385192084
0.758000000000000562,-0.333244339310918902
0.759000000000000563,-0.327485170635567646
0.760000000000000564,-0.321777710521926330
0.761000000000000565,-0.316121985223757285
0.762000000000000566,-0.310518012249025255
0.763000000000000567,-0.304965800521557806
0.764000000000000568,-0.299465350541122055
0.765000000000000568,-0.294016654541937705
0.766000000000000569,-0.288619696649593638
0.767000000000000570,-0.283274453036393314
0.768000000000000571,-0.277980892075098018
0.769000000000000572,-0.272738974491093189
0.770000000000000573,-0.267548653512968415
0.771000000000000574,-0.262409875021495376
0.772000000000000575,-0.257322577697024435
0.773000000000000576,-0.252286693165283515
0.774000000000000576,-0.247302146141596374
0.775000000000000577,-0.242368854573515119
0.776000000000000578,-0.237486729781847844
0.777000000000000579,-0.232655676600136335
0.778000000000000580,-0.227875593512514824
0.779000000000000581,-0.223146372790022335
0.780000000000000582,-0.218467900625316291
0.781000000000000583,-0.213840057265843653
0.782000000000000584,-0.209262717145414445
0.783000000000000584,-0.204735749014233276
0.784000000000000585,-0.200259016067377754
0.785000000000000586,-0.195832376071703063
0.786000000000000587,-0.191455681491228297
0.787000000000000588,-0.187128779610964718
0.788000000000000589,-0.182851512659205545
0.789000000000000590,-0.178623717928318271
0.790000000000000591,-0.174445227893974292
0.791000000000000592,-0.170315870332903158
0.792000000000000592,-0.166235468439110690
0.793000000000000593,-0.162203840938622446
0.794000000000000594,-0.158220802202713978
0.795000000000000595,-0.154286162359682233
0.796000000000000596,-0.150399727405109596
0.797000000000000597,-0.146561299310698362
0.798000000000000598,-0.142770676131618562
0.799000000000000599,-0.139027652112413413
0.800000000000000600,-0.135332017791482240
0.801000000000000600,-0.131683560104097513
0.802000000000000601,-0.128082062484034476
0.803000000000000602,-0.124527304963764116
0.804000000000000603,-0.121019064273256552
0.805000000000000604,-0.117557113937389393
0.806000000000000605,-0.114141224371955549
0.807000000000000606,-0.110771162978331200
0.808000000000000607,-0.107446694236742177
0.809000000000000608,-0.104167579798203389
0.810000000000000608,-0.100933578575116423
0.811000000000000609,-0.097744446830502152
0.812000000000000610,-0.094599938265959013
0.813000000000000611,-0.091499804108265317
0.814000000000000612,-0.088443793194707895
0.815000000000000613,-0.085431652057121416
0.816000000000000614,-0.082463125004623175
0.817000000000000615,-0.079537954205106010
0.818000000000000616,-0.076655879765464105
0.819000000000000616,-0.073816639810567575
0.820000000000000617,-0.071019970561003093
0.821000000000000618,-0.068265606409597362
0.822000000000000619,-0.065553279996721850
0.823000000000000620,-0.062882722284394427
0.824000000000000621,-0.060253662629185169
0.825000000000000622,-0.057665828853954527
0.826000000000000623,-0.055118947318415691
0.827000000000000624,-0.052612742988532690
0.828000000000000624,-0.050146939504793077
0.829000000000000625,-0.047721259249311178
0.830000000000000626,-0.045335423411845252
0.831000000000000627,-0.042989152054677293
0.832000000000000628,-0.040682164176403954
0.833000000000000629,-0.038414177774625573
0.834000000000000630,-0.036184909907567994
0.835000000000000631,-0.033994076754632514
0.836000000000000631,-0.031841393675885774
0.837000000000000632,-0.029726575270516503
0.838000000000000633,-0.027649335434235468
0.839000000000000634,-0.025609387415680029
0.840000000000000635,-0.023606443871790856
0.841000000000000636,-0.021640216922184163
0.842000000000000637,-0.019710418202551271
0.843000000000000638,-0.017816758917063514
0.844000000000000639,-0.015958949889820901
0.845000000000000639,-0.014136701615335440
0.846000000000000640,-0.012349724308069345
0.847000000000000641,-0.010597727951056086
0.848000000000000642,-0.008880422343570985
0.849000000000000643,-0.007197517147899767
0.850000000000000644,-0.005548721935225792
0.851000000000000645,-0.003933746230580933
0.852000000000000646,-0.002352299556960308
0.853000000000000647,-0.000804091478538567
0.854000000000000647,0.000711168356961420
0.855000000000000648,0.002193770176757272
0.856000000000000649,0.003644004042319800
0.857000000000000650,0.005062159809532958
0.858000000000000651,0.006448527089662597
0.859000000000000652,0.007803395211130162
0.860000000000000653,0.009127053182086804
0.861000000000000654,0.010419789653785417
0.862000000000000655,0.011681892884704845
0.863000000000000655,0.012913650705475375
0.864000000000000656,0.014115350484528954
0.865000000000000657,0.015287279094523695
0.866000000000000658,0.016429722879492077
0.867000000000000659,0.017542967622710456
0.868000000000000660,0.018627298515311780
0.869000000000000661,0.019683000125587383
0.870000000000000662,0.020710356368991593
0.871000000000000663,0.021709650478833845
0.872000000000000663,0.022681164977667465
0.873000000000000664,0.023625181649329290
0.874000000000000665,0.024541981511654869
0.875000000000000666,0.025431844789837833
0.876000000000000667,0.026295050890444038
0.877000000000000668,0.027131878376048257
0.878000000000000669,0.027942604940504344
0.879000000000000670,0.028727507384836592
0.880000000000000671,0.029486861593721408
0.881000000000000671,0.030220942512598471
0.882000000000000672,0.030930024125338611
0.883000000000000673,0.031614379432524264
0.884000000000000674,0.032274280430281077
0.885000000000000675,0.032909998089692333
0.886000000000000676,0.033521802336759846
0.887000000000000677,0.034109962032915685
0.888000000000000678,0.034674744956084955
0.889000000000000679,0.035216417782262234
0.890000000000000679,0.035735246067632773
0.891000000000000680,0.036231494231193165
0.892000000000000681,0.036705425537895714
0.893000000000000682,0.037157302082286001
0.894000000000000683,0.037587384772638267
0.895000000000000684,0.037995933315568158
0.896000000000000685,0.038383206201134744
0.897000000000000686,0.038749460688411785
0.898000000000000687,0.039094952791506307
0.899000000000000687,0.039419937266065699
0.900000000000000688,0.039724667596198339
0.901000000000000689,0.040009395981864447
0.902000000000000690,0.040274373326680657
0.903000000000000691,0.040519849226164674
0.904000000000000692,0.040746071956399323
0.905000000000000693,0.040953288463108674
0.906000000000000694,0.041141744351135032
0.907000000000000695,0.041311683874332580
0.908000000000000695,0.041463349925834662
0.909000000000000696,0.041596984028729023
0.910000000000000697,0.041712826327092709
0.911000000000000698,0.041811115577419990
0.912000000000000699,0.041892089140406687
0.913000000000000700,0.041955982973094573
0.914000000000000701,0.042003031621391865
0.915000000000000702,0.042033468212908098
0.916000000000000703,0.042047524450167781
0.917000000000000703,0.042045430604134036
0.918000000000000704,0.042027415508084164
0.919000000000000705,0.041993706551795698
0.920000000000000706,0.041944529676059147
0.921000000000000707,0.041880109367506260
0.922000000000000708,0.041800668653746938
0.923000000000000709,0.041706429098794247
0.924000000000000710,0.041597610798817103
0.925000000000000711,0.041474432378152570
0.926000000000000711,0.041337110985627382
0.927000000000000712,0.041185862291147728
0.928000000000000713,0.041020900482575492
0.929000000000000714,0.040842438262860797
0.930000000000000715,0.040650686847461391
0.931000000000000716,0.040445855962005020
0.932000000000000717,0.040228153840205248
0.933000000000000718,0.039997787222056345
0.934000000000000719,0.039754961352234629
0.935000000000000719,0.039499879978769567
0.936000000000000720,0.039232745351944556
0.937000000000000721,0.038953758223423403
0.938000000000000722,0.038663117845608441
0.939000000000000723,0.038361021971225880
0.940000000000000724,0.038047666853118917
0.941000000000000725,0.037723247244266213
0.942000000000000726,0.037387956397998301
0.943000000000000727,0.037041986068431669
0.944000000000000727,0.036685526511093851
0.945000000000000728,0.036318766483745636
0.946000000000000729,0.035941893247409026
0.947000000000000730,0.035555092567562299
0.948000000000000731,0.035158548715541672
0.949000000000000732,0.034752444470103519
0.950000000000000733,0.034336961119184453
0.951000000000000734,0.033912278461807742
0.952000000000000735,0.033478574810187810
0.953000000000000735,0.033036026991981174
0.954000000000000736,0.032584810352700458
0.955000000000000737,0.032125098758297936
0.956000000000000738,0.031657064597887766
0.957000000000000739,0.031180878786630062
0.958000000000000740,0.030696710768762160
0.959000000000000741,0.030204728520766715
0.960000000000000742,0.029705098554687025
0.961000000000000743,0.029197985921578035
0.962000000000000743,0.028683554215088797
0.963000000000000744,0.028161965575181934
0.964000000000000745,0.027633380691968950
0.965000000000000746,0.027097958809686368
0.966000000000000747,0.026555857730776750
0.967000000000000748,0.026007233820104551
0.968000000000000749,0.025452242009266813
0.969000000000000750,0.024891035801042283
0.970000000000000751,0.024323767273920001
0.971000000000000751,0.023750587086762257
0.972000000000000752,0.023171644483561356
0.973000000000000753,0.022587087298278401
0.974000000000000754,0.021997061959817488
0.975000000000000755,0.021401713497063202
0.976000000000000756,0.020801185544026268
0.977000000000000757,0.020195620345079296
0.978000000000000758,0.019585158760277888
0.979000000000000759,0.018969940270758733
0.980000000000000759,0.018350102984237886
0.981000000000000760,0.017725783640581333
0.982000000000000761,0.017097117617439823
0.983000000000000762,0.016464238935983484
0.984000000000000763,0.015827280266700015
0.985000000000000764,0.015186372935245468
0.986000000000000765,0.014541646928399784
0.987000000000000766,0.013893230900058442
0.988000000000000766,0.013241252177300957
0.989000000000000767,0.012585836766519667
0.990000000000000768,0.011927109359608038
0.991000000000000769,0.011265193340212736
0.992000000000000770,0.010600210790032387
0.993000000000000771,0.009932282495171061
0.994000000000000772,0.009261527952557858
0.995000000000000773,0.008588065376393427
0.996000000000000774,0.007912011704667713
0.997000000000000774,0.007233482605708533
0.998000000000000775,0.006552592484780542
0.999000000000000776,0.005869454490725462
1.000000000000000666,0.005184180522645948
1.001000000000000778,0.004496881236622815
1.002000000000000668,0.003807666052477496
1.003000000000000780,0.003116643160563930
1.004000000000000670,0.002423919528596918
1.005000000000000782,0.001729600908511289
1.006000000000000671,0.001033791843356734
1.007000000000000783,0.000336595674217320
1.008000000000000673,-0.000361885452841221
1.009000000000000785,-0.001061550579794515
1.010000000000000675,-0.001762299929657923
1.011000000000000787,-0.002464034899467352
1.012000000000000677,-0.003166658053232077
1.013000000000000789,-0.003870073114869484
1.014000000000000679,-0.004574184961115522
1.015000000000000790,-0.005278899614429402
1.016000000000000680,-0.005984124235870128
1.017000000000000792,-0.006689767117960611
1.018000000000000682,-0.007395737677541303
1.019000000000000794,-0.008101946448607711
1.020000000000000684,-0.008808305075138969
1.021000000000000796,-0.009514726303913807
1.022000000000000686,-0.010221123977317241
1.023000000000000798,-0.010927413026144323
1.024000000000000687,-0.011633509462384775
1.025000000000000799,-0.012339330372022011
1.026000000000000689,-0.013044793907804530
1.027000000000000801,-0.013749819282032737
1.028000000000000691,-0.014454326759330949
1.029000000000000803,-0.015158237649425772
1.030000000000000693,-0.015861474299913136
1.031000000000000805,-0.016563960089045923
1.032000000000000695,-0.017265619418495089
1.033000000000000806,-0.017966377706139919
1.034000000000000696,-0.018666161378846618
1.035000000000000808,-0.019364897865247529
1.036000000000000698,-0.020062515588540639
1.037000000000000810,-0.020758943959286975
1.038000000000000700,-0.021454113368204492
1.039000000000000812,-0.022147955178986139
1.040000000000000702,-0.022840401721120635
1.041000000000000814,-0.023531386282719773
1.042000000000000703,-0.024220843103348679
1.043000000000000815,-0.024908707366888459
1.044000000000000705,-0.025594915194388789
1.045000000000000817,-0.026279403636937714
1.046000000000000707,-0.026962110668555382
1.047000000000000819,-0.027642975179088657
1.048000000000000709,-0.028321936967119800
1.049000000000000821,-0.028998936732903935
1.050000000000000711,-0.029673916071300710
1.051000000000000822,-0.030346817464746573
1.052000000000000712,-0.031017584276218563
1.053000000000000824,-0.031686160742236021
1.054000000000000714,-0.032352491965867439
1.055000000000000826,-0.033016523909761224
1.056000000000000716,-0.033678203389195076
1.057000000000000828,-0.034337478065143000
1.058000000000000718,-0.034994296437362869
1.059000000000000830,-0.035648607837503857
1.060000000000000719,-0.036300362422240787
1.061000000000000831,-0.036949511166418959
1.062000000000000721,-0.037596005856229166
1.063000000000000833,-0.038239799082409084
1.064000000000000723,-0.038880844233449702
1.065000000000000835,-0.039519095488846426
1.066000000000000725,-0.040154507812363724
1.067000000000000837,-0.040787036945314603
1.068000000000000727,-0.041416639399889960
1.069000000000000838,-0.042043272452482537
1.070000000000000728,-0.042666894137060901
1.071000000000000840,-0.043287463238553966
1.072000000000000730,-0.043904939286270532
1.073000000000000842,-0.044519282547337738
1.074000000000000732,-0.045130454020168603
1.075000000000000844,-0.045738415427962212
1.076000000000000734,-0.046343129212223465
1.077000000000000846,-0.046944558526312456
1.078000000000000735,-0.047542667229028550
1.079000000000000847,-0.048137419878204080
1.080000000000000737,-0.048728781724358905
1.081000000000000849,-0.049316718704342448
1.082000000000000739,-0.049901197435040602
1.083000000000000851,-0.050482185207091933
1.084000000000000741,-0.051059649978640723
1.085000000000000853,-0.051633560369113519
1.086000000000000743,-0.052203885653033411
1.087000000000000854,-0.052770595753859430
1.088000000000000744,-0.053333661237859972
1.089000000000000856,-0.053893053308005610
1.090000000000000746,-0.054448743797908185
1.091000000000000858,-0.055000705165784980
1.092000000000000748,-0.055548910488442307
1.093000000000000860,-0.056093333455314018
1.094000000000000750,-0.056633948362502205
1.095000000000000862,-0.057170730106876289
1.096000000000000751,-0.057703654180189953
1.097000000000000863,-0.058232696663222984
1.098000000000000753,-0.058757834219974804
1.099000000000000865,-0.059279044091876454
1.100000000000000755,-0.059796304092028206
1.101000000000000867,-0.060309592599489759
1.102000000000000757,-0.060818888553582619
1.103000000000000869,-0.061324171448239706
1.104000000000000759,-0.061825421326373184
1.105000000000000870,-0.062322618774293348
1.106000000000000760,-0.062815744916132579
1.107000000000000872,-0.063304781408338409
1.108000000000000762,-0.063789710434165772
1.109000000000000874,-0.064270514698221232
1.110000000000000764,-0.064747177421032365
1.111000000000000876,-0.065219682333650303
1.112000000000000766,-0.065688013672293794
1.113000000000000878,-0.066152156173013371
1.114000000000000767,-0.066612095066398008
1.115000000000000879,-0.067067816072308870
1.116000000000000769,-0.067519305394648593
1.117000000000000881,-0.067966549716166655
1.118000000000000771,-0.068409536193291903
1.119000000000000883,-0.068848252451001041
1.120000000000000773,-0.069282686577724031
1.121000000000000885,-0.069712827120272408
1.122000000000000774,-0.070138663078809949
1.123000000000000886,-0.070560183901854451
1.124000000000000776,-0.070977379481312469
1.125000000000000888,-0.071390240147538406
1.126000000000000778,-0.071798756664442340
1.127000000000000890,-0.072202920224623587
1.128000000000000780,-0.072602722444524995
1.129000000000000892,-0.072998155359646016
1.130000000000000782,-0.073389211419763220
1.131000000000000894,-0.073775883484198834
1.132000000000000783,-0.074158164817116096
1.133000000000000895,-0.074536049082853745
1.134000000000000785,-0.074909530341278813
1.135000000000000897,-0.075278603043193421
1.136000000000000787,-0.075643262025751487
1.137000000000000899,-0.076003502507927742
1.138000000000000789,-0.076359320085998800
1.139000000000000901,-0.076710710729086667
1.140000000000000790,-0.077057670774698162
1.141000000000000902,-0.077400196924318196
1.142000000000000792,-0.077738286239039445
1.143000000000000904,-0.078071936135209644
1.144000000000000794,-0.078401144380121107
1.145000000000000906,-0.078725909087719342
1.146000000000000796,-0.079046228714366867
1.147000000000000908,-0.079362102054614275
1.148000000000000798,-0.079673528237015998
1.149000000000000909,-0.079980506719977723
1.150000000000000799,-0.080283037287625508
1.151000000000000689,-0.080581120045722418
1.152000000000000801,-0.080874755417601155
1.153000000000000913,-0.081163944140137459
1.154000000000000803,-0.081448687259749117
1.155000000000000693,-0.081728986128426523
1.156000000000000805,-0.082004842399806363
1.157000000000000917,-0.082276258025247323
1.158000000000000806,-0.082543235249972563
1.159000000000000696,-0.082805776609214898
1.160000000000000808,-0.083063884924404210
1.161000000000000920,-0.083317563299384959
1.162000000000000810,-0.083566815116664195
1.163000000000000700,-0.083811644033682089
1.164000000000000812,-0.084052053979125144
1.165000000000000924,-0.084288049149256403
1.166000000000000814,-0.084519634004286887
1.167000000000000703,-0.084746813264767989
1.168000000000000815,-0.084969591908020073
1.169000000000000927,-0.085187975164580723
1.170000000000000817,-0.085401968514697502
1.171000000000000707,-0.085611577684832116
1.172000000000000819,-0.085816808644211540
1.173000000000000931,-0.086017667601393594
1.174000000000000821,-0.086214161000863487
1.175000000000000711,-0.086406295519671356
1.176000000000000822,-0.086594078064083493
1.177000000000000934,-0.086777515766268590
1.178000000000000824,-0.086956615981011925
1.179000000000000714,-0.087131386282452261
1.180000000000000826,-0.087301834460864161
1.181000000000000938,-0.087467968519440165
1.182000000000000828,-0.087629796671126040
1.183000000000000718,-0.087787327335470858
1.184000000000000830,-0.087940569135508434
1.185000000000000941,-0.088089530894657139
1.186000000000000831,-0.088234221633669355
1.187000000000000721,-0.088374650567578233
1.188000000000000833,-0.088510827102696130
1.189000000000000945,-0.088642760833624434
1.190000000000000835,-0.088770461540301479
1.191000000000000725,-0.088893939185056850
1.192000000000000837,-0.089013203909730956
1.193000000000000949,-0.089128266032766107
1.194000000000000838,-0.089239136046378148
1.195000000000000728,-0.089345824613713015
1.196000000000000840,-0.089448342566052025
1.197000000000000952,-0.089546700900039716
1.198000000000000842,-0.089640910774921340
1.199000000000000732,-0.089730983509832982
1.200000000000000844,-0.089816930581082977
1.201000000000000956,-0.089898763619495808
1.202000000000000846,-0.089976494407750532
1.203000000000000735,-0.090050134877756552
1.204000000000000847,-0.090119697108053426
1.205000000000000959,-0.090185193321238658
1.206000000000000849,-0.090246635881408965
1.207000000000000739,-0.090304037291635122
1.208000000000000851,-0.090357410191458667
1.209000000000000963,-0.090406767354410444
1.210000000000000853,-0.090452121685555026
1.211000000000000743,-0.090493486219056812
1.212000000000000854,-0.090530874115770182
1.213000000000000966,-0.090564298660853720
1.214000000000000856,-0.090593773261409896
1.215000000000000746,-0.090619311444138137
1.216000000000000858,-0.090640926853025078
1.217000000000000970,-0.090658633247044623
1.218000000000000860,-0.090672444497885529
1.219000000000000750,-0.090682374587707323
1.220000000000000862,-0.090688437606907993
1.221000000000000973,-0.090690647751917167
1.222000000000000863,-0.090689019323019357
1.223000000000000753,-0.090683566722184208
1.224000000000000865,-0.090674304450930471
1.225000000000000977,-0.090661247108212314
1.226000000000000867,-0.090644409388313113
1.227000000000000757,-0.090623806078776542
1.228000000000000869,-0.090599452058344451
1.229000000000000981,-0.090571362294937341
1.230000000000000870,-0.090539551843622348
1.231000000000000760,-0.090504035844635261
1.232000000000000872,-0.090464829521408191
1.233000000000000984,-0.090421948178603773
1.234000000000000874,-0.090375407200206162
1.235000000000000764,-0.090325222047590553
1.236000000000000876,-0.090271408257642863
1.237000000000000988,-0.090213981440884827
1.238000000000000878,-0.090152957279623594
1.239000000000000767,-0.090088351526118729
1.240000000000000879,-0.090020180000771652
1.241000000000000991,-0.089948458590328614
1.242000000000000881,-0.089873203246110020
1.243000000000000771,-0.089794429982253968
1.244000000000000883,-0.089712154873977407
1.245000000000000995,-0.089626394055862632
1.246000000000000885,-0.089537163720157437
1.247000000000000774,-0.089444480115090638
1.248000000000000886,-0.089348359543212505
1.249000000000000998,-0.089248818359752180
1.250000000000000888,-0.089145872970989290
1.251000000000000778,-0.089039539832644149
1.252000000000000890,-0.088929835448291888
1.253000000000001002,-0.088816776367782846
1.254000000000000892,-0.088700379185697162
1.255000000000000782,-0.088580660539794229
1.256000000000000894,-0.088457637109503287
1.257000000000001005,-0.088331325614412495
1.258000000000000895,-0.088201742812785991
1.259000000000000785,-0.088068905500091721
1.260000000000000897,-0.087932830507549492
1.261000000000001009,-0.087793534700694981
1.262000000000000899,-0.087651034977957260
1.263000000000000789,-0.087505348269257405
1.264000000000000901,-0.087356491534621480
1.265000000000001013,-0.087204481762805472
1.266000000000000902,-0.087049335969941979
1.267000000000000792,-0.086891071198201414
1.268000000000000904,-0.086729704514465905
1.269000000000001016,-0.086565253009021681
1.270000000000000906,-0.086397733794268461
1.271000000000000796,-0.086227164003436815
1.272000000000000908,-0.086053560789327313
1.273000000000001020,-0.085876941323066724
1.274000000000000909,-0.085697322792872316
1.275000000000000799,-0.085514722402830645
1.276000000000000911,-0.085329157371704142
1.277000000000001023,-0.085140644931733900
1.278000000000000913,-0.084949202327468554
1.279000000000000803,-0.084754846814606766
1.280000000000000915,-0.084557595658853069
1.281000000000001027,-0.084357466134775502
1.282000000000000917,-0.084154475524705924
1.283000000000000806,-0.083948641117622583
1.284000000000000918,-0.083739980208067347
1.285000000000001030,-0.083528510095067399
1.286000000000000920,-0.083314248081075584
1.287000000000000810,-0.083097211470915908
1.288000000000000922,-0.082877417570756451
1.289000000000001034,-0.082654883687078587
1.290000000000000924,-0.082429627125670452
1.291000000000000814,-0.082201665190635681
1.292000000000000925,-0.081971015183399373
1.293000000000001037,-0.081737694401749952
1.294000000000000927,-0.081501720138871719
1.295000000000000817,-0.081263109682399887
1.296000000000000929,-0.081021880313495831
1.297000000000001041,-0.080778049305912397
1.298000000000000931,-0.080531633925100654
1.299000000000000821,-0.080282651427303287
1.300000000000000933,-0.080031119058670150
1.301000000000001044,-0.079777054054392088
1.302000000000000934,-0.079520473637833322
1.303000000000000824,-0.079261395019690081
1.304000000000000936,-0.078999835397140894
1.305000000000001048,-0.078735811953035112
1.306000000000000938,-0.078469341855068292
1.307000000000000828,-0.078200442254981115
1.308000000000000940,-0.077929130287766629
1.309000000000001052,-0.077655423070893320
1.310000000000000941,-0.077379337703531101
1.311000000000000831,-0.077100891265790714
1.312000000000000943,-0.076820100817975134
1.313000000000001055,-0.076536983399851224
1.314000000000000945,-0.076251556029909767
1.315000000000000835,-0.075963835704651539
1.316000000000000947,-0.075673839397888729
1.317000000000001059,-0.075381584060041779
1.318000000000000949,-0.075087086617451268
1.319000000000000838,-0.074790363971711196
1.320000000000000950,-0.074491432998997173
1.321000000000001062,-0.074190310549408153
1.322000000000000952,-0.073887013446326949
1.323000000000000842,-0.073581558485778381
1.324000000000000954,-0.073273962435806833
1.325000000000001066,-0.072964242035854970
1.326000000000000956,-0.072652413996161583
1.327000000000000846,-0.072338494997156111
1.328000000000000957,-0.072022501688877832
1.329000000000001069,-0.071704450690387556
1.330000000000000959,-0.071384358589206220
1.331000000000000849,-0.071062241940746673
1.332000000000000961,-0.070738117267760053
1.333000000000001073,-0.070412001059796642
1.334000000000000963,-0.070083909772670649
1.335000000000000853,-0.069753859827927700
1.336000000000000965,-0.069421867612335347
1.337000000000001076,-0.069087949477368307
1.338000000000000966,-0.068752121738708233
1.339000000000000856,-0.068414400675754286
1.340000000000000968,-0.068074802531134376
1.341000000000001080,-0.067733343510231664
1.342000000000000970,-0.067390039780718169
1.343000000000000860,-0.067044907472091825
1.344000000000000972,-0.066697962675224681
1.345000000000001084,-0.066349221441924774
1.346000000000000973,-0.065998699784489370
1.347000000000000863,-0.065646413675287493
1.348000000000000975,-0.065292379046327981
1.349000000000001087,-0.064936611788854931
1.350000000000000977,-0.064579127752939919
1.351000000000000867,-0.064219942747081649
1.352000000000000979,-0.063859072537811187
1.353000000000001091,-0.063496532849318249
1.354000000000000981,-0.063132339363068099
1.355000000000000870,-0.062766507717427505
1.356000000000000982,-0.062399053507311966
1.357000000000001094,-0.062029992283825351
1.358000000000000984,-0.061659339553908787
1.359000000000000874,-0.061287110780003110
1.360000000000000986,-0.060913321379710360
1.361000000000001098,-0.060537986725471948
1.362000000000000988,-0.060161122144235614
1.363000000000000878,-0.059782742917151167
1.364000000000000989,-0.059402864279258061
1.365000000000001101,-0.059021501419177572
1.366000000000000991,-0.058638669478825248
1.367000000000000881,-0.058254383553117753
1.368000000000000993,-0.057868658689687970
1.369000000000001105,-0.057481509888608617
1.370000000000000995,-0.057092952102122882
1.371000000000000885,-0.056703000234377063
1.372000000000000997,-0.056311669141161112
1.373000000000001108,-0.055918973629659904
1.374000000000000998,-0.055524928458192992
1.375000000000000888,-0.055129548335992262
1.376000000000001000,-0.054732847922950169
1.377000000000001112,-0.054334841829393229
1.378000000000001002,-0.053935544615861732
1.379000000000000892,-0.053534970792885238
1.380000000000001004,-0.053133134820769881
1.381000000000001116,-0.052730051109393147
1.382000000000001005,-0.052325734017996561
1.383000000000000895,-0.051920197854987971
1.384000000000001007,-0.051513456877754105
1.385000000000001119,-0.051105525292465329
1.386000000000001009,-0.050696417253902303
1.387000000000000899,-0.050286146865266577
1.388000000000001011,-0.049874728178025761
1.389000000000001123,-0.049462175191726347
1.390000000000001013,-0.049048501853846113
1.391000000000000902,-0.048633722059628973
1.392000000000001014,-0.048217849651935055
1.393000000000001126,-0.047800898421091101
1.394000000000001016,-0.047382882104750432
1.395000000000000906,-0.046963814387748944
1.396000000000001018,-0.046543708901972056
1.397000000000001130,-0.046122579226228824
1.398000000000001020,-0.045700438886123379
1.399000000000000909,-0.045277301353933000
1.400000000000001021,-0.044853180048492751
1.401000000000001133,-0.044428088335087636
1.402000000000001023,-0.044002039525336177
1.403000000000000913,-0.043575046877089608
1.404000000000001025,-0.043147123594339157
1.405000000000001137,-0.042718282827110252
1.406000000000001027,-0.042288537671373930
1.407000000000000917,-0.041857901168969640
1.408000000000001029,-0.041426386307502429
1.409000000000001140,-0.040994006020279888
1.410000000000001030,-0.040560773186230456
1.411000000000000920,-0.040126700629830828
1.412000000000001032,-0.039691801121034889
1.413000000000001144,-0.039256087375220260
1.414000000000001034,-0.038819572053113677
1.415000000000000924,-0.038382267760741808
1.416000000000001036,-0.037944187049379394
1.417000000000001148,-0.037505342415494580
1.418000000000001037,-0.037065746300703785
1.419000000000000927,-0.036625411091728101
1.420000000000001039,-0.036184349120356521
1.421000000000001151,-0.035742572663408564
1.422000000000001041,-0.035300093942699701
1.423000000000000931,-0.034856925125013184
1.424000000000001043,-0.034413078322073229
1.425000000000001155,-0.033968565590523213
1.426000000000001044,-0.033523398931905132
1.427000000000000934,-0.033077590292642553
1.428000000000001046,-0.032631151564026628
1.429000000000001158,-0.032184094582204531
1.430000000000001048,-0.031736431128176382
1.431000000000000938,-0.031288172927783700
1.432000000000001050,-0.030839331651714225
1.433000000000001162,-0.030389918915501669
1.434000000000001052,-0.029939946279522338
1.435000000000000941,-0.029489425249015700
1.436000000000001053,-0.029038367274080455
1.437000000000001165,-0.028586783749695765
1.438000000000001055,-0.028134686015735228
1.439000000000000945,-0.027682085356978851
1.440000000000001057,-0.027228993003142448
1.441000000000001169,-0.026775420128892048
1.442000000000001059,-0.026321377853873777
1.443000000000000949,-0.025866877242746344
1.444000000000001060,-0.025411929305202523
1.445000000000001172,-0.024956544996004970
1.446000000000001062,-0.024500735215031690
1.447000000000000952,-0.024044510807297602
1.448000000000001064,-0.023587882563007569
1.449000000000001176,-0.023130861217595090
1.450000000000001066,-0.022673457451765085
1.451000000000000956,-0.022215681891543475
1.452000000000001068,-0.021757545108326004
1.453000000000001180,-0.021299057618931423
1.454000000000001069,-0.020840229885652074
1.455000000000000959,-0.020381072316313264
1.456000000000001071,-0.019921595264328313
1.457000000000001183,-0.019461809028762676
1.458000000000001073,-0.019001723854392250
1.459000000000000963,-0.018541349931768480
1.460000000000001075,-0.018080697397287734
1.461000000000001187,-0.017619776333253796
1.462000000000001076,-0.017158596767956374
1.463000000000000966,-0.016697168675732434
1.464000000000001078,-0.016235501977049566
1.465000000000001190,-0.015773606538578209
1.466000000000001080,-0.015311492173266448
1.467000000000000970,-0.014849168640424090
1.468000000000001082,-0.014386645645802049
1.469000000000001194,-0.013923932841672865
1.470000000000001084,-0.013461039826919475
1.471000000000000973,-0.012997976147117391
1.472000000000001085,-0.012534751294628560
1.473000000000001197,-0.012071374708683323
1.474000000000001087,-0.011607855775476994
1.475000000000000977,-0.011144203828259704
1.476000000000001089,-0.010680428147434510
1.477000000000001201,-0.010216537960649662
1.478000000000001091,-0.009752542442896379
1.479000000000000981,-0.009288450716609017
1.480000000000001092,-0.008824271851764048
1.481000000000001204,-0.008360014865984767
1.482000000000001094,-0.007895688724638939
1.483000000000000984,-0.007431302340950954
1.484000000000001096,-0.006966864576100867
1.485000000000001208,-0.006502384239331270
1.486000000000001098,-0.006037870088064495
1.487000000000000988,-0.005573330828004227
1.488000000000001100,-0.005108775113246722
1.489000000000001211,-0.004644211546399086
1.490000000000001101,-0.004179648678689080
1.491000000000000991,-0.003715095010077207
1.492000000000001103,-0.003250558989379526
1.493000000000001215,-0.002786049014379050
1.494000000000001105,-0.002321573431945356
1.495000000000000995,-0.001857140538155711
1.496000000000001107,-0.001392758578415615
1.497000000000001219,-0.000928435747577575
1.498000000000001108,-0.000464180190066217
1.499000000000000998,0.000000000000000000
