# hydroxyapatite-001-ph14_HIESCA-JS
# h[nm],U(h)[kJ/mol]
0.149999999999999994,95.283126478891233546
0.150999999999999995,93.529894249103989523
0.151999999999999996,91.506140051302537586
0.152999999999999997,89.475819786336984407
0.153999999999999998,87.529140892941711627
0.154999999999999999,85.675687076958737975
0.156000000000000000,83.894572874736894619
0.157000000000000001,82.159313139732532250
0.158000000000000002,80.448435809326866774
0.159000000000000002,78.748544761030373706
0.160000000000000003,77.053778383837453703
0.161000000000000004,75.363879901201414668
0.162000000000000005,73.682039270883223026
0.163000000000000006,72.013043051900581304
0.164000000000000007,70.361917994380888786
0.165000000000000008,68.733071190313779653
0.166000000000000009,67.129846409995721501
0.167000000000000010,65.554389528950309796
0.168000000000000010,64.007718915661229175
0.169000000000000011,62.489913194575493094
0.170000000000000012,61.000349675467063548
0.171000000000000013,59.537947006060143451
0.172000000000000014,58.101382936341849472
0.173000000000000015,56.689271686957866336
0.174000000000000016,55.300295335773796523
0.175000000000000017,53.933290332542220824
0.176000000000000018,52.587294334573165600
0.177000000000000018,51.261560652185345077
0.178000000000000019,49.955548266312788996
0.179000000000000020,48.668895104179611621
0.180000000000000021,47.401381405215587961
0.181000000000000022,46.152888858059434085
0.182000000000000023,44.923359939886864822
0.183000000000000024,43.712760675026487434
0.184000000000000025,42.521048933277654669
0.185000000000000026,41.348149453587396351
0.186000000000000026,40.193936022445157619
0.187000000000000027,39.058220656571791096
0.188000000000000028,37.940749222510511629
0.189000000000000029,36.841202651240607224
0.190000000000000030,35.759202750657834713
0.191000000000000031,34.694321559054550619
0.192000000000000032,33.646093196220469679
0.193000000000000033,32.614027235375978364
0.194000000000000034,31.597622721525368661
0.195000000000000034,30.596382085576482979
0.196000000000000035,29.609824337176952724
0.197000000000000036,28.637497053753055098
0.198000000000000037,27.678986812128755446
0.199000000000000038,26.733927827771946539
0.200000000000000039,25.802008672244731713
0.201000000000000040,24.882977030242688699
0.202000000000000041,23.976642533159246540
0.203000000000000042,23.082877766655599316
0.204000000000000042,22.201617596066157034
0.205000000000000043,21.332856986824417334
0.206000000000000044,20.476647518877584275
0.207000000000000045,19.633092805817380366
0.208000000000000046,18.802343032752236951
0.209000000000000047,17.984588823307639416
0.210000000000000048,17.180054636999255280
0.211000000000000049,16.388991884890899087
0.212000000000000050,15.611671935095660757
0.213000000000000050,14.848379161332928788
0.214000000000000051,14.099404168286303829
0.215000000000000052,13.365037307654329624
0.216000000000000053,12.645562579140758430
0.217000000000000054,11.941251991667726884
0.218000000000000055,11.252360442173758415
0.219000000000000056,10.579121152744306755
0.220000000000000057,9.921741691688733766
0.221000000000000058,9.280400590638858915
0.222000000000000058,8.655244557836478947
0.223000000000000059,8.046386277508538853
0.224000000000000060,7.453902776550323850
0.225000000000000061,6.877834332582352772
0.226000000000000062,6.318183891721083967
0.227000000000000063,5.774916959999487176
0.228000000000000064,5.247961929172886286
0.229000000000000065,4.737210795523843387
0.230000000000000066,4.242520229115689823
0.231000000000000066,3.763712950611405095
0.232000000000000067,3.300579373157952912
0.233000000000000068,2.852879467820792492
0.234000000000000069,2.420344812535543788
0.235000000000000070,2.002680786425860227
0.236000000000000071,1.599568873530617052
0.237000000000000072,1.210669042408238250
0.238000000000000073,0.835622170672767672
0.239000000000000073,0.474052486201622270
0.240000000000000074,0.125569999483273881
0.241000000000000075,-0.210227095698363786
0.242000000000000076,-0.533750073359652744
0.243000000000000077,-0.845417395696340890
0.244000000000000078,-1.145652517734927489
0.245000000000000079,-1.434881788850903561
0.246000000000000080,-1.713532461489360559
0.247000000000000081,-1.982030815312343819
0.248000000000000081,-2.240800403039474809
0.249000000000000082,-2.490260422449757094
0.250000000000000111,-2.730824217373838625
0.251000000000000112,-2.962897909025715482
0.252000000000000113,-3.186879157699554543
0.253000000000000114,-3.403156053683143334
0.254000000000000115,-3.612106135212842073
0.255000000000000115,-3.814095530404397749
0.256000000000000116,-4.009478219335259830
0.257000000000000117,-4.198595411817001022
0.258000000000000118,-4.381775035872651713
0.259000000000000119,-4.559331331515593000
0.260000000000000120,-4.731564544104260861
0.261000000000000121,-4.898760711311494376
0.262000000000000122,-5.061191537591924750
0.263000000000000123,-5.219114349945006559
0.264000000000000123,-5.372772128749490506
0.265000000000000124,-5.522393607477797950
0.266000000000000125,-5.668193435180641337
0.267000000000000126,-5.810372395755029729
0.268000000000000127,-5.949117678168051704
0.269000000000000128,-6.084603191996983185
0.270000000000000129,-6.216989922859598394
0.271000000000000130,-6.346426322541581122
0.272000000000000131,-6.473048728875996360
0.273000000000000131,-6.596981810689596770
0.274000000000000132,-6.718339033398076587
0.275000000000000133,-6.837223141104805890
0.276000000000000134,-6.953726651331573194
0.277000000000000135,-7.067932358783117763
0.278000000000000136,-7.179913844818481827
0.279000000000000137,-7.289735989567974528
0.280000000000000138,-7.397455483894871620
0.281000000000000139,-7.503121338653467198
0.282000000000000139,-7.606775388939236215
0.283000000000000140,-7.708452791261459325
0.284000000000000141,-7.808182511793228642
0.285000000000000142,-7.905987804067640567
0.286000000000000143,-8.001886674691924384
0.287000000000000144,-8.095892335842702181
0.288000000000000145,-8.188013643486328874
0.289000000000000146,-8.278255520436600179
0.290000000000000147,-8.366619363520348074
0.291000000000000147,-8.453103434267399408
0.292000000000000148,-8.537703232677676723
0.293000000000000149,-8.620411853742442787
0.294000000000000150,-8.701220326511947434
0.295000000000000151,-8.780117935606275736
0.296000000000000152,-8.857092525161359475
0.297000000000000153,-8.932130785288226349
0.298000000000000154,-9.005218521200967885
0.299000000000000155,-9.076340905237920254
0.300000000000000155,-9.145482712061978603
0.301000000000000156,-9.212628537379657701
0.302000000000000157,-9.277763000565933282
0.303000000000000158,-9.340870931621957141
0.304000000000000159,-9.401937542927791824
0.305000000000000160,-9.460948586280702344
0.306000000000000161,-9.517890495733677625
0.307000000000000162,-9.572750516767648321
0.308000000000000163,-9.625516822345261403
0.309000000000000163,-9.676178616404746080
0.310000000000000164,-9.724726225359226817
0.311000000000000165,-9.771151178170034868
0.312000000000000166,-9.815446275563449063
0.313000000000000167,-9.857605648957614264
0.314000000000000168,-9.897624809661916601
0.315000000000000169,-9.935500688904117084
0.316000000000000170,-9.971231669231864103
0.317000000000000171,-10.004817607824659120
0.318000000000000171,-10.036259852240331014
0.319000000000000172,-10.065561249107252806
0.320000000000000173,-10.092726146258881315
0.321000000000000174,-10.117760388792394366
0.322000000000000175,-10.140671309517149012
0.323000000000000176,-10.161467714242473193
0.324000000000000177,-10.180159862337218257
0.325000000000000178,-10.196759442976354393
0.326000000000000179,-10.211279547472781104
0.327000000000000179,-10.223734638074521541
0.328000000000000180,-10.234140513590329391
0.329000000000000181,-10.242514272189314539
0.330000000000000182,-10.248874271702423044
0.331000000000000183,-10.253240087737149011
0.332000000000000184,-10.255632469899440551
0.333000000000000185,-10.256073296400561645
0.334000000000000186,-10.254585527310331017
0.335000000000000187,-10.251193156702379738
0.336000000000000187,-10.245921163921854813
0.337000000000000188,-10.238795464190673101
0.338000000000000189,-10.229842858751476697
0.339000000000000190,-10.219090984737094985
0.340000000000000191,-10.206568264938871593
0.341000000000000192,-10.192303857634522402
0.342000000000000193,-10.176327606623313926
0.343000000000000194,-10.158669991604890370
0.344000000000000195,-10.139362079026042807
0.345000000000000195,-10.118435473509553191
0.346000000000000196,-10.095922269968133023
0.347000000000000197,-10.071855006497049345
0.348000000000000198,-10.046266618129489956
0.349000000000000199,-10.019190391529710027
0.350000000000000200,-9.990659920690827533
0.351000000000000201,-9.960709063695862397
0.352000000000000202,-9.929371900593368494
0.353000000000000203,-9.896682692431820527
0.354000000000000203,-9.862675841490331052
0.355000000000000204,-9.827385852736973959
0.356000000000000205,-9.790847296540267308
0.357000000000000206,-9.753094772654032241
0.358000000000000207,-9.714162875490391258
0.359000000000000208,-9.674086160691519609
0.360000000000000209,-9.632899113005997549
0.361000000000000210,-9.590636115471713907
0.362000000000000210,-9.547331419903594352
0.363000000000000211,-9.503019118680960275
0.364000000000000212,-9.457733117826226277
0.365000000000000213,-9.411507111363730971
0.366000000000000214,-9.364374556944973449
0.367000000000000215,-9.316368652724019483
0.368000000000000216,-9.267522315465004823
0.369000000000000217,-9.217868159861316357
0.370000000000000218,-9.167438479044800914
0.371000000000000218,-9.116265226261415222
0.372000000000000219,-9.064379997688735813
0.373000000000000220,-9.011814016369353197
0.374000000000000221,-8.958598117233369962
0.375000000000000222,-8.904762733182119305
0.376000000000000223,-8.850337882204849294
0.377000000000000224,-8.795353155499231690
0.378000000000000225,-8.739837706566287778
0.379000000000000226,-8.683820241249858185
0.380000000000000226,-8.627329008690718837
0.381000000000000227,-8.570391793164901628
0.382000000000000228,-8.513035906776252659
0.383000000000000229,-8.455288182972855893
0.384000000000000230,-8.397174970857189891
0.385000000000000231,-8.338722130260279641
0.386000000000000232,-8.279955027549897650
0.387000000000000233,-8.220898532143673165
0.388000000000000234,-8.161577013697804972
0.389000000000000234,-8.102014339942975596
0.390000000000000235,-8.042233875139027433
0.391000000000000236,-7.982258479120810435
0.392000000000000237,-7.922110506907832139
0.393000000000000238,-7.861811808851148164
0.394000000000000239,-7.801383731291146262
0.395000000000000240,-7.740847117700835334
0.396000000000000241,-7.680222310289600784
0.397000000000000242,-7.619529152042986198
0.398000000000000242,-7.558786989174954840
0.399000000000000243,-7.498014673969372268
0.400000000000000244,-7.437230567988312835
0.401000000000000245,-7.376452545625484802
0.402000000000000246,-7.315697997983501288
0.403000000000000247,-7.254983837054567175
0.404000000000000248,-7.194326500184766715
0.405000000000000249,-7.133741954802769847
0.406000000000000250,-7.073245703394380079
0.407000000000000250,-7.012852788705098206
0.408000000000000251,-6.952577799153400129
0.409000000000000252,-6.892434874438174930
0.410000000000000253,-6.832437711324258700
0.411000000000000254,-6.772599569590747492
0.412000000000000255,-6.712933278127261261
0.413000000000000256,-6.653451241164061614
0.414000000000000257,-6.594165444622289485
0.415000000000000258,-6.535087462571456562
0.416000000000000258,-6.476228463781588118
0.417000000000000259,-6.417599218358184032
0.418000000000000260,-6.359210104448595580
0.419000000000000261,-6.301071115008905821
0.420000000000000262,-6.243191864621017828
0.421000000000000263,-6.185581596350083977
0.422000000000000264,-6.128249188632852729
0.423000000000000265,-6.071203162188014701
0.424000000000000266,-6.014451686940217812
0.425000000000000266,-5.958002588949542044
0.426000000000000267,-5.901863357338983818
0.427000000000000268,-5.846041151212705067
0.428000000000000269,-5.790542806558286237
0.429000000000000270,-5.735374843126633593
0.430000000000000271,-5.680543471283405310
0.431000000000000272,-5.626054598826446984
0.432000000000000273,-5.571913837763803556
0.433000000000000274,-5.518126511047418248
0.434000000000000274,-5.464697659257791607
0.435000000000000275,-5.411632047235310772
0.436000000000000276,-5.358934170654233498
0.437000000000000277,-5.306608262535430498
0.438000000000000278,-5.254658299694571433
0.439000000000000279,-5.203088009122471824
0.440000000000000280,-5.151900874294564225
0.441000000000000281,-5.101100141406884170
0.442000000000000282,-5.050688825536044035
0.443000000000000282,-5.000669716720858027
0.444000000000000283,-4.951045385963680268
0.445000000000000284,-4.901818191149528658
0.446000000000000285,-4.852990282881277651
0.447000000000000286,-4.804563610229658721
0.448000000000000287,-4.756539926396456508
0.449000000000000288,-4.708920794290082590
0.450000000000000289,-4.661707592012303891
0.451000000000000290,-4.614901518255452473
0.452000000000000290,-4.568503597609375078
0.453000000000000291,-4.522514685777593968
0.454000000000000292,-4.476935474702264273
0.455000000000000293,-4.431766497597601884
0.456000000000000294,-4.387008133891675321
0.457000000000000295,-4.342660614076410575
0.458000000000000296,-4.298724024465887972
0.459000000000000297,-4.255198311863054528
0.460000000000000298,-4.212083288135046288
0.461000000000000298,-4.169378634697460839
0.462000000000000299,-4.127083906907951238
0.463000000000000300,-4.085198538369557930
0.464000000000000301,-4.043721845144374605
0.465000000000000302,-4.002653029878135094
0.466000000000000303,-3.961991185836299501
0.467000000000000304,-3.921735300852442485
0.468000000000000305,-3.881884261189665786
0.469000000000000306,-3.842436855315831679
0.470000000000000306,-3.803391777593552181
0.471000000000000307,-3.764747631885688950
0.472000000000000308,-3.726502935077481204
0.473000000000000309,-3.688656120516110803
0.474000000000000310,-3.651205541368812924
0.475000000000000311,-3.614149473900476917
0.476000000000000312,-3.577486120671942160
0.477000000000000313,-3.541213613659845549
0.478000000000000314,-3.505330017299316925
0.479000000000000314,-3.469833331450565161
0.480000000000000315,-3.434721494290443822
0.481000000000000316,-3.399992385130251371
0.482000000000000317,-3.365643827160798018
0.483000000000000318,-3.331673590126021711
0.484000000000000319,-3.298079392926234199
0.485000000000000320,-3.264858906152257934
0.486000000000000321,-3.232009754551589342
0.487000000000000322,-3.199529519427788848
0.488000000000000322,-3.167415740974270033
0.489000000000000323,-3.135665920543734053
0.490000000000000324,-3.104277522854377747
0.491000000000000325,-3.073247978134092229
0.492000000000000326,-3.042574684203798174
0.493000000000000327,-3.012255008501158127
0.494000000000000328,-2.982286290045772059
0.495000000000000329,-2.952665841347065445
0.496000000000000330,-2.923390950255989384
0.497000000000000330,-2.894458881761731384
0.498000000000000331,-2.865866879734495054
0.499000000000000332,-2.837612168615590846
0.500000000000000333,-2.809691955055853452
0.501000000000000334,-2.782103429503538727
0.502000000000000335,-2.754843767742794824
0.503000000000000336,-2.727910132383809749
0.504000000000000337,-2.701299674305655873
0.505000000000000338,-2.675009534052938953
0.506000000000000338,-2.649036843187284607
0.507000000000000339,-2.623378725594671668
0.508000000000000340,-2.598032298749650248
0.509000000000000341,-2.572994674937473913
0.510000000000000342,-2.548262962435073664
0.511000000000000343,-2.523834266651905356
0.512000000000000344,-2.499705691231588478
0.513000000000000345,-2.475874339115320844
0.514000000000000346,-2.452337313567978239
0.515000000000000346,-2.429091719167805863
0.516000000000000347,-2.406134662760603948
0.517000000000000348,-2.383463254379349472
0.518000000000000349,-2.361074608130003138
0.519000000000000350,-2.338965843044483517
0.520000000000000351,-2.317134083901568609
0.521000000000000352,-2.295576462016581054
0.522000000000000353,-2.274290116000645678
0.523000000000000353,-2.253272192490325843
0.524000000000000354,-2.232519846848433964
0.525000000000000355,-2.212030243836731191
0.526000000000000356,-2.191800558261307597
0.527000000000000357,-2.171827975591392068
0.528000000000000358,-2.152109692552216735
0.529000000000000359,-2.132642917692780138
0.530000000000000360,-2.113424871929068249
0.531000000000000361,-2.094452789063507403
0.532000000000000361,-2.075723916281240644
0.533000000000000362,-2.057235514623925177
0.534000000000000363,-2.038984859441654418
0.535000000000000364,-2.020969240823636603
0.536000000000000365,-2.003185964008234787
0.537000000000000366,-1.985632349772975092
0.538000000000000367,-1.968305734805053220
0.539000000000000368,-1.951203472053000043
0.540000000000000369,-1.934322931059944128
0.541000000000000369,-1.917661498279124910
0.542000000000000370,-1.901216577372105476
0.543000000000000371,-1.884985589490227653
0.544000000000000372,-1.868965973539837844
0.545000000000000373,-1.853155186431752810
0.546000000000000374,-1.837550703315434131
0.547000000000000375,-1.822150017798366717
0.548000000000000376,-1.806950642151110786
0.549000000000000377,-1.791950107498439637
0.550000000000000377,-1.777145963997006861
0.551000000000000378,-1.762535781000003521
0.552000000000000379,-1.748117147209184763
0.553000000000000380,-1.733887670814688420
0.554000000000000381,-1.719844979623019965
0.555000000000000382,-1.705986721173645027
0.556000000000000383,-1.692310562844473010
0.557000000000000384,-1.678814191946702339
0.558000000000000385,-1.665495315809294441
0.559000000000000385,-1.652351661853490139
0.560000000000000386,-1.639380977657660221
0.561000000000000387,-1.626581031012851231
0.562000000000000388,-1.613949609969333565
0.563000000000000389,-1.601484522874473182
0.564000000000000390,-1.589183598402207354
0.565000000000000391,-1.577044685574472638
0.566000000000000392,-1.565065653774798893
0.567000000000000393,-1.553244392754442149
0.568000000000000393,-1.541578812631230422
0.569000000000000394,-1.530066843881473959
0.570000000000000395,-1.518706437325149317
0.571000000000000396,-1.507495564104613051
0.572000000000000397,-1.496432215657126807
0.573000000000000398,-1.485514403681365225
0.574000000000000399,-1.474740160098223507
0.575000000000000400,-1.464107537006054560
0.576000000000000401,-1.453614606630632800
0.577000000000000401,-1.443259461270027799
0.578000000000000402,-1.433040213234584082
0.579000000000000403,-1.422954994782199112
0.580000000000000404,-1.413001958049158180
0.581000000000000405,-1.403179274976624979
0.582000000000000406,-1.393485137233038795
0.583000000000000407,-1.383917756132565513
0.584000000000000408,-1.374475362549790525
0.585000000000000409,-1.365156206830805186
0.586000000000000409,-1.355958558700866678
0.587000000000000410,-1.346880707168783387
0.588000000000000411,-1.337920960428173434
0.589000000000000412,-1.329077645755758486
0.590000000000000413,-1.320349109406817156
0.591000000000000414,-1.311733716507960557
0.592000000000000415,-1.303229850947358548
0.593000000000000416,-1.294835915262531945
0.594000000000000417,-1.286550330525853658
0.595000000000000417,-1.278371536227912442
0.596000000000000418,-1.270297990158766321
0.597000000000000419,-1.262328168287333297
0.598000000000000420,-1.254460564638901099
0.599000000000000421,-1.246693691170963847
0.600000000000000422,-1.239026077647437774
0.601000000000000423,-1.231456271511372602
0.602000000000000424,-1.223982837756261599
0.603000000000000425,-1.216604358796045116
0.604000000000000425,-1.209319434333886445
0.605000000000000426,-1.202126681229822802
0.606000000000000427,-1.195024733367405112
0.607000000000000428,-1.188012241519308620
0.608000000000000429,-1.181087873212169237
0.609000000000000430,-1.174250312590509715
0.610000000000000431,-1.167498260280044553
0.611000000000000432,-1.160830433250268801
0.612000000000000433,-1.154245564676484204
0.613000000000000433,-1.147742403801335964
0.614000000000000434,-1.141319715795880319
0.615000000000000435,-1.134976281620271310
0.616000000000000436,-1.128710897884134035
0.617000000000000437,-1.122522376706684977
0.618000000000000438,-1.116409545576630524
0.619000000000000439,-1.110371247211916046
0.620000000000000440,-1.104406339419393923
0.621000000000000441,-1.098513694954428299
0.622000000000000441,-1.092692201380516925
0.623000000000000442,-1.086940760928945204
0.624000000000000443,-1.081258290358549923
0.625000000000000444,-1.075643720815622428
0.626000000000000445,-1.070095997693978784
0.627000000000000446,-1.064614080495265069
0.628000000000000447,-1.059196942689521359
0.629000000000000448,-1.053843571576035476
0.630000000000000449,-1.048552968144535580
0.631000000000000449,-1.043324146936747576
0.632000000000000450,-1.038156135908353539
0.633000000000000451,-1.033047976291390668
0.634000000000000452,-1.027998722457097447
0.635000000000000453,-1.023007441779262283
0.636000000000000454,-1.018073214498082857
0.637000000000000455,-1.013195133584585239
0.638000000000000456,-1.008372304605592129
0.639000000000000457,-1.003603845589305488
0.640000000000000457,-0.998888886891505789
0.641000000000000458,-0.994226571062367781
0.642000000000000459,-0.989616052713978567
0.643000000000000460,-0.985056498388492963
0.644000000000000461,-0.980547086427025483
0.645000000000000462,-0.976087006839240545
0.646000000000000463,-0.971675461173678534
0.647000000000000464,-0.967311662388841809
0.648000000000000465,-0.962994834725048543
0.649000000000000465,-0.958724213577054507
0.650000000000000466,-0.954499045367494525
0.651000000000000467,-0.950318587421105976
0.652000000000000468,-0.946182107839794284
0.653000000000000469,-0.942088885378515095
0.654000000000000470,-0.938038209322016980
0.655000000000000471,-0.934029379362423695
0.656000000000000472,-0.930061705477686851
0.657000000000000473,-0.926134507810899676
0.658000000000000473,-0.922247116550511725
0.659000000000000474,-0.918398871811413109
0.660000000000000475,-0.914589123516923785
0.661000000000000476,-0.910817231281672135
0.662000000000000477,-0.907082564295401239
0.663000000000000478,-0.903384501207663781
0.664000000000000479,-0.899722430013467855
0.665000000000000480,-0.896095747939794185
0.666000000000000481,-0.892503861333106663
0.667000000000000481,-0.888946185547722090
0.668000000000000482,-0.885422144835176672
0.669000000000000483,-0.881931172234481919
0.670000000000000484,-0.878472709463343215
0.671000000000000485,-0.875046206810309313
0.672000000000000486,-0.871651123027861074
0.673000000000000487,-0.868286925226462336
0.674000000000000488,-0.864953088769522260
0.675000000000000488,-0.861649097169321032
0.676000000000000489,-0.858374441983892011
0.677000000000000490,-0.855128622714812936
0.678000000000000491,-0.851911146705974121
0.679000000000000492,-0.848721529043275025
0.680000000000000493,-0.845559292455250855
0.681000000000000494,-0.842423967214670610
0.682000000000000495,-0.839315091041036743
0.683000000000000496,-0.836232209004056815
0.684000000000000496,-0.833174873428019325
0.685000000000000497,-0.830142643797122881
0.686000000000000498,-0.827135086661733632
0.687000000000000499,-0.824151775545555743
0.688000000000000500,-0.821192290853738016
0.689000000000000501,-0.818256219781902550
0.690000000000000502,-0.815343156226089105
0.691000000000000503,-0.812452700693611640
0.692000000000000504,-0.809584460214820112
0.693000000000000504,-0.806738048255798312
0.694000000000000505,-0.803913084631913355
0.695000000000000506,-0.801109195422321840
0.696000000000000507,-0.798326012885328229
0.697000000000000508,-0.795563175374649378
0.698000000000000509,-0.792820327256570589
0.699000000000000510,-0.790097118827973621
0.700000000000000511,-0.787393206235241672
0.701000000000000512,-0.784708251394045542
0.702000000000000512,-0.782041921909979343
0.703000000000000513,-0.779393891000078720
0.704000000000000514,-0.776763837415182179
0.705000000000000515,-0.774151445363143287
0.706000000000000516,-0.771556404432892973
0.707000000000000517,-0.768978409519352479
0.708000000000000518,-0.766417160749147897
0.709000000000000519,-0.763872363407205546
0.710000000000000520,-0.761343727864119302
0.711000000000000520,-0.758830969504371011
0.712000000000000521,-0.756333808655355933
0.713000000000000522,-0.753851970517195880
0.714000000000000523,-0.751385185093389252
0.715000000000000524,-0.748933187122212574
0.716000000000000525,-0.746495716008958365
0.717000000000000526,-0.744072515758916753
0.718000000000000527,-0.741663334911152217
0.719000000000000528,-0.739267926473045733
0.720000000000000528,-0.736886047855624282
0.721000000000000529,-0.734517460809597789
0.722000000000000530,-0.732161931362214968
0.723000000000000531,-0.729819229754809506
0.724000000000000532,-0.727489130381118287
0.725000000000000533,-0.725171411726335813
0.726000000000000534,-0.722865856306868393
0.727000000000000535,-0.720572250610846954
0.728000000000000536,-0.718290385039325074
0.729000000000000536,-0.716020053848208660
0.730000000000000537,-0.713761055090882945
0.731000000000000538,-0.711513190561523512
0.732000000000000539,-0.709276265739123390
0.733000000000000540,-0.707050089732184528
0.734000000000000541,-0.704834475224099144
0.735000000000000542,-0.702629238419194557
0.736000000000000543,-0.700434198989458912
0.737000000000000544,-0.698249180021911942
0.738000000000000544,-0.696074007966641095
0.739000000000000545,-0.693908512585478920
0.740000000000000546,-0.691752526901328713
0.741000000000000547,-0.689605887148109109
0.742000000000000548,-0.687468432721372147
0.743000000000000549,-0.685340006129480539
0.744000000000000550,-0.683220452945454637
0.745000000000000551,-0.681109621759412587
0.746000000000000552,-0.679007364131611668
0.747000000000000552,-0.676913534546104367
0.748000000000000553,-0.674827990364965435
0.749000000000000554,-0.672750591783127794
0.750000000000000555,-0.670681201783791425
0.751000000000000556,-0.668619686094402477
0.752000000000000557,-0.666565913143224553
0.753000000000000558,-0.664519754016436592
0.754000000000000559,-0.662481082415829703
0.755000000000000560,-0.660449774617029028
0.756000000000000560,-0.658425709428279160
0.757000000000000561,-0.656408768149757682
0.758000000000000562,-0.654398834533423956
0.759000000000000563,-0.652395794743422242
0.760000000000000564,-0.650399537316973531
0.761000000000000565,-0.648409953125815064
0.762000000000000566,-0.646426935338137554
0.763000000000000567,-0.644450379381033112
0.764000000000000568,-0.642480182903443553
0.765000000000000568,-0.640516245739621182
0.766000000000000569,-0.638558469873053092
0.767000000000000570,-0.636606759400903499
0.768000000000000571,-0.634661020498897388
0.769000000000000572,-0.632721161386727404
0.770000000000000573,-0.630787092293885410
0.771000000000000574,-0.628858725425996079
0.772000000000000575,-0.626935974931582374
0.773000000000000576,-0.625018756869301084
0.774000000000000576,-0.623106989175622572
0.775000000000000577,-0.621200591632962151
0.776000000000000578,-0.619299485838233132
0.777000000000000579,-0.617403595171863495
0.778000000000000580,-0.615512844767207468
0.779000000000000581,-0.613627161480413408
0.780000000000000582,-0.611746473860684370
0.781000000000000583,-0.609870712120981207
0.782000000000000584,-0.607999808109112250
0.783000000000000584,-0.606133695279234663
0.784000000000000585,-0.604272308663770019
0.785000000000000586,-0.602415584845693908
0.786000000000000587,-0.600563461931237663
0.787000000000000588,-0.598715879522964789
0.788000000000000589,-0.596872778693222417
0.789000000000000590,-0.595034101957999217
0.790000000000000591,-0.593199793251123708
0.791000000000000592,-0.591369797898850136
0.792000000000000592,-0.589544062594806184
0.793000000000000593,-0.587722535375295618
0.794000000000000594,-0.585905165594959421
0.795000000000000595,-0.584091903902802745
0.796000000000000596,-0.582282702218529957
0.797000000000000597,-0.580477513709273030
0.798000000000000598,-0.578676292766621914
0.799000000000000599,-0.576878994984003524
0.800000000000000600,-0.575085577134394010
0.801000000000000600,-0.573295997148352554
0.802000000000000601,-0.571510214092376345
0.803000000000000602,-0.569728188147575643
0.804000000000000603,-0.567949880588676015
0.805000000000000604,-0.566175253763315345
0.806000000000000605,-0.564404271071641150
0.807000000000000606,-0.562636896946245524
0.808000000000000607,-0.560873096832361862
0.809000000000000608,-0.559112837168373900
0.810000000000000608,-0.557356085366630949
0.811000000000000609,-0.555602809794513375
0.812000000000000610,-0.553852979755830033
0.813000000000000611,-0.552106565472451849
0.814000000000000612,-0.550363538066256708
0.815000000000000613,-0.548623869541341458
0.816000000000000614,-0.546887532766481388
0.817000000000000615,-0.545154501457886576
0.818000000000000616,-0.543424750162214920
0.819000000000000616,-0.541698254239832311
0.820000000000000617,-0.539974989848335141
0.821000000000000618,-0.538254933926339163
0.822000000000000619,-0.536538064177513485
0.823000000000000620,-0.534824359054845933
0.824000000000000621,-0.533113797745168094
0.825000000000000622,-0.531406360153924284
0.826000000000000623,-0.529702026890169431
0.827000000000000624,-0.528000779251802665
0.828000000000000624,-0.526302599211037392
0.829000000000000625,-0.524607469400091175
0.830000000000000626,-0.522915373097112890
0.831000000000000627,-0.521226294212321806
0.832000000000000628,-0.519540217274384375
0.833000000000000629,-0.517857127416974428
0.834000000000000630,-0.516177010365583611
0.835000000000000631,-0.514499852424520343
0.836000000000000631,-0.512825640464125709
0.837000000000000632,-0.511154361908196853
0.838000000000000633,-0.509486004721599994
0.839000000000000634,-0.507820557398100614
0.840000000000000635,-0.506158008948386584
0.841000000000000636,-0.504498348888269166
0.842000000000000637,-0.502841567227110264
0.843000000000000638,-0.501187654456399900
0.844000000000000639,-0.499536601538551395
0.845000000000000639,-0.497888399895866585
0.846000000000000640,-0.496243041399679785
0.847000000000000641,-0.494600518359703312
0.848000000000000642,-0.492960823513515833
0.849000000000000643,-0.491323950016250399
0.850000000000000644,-0.489689891430460267
0.851000000000000645,-0.488058641716117403
0.852000000000000646,-0.486430195220826866
0.853000000000000647,-0.484804546670172698
0.854000000000000647,-0.483181691158233062
0.855000000000000648,-0.481561624138268030
0.856000000000000649,-0.479944341413553299
0.857000000000000650,-0.478329839128381451
0.858000000000000651,-0.476718113759199202
0.859000000000000652,-0.475109162105914418
0.860000000000000653,-0.473502981283353830
0.861000000000000654,-0.471899568712843553
0.862000000000000655,-0.470298922113973894
0.863000000000000655,-0.468701039496467575
0.864000000000000656,-0.467105919152224047
0.865000000000000657,-0.465513559647474318
0.866000000000000658,-0.463923959815099596
0.867000000000000659,-0.462337118747069731
0.868000000000000660,-0.460753035787012322
0.869000000000000661,-0.459171710522925547
0.870000000000000662,-0.457593142780012840
0.871000000000000663,-0.456017332613657345
0.872000000000000663,-0.454444280302497838
0.873000000000000664,-0.452873986341659152
0.874000000000000665,-0.451306451436080114
0.875000000000000666,-0.449741676493982556
0.876000000000000667,-0.448179662620442065
0.877000000000000668,-0.446620411111086857
0.878000000000000669,-0.445063923445914500
0.879000000000000670,-0.443510201283206840
0.880000000000000671,-0.441959246453580423
0.881000000000000671,-0.440411060954121747
0.882000000000000672,-0.438865646942659560
0.883000000000000673,-0.437323006732117547
0.884000000000000674,-0.435783142784996524
0.885000000000000675,-0.434246057707937727
0.886000000000000676,-0.432711754246413893
0.887000000000000677,-0.431180235279502166
0.888000000000000678,-0.429651503814756919
0.889000000000000679,-0.428125562983202201
0.890000000000000679,-0.426602416034392973
0.891000000000000680,-0.425082066331594344
0.892000000000000681,-0.423564517347041147
0.893000000000000682,-0.422049772657291988
0.894000000000000683,-0.420537835938677496
0.895000000000000684,-0.419028710962842166
0.896000000000000685,-0.417522401592364756
0.897000000000000686,-0.416018911776472433
0.898000000000000687,-0.414518245546841357
0.899000000000000687,-0.413020407013476032
0.900000000000000688,-0.411525400360676641
0.901000000000000689,-0.410033229843084324
0.902000000000000690,-0.408543899781818431
0.903000000000000691,-0.407057414560673181
0.904000000000000692,-0.405573778622411063
0.905000000000000693,-0.404092996465121090
0.906000000000000694,-0.402615072638664973
0.907000000000000695,-0.401140011741177027
0.908000000000000695,-0.399667818415668674
0.909000000000000696,-0.398198497346670233
0.910000000000000697,-0.396732053256975969
0.911000000000000698,-0.395268490904431835
0.912000000000000699,-0.393807815078811074
0.913000000000000700,-0.392350030598758281
0.914000000000000701,-0.390895142308773313
0.915000000000000702,-0.389443155076303227
0.916000000000000703,-0.387994073788861527
0.917000000000000703,-0.386547903351234734
0.918000000000000704,-0.385104648682739747
0.919000000000000705,-0.383664314714541654
0.920000000000000706,-0.382226906387047871
0.921000000000000707,-0.380792428647339976
0.922000000000000708,-0.379360886446677537
0.923000000000000709,-0.377932284738068280
0.924000000000000710,-0.376506628473865235
0.925000000000000711,-0.375083922603456021
0.926000000000000711,-0.373664172070978906
0.927000000000000712,-0.372247381813108624
0.928000000000000713,-0.370833556756888727
0.929000000000000714,-0.369422701817625154
0.930000000000000715,-0.368014821896814615
0.931000000000000716,-0.366609921880136691
0.932000000000000717,-0.365208006635498128
0.933000000000000718,-0.363809081011113089
0.934000000000000719,-0.362413149833643922
0.935000000000000719,-0.361020217906385443
0.936000000000000720,-0.359630290007489750
0.937000000000000721,-0.358243370888242985
0.938000000000000722,-0.356859465271394338
0.939000000000000723,-0.355478577849509647
0.940000000000000724,-0.354100713283386492
0.941000000000000725,-0.352725876200503163
0.942000000000000726,-0.351354071193516582
0.943000000000000727,-0.349985302818788091
0.944000000000000727,-0.348619575594968645
0.945000000000000728,-0.347256894001612693
0.946000000000000729,-0.345897262477821876
0.947000000000000730,-0.344540685420954895
0.948000000000000731,-0.343187167185341702
0.949000000000000732,-0.341836712081069305
0.950000000000000733,-0.340489324372766355
0.951000000000000734,-0.339145008278467608
0.952000000000000735,-0.337803767968473001
0.953000000000000735,-0.336465607564258584
0.954000000000000736,-0.335130531137431631
0.955000000000000737,-0.333798542708701462
0.956000000000000738,-0.332469646246895179
0.957000000000000739,-0.331143845667997205
0.958000000000000740,-0.329821144834227920
0.959000000000000741,-0.328501547553145978
0.960000000000000742,-0.327185057576793892
0.961000000000000743,-0.325871678600856085
0.962000000000000743,-0.324561414263858317
0.963000000000000744,-0.323254268146392187
0.964000000000000745,-0.321950243770377786
0.965000000000000746,-0.320649344598333164
0.966000000000000747,-0.319351574032690710
0.967000000000000748,-0.318056935415127140
0.968000000000000749,-0.316765432025939098
0.969000000000000750,-0.315477067083414608
0.970000000000000751,-0.314191843743262811
0.971000000000000751,-0.312909765098039971
0.972000000000000752,-0.311630834176612859
0.973000000000000753,-0.310355053943661974
0.974000000000000754,-0.309082427299171847
0.975000000000000755,-0.307812957077977234
0.976000000000000756,-0.306546646049315696
0.977000000000000757,-0.305283496916405273
0.978000000000000758,-0.304023512316043021
0.979000000000000759,-0.302766694818237980
0.980000000000000759,-0.301513046925834360
0.981000000000000760,-0.300262571074189466
0.982000000000000761,-0.299015269630856895
0.983000000000000762,-0.297771144895280393
0.984000000000000763,-0.296530199098518743
0.985000000000000764,-0.295292434402995407
0.986000000000000765,-0.294057852902247396
0.987000000000000766,-0.292826456620707221
0.988000000000000766,-0.291598247513495612
0.989000000000000767,-0.290373227466243278
0.990000000000000768,-0.289151398294914652
0.991000000000000769,-0.287932761745651189
0.992000000000000770,-0.286717319494637246
0.993000000000000771,-0.285505073147988730
0.994000000000000772,-0.284296024241629808
0.995000000000000773,-0.283090174241222015
0.996000000000000774,-0.281887524542074941
0.997000000000000774,-0.280688076469095327
0.998000000000000775,-0.279491831276737934
0.999000000000000776,-0.278298790148973518
1.000000000000000666,-0.277108954199271451
1.001000000000000778,-0.275922324470600000
1.002000000000000668,-0.274738901935428048
1.003000000000000780,-0.273558687495751129
1.004000000000000670,-0.272381681983125457
1.005000000000000782,-0.271207886158714218
1.006000000000000671,-0.270037300713352024
1.007000000000000783,-0.268869926267602033
1.008000000000000673,-0.267705763371852146
1.009000000000000785,-0.266544812506402162
1.010000000000000675,-0.265387074081568530
1.011000000000000787,-0.264232548437795978
1.012000000000000677,-0.263081235845792405
1.013000000000000789,-0.261933136506658226
1.014000000000000679,-0.260788250552027090
1.015000000000000790,-0.259646578044232967
1.016000000000000680,-0.258508118976470580
1.017000000000000792,-0.257372873272963154
1.018000000000000682,-0.256240840789155488
1.019000000000000794,-0.255112021311897474
1.020000000000000684,-0.253986414559654095
1.021000000000000796,-0.252864020182707427
1.022000000000000686,-0.251744837763373641
1.023000000000000798,-0.250628866816233697
1.024000000000000687,-0.249516106788360614
1.025000000000000799,-0.248406557059562605
1.026000000000000689,-0.247300216942633044
1.027000000000000801,-0.246197085683599604
1.028000000000000691,-0.245097162461992563
1.029000000000000803,-0.244000446391110209
1.030000000000000693,-0.242906936518290317
1.031000000000000805,-0.241816631825202549
1.032000000000000695,-0.240729531228121407
1.033000000000000806,-0.239645633578236594
1.034000000000000696,-0.238564937661941201
1.035000000000000808,-0.237487442201137572
1.036000000000000698,-0.236413145853549889
1.037000000000000810,-0.235342047213052352
1.038000000000000700,-0.234274144809967583
1.039000000000000812,-0.233209437111409151
1.040000000000000702,-0.232147922521612149
1.041000000000000814,-0.231089599382266309
1.042000000000000703,-0.230034465972850655
1.043000000000000815,-0.228982520510989301
1.044000000000000705,-0.227933761152798231
1.045000000000000817,-0.226888185993229075
1.046000000000000707,-0.225845793066439871
1.047000000000000819,-0.224806580346151641
1.048000000000000709,-0.223770545746006799
1.049000000000000821,-0.222737687119949124
1.050000000000000711,-0.221708002262583470
1.051000000000000822,-0.220681488909563545
1.052000000000000712,-0.219658144737963024
1.053000000000000824,-0.218637967366654445
1.054000000000000714,-0.217620954356703283
1.055000000000000826,-0.216607103211745422
1.056000000000000716,-0.215596411378386976
1.057000000000000828,-0.214588876246587817
1.058000000000000718,-0.213584495150060893
1.059000000000000830,-0.212583265366670104
1.060000000000000719,-0.211585184118832148
1.061000000000000831,-0.210590248573910538
1.062000000000000721,-0.209598455844627607
1.063000000000000833,-0.208609802989471238
1.064000000000000723,-0.207624287013093684
1.065000000000000835,-0.206641904866727011
1.066000000000000725,-0.205662653448600269
1.067000000000000837,-0.204686529604335060
1.068000000000000727,-0.203713530127381859
1.069000000000000838,-0.202743651759414834
1.070000000000000728,-0.201776891190762642
1.071000000000000840,-0.200813245060820794
1.072000000000000730,-0.199852709958472097
1.073000000000000842,-0.198895282422508118
1.074000000000000732,-0.197940958942043610
1.075000000000000844,-0.196989735956947798
1.076000000000000734,-0.196041609858263410
1.077000000000000846,-0.195096576988624371
1.078000000000000735,-0.194154633642691060
1.079000000000000847,-0.193215776067562850
1.080000000000000737,-0.192280000463216749
1.081000000000000849,-0.191347302982917772
1.082000000000000739,-0.190417679733655476
1.083000000000000851,-0.189491126776565572
1.084000000000000741,-0.188567640127360520
1.085000000000000853,-0.187647215756748614
1.086000000000000743,-0.186729849590866109
1.087000000000000854,-0.185815537511701767
1.088000000000000744,-0.184904275357528375
1.089000000000000856,-0.183996058923315942
1.090000000000000746,-0.183090883961171069
1.091000000000000858,-0.182188746180758171
1.092000000000000748,-0.181289641249723160
1.093000000000000860,-0.180393564794122052
1.094000000000000750,-0.179500512398841211
1.095000000000000862,-0.178610479608026590
1.096000000000000751,-0.177723461925507198
1.097000000000000863,-0.176839454815210989
1.098000000000000753,-0.175958453701598877
1.099000000000000865,-0.175080453970080818
1.100000000000000755,-0.174205450967434700
1.101000000000000867,-0.173333440002229333
1.102000000000000757,-0.172464416345248228
1.103000000000000869,-0.171598375229905564
1.104000000000000759,-0.170735311852656613
1.105000000000000870,-0.169875221373431556
1.106000000000000760,-0.169018098916033865
1.107000000000000872,-0.168163939568567206
1.108000000000000762,-0.167312738383849025
1.109000000000000874,-0.166464490379816976
1.110000000000000764,-0.165619190539946226
1.111000000000000876,-0.164776833813657625
1.112000000000000766,-0.163937415116729157
1.113000000000000878,-0.163100929331703309
1.114000000000000767,-0.162267371308297381
1.115000000000000879,-0.161436735863801389
1.116000000000000769,-0.160609017783491875
1.117000000000000881,-0.159784211821028588
1.118000000000000771,-0.158962312698859132
1.119000000000000883,-0.158143315108619953
1.120000000000000773,-0.157327213711536185
1.121000000000000885,-0.156514003138812779
1.122000000000000774,-0.155703677992037992
1.123000000000000886,-0.154896232843572623
1.124000000000000776,-0.154091662236951810
1.125000000000000888,-0.153289960687261057
1.126000000000000778,-0.152491122681538610
1.127000000000000890,-0.151695142679165423
1.128000000000000780,-0.150902015112237275
1.129000000000000892,-0.150111734385964979
1.130000000000000782,-0.149324294879049801
1.131000000000000894,-0.148539690944065522
1.132000000000000783,-0.147757916907840070
1.133000000000000895,-0.146978967071837274
1.134000000000000785,-0.146202835712518658
1.135000000000000897,-0.145429517081739818
1.136000000000000787,-0.144659005407103469
1.137000000000000899,-0.143891294892343341
1.138000000000000789,-0.143126379717682550
1.139000000000000901,-0.142364254040217159
1.140000000000000790,-0.141604911994264393
1.141000000000000902,-0.140848347691730769
1.142000000000000792,-0.140094555222483597
1.143000000000000904,-0.139343528654697957
1.144000000000000794,-0.138595262035226874
1.145000000000000906,-0.137849749389940712
1.146000000000000796,-0.137106984724101488
1.147000000000000908,-0.136366962022698684
1.148000000000000798,-0.135629675250808990
1.149000000000000909,-0.134895118353940274
1.150000000000000799,-0.134163285258376036
1.151000000000000689,-0.133434169871525260
1.152000000000000801,-0.132707766082263368
1.153000000000000913,-0.131984067761268503
1.154000000000000803,-0.131263068761363233
1.155000000000000693,-0.130544762917848028
1.156000000000000805,-0.129829144048843298
1.157000000000000917,-0.129116205955608687
1.158000000000000806,-0.128405942422886499
1.159000000000000696,-0.127698347219221048
1.160000000000000808,-0.126993414097286539
1.161000000000000920,-0.126291136794214387
1.162000000000000810,-0.125591509031913684
1.163000000000000700,-0.124894524517388542
1.164000000000000812,-0.124200176943060875
1.165000000000000924,-0.123508459987078753
1.166000000000000814,-0.122819367313640695
1.167000000000000703,-0.122132892573296889
1.168000000000000815,-0.121449029403267961
1.169000000000000927,-0.120767771427743115
1.170000000000000817,-0.120089112258197336
1.171000000000000707,-0.119413045493679301
1.172000000000000819,-0.118739564721130036
1.173000000000000931,-0.118068663515670205
1.174000000000000821,-0.117400335440899312
1.175000000000000711,-0.116734574049193740
1.176000000000000822,-0.116071372881999896
1.177000000000000934,-0.115410725470120212
1.178000000000000824,-0.114752625334008068
1.179000000000000714,-0.114097065984048313
1.180000000000000826,-0.113444040920850434
1.181000000000000938,-0.112793543635520785
1.182000000000000828,-0.112145567609950939
1.183000000000000718,-0.111500106317094436
1.184000000000000830,-0.110857153221242163
1.185000000000000941,-0.110216701778292153
1.186000000000000831,-0.109578745436033159
1.187000000000000721,-0.108943277634401453
1.188000000000000833,-0.108310291805760087
1.189000000000000945,-0.107679781375158365
1.190000000000000835,-0.107051739760600270
1.191000000000000725,-0.106426160373296219
1.192000000000000837,-0.105803036617941729
1.193000000000000949,-0.105182361892952075
1.194000000000000838,-0.104564129590739713
1.195000000000000728,-0.103948333097950901
1.196000000000000840,-0.103334965795726735
1.197000000000000952,-0.102724021059954040
1.198000000000000842,-0.102115492261503377
1.199000000000000732,-0.101509372766488415
1.200000000000000844,-0.100905655936492006
1.201000000000000956,-0.100304335128825819
1.202000000000000846,-0.099705403696756109
1.203000000000000735,-0.099108854989752221
1.204000000000000847,-0.098514682353707639
1.205000000000000959,-0.097922879131192603
1.206000000000000849,-0.097333438661669783
1.207000000000000739,-0.096746354281728092
1.208000000000000851,-0.096161619325315334
1.209000000000000963,-0.095579227123957403
1.210000000000000853,-0.094999171006987473
1.211000000000000743,-0.094421444301761887
1.212000000000000854,-0.093846040333885050
1.213000000000000966,-0.093272952427421091
1.214000000000000856,-0.092702173905121102
1.215000000000000746,-0.092133698088619737
1.216000000000000858,-0.091567518298667022
1.217000000000000970,-0.091003627855321748
1.218000000000000860,-0.090442020078167845
1.219000000000000750,-0.089882688286520990
1.220000000000000862,-0.089325625799630021
1.221000000000000973,-0.088770825936879155
1.222000000000000863,-0.088218282017993421
1.223000000000000753,-0.087667987363229588
1.224000000000000865,-0.087119935293582015
1.225000000000000977,-0.086574119130970698
1.226000000000000867,-0.086030532198437648
1.227000000000000757,-0.085489167820337358
1.228000000000000869,-0.084950019322521914
1.229000000000000981,-0.084413080032544732
1.230000000000000870,-0.083878343279822368
1.231000000000000760,-0.083345802395835944
1.232000000000000872,-0.082815450714313218
1.233000000000000984,-0.082287281571394713
1.234000000000000874,-0.081761288305831278
1.235000000000000764,-0.081237464259145270
1.236000000000000876,-0.080715802775815082
1.237000000000000988,-0.080196297203443720
1.238000000000000878,-0.079678940892935785
1.239000000000000767,-0.079163727198659328
1.240000000000000879,-0.078650649478622561
1.241000000000000991,-0.078139701094634056
1.242000000000000881,-0.077630875412469422
1.243000000000000771,-0.077124165802035807
1.244000000000000883,-0.076619565637529599
1.245000000000000995,-0.076117068297602050
1.246000000000000885,-0.075616667165510798
1.247000000000000774,-0.075118355629279501
1.248000000000000886,-0.074622127081851897
1.249000000000000998,-0.074127974921244330
1.250000000000000888,-0.073635892550699758
1.251000000000000778,-0.073145873378831883
1.252000000000000890,-0.072657910819779417
1.253000000000001002,-0.072171998293344752
1.254000000000000892,-0.071688129225149888
1.255000000000000782,-0.071206297046769979
1.256000000000000894,-0.070726495195876163
1.257000000000001005,-0.070248717116382392
1.258000000000000895,-0.069772956258578073
1.259000000000000785,-0.069299206079263556
1.260000000000000897,-0.068827460041890748
1.261000000000001009,-0.068357711616695030
1.262000000000000899,-0.067889954280824463
1.263000000000000789,-0.067424181518474055
1.264000000000000901,-0.066960386821016071
1.265000000000001013,-0.066498563687122522
1.266000000000000902,-0.066038705622896418
1.267000000000000792,-0.065580806141994769
1.268000000000000904,-0.065124858765751040
1.269000000000001016,-0.064670857023297640
1.270000000000000906,-0.064218794451688849
1.271000000000000796,-0.063768664596015476
1.272000000000000908,-0.063320461009522308
1.273000000000001020,-0.062874177253729652
1.274000000000000909,-0.062429806898542772
1.275000000000000799,-0.061987343522363694
1.276000000000000911,-0.061546780712212312
1.277000000000001023,-0.061108112063823272
1.278000000000000913,-0.060671331181766444
1.279000000000000803,-0.060236431679548910
1.280000000000000915,-0.059803407179726362
1.281000000000001027,-0.059372251313994137
1.282000000000000917,-0.058942957723311797
1.283000000000000806,-0.058515520057987117
1.284000000000000918,-0.058089931977788570
1.285000000000001030,-0.057666187152036044
1.286000000000000920,-0.057244279259709055
1.287000000000000810,-0.056824201989531233
1.288000000000000922,-0.056405949040080797
1.289000000000001034,-0.055989514119871311
1.290000000000000924,-0.055574890947449718
1.291000000000000814,-0.055162073251495101
1.292000000000000925,-0.054751054770894446
1.293000000000001037,-0.054341829254847783
1.294000000000000927,-0.053934390462946166
1.295000000000000817,-0.053528732165260676
1.296000000000000929,-0.053124848142429029
1.297000000000001041,-0.052722732185737989
1.298000000000000931,-0.052322378097212019
1.299000000000000821,-0.051923779689688511
1.300000000000000933,-0.051526930786900849
1.301000000000001044,-0.051131825223560544
1.302000000000000934,-0.050738456845430976
1.303000000000000824,-0.050346819509412485
1.304000000000000936,-0.049956907083605437
1.305000000000001048,-0.049568713447399659
1.306000000000000938,-0.049182232491542313
1.307000000000000828,-0.048797458118204434
1.308000000000000940,-0.048414384241059691
1.309000000000001052,-0.048033004785358345
1.310000000000000941,-0.047653313687987739
1.311000000000000831,-0.047275304897544015
1.312000000000000943,-0.046898972374396844
1.313000000000001055,-0.046524310090767816
1.314000000000000945,-0.046151312030777457
1.315000000000000835,-0.045779972190520934
1.316000000000000947,-0.045410284578126736
1.317000000000001059,-0.045042243213823482
1.318000000000000949,-0.044675842129990012
1.319000000000000838,-0.044311075371230538
1.320000000000000950,-0.043947936994420775
1.321000000000001062,-0.043586421068768352
1.322000000000000952,-0.043226521675875672
1.323000000000000842,-0.042868232909787897
1.324000000000000954,-0.042511548877055494
1.325000000000001066,-0.042156463696776933
1.326000000000000956,-0.041802971500666981
1.327000000000000846,-0.041451066433093278
1.328000000000000957,-0.041100742651139180
1.329000000000001069,-0.040751994324643256
1.330000000000000959,-0.040404815636259889
1.331000000000000849,-0.040059200781499334
1.332000000000000961,-0.039715143968773521
1.333000000000001073,-0.039372639419448845
1.334000000000000963,-0.039031681367889107
1.335000000000000853,-0.038692264061496909
1.336000000000000965,-0.038354381760761835
1.337000000000001076,-0.038018028739300387
1.338000000000000966,-0.037683199283897316
1.339000000000000856,-0.037349887694550409
1.340000000000000968,-0.037018088284505604
1.341000000000001080,-0.036687795380298080
1.342000000000000970,-0.036359003321793253
1.343000000000000860,-0.036031706462220106
1.344000000000000972,-0.035705899168209675
1.345000000000001084,-0.035381575819835656
1.346000000000000973,-0.035058730810640218
1.347000000000000863,-0.034737358547675332
1.348000000000000975,-0.034417453451531375
1.349000000000001087,-0.034099009956375922
1.350000000000000977,-0.033782022509980268
1.351000000000000867,-0.033466485573754604
1.352000000000000979,-0.033152393622769963
1.353000000000001091,-0.032839741145800641
1.354000000000000981,-0.032528522645345032
1.355000000000000870,-0.032218732637650530
1.356000000000000982,-0.031910365652748351
1.357000000000001094,-0.031603416234478938
1.358000000000000984,-0.031297878940511330
1.359000000000000874,-0.030993748342374301
1.360000000000000986,-0.030691019025478650
1.361000000000001098,-0.030389685589144483
1.362000000000000988,-0.030089742646615198
1.363000000000000878,-0.029791184825086893
1.364000000000000989,-0.029494006765733903
1.365000000000001101,-0.029198203123716810
1.366000000000000991,-0.028903768568213011
1.367000000000000881,-0.028610697782432644
1.368000000000000993,-0.028318985463639069
1.369000000000001105,-0.028028626323164819
1.370000000000000995,-0.027739615086429227
1.371000000000000885,-0.027451946492957142
1.372000000000000997,-0.027165615296393497
1.373000000000001108,-0.026880616264523927
1.374000000000000998,-0.026596944179274957
1.375000000000000888,-0.026314593836749989
1.376000000000001000,-0.026033560047224690
1.377000000000001112,-0.025753837635170231
1.378000000000001002,-0.025475421439260758
1.379000000000000892,-0.025198306312388240
1.380000000000001004,-0.024922487121671034
1.381000000000001116,-0.024647958748469645
1.382000000000001005,-0.024374716088389682
1.383000000000000895,-0.024102754051295826
1.384000000000001007,-0.023832067561321273
1.385000000000001119,-0.023562651556874398
1.386000000000001009,-0.023294500990647955
1.387000000000000899,-0.023027610829619793
1.388000000000001011,-0.022761976055076426
1.389000000000001123,-0.022497591662597537
1.390000000000001013,-0.022234452662077697
1.391000000000000902,-0.021972554077723045
1.392000000000001014,-0.021711890948060246
1.393000000000001126,-0.021452458325938423
1.394000000000001016,-0.021194251278535716
1.395000000000000906,-0.020937264887358122
1.396000000000001018,-0.020681494248241637
1.397000000000001130,-0.020426934471360188
1.398000000000001020,-0.020173580681222832
1.399000000000000909,-0.019921428016674902
1.400000000000001021,-0.019670471630897864
1.401000000000001133,-0.019420706691414345
1.402000000000001023,-0.019172128380081848
1.403000000000000913,-0.018924731893092656
1.404000000000001025,-0.018678512440977582
1.405000000000001137,-0.018433465248598152
1.406000000000001027,-0.018189585555146798
1.407000000000000917,-0.017946868614149236
1.408000000000001029,-0.017705309693448350
1.409000000000001140,-0.017464904075216107
1.410000000000001030,-0.017225647055938226
1.411000000000000920,-0.016987533946415251
1.412000000000001032,-0.016750560071754923
1.413000000000001144,-0.016514720771369840
1.414000000000001034,-0.016280011398970430
1.415000000000000924,-0.016046427322554457
1.416000000000001036,-0.015813963924410451
1.417000000000001148,-0.015582616601103393
1.418000000000001037,-0.015352380763466936
1.419000000000000927,-0.015123251836599563
1.420000000000001039,-0.014895225259853683
1.421000000000001151,-0.014668296486830618
1.422000000000001041,-0.014442460985368329
1.423000000000000931,-0.014217714237532268
1.424000000000001043,-0.013994051739608632
1.425000000000001155,-0.013771469002092123
1.426000000000001044,-0.013549961549675582
1.427000000000000934,-0.013329524921242680
1.428000000000001046,-0.013110154669852308
1.429000000000001158,-0.012891846362727860
1.430000000000001048,-0.012674595581250470
1.431000000000000938,-0.012458397920940148
1.432000000000001050,-0.012243248991449221
1.433000000000001162,-0.012029144416546180
1.434000000000001052,-0.011816079834101635
1.435000000000000941,-0.011604050896081294
1.436000000000001053,-0.011393053268524815
1.437000000000001165,-0.011183082631532748
1.438000000000001055,-0.010974134679260790
1.439000000000000945,-0.010766205119894203
1.440000000000001057,-0.010559289675640453
1.441000000000001169,-0.010353384082706241
1.442000000000001059,-0.010148484091290337
1.443000000000000949,-0.009944585465566048
1.444000000000001060,-0.009741683983660548
1.445000000000001172,-0.009539775437639515
1.446000000000001062,-0.009338855633499324
1.447000000000000952,-0.009138920391135249
1.448000000000001064,-0.008939965544336322
1.449000000000001176,-0.008741986940765898
1.450000000000001066,-0.008544980441936207
1.451000000000000956,-0.008348941923199012
1.452000000000001068,-0.008153867273724816
1.453000000000001180,-0.007959752396481876
1.454000000000001069,-0.007766593208220286
1.455000000000000959,-0.007574385639452811
1.456000000000001071,-0.007383125634431222
1.457000000000001183,-0.007192809151135788
1.458000000000001073,-0.007003432161247991
1.459000000000000963,-0.006814990650129987
1.460000000000001075,-0.006627480616810262
1.461000000000001187,-0.006440898073957325
1.462000000000001076,-0.006255239047866248
1.463000000000000966,-0.006070499578429232
1.464000000000001078,-0.005886675719117994
1.465000000000001190,-0.005703763536969199
1.466000000000001080,-0.005521759112547840
1.467000000000000970,-0.005340658539941094
1.468000000000001082,-0.005160457926728015
1.469000000000001194,-0.004981153393957100
1.470000000000001084,-0.004802741076127927
1.471000000000000973,-0.004625217121164071
1.472000000000001085,-0.004448577690396909
1.473000000000001197,-0.004272818958535094
1.474000000000001087,-0.004097937113647316
1.475000000000000977,-0.003923928357132436
1.476000000000001089,-0.003750788903704904
1.477000000000001201,-0.003578514981364660
1.478000000000001091,-0.003407102831373649
1.479000000000000981,-0.003236548708235058
1.480000000000001092,-0.003066848879664321
1.481000000000001204,-0.002897999626569656
1.482000000000001094,-0.002729997243024507
1.483000000000000984,-0.002562838036245589
1.484000000000001096,-0.002396518326564965
1.485000000000001208,-0.002231034447402883
1.486000000000001098,-0.002066382745252283
1.487000000000000988,-0.001902559579642576
1.488000000000001100,-0.001739561323117836
1.489000000000001211,-0.001577384361215582
1.490000000000001101,-0.001416025092435891
1.491000000000000991,-0.001255479928215087
1.492000000000001103,-0.001095745292904877
1.493000000000001215,-0.000936817623742059
1.494000000000001105,-0.000778693370820149
1.495000000000000995,-0.000621368997068531
1.496000000000001107,-0.000464840978222197
1.497000000000001219,-0.000309105802795764
1.498000000000001108,-0.000154159972057877
1.499000000000000998,0.000000000000000000
