# hydroxyapatite-001-ph14_CS-6332-AC
# h[nm],U(h)[kJ/mol]
0.149999999999999994,96.684098869608916971
0.150999999999999995,94.838417980679281527
0.151999999999999996,92.694581369963003681
0.152999999999999997,90.567910083513808672
0.153999999999999998,88.555147643176738370
0.154999999999999999,86.655561370996124992
0.156000000000000000,84.835012963894087079
0.157000000000000001,83.056747263420291461
0.158000000000000002,81.293654316488641598
0.159000000000000002,79.530929188317472267
0.160000000000000003,77.764336499476499398
0.161000000000000004,75.996965460518950408
0.162000000000000005,74.235950531681822895
0.163000000000000006,72.489806471680907407
0.164000000000000007,70.766567563001416374
0.165000000000000008,69.072686811251088557
0.166000000000000009,67.412549840797765910
0.167000000000000010,65.788431649431089454
0.168000000000000010,64.200736213375634520
0.169000000000000011,62.648387544691864548
0.170000000000000012,61.129273892302784077
0.171000000000000013,59.640677865754391007
0.172000000000000014,58.179651402859306586
0.173000000000000015,56.743314807900375740
0.174000000000000016,55.329073779664007304
0.175000000000000017,53.934758186311668737
0.176000000000000018,52.558692275179772935
0.177000000000000018,51.199708975292971047
0.178000000000000019,49.857121802861698256
0.179000000000000020,48.530667317902718594
0.180000000000000021,47.220429657311498772
0.181000000000000022,45.926756802340364061
0.182000000000000023,44.650176223981091539
0.183000000000000024,43.391315588847064078
0.184000000000000025,42.150832425727585928
0.185000000000000026,40.929355117151047239
0.186000000000000026,39.727436318260629378
0.187000000000000027,38.545518916280222754
0.188000000000000028,37.383913909076945004
0.189000000000000029,36.242789071665676204
0.190000000000000030,35.122166960920161216
0.191000000000000031,34.021930646173117907
0.192000000000000032,32.941835513209227315
0.193000000000000033,31.881525540814671160
0.194000000000000034,30.840552565846877542
0.195000000000000034,29.818397212188688883
0.196000000000000035,28.814490342551017932
0.197000000000000036,27.828234085345837201
0.198000000000000037,26.859021680699374457
0.199000000000000038,25.906255572058533687
0.200000000000000039,24.969363337252598711
0.201000000000000040,24.047811201873475540
0.202000000000000041,23.141115006668581344
0.203000000000000042,22.248848608814643768
0.204000000000000042,21.370649784932677306
0.205000000000000043,20.506223772673603634
0.206000000000000044,19.655344639255950767
0.207000000000000045,18.817854701360108294
0.208000000000000046,17.993662243283473856
0.209000000000000047,17.182737791269325101
0.210000000000000048,16.385109203404315537
0.211000000000000049,15.600855828286654514
0.212000000000000050,14.830101973487881395
0.213000000000000050,14.073009908188604200
0.214000000000000051,13.329772604586182183
0.215000000000000052,12.600606400898758608
0.216000000000000053,11.885743745985895004
0.217000000000000054,11.185426162565732966
0.218000000000000055,10.499897543370364517
0.219000000000000056,9.829397872843975037
0.220000000000000057,9.174157446522809067
0.221000000000000058,8.534391641316517507
0.222000000000000058,7.910296272702001197
0.223000000000000059,7.302043559451824706
0.224000000000000060,6.709778702976902487
0.225000000000000061,6.133617076655458966
0.226000000000000062,5.573642010589804130
0.227000000000000063,5.029903148992914019
0.228000000000000064,4.502415350750480272
0.229000000000000065,3.991158098505350527
0.230000000000000066,3.496075377740997858
0.231000000000000066,3.017075984657948240
0.232000000000000067,2.554034220008624345
0.233000000000000068,2.106790925344238730
0.234000000000000069,1.675154818205568663
0.235000000000000070,1.258904083533780138
0.236000000000000071,0.857788179875385026
0.237000000000000072,0.471529820699992164
0.238000000000000073,0.099827093247441920
0.239000000000000073,-0.257644320314428632
0.240000000000000074,-0.601228852087278276
0.241000000000000075,-0.931288717982790670
0.242000000000000076,-1.248201574852840778
0.243000000000000077,-1.552358189699647895
0.244000000000000078,-1.844160142727497842
0.245000000000000079,-2.124017583331595738
0.246000000000000080,-2.392347055544390422
0.247000000000000081,-2.649569406999145116
0.248000000000000081,-2.896107793140338504
0.249000000000000082,-3.132385786224664237
0.250000000000000111,-3.358825596623675303
0.251000000000000112,-3.575846412063628854
0.252000000000000113,-3.783862858724061251
0.253000000000000114,-3.983283586560339096
0.254000000000000115,-4.174509979819001515
0.255000000000000115,-4.357934992469060020
0.256000000000000116,-4.533942107176004654
0.257000000000000117,-4.702904415488747603
0.258000000000000118,-4.865183816086536162
0.259000000000000119,-5.021130327235136193
0.260000000000000120,-5.171081509020653222
0.261000000000000121,-5.315361990455652830
0.262000000000000122,-5.454283096178881962
0.263000000000000123,-5.588142567185959919
0.264000000000000123,-5.717224369827649255
0.265000000000000124,-5.841798587184256597
0.266000000000000125,-5.962121386863557859
0.267000000000000126,-6.078435059265705931
0.268000000000000127,-6.190968120406852293
0.269000000000000128,-6.299935473484823412
0.270000000000000129,-6.405538623500501849
0.271000000000000130,-6.507965939411002765
0.272000000000000131,-6.607392958479799461
0.273000000000000131,-6.703982727700120492
0.274000000000000132,-6.797886177396234686
0.275000000000000133,-6.889242522349346309
0.276000000000000134,-6.978179686045980823
0.277000000000000135,-7.064814743904555883
0.278000000000000136,-7.149254381597164532
0.279000000000000137,-7.231595364845683882
0.280000000000000138,-7.311925017331882160
0.281000000000000139,-7.390321703618925930
0.282000000000000139,-7.466855314233778351
0.283000000000000140,-7.541587750306336879
0.284000000000000141,-7.614573405399451822
0.285000000000000142,-7.685859642394009761
0.286000000000000143,-7.755487263514046603
0.287000000000000144,-7.823490971787274262
0.288000000000000145,-7.889899822437550725
0.289000000000000146,-7.954737662894864059
0.290000000000000147,-8.018023560288170870
0.291000000000000147,-8.079772215454102735
0.292000000000000148,-8.139994362652355875
0.293000000000000149,-8.198697154324786851
0.294000000000000150,-8.255884530371645269
0.295000000000000151,-8.311557571544039291
0.296000000000000152,-8.365714836667388354
0.297000000000000153,-8.418352683516861390
0.298000000000000154,-8.469465573262286995
0.299000000000000155,-8.519046358488033377
0.300000000000000155,-8.567086554872346937
0.301000000000000156,-8.613576596681784991
0.302000000000000157,-8.658506076299888221
0.303000000000000158,-8.701863968065065791
0.304000000000000159,-8.743638836742281484
0.305000000000000160,-8.783819030995477561
0.306000000000000161,-8.822392862265045821
0.307000000000000162,-8.859348769485457353
0.308000000000000163,-8.894675470104449033
0.309000000000000163,-8.928362097886392235
0.310000000000000164,-8.960398327999245183
0.311000000000000165,-8.990774489897333410
0.312000000000000166,-9.019481668521308393
0.313000000000000167,-9.046511794342235291
0.314000000000000168,-9.071857722779448352
0.315000000000000169,-9.095513303521673976
0.316000000000000170,-9.117473440278315522
0.317000000000000171,-9.137734141482942718
0.318000000000000171,-9.156292562464098950
0.319000000000000172,-9.173147039590290319
0.320000000000000173,-9.188297116885667748
0.321000000000000174,-9.201743565601612218
0.322000000000000175,-9.213488397217076908
0.323000000000000176,-9.223534870326888679
0.324000000000000177,-9.231887491863151496
0.325000000000000178,-9.238552013079734948
0.326000000000000179,-9.243535420714898976
0.327000000000000179,-9.246845923730784733
0.328000000000000180,-9.248492936012844723
0.329000000000000181,-9.248487055396015677
0.330000000000000182,-9.246840039367876685
0.331000000000000183,-9.243564777783230824
0.332000000000000184,-9.238675262907795727
0.333000000000000185,-9.232186557093134738
0.334000000000000186,-9.224114758368747502
0.335000000000000187,-9.214476964221841371
0.336000000000000187,-9.203291233819996364
0.337000000000000188,-9.190576548916819632
0.338000000000000189,-9.176352773666387463
0.339000000000000190,-9.160640613557877288
0.340000000000000191,-9.143461573668002274
0.341000000000000192,-9.124837916415840411
0.342000000000000193,-9.104792618991426778
0.343000000000000194,-9.083349330617382478
0.344000000000000195,-9.060532329790664363
0.345000000000000195,-9.036366481640435211
0.346000000000000196,-9.010877195526724392
0.347000000000000197,-8.984090382994324386
0.348000000000000198,-8.956032416186348044
0.349000000000000199,-8.926730086812181497
0.350000000000000200,-8.896210565755804822
0.351000000000000201,-8.864501363401572576
0.352000000000000202,-8.831630290746597112
0.353000000000000203,-8.797625421361111364
0.354000000000000203,-8.762515054251005964
0.355000000000000204,-8.726327677669660332
0.356000000000000205,-8.689091933920098043
0.357000000000000206,-8.650836585182229754
0.358000000000000207,-8.611590480394221814
0.359000000000000208,-8.571382523212015769
0.360000000000000209,-8.530241641065853031
0.361000000000000210,-8.488196755328134557
0.362000000000000210,-8.445276752602721260
0.363000000000000211,-8.401510457141750265
0.364000000000000212,-8.356926604392530322
0.365000000000000213,-8.311553815673500267
0.366000000000000214,-8.265420573975385210
0.367000000000000215,-8.218555200880606648
0.368000000000000216,-8.170985834591707686
0.369000000000000217,-8.122740409056822486
0.370000000000000218,-8.073846634178583059
0.371000000000000218,-8.024331977090358947
0.372000000000000219,-7.974223644482540507
0.373000000000000220,-7.923548565959722012
0.374000000000000221,-7.872333378408337801
0.375000000000000222,-7.820604411353192731
0.376000000000000223,-7.768387673280206407
0.377000000000000224,-7.715708838901863764
0.378000000000000225,-7.662593237341037700
0.379000000000000226,-7.609065841208227710
0.380000000000000226,-7.555151256546901450
0.381000000000000227,-7.500873713620871186
0.382000000000000228,-7.446257058517782745
0.383000000000000229,-7.391324745542223518
0.384000000000000230,-7.336099830371951569
0.385000000000000231,-7.280604963950861652
0.386000000000000232,-7.224862387092054306
0.387000000000000233,-7.168893925764725950
0.388000000000000234,-7.112720987038526843
0.389000000000000234,-7.056364555659591531
0.390000000000000235,-6.999845191232236807
0.391000000000000236,-6.943183025981150891
0.392000000000000237,-6.886397763068782929
0.393000000000000238,-6.829508675443473287
0.394000000000000239,-6.772534605193875734
0.395000000000000240,-6.715493963385988252
0.396000000000000241,-6.658404730359474222
0.397000000000000242,-6.601284456460372319
0.398000000000000242,-6.544150263188027949
0.399000000000000243,-6.487018844734366851
0.400000000000000244,-6.429906469894343779
0.401000000000000245,-6.372828984326993407
0.402000000000000246,-6.315801813146877386
0.403000000000000247,-6.258839963826487107
0.404000000000000248,-6.201958029390704397
0.405000000000000249,-6.145170191884923305
0.406000000000000250,-6.088490226099104952
0.407000000000000250,-6.031931503530580940
0.408000000000000251,-5.975506996568971552
0.409000000000000252,-5.919229282887276788
0.410000000000000253,-5.863110550023579393
0.411000000000000254,-5.807162600138569886
0.412000000000000255,-5.751396854934482050
0.413000000000000256,-5.695824360721752910
0.414000000000000257,-5.640455793620040126
0.415000000000000258,-5.585301464881038846
0.416000000000000258,-5.530371326320807412
0.417000000000000259,-5.475674975849982751
0.418000000000000260,-5.421221663090731724
0.419000000000000261,-5.367020295069706570
0.420000000000000262,-5.313079441976896078
0.421000000000000263,-5.259407342980596312
0.422000000000000264,-5.206011912089230975
0.423000000000000265,-5.152900744051192028
0.424000000000000266,-5.100081120284403191
0.425000000000000266,-5.047560014827491948
0.426000000000000267,-4.995344100305122659
0.427000000000000268,-4.943439753900271683
0.428000000000000269,-4.891853063326673023
0.429000000000000270,-4.840589832795069825
0.430000000000000271,-4.789655588967113076
0.431000000000000272,-4.739055586891336880
0.432000000000000273,-4.688794815915732883
0.433000000000000274,-4.638878005571965168
0.434000000000000274,-4.589309631426406355
0.435000000000000275,-4.540093920893641055
0.436000000000000276,-4.491234859008281788
0.437000000000000277,-4.442736194151158280
0.438000000000000278,-4.394601443726381618
0.439000000000000279,-4.346833899785909949
0.440000000000000280,-4.299436634598490237
0.441000000000000281,-4.252412506160140104
0.442000000000000282,-4.205764163643595843
0.443000000000000282,-4.159494052784187268
0.444000000000000283,-4.113604421200069972
0.445000000000000284,-4.068097323644742858
0.446000000000000285,-4.022974627189951136
0.447000000000000286,-3.978238016337567018
0.448000000000000287,-3.933888998058699293
0.449000000000000288,-3.889928906758957972
0.450000000000000289,-3.846358909168600348
0.451000000000000290,-3.803180009156604591
0.452000000000000290,-3.760393052467838171
0.453000000000000291,-3.717998731382532007
0.454000000000000292,-3.675997589297557600
0.455000000000000293,-3.634390025228932508
0.456000000000000294,-3.593176298235293498
0.457000000000000295,-3.552356531762003389
0.458000000000000296,-3.511930717905784149
0.459000000000000297,-3.471898721599828264
0.460000000000000298,-3.432260284719377719
0.461000000000000298,-3.393015030107942032
0.462000000000000299,-3.354162465524340497
0.463000000000000300,-3.315701987510807136
0.464000000000000301,-3.277632885182558020
0.465000000000000302,-3.239954343939221992
0.466000000000000303,-3.202665449098557993
0.467000000000000304,-3.165765189453042971
0.468000000000000305,-3.129252460749901932
0.469000000000000306,-3.093126069095172515
0.470000000000000306,-3.057384734282570626
0.471000000000000307,-3.022027093047737090
0.472000000000000308,-2.987051702248785912
0.473000000000000309,-2.952457041973810981
0.474000000000000310,-2.918241518576260685
0.475000000000000311,-2.884403467638975371
0.476000000000000312,-2.850941156867878412
0.477000000000000313,-2.817852788916064277
0.478000000000000314,-2.785136504139348546
0.479000000000000314,-2.752790383284200892
0.480000000000000315,-2.720812450108948344
0.481000000000000316,-2.689200673939358577
0.482000000000000317,-2.657952972159471461
0.483000000000000318,-2.627067212638777072
0.484000000000000319,-2.596541216096678095
0.485000000000000320,-2.566372758405354393
0.486000000000000321,-2.536559572831943221
0.487000000000000322,-2.507099352221174637
0.488000000000000322,-2.477989751119386685
0.489000000000000323,-2.449228387841093202
0.490000000000000324,-2.420812846479005298
0.491000000000000325,-2.392740678858655379
0.492000000000000326,-2.365009406438548289
0.493000000000000327,-2.337616522157002663
0.494000000000000328,-2.310559492226577749
0.495000000000000329,-2.283835757877216377
0.496000000000000330,-2.257442737049048631
0.497000000000000330,-2.231377826035915835
0.498000000000000331,-2.205638401080563860
0.499000000000000332,-2.180221819922590676
0.500000000000000333,-2.155125423300039422
0.501000000000000334,-2.130346536405666846
0.502000000000000335,-2.105882470298848119
0.503000000000000336,-2.081730523274095468
0.504000000000000337,-2.057887982187086795
0.505000000000000338,-2.034352123739195939
0.506000000000000338,-2.011120215721434512
0.507000000000000339,-1.988189518218692386
0.508000000000000340,-1.965557284775213187
0.509000000000000341,-1.943220763522193195
0.510000000000000342,-1.921177198268365416
0.511000000000000343,-1.899423829554435672
0.512000000000000344,-1.877957895672225153
0.513000000000000345,-1.856776633649373620
0.514000000000000346,-1.835877280200418848
0.515000000000000346,-1.815257072645053871
0.516000000000000347,-1.794913249794363397
0.517000000000000348,-1.774843052805881172
0.518000000000000349,-1.755043726008131744
0.519000000000000350,-1.735512517695526613
0.520000000000000351,-1.716246680894292664
0.521000000000000352,-1.697243474100203375
0.522000000000000353,-1.678500161988800032
0.523000000000000353,-1.660014016098820377
0.524000000000000354,-1.641782315489571431
0.525000000000000355,-1.623802347372833355
0.526000000000000356,-1.606071407720046862
0.527000000000000357,-1.588586801845414342
0.528000000000000358,-1.571345844965501781
0.529000000000000359,-1.554345862736065786
0.530000000000000360,-1.537584191766621755
0.531000000000000361,-1.521058180113440184
0.532000000000000361,-1.504765187751480271
0.533000000000000362,-1.488702587025917401
0.534000000000000363,-1.472867763083765436
0.535000000000000364,-1.457258114286175132
0.536000000000000365,-1.441871052601953362
0.537000000000000366,-1.426704003982826929
0.538000000000000367,-1.411754408720934384
0.539000000000000368,-1.397019721789142022
0.540000000000000369,-1.382497413164548661
0.541000000000000369,-1.368184968135788271
0.542000000000000370,-1.354079887594525466
0.543000000000000371,-1.340179688311611717
0.544000000000000372,-1.326481903198398093
0.545000000000000373,-1.312984081553597360
0.546000000000000374,-1.299683789296137260
0.547000000000000375,-1.286578609184430011
0.548000000000000376,-1.273666141022488318
0.549000000000000377,-1.260944001853244512
0.550000000000000377,-1.248409826139482925
0.551000000000000378,-1.236061265932783870
0.552000000000000379,-1.223895991030823138
0.553000000000000380,-1.211911689123409408
0.554000000000000381,-1.200106065927586396
0.555000000000000382,-1.188476845312196772
0.556000000000000383,-1.177021769412161856
0.557000000000000384,-1.165738598732901643
0.558000000000000385,-1.154625112245122320
0.559000000000000385,-1.143679107470361389
0.560000000000000386,-1.132898400557519114
0.561000000000000387,-1.122280826350748661
0.562000000000000388,-1.111824238448922975
0.563000000000000389,-1.101526509257007680
0.564000000000000390,-1.091385530029585826
0.565000000000000391,-1.081399210906812680
0.566000000000000392,-1.071565480943054371
0.567000000000000393,-1.061882288128471963
0.568000000000000393,-1.052347599403774314
0.569000000000000394,-1.042959400668405090
0.570000000000000395,-1.033715696782384841
0.571000000000000396,-1.024614511562013330
0.572000000000000397,-1.015653887769711661
0.573000000000000398,-1.006831887098132761
0.574000000000000399,-0.998146590148838775
0.575000000000000400,-0.989596096405669812
0.576000000000000401,-0.981178524203046742
0.577000000000000401,-0.972892010689406561
0.578000000000000402,-0.964734711785912191
0.579000000000000403,-0.956704802140646238
0.580000000000000404,-0.948800475078485528
0.581000000000000405,-0.941019942546783006
0.582000000000000406,-0.933361435057043942
0.583000000000000407,-0.925823201622776870
0.584000000000000408,-0.918403509693639153
0.585000000000000409,-0.911100645086054817
0.586000000000000409,-0.903912911910447980
0.587000000000000410,-0.896838632495235877
0.588000000000000411,-0.889876147307710808
0.589000000000000412,-0.883023814871969570
0.590000000000000413,-0.876280011683988724
0.591000000000000414,-0.869643132124005569
0.592000000000000415,-0.863111588366317073
0.593000000000000416,-0.856683810286605563
0.594000000000000417,-0.850358245366918064
0.595000000000000417,-0.844133358598436190
0.596000000000000418,-0.838007632382080203
0.597000000000000419,-0.831979566427142769
0.598000000000000420,-0.826047677647972045
0.599000000000000421,-0.820210500058867531
0.600000000000000422,-0.814466584667244753
0.601000000000000423,-0.808814499365186790
0.602000000000000424,-0.803252828819459141
0.603000000000000425,-0.797780174360095518
0.604000000000000425,-0.792395153867611612
0.605000000000000426,-0.787096401658949008
0.606000000000000427,-0.781882568372257114
0.607000000000000428,-0.776752320850492173
0.608000000000000429,-0.771704342024072787
0.609000000000000430,-0.766737330792466087
0.610000000000000431,-0.761850001904968321
0.611000000000000432,-0.757041085840608807
0.612000000000000433,-0.752309328687291279
0.613000000000000433,-0.747653492020278088
0.614000000000000434,-0.743072352780003609
0.615000000000000435,-0.738564703149320434
0.616000000000000436,-0.734129350430237526
0.617000000000000437,-0.729765116920200296
0.618000000000000438,-0.725470839787956567
0.619000000000000439,-0.721245370949063491
0.620000000000000440,-0.717087576941106919
0.621000000000000441,-0.712996338798655649
0.622000000000000441,-0.708970551928014836
0.623000000000000442,-0.705009125981805873
0.624000000000000443,-0.701110984733441800
0.625000000000000444,-0.697275065951522999
0.626000000000000445,-0.693500321274194476
0.627000000000000446,-0.689785716083508027
0.628000000000000447,-0.686130229379841139
0.629000000000000448,-0.682532853656376171
0.630000000000000449,-0.678992594773704328
0.631000000000000449,-0.675508471834577295
0.632000000000000450,-0.672079517058838505
0.633000000000000451,-0.668704775658576334
0.634000000000000452,-0.665383305713508455
0.635000000000000453,-0.662114178046645074
0.636000000000000454,-0.658896476100252815
0.637000000000000455,-0.655729295812147672
0.638000000000000456,-0.652611745492337136
0.639000000000000457,-0.649542945700040009
0.640000000000000457,-0.646522029121125663
0.641000000000000458,-0.643548140445943773
0.642000000000000459,-0.640620436247643754
0.643000000000000460,-0.637738084860921983
0.644000000000000461,-0.634900266261290036
0.645000000000000462,-0.632106171944833539
0.646000000000000463,-0.629355004808493157
0.647000000000000464,-0.626645979030903799
0.648000000000000465,-0.623978319953787386
0.649000000000000465,-0.621351263963916933
0.650000000000000466,-0.618764058375685710
0.651000000000000467,-0.616215961314267591
0.652000000000000468,-0.613706241599413671
0.653000000000000469,-0.611234178629865066
0.654000000000000470,-0.608799062268431279
0.655000000000000471,-0.606400192727715615
0.656000000000000472,-0.604036880456513048
0.657000000000000473,-0.601708446026880339
0.658000000000000473,-0.599414220021917798
0.659000000000000474,-0.597153542924233172
0.660000000000000475,-0.594925765005120177
0.661000000000000476,-0.592730246214454692
0.662000000000000477,-0.590566356071319798
0.663000000000000478,-0.588433473555359354
0.664000000000000479,-0.586330986998886527
0.665000000000000480,-0.584258293979706855
0.666000000000000481,-0.582214801214745004
0.667000000000000481,-0.580199924454372296
0.668000000000000482,-0.578213088377554807
0.669000000000000483,-0.576253726487726881
0.670000000000000484,-0.574321281009465112
0.671000000000000485,-0.572415202785930832
0.672000000000000486,-0.570534951177085192
0.673000000000000487,-0.568679993958719043
0.674000000000000488,-0.566849807222233215
0.675000000000000488,-0.565043875275230145
0.676000000000000489,-0.563261690542909421
0.677000000000000490,-0.561502753470228044
0.678000000000000491,-0.559766572424888031
0.679000000000000492,-0.558052663601106835
0.680000000000000493,-0.556360550924183572
0.681000000000000494,-0.554689765955885705
0.682000000000000495,-0.553039847800612216
0.683000000000000496,-0.551410343012382342
0.684000000000000496,-0.549800805502605350
0.685000000000000497,-0.548210796448667326
0.686000000000000498,-0.546639884203316662
0.687000000000000499,-0.545087644204841792
0.688000000000000500,-0.543553658888058511
0.689000000000000501,-0.542037517596096752
0.690000000000000502,-0.540538816492980856
0.691000000000000503,-0.539057158477011744
0.692000000000000504,-0.537592153094935354
0.693000000000000504,-0.536143416456926980
0.694000000000000505,-0.534710571152330894
0.695000000000000506,-0.533293246166233303
0.696000000000000507,-0.531891076796790485
0.697000000000000508,-0.530503704573351942
0.698000000000000509,-0.529130777175378597
0.699000000000000510,-0.527771948352124154
0.700000000000000511,-0.526426877843102270
0.701000000000000512,-0.525095231299333554
0.702000000000000512,-0.523776680205353062
0.703000000000000513,-0.522470901801997401
0.704000000000000514,-0.521177579009954761
0.705000000000000515,-0.519896400354072918
0.706000000000000516,-0.518627059888428499
0.707000000000000517,-0.517369257122161974
0.708000000000000518,-0.516122696946039516
0.709000000000000519,-0.514887089559800004
0.710000000000000520,-0.513662150400204354
0.711000000000000520,-0.512447600069864118
0.712000000000000521,-0.511243164266782069
0.713000000000000522,-0.510048573714629416
0.714000000000000523,-0.508863564093766541
0.715000000000000524,-0.507687875972959612
0.716000000000000525,-0.506521254741858051
0.717000000000000526,-0.505363450544144444
0.718000000000000527,-0.504214218211427312
0.719000000000000528,-0.503073317197821446
0.720000000000000528,-0.501940511515259091
0.721000000000000529,-0.500815569669450289
0.722000000000000530,-0.499698264596598829
0.723000000000000531,-0.498588373600753587
0.724000000000000532,-0.497485678291873346
0.725000000000000533,-0.496389964524576066
0.726000000000000534,-0.495301022337534591
0.727000000000000535,-0.494218645893577613
0.728000000000000536,-0.493142633420425192
0.729000000000000536,-0.492072787152111779
0.730000000000000537,-0.491008913271053227
0.731000000000000538,-0.489950821850759610
0.732000000000000539,-0.488898326799206639
0.733000000000000540,-0.487851245802847111
0.734000000000000541,-0.486809400271249526
0.735000000000000542,-0.485772615282378140
0.736000000000000543,-0.484740719528501174
0.737000000000000544,-0.483713545262711986
0.738000000000000544,-0.482690928246080619
0.739000000000000545,-0.481672707695405378
0.740000000000000546,-0.480658726231579903
0.741000000000000547,-0.479648829828552503
0.742000000000000548,-0.478642867762915702
0.743000000000000549,-0.477640692564033631
0.744000000000000550,-0.476642159964803358
0.745000000000000551,-0.475647128852985990
0.746000000000000552,-0.474655461223101593
0.747000000000000552,-0.473667022128925086
0.748000000000000553,-0.472681679636517527
0.749000000000000554,-0.471699304777846051
0.750000000000000555,-0.470719771504952589
0.751000000000000556,-0.469742956644669363
0.752000000000000557,-0.468768739853905547
0.753000000000000558,-0.467797003575437909
0.754000000000000559,-0.466827632994286201
0.755000000000000560,-0.465860515994586055
0.756000000000000560,-0.464895543117015475
0.757000000000000561,-0.463932607516726936
0.758000000000000562,-0.462971604921802560
0.759000000000000563,-0.462012433592240757
0.760000000000000564,-0.461054994279430086
0.761000000000000565,-0.460099190186141871
0.762000000000000566,-0.459144926927015973
0.763000000000000567,-0.458192112489546777
0.764000000000000568,-0.457240657195550959
0.765000000000000568,-0.456290473663142293
0.766000000000000569,-0.455341476769157094
0.767000000000000570,-0.454393583612089924
0.768000000000000571,-0.453446713475459506
0.769000000000000572,-0.452500787791694836
0.770000000000000573,-0.451555730106432685
0.771000000000000574,-0.450611466043311482
0.772000000000000575,-0.449667923269195302
0.773000000000000576,-0.448725031459857981
0.774000000000000576,-0.447782722266107325
0.775000000000000577,-0.446840929280357624
0.776000000000000578,-0.445899588003618619
0.777000000000000579,-0.444958635812946479
0.778000000000000580,-0.444018011929287471
0.779000000000000581,-0.443077657385770263
0.780000000000000582,-0.442137514996398528
0.781000000000000583,-0.441197529325174309
0.782000000000000584,-0.440257646655617951
0.783000000000000584,-0.439317814960691055
0.784000000000000585,-0.438377983873138810
0.785000000000000586,-0.437438104656203142
0.786000000000000587,-0.436498130174754695
0.787000000000000588,-0.435558014866793464
0.788000000000000589,-0.434617714715335612
0.789000000000000590,-0.433677187220700755
0.790000000000000591,-0.432736391373146567
0.791000000000000592,-0.431795287625894253
0.792000000000000592,-0.430853837868518774
0.793000000000000593,-0.429912005400697350
0.794000000000000594,-0.428969754906320222
0.795000000000000595,-0.428027052427974675
0.796000000000000596,-0.427083865341737368
0.797000000000000597,-0.426140162332371897
0.798000000000000598,-0.425195913368826617
0.799000000000000599,-0.424251089680091009
0.800000000000000600,-0.423305663731393444
0.801000000000000600,-0.422359609200719521
0.802000000000000601,-0.421412900955666081
0.803000000000000602,-0.420465515030622128
0.804000000000000603,-0.419517428604273601
0.805000000000000604,-0.418568619977423229
0.806000000000000605,-0.417619068551114192
0.807000000000000606,-0.416668754805095021
0.808000000000000607,-0.415717660276558543
0.809000000000000608,-0.414765767539202801
0.810000000000000608,-0.413813060182601888
0.811000000000000609,-0.412859522791840405
0.812000000000000610,-0.411905140927486424
0.813000000000000611,-0.410949901105810700
0.814000000000000612,-0.409993790779324629
0.815000000000000613,-0.409036798317598982
0.816000000000000614,-0.408078912988335762
0.817000000000000615,-0.407120124938746497
0.818000000000000616,-0.406160425177201745
0.819000000000000616,-0.405199805555133186
0.820000000000000617,-0.404238258749210988
0.821000000000000618,-0.403275778243795291
0.822000000000000619,-0.402312358313646368
0.823000000000000620,-0.401347994006875208
0.824000000000000621,-0.400382681128164220
0.825000000000000622,-0.399416416222243886
0.826000000000000623,-0.398449196557606911
0.827000000000000624,-0.397481020110472150
0.828000000000000624,-0.396511885548994802
0.829000000000000625,-0.395541792217705024
0.830000000000000626,-0.394570740122202335
0.831000000000000627,-0.393598729914063750
0.832000000000000628,-0.392625762876007034
0.833000000000000629,-0.391651840907250304
0.834000000000000630,-0.390676966509126533
0.835000000000000631,-0.389701142770906617
0.836000000000000631,-0.388724373355843533
0.837000000000000632,-0.387746662487440885
0.838000000000000633,-0.386768014935919946
0.839000000000000634,-0.385788436004915802
0.840000000000000635,-0.384807931518382218
0.841000000000000636,-0.383826507807679296
0.842000000000000637,-0.382844171698905722
0.843000000000000638,-0.381860930500388718
0.844000000000000639,-0.380876791990406083
0.845000000000000639,-0.379891764405089039
0.846000000000000640,-0.378905856426517529
0.847000000000000641,-0.377919077171025186
0.848000000000000642,-0.376931436177663670
0.849000000000000643,-0.375942943396875395
0.850000000000000644,-0.374953609179357161
0.851000000000000645,-0.373963444265069556
0.852000000000000646,-0.372972459772470732
0.853000000000000647,-0.371980667187898018
0.854000000000000647,-0.370988078355127371
0.855000000000000648,-0.369994705465118812
0.856000000000000649,-0.369000561045920439
0.857000000000000650,-0.368005657952747645
0.858000000000000651,-0.367010009358217537
0.859000000000000652,-0.366013628742758779
0.860000000000000653,-0.365016529885183627
0.861000000000000654,-0.364018726853400643
0.862000000000000655,-0.363020233995318908
0.863000000000000655,-0.362021065929863939
0.864000000000000656,-0.361021237538190432
0.865000000000000657,-0.360020763955010703
0.866000000000000658,-0.359019660560096154
0.867000000000000659,-0.358017942969919845
0.868000000000000660,-0.357015627029430127
0.869000000000000661,-0.356012728803987266
0.870000000000000662,-0.355009264571430339
0.871000000000000663,-0.354005250814292238
0.872000000000000663,-0.353000704212136640
0.873000000000000664,-0.351995641634047618
0.874000000000000665,-0.350990080131241278
0.875000000000000666,-0.349984036929817721
0.876000000000000667,-0.348977529423637745
0.877000000000000668,-0.347970575167324769
0.878000000000000669,-0.346963191869409715
0.879000000000000670,-0.345955397385574848
0.880000000000000671,-0.344947209712047675
0.881000000000000671,-0.343938646979092821
0.882000000000000672,-0.342929727444644061
0.883000000000000673,-0.341920469488039003
0.884000000000000674,-0.340910891603879107
0.885000000000000675,-0.339901012395997904
0.886000000000000676,-0.338890850571552105
0.887000000000000677,-0.337880424935215251
0.888000000000000678,-0.336869754383478159
0.889000000000000679,-0.335858857899074992
0.890000000000000679,-0.334847754545498644
0.891000000000000680,-0.333836463461632593
0.892000000000000681,-0.332825003856480062
0.893000000000000682,-0.331813395003998035
0.894000000000000683,-0.330801656238029096
0.895000000000000684,-0.329789806947344666
0.896000000000000685,-0.328777866570769406
0.897000000000000686,-0.327765854592414307
0.898000000000000687,-0.326753790537002708
0.899000000000000687,-0.325741693965285350
0.900000000000000688,-0.324729584469553467
0.901000000000000689,-0.323717481669237916
0.902000000000000690,-0.322705405206609952
0.903000000000000691,-0.321693374742552662
0.904000000000000692,-0.320681409952433216
0.905000000000000693,-0.319669530522055989
0.906000000000000694,-0.318657756143704118
0.907000000000000695,-0.317646106512252058
0.908000000000000695,-0.316634601321386544
0.909000000000000696,-0.315623260259872918
0.910000000000000697,-0.314612103007936628
0.911000000000000698,-0.313601149233694254
0.912000000000000699,-0.312590418589680674
0.913000000000000700,-0.311579930709452058
0.914000000000000701,-0.310569705204240543
0.915000000000000702,-0.309559761659720656
0.916000000000000703,-0.308550119632814868
0.917000000000000703,-0.307540798648591907
0.918000000000000704,-0.306531818197224637
0.919000000000000705,-0.305523197731018659
0.920000000000000706,-0.304514956661519842
0.921000000000000707,-0.303507114356672991
0.922000000000000708,-0.302499690138056387
0.923000000000000709,-0.301492703278189222
0.924000000000000710,-0.300486172997880663
0.925000000000000711,-0.299480118463668510
0.926000000000000711,-0.298474558785298771
0.927000000000000712,-0.297469513013281450
0.928000000000000713,-0.296465000136497070
0.929000000000000714,-0.295461039079873644
0.930000000000000715,-0.294457648702105390
0.931000000000000716,-0.293454847793442442
0.932000000000000717,-0.292452655073539236
0.933000000000000718,-0.291451089189343315
0.934000000000000719,-0.290450168713055901
0.935000000000000719,-0.289449912140137489
0.936000000000000720,-0.288450337887366515
0.937000000000000721,-0.287451464290950809
0.938000000000000722,-0.286453309604699891
0.939000000000000723,-0.285455891998229516
0.940000000000000724,-0.284459229555232229
0.941000000000000725,-0.283463340271786379
0.942000000000000726,-0.282468242054726149
0.943000000000000727,-0.281473952720038334
0.944000000000000727,-0.280480489991328685
0.945000000000000728,-0.279487871498321327
0.946000000000000729,-0.278496114775395043
0.947000000000000730,-0.277505237260190663
0.948000000000000731,-0.276515256292227285
0.949000000000000732,-0.275526189111596931
0.950000000000000733,-0.274538052857664971
0.951000000000000734,-0.273550864567852103
0.952000000000000735,-0.272564641176419320
0.953000000000000735,-0.271579399513309727
0.954000000000000736,-0.270595156303037265
0.955000000000000737,-0.269611928163600911
0.956000000000000738,-0.268629731605442845
0.957000000000000739,-0.267648583030441700
0.958000000000000740,-0.266668498730944836
0.959000000000000741,-0.265689494888832756
0.960000000000000742,-0.264711587574628038
0.961000000000000743,-0.263734792746625146
0.962000000000000743,-0.262759126250063146
0.963000000000000744,-0.261784603816331729
0.964000000000000745,-0.260811241062214982
0.965000000000000746,-0.259839053489150928
0.966000000000000747,-0.258868056482540410
0.967000000000000748,-0.257898265311074570
0.968000000000000749,-0.256929695126109692
0.969000000000000750,-0.255962360961046631
0.970000000000000751,-0.254996277730770105
0.971000000000000751,-0.254031460231086359
0.972000000000000752,-0.253067923138206807
0.973000000000000753,-0.252105681008272020
0.974000000000000754,-0.251144748276867669
0.975000000000000755,-0.250185139258600031
0.976000000000000756,-0.249226868146683322
0.977000000000000757,-0.248269949012553059
0.978000000000000758,-0.247314395805505211
0.979000000000000759,-0.246360222352374869
0.980000000000000759,-0.245407442357206629
0.981000000000000760,-0.244456069400983328
0.982000000000000761,-0.243506116941364370
0.983000000000000762,-0.242557598312438921
0.984000000000000763,-0.241610526724511276
0.985000000000000764,-0.240664915263914647
0.986000000000000765,-0.239720776892830750
0.987000000000000766,-0.238778124449139012
0.988000000000000766,-0.237836970646287782
0.989000000000000767,-0.236897328073190833
0.990000000000000768,-0.235959209194131103
0.991000000000000769,-0.235022626348689256
0.992000000000000770,-0.234087591751694996
0.993000000000000771,-0.233154117493203916
0.994000000000000772,-0.232222215538467086
0.995000000000000773,-0.231291897727955387
0.996000000000000774,-0.230363175777364676
0.997000000000000774,-0.229436061277668385
0.998000000000000775,-0.228510565695168200
0.999000000000000776,-0.227586700371569028
1.000000000000000666,-0.226664476524067876
1.001000000000000778,-0.225743905245464255
1.002000000000000668,-0.224824997504276425
1.003000000000000780,-0.223907764144878951
1.004000000000000670,-0.222992215887656137
1.005000000000000782,-0.222078363329167944
1.006000000000000671,-0.221166216942333932
1.007000000000000783,-0.220255787076616472
1.008000000000000673,-0.219347083958241429
1.009000000000000785,-0.218440117690414493
1.010000000000000675,-0.217534898253554820
1.011000000000000787,-0.216631435505539871
1.012000000000000677,-0.215729739181974051
1.013000000000000789,-0.214829818896452529
1.014000000000000679,-0.213931684140842737
1.015000000000000790,-0.213035344285589456
1.016000000000000680,-0.212140808580016105
1.017000000000000792,-0.211248086152636849
1.018000000000000682,-0.210357186011494862
1.019000000000000794,-0.209468117044492474
1.020000000000000684,-0.208580888019747862
1.021000000000000796,-0.207695507585949291
1.022000000000000686,-0.206811984272721988
1.023000000000000798,-0.205930326491014004
1.024000000000000687,-0.205050542533474711
1.025000000000000799,-0.204172640574856235
1.026000000000000689,-0.203296628672420876
1.027000000000000801,-0.202422514766349815
1.028000000000000691,-0.201550306680167879
1.029000000000000803,-0.200680012121173867
1.030000000000000693,-0.199811638680875314
1.031000000000000805,-0.198945193835442069
1.032000000000000695,-0.198080684946146640
1.033000000000000806,-0.197218119259839619
1.034000000000000696,-0.196357503909406594
1.035000000000000808,-0.195498845914242964
1.036000000000000698,-0.194642152180734718
1.037000000000000810,-0.193787429502758707
1.038000000000000700,-0.192934684562153652
1.039000000000000812,-0.192083923929233430
1.040000000000000702,-0.191235154063292473
1.041000000000000814,-0.190388381313115918
1.042000000000000703,-0.189543611917485755
1.043000000000000815,-0.188700852005716707
1.044000000000000705,-0.187860107598178672
1.045000000000000817,-0.187021384606819996
1.046000000000000707,-0.186184688835716011
1.047000000000000819,-0.185350025981605965
1.048000000000000709,-0.184517401634432421
1.049000000000000821,-0.183686821277902396
1.050000000000000711,-0.182858290290027842
1.051000000000000822,-0.182031813943699106
1.052000000000000712,-0.181207397407234766
1.053000000000000824,-0.180385045744949346
1.054000000000000714,-0.179564763917727632
1.055000000000000826,-0.178746556783590860
1.056000000000000716,-0.177930429098278442
1.057000000000000828,-0.177116385515820929
1.058000000000000718,-0.176304430589124178
1.059000000000000830,-0.175494568770553666
1.060000000000000719,-0.174686804412526403
1.061000000000000831,-0.173881141768090275
1.062000000000000721,-0.173077584991525035
1.063000000000000833,-0.172276138138938995
1.064000000000000723,-0.171476805168855162
1.065000000000000835,-0.170679589942817650
1.066000000000000725,-0.169884496225998022
1.067000000000000837,-0.169091527687779686
1.068000000000000727,-0.168300687902386059
1.069000000000000838,-0.167511980349466155
1.070000000000000728,-0.166725408414714671
1.071000000000000840,-0.165940975390475531
1.072000000000000730,-0.165158684476355677
1.073000000000000842,-0.164378538779835603
1.074000000000000732,-0.163600541316875236
1.075000000000000844,-0.162824695012539156
1.076000000000000734,-0.162051002701605468
1.077000000000000846,-0.161279467129175097
1.078000000000000735,-0.160510090951301337
1.079000000000000847,-0.159742876735592121
1.080000000000000737,-0.158977826961842011
1.081000000000000849,-0.158214944022633669
1.082000000000000739,-0.157454230223968566
1.083000000000000851,-0.156695687785878973
1.084000000000000741,-0.155939318843050595
1.085000000000000853,-0.155185125445435529
1.086000000000000743,-0.154433109558875209
1.087000000000000854,-0.153683273065716941
1.088000000000000744,-0.152935617765437820
1.089000000000000856,-0.152190145375250274
1.090000000000000746,-0.151446857530732198
1.091000000000000858,-0.150705755786441187
1.092000000000000748,-0.149966841616527569
1.093000000000000860,-0.149230116415357550
1.094000000000000750,-0.148495581498121754
1.095000000000000862,-0.147763238101457806
1.096000000000000751,-0.147033087384063149
1.097000000000000863,-0.146305130427302782
1.098000000000000753,-0.145579368235833312
1.099000000000000865,-0.144855801738209722
1.100000000000000755,-0.144134431787492134
1.101000000000000867,-0.143415259161863429
1.102000000000000757,-0.142698284565237782
1.103000000000000869,-0.141983508627868654
1.104000000000000759,-0.141270931906947450
1.105000000000000870,-0.140560554887225714
1.106000000000000760,-0.139852377981603382
1.107000000000000872,-0.139146401531742459
1.108000000000000762,-0.138442625808669006
1.109000000000000874,-0.137741051013367005
1.110000000000000764,-0.137041677277382895
1.111000000000000876,-0.136344504663421240
1.112000000000000766,-0.135649533165941666
1.113000000000000878,-0.134956762711752110
1.114000000000000767,-0.134266193160607117
1.115000000000000879,-0.133577824305788684
1.116000000000000769,-0.132891655874705500
1.117000000000000881,-0.132207687529475204
1.118000000000000771,-0.131525918867513025
1.119000000000000883,-0.130846349422115565
1.120000000000000773,-0.130168978663044582
1.121000000000000885,-0.129493805997102168
1.122000000000000774,-0.128820830768714312
1.123000000000000886,-0.128150052260504049
1.124000000000000776,-0.127481469693874222
1.125000000000000888,-0.126815082229564557
1.126000000000000778,-0.126150888968234731
1.127000000000000890,-0.125488888951034716
1.128000000000000780,-0.124829081160156383
1.129000000000000892,-0.124171464519412814
1.130000000000000782,-0.123516037894792069
1.131000000000000894,-0.122862800095018973
1.132000000000000783,-0.122211749872112585
1.133000000000000895,-0.121562885921946195
1.134000000000000785,-0.120916206884784952
1.135000000000000897,-0.120271711345860122
1.136000000000000787,-0.119629397835895282
1.137000000000000899,-0.118989264831666983
1.138000000000000789,-0.118351310756537736
1.139000000000000901,-0.117715533981011158
1.140000000000000790,-0.117081932823258891
1.141000000000000902,-0.116450505549654595
1.142000000000000792,-0.115821250375323231
1.143000000000000904,-0.115194165464657397
1.144000000000000794,-0.114569248931859713
1.145000000000000906,-0.113946498841451402
1.146000000000000796,-0.113325913208817713
1.147000000000000908,-0.112707490000713714
1.148000000000000798,-0.112091227135790963
1.149000000000000909,-0.111477122485111685
1.150000000000000799,-0.110865173872660303
1.151000000000000689,-0.110255379075859319
1.152000000000000801,-0.109647735826077924
1.153000000000000913,-0.109042241809133772
1.154000000000000803,-0.108438894665800506
1.155000000000000693,-0.107837691992304571
1.156000000000000805,-0.107238631340832377
1.157000000000000917,-0.106641710220012231
1.158000000000000806,-0.106046926095421920
1.159000000000000696,-0.105454276390067811
1.160000000000000808,-0.104863758484877168
1.161000000000000920,-0.104275369719184274
1.162000000000000810,-0.103689107391212468
1.163000000000000700,-0.103104968758548798
1.164000000000000812,-0.102522951038629434
1.165000000000000924,-0.101943051409203192
1.166000000000000814,-0.101365267008816137
1.167000000000000703,-0.100789594937267357
1.168000000000000815,-0.100216032256085927
1.169000000000000927,-0.099644575988984213
1.170000000000000817,-0.099075223122330733
1.171000000000000707,-0.098507970605592049
1.172000000000000819,-0.097942815351805115
1.173000000000000931,-0.097379754238017618
1.174000000000000821,-0.096818784105740824
1.175000000000000711,-0.096259901761399591
1.176000000000000822,-0.095703103976774423
1.177000000000000934,-0.095148387489440323
1.178000000000000824,-0.094595749003211257
1.179000000000000714,-0.094045185188568858
1.180000000000000826,-0.093496692683105065
1.181000000000000938,-0.092950268091943331
1.182000000000000828,-0.092405907988171276
1.183000000000000718,-0.091863608913266268
1.184000000000000830,-0.091323367377517145
1.185000000000000941,-0.090785179860437770
1.186000000000000831,-0.090249042811196070
1.187000000000000721,-0.089714952649013940
1.188000000000000833,-0.089182905763591308
1.189000000000000945,-0.088652898515506909
1.190000000000000835,-0.088124927236629194
1.191000000000000725,-0.087598988230508434
1.192000000000000837,-0.087075077772798215
1.193000000000000949,-0.086553192111627542
1.194000000000000838,-0.086033327468019102
1.195000000000000728,-0.085515480036263164
1.196000000000000840,-0.084999645984319055
1.197000000000000952,-0.084485821454199889
1.198000000000000842,-0.083974002562349548
1.199000000000000732,-0.083464185400038221
1.200000000000000844,-0.082956366033721654
1.201000000000000956,-0.082450540505437195
1.202000000000000846,-0.081946704833162992
1.203000000000000735,-0.081444855011198997
1.204000000000000847,-0.080944987010522995
1.205000000000000959,-0.080447096779171862
1.206000000000000849,-0.079951180242590666
1.207000000000000739,-0.079457233303996913
1.208000000000000851,-0.078965251844742124
1.209000000000000963,-0.078475231724662725
1.210000000000000853,-0.077987168782433544
1.211000000000000743,-0.077501058835916015
1.212000000000000854,-0.077016897682508106
1.213000000000000966,-0.076534681099484067
1.214000000000000856,-0.076054404844344864
1.215000000000000746,-0.075576064655143674
1.216000000000000858,-0.075099656250840335
1.217000000000000970,-0.074625175331618387
1.218000000000000860,-0.074152617579226185
1.219000000000000750,-0.073681978657305719
1.220000000000000862,-0.073213254211715317
1.221000000000000973,-0.072746439870854454
1.222000000000000863,-0.072281531245989322
1.223000000000000753,-0.071818523931563766
1.224000000000000865,-0.071357413505524894
1.225000000000000977,-0.070898195529628866
1.226000000000000867,-0.070440865549758563
1.227000000000000757,-0.069985419096227866
1.228000000000000869,-0.069531851684085336
1.229000000000000981,-0.069080158813434184
1.230000000000000870,-0.068630335969710229
1.231000000000000760,-0.068182378623997397
1.232000000000000872,-0.067736282233323508
1.233000000000000984,-0.067292042240941832
1.234000000000000874,-0.066849654076642062
1.235000000000000764,-0.066409113157020250
1.236000000000000876,-0.065970414885779899
1.237000000000000988,-0.065533554654007953
1.238000000000000878,-0.065098527840465228
1.239000000000000767,-0.064665329811855882
1.240000000000000879,-0.064233955923115427
1.241000000000000991,-0.063804401517677328
1.242000000000000881,-0.063376661927750072
1.243000000000000771,-0.062950732474588600
1.244000000000000883,-0.062526608468756656
1.245000000000000995,-0.062104285210401830
1.246000000000000885,-0.061683757989510798
1.247000000000000774,-0.061265022086173924
1.248000000000000886,-0.060848072770845266
1.249000000000000998,-0.060432905304596440
1.250000000000000888,-0.060019514939376475
1.251000000000000778,-0.059607896918256451
1.252000000000000890,-0.059198046475686675
1.253000000000001002,-0.058789958837736869
1.254000000000000892,-0.058383629222352240
1.255000000000000782,-0.057979052839587777
1.256000000000000894,-0.057576224891850825
1.257000000000001005,-0.057175140574146299
1.258000000000000895,-0.056775795074307953
1.259000000000000785,-0.056378183573232279
1.260000000000000897,-0.055982301245115607
1.261000000000001009,-0.055588143257682666
1.262000000000000899,-0.055195704772413104
1.263000000000000789,-0.054804980944769342
1.264000000000000901,-0.054415966924424339
1.265000000000001013,-0.054028657855475518
1.266000000000000902,-0.053643048876671727
1.267000000000000792,-0.053259135121629622
1.268000000000000904,-0.052876911719047091
1.269000000000001016,-0.052496373792920159
1.270000000000000906,-0.052117516462755330
1.271000000000000796,-0.051740334843775979
1.272000000000000908,-0.051364824047131240
1.273000000000001020,-0.050990979180105846
1.274000000000000909,-0.050618795346319342
1.275000000000000799,-0.050248267645927144
1.276000000000000911,-0.049879391175829339
1.277000000000001023,-0.049512161029855575
1.278000000000000913,-0.049146572298972534
1.279000000000000803,-0.048782620071471647
1.280000000000000915,-0.048420299433168099
1.281000000000001027,-0.048059605467576615
1.282000000000000917,-0.047700533256120489
1.283000000000000806,-0.047343077878299548
1.284000000000000918,-0.046987234411889206
1.285000000000001030,-0.046632997933111299
1.286000000000000920,-0.046280363516827037
1.287000000000000810,-0.045929326236702893
1.288000000000000922,-0.045579881165404047
1.289000000000001034,-0.045232023374754793
1.290000000000000924,-0.044885747935918471
1.291000000000000814,-0.044541049919575963
1.292000000000000925,-0.044197924396081847
1.293000000000001037,-0.043856366435647352
1.294000000000000927,-0.043516371108498306
1.295000000000000817,-0.043177933485042050
1.296000000000000929,-0.042841048636031588
1.297000000000001041,-0.042505711632724909
1.298000000000000931,-0.042171917547050547
1.299000000000000821,-0.041839661451759547
1.300000000000000933,-0.041508938420583633
1.301000000000001044,-0.041179743528392196
1.302000000000000934,-0.040852071851341779
1.303000000000000824,-0.040525918467033573
1.304000000000000936,-0.040201278454653704
1.305000000000001048,-0.039878146895131604
1.306000000000000938,-0.039556518871283280
1.307000000000000828,-0.039236389467950529
1.308000000000000940,-0.038917753772149247
1.309000000000001052,-0.038600606873216960
1.310000000000000941,-0.038284943862942962
1.311000000000000831,-0.037970759835710785
1.312000000000000943,-0.037658049888633159
1.313000000000001055,-0.037346809121699090
1.314000000000000945,-0.037037032637891279
1.315000000000000835,-0.036728715543328315
1.316000000000000947,-0.036421852947393384
1.317000000000001059,-0.036116439962867543
1.318000000000000949,-0.035812471706048385
1.319000000000000838,-0.035509943296889689
1.320000000000000950,-0.035208849859115911
1.321000000000001062,-0.034909186520347101
1.322000000000000952,-0.034610948412228351
1.323000000000000842,-0.034314130670542183
1.324000000000000954,-0.034018728435334246
1.325000000000001066,-0.033724736851022966
1.326000000000000956,-0.033432151066528880
1.327000000000000846,-0.033140966235375838
1.328000000000000957,-0.032851177515816385
1.329000000000001069,-0.032562780070933238
1.330000000000000959,-0.032275769068762394
1.331000000000000849,-0.031990139682393295
1.332000000000000961,-0.031705887090078766
1.333000000000001073,-0.031423006475344649
1.334000000000000963,-0.031141493027096290
1.335000000000000853,-0.030861341939716715
1.336000000000000965,-0.030582548413177681
1.337000000000001076,-0.030305107653135654
1.338000000000000966,-0.030029014871033204
1.339000000000000856,-0.029754265284202171
1.340000000000000968,-0.029480854115955489
1.341000000000001080,-0.029208776595686780
1.342000000000000970,-0.028938027958967431
1.343000000000000860,-0.028668603447637709
1.344000000000000972,-0.028400498309900258
1.345000000000001084,-0.028133707800417261
1.346000000000000973,-0.027868227180391204
1.347000000000000863,-0.027604051717661615
1.348000000000000975,-0.027341176686788916
1.349000000000001087,-0.027079597369145225
1.350000000000000977,-0.026819309052997897
1.351000000000000867,-0.026560307033596457
1.352000000000000979,-0.026302586613246935
1.353000000000001091,-0.026046143101408913
1.354000000000000981,-0.025790971814767260
1.355000000000000870,-0.025537068077310522
1.356000000000000982,-0.025284427220416454
1.357000000000001094,-0.025033044582927266
1.358000000000000984,-0.024782915511223351
1.359000000000000874,-0.024534035359301785
1.360000000000000986,-0.024286399488851459
1.361000000000001098,-0.024040003269327724
1.362000000000000988,-0.023794842078017409
1.363000000000000878,-0.023550911300116956
1.364000000000000989,-0.023308206328807455
1.365000000000001101,-0.023066722565308589
1.366000000000000991,-0.022826455418961143
1.367000000000000881,-0.022587400307287803
1.368000000000000993,-0.022349552656061707
1.369000000000001105,-0.022112907899369989
1.370000000000000995,-0.021877461479677632
1.371000000000000885,-0.021643208847892385
1.372000000000000997,-0.021410145463426660
1.373000000000001108,-0.021178266794261689
1.374000000000000998,-0.020947568316994958
1.375000000000000888,-0.020718045516920525
1.376000000000001000,-0.020489693888069826
1.377000000000001112,-0.020262508933277516
1.378000000000001002,-0.020036486164235097
1.379000000000000892,-0.019811621101548573
1.380000000000001004,-0.019587909274789768
1.381000000000001116,-0.019365346222557971
1.382000000000001005,-0.019143927492520672
1.383000000000000895,-0.018923648641475572
1.384000000000001007,-0.018704505235398801
1.385000000000001119,-0.018486492849494291
1.386000000000001009,-0.018269607068244643
1.387000000000000899,-0.018053843485453056
1.388000000000001011,-0.017839197704307884
1.389000000000001123,-0.017625665337407691
1.390000000000001013,-0.017413242006823818
1.391000000000000902,-0.017201923344135998
1.392000000000001014,-0.016991704990482782
1.393000000000001126,-0.016782582596600600
1.394000000000001016,-0.016574551822871802
1.395000000000000906,-0.016367608339360913
1.396000000000001018,-0.016161747825856797
1.397000000000001130,-0.015956965971915878
1.398000000000001020,-0.015753258476902104
1.399000000000000909,-0.015550621050020873
1.400000000000001021,-0.015349049410360102
1.401000000000001133,-0.015148539286930232
1.402000000000001023,-0.014949086418695365
1.403000000000000913,-0.014750686554611037
1.404000000000001025,-0.014553335453661723
1.405000000000001137,-0.014357028884892533
1.406000000000001027,-0.014161762627441333
1.407000000000000917,-0.013967532470579839
1.408000000000001029,-0.013774334213730848
1.409000000000001140,-0.013582163666516859
1.410000000000001030,-0.013391016648777307
1.411000000000000920,-0.013200888990606476
1.412000000000001032,-0.013011776532376857
1.413000000000001144,-0.012823675124775225
1.414000000000001034,-0.012636580628825042
1.415000000000000924,-0.012450488915912564
1.416000000000001036,-0.012265395867820161
1.417000000000001148,-0.012081297376749104
1.418000000000001037,-0.011898189345340695
1.419000000000000927,-0.011716067686706882
1.420000000000001039,-0.011534928324450733
1.421000000000001151,-0.011354767192694732
1.422000000000001041,-0.011175580236097563
1.423000000000000931,-0.010997363409879304
1.424000000000001043,-0.010820112679843711
1.425000000000001155,-0.010643824022398029
1.426000000000001044,-0.010468493424573063
1.427000000000000934,-0.010294116884046961
1.428000000000001046,-0.010120690409158913
1.429000000000001158,-0.009948210018928330
1.430000000000001048,-0.009776671743079047
1.431000000000000938,-0.009606071622049761
1.432000000000001050,-0.009436405707015105
1.433000000000001162,-0.009267670059901492
1.434000000000001052,-0.009099860753399688
1.435000000000000941,-0.008932973870986644
1.436000000000001053,-0.008767005506934327
1.437000000000001165,-0.008601951766323229
1.438000000000001055,-0.008437808765064994
1.439000000000000945,-0.008274572629905755
1.440000000000001057,-0.008112239498444255
1.441000000000001169,-0.007950805519138057
1.442000000000001059,-0.007790266851323159
1.443000000000000949,-0.007630619665222420
1.444000000000001060,-0.007471860141952898
1.445000000000001172,-0.007313984473535875
1.446000000000001062,-0.007156988862915751
1.447000000000000952,-0.007000869523954717
1.448000000000001064,-0.006845622681452984
1.449000000000001176,-0.006691244571155238
1.450000000000001066,-0.006537731439750750
1.451000000000000956,-0.006385079544888500
1.452000000000001068,-0.006233285155183283
1.453000000000001180,-0.006082344550217817
1.454000000000001069,-0.005932254020552245
1.455000000000000959,-0.005783009867728889
1.456000000000001071,-0.005634608404274226
1.457000000000001183,-0.005487045953711205
1.458000000000001073,-0.005340318850555704
1.459000000000000963,-0.005194423440320906
1.460000000000001075,-0.005049356079525868
1.461000000000001187,-0.004905113135691580
1.462000000000001076,-0.004761690987353807
1.463000000000000966,-0.004619086024051266
1.464000000000001078,-0.004477294646336426
1.465000000000001190,-0.004336313265779845
1.466000000000001080,-0.004196138304957717
1.467000000000000970,-0.004056766197466898
1.468000000000001082,-0.003918193387918166
1.469000000000001194,-0.003780416331932916
1.470000000000001084,-0.003643431496150319
1.471000000000000973,-0.003507235358218519
1.472000000000001085,-0.003371824406801236
1.473000000000001197,-0.003237195141568563
1.474000000000001087,-0.003103344073199587
1.475000000000000977,-0.002970267723375156
1.476000000000001089,-0.002837962624782263
1.477000000000001201,-0.002706425321105629
1.478000000000001091,-0.002575652367023755
1.479000000000000981,-0.002445640328209329
1.480000000000001092,-0.002316385781318554
1.481000000000001204,-0.002187885313993719
1.482000000000001094,-0.002060135524853751
1.483000000000000984,-0.001933133023491949
1.484000000000001096,-0.001806874430468307
1.485000000000001208,-0.001681356377300801
1.486000000000001098,-0.001556575506468836
1.487000000000000988,-0.001432528471396997
1.488000000000001100,-0.001309211936450243
1.489000000000001211,-0.001186622576933230
1.490000000000001101,-0.001064757079076639
1.491000000000000991,-0.000943612140028773
1.492000000000001103,-0.000823184467854463
1.493000000000001215,-0.000703470781520962
1.494000000000001105,-0.000584467810889017
1.495000000000000995,-0.000466172296707920
1.496000000000001107,-0.000348580990604994
1.497000000000001219,-0.000231690655075106
1.498000000000001108,-0.000115498063473343
1.499000000000000998,0.000000000000000000
