# hydroxyapatite-001-ph14_BSAI4
# h[nm],U(h)[kJ/mol]
0.149999999999999994,98.298554127597398633
0.150999999999999995,96.887925248233742082
0.151999999999999996,95.051419683405654837
0.152999999999999997,93.144683868921930525
0.153999999999999998,91.307989308756134506
0.154999999999999999,89.574830015197989042
0.156000000000000000,87.932896039708538183
0.157000000000000001,86.356146948525548623
0.158000000000000002,84.819954527899994901
0.159000000000000002,83.306806274842742255
0.160000000000000003,81.807132744765198140
0.161000000000000004,80.317937998860941207
0.162000000000000005,78.840725465809612160
0.163000000000000006,77.379483562867761748
0.164000000000000007,75.939064977461768535
0.165000000000000008,74.524052157191647439
0.166000000000000009,73.138077327827559770
0.167000000000000010,71.783511189893587812
0.168000000000000010,70.461420115150218635
0.169000000000000011,69.171698227170523410
0.170000000000000012,67.913296699771407816
0.171000000000000013,66.684491269909841549
0.172000000000000014,65.483146735468039878
0.173000000000000015,64.306952387903777435
0.174000000000000016,63.153614335806665281
0.175000000000000017,62.020999557705067673
0.176000000000000018,60.907232647119791125
0.177000000000000018,59.810750072325220117
0.178000000000000019,58.730318876457104693
0.179000000000000020,57.665027557161444349
0.180000000000000021,56.614256786588953219
0.181000000000000022,55.577636983177072239
0.182000000000000023,54.554998773650346777
0.183000000000000024,53.546321269108624108
0.184000000000000025,52.551681950454010916
0.185000000000000026,51.571210899435563135
0.186000000000000026,50.605051172210991695
0.187000000000000027,49.653326317410282797
0.188000000000000028,48.716115397279018850
0.189000000000000029,47.793435373574311598
0.190000000000000030,46.885230356909808336
0.191000000000000031,45.991366972433397109
0.192000000000000032,45.111634947540977691
0.193000000000000033,44.245751960176882278
0.194000000000000034,43.393371781589678449
0.195000000000000034,42.554094789341874616
0.196000000000000035,41.727480001117108088
0.197000000000000036,40.913057875799367480
0.198000000000000037,40.110343235908054282
0.199000000000000038,39.318847777240719665
0.200000000000000039,38.538091741758002229
0.201000000000000040,37.767614434147830593
0.202000000000000041,37.006983358243090265
0.203000000000000042,36.255801834737312106
0.204000000000000042,35.513715035506166373
0.205000000000000043,34.780414432042149997
0.206000000000000044,34.055640706293203834
0.207000000000000045,33.339185212180680651
0.208000000000000046,32.630890106128752848
0.209000000000000047,31.930647286083843284
0.210000000000000048,31.238396291842615682
0.211000000000000049,30.554121326158202976
0.212000000000000050,29.877847557149046054
0.213000000000000050,29.209636859033459189
0.214000000000000051,28.549583141110794315
0.215000000000000052,27.897807405075859322
0.216000000000000053,27.254452658955123923
0.217000000000000054,26.619678802858324218
0.218000000000000055,25.993657587918754359
0.219000000000000056,25.376567735725323871
0.220000000000000057,24.768590291616895627
0.221000000000000058,24.169904271730061396
0.222000000000000058,23.580682650895088415
0.223000000000000059,23.001088726547976648
0.224000000000000060,22.431272882882662856
0.225000000000000061,21.871369769588291376
0.226000000000000062,21.321495900735808249
0.227000000000000063,20.781747671703239888
0.228000000000000064,20.252199785439358948
0.229000000000000065,19.732904073819280910
0.230000000000000066,19.223888695290803241
0.231000000000000066,18.725157686376149968
0.232000000000000067,18.236690841811508790
0.233000000000000068,17.758443896093456971
0.234000000000000069,17.290348977880967141
0.235000000000000070,16.832315307992310238
0.236000000000000071,16.384230111560704302
0.237000000000000072,15.945959715195510142
0.238000000000000073,15.517350800666978472
0.239000000000000073,15.098231787626058775
0.240000000000000074,14.688414319122879093
0.241000000000000075,14.287694825146356692
0.242000000000000076,13.895856141019354624
0.243000000000000077,13.512669159204623526
0.244000000000000078,13.137894494868049833
0.245000000000000079,12.771284147370312922
0.246000000000000080,12.412583141688809718
0.247000000000000081,12.061531135579967255
0.248000000000000081,11.717863980059691542
0.249000000000000082,11.381315222486810157
0.250000000000000111,11.051617543168074320
0.251000000000000112,10.728504117952351038
0.252000000000000113,10.411709900737232459
0.253000000000000114,10.100972821169927229
0.254000000000000115,9.796034894078601951
0.255000000000000115,9.496643238322759473
0.256000000000000116,9.202551003798340901
0.257000000000000117,8.913518206278080669
0.258000000000000118,8.629312470612255481
0.259000000000000119,8.349709683561695073
0.260000000000000120,8.074494558188719751
0.261000000000000121,7.803461112296948166
0.262000000000000122,7.536413063891737707
0.263000000000000123,7.273164147036017546
0.264000000000000123,7.013538351805323146
0.265000000000000124,6.757370092307989573
0.266000000000000125,6.504504306935778857
0.267000000000000126,6.254796495153511771
0.268000000000000127,6.008112695227437960
0.269000000000000128,5.764329407337959843
0.270000000000000129,5.523333466526308300
0.271000000000000130,5.285021869892558399
0.272000000000000131,5.049301562398345489
0.273000000000000131,4.816089185535693318
0.274000000000000132,4.585310793007959518
0.275000000000000133,4.356901537433119032
0.276000000000000134,4.130805331927457580
0.277000000000000135,3.906974490262329347
0.278000000000000136,3.685369349109970383
0.279000000000000137,3.465957875710313552
0.280000000000000138,3.248715264101075917
0.281000000000000139,3.033623522859621335
0.282000000000000139,2.820671057110543334
0.283000000000000140,2.609852247357727695
0.284000000000000141,2.401167027506526441
0.285000000000000142,2.194620464250941261
0.286000000000000143,1.990222339814259556
0.287000000000000144,1.787986739849861006
0.288000000000000145,1.587931648132511642
0.289000000000000146,1.390078549501265082
0.290000000000000147,1.194452042351464849
0.291000000000000147,1.001079461818162653
0.292000000000000148,0.809990514644618131
0.293000000000000149,0.621216926589600371
0.294000000000000150,0.434792103094203131
0.295000000000000151,0.250750803804595690
0.296000000000000152,0.069128831430314452
0.297000000000000153,-0.110037264691018780
0.298000000000000154,-0.286710470052803756
0.299000000000000155,-0.460853571285956221
0.300000000000000155,-0.632429407222555029
0.301000000000000156,-0.801401104704935419
0.302000000000000157,-0.967732299200878665
0.303000000000000158,-1.131387340350234139
0.304000000000000159,-1.292331482627504302
0.305000000000000160,-1.450531061357402507
0.306000000000000161,-1.605953654367301198
0.307000000000000162,-1.758568229601979116
0.308000000000000163,-1.908345279062000799
0.309000000000000163,-2.055256939458530496
0.310000000000000164,-2.199277100003936170
0.311000000000000165,-2.340381497779929099
0.312000000000000166,-2.478547801143373253
0.313000000000000167,-2.613755681644478912
0.314000000000000168,-2.745986874943347367
0.315000000000000169,-2.875225231218786703
0.316000000000000170,-3.001456755568625567
0.317000000000000171,-3.124669638902891400
0.318000000000000171,-3.244854279831471899
0.319000000000000172,-3.362003298045725508
0.320000000000000173,-3.476111539689109797
0.321000000000000174,-3.587176075206198078
0.322000000000000175,-3.695196190151771809
0.323000000000000176,-3.800173369432828796
0.324000000000000177,-3.902111275446175309
0.325000000000000178,-4.001015720562868694
0.326000000000000179,-4.096894634398952739
0.327000000000000179,-4.189758026298590288
0.328000000000000180,-4.279617943442391770
0.329000000000000181,-4.366488424979475091
0.330000000000000182,-4.450385452567189759
0.331000000000000183,-4.531326897687749877
0.332000000000000184,-4.609332466095673375
0.333000000000000185,-4.684423639734836442
0.334000000000000186,-4.756623616448589331
0.335000000000000187,-4.825957247791057725
0.336000000000000187,-4.892450975232613075
0.337000000000000188,-4.956132765037120969
0.338000000000000189,-5.017032042074001552
0.339000000000000190,-5.075179622813199565
0.340000000000000191,-5.130607647736634469
0.341000000000000192,-5.183349513385855367
0.342000000000000193,-5.233439804251442062
0.343000000000000194,-5.280914224696614312
0.344000000000000195,-5.325809531093861793
0.345000000000000195,-5.368163464341472846
0.346000000000000196,-5.408014682913749205
0.347000000000000197,-5.445402696587437141
0.348000000000000198,-5.480367800975133541
0.349000000000000199,-5.512951012985494614
0.350000000000000200,-5.543194007319625527
0.351000000000000201,-5.571139054102756560
0.352000000000000202,-5.596828957740642707
0.353000000000000203,-5.620306997081039313
0.354000000000000203,-5.641616866951657094
0.355000000000000204,-5.660802621137548840
0.356000000000000205,-5.677908616853178714
0.357000000000000206,-5.692979460756755650
0.358000000000000207,-5.706059956547133716
0.359000000000000208,-5.717195054177134139
0.360000000000000209,-5.726429800710718609
0.361000000000000210,-5.733809292845289285
0.362000000000000210,-5.739378631115134688
0.363000000000000211,-5.743182875786504660
0.364000000000000212,-5.745267004450187009
0.365000000000000213,-5.745675871312629468
0.366000000000000214,-5.744454168182679510
0.367000000000000215,-5.741646387146883690
0.368000000000000216,-5.737296784922844672
0.369000000000000217,-5.731449348876632932
0.370000000000000218,-5.724147764687361750
0.371000000000000218,-5.715435385638995669
0.372000000000000219,-5.705355203517183504
0.373000000000000220,-5.693949821086377483
0.374000000000000221,-5.681261426120551405
0.375000000000000222,-5.667331766958739081
0.376000000000000223,-5.652202129555312204
0.377000000000000224,-5.635913315993047235
0.378000000000000225,-5.618505624425961464
0.379000000000000226,-5.600018830417712756
0.380000000000000226,-5.580492169640437261
0.381000000000000227,-5.559964321897925110
0.382000000000000228,-5.538473396436667251
0.383000000000000229,-5.516056918507452167
0.384000000000000230,-5.492751817139948756
0.385000000000000231,-5.468594414092518896
0.386000000000000232,-5.443620413939015634
0.387000000000000233,-5.417864895254617785
0.388000000000000234,-5.391362302862415135
0.389000000000000234,-5.364146441102876750
0.390000000000000235,-5.336250468088240773
0.391000000000000236,-5.307706890904351660
0.392000000000000237,-5.278547561722598758
0.393000000000000238,-5.248803674785188278
0.394000000000000239,-5.218505764227219679
0.395000000000000240,-5.187683702699731114
0.396000000000000241,-5.156366700758302279
0.397000000000000242,-5.124583306982342989
0.398000000000000242,-5.092361408791019173
0.399000000000000243,-5.059728233922170304
0.400000000000000244,-5.026710352541400084
0.401000000000000245,-4.993333679949278014
0.402000000000000246,-4.959623479855124195
0.403000000000000247,-4.925604368186787596
0.404000000000000248,-4.891300317406530596
0.405000000000000249,-4.856734661303858225
0.406000000000000250,-4.821930100236969885
0.407000000000000250,-4.786908706795312440
0.408000000000000251,-4.751691931856465878
0.409000000000000252,-4.716300611011416066
0.410000000000000253,-4.680754971333114689
0.411000000000000254,-4.645074638463932537
0.412000000000000255,-4.609278643998483638
0.413000000000000256,-4.573385433139135259
0.414000000000000257,-4.537412872602077485
0.415000000000000258,-4.501378258753008232
0.416000000000000258,-4.465298325951792435
0.417000000000000259,-4.429189255086626531
0.418000000000000260,-4.393066682278724322
0.419000000000000261,-4.356945707739406259
0.420000000000000262,-4.320840904762146550
0.421000000000000263,-4.284766328832946058
0.422000000000000264,-4.248735526842925658
0.423000000000000265,-4.212761546387880252
0.424000000000000266,-4.176856945140231758
0.425000000000000266,-4.141033800279236843
0.426000000000000267,-4.105303717966277688
0.427000000000000268,-4.069677842852452265
0.428000000000000269,-4.034166867606370666
0.429000000000000270,-3.998781042450746614
0.430000000000000271,-3.963530184696730352
0.431000000000000272,-3.928423688265814118
0.432000000000000273,-3.893470533189368865
0.433000000000000274,-3.858679295076650639
0.434000000000000274,-3.824058154542470334
0.435000000000000275,-3.789614906586318277
0.436000000000000276,-3.755356969915206289
0.437000000000000277,-3.721291396202874413
0.438000000000000278,-3.687424879278600631
0.439000000000000279,-3.653763764239208456
0.440000000000000280,-3.620314056478246556
0.441000000000000281,-3.587081430626846590
0.442000000000000282,-3.554071239401079829
0.443000000000000282,-3.521288522350973782
0.444000000000000283,-3.488738014506839846
0.445000000000000284,-3.456424154918790403
0.446000000000000285,-3.424351095085667485
0.447000000000000286,-3.392522707270129612
0.448000000000000287,-3.360942592696559039
0.449000000000000288,-3.329614089629223450
0.450000000000000289,-3.298540281327960511
0.451000000000000290,-3.267724003879284744
0.452000000000000290,-3.237167853900870362
0.453000000000000291,-3.206874196117640796
0.454000000000000292,-3.176845170808024754
0.455000000000000293,-3.147082701119027881
0.456000000000000294,-3.117588500249135031
0.457000000000000295,-3.088364078498125664
0.458000000000000296,-3.059410750183137573
0.459000000000000297,-3.030729640420567694
0.460000000000000298,-3.002321691773401913
0.461000000000000298,-2.974187670763937419
0.462000000000000299,-2.946328174251860332
0.463000000000000300,-2.918743635677826909
0.464000000000000301,-2.891434331172928029
0.465000000000000302,-2.864400385534428217
0.466000000000000303,-2.837641778068319631
0.467000000000000304,-2.811158348299448662
0.468000000000000305,-2.784949801549926995
0.469000000000000306,-2.759015714386754858
0.470000000000000306,-2.733355539939694268
0.471000000000000307,-2.707968613090343091
0.472000000000000308,-2.682854155533720864
0.473000000000000309,-2.658011280713499680
0.474000000000000310,-2.633438998632245287
0.475000000000000311,-2.609136220537998430
0.476000000000000312,-2.585101763488728555
0.477000000000000313,-2.561334354796027224
0.478000000000000314,-2.537832636349679039
0.479000000000000314,-2.514595168824692806
0.480000000000000315,-2.491620435772365916
0.481000000000000316,-2.468906847597149401
0.482000000000000317,-2.446452745420929276
0.483000000000000318,-2.424256404836522272
0.484000000000000319,-2.402316039552119697
0.485000000000000320,-2.380629804928479309
0.486000000000000321,-2.359195801410663762
0.487000000000000322,-2.338012077856165050
0.488000000000000322,-2.317076634761185971
0.489000000000000323,-2.296387427387055702
0.490000000000000324,-2.275942368788491432
0.491000000000000325,-2.255739332745672066
0.492000000000000326,-2.235776156601915421
0.493000000000000327,-2.216050644008886295
0.494000000000000328,-2.196560567581150814
0.495000000000000329,-2.177303671461980894
0.496000000000000330,-2.158277673802201146
0.497000000000000330,-2.139480269154026892
0.498000000000000331,-2.120909130781600815
0.499000000000000332,-2.102561912890205331
0.500000000000000333,-2.084436252775861753
0.501000000000000334,-2.066529772897142792
0.502000000000000335,-2.048840082871042689
0.503000000000000336,-2.031364781394615626
0.504000000000000337,-2.014101458094189390
0.505000000000000338,-1.997047695303862280
0.506000000000000338,-1.980201069775042289
0.507000000000000339,-1.963559154318702316
0.508000000000000340,-1.947119519382039643
0.509000000000000341,-1.930879734561250505
0.510000000000000342,-1.914837370051978738
0.511000000000000343,-1.898989998039149141
0.512000000000000344,-1.883335194027699888
0.513000000000000345,-1.867870538115848245
0.514000000000000346,-1.852593616212437677
0.515000000000000346,-1.837502021199847402
0.516000000000000347,-1.822593354044001357
0.517000000000000348,-1.807865224852990504
0.518000000000000349,-1.793315253885663818
0.519000000000000350,-1.778941072511728283
0.520000000000000351,-1.764740324124672854
0.521000000000000352,-1.750710665008969880
0.522000000000000353,-1.736849765162835624
0.523000000000000353,-1.723155309077923025
0.524000000000000354,-1.709624996477261405
0.525000000000000355,-1.696256543012662821
0.526000000000000356,-1.683047680922896250
0.527000000000000357,-1.669996159653869272
0.528000000000000358,-1.657099746441925037
0.529000000000000359,-1.644356226861586334
0.530000000000000360,-1.631763405338722661
0.531000000000000361,-1.619319105630416145
0.532000000000000361,-1.607021171272529969
0.533000000000000362,-1.594867465996116840
0.534000000000000363,-1.582855874113673345
0.535000000000000364,-1.570984300876315576
0.536000000000000365,-1.559250672802836135
0.537000000000000366,-1.547652937981678800
0.538000000000000367,-1.536189066346705046
0.539000000000000368,-1.524857049927812680
0.540000000000000369,-1.513654903077172653
0.541000000000000369,-1.502580662672117429
0.542000000000000370,-1.491632388295428102
0.543000000000000371,-1.480808162393946414
0.544000000000000372,-1.470106090416310352
0.545000000000000373,-1.459524300930610696
0.546000000000000374,-1.449060945722751015
0.547000000000000375,-1.438714199876290900
0.548000000000000376,-1.428482261834496558
0.549000000000000377,-1.418363353445331931
0.550000000000000377,-1.408355719990081356
0.551000000000000378,-1.398457630196290546
0.552000000000000379,-1.388667376235708684
0.553000000000000380,-1.378983273707842461
0.554000000000000381,-1.369403661609768674
0.555000000000000382,-1.359926902292841522
0.556000000000000383,-1.350551381406807305
0.557000000000000384,-1.341275507832017988
0.558000000000000385,-1.332097713600164823
0.559000000000000385,-1.323016453804206849
0.560000000000000386,-1.314030206497916353
0.561000000000000387,-1.305137472585607306
0.562000000000000388,-1.296336775702517041
0.563000000000000389,-1.287626662086331031
0.564000000000000390,-1.279005700440304150
0.565000000000000391,-1.270472481788432972
0.566000000000000392,-1.262025619323107195
0.567000000000000393,-1.253663748245685605
0.568000000000000393,-1.245385525600356313
0.569000000000000394,-1.237189630101717785
0.570000000000000395,-1.229074761956454598
0.571000000000000396,-1.221039642679434989
0.572000000000000397,-1.213083014904666523
0.573000000000000398,-1.205203642191356561
0.574000000000000399,-1.197400308825496529
0.575000000000000400,-1.189671819617225346
0.576000000000000401,-1.182016999694308845
0.577000000000000401,-1.174434694292060488
0.578000000000000402,-1.166923768539927631
0.579000000000000403,-1.159483107245055544
0.580000000000000404,-1.152111614673133833
0.581000000000000405,-1.144808214326693996
0.582000000000000406,-1.137571848721189216
0.583000000000000407,-1.130401479159044431
0.584000000000000408,-1.123296085501926944
0.585000000000000409,-1.116254665941452506
0.586000000000000409,-1.109276236768534485
0.587000000000000410,-1.102359832141591056
0.588000000000000411,-1.095504503853784284
0.589000000000000412,-1.088709321099514016
0.590000000000000413,-1.081973370240293164
0.591000000000000414,-1.075295754570232187
0.592000000000000415,-1.068675594081265334
0.593000000000000416,-1.062112025228274748
0.594000000000000417,-1.055604200694270300
0.595000000000000417,-1.049151289155807021
0.596000000000000418,-1.042752475048674299
0.597000000000000419,-1.036406958334128658
0.598000000000000420,-1.030113954265663656
0.599000000000000421,-1.023872693156536950
0.600000000000000422,-1.017682420148104061
0.601000000000000423,-1.011542394979093817
0.602000000000000424,-1.005451891755936078
0.603000000000000425,-0.999410198724219989
0.604000000000000425,-0.993416618041381150
0.605000000000000426,-0.987470465550710719
0.606000000000000427,-0.981571070556797265
0.607000000000000428,-0.975717775602376269
0.608000000000000429,-0.969909936246843407
0.609000000000000430,-0.964146920846285505
0.610000000000000431,-0.958428110335293626
0.611000000000000432,-0.952752898010479021
0.612000000000000433,-0.947120689315812614
0.613000000000000433,-0.941530901629853645
0.614000000000000434,-0.935982964054880684
0.615000000000000435,-0.930476317207984516
0.616000000000000436,-0.925010413014176969
0.617000000000000437,-0.919584714501575640
0.618000000000000438,-0.914198695598648081
0.619000000000000439,-0.908851840933584731
0.620000000000000440,-0.903543645635854431
0.621000000000000441,-0.898273615139920545
0.622000000000000441,-0.893041264991190076
0.623000000000000442,-0.887846120654187998
0.624000000000000443,-0.882687717322992449
0.625000000000000444,-0.877565599733967305
0.626000000000000445,-0.872479321980762612
0.627000000000000446,-0.867428447331652253
0.628000000000000447,-0.862412548049183214
0.629000000000000448,-0.857431205212165204
0.630000000000000449,-0.852484008539993399
0.631000000000000449,-0.847570556219340410
0.632000000000000450,-0.842690454733188377
0.633000000000000451,-0.837843318692238492
0.634000000000000452,-0.833028770668658547
0.635000000000000453,-0.828246441032223557
0.636000000000000454,-0.823495967788783090
0.637000000000000455,-0.818776996421127334
0.638000000000000456,-0.814089179732167212
0.639000000000000457,-0.809432177690492694
0.640000000000000457,-0.804805657278278574
0.641000000000000458,-0.800209292341489964
0.642000000000000459,-0.795642763442468648
0.643000000000000460,-0.791105757714783864
0.644000000000000461,-0.786597968720432972
0.645000000000000462,-0.782119096309315753
0.646000000000000463,-0.777668846480994103
0.647000000000000464,-0.773246931248719682
0.648000000000000465,-0.768853068505734649
0.649000000000000465,-0.764486981893783279
0.650000000000000466,-0.760148400673879787
0.651000000000000467,-0.755837059599255179
0.652000000000000468,-0.751552698790519336
0.653000000000000469,-0.747295063612973598
0.654000000000000470,-0.743063904556105492
0.655000000000000471,-0.738858977115201876
0.656000000000000472,-0.734680041675077500
0.657000000000000473,-0.730526863395907777
0.658000000000000473,-0.726399212101149105
0.659000000000000474,-0.722296862167491227
0.660000000000000475,-0.718219592416875274
0.661000000000000476,-0.714167186010493560
0.662000000000000477,-0.710139430344817080
0.663000000000000478,-0.706136116949562465
0.664000000000000479,-0.702157041387647229
0.665000000000000480,-0.698202003157012974
0.666000000000000481,-0.694270805594431661
0.667000000000000481,-0.690363255781102914
0.668000000000000482,-0.686479164450208734
0.669000000000000483,-0.682618345896211620
0.670000000000000484,-0.678780617886032833
0.671000000000000485,-0.674965801571986823
0.672000000000000486,-0.671173721406481794
0.673000000000000487,-0.667404205058492961
0.674000000000000488,-0.663657083331714581
0.675000000000000488,-0.659932190084426606
0.676000000000000489,-0.656229362151055984
0.677000000000000490,-0.652548439265339786
0.678000000000000491,-0.648889263985155673
0.679000000000000492,-0.645251681618935202
0.680000000000000493,-0.641635540153653094
0.681000000000000494,-0.638040690184388914
0.682000000000000495,-0.634466984845397208
0.683000000000000496,-0.630914279742710749
0.684000000000000496,-0.627382432888213604
0.685000000000000497,-0.623871304635177482
0.686000000000000498,-0.620380757615252021
0.687000000000000499,-0.616910656676852964
0.688000000000000500,-0.613460868824956984
0.689000000000000501,-0.610031263162264970
0.690000000000000502,-0.606621710831718675
0.691000000000000503,-0.603232084960338755
0.692000000000000504,-0.599862260604362874
0.693000000000000504,-0.596512114695694096
0.694000000000000505,-0.593181525989562419
0.695000000000000506,-0.589870375013484383
0.696000000000000507,-0.586578544017390846
0.697000000000000508,-0.583305916924978463
0.698000000000000509,-0.580052379286236319
0.699000000000000510,-0.576817818231116997
0.700000000000000511,-0.573602122424347050
0.701000000000000512,-0.570405182021361812
0.702000000000000512,-0.567226888625314674
0.703000000000000513,-0.564067135245175155
0.704000000000000514,-0.560925816254880028
0.705000000000000515,-0.557802827353510167
0.706000000000000516,-0.554698065526488149
0.707000000000000517,-0.551611429007783038
0.708000000000000518,-0.548542817243054648
0.709000000000000519,-0.545492130853815427
0.710000000000000520,-0.542459271602470983
0.711000000000000520,-0.539444142358324497
0.712000000000000521,-0.536446647064468207
0.713000000000000522,-0.533466690705550195
0.714000000000000523,-0.530504179276440668
0.715000000000000524,-0.527559019751706271
0.716000000000000525,-0.524631120055960798
0.717000000000000526,-0.521720389035003063
0.718000000000000527,-0.518826736427759005
0.719000000000000528,-0.515950072839011287
0.720000000000000528,-0.513090309712917580
0.721000000000000529,-0.510247359307219428
0.722000000000000530,-0.507421134668267104
0.723000000000000531,-0.504611549606687193
0.724000000000000532,-0.501818518673813774
0.725000000000000533,-0.499041957138779968
0.726000000000000534,-0.496281780966278618
0.727000000000000535,-0.493537906795007142
0.728000000000000536,-0.490810251916732443
0.729000000000000536,-0.488098734256002420
0.730000000000000537,-0.485403272350478976
0.731000000000000538,-0.482723785331849620
0.732000000000000539,-0.480060192907361127
0.733000000000000540,-0.477412415341905205
0.734000000000000541,-0.474780373440682468
0.735000000000000542,-0.472163988532399048
0.736000000000000543,-0.469563182453033412
0.737000000000000544,-0.466977877530087127
0.738000000000000544,-0.464407996567386960
0.739000000000000545,-0.461853462830362826
0.740000000000000546,-0.459314200031823994
0.741000000000000547,-0.456790132318205422
0.742000000000000548,-0.454281184256315196
0.743000000000000549,-0.451787280820472592
0.744000000000000550,-0.449308347380147410
0.745000000000000551,-0.446844309688007091
0.746000000000000552,-0.444395093868390767
0.747000000000000552,-0.441960626406200707
0.748000000000000553,-0.439540834136176506
0.749000000000000554,-0.437135644232586995
0.750000000000000555,-0.434744984199285422
0.751000000000000556,-0.432368781860140328
0.752000000000000557,-0.430006965349845172
0.753000000000000558,-0.427659463105039994
0.754000000000000559,-0.425326203855833473
0.755000000000000560,-0.423007116617605816
0.756000000000000560,-0.420702130683187292
0.757000000000000561,-0.418411175615306330
0.758000000000000562,-0.416134181239375678
0.759000000000000563,-0.413871077636582485
0.760000000000000564,-0.411621795137254387
0.761000000000000565,-0.409386264314518300
0.762000000000000566,-0.407164415978232941
0.763000000000000567,-0.404956181169197849
0.764000000000000568,-0.402761491153604489
0.765000000000000568,-0.400580277417777630
0.766000000000000569,-0.398412471663118495
0.767000000000000570,-0.396258005801333357
0.768000000000000571,-0.394116811949843993
0.769000000000000572,-0.391988822427478678
0.770000000000000573,-0.389873969750337224
0.771000000000000574,-0.387772186627903026
0.772000000000000575,-0.385683405959336811
0.773000000000000576,-0.383607560829983096
0.774000000000000576,-0.381544584508068385
0.775000000000000577,-0.379494410441591934
0.776000000000000578,-0.377456972255384882
0.777000000000000579,-0.375432203748372328
0.778000000000000580,-0.373420038890972750
0.779000000000000581,-0.371420411822693752
0.780000000000000582,-0.369433256849866276
0.781000000000000583,-0.367458508443553655
0.782000000000000584,-0.365496101237593130
0.783000000000000584,-0.363545970026787457
0.784000000000000585,-0.361608049765250295
0.785000000000000586,-0.359682275564860654
0.786000000000000587,-0.357768582693879067
0.787000000000000588,-0.355866906575666442
0.788000000000000589,-0.353977182787525713
0.789000000000000590,-0.352099347059687928
0.790000000000000591,-0.350233335274375945
0.791000000000000592,-0.348379083464999240
0.792000000000000592,-0.346536527815450135
0.793000000000000593,-0.344705604659495013
0.794000000000000594,-0.342886250480269383
0.795000000000000595,-0.341078401909874485
0.796000000000000596,-0.339281995729036334
0.797000000000000597,-0.337496968866884628
0.798000000000000598,-0.335723258400794144
0.799000000000000599,-0.333960801556307030
0.800000000000000600,-0.332209535707147063
0.801000000000000600,-0.330469398375286438
0.802000000000000601,-0.328740327231093421
0.803000000000000602,-0.327022260093546902
0.804000000000000603,-0.325315134930514172
0.805000000000000604,-0.323618889859096204
0.806000000000000605,-0.321933463146004628
0.807000000000000606,-0.320258793208037740
0.808000000000000607,-0.318594818612571884
0.809000000000000608,-0.316941478078115346
0.810000000000000608,-0.315298710474932353
0.811000000000000609,-0.313666454825656693
0.812000000000000610,-0.312044650306024463
0.813000000000000611,-0.310433236245569955
0.814000000000000612,-0.308832152128418413
0.815000000000000613,-0.307241337594094222
0.816000000000000614,-0.305660732438345961
0.817000000000000615,-0.304090276614030930
0.818000000000000616,-0.302529910232022581
0.819000000000000616,-0.300979573562131064
0.820000000000000617,-0.299439207034061128
0.821000000000000618,-0.297908751238399994
0.822000000000000619,-0.296388146927623997
0.823000000000000620,-0.294877335017114106
0.824000000000000621,-0.293376256586197592
0.825000000000000622,-0.291884852879221002
0.826000000000000623,-0.290403065306621633
0.827000000000000624,-0.288930835446015277
0.828000000000000624,-0.287468105043307776
0.829000000000000625,-0.286014816013799245
0.830000000000000626,-0.284570910443320613
0.831000000000000627,-0.283136330589358720
0.832000000000000628,-0.281711018882212172
0.833000000000000629,-0.280294917926118825
0.834000000000000630,-0.278887970500423188
0.835000000000000631,-0.277490119560725945
0.836000000000000631,-0.276101308240042143
0.837000000000000632,-0.274721479849969308
0.838000000000000633,-0.273350577881836032
0.839000000000000634,-0.271988546007864651
0.840000000000000635,-0.270635328082340254
0.841000000000000636,-0.269290868142747108
0.842000000000000637,-0.267955110410941000
0.843000000000000638,-0.266627999294280771
0.844000000000000639,-0.265309479386777403
0.845000000000000639,-0.263999495470232548
0.846000000000000640,-0.262697992515356527
0.847000000000000641,-0.261404915682910743
0.848000000000000642,-0.260120210324799372
0.849000000000000643,-0.258843821985181466
0.850000000000000644,-0.257575696401577958
0.851000000000000645,-0.256315779505934260
0.852000000000000646,-0.255064017425709944
0.853000000000000647,-0.253820356484937282
0.854000000000000647,-0.252584743205262807
0.855000000000000648,-0.251357124306993807
0.856000000000000649,-0.250137446710118505
0.857000000000000650,-0.248925657535319450
0.858000000000000651,-0.247721704104965357
0.859000000000000652,-0.246525533944087216
0.860000000000000653,-0.245337094781367254
0.861000000000000654,-0.244156334550059612
0.862000000000000655,-0.242983201388953546
0.863000000000000655,-0.241817643643271518
0.864000000000000656,-0.240659609865589930
0.865000000000000657,-0.239509048816706427
0.866000000000000658,-0.238365909466526332
0.867000000000000659,-0.237230140994909522
0.868000000000000660,-0.236101692792498652
0.869000000000000661,-0.234980514461537060
0.870000000000000662,-0.233866555816670735
0.871000000000000663,-0.232759766885733910
0.872000000000000663,-0.231660097910491913
0.873000000000000664,-0.230567499347404642
0.874000000000000665,-0.229481921868333549
0.875000000000000666,-0.228403316361262126
0.876000000000000667,-0.227331633930968197
0.877000000000000668,-0.226266825899692936
0.878000000000000669,-0.225208843807799708
0.879000000000000670,-0.224157639414384352
0.880000000000000671,-0.223113164697897354
0.881000000000000671,-0.222075371856717663
0.882000000000000672,-0.221044213309739751
0.883000000000000673,-0.220019641696904411
0.884000000000000674,-0.219001609879741765
0.885000000000000675,-0.217990070941867981
0.886000000000000676,-0.216984978189487254
0.887000000000000677,-0.215986285151851642
0.888000000000000678,-0.214993945581710533
0.889000000000000679,-0.214007913455746490
0.890000000000000679,-0.213028142974981100
0.891000000000000680,-0.212054588565165625
0.892000000000000681,-0.211087204877151852
0.893000000000000682,-0.210125946787240281
0.894000000000000683,-0.209170769397508671
0.895000000000000684,-0.208221628036129147
0.896000000000000685,-0.207278478257657467
0.897000000000000686,-0.206341275843300670
0.898000000000000687,-0.205409976801172567
0.899000000000000687,-0.204484537366527386
0.900000000000000688,-0.203564914001972130
0.901000000000000689,-0.202651063397657399
0.902000000000000690,-0.201742942471463044
0.903000000000000691,-0.200840508369142079
0.904000000000000692,-0.199943718464467485
0.905000000000000693,-0.199052530359342617
0.906000000000000694,-0.198166901883913671
0.907000000000000695,-0.197286791096633385
0.908000000000000695,-0.196412156284344913
0.909000000000000696,-0.195542955962305698
0.910000000000000697,-0.194679148874233404
0.911000000000000698,-0.193820693992299897
0.912000000000000699,-0.192967550517130049
0.913000000000000700,-0.192119677877778172
0.914000000000000701,-0.191277035731669764
0.915000000000000702,-0.190439583964557152
0.916000000000000703,-0.189607282690428425
0.917000000000000703,-0.188780092251418063
0.918000000000000704,-0.187957973217695085
0.919000000000000705,-0.187140886387322403
0.920000000000000706,-0.186328792786130182
0.921000000000000707,-0.185521653667534703
0.922000000000000708,-0.184719430512368638
0.923000000000000709,-0.183922085028693894
0.924000000000000710,-0.183129579151573851
0.925000000000000711,-0.182341875042862478
0.926000000000000711,-0.181558935090956192
0.927000000000000712,-0.180780721910538095
0.928000000000000713,-0.180007198342302666
0.929000000000000714,-0.179238327452681590
0.930000000000000715,-0.178474072533527567
0.931000000000000716,-0.177714397101801924
0.932000000000000717,-0.176959264899251179
0.933000000000000718,-0.176208639892054264
0.934000000000000719,-0.175462486270468815
0.935000000000000719,-0.174720768448458796
0.936000000000000720,-0.173983451063304345
0.937000000000000721,-0.173250498975204392
0.938000000000000722,-0.172521877266869683
0.939000000000000723,-0.171797551243087765
0.940000000000000724,-0.171077486430290693
0.941000000000000725,-0.170361648576100005
0.942000000000000726,-0.169650003648871339
0.943000000000000727,-0.168942517837204736
0.944000000000000727,-0.168239157549471108
0.945000000000000728,-0.167539889413307969
0.946000000000000729,-0.166844680275096996
0.947000000000000730,-0.166153497199462180
0.948000000000000731,-0.165466307468713492
0.949000000000000732,-0.164783078582320386
0.950000000000000733,-0.164103778256339067
0.951000000000000734,-0.163428374422863676
0.952000000000000735,-0.162756835229435376
0.953000000000000735,-0.162089129038454238
0.954000000000000736,-0.161425224426590130
0.955000000000000737,-0.160765090184168152
0.956000000000000738,-0.160108695314555349
0.957000000000000739,-0.159456009033527357
0.958000000000000740,-0.158807000768641127
0.959000000000000741,-0.158161640158576755
0.960000000000000742,-0.157519897052495361
0.961000000000000743,-0.156881741509368011
0.962000000000000743,-0.156247143797302313
0.963000000000000744,-0.155616074392863124
0.964000000000000745,-0.154988503980390241
0.965000000000000746,-0.154364403451288712
0.966000000000000747,-0.153743743903333285
0.967000000000000748,-0.153126496639946957
0.968000000000000749,-0.152512633169491846
0.969000000000000750,-0.151902125204527116
0.970000000000000751,-0.151294944661089115
0.971000000000000751,-0.150691063657934443
0.972000000000000752,-0.150090454515793559
0.973000000000000753,-0.149493089756627506
0.974000000000000754,-0.148898942102847320
0.975000000000000755,-0.148307984476556964
0.976000000000000756,-0.147720189998773066
0.977000000000000757,-0.147135531988643931
0.978000000000000758,-0.146553983962659201
0.979000000000000759,-0.145975519633870010
0.980000000000000759,-0.145400112911068635
0.981000000000000760,-0.144827737898000686
0.982000000000000761,-0.144258368892554445
0.983000000000000762,-0.143691980385937890
0.984000000000000763,-0.143128547061863232
0.985000000000000764,-0.142568043795727212
0.986000000000000765,-0.142010445653774936
0.987000000000000766,-0.141455727892268679
0.988000000000000766,-0.140903865956647861
0.989000000000000767,-0.140354835480692414
0.990000000000000768,-0.139808612285675982
0.991000000000000769,-0.139265172379505558
0.992000000000000770,-0.138724491955873358
0.993000000000000771,-0.138186547393409603
0.994000000000000772,-0.137651315254798789
0.995000000000000773,-0.137118772285937718
0.996000000000000774,-0.136588895415050343
0.997000000000000774,-0.136061661751826601
0.998000000000000775,-0.135537048586544445
0.999000000000000776,-0.135015033389191380
1.000000000000000666,-0.134495593808587860
1.001000000000000778,-0.133978707671503938
1.002000000000000668,-0.133464352981773532
1.003000000000000780,-0.132952507919406687
1.004000000000000670,-0.132443150839699181
1.005000000000000782,-0.131936260272344980
1.006000000000000671,-0.131431814920543955
1.007000000000000783,-0.130929793660093219
1.008000000000000673,-0.130430175538506082
1.009000000000000785,-0.129932939774104445
1.010000000000000675,-0.129438065755120318
1.011000000000000787,-0.128945533038790194
1.012000000000000677,-0.128455321350458895
1.013000000000000789,-0.127967410582673191
1.014000000000000679,-0.127481780794265281
1.015000000000000790,-0.126998412209464562
1.016000000000000680,-0.126517285216978081
1.017000000000000792,-0.126038380369085268
1.018000000000000682,-0.125561678380726377
1.019000000000000794,-0.125087160128596830
1.020000000000000684,-0.124614806650238497
1.021000000000000796,-0.124144599143125187
1.022000000000000686,-0.123676518963750134
1.023000000000000798,-0.123210547626723982
1.024000000000000687,-0.122746666803852711
1.025000000000000799,-0.122284858323233853
1.026000000000000689,-0.121825104168346798
1.027000000000000801,-0.121367386477133785
1.028000000000000691,-0.120911687541098406
1.029000000000000803,-0.120457989804389071
1.030000000000000693,-0.120006275862890505
1.031000000000000805,-0.119556528463320100
1.032000000000000695,-0.119108730502306595
1.033000000000000806,-0.118662865025498165
1.034000000000000696,-0.118218915226642449
1.035000000000000808,-0.117776864446683852
1.036000000000000698,-0.117336696172854721
1.037000000000000810,-0.116898394037786013
1.038000000000000700,-0.116461941818580383
1.039000000000000812,-0.116027323435923507
1.040000000000000702,-0.115594522953183204
1.041000000000000814,-0.115163524575507201
1.042000000000000703,-0.114734312648916731
1.043000000000000815,-0.114306871659422729
1.044000000000000705,-0.113881186232122705
1.045000000000000817,-0.113457241130300285
1.046000000000000707,-0.113035021254545009
1.047000000000000819,-0.112614511641853807
1.048000000000000709,-0.112195697464741145
1.049000000000000821,-0.111778564030354424
1.050000000000000711,-0.111363096779582935
1.051000000000000822,-0.110949281286181173
1.052000000000000712,-0.110537103255881036
1.053000000000000824,-0.110126548525512111
1.054000000000000714,-0.109717603062127272
1.055000000000000826,-0.109310252962121796
1.056000000000000716,-0.108904484450365865
1.057000000000000828,-0.108500283879327045
1.058000000000000718,-0.108097637728201759
1.059000000000000830,-0.107696532602050740
1.060000000000000719,-0.107296955230935104
1.061000000000000831,-0.106898892469049794
1.062000000000000721,-0.106502331293863814
1.063000000000000833,-0.106107258805271984
1.064000000000000723,-0.105713662224727403
1.065000000000000835,-0.105321528894394500
1.066000000000000725,-0.104930846276306666
1.067000000000000837,-0.104541601951501195
1.068000000000000727,-0.104153783619198498
1.069000000000000838,-0.103767379095938028
1.070000000000000728,-0.103382376314754693
1.071000000000000840,-0.102998763324336065
1.072000000000000730,-0.102616528288192260
1.073000000000000842,-0.102235659483826374
1.074000000000000732,-0.101856145301897391
1.075000000000000844,-0.101477974245410191
1.076000000000000734,-0.101101134928886657
1.077000000000000846,-0.100725616077544128
1.078000000000000735,-0.100351406526488704
1.079000000000000847,-0.099978495219891675
1.080000000000000737,-0.099606871210194903
1.081000000000000849,-0.099236523657290215
1.082000000000000739,-0.098867441827723890
1.083000000000000851,-0.098499615093895126
1.084000000000000741,-0.098133032933264280
1.085000000000000853,-0.097767684927550502
1.086000000000000743,-0.097403560761946756
1.087000000000000854,-0.097040650224334835
1.088000000000000744,-0.096678943204502252
1.089000000000000856,-0.096318429693354565
1.090000000000000746,-0.095959099782144258
1.091000000000000858,-0.095600943661699980
1.092000000000000748,-0.095243951621650988
1.093000000000000860,-0.094888114049664712
1.094000000000000750,-0.094533421430677528
1.095000000000000862,-0.094179864346143172
1.096000000000000751,-0.093827433473272798
1.097000000000000863,-0.093476119584275152
1.098000000000000753,-0.093125913545621025
1.099000000000000865,-0.092776806317287616
1.100000000000000755,-0.092428788952018032
1.101000000000000867,-0.092081852594581598
1.102000000000000757,-0.091735988481043473
1.103000000000000869,-0.091391187938029805
1.104000000000000759,-0.091047442381994553
1.105000000000000870,-0.090704743318507391
1.106000000000000760,-0.090363082341517104
1.107000000000000872,-0.090022451132648201
1.108000000000000762,-0.089682841460479876
1.109000000000000874,-0.089344245179838966
1.110000000000000764,-0.089006654231090138
1.111000000000000876,-0.088670060639434473
1.112000000000000766,-0.088334456514212942
1.113000000000000878,-0.087999834048207382
1.114000000000000767,-0.087666185516953710
1.115000000000000879,-0.087333503278044150
1.116000000000000769,-0.087001779770453952
1.117000000000000881,-0.086671007513852497
1.118000000000000771,-0.086341179107930058
1.119000000000000883,-0.086012287231723550
1.120000000000000773,-0.085684324642948562
1.121000000000000885,-0.085357284177328796
1.122000000000000774,-0.085031158747937402
1.123000000000000886,-0.084705941344535574
1.124000000000000776,-0.084381625032925761
1.125000000000000888,-0.084058202954285260
1.126000000000000778,-0.083735668324530652
1.127000000000000890,-0.083414014433677117
1.128000000000000780,-0.083093234645181951
1.129000000000000892,-0.082773322395324922
1.130000000000000782,-0.082454271192568068
1.131000000000000894,-0.082136074616923918
1.132000000000000783,-0.081818726319338064
1.133000000000000895,-0.081502220021064359
1.134000000000000785,-0.081186549513037540
1.135000000000000897,-0.080871708655279526
1.136000000000000787,-0.080557691376266241
1.137000000000000899,-0.080244491672339338
1.138000000000000789,-0.079932103607087995
1.139000000000000901,-0.079620521310765552
1.140000000000000790,-0.079309738979679426
1.141000000000000902,-0.078999750875603320
1.142000000000000792,-0.078690551325194383
1.143000000000000904,-0.078382134719399352
1.144000000000000794,-0.078074495512886644
1.145000000000000906,-0.077767628223448945
1.146000000000000796,-0.077461527431451627
1.147000000000000908,-0.077156187779248223
1.148000000000000798,-0.076851603970617105
1.149000000000000909,-0.076547770770203000
1.150000000000000799,-0.076244683002949190
1.151000000000000689,-0.075942335553549373
1.152000000000000801,-0.075640723365895807
1.153000000000000913,-0.075339841442526839
1.154000000000000803,-0.075039684844084104
1.155000000000000693,-0.074740248688767594
1.156000000000000805,-0.074441528151808739
1.157000000000000917,-0.074143518464921801
1.158000000000000806,-0.073846214915786551
1.159000000000000696,-0.073549612847513060
1.160000000000000808,-0.073253707658119172
1.161000000000000920,-0.072958494800014581
1.162000000000000810,-0.072663969779483001
1.163000000000000700,-0.072370128156167307
1.164000000000000812,-0.072076965542562710
1.165000000000000924,-0.071784477603506230
1.166000000000000814,-0.071492660055684262
1.167000000000000703,-0.071201508667120481
1.168000000000000815,-0.070911019256695532
1.169000000000000927,-0.070621187693638385
1.170000000000000817,-0.070332009897054043
1.171000000000000707,-0.070043481835424137
1.172000000000000819,-0.069755599526138731
1.173000000000000931,-0.069468359035008018
1.174000000000000821,-0.069181756475790501
1.175000000000000711,-0.068895788009722417
1.176000000000000822,-0.068610449845052143
1.177000000000000934,-0.068325738236567873
1.178000000000000824,-0.068041649485146113
1.179000000000000714,-0.067758179937282739
1.180000000000000826,-0.067475325984650530
1.181000000000000938,-0.067193084063635944
1.182000000000000828,-0.066911450654898369
1.183000000000000718,-0.066630422282925414
1.184000000000000830,-0.066349995515588178
1.185000000000000941,-0.066070166963701160
1.186000000000000831,-0.065790933280594890
1.187000000000000721,-0.065512291161675174
1.188000000000000833,-0.065234237344000828
1.189000000000000945,-0.064956768605857404
1.190000000000000835,-0.064679881766334074
1.191000000000000725,-0.064403573684898421
1.192000000000000837,-0.064127841260997451
1.193000000000000949,-0.063852681433622063
1.194000000000000838,-0.063578091180919713
1.195000000000000728,-0.063304067519770107
1.196000000000000840,-0.063030607505393271
1.197000000000000952,-0.062757708230946702
1.198000000000000842,-0.062485366827123023
1.199000000000000732,-0.062213580461767018
1.200000000000000844,-0.061942346339467894
1.201000000000000956,-0.061671661701189352
1.202000000000000846,-0.061401523823872449
1.203000000000000735,-0.061131930020059344
1.204000000000000847,-0.060862877637507064
1.205000000000000959,-0.060594364058826809
1.206000000000000849,-0.060326386701093429
1.207000000000000739,-0.060058943015484222
1.208000000000000851,-0.059792030486912860
1.209000000000000963,-0.059525646633660868
1.210000000000000853,-0.059259789007021543
1.211000000000000743,-0.058994455190933506
1.212000000000000854,-0.058729642801635465
1.213000000000000966,-0.058465349487302212
1.214000000000000856,-0.058201572927708702
1.215000000000000746,-0.057938310833867177
1.216000000000000858,-0.057675560947697199
1.217000000000000970,-0.057413321041674667
1.218000000000000860,-0.057151588918498010
1.219000000000000750,-0.056890362410750253
1.220000000000000862,-0.056629639380569030
1.221000000000000973,-0.056369417719310630
1.222000000000000863,-0.056109695347229982
1.223000000000000753,-0.055850470213147853
1.224000000000000865,-0.055591740294135085
1.225000000000000977,-0.055333503595190792
1.226000000000000867,-0.055075758148925250
1.227000000000000757,-0.054818502015244332
1.228000000000000869,-0.054561733281037958
1.229000000000000981,-0.054305450059881966
1.230000000000000870,-0.054049650491710996
1.231000000000000760,-0.053794332742532036
1.232000000000000872,-0.053539495004122653
1.233000000000000984,-0.053285135493716787
1.234000000000000874,-0.053031252453730006
1.235000000000000764,-0.052777844151447970
1.236000000000000876,-0.052524908878748479
1.237000000000000988,-0.052272444951803651
1.238000000000000878,-0.052020450710802760
1.239000000000000767,-0.051768924519658491
1.240000000000000879,-0.051517864765736651
1.241000000000000991,-0.051267269859569142
1.242000000000000881,-0.051017138234582503
1.243000000000000771,-0.050767468346821810
1.244000000000000883,-0.050518258674680405
1.245000000000000995,-0.050269507718632291
1.246000000000000885,-0.050021214000963786
1.247000000000000774,-0.049773376065507337
1.248000000000000886,-0.049525992477384470
1.249000000000000998,-0.049279061822741776
1.250000000000000888,-0.049032582708498820
1.251000000000000778,-0.048786553762085724
1.252000000000000890,-0.048540973631198359
1.253000000000001002,-0.048295840983539486
1.254000000000000892,-0.048051154506581997
1.255000000000000782,-0.047806912907312059
1.256000000000000894,-0.047563114911988183
1.257000000000001005,-0.047319759265905793
1.258000000000000895,-0.047076844733151081
1.259000000000000785,-0.046834370096366193
1.260000000000000897,-0.046592334156513163
1.261000000000001009,-0.046350735732646697
1.262000000000000899,-0.046109573661672808
1.263000000000000789,-0.045868846798131004
1.264000000000000901,-0.045628554013963055
1.265000000000001013,-0.045388694198285770
1.266000000000000902,-0.045149266257175712
1.267000000000000792,-0.044910269113443313
1.268000000000000904,-0.044671701706416059
1.269000000000001016,-0.044433562991723831
1.270000000000000906,-0.044195851941085350
1.271000000000000796,-0.043958567542092840
1.272000000000000908,-0.043721708798002579
1.273000000000001020,-0.043485274727530984
1.274000000000000909,-0.043249264364644914
1.275000000000000799,-0.043013676758354082
1.276000000000000911,-0.042778510972519578
1.277000000000001023,-0.042543766085640811
1.278000000000000913,-0.042309441190665167
1.279000000000000803,-0.042075535394790343
1.280000000000000915,-0.041842047819270846
1.281000000000001027,-0.041608977599215745
1.282000000000000917,-0.041376323883413377
1.283000000000000806,-0.041144085834128707
1.284000000000000918,-0.040912262626926391
1.285000000000001030,-0.040680853450475229
1.286000000000000920,-0.040449857506374996
1.287000000000000810,-0.040219274008965009
1.288000000000000922,-0.039989102185154404
1.289000000000001034,-0.039759341274234208
1.290000000000000924,-0.039529990527703465
1.291000000000000814,-0.039301049209101914
1.292000000000000925,-0.039072516593823783
1.293000000000001037,-0.038844391968959655
1.294000000000000927,-0.038616674633120095
1.295000000000000817,-0.038389363896264218
1.296000000000000929,-0.038162459079543277
1.297000000000001041,-0.037935959515126939
1.298000000000000931,-0.037709864546046391
1.299000000000000821,-0.037484173526031492
1.300000000000000933,-0.037258885819347262
1.301000000000001044,-0.037034000800642439
1.302000000000000934,-0.036809517854786054
1.303000000000000824,-0.036585436376723082
1.304000000000000936,-0.036361755771305640
1.305000000000001048,-0.036138475453156280
1.306000000000000938,-0.035915594846512078
1.307000000000000828,-0.035693113385071050
1.308000000000000940,-0.035471030511851284
1.309000000000001052,-0.035249345679048708
1.310000000000000941,-0.035028058347882238
1.311000000000000831,-0.034807167988461209
1.312000000000000943,-0.034586674079634984
1.313000000000001055,-0.034366576108868153
1.314000000000000945,-0.034146873572083958
1.315000000000000835,-0.033927565973541976
1.316000000000000947,-0.033708652825695552
1.317000000000001059,-0.033490133649062927
1.318000000000000949,-0.033272007972086751
1.319000000000000838,-0.033054275331015626
1.320000000000000950,-0.032836935269763702
1.321000000000001062,-0.032619987339783850
1.322000000000000952,-0.032403431099949274
1.323000000000000842,-0.032187266116416736
1.324000000000000954,-0.031971491962511325
1.325000000000001066,-0.031756108218595459
1.326000000000000956,-0.031541114471958717
1.327000000000000846,-0.031326510316685610
1.328000000000000957,-0.031112295353546170
1.329000000000001069,-0.030898469189869947
1.330000000000000959,-0.030685031439439524
1.331000000000000849,-0.030471981722369784
1.332000000000000961,-0.030259319664990660
1.333000000000001073,-0.030047044899740350
1.334000000000000963,-0.029835157065057061
1.335000000000000853,-0.029623655805258591
1.336000000000000965,-0.029412540770444039
1.337000000000001076,-0.029201811616380569
1.338000000000000966,-0.028991468004396927
1.339000000000000856,-0.028781509601282184
1.340000000000000968,-0.028571936079178885
1.341000000000001080,-0.028362747115478905
1.342000000000000970,-0.028153942392725680
1.343000000000000860,-0.027945521598511113
1.344000000000000972,-0.027737484425376047
1.345000000000001084,-0.027529830570716108
1.346000000000000973,-0.027322559736678888
1.347000000000000863,-0.027115671630071669
1.348000000000000975,-0.026909165962263025
1.349000000000001087,-0.026703042449094706
1.350000000000000977,-0.026497300810785905
1.351000000000000867,-0.026291940771842204
1.352000000000000979,-0.026086962060958129
1.353000000000001091,-0.025882364410942316
1.354000000000000981,-0.025678147558618570
1.355000000000000870,-0.025474311244737990
1.356000000000000982,-0.025270855213897263
1.357000000000001094,-0.025067779214453512
1.358000000000000984,-0.024865082998435619
1.359000000000000874,-0.024662766321463241
1.360000000000000986,-0.024460828942665082
1.361000000000001098,-0.024259270624600378
1.362000000000000988,-0.024058091133170104
1.363000000000000878,-0.023857290237544546
1.364000000000000989,-0.023656867710088226
1.365000000000001101,-0.023456823326269725
1.366000000000000991,-0.023257156864597343
1.367000000000000881,-0.023057868106537906
1.368000000000000993,-0.022858956836444285
1.369000000000001105,-0.022660422841480826
1.370000000000000995,-0.022462265911549470
1.371000000000000885,-0.022264485839218636
1.372000000000000997,-0.022067082419652224
1.373000000000001108,-0.021870055450543956
1.374000000000000998,-0.021673404732035391
1.375000000000000888,-0.021477130066664456
1.376000000000001000,-0.021281231259285348
1.377000000000001112,-0.021085708117006375
1.378000000000001002,-0.020890560449124341
1.379000000000000892,-0.020695788067058775
1.380000000000001004,-0.020501390784286755
1.381000000000001116,-0.020307368416285131
1.382000000000001005,-0.020113720780459931
1.383000000000000895,-0.019920447696088646
1.384000000000001007,-0.019727548984260747
1.385000000000001119,-0.019535024467815607
1.386000000000001009,-0.019342873971285063
1.387000000000000899,-0.019151097320827586
1.388000000000001011,-0.018959694344187435
1.389000000000001123,-0.018768664870616326
1.390000000000001013,-0.018578008730832672
1.391000000000000902,-0.018387725756959839
1.392000000000001014,-0.018197815782471528
1.393000000000001126,-0.018008278642139851
1.394000000000001016,-0.017819114171982710
1.395000000000000906,-0.017630322209208481
1.396000000000001018,-0.017441902592161947
1.397000000000001130,-0.017253855160281103
1.398000000000001020,-0.017066179754040508
1.399000000000000909,-0.016878876214903586
1.400000000000001021,-0.016691944385271558
1.401000000000001133,-0.016505384108439373
1.402000000000001023,-0.016319195228543665
1.403000000000000913,-0.016133377590517067
1.404000000000001025,-0.015947931040044345
1.405000000000001137,-0.015762855423512336
1.406000000000001027,-0.015578150587967365
1.407000000000000917,-0.015393816381075325
1.408000000000001029,-0.015209852651066214
1.409000000000001140,-0.015026259246703916
1.410000000000001030,-0.014843036017234943
1.411000000000000920,-0.014660182812350148
1.412000000000001032,-0.014477699482143110
1.413000000000001144,-0.014295585877070208
1.414000000000001034,-0.014113841847907376
1.415000000000000924,-0.013932467245712671
1.416000000000001036,-0.013751461921791188
1.417000000000001148,-0.013570825727651673
1.418000000000001037,-0.013390558514967881
1.419000000000000927,-0.013210660135545527
1.420000000000001039,-0.013031130441284103
1.421000000000001151,-0.012851969284141725
1.422000000000001041,-0.012673176516097248
1.423000000000000931,-0.012494751989117156
1.424000000000001043,-0.012316695555121781
1.425000000000001155,-0.012139007065949611
1.426000000000001044,-0.011961686373324848
1.427000000000000934,-0.011784733328826990
1.428000000000001046,-0.011608147783854333
1.429000000000001158,-0.011431929589593267
1.430000000000001048,-0.011256078596992347
1.431000000000000938,-0.011080594656721496
1.432000000000001050,-0.010905477619152648
1.433000000000001162,-0.010730727334323351
1.434000000000001052,-0.010556343651907338
1.435000000000000941,-0.010382326421191728
1.436000000000001053,-0.010208675491040603
1.437000000000001165,-0.010035390709872100
1.438000000000001055,-0.009862471925633054
1.439000000000000945,-0.009689918985767435
1.440000000000001057,-0.009517731737193226
1.441000000000001169,-0.009345910026271529
1.442000000000001059,-0.009174453698788113
1.443000000000000949,-0.009003362599925674
1.444000000000001060,-0.008832636574237614
1.445000000000001172,-0.008662275465621308
1.446000000000001062,-0.008492279117305716
1.447000000000000952,-0.008322647371812937
1.448000000000001064,-0.008153380070946105
1.449000000000001176,-0.007984477055765896
1.450000000000001066,-0.007815938166561353
1.451000000000000956,-0.007647763242836006
1.452000000000001068,-0.007479952123283081
1.453000000000001180,-0.007312504645765676
1.454000000000001069,-0.007145420647295141
1.455000000000000959,-0.006978699964013324
1.456000000000001071,-0.006812342431169051
1.457000000000001183,-0.006646347883105004
1.458000000000001073,-0.006480716153233356
1.459000000000000963,-0.006315447074018541
1.460000000000001075,-0.006150540476959183
1.461000000000001187,-0.005985996192571419
1.462000000000001076,-0.005821814050373432
1.463000000000000966,-0.005657993878862276
1.464000000000001078,-0.005494535505501399
1.465000000000001190,-0.005331438756706786
1.466000000000001080,-0.005168703457823767
1.467000000000000970,-0.005006329433117825
1.468000000000001082,-0.004844316505758022
1.469000000000001194,-0.004682664497797305
1.470000000000001084,-0.004521373230164123
1.471000000000000973,-0.004360442522644592
1.472000000000001085,-0.004199872193871448
1.473000000000001197,-0.004039662061305438
1.474000000000001087,-0.003879811941228121
1.475000000000000977,-0.003720321648721214
1.476000000000001089,-0.003561190997662196
1.477000000000001201,-0.003402419800706988
1.478000000000001091,-0.003244007869278071
1.479000000000000981,-0.003085955013553870
1.480000000000001092,-0.002928261042456115
1.481000000000001204,-0.002770925763639515
1.482000000000001094,-0.002613948983481368
1.483000000000000984,-0.002457330507071514
1.484000000000001096,-0.002301070138196850
1.485000000000001208,-0.002145167679336255
1.486000000000001098,-0.001989622931651752
1.487000000000000988,-0.001834435694974527
1.488000000000001100,-0.001679605767796572
1.489000000000001211,-0.001525132947266030
1.490000000000001101,-0.001371017029173661
1.491000000000000991,-0.001217257807945857
1.492000000000001103,-0.001063855076636717
1.493000000000001215,-0.000910808626922335
1.494000000000001105,-0.000758118249086136
1.495000000000000995,-0.000605783732018788
1.496000000000001107,-0.000453804863208228
1.497000000000001219,-0.000302181428731031
1.498000000000001108,-0.000150913213249425
1.499000000000000998,0.000000000000000000
