# ZnO10m10NB_GLN-AC
# h[nm],U(h)[kJ/mol]
0.149999999999999994,159.774518169327592432
0.150999999999999995,157.654985739294517089
0.151999999999999996,155.909034660481211176
0.152999999999999997,154.240823349320407942
0.153999999999999998,152.547321436838331010
0.154999999999999999,150.813993590472904316
0.156000000000000000,149.059015130749514810
0.157000000000000001,147.305979833892564557
0.158000000000000002,145.572597978788223827
0.159000000000000002,143.867783969825580925
0.160000000000000003,142.192669116986138533
0.161000000000000004,140.543042144022990669
0.162000000000000005,138.911922134093003933
0.163000000000000006,137.291678128171554363
0.164000000000000007,135.675507888696699865
0.165000000000000008,134.058294906891603659
0.166000000000000009,132.436955110461497043
0.167000000000000010,130.810412335891584235
0.168000000000000010,129.179335226065575171
0.169000000000000011,127.545746348720967944
0.170000000000000012,125.912587695778256602
0.171000000000000013,124.283301060073270605
0.172000000000000014,122.661459807830098612
0.173000000000000015,121.050471205308923572
0.174000000000000016,119.453355665362238369
0.175000000000000017,117.872600514089896251
0.176000000000000018,116.310080407665324742
0.177000000000000018,114.767033600740390398
0.178000000000000019,113.244082193153730032
0.179000000000000020,111.741284679184076367
0.180000000000000021,110.258210127364193909
0.181000000000000022,108.794024772905345344
0.182000000000000023,107.347583449373658482
0.183000000000000024,105.917519941480421153
0.184000000000000025,104.502331890041546103
0.185000000000000026,103.100457254909400717
0.186000000000000026,101.710340508955397354
0.187000000000000027,100.330487687798694196
0.188000000000000028,98.959510164261999421
0.189000000000000029,97.596157571977045109
0.190000000000000030,96.239340693084642453
0.191000000000000031,94.888145376604668968
0.192000000000000032,93.541838692633604069
0.193000000000000033,92.199868577235918110
0.194000000000000034,90.861858205432412205
0.195000000000000034,89.527596263815610200
0.196000000000000035,88.197024195809149205
0.197000000000000036,86.870221374285421234
0.198000000000000037,85.547389028338983508
0.199000000000000038,84.228833621277175325
0.200000000000000039,82.914950251075964616
0.201000000000000040,81.606206526683493507
0.202000000000000041,80.303127266241517646
0.203000000000000042,79.006280268032355707
0.204000000000000042,77.716263322350698672
0.205000000000000043,76.433692562516895919
0.206000000000000044,75.159192195363203837
0.207000000000000045,73.893385604911287601
0.208000000000000046,72.636887786566674663
0.209000000000000047,71.390299041838218841
0.210000000000000048,70.154199844158952715
0.211000000000000049,68.929146773670453285
0.212000000000000050,67.715669411719233040
0.213000000000000050,66.514268083271218757
0.214000000000000051,65.325412336536857083
0.215000000000000052,64.149540052988072603
0.216000000000000053,62.987057086908123438
0.217000000000000054,61.838337341028328353
0.218000000000000055,60.703723193145364689
0.219000000000000056,59.583526197452158613
0.220000000000000057,58.478027993298795195
0.221000000000000058,57.387481362962411424
0.222000000000000058,56.312111388526396638
0.223000000000000059,55.252116666003246337
0.224000000000000060,54.207670542271742420
0.225000000000000061,53.178922347170782814
0.226000000000000062,52.165998599163550864
0.227000000000000063,51.169004168349935924
0.228000000000000064,50.188023385271584687
0.229000000000000065,49.223121087948101149
0.230000000000000066,48.274343602947602960
0.231000000000000066,47.341719659069710247
0.232000000000000067,46.425261234460954540
0.233000000000000068,45.524964339739952379
0.234000000000000069,44.640809741040371250
0.235000000000000070,43.772763627834599731
0.236000000000000071,42.920778231033182237
0.237000000000000072,42.084792397211153059
0.238000000000000073,41.264732124939548896
0.239000000000000073,40.460511069139968754
0.240000000000000074,39.672031019166723809
0.241000000000000075,38.899182355993687565
0.242000000000000076,38.141844493466379618
0.243000000000000077,37.399886308102495036
0.244000000000000078,36.673166561408244490
0.245000000000000079,35.961534318140692790
0.246000000000000080,35.264829363406953178
0.247000000000000081,34.582882620958017128
0.248000000000000081,33.915516574522925453
0.249000000000000082,33.262545693543671632
0.250000000000000111,32.623776864218555716
0.251000000000000112,31.999009826347919017
0.252000000000000113,31.388037616101417626
0.253000000000000114,30.790647014495032607
0.254000000000000115,30.206619001075871722
0.255000000000000115,29.635729212065776039
0.256000000000000116,29.077748402008033679
0.257000000000000117,28.532442907793971187
0.258000000000000118,27.999575113815900806
0.259000000000000119,27.478903916896996407
0.260000000000000120,26.970185189583446572
0.261000000000000121,26.473172240349782669
0.262000000000000122,25.987616269257891588
0.263000000000000123,25.513266817623843963
0.264000000000000123,25.049872210280252460
0.265000000000000124,24.597179989072621709
0.266000000000000125,24.154937336293521355
0.267000000000000126,23.722891486836566344
0.268000000000000127,23.300790127938888929
0.269000000000000128,22.888381785476489938
0.270000000000000129,22.485416195877554912
0.271000000000000130,22.091644662822456979
0.272000000000000131,21.706820398006897221
0.273000000000000131,21.330698845350859472
0.274000000000000132,20.963037988143465640
0.275000000000000133,20.603598638718196412
0.276000000000000134,20.252144710355167945
0.277000000000000135,19.908443471206414443
0.278000000000000136,19.572265780133584201
0.279000000000000137,19.243386304437940737
0.280000000000000138,18.921583719546841706
0.281000000000000139,18.606640890799603483
0.282000000000000139,18.298345037549371028
0.283000000000000140,17.996487879864350390
0.284000000000000141,17.700865768173844828
0.285000000000000142,17.411279796259311325
0.286000000000000143,17.127535898040466833
0.287000000000000144,16.849444928650399333
0.288000000000000145,16.576822730331070233
0.289000000000000146,16.309490183714039802
0.290000000000000147,16.047273245077857240
0.291000000000000147,15.790002970196592713
0.292000000000000148,15.537515525411006223
0.293000000000000149,15.289652186567575853
0.294000000000000150,15.046259326479281881
0.295000000000000151,14.807188391567212449
0.296000000000000152,14.572295868343511316
0.297000000000000153,14.341443240394488257
0.298000000000000154,14.114496936517650028
0.299000000000000155,13.891328270658997113
0.300000000000000155,13.671813374286523768
0.301000000000000156,13.455833121824094079
0.302000000000000157,13.243273049754805015
0.303000000000000158,13.034023269987713434
0.304000000000000159,12.827978378063800591
0.305000000000000160,12.625037356758493701
0.306000000000000161,12.425103475618231030
0.307000000000000162,12.228084186947764778
0.308000000000000163,12.033891018743620549
0.309000000000000163,11.842439465047178260
0.310000000000000164,11.653648874168508698
0.311000000000000165,11.467442335209666382
0.312000000000000166,11.283746563293538756
0.313000000000000167,11.102491783881694332
0.314000000000000168,10.923611616542386216
0.315000000000000169,10.747042958507453392
0.316000000000000170,10.572725868335147936
0.317000000000000171,10.400603449974262560
0.318000000000000171,10.230621737504055346
0.319000000000000172,10.062729580803697615
0.320000000000000173,9.896878532385182226
0.321000000000000174,9.733022735604354381
0.322000000000000175,9.571118814445638279
0.323000000000000176,9.411125765058486081
0.324000000000000177,9.253004849205842319
0.325000000000000178,9.096719489768542388
0.326000000000000179,8.942235168433452230
0.327000000000000179,8.789519325678162076
0.328000000000000180,8.638541263150573357
0.329000000000000181,8.489272048527855219
0.330000000000000182,8.341684422926618936
0.331000000000000183,8.195752710923434492
0.332000000000000184,8.051452733233780634
0.333000000000000185,7.908761722086312673
0.334000000000000186,7.767658239319345626
0.335000000000000187,7.628122097217004516
0.336000000000000187,7.490134282093386275
0.337000000000000188,7.353676880625423351
0.338000000000000189,7.218733008926911054
0.339000000000000190,7.085286744349573951
0.340000000000000191,6.953323059990550448
0.341000000000000192,6.822827761879719510
0.342000000000000193,6.693787428814887974
0.343000000000000194,6.566189354808062539
0.344000000000000195,6.440021494101844546
0.345000000000000195,6.315272408710451479
0.346000000000000196,6.191931218437170870
0.347000000000000197,6.069987553316250839
0.348000000000000198,5.949431508424958714
0.349000000000000199,5.830253601009030895
0.350000000000000200,5.712444729862729886
0.351000000000000201,5.595996136903069740
0.352000000000000202,5.480899370876476162
0.353000000000000203,5.367146253134879252
0.354000000000000203,5.254728845417526273
0.355000000000000204,5.143639419574229876
0.356000000000000205,5.033870429165409277
0.357000000000000206,4.925414482873877731
0.358000000000000207,4.818264319663889239
0.359000000000000208,4.712412785622707823
0.360000000000000209,4.607852812420477839
0.361000000000000210,4.504577397324942112
0.362000000000000210,4.402579584707870808
0.363000000000000211,4.301852448981115629
0.364000000000000212,4.202389078900992558
0.365000000000000213,4.104182563180740928
0.366000000000000214,4.007225977351886570
0.367000000000000215,3.911512371816534994
0.368000000000000216,3.817034761033730295
0.369000000000000217,3.723786113784567142
0.370000000000000218,3.631759344461781502
0.371000000000000218,3.540947305331246575
0.372000000000000219,3.451342779713923115
0.373000000000000220,3.362938476038483948
0.374000000000000221,3.275727022716210968
0.375000000000000222,3.189700963791409105
0.376000000000000223,3.104852755321655167
0.377000000000000224,3.021174762444311046
0.378000000000000225,2.938659257086747800
0.379000000000000226,2.857298416279490105
0.380000000000000226,2.777084321032808223
0.381000000000000227,2.698008955738995240
0.382000000000000228,2.620064208063783262
0.383000000000000229,2.543241869291990920
0.384000000000000230,2.467533635093869915
0.385000000000000231,2.392931106679920372
0.386000000000000232,2.319425792313577261
0.387000000000000233,2.247009109152189321
0.388000000000000234,2.175672385388431440
0.389000000000000234,2.105406862665199164
0.390000000000000235,2.036203698738621615
0.391000000000000236,1.968053970364876948
0.392000000000000237,1.900948676387786307
0.393000000000000238,1.834878741005279590
0.394000000000000239,1.769835017194052895
0.395000000000000240,1.705808290272716077
0.396000000000000241,1.642789281584934757
0.397000000000000242,1.580768652284995301
0.398000000000000242,1.519737007209284840
0.399000000000000243,1.459684898818182530
0.400000000000000244,1.400602831193660247
0.401000000000000245,1.342481264078887904
0.402000000000000246,1.285310616947127782
0.403000000000000247,1.229081273087669235
0.404000000000000248,1.173783583697784350
0.405000000000000249,1.119407871970140578
0.406000000000000250,1.065944437166039593
0.407000000000000250,1.013383558665401418
0.408000000000000251,0.961715499985213329
0.409000000000000252,0.910930512758749922
0.410000000000000253,0.861018840668475782
0.411000000000000254,0.811970723326182586
0.412000000000000255,0.763776400094435592
0.413000000000000256,0.716426113843891321
0.414000000000000257,0.669910114641736221
0.415000000000000258,0.624218663366659099
0.416000000000000258,0.579342035246632192
0.417000000000000259,0.535270523315817370
0.418000000000000260,0.491994441787635239
0.419000000000000261,0.449504129341173453
0.420000000000000262,0.407789952318726834
0.421000000000000263,0.366842307832307035
0.422000000000000264,0.326651626777665460
0.423000000000000265,0.287208376754270689
0.424000000000000266,0.248503064890243486
0.425000000000000266,0.210526240571511813
0.426000000000000267,0.173268498074502120
0.427000000000000268,0.136720479102147963
0.428000000000000269,0.100872875223098429
0.429000000000000270,0.065716430214189450
0.430000000000000271,0.031241942306569560
0.431000000000000272,-0.002559733664161268
0.432000000000000273,-0.035697684203037386
0.433000000000000274,-0.068180935195343031
0.434000000000000274,-0.100018450039786849
0.435000000000000275,-0.131219127874153990
0.436000000000000276,-0.161791801892327447
0.437000000000000277,-0.191745237751327180
0.438000000000000278,-0.221088132067034010
0.439000000000000279,-0.249829110997128456
0.440000000000000280,-0.277976728909699766
0.441000000000000281,-0.305539467135864551
0.442000000000000282,-0.332525732804856256
0.443000000000000282,-0.358943857759666307
0.444000000000000283,-0.384802097551650846
0.445000000000000284,-0.410108630512142081
0.446000000000000285,-0.434871556899273759
0.447000000000000286,-0.459098898118200094
0.448000000000000287,-0.482798596012648962
0.449000000000000288,-0.505978512226085697
0.450000000000000289,-0.528646427630382498
0.451000000000000290,-0.550810041820146923
0.452000000000000290,-0.572476972670785011
0.453000000000000291,-0.593654755958245905
0.454000000000000292,-0.614350845038631355
0.455000000000000293,-0.634572610585646957
0.456000000000000294,-0.654327340384011080
0.457000000000000295,-0.673622239176928650
0.458000000000000296,-0.692464428565658374
0.459000000000000297,-0.710860946959398055
0.460000000000000298,-0.728818749573547309
0.461000000000000298,-0.746344708474567797
0.462000000000000299,-0.763445612669607643
0.463000000000000300,-0.780128168239094588
0.464000000000000301,-0.796398998510589817
0.465000000000000302,-0.812264644272118752
0.466000000000000303,-0.827731564023314048
0.467000000000000304,-0.842806134262733764
0.468000000000000305,-0.857494649809641962
0.469000000000000306,-0.871803324158718640
0.470000000000000306,-0.885738289866167983
0.471000000000000307,-0.899305598965558728
0.472000000000000308,-0.912511223412039718
0.473000000000000309,-0.925361055553427514
0.474000000000000310,-0.937860908626691137
0.475000000000000311,-0.950016517278521655
0.476000000000000312,-0.961833538108571084
0.477000000000000313,-0.973317550234124362
0.478000000000000314,-0.984474055874791310
0.479000000000000314,-0.995308480956154762
0.480000000000000315,-1.005826175730975436
0.481000000000000316,-1.016032415416960211
0.482000000000000317,-1.025932400849805859
0.483000000000000318,-1.035531259150528127
0.484000000000000319,-1.044834044405943629
0.485000000000000320,-1.053845738361300466
0.486000000000000321,-1.062571251124060812
0.487000000000000322,-1.071015421877880458
0.488000000000000322,-1.079183019605773897
0.489000000000000323,-1.087078743821724869
0.490000000000000324,-1.094707225309727194
0.491000000000000325,-1.102073026869496930
0.492000000000000326,-1.109180644068020971
0.493000000000000327,-1.116034505996219117
0.494000000000000328,-1.122638976029901370
0.495000000000000329,-1.128998352594398513
0.496000000000000330,-1.135116869932061290
0.497000000000000330,-1.140998698872158323
0.498000000000000331,-1.146647947602285722
0.499000000000000332,-1.152068662440950408
0.500000000000000333,-1.157264828610602425
0.501000000000000334,-1.162240371010545781
0.502000000000000335,-1.166999154989319720
0.503000000000000336,-1.171544987115952008
0.504000000000000337,-1.175881615949653236
0.505000000000000338,-1.180012732807472542
0.506000000000000338,-1.183941972529508835
0.507000000000000339,-1.187672914241266531
0.508000000000000340,-1.191209082112696827
0.509000000000000341,-1.194553946113728893
0.510000000000000342,-1.197710922765705677
0.511000000000000343,-1.200683375888627280
0.512000000000000344,-1.203474617343709863
0.513000000000000345,-1.206087907771070444
0.514000000000000346,-1.208526457322278702
0.515000000000000346,-1.210793426387406058
0.516000000000000347,-1.212891926316439051
0.517000000000000348,-1.214825020134816524
0.518000000000000349,-1.216595723252809735
0.519000000000000350,-1.218207004168653240
0.520000000000000351,-1.219661785165134571
0.521000000000000352,-1.220962942999607170
0.522000000000000353,-1.222113309587125496
0.523000000000000353,-1.223115672676682752
0.524000000000000354,-1.223972776520365846
0.525000000000000355,-1.224687322535315204
0.526000000000000356,-1.225261969958370667
0.527000000000000357,-1.225699336493365044
0.528000000000000358,-1.226001998950900340
0.529000000000000359,-1.226172493880617775
0.530000000000000360,-1.226213318195789270
0.531000000000000361,-1.226126929790303688
0.532000000000000361,-1.225915748147884621
0.533000000000000362,-1.225582154943583024
0.534000000000000363,-1.225128494637444998
0.535000000000000364,-1.224557075060415334
0.536000000000000365,-1.223870167992358926
0.537000000000000366,-1.223070009732300178
0.538000000000000367,-1.222158801660751637
0.539000000000000368,-1.221138710794296145
0.540000000000000369,-1.220011870332255111
0.541000000000000369,-1.218780380195623625
0.542000000000000370,-1.217446307558143648
0.543000000000000371,-1.216011687369669803
0.544000000000000372,-1.214478522871766941
0.545000000000000373,-1.212848786105633847
0.546000000000000374,-1.211124418412354853
0.547000000000000375,-1.209307330925522006
0.548000000000000376,-1.207399405056328145
0.549000000000000377,-1.205402492971104911
0.550000000000000377,-1.203318418061434025
0.551000000000000378,-1.201148975406800767
0.552000000000000379,-1.198895932229973704
0.553000000000000380,-1.196561028345045852
0.554000000000000381,-1.194145976598260717
0.555000000000000382,-1.191652463301755560
0.556000000000000383,-1.189082148660125293
0.557000000000000384,-1.186436667190078564
0.558000000000000385,-1.183717628133090560
0.559000000000000385,-1.180926615861227713
0.560000000000000386,-1.178065190276210261
0.561000000000000387,-1.175134887201742639
0.562000000000000388,-1.172137218769220279
0.563000000000000389,-1.169073673796946045
0.564000000000000390,-1.165945718162826106
0.565000000000000391,-1.162754795170732658
0.566000000000000392,-1.159502325910543474
0.567000000000000393,-1.156189709612021055
0.568000000000000393,-1.152818323992507832
0.569000000000000394,-1.149389525598621731
0.570000000000000395,-1.145904650142014258
0.571000000000000396,-1.142365012829194448
0.572000000000000397,-1.138771908685661804
0.573000000000000398,-1.135126612874266971
0.574000000000000399,-1.131430381008021069
0.575000000000000400,-1.127684449457336591
0.576000000000000401,-1.123890035651847530
0.577000000000000401,-1.120048338376908648
0.578000000000000402,-1.116160538064782992
0.579000000000000403,-1.112227797080647118
0.580000000000000404,-1.108251260003564109
0.581000000000000405,-1.104232053902352906
0.582000000000000406,-1.100171288606609066
0.583000000000000407,-1.096070056972819673
0.584000000000000408,-1.091929435145751359
0.585000000000000409,-1.087750482815151187
0.586000000000000409,-1.083534243467819680
0.587000000000000410,-1.079281744635219642
0.588000000000000411,-1.074993998136569484
0.589000000000000412,-1.070672000317666406
0.590000000000000413,-1.066316732285344182
0.591000000000000414,-1.061929160137766059
0.592000000000000415,-1.057510235190610270
0.593000000000000416,-1.053060894199150832
0.594000000000000417,-1.048582059576384840
0.595000000000000417,-1.044074639607306398
0.596000000000000418,-1.039539528659233714
0.597000000000000419,-1.034977607388522847
0.598000000000000420,-1.030389742943461640
0.599000000000000421,-1.025776789163646896
0.600000000000000422,-1.021139586775762664
0.601000000000000423,-1.016478963585879081
0.602000000000000424,-1.011795734668374580
0.603000000000000425,-1.007090702551494577
0.604000000000000425,-1.002364657399610781
0.605000000000000426,-0.997618377192290295
0.606000000000000427,-0.992852627900248308
0.607000000000000428,-0.988068163658089915
0.608000000000000429,-0.983265726934210327
0.609000000000000430,-0.978446048697533044
0.610000000000000431,-0.973609848581497794
0.611000000000000432,-0.968757835045114923
0.612000000000000433,-0.963890705531234127
0.613000000000000433,-0.959009146622125774
0.614000000000000434,-0.954113834192338528
0.615000000000000435,-0.949205433558949929
0.616000000000000436,-0.944284599629215626
0.617000000000000437,-0.939351977045781106
0.618000000000000438,-0.934408200329343464
0.619000000000000439,-0.929453894018918092
0.620000000000000440,-0.924489672809771235
0.621000000000000441,-0.919516141689003086
0.622000000000000441,-0.914533896068888907
0.623000000000000442,-0.909543521917953846
0.624000000000000443,-0.904545595889915233
0.625000000000000444,-0.899540685450493482
0.626000000000000445,-0.894529349002087359
0.627000000000000446,-0.889512136006471055
0.628000000000000447,-0.884489587105447783
0.629000000000000448,-0.879462234239560159
0.630000000000000449,-0.874430600764868116
0.631000000000000449,-0.869395201567872200
0.632000000000000450,-0.864356543178571579
0.633000000000000451,-0.859315123881762788
0.634000000000000452,-0.854271433826505833
0.635000000000000453,-0.849225955133949384
0.636000000000000454,-0.844179162003381278
0.637000000000000455,-0.839131520816703280
0.638000000000000456,-0.834083490241215086
0.639000000000000457,-0.829035521330851011
0.640000000000000457,-0.823988057625877346
0.641000000000000458,-0.818941535250997221
0.642000000000000459,-0.813896383012068680
0.643000000000000460,-0.808853022491258677
0.644000000000000461,-0.803811868140844155
0.645000000000000462,-0.798773327375586595
0.646000000000000463,-0.793737800663711801
0.647000000000000464,-0.788705681616583054
0.648000000000000465,-0.783677357077054548
0.649000000000000465,-0.778653207206503106
0.650000000000000466,-0.773633605570649308
0.651000000000000467,-0.768618919224085984
0.652000000000000468,-0.763609508793648084
0.653000000000000469,-0.758605728560540427
0.654000000000000470,-0.753607926541362771
0.655000000000000471,-0.748616444567950401
0.656000000000000472,-0.743631618366112246
0.657000000000000473,-0.738653777633264785
0.658000000000000473,-0.733683246115020005
0.659000000000000474,-0.728720341680691441
0.660000000000000475,-0.723765376397789040
0.661000000000000476,-0.718818656605481610
0.662000000000000477,-0.713880482987098497
0.663000000000000478,-0.708951150641622840
0.664000000000000479,-0.704030949154287988
0.665000000000000480,-0.699120162666148515
0.666000000000000481,-0.694219069942850098
0.667000000000000481,-0.689327944442374996
0.668000000000000482,-0.684447054382034126
0.669000000000000483,-0.679576662804476483
0.670000000000000484,-0.674717027642929512
0.671000000000000485,-0.669868401785573608
0.672000000000000486,-0.665031033139084071
0.673000000000000487,-0.660205164691424540
0.674000000000000488,-0.655391034573783005
0.675000000000000488,-0.650588876121768078
0.676000000000000489,-0.645798917935880512
0.677000000000000490,-0.641021383941151823
0.678000000000000491,-0.636256493446135662
0.679000000000000492,-0.631504461201130796
0.680000000000000493,-0.626765497455700982
0.681000000000000494,-0.622039808015526274
0.682000000000000495,-0.617327594298526905
0.683000000000000496,-0.612629053390364664
0.684000000000000496,-0.607944378099251170
0.685000000000000497,-0.603273757010109546
0.686000000000000498,-0.598617374538125580
0.687000000000000499,-0.593975410981629759
0.688000000000000500,-0.589348042574392328
0.689000000000000501,-0.584735441537302947
0.690000000000000502,-0.580137776129459715
0.691000000000000503,-0.575555210698660558
0.692000000000000504,-0.570987905731302314
0.693000000000000504,-0.566436017901771671
0.694000000000000505,-0.561899700121177736
0.695000000000000506,-0.557379101585641967
0.696000000000000507,-0.552874367823959156
0.697000000000000508,-0.548385640744762703
0.698000000000000509,-0.543913058683167860
0.699000000000000510,-0.539456756446875185
0.700000000000000511,-0.535016865361777949
0.701000000000000512,-0.530593513317065280
0.702000000000000512,-0.526186824809818821
0.703000000000000513,-0.521796920989129109
0.704000000000000514,-0.517423919699736889
0.705000000000000515,-0.513067935525174601
0.706000000000000516,-0.508729079830469222
0.707000000000000517,-0.504407460804371488
0.708000000000000518,-0.500103183501093507
0.709000000000000519,-0.495816349881688267
0.710000000000000520,-0.491547058854869046
0.711000000000000520,-0.487295406317486801
0.712000000000000521,-0.483061485194530515
0.713000000000000522,-0.478845385478687213
0.714000000000000523,-0.474647194269539774
0.715000000000000524,-0.470466995812276800
0.716000000000000525,-0.466304871536053045
0.717000000000000526,-0.462160900091917681
0.718000000000000527,-0.458035157390325298
0.719000000000000528,-0.453927716638279688
0.720000000000000528,-0.449838648376104822
0.721000000000000529,-0.445768020513758245
0.722000000000000530,-0.441715898366849991
0.723000000000000531,-0.437682344692210124
0.724000000000000532,-0.433667419723144820
0.725000000000000533,-0.429671181204293262
0.726000000000000534,-0.425693684426109775
0.727000000000000535,-0.421734982259018731
0.728000000000000536,-0.417795125187189753
0.729000000000000536,-0.413874161341962921
0.730000000000000537,-0.409972136534955400
0.731000000000000538,-0.406089094290769392
0.732000000000000539,-0.402225075879417193
0.733000000000000540,-0.398380120348371114
0.734000000000000541,-0.394554264554309309
0.735000000000000542,-0.390747543194479907
0.736000000000000543,-0.386959988837826896
0.737000000000000544,-0.383191631955691114
0.738000000000000544,-0.379442500952290152
0.739000000000000545,-0.375712622194797174
0.740000000000000546,-0.372002020043165793
0.741000000000000547,-0.368310716879600764
0.742000000000000548,-0.364638733137799043
0.743000000000000549,-0.360986087331765571
0.744000000000000550,-0.357352796084436763
0.745000000000000551,-0.353738874155952621
0.746000000000000552,-0.350144334471657770
0.747000000000000552,-0.346569188149792540
0.748000000000000553,-0.343013444528900369
0.749000000000000554,-0.339477111194949832
0.750000000000000555,-0.335960194008180058
0.751000000000000556,-0.332462697129644380
0.752000000000000557,-0.328984623047522462
0.753000000000000558,-0.325525972603065816
0.754000000000000559,-0.322086745016385678
0.755000000000000560,-0.318666937911868009
0.756000000000000560,-0.315266547343404535
0.757000000000000561,-0.311885567819273568
0.758000000000000562,-0.308523992326818708
0.759000000000000563,-0.305181812356853266
0.760000000000000564,-0.301859017927795625
0.761000000000000565,-0.298555597609544698
0.762000000000000566,-0.295271538547115853
0.763000000000000567,-0.292006826484012771
0.764000000000000568,-0.288761445785343684
0.765000000000000568,-0.285535379460724381
0.766000000000000569,-0.282328609186881685
0.767000000000000570,-0.279141115330066303
0.768000000000000571,-0.275972876968174075
0.769000000000000572,-0.272823871912670768
0.770000000000000573,-0.269694076730255861
0.771000000000000574,-0.266583466764298671
0.772000000000000575,-0.263492016156041675
0.773000000000000576,-0.260419697865559630
0.774000000000000576,-0.257366483692506753
0.775000000000000577,-0.254332344296633817
0.776000000000000578,-0.251317249218058869
0.777000000000000579,-0.248321166897353424
0.778000000000000580,-0.245344064695361463
0.779000000000000581,-0.242385908912834847
0.780000000000000582,-0.239446664809824489
0.781000000000000583,-0.236526296624884141
0.782000000000000584,-0.233624767594030308
0.783000000000000584,-0.230742039969495771
0.784000000000000585,-0.227878075038303318
0.785000000000000586,-0.225032833140572874
0.786000000000000587,-0.222206273687682032
0.787000000000000588,-0.219398355180182303
0.788000000000000589,-0.216609035225504426
0.789000000000000590,-0.213838270555515964
0.790000000000000591,-0.211086017043808083
0.791000000000000592,-0.208352229722833154
0.792000000000000592,-0.205636862800826714
0.793000000000000593,-0.202939869678528062
0.794000000000000594,-0.200261202965724916
0.795000000000000595,-0.197600814497598226
0.796000000000000596,-0.194958655350855992
0.797000000000000597,-0.192334675859712229
0.798000000000000598,-0.189728825631662046
0.799000000000000599,-0.187141053563053772
0.800000000000000600,-0.184571307854523525
0.801000000000000600,-0.182019536026189116
0.802000000000000601,-0.179485684932703504
0.803000000000000602,-0.176969700778115080
0.804000000000000603,-0.174471529130551944
0.805000000000000604,-0.171991114936737882
0.806000000000000605,-0.169528402536293116
0.807000000000000606,-0.167083335675930061
0.808000000000000607,-0.164655857523414356
0.809000000000000608,-0.162245910681382305
0.810000000000000608,-0.159853437201015081
0.811000000000000609,-0.157478378595457852
0.812000000000000610,-0.155120675853203716
0.813000000000000611,-0.152780269451182116
0.814000000000000612,-0.150457099367766911
0.815000000000000613,-0.148151105095609886
0.816000000000000614,-0.145862225654278976
0.817000000000000615,-0.143590399602765872
0.818000000000000616,-0.141335565051844914
0.819000000000000616,-0.139097659676245572
0.820000000000000617,-0.136876620726683024
0.821000000000000618,-0.134672385041748000
0.822000000000000619,-0.132484889059636235
0.823000000000000620,-0.130314068829714524
0.824000000000000621,-0.128159860023939254
0.825000000000000622,-0.126022197948158554
0.826000000000000623,-0.123901017553227535
0.827000000000000624,-0.121796253445993069
0.828000000000000624,-0.119707839900146690
0.829000000000000625,-0.117635710866902748
0.830000000000000626,-0.115579799985576548
0.831000000000000627,-0.113540040593986882
0.832000000000000628,-0.111516365738744017
0.833000000000000629,-0.109508708185378098
0.834000000000000630,-0.107517000428348081
0.835000000000000631,-0.105541174700907778
0.836000000000000631,-0.103581162984836023
0.837000000000000632,-0.101636897020052561
0.838000000000000633,-0.099708308314063854
0.839000000000000634,-0.097795328151314947
0.840000000000000635,-0.095897887602406612
0.841000000000000636,-0.094015917533156662
0.842000000000000637,-0.092149348613577348
0.843000000000000638,-0.090298111326688899
0.844000000000000639,-0.088462135977234888
0.845000000000000639,-0.086641352700259813
0.846000000000000640,-0.084835691469559521
0.847000000000000641,-0.083045082106052798
0.848000000000000642,-0.081269454285964285
0.849000000000000643,-0.079508737548938030
0.850000000000000644,-0.077762861306046219
0.851000000000000645,-0.076031754847620175
0.852000000000000646,-0.074315347351027156
0.853000000000000647,-0.072613567888306849
0.854000000000000647,-0.070926345433687948
0.855000000000000648,-0.069253608871011590
0.856000000000000649,-0.067595287001038742
0.857000000000000650,-0.065951308548641188
0.858000000000000651,-0.064321602169884431
0.859000000000000652,-0.062706096459010555
0.860000000000000653,-0.061104719955324863
0.861000000000000654,-0.059517401149933771
0.862000000000000655,-0.057944068492444399
0.863000000000000655,-0.056384650397499556
0.864000000000000656,-0.054839075251256794
0.865000000000000657,-0.053307271417724886
0.866000000000000658,-0.051789167245041720
0.867000000000000659,-0.050284691071638590
0.868000000000000660,-0.048793771232281527
0.869000000000000661,-0.047316336064048545
0.870000000000000662,-0.045852313912197282
0.871000000000000663,-0.044401633135959490
0.872000000000000663,-0.042964222114183756
0.873000000000000664,-0.041540009250961261
0.874000000000000665,-0.040128922981098117
0.875000000000000666,-0.038730891775542703
0.876000000000000667,-0.037345844146679838
0.877000000000000668,-0.035973708653575784
0.878000000000000669,-0.034614413907115220
0.879000000000000670,-0.033267888575043127
0.880000000000000671,-0.031934061386951026
0.881000000000000671,-0.030612861139132121
0.882000000000000672,-0.029304216699409365
0.883000000000000673,-0.028008057011827087
0.884000000000000674,-0.026724311101296534
0.885000000000000675,-0.025452908078138214
0.886000000000000676,-0.024193777142558676
0.887000000000000677,-0.022946847589039868
0.888000000000000678,-0.021712048810644573
0.889000000000000679,-0.020489310303260979
0.890000000000000679,-0.019278561669755175
0.891000000000000680,-0.018079732624052592
0.892000000000000681,-0.016892752995149123
0.893000000000000682,-0.015717552731034031
0.894000000000000683,-0.014554061902550647
0.895000000000000684,-0.013402210707190753
0.896000000000000685,-0.012261929472799729
0.897000000000000686,-0.011133148661219703
0.898000000000000687,-0.010015798871870776
0.899000000000000687,-0.008909810845242127
0.900000000000000688,-0.007815115466336894
0.901000000000000689,-0.006731643768033912
0.902000000000000690,-0.005659326934390668
0.903000000000000691,-0.004598096303878352
0.904000000000000692,-0.003547883372545998
0.905000000000000693,-0.002508619797126341
0.906000000000000694,-0.001480237398084727
0.907000000000000695,-0.000462668162579824
0.908000000000000695,0.000544155752603978
0.909000000000000696,0.001540302018219788
0.910000000000000697,0.002525838129748220
0.911000000000000698,0.003500831404679139
0.912000000000000699,0.004465348979832926
0.913000000000000700,0.005419457808736561
0.914000000000000701,0.006363224659087919
0.915000000000000702,0.007296716110234416
0.916000000000000703,0.008219998550743044
0.917000000000000703,0.009133138176006533
0.918000000000000704,0.010036200985911303
0.919000000000000705,0.010929252782566781
0.920000000000000706,0.011812359168066546
0.921000000000000707,0.012685585542330225
0.922000000000000708,0.013548997100983529
0.923000000000000709,0.014402658833271544
0.924000000000000710,0.015246635520070106
0.925000000000000711,0.016080991731900449
0.926000000000000711,0.016905791827019536
0.927000000000000712,0.017721099949548992
0.928000000000000713,0.018526980027667020
0.929000000000000714,0.019323495771811423
0.930000000000000715,0.020110710672984557
0.931000000000000716,0.020888688001062444
0.932000000000000717,0.021657490803158434
0.933000000000000718,0.022417181902046401
0.934000000000000719,0.023167823894611646
0.935000000000000719,0.023909479150352912
0.936000000000000720,0.024642209809936685
0.937000000000000721,0.025366077783780815
0.938000000000000722,0.026081144750675623
0.939000000000000723,0.026787472156474361
0.940000000000000724,0.027485121212798114
0.941000000000000725,0.028174152895791317
0.942000000000000726,0.028854627944908597
0.943000000000000727,0.029526606861768612
0.944000000000000727,0.030190149909007528
0.945000000000000728,0.030845317109195636
0.946000000000000729,0.031492168243801730
0.947000000000000730,0.032130762852151398
0.948000000000000731,0.032761160230484032
0.949000000000000732,0.033383419430982754
0.950000000000000733,0.033997599260896551
0.951000000000000734,0.034603758281643401
0.952000000000000735,0.035201954807998266
0.953000000000000735,0.035792246907289813
0.954000000000000736,0.036374692398624987
0.955000000000000737,0.036949348852164964
0.956000000000000738,0.037516273588419996
0.957000000000000739,0.038075523677586771
0.958000000000000740,0.038627155938904548
0.959000000000000741,0.039171226940063787
0.960000000000000742,0.039707792996617731
0.961000000000000743,0.040236910171446094
0.962000000000000743,0.040758634274249791
0.963000000000000744,0.041273020861054534
0.964000000000000745,0.041780125233760020
0.965000000000000746,0.042280002439721208
0.966000000000000747,0.042772707271340041
0.967000000000000748,0.043258294265709860
0.968000000000000749,0.043736817704251980
0.969000000000000750,0.044208331612426134
0.970000000000000751,0.044672889759414247
0.971000000000000751,0.045130545657877622
0.972000000000000752,0.045581352563722831
0.973000000000000753,0.046025363475862245
0.974000000000000754,0.046462631136056518
0.975000000000000755,0.046893208028737671
0.976000000000000756,0.047317146380871783
0.977000000000000757,0.047734498161849673
0.978000000000000758,0.048145315083391892
0.979000000000000759,0.048549648599472264
0.980000000000000759,0.048947549906289758
0.981000000000000760,0.049339069942231445
0.982000000000000761,0.049724259387867654
0.983000000000000762,0.050103168665983078
0.984000000000000763,0.050475847941614208
0.985000000000000764,0.050842347122101075
0.986000000000000765,0.051202715857180524
0.987000000000000766,0.051557003539084489
0.988000000000000766,0.051905259302660677
0.989000000000000767,0.052247532025513854
0.990000000000000768,0.052583870328155292
0.991000000000000769,0.052914322574205211
0.992000000000000770,0.053238936870574238
0.993000000000000771,0.053557761067666854
0.994000000000000772,0.053870842759644565
0.995000000000000773,0.054178229284645905
0.996000000000000774,0.054479967725073374
0.997000000000000774,0.054776104907866462
0.998000000000000775,0.055066687404809266
0.999000000000000776,0.055351761532842637
1.000000000000000666,0.055631373354399695
1.001000000000000778,0.055905568677749519
1.002000000000000668,0.056174393057366490
1.003000000000000780,0.056437891794304515
1.004000000000000670,0.056696109936594775
1.005000000000000782,0.056949092279647173
1.006000000000000671,0.057196883366671544
1.007000000000000783,0.057439527489125022
1.008000000000000673,0.057677068687148017
1.009000000000000785,0.057909550750032381
1.010000000000000675,0.058137017216700046
1.011000000000000787,0.058359511376187258
1.012000000000000677,0.058577076268147218
1.013000000000000789,0.058789754683358411
1.014000000000000679,0.058997589164269004
1.015000000000000790,0.059200622005508442
1.016000000000000680,0.059398895254451488
1.017000000000000792,0.059592450711774450
1.018000000000000682,0.059781329932036088
1.019000000000000794,0.059965574224245380
1.020000000000000684,0.060145224652458196
1.021000000000000796,0.060320322036389415
1.022000000000000686,0.060490906952018308
1.023000000000000798,0.060657019732213324
1.024000000000000687,0.060818700467367717
1.025000000000000799,0.060975989006043084
1.026000000000000689,0.061128924955611973
1.027000000000000801,0.061277547682933621
1.028000000000000691,0.061421896315013012
1.029000000000000803,0.061562009739681692
1.030000000000000693,0.061697926606295604
1.031000000000000805,0.061829685326406293
1.032000000000000695,0.061957324074493038
1.033000000000000806,0.062080880788655021
1.034000000000000696,0.062200393171332337
1.035000000000000808,0.062315898690044058
1.036000000000000698,0.062427434578114525
1.037000000000000810,0.062535037835402596
1.038000000000000700,0.062638745229071507
1.039000000000000812,0.062738593294334039
1.040000000000000702,0.062834618335206496
1.041000000000000814,0.062926856425282104
1.042000000000000703,0.063015343408514959
1.043000000000000815,0.063100114899983156
1.044000000000000705,0.063181206286677394
1.045000000000000817,0.063258652728311576
1.046000000000000707,0.063332489158093169
1.047000000000000819,0.063402750283541004
1.048000000000000709,0.063469470587289245
1.049000000000000821,0.063532684327902780
1.050000000000000711,0.063592425540694594
1.051000000000000822,0.063648728038541685
1.052000000000000712,0.063701625412721619
1.053000000000000824,0.063751151033737824
1.054000000000000714,0.063797338052158578
1.055000000000000826,0.063840219399453765
1.056000000000000716,0.063879827788844087
1.057000000000000828,0.063916195716143445
1.058000000000000718,0.063949355460615559
1.059000000000000830,0.063979339085828840
1.060000000000000719,0.064006178440511416
1.061000000000000831,0.064029905159415090
1.062000000000000721,0.064050550664189979
1.063000000000000833,0.064068146164231315
1.064000000000000723,0.064082722657577834
1.065000000000000835,0.064094310931766610
1.066000000000000725,0.064102941564713523
1.067000000000000837,0.064108644925610123
1.068000000000000727,0.064111451175776255
1.069000000000000838,0.064111390269571952
1.070000000000000728,0.064108491955269659
1.071000000000000840,0.064102785775947788
1.072000000000000730,0.064094301070378681
1.073000000000000842,0.064083066973923491
1.074000000000000732,0.064069112419436372
1.075000000000000844,0.064052466138144998
1.076000000000000734,0.064033156660555646
1.077000000000000846,0.064011212317360067
1.078000000000000735,0.063986661240322734
1.079000000000000847,0.063959531363201372
1.080000000000000737,0.063929850422625750
1.081000000000000849,0.063897645959029276
1.082000000000000739,0.063862945317538417
1.083000000000000851,0.063825775648883962
1.084000000000000741,0.063786163910303409
1.085000000000000853,0.063744136866461437
1.086000000000000743,0.063699721090349867
1.087000000000000854,0.063652942964194728
1.088000000000000744,0.063603828680369706
1.089000000000000856,0.063552404242313495
1.090000000000000746,0.063498695465433047
1.091000000000000858,0.063442727978008262
1.092000000000000748,0.063384527222121595
1.093000000000000860,0.063324118454544887
1.094000000000000750,0.063261526747680888
1.095000000000000862,0.063196776990441558
1.096000000000000751,0.063129893889179639
1.097000000000000863,0.063060901968601188
1.098000000000000753,0.062989825572662639
1.099000000000000865,0.062916688865484405
1.100000000000000755,0.062841515832271544
1.101000000000000867,0.062764330280210640
1.102000000000000757,0.062685155839383125
1.103000000000000869,0.062604015963668422
1.104000000000000759,0.062520933931663775
1.105000000000000870,0.062435932847570229
1.106000000000000760,0.062349035642125059
1.107000000000000872,0.062260265073478094
1.108000000000000762,0.062169643728114246
1.109000000000000874,0.062077194021745274
1.110000000000000764,0.061982938200221646
1.111000000000000876,0.061886898340430686
1.112000000000000766,0.061789096351184639
1.113000000000000878,0.061689553974131686
1.114000000000000767,0.061588292784645379
1.115000000000000879,0.061485334192725984
1.116000000000000769,0.061380699443888000
1.117000000000000881,0.061274409620058215
1.118000000000000771,0.061166485640464008
1.119000000000000883,0.061056948262518972
1.120000000000000773,0.060945818082717595
1.121000000000000885,0.060833115537516247
1.122000000000000774,0.060718860904225500
1.123000000000000886,0.060603074301884718
1.124000000000000776,0.060485775692137901
1.125000000000000888,0.060366984880133770
1.126000000000000778,0.060246721515386327
1.127000000000000890,0.060125005092642757
1.128000000000000780,0.060001854952783637
1.129000000000000892,0.059877290283670614
1.130000000000000782,0.059751330121022003
1.131000000000000894,0.059623993349289028
1.132000000000000783,0.059495298702511537
1.133000000000000895,0.059365264765177492
1.134000000000000785,0.059233909973103717
1.135000000000000897,0.059101252614266096
1.136000000000000787,0.058967310829684594
1.137000000000000899,0.058832102614254242
1.138000000000000789,0.058695645817617034
1.139000000000000901,0.058557958144988931
1.140000000000000790,0.058419057158026845
1.141000000000000902,0.058278960275670547
1.142000000000000792,0.058137684774973865
1.143000000000000904,0.057995247791957562
1.144000000000000794,0.057851666322430453
1.145000000000000906,0.057706957222851976
1.146000000000000796,0.057561137211131340
1.147000000000000908,0.057414222867480810
1.148000000000000798,0.057266230635237877
1.149000000000000909,0.057117176821679647
1.150000000000000799,0.056967077598865545
1.151000000000000689,0.056815949004434263
1.152000000000000801,0.056663806942436133
1.153000000000000913,0.056510667184136575
1.154000000000000803,0.056356545368835373
1.155000000000000693,0.056201457004676006
1.156000000000000805,0.056045417469435678
1.157000000000000917,0.055888442011356287
1.158000000000000806,0.055730545749916351
1.159000000000000696,0.055571743676643838
1.160000000000000808,0.055412050655911461
1.161000000000000920,0.055251481425722296
1.162000000000000810,0.055090050598495796
1.163000000000000700,0.054927772661864493
1.164000000000000812,0.054764661979447446
1.165000000000000924,0.054600732791639572
1.166000000000000814,0.054435999216375965
1.167000000000000703,0.054270475249918994
1.168000000000000815,0.054104174767618418
1.169000000000000927,0.053937111524691536
1.170000000000000817,0.053769299156977146
1.171000000000000707,0.053600751181707720
1.172000000000000819,0.053431480998256231
1.173000000000000931,0.053261501888904952
1.174000000000000821,0.053090827019595596
1.175000000000000711,0.052919469440674327
1.176000000000000822,0.052747442087640130
1.177000000000000934,0.052574757781896297
1.178000000000000824,0.052401429231478211
1.179000000000000714,0.052227469031809012
1.180000000000000826,0.052052889666413492
1.181000000000000938,0.051877703507670778
1.182000000000000828,0.051701922817527370
1.183000000000000718,0.051525559748225772
1.184000000000000830,0.051348626343031376
1.185000000000000941,0.051171134536953933
1.186000000000000831,0.050993096157451998
1.187000000000000721,0.050814522925159512
1.188000000000000833,0.050635426454585429
1.189000000000000945,0.050455818254826035
1.190000000000000835,0.050275709730261450
1.191000000000000725,0.050095112181274028
1.192000000000000837,0.049914036804914873
1.193000000000000949,0.049732494695633699
1.194000000000000838,0.049550496845938555
1.195000000000000728,0.049368054147105565
1.196000000000000840,0.049185177389853306
1.197000000000000952,0.049001877265019735
1.198000000000000842,0.048818164364256192
1.199000000000000732,0.048634049180678499
1.200000000000000844,0.048449542109571871
1.201000000000000956,0.048264653449026043
1.202000000000000846,0.048079393400620091
1.203000000000000735,0.047893772070081199
1.204000000000000847,0.047707799467947079
1.205000000000000959,0.047521485510205463
1.206000000000000849,0.047334840018970085
1.207000000000000739,0.047147872723116734
1.208000000000000851,0.046960593258929463
1.209000000000000963,0.046773011170751624
1.210000000000000853,0.046585135911614561
1.211000000000000743,0.046396976843887897
1.212000000000000854,0.046208543239900271
1.213000000000000966,0.046019844282584522
1.214000000000000856,0.045830889066083597
1.215000000000000746,0.045641686596402588
1.216000000000000858,0.045452245792002313
1.217000000000000970,0.045262575484438801
1.218000000000000860,0.045072684418966856
1.219000000000000750,0.044882581255153521
1.220000000000000862,0.044692274567485042
1.221000000000000973,0.044501772845979171
1.222000000000000863,0.044311084496777717
1.223000000000000753,0.044120217842755272
1.224000000000000865,0.043929181124107659
1.225000000000000977,0.043737982498944797
1.226000000000000867,0.043546630043887306
1.227000000000000757,0.043355131754646614
1.228000000000000869,0.043163495546614167
1.229000000000000981,0.042971729255428616
1.230000000000000870,0.042779840637575998
1.231000000000000760,0.042587837370942704
1.232000000000000872,0.042395727055387897
1.233000000000000984,0.042203517213336574
1.234000000000000874,0.042011215290305472
1.235000000000000764,0.041818828655499359
1.236000000000000876,0.041626364602348156
1.237000000000000988,0.041433830349076287
1.238000000000000878,0.041241233039241897
1.239000000000000767,0.041048579742300674
1.240000000000000879,0.040855877454142139
1.241000000000000991,0.040663133097635154
1.242000000000000881,0.040470353523175052
1.243000000000000771,0.040277545509211872
1.244000000000000883,0.040084715762792197
1.245000000000000995,0.039891870920083526
1.246000000000000885,0.039699017546908612
1.247000000000000774,0.039506162139271050
1.248000000000000886,0.039313311123873852
1.249000000000000998,0.039120470858643855
1.250000000000000888,0.038927647633239720
1.251000000000000778,0.038734847669578021
1.252000000000000890,0.038542077122331771
1.253000000000001002,0.038349342079452044
1.254000000000000892,0.038156648562653842
1.255000000000000782,0.037964002527937607
1.256000000000000894,0.037771409866076716
1.257000000000001005,0.037578876403115268
1.258000000000000895,0.037386407900863637
1.259000000000000785,0.037194010057387608
1.260000000000000897,0.037001688507498333
1.261000000000001009,0.036809448823227765
1.262000000000000899,0.036617296514324951
1.263000000000000789,0.036425237028724002
1.264000000000000901,0.036233275753021918
1.265000000000001013,0.036041418012957391
1.266000000000000902,0.035849669073871611
1.267000000000000792,0.035658034141188698
1.268000000000000904,0.035466518360867519
1.269000000000001016,0.035275126819873902
1.270000000000000906,0.035083864546631351
1.271000000000000796,0.034892736511482628
1.272000000000000908,0.034701747627147450
1.273000000000001020,0.034510902749163762
1.274000000000000909,0.034320206676341079
1.275000000000000799,0.034129664151211728
1.276000000000000911,0.033939279860460095
1.277000000000001023,0.033749058435375276
1.278000000000000913,0.033559004452284678
1.279000000000000803,0.033369122432984767
1.280000000000000915,0.033179416845172748
1.281000000000001027,0.032989892102891175
1.282000000000000917,0.032800552566930451
1.283000000000000806,0.032611402545274344
1.284000000000000918,0.032422446293504270
1.285000000000001030,0.032233688015233769
1.286000000000000920,0.032045131862512462
1.287000000000000810,0.031856781936248545
1.288000000000000922,0.031668642286609414
1.289000000000001034,0.031480716913439233
1.290000000000000924,0.031293009766669780
1.291000000000000814,0.031105524746699909
1.292000000000000925,0.030918265704830868
1.293000000000001037,0.030731236443628553
1.294000000000000927,0.030544440717345977
1.295000000000000817,0.030357882232308640
1.296000000000000929,0.030171564647295986
1.297000000000001041,0.029985491573944995
1.298000000000000931,0.029799666577123095
1.299000000000000821,0.029614093175315149
1.300000000000000933,0.029428774841011342
1.301000000000001044,0.029243715001074817
1.302000000000000934,0.029058917037124411
1.303000000000000824,0.028874384285900029
1.304000000000000936,0.028690120039649603
1.305000000000001048,0.028506127546479056
1.306000000000000938,0.028322410010729677
1.307000000000000828,0.028138970593338614
1.308000000000000940,0.027955812412206005
1.309000000000001052,0.027772938542538567
1.310000000000000941,0.027590352017226018
1.311000000000000831,0.027408055827179235
1.312000000000000943,0.027226052921698201
1.313000000000001055,0.027044346208799974
1.314000000000000945,0.026862938555588502
1.315000000000000835,0.026681832788589894
1.316000000000000947,0.026501031694089482
1.317000000000001059,0.026320538018478605
1.318000000000000949,0.026140354468603466
1.319000000000000838,0.025960483712073702
1.320000000000000950,0.025780928377622747
1.321000000000001062,0.025601691055428692
1.322000000000000952,0.025422774297440231
1.323000000000000842,0.025244180617712459
1.324000000000000954,0.025065912492722730
1.325000000000001066,0.024887972361701795
1.326000000000000956,0.024710362626945755
1.327000000000000846,0.024533085654143871
1.328000000000000957,0.024356143772682214
1.329000000000001069,0.024179539275976575
1.330000000000000959,0.024003274421760985
1.331000000000000849,0.023827351432414868
1.332000000000000961,0.023651772495269913
1.333000000000001073,0.023476539762907832
1.334000000000000963,0.023301655353463825
1.335000000000000853,0.023127121350936648
1.336000000000000965,0.022952939805481416
1.337000000000001076,0.022779112733705580
1.338000000000000966,0.022605642118971956
1.339000000000000856,0.022432529911681480
1.340000000000000968,0.022259778029573685
1.341000000000001080,0.022087388358011068
1.342000000000000970,0.021915362750267585
1.343000000000000860,0.021743703027810701
1.344000000000000972,0.021572410980593183
1.345000000000001084,0.021401488367320996
1.346000000000000973,0.021230936915745048
1.347000000000000863,0.021060758322930223
1.348000000000000975,0.020890954255538437
1.349000000000001087,0.020721526350095002
1.350000000000000977,0.020552476213261721
1.351000000000000867,0.020383805422103541
1.352000000000000979,0.020215515524374120
1.353000000000001091,0.020047608038752010
1.354000000000000981,0.019880084455126880
1.355000000000000870,0.019712946234856900
1.356000000000000982,0.019546194811024042
1.357000000000001094,0.019379831588694097
1.358000000000000984,0.019213857945176504
1.359000000000000874,0.019048275230278001
1.360000000000000986,0.018883084766554578
1.361000000000001098,0.018718287849556092
1.362000000000000988,0.018553885748089475
1.363000000000000878,0.018389879704457341
1.364000000000000989,0.018226270934697274
1.365000000000001101,0.018063060628844274
1.366000000000000991,0.017900249951156237
1.367000000000000881,0.017737840040359335
1.368000000000000993,0.017575832009889710
1.369000000000001105,0.017414226948126471
1.370000000000000995,0.017253025918630392
1.371000000000000885,0.017092229960374562
1.372000000000000997,0.016931840087979065
1.373000000000001108,0.016771857291934329
1.374000000000000998,0.016612282538845374
1.375000000000000888,0.016453116771635939
1.376000000000001000,0.016294360909791309
1.377000000000001112,0.016136015849578092
1.378000000000001002,0.015978082464259007
1.379000000000000892,0.015820561604323484
1.380000000000001004,0.015663454097699203
1.381000000000001116,0.015506760749967475
1.382000000000001005,0.015350482344586710
1.383000000000000895,0.015194619643099894
1.384000000000001007,0.015039173385348737
1.385000000000001119,0.014884144289684736
1.386000000000001009,0.014729533053172211
1.387000000000000899,0.014575340351815968
1.388000000000001011,0.014421566840731547
1.389000000000001123,0.014268213154387335
1.390000000000001013,0.014115279906784578
1.391000000000000902,0.013962767691665479
1.392000000000001014,0.013810677082715495
1.393000000000001126,0.013659008633756613
1.394000000000001016,0.013507762878943333
1.395000000000000906,0.013356940332966976
1.396000000000001018,0.013206541491243470
1.397000000000001130,0.013056566830103922
1.398000000000001020,0.012907016806989130
1.399000000000000909,0.012757891860639341
1.400000000000001021,0.012609192411281967
1.401000000000001133,0.012460918860812865
1.402000000000001023,0.012313071592992580
1.403000000000000913,0.012165650973625772
1.404000000000001025,0.012018657350732527
1.405000000000001137,0.011872091054748554
1.406000000000001027,0.011725952398694769
1.407000000000000917,0.011580241678348173
1.408000000000001029,0.011434959172436804
1.409000000000001140,0.011290105142802107
1.410000000000001030,0.011145679834575645
1.411000000000000920,0.011001683476355290
1.412000000000001032,0.010858116280374450
1.413000000000001144,0.010714978442670792
1.414000000000001034,0.010572270143261040
1.415000000000000924,0.010429991546304682
1.416000000000001036,0.010288142800265906
1.417000000000001148,0.010146724038084667
1.418000000000001037,0.010005735377342692
1.419000000000000927,0.009865176920422011
1.420000000000001039,0.009725048754664956
1.421000000000001151,0.009585350952533604
1.422000000000001041,0.009446083571777255
1.423000000000000931,0.009307246655578879
1.424000000000001043,0.009168840232715766
1.425000000000001155,0.009030864317720471
1.426000000000001044,0.008893318911022002
1.427000000000000934,0.008756203999110776
1.428000000000001046,0.008619519554680894
1.429000000000001158,0.008483265536791528
1.430000000000001048,0.008347441890998744
1.431000000000000938,0.008212048549523510
1.432000000000001050,0.008077085431382847
1.433000000000001162,0.007942552442539228
1.434000000000001052,0.007808449476053983
1.435000000000000941,0.007674776412213977
1.436000000000001053,0.007541533118691707
1.437000000000001165,0.007408719450674370
1.438000000000001055,0.007276335251002811
1.439000000000000945,0.007144380350321047
1.440000000000001057,0.007012854567200600
1.441000000000001169,0.006881757708290287
1.442000000000001059,0.006751089568441793
1.443000000000000949,0.006620849930845009
1.444000000000001060,0.006491038567166608
1.445000000000001172,0.006361655237681459
1.446000000000001062,0.006232699691392195
1.447000000000000952,0.006104171666178321
1.448000000000001064,0.005976070888910330
1.449000000000001176,0.005848397075580845
1.450000000000001066,0.005721149931437248
1.451000000000000956,0.005594329151103737
1.452000000000001068,0.005467934418702478
1.453000000000001180,0.005341965407982405
1.454000000000001069,0.005216421782444034
1.455000000000000959,0.005091303195452107
1.456000000000001071,0.004966609290367112
1.457000000000001183,0.004842339700656245
1.458000000000001073,0.004718494050017116
1.459000000000000963,0.004595071952498143
1.460000000000001075,0.004472073012607188
1.461000000000001187,0.004349496825437210
1.462000000000001076,0.004227342976769144
1.463000000000000966,0.004105611043200410
1.464000000000001078,0.003984300592246174
1.465000000000001190,0.003863411182457943
1.466000000000001080,0.003742942363531559
1.467000000000000970,0.003622893676419874
1.468000000000001082,0.003503264653437649
1.469000000000001194,0.003384054818380532
1.470000000000001084,0.003265263686617341
1.471000000000000973,0.003146890765211018
1.472000000000001085,0.003028935553010010
1.473000000000001197,0.002911397540771135
1.474000000000001087,0.002794276211244990
1.475000000000000977,0.002677571039294319
1.476000000000001089,0.002561281491985984
1.477000000000001201,0.002445407028694023
1.478000000000001091,0.002329947101206202
1.479000000000000981,0.002214901153818834
1.480000000000001092,0.002100268623434058
1.481000000000001204,0.001986048939662796
1.482000000000001094,0.001872241524916829
1.483000000000000984,0.001758845794505915
1.484000000000001096,0.001645861156738689
1.485000000000001208,0.001533287013014075
1.486000000000001098,0.001421122757908452
1.487000000000000988,0.001309367779280095
1.488000000000001100,0.001198021458356585
1.489000000000001211,0.001087083169820606
1.490000000000001101,0.000976552281909529
1.491000000000000991,0.000866428156502543
1.492000000000001103,0.000756710149206114
1.493000000000001215,0.000647397609443493
1.494000000000001105,0.000538489880550700
1.495000000000000995,0.000429986299850457
1.496000000000001107,0.000321886198745609
1.497000000000001219,0.000214188902802035
1.498000000000001108,0.000106893731836917
1.499000000000000998,0.000000000000000000
