# ZnO10m10NB_ASP-AC
# h[nm],U(h)[kJ/mol]
0.149999999999999994,165.757829624462658558
0.150999999999999995,162.476133137660156081
0.151999999999999996,159.602040251513528801
0.152999999999999997,156.820100212690419994
0.153999999999999998,154.016120037115172181
0.154999999999999999,151.172944879400915852
0.156000000000000000,148.312247967014457117
0.157000000000000001,145.464362059084237444
0.158000000000000002,142.654568034192038795
0.159000000000000002,139.898531719854474886
0.160000000000000003,137.202405469823105477
0.161000000000000004,134.564947616885405068
0.162000000000000005,131.980182316024041711
0.163000000000000006,129.439847009876928041
0.164000000000000007,126.935307619835995752
0.165000000000000008,124.458866538234403265
0.166000000000000009,122.004515471664262805
0.167000000000000010,119.568240522435331741
0.168000000000000010,117.148000813463568193
0.169000000000000011,114.743493725692815133
0.170000000000000012,112.355801347006533319
0.171000000000000013,109.986991099475858391
0.172000000000000014,107.639722650055858821
0.173000000000000015,105.316895068832039328
0.174000000000000016,103.021353521041277190
0.175000000000000017,100.755663607789415437
0.176000000000000018,98.521953477756383677
0.177000000000000018,96.321818523900532227
0.178000000000000019,94.156280317547000891
0.179000000000000020,92.025789905566028892
0.180000000000000021,89.930265253943758808
0.181000000000000022,87.869153086949467024
0.182000000000000023,85.841506345146399326
0.183000000000000024,83.846069737422752155
0.184000000000000025,81.881367222528950833
0.185000000000000026,79.945786605252720847
0.186000000000000026,78.037657692728288339
0.187000000000000027,76.155321580164397233
0.188000000000000028,74.297189598620064999
0.189000000000000029,72.461791253405721136
0.190000000000000030,70.647811114912556718
0.191000000000000031,68.854115106356118758
0.192000000000000032,67.079766981619556532
0.193000000000000033,65.324036019704209366
0.194000000000000034,63.586397099271813715
0.195000000000000034,61.866524375699704308
0.196000000000000035,60.164279780870025149
0.197000000000000036,58.479697517638285831
0.198000000000000037,56.812965639635955029
0.199000000000000038,55.164405703777319445
0.200000000000000039,53.534451366638606373
0.201000000000000040,51.923626674023523719
0.202000000000000041,50.332524671185097986
0.203000000000000042,48.761786843589007390
0.204000000000000042,47.212083787823942771
0.205000000000000043,45.684097411343756789
0.206000000000000044,44.178504869384617848
0.207000000000000045,42.695964368222220742
0.208000000000000046,41.237102895983738904
0.209000000000000047,39.802505885195650137
0.210000000000000048,38.392708764543549194
0.211000000000000049,37.008190320168999676
0.212000000000000050,35.649367758332843437
0.213000000000000050,34.316593340491792219
0.214000000000000051,33.010152447785237939
0.215000000000000052,31.730262923671858744
0.216000000000000053,30.477075540078278237
0.217000000000000054,29.250675433076857246
0.218000000000000055,28.051084358020016651
0.219000000000000056,26.878263620524268873
0.220000000000000057,25.732117548088979220
0.221000000000000058,24.612497376921677272
0.222000000000000058,23.519205439237190092
0.223000000000000059,22.451999547522252243
0.224000000000000060,21.410597483665473106
0.225000000000000061,20.394681512181687566
0.226000000000000062,19.403902847789431974
0.227000000000000063,18.437886018163048618
0.228000000000000064,17.496233072651165230
0.229000000000000065,16.578527597037037822
0.230000000000000066,15.684338502960912365
0.231000000000000066,14.813223568389478402
0.232000000000000067,13.964732712498019396
0.233000000000000068,13.138410994527987441
0.234000000000000069,12.333801331619572039
0.235000000000000070,11.550446935324757192
0.236000000000000071,10.787893470521499495
0.237000000000000072,10.045690943816390828
0.238000000000000073,9.323395331292857691
0.239000000000000073,8.620569957684637075
0.240000000000000074,7.936786640777337531
0.241000000000000075,7.271626616122563114
0.242000000000000076,6.624681258032930842
0.243000000000000077,5.995552613362828964
0.244000000000000078,5.383853764815040854
0.245000000000000079,4.789209040488583646
0.246000000000000080,4.211254086140084674
0.247000000000000081,3.649635816203288918
0.248000000000000081,3.104012259036275090
0.249000000000000082,2.574052311170602625
0.250000000000000111,2.059435414549635635
0.251000000000000112,1.559851169888973654
0.252000000000000113,1.074998898389371904
0.253000000000000114,0.604587163105402281
0.254000000000000115,0.148333260329821748
0.255000000000000115,-0.294037309584177120
0.256000000000000116,-0.722791383467646154
0.257000000000000117,-1.138188681055380291
0.258000000000000118,-1.540482348460082473
0.259000000000000119,-1.929919493517034068
0.260000000000000120,-2.306741707909241601
0.261000000000000121,-2.671185571730789743
0.262000000000000122,-3.023483136848009956
0.263000000000000123,-3.363862386068802834
0.264000000000000123,-3.692547665733140860
0.265000000000000124,-4.009760089889020662
0.266000000000000125,-4.315717914721505899
0.267000000000000126,-4.610636882356478949
0.268000000000000127,-4.894730533569532582
0.269000000000000128,-5.168210489292897059
0.270000000000000129,-5.431286701134186323
0.271000000000000130,-5.684167671400859767
0.272000000000000131,-5.927060643365978265
0.273000000000000131,-6.160171762717374655
0.274000000000000132,-6.383706211305288036
0.275000000000000133,-6.597868314446354354
0.276000000000000134,-6.802861623156291060
0.277000000000000135,-6.998888972771782235
0.278000000000000136,-7.186152519488278934
0.279000000000000137,-7.364853756384214023
0.280000000000000138,-7.535193510527617100
0.281000000000000139,-7.697371922770057218
0.282000000000000139,-7.851588411826384117
0.283000000000000140,-7.998041624219832890
0.284000000000000141,-8.136929371641446807
0.285000000000000142,-8.268448557232975560
0.286000000000000143,-8.392795092254143441
0.287000000000000144,-8.510163804540045618
0.288000000000000145,-8.620748340094483098
0.289000000000000146,-8.724741059099503815
0.290000000000000147,-8.822332927553985016
0.291000000000000147,-8.913713405682864632
0.292000000000000148,-8.999070334187157627
0.293000000000000149,-9.078589819331455146
0.294000000000000150,-9.152456117792791446
0.295000000000000151,-9.220851522122307742
0.296000000000000152,-9.283956247599089551
0.297000000000000153,-9.341948321185707726
0.298000000000000154,-9.395003473226191559
0.299000000000000155,-9.443295032460879312
0.300000000000000155,-9.486993824868552139
0.301000000000000156,-9.526268076784468519
0.302000000000000157,-9.561283322684479558
0.303000000000000158,-9.592202317968961722
0.304000000000000159,-9.619184957027838934
0.305000000000000160,-9.642388196817188728
0.306000000000000161,-9.661965986131569650
0.307000000000000162,-9.678069200711775011
0.308000000000000163,-9.690845584286828185
0.309000000000000163,-9.700439695610954871
0.310000000000000164,-9.706992861521268168
0.311000000000000165,-9.710643136009345255
0.312000000000000166,-9.711525265270690710
0.313000000000000167,-9.709770658668901433
0.314000000000000168,-9.705507365527314079
0.315000000000000169,-9.698860057638892584
0.316000000000000170,-9.689950017365976720
0.317000000000000171,-9.678895131183960387
0.318000000000000171,-9.665809888508102077
0.319000000000000172,-9.650805385629681155
0.320000000000000173,-9.633989334576428476
0.321000000000000174,-9.615466076702777087
0.322000000000000175,-9.595336600808044736
0.323000000000000176,-9.573698565574197517
0.324000000000000177,-9.550646326110433293
0.325000000000000178,-9.526270964388219298
0.326000000000000179,-9.500660323348681047
0.327000000000000179,-9.473899044462894992
0.328000000000000180,-9.446068608525783006
0.329000000000000181,-9.417247379465754520
0.330000000000000182,-9.387510650953270641
0.331000000000000183,-9.356930695595107039
0.332000000000000184,-9.325576816503669875
0.333000000000000185,-9.293515401035067569
0.334000000000000186,-9.260809976494087437
0.335000000000000187,-9.227521267609068545
0.336000000000000187,-9.193707255585266580
0.337000000000000188,-9.159423238550736812
0.338000000000000189,-9.124721893215200552
0.339000000000000190,-9.089653337568361025
0.340000000000000191,-9.054265194450522358
0.341000000000000192,-9.018602655835533000
0.342000000000000193,-8.982708547672107358
0.343000000000000194,-8.946623395137088153
0.344000000000000195,-8.910385488160464718
0.345000000000000195,-8.874030947089435628
0.346000000000000196,-8.837593788365138536
0.347000000000000197,-8.801105990092853659
0.348000000000000198,-8.764597557393031479
0.349000000000000199,-8.728096587427208064
0.350000000000000200,-8.691629333999511431
0.351000000000000201,-8.655220271640704510
0.352000000000000202,-8.618892159088119342
0.353000000000000203,-8.582666102081013548
0.354000000000000203,-8.546561615396770506
0.355000000000000204,-8.510596684059084538
0.356000000000000205,-8.474787823655136165
0.357000000000000206,-8.439150139704114650
0.358000000000000207,-8.403697386024443716
0.359000000000000208,-8.368442022052489548
0.360000000000000209,-8.333395269070351219
0.361000000000000210,-8.298567165304602256
0.362000000000000210,-8.263966619862886276
0.363000000000000211,-8.229601465479104760
0.364000000000000212,-8.195478510042295994
0.365000000000000213,-8.161603586887927975
0.366000000000000214,-8.127981603834291136
0.367000000000000215,-8.094616590949891943
0.368000000000000216,-8.061511747041361531
0.369000000000000217,-8.028669484854187743
0.370000000000000218,-7.996091474981851022
0.371000000000000218,-7.963778688481428780
0.372000000000000219,-7.931731438196527151
0.373000000000000220,-7.899949418790822797
0.374000000000000221,-7.868431745497614038
0.375000000000000222,-7.837176991593009845
0.376000000000000223,-7.806183224602480486
0.377000000000000224,-7.775448041251981302
0.378000000000000225,-7.744968601176893230
0.379000000000000226,-7.714741659403253848
0.380000000000000226,-7.684763597617553899
0.381000000000000227,-7.655030454242120364
0.382000000000000228,-7.625537953334903030
0.383000000000000229,-7.596281532333032160
0.384000000000000230,-7.567256368660659760
0.385000000000000231,-7.538457405222624530
0.386000000000000232,-7.509879374805801255
0.387000000000000233,-7.481516823411102912
0.388000000000000234,-7.453364132539275211
0.389000000000000234,-7.425415540454511465
0.390000000000000235,-7.397665162449852616
0.391000000000000236,-7.370107010139141934
0.392000000000000237,-7.342735009800120949
0.393000000000000238,-7.315543019793852686
0.394000000000000239,-7.288524847085406932
0.395000000000000240,-7.261674262891136600
0.396000000000000241,-7.234985017477676195
0.397000000000000242,-7.208450854137835151
0.398000000000000242,-7.182065522368536570
0.399000000000000243,-7.155822790275695233
0.400000000000000244,-7.129716456230835497
0.401000000000000245,-7.103740359804189275
0.402000000000000246,-7.077888391998422790
0.403000000000000247,-7.052154504807248259
0.404000000000000248,-7.026532720122665054
0.405000000000000249,-7.001017138014316465
0.406000000000000250,-6.975601944404070665
0.407000000000000250,-6.950281418158638758
0.408000000000000251,-6.925049937622536511
0.409000000000000252,-6.899901986613448557
0.410000000000000253,-6.874832159901458795
0.411000000000000254,-6.849835168193349588
0.412000000000000255,-6.824905842642560394
0.413000000000000256,-6.800039138905174418
0.414000000000000257,-6.775230140761481223
0.415000000000000258,-6.750474063322654317
0.416000000000000258,-6.725766255841186592
0.417000000000000259,-6.701102204143495555
0.418000000000000260,-6.676477532702604023
0.419000000000000261,-6.651888006368205097
0.420000000000000262,-6.627329531771044557
0.421000000000000263,-6.602798158418171859
0.422000000000000264,-6.578290079494708564
0.423000000000000265,-6.553801632387892262
0.424000000000000266,-6.529329298948300497
0.425000000000000266,-6.504869705502673405
0.426000000000000267,-6.480419622632512144
0.427000000000000268,-6.455975964732012073
0.428000000000000269,-6.431535789358447275
0.429000000000000270,-6.407096296387713608
0.430000000000000271,-6.382654826987270269
0.431000000000000272,-6.358208862418313956
0.432000000000000273,-6.333756022678488584
0.433000000000000274,-6.309294064996209705
0.434000000000000274,-6.284820882187029945
0.435000000000000275,-6.260334500882250630
0.436000000000000276,-6.235833079639533594
0.437000000000000277,-6.211314906944792824
0.438000000000000278,-6.186778399114395199
0.439000000000000279,-6.162222098106305168
0.440000000000000280,-6.137644669248309981
0.441000000000000281,-6.113044898891267565
0.442000000000000282,-6.088421691995000273
0.443000000000000282,-6.063774069653822707
0.444000000000000283,-6.039101166568840107
0.445000000000000284,-6.014402228473383794
0.446000000000000285,-5.989676609517872841
0.447000000000000286,-5.964923769620197547
0.448000000000000287,-5.940143271787035495
0.449000000000000288,-5.915334779411713484
0.450000000000000289,-5.890498053553570479
0.451000000000000290,-5.865632950203711005
0.452000000000000290,-5.840739417541774614
0.453000000000000291,-5.815817493187958931
0.454000000000000292,-5.790867301454500904
0.455000000000000293,-5.765889050600392807
0.456000000000000294,-5.740883030093015371
0.457000000000000295,-5.715849607880146621
0.458000000000000296,-5.690789227675461248
0.459000000000000297,-5.665702406260676227
0.460000000000000298,-5.640589730807033852
0.461000000000000298,-5.615451856218848903
0.462000000000000299,-5.590289502501586405
0.463000000000000300,-5.565103452156655806
0.464000000000000301,-5.539894547605173969
0.465000000000000302,-5.514663688642598594
0.466000000000000303,-5.489411829926056363
0.467000000000000304,-5.464139978496011629
0.468000000000000305,-5.438849191333868127
0.469000000000000306,-5.413540572956825336
0.470000000000000306,-5.388215273051374155
0.471000000000000307,-5.362874484146379572
0.472000000000000308,-5.337519439327049753
0.473000000000000309,-5.312151409990466533
0.474000000000000310,-5.286771703643657006
0.475000000000000311,-5.261381661744826133
0.476000000000000312,-5.235982657588452938
0.477000000000000313,-5.210576094234701472
0.478000000000000314,-5.185163402483592421
0.479000000000000314,-5.159746038894411413
0.480000000000000315,-5.134325483850426863
0.481000000000000316,-5.108903239669368546
0.482000000000000317,-5.083480828759569192
0.483000000000000318,-5.058059791822029361
0.484000000000000319,-5.032641686098289213
0.485000000000000320,-5.007228083664133855
0.486000000000000321,-4.981820569768986573
0.487000000000000322,-4.956420741220870063
0.488000000000000322,-4.931030204816623019
0.489000000000000323,-4.905650575817313452
0.490000000000000324,-4.880283476468365578
0.491000000000000325,-4.854930534564178224
0.492000000000000326,-4.829593382056783568
0.493000000000000327,-4.804273653708234448
0.494000000000000328,-4.778972985786182015
0.495000000000000329,-4.753693014802253813
0.496000000000000330,-4.728435376292662085
0.497000000000000330,-4.703201703640615960
0.498000000000000331,-4.677993626939844773
0.499000000000000332,-4.652812771898854116
0.500000000000000333,-4.627660758785164141
0.501000000000000334,-4.602539201408996306
0.502000000000000335,-4.577449706145787722
0.503000000000000336,-4.552393870996903402
0.504000000000000337,-4.527373284687876698
0.505000000000000338,-4.502389525803513592
0.506000000000000338,-4.477444161959243552
0.507000000000000339,-4.452538749007982410
0.508000000000000340,-4.427674830281824292
0.509000000000000341,-4.402853935867975466
0.510000000000000342,-4.378077581918060623
0.511000000000000343,-4.353347269990280211
0.512000000000000344,-4.328664486423575042
0.513000000000000345,-4.304030701743188025
0.514000000000000346,-4.279447370096921333
0.515000000000000346,-4.254915928721310969
0.516000000000000347,-4.230437797437065939
0.517000000000000348,-4.206014378173142276
0.518000000000000349,-4.181647054518575324
0.519000000000000350,-4.157337191301587076
0.520000000000000351,-4.133086134195113281
0.521000000000000352,-4.108895209348174760
0.522000000000000353,-4.084765723042344199
0.523000000000000353,-4.060698961372649407
0.524000000000000354,-4.036696189952310831
0.525000000000000355,-4.012758653640532636
0.526000000000000356,-3.988887576292781123
0.527000000000000357,-3.965084160532909685
0.528000000000000358,-3.941349587546401523
0.529000000000000359,-3.917685016894216776
0.530000000000000360,-3.894091586346505096
0.531000000000000361,-3.870570411735681837
0.532000000000000361,-3.847122586828157775
0.533000000000000362,-3.823749183214201430
0.534000000000000363,-3.800451250215309607
0.535000000000000364,-3.777229814808517716
0.536000000000000365,-3.754085881567070793
0.537000000000000366,-3.731020432616944937
0.538000000000000367,-3.708034427608541961
0.539000000000000368,-3.685128803703237477
0.540000000000000369,-3.662304475573979090
0.541000000000000369,-3.639562335419694872
0.542000000000000370,-3.616903252992760720
0.543000000000000371,-3.594328075639181552
0.544000000000000372,-3.571837628350954308
0.545000000000000373,-3.549432713830118047
0.546000000000000374,-3.527114112564029291
0.547000000000000375,-3.504882582911398536
0.548000000000000376,-3.482738861198693137
0.549000000000000377,-3.460683661826383428
0.550000000000000377,-3.438717677384657723
0.551000000000000378,-3.416841578778167410
0.552000000000000379,-3.395056015359423807
0.553000000000000380,-3.373361615070409325
0.554000000000000381,-3.351758984592007273
0.555000000000000382,-3.330248709500970961
0.556000000000000383,-3.308831354433867666
0.557000000000000384,-3.287507463257879348
0.558000000000000385,-3.266277559247893869
0.559000000000000385,-3.245142145269674039
0.560000000000000386,-3.224101703968738519
0.561000000000000387,-3.203156697964611332
0.562000000000000388,-3.182307570050143308
0.563000000000000389,-3.161554743395613265
0.564000000000000390,-3.140898621757273634
0.565000000000000391,-3.120339589690089621
0.566000000000000392,-3.099878012764366808
0.567000000000000393,-3.079514237786026509
0.568000000000000393,-3.059248593020213569
0.569000000000000394,-3.039081388418021668
0.570000000000000395,-3.019012915846109202
0.571000000000000396,-2.999043449318866461
0.572000000000000397,-2.979173245233054157
0.573000000000000398,-2.959402542604524733
0.574000000000000399,-2.939731563306959838
0.575000000000000400,-2.920160512312270917
0.576000000000000401,-2.900689577932574537
0.577000000000000401,-2.881318932063514193
0.578000000000000402,-2.862048730428678134
0.579000000000000403,-2.842879112824998611
0.580000000000000404,-2.823810203368965155
0.581000000000000405,-2.804842110743402284
0.582000000000000406,-2.785974928444734378
0.583000000000000407,-2.767208735030513900
0.584000000000000408,-2.748543594367110821
0.585000000000000409,-2.729979555877385167
0.586000000000000409,-2.711516654788193481
0.587000000000000410,-2.693154912377659471
0.588000000000000411,-2.674894336221965041
0.589000000000000412,-2.656734920441675918
0.590000000000000413,-2.638676645947342969
0.591000000000000414,-2.620719480684365443
0.592000000000000415,-2.602863379876994454
0.593000000000000416,-2.585108286271290190
0.594000000000000417,-2.567454130377023080
0.595000000000000417,-2.549900830708449195
0.596000000000000418,-2.532448294023676993
0.597000000000000419,-2.515096415562828813
0.598000000000000420,-2.497845079284629399
0.599000000000000421,-2.480694158101564462
0.600000000000000422,-2.463643514113377897
0.601000000000000423,-2.446692998838939204
0.602000000000000424,-2.429842453446355854
0.603000000000000425,-2.413091708981306205
0.604000000000000425,-2.396440586593480582
0.605000000000000426,-2.379888897761123889
0.606000000000000427,-2.363436444513649537
0.607000000000000428,-2.347083019652115077
0.608000000000000429,-2.330828406967793587
0.609000000000000430,-2.314672381458465100
0.610000000000000431,-2.298614709542697199
0.611000000000000432,-2.282655149271846540
0.612000000000000433,-2.266793450539842603
0.613000000000000433,-2.251029355290760758
0.614000000000000434,-2.235362597724056322
0.615000000000000435,-2.219792904497481345
0.616000000000000436,-2.204319994927662840
0.617000000000000437,-2.188943581188351750
0.618000000000000438,-2.173663368506229432
0.619000000000000439,-2.158479055354306730
0.620000000000000440,-2.143390333642939627
0.621000000000000441,-2.128396888908373086
0.622000000000000441,-2.113498400498847296
0.623000000000000442,-2.098694541758215681
0.624000000000000443,-2.083984980207110205
0.625000000000000444,-2.069369377721640646
0.626000000000000445,-2.054847390709555466
0.627000000000000446,-2.040418670283968616
0.628000000000000447,-2.026082862434561704
0.629000000000000448,-2.011839608196293483
0.630000000000000449,-1.997688543815622442
0.631000000000000449,-1.983629300914220739
0.632000000000000450,-1.969661506650219662
0.633000000000000451,-1.955784783876964639
0.634000000000000452,-1.941998751299263359
0.635000000000000453,-1.928303023627199408
0.636000000000000454,-1.914697211727435455
0.637000000000000455,-1.901180922772113480
0.638000000000000456,-1.887753760385240565
0.639000000000000457,-1.874415324786689485
0.640000000000000457,-1.861165212933764135
0.641000000000000458,-1.848003018660305585
0.642000000000000459,-1.834928332813483109
0.643000000000000460,-1.821940743388102080
0.644000000000000461,-1.809039835658618589
0.645000000000000462,-1.796225192308759544
0.646000000000000463,-1.783496393558796411
0.647000000000000464,-1.770853017290519249
0.648000000000000465,-1.758294639169899254
0.649000000000000465,-1.745820832767446262
0.650000000000000466,-1.733431169676324490
0.651000000000000467,-1.721125219628190095
0.652000000000000468,-1.708902550606826498
0.653000000000000469,-1.696762728959526401
0.654000000000000470,-1.684705319506344834
0.655000000000000471,-1.672729885647129322
0.656000000000000472,-1.660835989466429741
0.657000000000000473,-1.649023191836257896
0.658000000000000473,-1.637291052516775425
0.659000000000000474,-1.625639130254870723
0.660000000000000475,-1.614066982880694834
0.661000000000000476,-1.602574167402128991
0.662000000000000477,-1.591160240097280854
0.663000000000000478,-1.579824756604939928
0.664000000000000479,-1.568567272013128067
0.665000000000000480,-1.557387340945604270
0.666000000000000481,-1.546284517646577816
0.667000000000000481,-1.535258356063384344
0.668000000000000482,-1.524308409927412233
0.669000000000000483,-1.513434232833081872
0.670000000000000484,-1.502635378315054338
0.671000000000000485,-1.491911399923611992
0.672000000000000486,-1.481261851298254939
0.673000000000000487,-1.470686286239581531
0.674000000000000488,-1.460184258779378297
0.675000000000000488,-1.449755323249025007
0.676000000000000489,-1.439399034346266593
0.677000000000000490,-1.429114947200226027
0.678000000000000491,-1.418902617434869340
0.679000000000000492,-1.408761601230817284
0.680000000000000493,-1.398691455385559834
0.681000000000000494,-1.388691737372143908
0.682000000000000495,-1.378762005396270585
0.683000000000000496,-1.368901818451921937
0.684000000000000496,-1.359110736375459538
0.685000000000000497,-1.349388319898264132
0.686000000000000498,-1.339734130697933345
0.687000000000000499,-1.330147731448042325
0.688000000000000500,-1.320628685866497953
0.689000000000000501,-1.311176558762537692
0.690000000000000502,-1.301790916082351091
0.691000000000000503,-1.292471324953372136
0.692000000000000504,-1.283217353727247767
0.693000000000000504,-1.274028572021562500
0.694000000000000505,-1.264904550760207469
0.695000000000000506,-1.255844862212611712
0.696000000000000507,-1.246849080031659840
0.697000000000000508,-1.237916779290442859
0.698000000000000509,-1.229047536517845263
0.699000000000000510,-1.220240929732923529
0.700000000000000511,-1.211496538478191720
0.701000000000000512,-1.202813943851760214
0.702000000000000512,-1.194192728538380877
0.703000000000000513,-1.185632476839418858
0.704000000000000514,-1.177132774701763251
0.705000000000000515,-1.168693209745696793
0.706000000000000516,-1.160313371291746831
0.707000000000000517,-1.151992850386547973
0.708000000000000518,-1.143731239827686652
0.709000000000000519,-1.135528134187653748
0.710000000000000520,-1.127383129836770692
0.711000000000000520,-1.119295824965262698
0.712000000000000521,-1.111265819604383420
0.713000000000000522,-1.103292715646657651
0.714000000000000523,-1.095376116865287575
0.715000000000000524,-1.087515628932641754
0.716000000000000525,-1.079710859437986725
0.717000000000000526,-1.071961417904345293
0.718000000000000527,-1.064266915804563896
0.719000000000000528,-1.056626966576609261
0.720000000000000528,-1.049041185638117879
0.721000000000000529,-1.041509190400118801
0.722000000000000530,-1.034030600280119616
0.723000000000000531,-1.026605036714397734
0.724000000000000532,-1.019232123169623971
0.725000000000000533,-1.011911485153807133
0.726000000000000534,-1.004642750226522052
0.727000000000000535,-0.997425548008533225
0.728000000000000536,-0.990259510190731773
0.729000000000000536,-0.983144270542473442
0.730000000000000537,-0.976079464919298090
0.731000000000000538,-0.969064731270027346
0.732000000000000539,-0.962099709643308598
0.733000000000000540,-0.955184042193566230
0.734000000000000541,-0.948317373186403523
0.735000000000000542,-0.941499349003437458
0.736000000000000543,-0.934729618146652563
0.737000000000000544,-0.928007831242164904
0.738000000000000544,-0.921333641043554530
0.739000000000000545,-0.914706702434634922
0.740000000000000546,-0.908126672431792792
0.741000000000000547,-0.901593210185807847
0.742000000000000548,-0.895105976983301965
0.743000000000000549,-0.888664636247622708
0.744000000000000550,-0.882268853539379116
0.745000000000000551,-0.875918296556533749
0.746000000000000552,-0.869612635134066614
0.747000000000000552,-0.863351541243258858
0.748000000000000553,-0.857134688990564997
0.749000000000000554,-0.850961754616109900
0.750000000000000555,-0.844832416491841487
0.751000000000000556,-0.838746355119271869
0.752000000000000557,-0.832703253126940046
0.753000000000000558,-0.826702795267441282
0.754000000000000559,-0.820744668414227108
0.755000000000000560,-0.814828561558003317
0.756000000000000560,-0.808954165802876601
0.757000000000000561,-0.803121174362143697
0.758000000000000562,-0.797329282553821073
0.759000000000000563,-0.791578187795891730
0.760000000000000564,-0.785867589601259131
0.761000000000000565,-0.780197189572440220
0.762000000000000566,-0.774566691396001872
0.763000000000000567,-0.768975800836740220
0.764000000000000568,-0.763424225731608730
0.765000000000000568,-0.757911675983444666
0.766000000000000569,-0.752437863554419217
0.767000000000000570,-0.747002502459314655
0.768000000000000571,-0.741605308758529591
0.769000000000000572,-0.736246000550951352
0.770000000000000573,-0.730924297966565217
0.771000000000000574,-0.725639923158911904
0.772000000000000575,-0.720392600297338315
0.773000000000000576,-0.715182055559075991
0.774000000000000576,-0.710008017121145363
0.775000000000000577,-0.704870215152112678
0.776000000000000578,-0.699768381803641759
0.777000000000000579,-0.694702251201958054
0.778000000000000580,-0.689671559439096415
0.779000000000000581,-0.684676044564059061
0.780000000000000582,-0.679715446573805004
0.781000000000000583,-0.674789507404137567
0.782000000000000584,-0.669897970920440677
0.783000000000000584,-0.665040582908300593
0.784000000000000585,-0.660217091064041695
0.785000000000000586,-0.655427244985101520
0.786000000000000587,-0.650670796160353393
0.787000000000000588,-0.645947497960303929
0.788000000000000589,-0.641257105627176305
0.789000000000000590,-0.636599376264962435
0.790000000000000591,-0.631974068829325608
0.791000000000000592,-0.627380944117464034
0.792000000000000592,-0.622819764757882810
0.793000000000000593,-0.618290295200089601
0.794000000000000594,-0.613792301704232379
0.795000000000000595,-0.609325552330682418
0.796000000000000596,-0.604889816929510049
0.797000000000000597,-0.600484867129974398
0.798000000000000598,-0.596110476329904104
0.799000000000000599,-0.591766419685051281
0.800000000000000600,-0.587452474098411725
0.801000000000000600,-0.583168418209475070
0.802000000000000601,-0.578914032383460841
0.803000000000000602,-0.574689098700505108
0.804000000000000603,-0.570493400944833584
0.805000000000000604,-0.566326724593893993
0.806000000000000605,-0.562188856807437798
0.807000000000000606,-0.558079586416646345
0.808000000000000607,-0.553998703913165635
0.809000000000000608,-0.549946001438161636
0.810000000000000608,-0.545921272771383803
0.811000000000000609,-0.541924313320139350
0.812000000000000610,-0.537954920108363321
0.813000000000000611,-0.534012891765587194
0.814000000000000612,-0.530098028515965103
0.815000000000000613,-0.526210132167293843
0.816000000000000614,-0.522349006099990243
0.817000000000000615,-0.518514455256120832
0.818000000000000616,-0.514706286128424617
0.819000000000000616,-0.510924306749329871
0.820000000000000617,-0.507168326679985015
0.821000000000000618,-0.503438156999313713
0.822000000000000619,-0.499733610293089547
0.823000000000000620,-0.496054500642996554
0.824000000000000621,-0.492400643615726274
0.825000000000000622,-0.488771856252106396
0.826000000000000623,-0.485167957056234056
0.827000000000000624,-0.481588765984633682
0.828000000000000624,-0.478034104435452356
0.829000000000000625,-0.474503795237656401
0.830000000000000626,-0.470997662640288528
0.831000000000000627,-0.467515532301729653
0.832000000000000628,-0.464057231279012328
0.833000000000000629,-0.460622588017136958
0.834000000000000630,-0.457211432338450408
0.835000000000000631,-0.453823595432050531
0.836000000000000631,-0.450458909843216904
0.837000000000000632,-0.447117209462903287
0.838000000000000633,-0.443798329517229473
0.839000000000000634,-0.440502106557055018
0.840000000000000635,-0.437228378447577448
0.841000000000000636,-0.433976984357947349
0.842000000000000637,-0.430747764750984252
0.843000000000000638,-0.427540561372870331
0.844000000000000639,-0.424355217242940175
0.845000000000000639,-0.421191576643489718
0.846000000000000640,-0.418049485109630248
0.847000000000000641,-0.414928789419224509
0.848000000000000642,-0.411829337582816257
0.849000000000000643,-0.408750978833645973
0.850000000000000644,-0.405693563617732678
0.851000000000000645,-0.402656943583937721
0.852000000000000646,-0.399640971574163673
0.853000000000000647,-0.396645501613545726
0.854000000000000647,-0.393670388900711987
0.855000000000000648,-0.390715489798107829
0.856000000000000649,-0.387780661822367811
0.857000000000000650,-0.384865763634736679
0.858000000000000651,-0.381970655031536432
0.859000000000000652,-0.379095196934715162
0.860000000000000653,-0.376239251382433415
0.861000000000000654,-0.373402681519694579
0.862000000000000655,-0.370585351589070189
0.863000000000000655,-0.367787126921429119
0.864000000000000656,-0.365007873926779469
0.865000000000000657,-0.362247460085115436
0.866000000000000658,-0.359505753937361505
0.867000000000000659,-0.356782625076364102
0.868000000000000660,-0.354077944137921541
0.869000000000000661,-0.351391582791892976
0.870000000000000662,-0.348723413733361964
0.871000000000000663,-0.346073310673868595
0.872000000000000663,-0.343441148332668311
0.873000000000000664,-0.340826802428084386
0.874000000000000665,-0.338230149668900026
0.875000000000000666,-0.335651067745826537
0.876000000000000667,-0.333089435323003946
0.877000000000000668,-0.330545132029589406
0.878000000000000669,-0.328018038451396543
0.879000000000000670,-0.325508036122572453
0.880000000000000671,-0.323015007517382102
0.881000000000000671,-0.320538836041991126
0.882000000000000672,-0.318079406026370137
0.883000000000000673,-0.315636602716211523
0.884000000000000674,-0.313210312264935786
0.885000000000000675,-0.310800421725733078
0.886000000000000676,-0.308406819043692493
0.887000000000000677,-0.306029393047967779
0.888000000000000678,-0.303668033444004171
0.889000000000000679,-0.301322630805846869
0.890000000000000679,-0.298993076568480620
0.891000000000000680,-0.296679263020251605
0.892000000000000681,-0.294381083295332302
0.893000000000000682,-0.292098431366253242
0.894000000000000683,-0.289831202036486879
0.895000000000000684,-0.287579290933107967
0.896000000000000685,-0.285342594499490954
0.897000000000000686,-0.283121009988070493
0.898000000000000687,-0.280914435453187283
0.899000000000000687,-0.278722769743942278
0.900000000000000688,-0.276545912497152491
0.901000000000000689,-0.274383764130344876
0.902000000000000690,-0.272236225834814272
0.903000000000000691,-0.270103199568735797
0.904000000000000692,-0.267984588050328598
0.905000000000000693,-0.265880294751090707
0.906000000000000694,-0.263790223889084852
0.907000000000000695,-0.261714280422262302
0.908000000000000695,-0.259652370041884573
0.909000000000000696,-0.257604399165952624
0.910000000000000697,-0.255570274932734542
0.911000000000000698,-0.253549905194315306
0.912000000000000699,-0.251543198510221500
0.913000000000000700,-0.249550064141109390
0.914000000000000701,-0.247570412042462273
0.915000000000000702,-0.245604152858409558
0.916000000000000703,-0.243651197915541406
0.917000000000000703,-0.241711459216813168
0.918000000000000704,-0.239784849435484754
0.919000000000000705,-0.237871281909118604
0.920000000000000706,-0.235970670633642493
0.921000000000000707,-0.234082930257441729
0.922000000000000708,-0.232207976075516326
0.923000000000000709,-0.230345724023713394
0.924000000000000710,-0.228496090672954372
0.925000000000000711,-0.226658993223576438
0.926000000000000711,-0.224834349499679981
0.927000000000000712,-0.223022077943553304
0.928000000000000713,-0.221222097610130508
0.929000000000000714,-0.219434328161523029
0.930000000000000715,-0.217658689861564669
0.931000000000000716,-0.215895103570440450
0.932000000000000717,-0.214143490739355347
0.933000000000000718,-0.212403773405235391
0.934000000000000719,-0.210675874185501044
0.935000000000000719,-0.208959716272881069
0.936000000000000720,-0.207255223430257984
0.937000000000000721,-0.205562319985586772
0.938000000000000722,-0.203880930826850992
0.939000000000000723,-0.202210981397053041
0.940000000000000724,-0.200552397689272077
0.941000000000000725,-0.198905106241752255
0.942000000000000726,-0.197269034133053356
0.943000000000000727,-0.195644108977219511
0.944000000000000727,-0.194030258919028253
0.945000000000000728,-0.192427412629264272
0.946000000000000729,-0.190835499300025579
0.947000000000000730,-0.189254448640111317
0.948000000000000731,-0.187684190870410189
0.949000000000000732,-0.186124656719373116
0.950000000000000733,-0.184575777418488768
0.951000000000000734,-0.183037484697851360
0.952000000000000735,-0.181509710781718597
0.953000000000000735,-0.179992388384139945
0.954000000000000736,-0.178485450704634924
0.955000000000000737,-0.176988831423889798
0.956000000000000738,-0.175502464699515331
0.957000000000000739,-0.174026285161831440
0.958000000000000740,-0.172560227909702602
0.959000000000000741,-0.171104228506401668
0.960000000000000742,-0.169658222975536649
0.961000000000000743,-0.168222147796987492
0.962000000000000743,-0.166795939902897705
0.963000000000000744,-0.165379536673709054
0.964000000000000745,-0.163972875934233348
0.965000000000000746,-0.162575895949748639
0.966000000000000747,-0.161188535422149698
0.967000000000000748,-0.159810733486123846
0.968000000000000749,-0.158442429705385690
0.969000000000000750,-0.157083564068910830
0.970000000000000751,-0.155734076987255138
0.971000000000000751,-0.154393909288861569
0.972000000000000752,-0.153063002216426935
0.973000000000000753,-0.151741297423329674
0.974000000000000754,-0.150428736970033256
0.975000000000000755,-0.149125263320576157
0.976000000000000756,-0.147830819339078545
0.977000000000000757,-0.146545348286275662
0.978000000000000758,-0.145268793816090924
0.979000000000000759,-0.144001099972267066
0.980000000000000759,-0.142742211184976625
0.981000000000000760,-0.141492072267517921
0.982000000000000761,-0.140250628413026934
0.983000000000000762,-0.139017825191205729
0.984000000000000763,-0.137793608545097701
0.985000000000000764,-0.136577924787907479
0.986000000000000765,-0.135370720599823247
0.987000000000000766,-0.134171943024888468
0.988000000000000766,-0.132981539467904031
0.989000000000000767,-0.131799457691365363
0.990000000000000768,-0.130625645812418034
0.991000000000000769,-0.129460052299841977
0.992000000000000770,-0.128302625971081607
0.993000000000000771,-0.127153315989305876
0.994000000000000772,-0.126012071860464314
0.995000000000000773,-0.124878843430425907
0.996000000000000774,-0.123753580882093567
0.997000000000000774,-0.122636234732585961
0.998000000000000775,-0.121526755830427019
0.999000000000000776,-0.120425095352772280
1.000000000000000666,-0.119331204802654398
1.001000000000000778,-0.118245036006272342
1.002000000000000668,-0.117166541110287126
1.003000000000000780,-0.116095672579157205
1.004000000000000670,-0.115032383192500351
1.005000000000000782,-0.113976626042479129
1.006000000000000671,-0.112928354531214706
1.007000000000000783,-0.111887522368216502
1.008000000000000673,-0.110854083567854228
1.009000000000000785,-0.109827992446843867
1.010000000000000675,-0.108809203621761469
1.011000000000000787,-0.107797672006575890
1.012000000000000677,-0.106793352810225645
1.013000000000000789,-0.105796201534199413
1.014000000000000679,-0.104806173970136321
1.015000000000000790,-0.103823226197481633
1.016000000000000680,-0.102847314581139354
1.017000000000000792,-0.101878395769143704
1.018000000000000682,-0.100916426690378896
1.019000000000000794,-0.099961364552298954
1.020000000000000684,-0.099013166838687744
1.021000000000000796,-0.098071791307423620
1.022000000000000686,-0.097137195988279079
1.023000000000000798,-0.096209339180741954
1.024000000000000687,-0.095288179451846061
1.025000000000000799,-0.094373675634043072
1.026000000000000689,-0.093465786823079780
1.027000000000000801,-0.092564472375899154
1.028000000000000691,-0.091669691908571688
1.029000000000000803,-0.090781405294234216
1.030000000000000693,-0.089899572661054486
1.031000000000000805,-0.089024154390226401
1.032000000000000695,-0.088155111113962209
1.033000000000000806,-0.087292403713529268
1.034000000000000696,-0.086435993317292903
1.035000000000000808,-0.085585841298771587
1.036000000000000698,-0.084741909274727009
1.037000000000000810,-0.083904159103281195
1.038000000000000700,-0.083072552882008335
1.039000000000000812,-0.082247052946093940
1.040000000000000702,-0.081427621866493230
1.041000000000000814,-0.080614222448104372
1.042000000000000703,-0.079806817727953311
1.043000000000000815,-0.079005370973420766
1.044000000000000705,-0.078209845680470153
1.045000000000000817,-0.077420205571879036
1.046000000000000707,-0.076636414595523478
1.047000000000000819,-0.075858436922653122
1.048000000000000709,-0.075086236946179122
1.049000000000000821,-0.074319779279005058
1.050000000000000711,-0.073559028752342964
1.051000000000000822,-0.072803950414077695
1.052000000000000712,-0.072054509527117519
1.053000000000000824,-0.071310671567776859
1.054000000000000714,-0.070572402224177447
1.055000000000000826,-0.069839667394654720
1.056000000000000716,-0.069112433186187205
1.057000000000000828,-0.068390665912835949
1.058000000000000718,-0.067674332094203329
1.059000000000000830,-0.066963398453903838
1.060000000000000719,-0.066257831918057605
1.061000000000000831,-0.065557599613779757
1.062000000000000721,-0.064862668867705364
1.063000000000000833,-0.064173007204525595
1.064000000000000723,-0.063488582345513189
1.065000000000000835,-0.062809362207097624
1.066000000000000725,-0.062135314899440949
1.067000000000000837,-0.061466408724997222
1.068000000000000727,-0.060802612177151029
1.069000000000000838,-0.060143893938792672
1.070000000000000728,-0.059490222880973165
1.071000000000000840,-0.058841568061526475
1.072000000000000730,-0.058197898723733731
1.073000000000000842,-0.057559184294982212
1.074000000000000732,-0.056925394385437401
1.075000000000000844,-0.056296498786746717
1.076000000000000734,-0.055672467470737300
1.077000000000000846,-0.055053270588122406
1.078000000000000735,-0.054438878467245530
1.079000000000000847,-0.053829261612800883
1.080000000000000737,-0.053224390704607397
1.081000000000000849,-0.052624236596346921
1.082000000000000739,-0.052028770314355786
1.083000000000000851,-0.051437963056404412
1.084000000000000741,-0.050851786190501215
1.085000000000000853,-0.050270211253689377
1.086000000000000743,-0.049693209950876380
1.087000000000000854,-0.049120754153663286
1.088000000000000744,-0.048552815899190187
1.089000000000000856,-0.047989367388971825
1.090000000000000746,-0.047430380987779505
1.091000000000000858,-0.046875829222512308
1.092000000000000748,-0.046325684781066648
1.093000000000000860,-0.045779920511251966
1.094000000000000750,-0.045238509419670989
1.095000000000000862,-0.044701424670656069
1.096000000000000751,-0.044168639585184848
1.097000000000000863,-0.043640127639804835
1.098000000000000753,-0.043115862465595213
1.099000000000000865,-0.042595817847114234
1.100000000000000755,-0.042079967721349816
1.101000000000000867,-0.041568286176708893
1.102000000000000757,-0.041060747451992681
1.103000000000000869,-0.040557325935389313
1.104000000000000759,-0.040057996163465115
1.105000000000000870,-0.039562732820190558
1.106000000000000760,-0.039071510735937350
1.107000000000000872,-0.038584304886525186
1.108000000000000762,-0.038101090392248876
1.109000000000000874,-0.037621842516918511
1.110000000000000764,-0.037146536666919777
1.111000000000000876,-0.036675148390264346
1.112000000000000766,-0.036207653375671653
1.113000000000000878,-0.035744027451639890
1.114000000000000767,-0.035284246585534557
1.115000000000000879,-0.034828286882676536
1.116000000000000769,-0.034376124585450848
1.117000000000000881,-0.033927736072410661
1.118000000000000771,-0.033483097857398850
1.119000000000000883,-0.033042186588671002
1.120000000000000773,-0.032604979048034811
1.121000000000000885,-0.032171452149975209
1.122000000000000774,-0.031741582940815402
1.123000000000000886,-0.031315348597866687
1.124000000000000776,-0.030892726428598517
1.125000000000000888,-0.030473693869791409
1.126000000000000778,-0.030058228486726245
1.127000000000000890,-0.029646307972376960
1.128000000000000780,-0.029237910146572788
1.129000000000000892,-0.028833012955225834
1.130000000000000782,-0.028431594469519584
1.131000000000000894,-0.028033632885120917
1.132000000000000783,-0.027639106521400357
1.133000000000000895,-0.027247993820665683
1.134000000000000785,-0.026860273347366737
1.135000000000000897,-0.026475923787370431
1.136000000000000787,-0.026094923947167774
1.137000000000000899,-0.025717252753151003
1.138000000000000789,-0.025342889250848256
1.139000000000000901,-0.024971812604213856
1.140000000000000790,-0.024604002094872096
1.141000000000000902,-0.024239437121392361
1.142000000000000792,-0.023878097198589885
1.143000000000000904,-0.023519961956796377
1.144000000000000794,-0.023165011141161495
1.145000000000000906,-0.022813224610932097
1.146000000000000796,-0.022464582338787970
1.147000000000000908,-0.022119064410123263
1.148000000000000798,-0.021776651022376518
1.149000000000000909,-0.021437322484348396
1.150000000000000799,-0.021101059215520118
1.151000000000000689,-0.020767841745399317
1.152000000000000801,-0.020437650712848268
1.153000000000000913,-0.020110466865427137
1.154000000000000803,-0.019786271058742578
1.155000000000000693,-0.019465044255795955
1.156000000000000805,-0.019146767526358043
1.157000000000000917,-0.018831422046303239
1.158000000000000806,-0.018518989097006618
1.159000000000000696,-0.018209450064699213
1.160000000000000808,-0.017902786439851125
1.161000000000000920,-0.017598979816552639
1.162000000000000810,-0.017298011891910926
1.163000000000000700,-0.016999864465425486
1.164000000000000812,-0.016704519438403936
1.165000000000000924,-0.016411958813345215
1.166000000000000814,-0.016122164693363774
1.167000000000000703,-0.015835119281585302
1.168000000000000815,-0.015550804880577048
1.169000000000000927,-0.015269203891750734
1.170000000000000817,-0.014990298814805408
1.171000000000000707,-0.014714072247135473
1.172000000000000819,-0.014440506883286569
1.173000000000000931,-0.014169585514376210
1.174000000000000821,-0.013901291027536566
1.175000000000000711,-0.013635606405370126
1.176000000000000822,-0.013372514725393215
1.177000000000000934,-0.013111999159487547
1.178000000000000824,-0.012854042973364652
1.179000000000000714,-0.012598629526019450
1.180000000000000826,-0.012345742269209819
1.181000000000000938,-0.012095364746910838
1.182000000000000828,-0.011847480594798687
1.183000000000000718,-0.011602073539730268
1.184000000000000830,-0.011359127399218077
1.185000000000000941,-0.011118626080912039
1.186000000000000831,-0.010880553582106748
1.187000000000000721,-0.010644893989211692
1.188000000000000833,-0.010411631477265364
1.189000000000000945,-0.010180750309425593
1.190000000000000835,-0.009952234836481954
1.191000000000000725,-0.009726069496342745
1.192000000000000837,-0.009502238813583353
1.193000000000000949,-0.009280727398915127
1.194000000000000838,-0.009061519948741940
1.195000000000000728,-0.008844601244655446
1.196000000000000840,-0.008629956152971165
1.197000000000000952,-0.008417569624262504
1.198000000000000842,-0.008207426692870900
1.199000000000000732,-0.007999512476470027
1.200000000000000844,-0.007793812175566968
1.201000000000000956,-0.007590311073080539
1.202000000000000846,-0.007388994533857195
1.203000000000000735,-0.007189848004237442
1.204000000000000847,-0.006992857011586297
1.205000000000000959,-0.006798007163872704
1.206000000000000849,-0.006605284149202572
1.207000000000000739,-0.006414673735386965
1.208000000000000851,-0.006226161769510586
1.209000000000000963,-0.006039734177487546
1.210000000000000853,-0.005855376963637994
1.211000000000000743,-0.005673076210251196
1.212000000000000854,-0.005492818077169334
1.213000000000000966,-0.005314588801352532
1.214000000000000856,-0.005138374696477023
1.215000000000000746,-0.004964162152492279
1.216000000000000858,-0.004791937635236808
1.217000000000000970,-0.004621687685998098
1.218000000000000860,-0.004453398921120344
1.219000000000000750,-0.004287058031596571
1.220000000000000862,-0.004122651782659294
1.221000000000000973,-0.003960167013382065
1.222000000000000863,-0.003799590636285734
1.223000000000000753,-0.003640909636931124
1.224000000000000865,-0.003484111073539686
1.225000000000000977,-0.003329182076594929
1.226000000000000867,-0.003176109848453748
1.227000000000000757,-0.003024881662965604
1.228000000000000869,-0.002875484865078087
1.229000000000000981,-0.002727906870478814
1.230000000000000870,-0.002582135165188529
1.231000000000000760,-0.002438157305204902
1.232000000000000872,-0.002295960916130145
1.233000000000000984,-0.002155533692777790
1.234000000000000874,-0.002016863398836077
1.235000000000000764,-0.001879937866472216
1.236000000000000876,-0.001744744995986876
1.237000000000000988,-0.001611272755440822
1.238000000000000878,-0.001479509180307324
1.239000000000000767,-0.001349442373101410
1.240000000000000879,-0.001221060503034632
1.241000000000000991,-0.001094351805657798
1.242000000000000881,-0.000969304582508512
1.243000000000000771,-0.000845907200767808
1.244000000000000883,-0.000724148092904803
1.245000000000000995,-0.000604015756344994
1.246000000000000885,-0.000485498753116928
1.247000000000000774,-0.000368585709515412
1.248000000000000886,-0.000253265315764561
1.249000000000000998,-0.000139526325678942
1.250000000000000888,-0.000027357556336494
1.251000000000000778,0.000083252112265172
1.252000000000000890,0.000192313737527340
1.253000000000001002,0.000299838314591624
1.254000000000000892,0.000405836776647496
1.255000000000000782,0.000510319995274945
1.256000000000000894,0.000613298780757408
1.257000000000001005,0.000714783882402439
1.258000000000000895,0.000814785988861301
1.259000000000000785,0.000913315728449771
1.260000000000000897,0.001010383669456094
1.261000000000001009,0.001106000320455458
1.262000000000000899,0.001200176130627158
1.263000000000000789,0.001292921490058599
1.264000000000000901,0.001384246730049397
1.265000000000001013,0.001474162123426378
1.266000000000000902,0.001562677884840674
1.267000000000000792,0.001649804171073085
1.268000000000000904,0.001735551081332060
1.269000000000001016,0.001819928657555667
1.270000000000000906,0.001902946884702336
1.271000000000000796,0.001984615691055133
1.272000000000000908,0.002064944948509811
1.273000000000001020,0.002143944472867941
1.274000000000000909,0.002221624024124698
1.275000000000000799,0.002297993306767806
1.276000000000000911,0.002373061970046430
1.277000000000001023,0.002446839608275408
1.278000000000000913,0.002519335761107748
1.279000000000000803,0.002590559913822266
1.280000000000000915,0.002660521497592551
1.281000000000001027,0.002729229889792043
1.282000000000000917,0.002796694414240988
1.283000000000000806,0.002862924341505058
1.284000000000000918,0.002927928889155365
1.285000000000001030,0.002991717222053073
1.286000000000000920,0.003054298452610053
1.287000000000000810,0.003115681641071239
1.288000000000000922,0.003175875795766138
1.289000000000001034,0.003234889873392449
1.290000000000000924,0.003292732779278884
1.291000000000000814,0.003349413367632703
1.292000000000000925,0.003404940441831109
1.293000000000001037,0.003459322754651163
1.294000000000000927,0.003512569008554178
1.295000000000000817,0.003564687855932447
1.296000000000000929,0.003615687899367978
1.297000000000001041,0.003665577691893540
1.298000000000000931,0.003714365737235881
1.299000000000000821,0.003762060490075771
1.300000000000000933,0.003808670356305270
1.301000000000001044,0.003854203693264735
1.302000000000000934,0.003898668810003704
1.303000000000000824,0.003942073967515977
1.304000000000000936,0.003984427379004762
1.305000000000001048,0.004025737210106144
1.306000000000000938,0.004066011579143722
1.307000000000000828,0.004105258557374219
1.308000000000000940,0.004143486169225404
1.309000000000001052,0.004180702392526310
1.310000000000000941,0.004216915158760171
1.311000000000000831,0.004252132353295496
1.312000000000000943,0.004286361815627892
1.313000000000001055,0.004319611339594737
1.314000000000000945,0.004351888673634327
1.315000000000000835,0.004383201521008397
1.316000000000000947,0.004413557540028220
1.317000000000001059,0.004442964344285936
1.318000000000000949,0.004471429502896462
1.319000000000000838,0.004498960540701054
1.320000000000000950,0.004525564938515213
1.321000000000001062,0.004551250133348167
1.322000000000000952,0.004576023518618017
1.323000000000000842,0.004599892444388747
1.324000000000000954,0.004622864217577151
1.325000000000001066,0.004644946102189117
1.326000000000000956,0.004666145319524058
1.327000000000000846,0.004686469048407206
1.328000000000000957,0.004705924425391738
1.329000000000001069,0.004724518544994875
1.330000000000000959,0.004742258459888679
1.331000000000000849,0.004759151181133739
1.332000000000000961,0.004775203678386694
1.333000000000001073,0.004790422880109763
1.334000000000000963,0.004804815673777206
1.335000000000000853,0.004818388906097750
1.336000000000000965,0.004831149383210079
1.337000000000001076,0.004843103870897694
1.338000000000000966,0.004854259094795361
1.339000000000000856,0.004864621740587889
1.340000000000000968,0.004874198454226070
1.341000000000001080,0.004882995842121408
1.342000000000000970,0.004891020471349919
1.343000000000000860,0.004898278869855917
1.344000000000000972,0.004904777526653098
1.345000000000001084,0.004910522892013843
1.346000000000000973,0.004915521377685290
1.347000000000000863,0.004919779357070208
1.348000000000000975,0.004923303165437941
1.349000000000001087,0.004926099100106829
1.350000000000000977,0.004928173420645844
1.351000000000000867,0.004929532349062621
1.352000000000000979,0.004930182070011770
1.353000000000001091,0.004930128730963108
1.354000000000000981,0.004929378442406390
1.355000000000000870,0.004927937278044599
1.356000000000000982,0.004925811274972244
1.357000000000001094,0.004923006433866571
1.358000000000000984,0.004919528719179991
1.359000000000000874,0.004915384059321477
1.360000000000000986,0.004910578346841945
1.361000000000001098,0.004905117438613086
1.362000000000000988,0.004899007156027516
1.363000000000000878,0.004892253285164422
1.364000000000000989,0.004884861576971207
1.365000000000001101,0.004876837747460378
1.366000000000000991,0.004868187477874405
1.367000000000000881,0.004858916414866278
1.368000000000000993,0.004849030170683587
1.369000000000001105,0.004838534323340466
1.370000000000000995,0.004827434416798880
1.371000000000000885,0.004815735961138388
1.372000000000000997,0.004803444432734063
1.373000000000001108,0.004790565274423918
1.374000000000000998,0.004777103895705142
1.375000000000000888,0.004763065672865560
1.376000000000001000,0.004748455949192665
1.377000000000001112,0.004733280035125781
1.378000000000001002,0.004717543208426299
1.379000000000000892,0.004701250714353058
1.380000000000001004,0.004684407765826354
1.381000000000001116,0.004667019543588316
1.382000000000001005,0.004649091196386042
1.383000000000000895,0.004630627841121553
1.384000000000001007,0.004611634563022658
1.385000000000001119,0.004592116415807661
1.386000000000001009,0.004572078421843709
1.387000000000000899,0.004551525572323958
1.388000000000001011,0.004530462827398220
1.389000000000001123,0.004508895116372351
1.390000000000001013,0.004486827337839702
1.391000000000000902,0.004464264359854993
1.392000000000001014,0.004441211020085024
1.393000000000001126,0.004417672125971650
1.394000000000001016,0.004393652454881818
1.395000000000000906,0.004369156754273630
1.396000000000001018,0.004344189741847612
1.397000000000001130,0.004318756105697643
1.398000000000001020,0.004292860504466420
1.399000000000000909,0.004266507567505658
1.400000000000001021,0.004239701895021196
1.401000000000001133,0.004212448058222741
1.402000000000001023,0.004184750599485469
1.403000000000000913,0.004156614032494389
1.404000000000001025,0.004128042842387614
1.405000000000001137,0.004099041485916779
1.406000000000001027,0.004069614391592066
1.407000000000000917,0.004039765959817608
1.408000000000001029,0.004009500563060949
1.409000000000001140,0.003978822545978283
1.410000000000001030,0.003947736225571865
1.411000000000000920,0.003916245891330191
1.412000000000001032,0.003884355805374716
1.413000000000001144,0.003852070202599089
1.414000000000001034,0.003819393290815673
1.415000000000000924,0.003786329250900050
1.416000000000001036,0.003752882236922535
1.417000000000001148,0.003719056376295406
1.418000000000001037,0.003684855769916925
1.419000000000000927,0.003650284492304200
1.420000000000001039,0.003615346591736018
1.421000000000001151,0.003580046090382172
1.422000000000001041,0.003544386984454051
1.423000000000000931,0.003508373244333762
1.424000000000001043,0.003472008814708491
1.425000000000001155,0.003435297614712390
1.426000000000001044,0.003398243538054852
1.427000000000000934,0.003360850453156929
1.428000000000001046,0.003323122203286118
1.429000000000001158,0.003285062606693407
1.430000000000001048,0.003246675456731776
1.431000000000000938,0.003207964522004519
1.432000000000001050,0.003168933546484153
1.433000000000001162,0.003129586249646508
1.434000000000001052,0.003089926326606889
1.435000000000000941,0.003049957448233984
1.436000000000001053,0.003009683261295151
1.437000000000001165,0.002969107388579304
1.438000000000001055,0.002928233429011135
1.439000000000000945,0.002887064957798025
1.440000000000001057,0.002845605526541286
1.441000000000001169,0.002803858663374147
1.442000000000001059,0.002761827873074181
1.443000000000000949,0.002719516637192282
1.444000000000001060,0.002676928414181156
1.445000000000001172,0.002634066639515505
1.446000000000001062,0.002590934725805941
1.447000000000000952,0.002547536062939480
1.448000000000001064,0.002503874018183490
1.449000000000001176,0.002459951936311410
1.450000000000001066,0.002415773139732159
1.451000000000000956,0.002371340928599392
1.452000000000001068,0.002326658580931115
1.453000000000001180,0.002281729352735017
1.454000000000001069,0.002236556478121278
1.455000000000000959,0.002191143169419770
1.456000000000001071,0.002145492617302899
1.457000000000001183,0.002099607990891021
1.458000000000001073,0.002053492437876576
1.459000000000000963,0.002007149084644499
1.460000000000001075,0.001960581036369173
1.461000000000001187,0.001913791377150499
1.462000000000001076,0.001866783170103323
1.463000000000000966,0.001819559457493931
1.464000000000001078,0.001772123260841070
1.465000000000001190,0.001724477581020912
1.466000000000001080,0.001676625398397626
1.467000000000000970,0.001628569672916065
1.468000000000001082,0.001580313344219879
1.469000000000001194,0.001531859331765283
1.470000000000001084,0.001483210534922007
1.471000000000000973,0.001434369833091129
1.472000000000001085,0.001385340085800711
1.473000000000001197,0.001336124132827861
1.474000000000001087,0.001286724794295575
1.475000000000000977,0.001237144870790766
1.476000000000001089,0.001187387143454462
1.477000000000001201,0.001137454374098614
1.478000000000001091,0.001087349305314672
1.479000000000000981,0.001037074660566070
1.480000000000001092,0.000986633144305157
1.481000000000001204,0.000936027442067459
1.482000000000001094,0.000885260220580925
1.483000000000000984,0.000834334127862402
1.484000000000001096,0.000783251793325962
1.485000000000001208,0.000732015827889851
1.486000000000001098,0.000680628824058106
1.487000000000000988,0.000629093356042527
1.488000000000001100,0.000577411979855251
1.489000000000001211,0.000525587233401961
1.490000000000001101,0.000473621636590461
1.491000000000000991,0.000421517691430034
1.492000000000001103,0.000369277882119296
1.493000000000001215,0.000316904675153364
1.494000000000001105,0.000264400519423355
1.495000000000000995,0.000211767846306411
1.496000000000001107,0.000159009069763060
1.497000000000001219,0.000106126586437636
1.498000000000001108,0.000053122775750621
1.499000000000000998,0.000000000000000000
