# ZnO10m10NB_HISAA: HID 0.14621171572600097 HIE 0.5848468629040039 HIP 0.2689414213699952
# h[nm],U(h)[kJ/mol]
0.149999999999999994,180.700820255185618635
0.150999999999999995,177.570226502774232813
0.151999999999999996,175.607027240141945867
0.152999999999999997,173.917466990035961771
0.153999999999999998,172.161178506240958086
0.154999999999999999,170.264213659888696384
0.156000000000000000,168.261395412666104221
0.157000000000000001,166.215821679055977711
0.158000000000000002,164.182640077381677202
0.159000000000000002,162.196842105873855644
0.160000000000000003,160.272974384410673565
0.161000000000000004,158.409828326397047249
0.162000000000000005,156.596367192955455039
0.163000000000000006,154.817070363067358585
0.164000000000000007,153.055980880510787756
0.165000000000000008,151.299340187355880971
0.166000000000000009,149.536983755269801577
0.167000000000000010,147.762781972094956018
0.168000000000000010,145.974423342555809313
0.169000000000000011,144.172801594130987723
0.170000000000000012,142.361214006499750440
0.171000000000000013,140.544521568801400235
0.172000000000000014,138.728370700725236020
0.173000000000000015,136.918534691852187279
0.174000000000000016,135.120401393136290835
0.175000000000000017,133.338611254146087504
0.176000000000000018,131.576835105163922890
0.177000000000000018,129.837672515721578748
0.178000000000000019,128.122647574821655780
0.179000000000000020,126.432278185002445525
0.180000000000000021,124.766196337944009542
0.181000000000000022,123.123299482412988937
0.182000000000000023,121.501916365142491827
0.183000000000000024,119.899974167532946012
0.184000000000000025,118.315157072395720661
0.185000000000000026,116.745049388821243497
0.186000000000000026,115.187258940291371800
0.187000000000000027,113.639518544406271872
0.188000000000000028,112.099765087548405518
0.189000000000000029,110.566196956977506716
0.190000000000000030,109.037311484202419365
0.191000000000000031,107.511924632036638627
0.192000000000000032,105.989175479802497648
0.193000000000000033,104.468518180398859840
0.194000000000000034,102.949704028201637129
0.195000000000000034,101.432756130695608476
0.196000000000000035,99.917938955453166727
0.197000000000000036,98.405724757203884678
0.198000000000000037,96.896758600843554632
0.199000000000000038,95.391823403428674055
0.200000000000000039,93.891806134881505841
0.201000000000000040,92.397666052670658132
0.202000000000000041,90.910405606228508191
0.203000000000000042,89.431044435767304890
0.204000000000000042,87.960596708857067938
0.205000000000000043,86.500051886476214236
0.206000000000000044,85.050358886959600113
0.207000000000000045,83.612413519305505361
0.208000000000000046,82.187048984133966201
0.209000000000000047,80.775029188429471105
0.210000000000000048,79.377044586181511931
0.211000000000000049,77.993710238340668184
0.212000000000000050,76.625565779441643599
0.213000000000000050,75.273076982334657714
0.214000000000000051,73.936638624451362034
0.215000000000000052,72.616578376931471439
0.216000000000000053,71.313161460011272652
0.217000000000000054,70.026595832854695800
0.218000000000000055,68.757037712255780093
0.219000000000000056,67.504597241351532944
0.220000000000000057,66.269344155846553690
0.221000000000000058,65.051313320647167870
0.222000000000000058,63.850510033758375528
0.223000000000000059,62.666915016490008838
0.224000000000000060,61.500489029226756088
0.225000000000000061,60.351177070125729074
0.226000000000000062,59.218912130069860211
0.227000000000000063,58.103618491048798944
0.228000000000000064,57.005214566929844011
0.229000000000000065,55.923615295421143401
0.230000000000000066,54.858734098055819572
0.231000000000000066,53.810484431378228010
0.232000000000000067,52.778780957358897297
0.233000000000000068,51.763540364556106965
0.234000000000000069,50.764681873849170302
0.235000000000000070,49.782127463841092663
0.236000000000000071,48.815801851422776281
0.237000000000000072,47.865632262642620276
0.238000000000000073,46.931548028069435929
0.239000000000000073,46.013480035391502554
0.240000000000000074,45.111360070164487013
0.241000000000000075,44.225120073509131657
0.242000000000000076,43.354691343244709856
0.243000000000000077,42.500003702502553438
0.244000000000000078,41.660984657360543792
0.245000000000000079,40.837558562524250760
0.246000000000000080,40.029645811602961203
0.247000000000000081,39.237162066120333748
0.248000000000000081,38.460017535094507934
0.249000000000000082,37.698116314839410279
0.250000000000000111,36.951355796597233905
0.251000000000000112,36.219626147721825760
0.252000000000000113,35.502809870401350167
0.253000000000000114,34.800781440341715722
0.254000000000000115,34.113407026425839774
0.255000000000000115,33.440544291120779974
0.256000000000000116,32.782042270316011923
0.257000000000000117,32.137741330338684520
0.258000000000000118,31.507473199096907024
0.259000000000000119,30.891061067641203408
0.260000000000000120,30.288319757898158002
0.261000000000000121,29.699055951911120133
0.262000000000000122,29.123068477607517934
0.263000000000000123,28.560148645894706476
0.264000000000000123,28.010080633753673851
0.265000000000000124,27.472641907944826301
0.266000000000000125,26.947603683952380038
0.267000000000000126,26.434731414865357380
0.268000000000000127,25.933785305014669831
0.269000000000000128,25.444520843351781991
0.270000000000000129,24.966689351754656201
0.271000000000000130,24.500038543676907921
0.272000000000000131,24.044313088809595058
0.273000000000000131,23.599255179695607154
0.274000000000000132,23.164605096520233474
0.275000000000000133,22.740101766592800914
0.276000000000000134,22.325483315330092893
0.277000000000000135,21.920487605848858692
0.278000000000000136,21.524852764568180419
0.279000000000000137,21.138317690511904345
0.280000000000000138,20.760622546282977652
0.281000000000000139,20.391509228953996313
0.282000000000000139,20.030721819380659099
0.283000000000000140,19.678007008694407887
0.284000000000000141,19.333114500968513028
0.285000000000000142,18.995797391274859223
0.286000000000000143,18.665812518558901445
0.287000000000000144,18.342920792955442977
0.288000000000000145,18.026887497348347722
0.289000000000000146,17.717482563144422159
0.290000000000000147,17.414480820382927106
0.291000000000000147,17.117662222440941377
0.292000000000000148,16.826812045718398281
0.293000000000000149,16.541721064798444729
0.294000000000000150,16.262185703676571791
0.295000000000000151,15.988008163738129497
0.296000000000000152,15.718996529238697946
0.297000000000000153,15.454964851104900703
0.298000000000000154,15.195733209926610030
0.299000000000000155,14.941127759054964486
0.300000000000000155,14.690980748754697061
0.301000000000000156,14.445130532385901390
0.302000000000000157,14.203421555607700810
0.303000000000000158,13.965704329608199075
0.304000000000000159,13.731835389369027922
0.305000000000000160,13.501677237971827950
0.306000000000000161,13.275098277947138925
0.307000000000000162,13.051972730654547661
0.308000000000000163,12.832180544667407318
0.309000000000000163,12.615607294115640968
0.310000000000000164,12.402144067917422632
0.311000000000000165,12.191687350804645718
0.312000000000000166,11.984138897019072090
0.313000000000000167,11.779405597525686389
0.314000000000000168,11.577399341557953250
0.315000000000000169,11.378036873276323959
0.316000000000000170,11.181239644286986135
0.317000000000000171,10.986933662732816686
0.318000000000000171,10.795049339632944552
0.319000000000000172,10.605521333111186166
0.320000000000000173,10.418288391117993541
0.321000000000000174,10.233293193214677785
0.322000000000000175,10.050482191952987421
0.323000000000000176,9.869805454348412610
0.324000000000000177,9.691216503910819569
0.325000000000000178,9.514672163662737603
0.326000000000000179,9.340132400542131563
0.327000000000000179,9.167560171555159343
0.328000000000000180,8.996921272012883719
0.329000000000000181,8.828184186156232016
0.330000000000000182,8.661319940444519361
0.331000000000000183,8.496301959755061972
0.332000000000000184,8.333105926714909018
0.333000000000000185,8.171709644360310776
0.334000000000000186,8.012092902295210095
0.335000000000000187,7.854237346497205507
0.336000000000000187,7.698126352897306290
0.337000000000000188,7.543744904839739363
0.338000000000000189,7.391079474507875169
0.339000000000000190,7.240117908384604561
0.340000000000000191,7.090849316798176538
0.341000000000000192,6.943263967588387153
0.342000000000000193,6.797353183913124042
0.343000000000000194,6.653109246201287519
0.344000000000000195,6.510525298245566361
0.345000000000000195,6.369595257416026612
0.346000000000000196,6.230313728965265696
0.347000000000000197,6.092675924385300590
0.348000000000000198,5.956677583767604034
0.349000000000000199,5.822314902109210877
0.350000000000000200,5.689584459500413693
0.351000000000000201,5.558483155122841524
0.352000000000000202,5.429008144980805639
0.353000000000000203,5.301156783283385465
0.354000000000000203,5.174926567390128795
0.355000000000000204,5.050315086229412387
0.356000000000000205,4.927319972094818645
0.357000000000000206,4.805938855722045489
0.358000000000000207,4.686169324546789028
0.359000000000000208,4.568008884041790729
0.360000000000000209,4.451454922029910222
0.361000000000000210,4.336504675869331749
0.362000000000000210,4.223155202405909137
0.363000000000000211,4.111403350587843342
0.364000000000000212,4.001245736637640604
0.365000000000000213,3.892678721676810394
0.366000000000000214,3.785698391699357401
0.367000000000000215,3.680300539791113490
0.368000000000000216,3.576480650492837476
0.369000000000000217,3.474233886206745225
0.370000000000000218,3.373555075547252535
0.371000000000000218,3.274438703538802731
0.372000000000000219,3.176878903565142132
0.373000000000000220,3.080869450976624790
0.374000000000000221,2.986403758264162267
0.375000000000000222,2.893474871710765672
0.376000000000000223,2.802075469433482180
0.377000000000000224,2.712197860731509813
0.378000000000000225,2.623833986658202111
0.379000000000000226,2.536975421737438285
0.380000000000000226,2.451613376747041162
0.381000000000000227,2.367738702494885494
0.382000000000000228,2.285341894515419803
0.383000000000000229,2.204413098617227895
0.384000000000000230,2.124942117214689841
0.385000000000000231,2.046918416379237993
0.386000000000000232,1.970331133548518077
0.387000000000000233,1.895169085833931621
0.388000000000000234,1.821420778869892398
0.389000000000000234,1.749074416150244060
0.390000000000000235,1.678117908799966251
0.391000000000000236,1.608538885732546664
0.392000000000000237,1.540324704145780599
0.393000000000000238,1.473462460311026678
0.394000000000000239,1.407939000613270153
0.395000000000000240,1.343740932801389620
0.396000000000000241,1.280854637410346220
0.397000000000000242,1.219266279318957258
0.398000000000000242,1.158961819408973248
0.399000000000000243,1.099927026293282983
0.400000000000000244,1.042147488082714402
0.401000000000000245,0.985608624162992553
0.402000000000000246,0.930295696955196538
0.403000000000000247,0.876193823634531688
0.404000000000000248,0.823287987784274811
0.405000000000000249,0.771563050963055219
0.406000000000000250,0.721003764165410899
0.407000000000000250,0.671594779156874822
0.408000000000000251,0.623320659666399490
0.409000000000000252,0.576165892420284820
0.410000000000000253,0.530114898003031021
0.411000000000000254,0.485152041531903166
0.412000000000000255,0.441261643133143477
0.413000000000000256,0.398427988208857164
0.414000000000000257,0.356635337484932868
0.415000000000000258,0.315867936831031482
0.416000000000000258,0.276110026845124534
0.417000000000000259,0.237345852195600115
0.418000000000000260,0.199559670715161397
0.419000000000000261,0.162735762241381421
0.420000000000000262,0.126858437199802387
0.421000000000000263,0.091912044925943806
0.422000000000000264,0.057880981723689495
0.423000000000000265,0.024749698657818290
0.424000000000000266,-0.007497290920708543
0.425000000000000266,-0.038875404117401070
0.426000000000000267,-0.069399981505268410
0.427000000000000268,-0.099086280403794191
0.428000000000000269,-0.127949468425154672
0.429000000000000270,-0.156004617286475133
0.430000000000000271,-0.183266696886349362
0.431000000000000272,-0.209750569643716911
0.432000000000000273,-0.235470985096519758
0.433000000000000274,-0.260442574757470791
0.434000000000000274,-0.284679847223809401
0.435000000000000275,-0.308197183537652353
0.436000000000000276,-0.331008832793365348
0.437000000000000277,-0.353128907988011831
0.438000000000000278,-0.374571382110833295
0.439000000000000279,-0.395350084467465557
0.440000000000000280,-0.415478697234425876
0.441000000000000281,-0.434970752239214775
0.442000000000000282,-0.453839627961394765
0.443000000000000282,-0.472098546749593950
0.444000000000000283,-0.489760572249635817
0.445000000000000284,-0.506838607038602951
0.446000000000000285,-0.523345390459712401
0.447000000000000286,-0.539293496652918036
0.448000000000000287,-0.554695332775788752
0.449000000000000288,-0.569563137409607734
0.450000000000000289,-0.583908979145207008
0.451000000000000290,-0.597744755343312728
0.452000000000000290,-0.611082191064125979
0.453000000000000291,-0.623932838160699221
0.454000000000000292,-0.636308074530961942
0.455000000000000293,-0.648219103523040352
0.456000000000000294,-0.659676953488652518
0.457000000000000295,-0.670692477479454263
0.458000000000000296,-0.681276353081067265
0.459000000000000297,-0.691439082379820324
0.460000000000000298,-0.701190992057078577
0.461000000000000298,-0.710542233606252460
0.462000000000000299,-0.719502783667543389
0.463000000000000300,-0.728082444475576129
0.464000000000000301,-0.736290844415237289
0.465000000000000302,-0.744137438680973151
0.466000000000000303,-0.751631510034945438
0.467000000000000304,-0.758782169659623529
0.468000000000000305,-0.765598358100272103
0.469000000000000306,-0.772088846293069064
0.470000000000000306,-0.778262236674662988
0.471000000000000307,-0.784126964368860424
0.472000000000000308,-0.789691298446557721
0.473000000000000309,-0.794963343254881938
0.474000000000000310,-0.799951039811651166
0.475000000000000311,-0.804662167261445349
0.476000000000000312,-0.809104344389585783
0.477000000000000313,-0.813285031190474683
0.478000000000000314,-0.817211530486746773
0.479000000000000314,-0.820890989595989273
0.480000000000000315,-0.824330402041586030
0.481000000000000316,-0.827536609304659887
0.482000000000000317,-0.830516302613880208
0.483000000000000318,-0.833276024770253421
0.484000000000000319,-0.835822172003929498
0.485000000000000320,-0.838160995860232516
0.486000000000000321,-0.840298605112229979
0.487000000000000322,-0.842240967697197140
0.488000000000000322,-0.843993912674366853
0.489000000000000323,-0.845563132201706646
0.490000000000000324,-0.846954183529174398
0.491000000000000325,-0.848172491006290108
0.492000000000000326,-0.849223348101778019
0.493000000000000327,-0.850111919433260921
0.494000000000000328,-0.850843242804870448
0.495000000000000329,-0.851422231250948514
0.496000000000000330,-0.851853675083849016
0.497000000000000330,-0.852142243944244870
0.498000000000000331,-0.852292488851954966
0.499000000000000332,-0.852308844255947995
0.500000000000000333,-0.852195630081786337
0.501000000000000334,-0.851957053774986872
0.502000000000000335,-0.851597212339033627
0.503000000000000336,-0.851120094366530022
0.504000000000000337,-0.850529582062283795
0.505000000000000338,-0.849829453257055722
0.506000000000000338,-0.849023383410828614
0.507000000000000339,-0.848114947604483804
0.508000000000000340,-0.847107622518786796
0.509000000000000341,-0.846004788399826735
0.510000000000000342,-0.844809731009785514
0.511000000000000343,-0.843525643562329064
0.512000000000000344,-0.842155628641655163
0.513000000000000345,-0.840702700104495881
0.514000000000000346,-0.839169784964363896
0.515000000000000346,-0.837559725257256416
0.516000000000000347,-0.835875279888256051
0.517000000000000348,-0.834119126458479299
0.518000000000000349,-0.832293863071670637
0.519000000000000350,-0.830402010120122158
0.520000000000000351,-0.828446012049255942
0.521000000000000352,-0.826428239100647000
0.522000000000000353,-0.824350989032885506
0.523000000000000353,-0.822216488820072811
0.524000000000000354,-0.820026896327572974
0.525000000000000355,-0.817784301964722737
0.526000000000000356,-0.815490730314229362
0.527000000000000357,-0.813148141738113894
0.528000000000000358,-0.810758433959864355
0.529000000000000359,-0.808323443622787741
0.530000000000000360,-0.805844947824254088
0.531000000000000361,-0.803324665625869017
0.532000000000000361,-0.800764259539376244
0.533000000000000362,-0.798165336988280738
0.534000000000000363,-0.795529451745110805
0.535000000000000364,-0.792858105344345421
0.536000000000000365,-0.790152748470934752
0.537000000000000366,-0.787414782324522888
0.538000000000000367,-0.784645559959281980
0.539000000000000368,-0.781846387599595349
0.540000000000000369,-0.779018525931444827
0.541000000000000369,-0.776163191369810379
0.542000000000000370,-0.773281557301973566
0.543000000000000371,-0.770374755307023817
0.544000000000000372,-0.767443876351585175
0.545000000000000373,-0.764489971961967552
0.546000000000000374,-0.761514055372859655
0.547000000000000375,-0.758517102652753294
0.548000000000000376,-0.755500053806300587
0.549000000000000377,-0.752463813853741392
0.550000000000000377,-0.749409253887664661
0.551000000000000378,-0.746337212107228476
0.552000000000000379,-0.743248494830173190
0.553000000000000380,-0.740143877482733137
0.554000000000000381,-0.737024105567733123
0.555000000000000382,-0.733889895611174015
0.556000000000000383,-0.730741936087379917
0.557000000000000384,-0.727580888323177466
0.558000000000000385,-0.724407387381159840
0.559000000000000385,-0.721222042922437856
0.560000000000000386,-0.718025440049089969
0.561000000000000387,-0.714818140126571966
0.562000000000000388,-0.711600681586355699
0.563000000000000389,-0.708373580709143358
0.564000000000000390,-0.705137332388817595
0.565000000000000391,-0.701892410877517081
0.566000000000000392,-0.698639270512039223
0.567000000000000393,-0.695378346421943516
0.568000000000000393,-0.692110055219527065
0.569000000000000394,-0.688834795672062183
0.570000000000000395,-0.685552949356547758
0.571000000000000396,-0.682264881297209747
0.572000000000000397,-0.678970940586170024
0.573000000000000398,-0.675671460987403050
0.574000000000000399,-0.672366761524438417
0.575000000000000400,-0.669057147051951073
0.576000000000000401,-0.665742908811612244
0.577000000000000401,-0.662424324972510803
0.578000000000000402,-0.659101661156325846
0.579000000000000403,-0.655775170947601849
0.580000000000000404,-0.652445096389473789
0.581000000000000405,-0.649111668464952163
0.582000000000000406,-0.645775107564239392
0.583000000000000407,-0.642435623938197198
0.584000000000000408,-0.639093418138353186
0.585000000000000409,-0.635748681443657260
0.586000000000000409,-0.632401596274264066
0.587000000000000410,-0.629052336592669237
0.588000000000000411,-0.625701068292349061
0.589000000000000412,-0.622347949574328041
0.590000000000000413,-0.618993131311761480
0.591000000000000414,-0.615636757402923118
0.592000000000000415,-0.612278965112815654
0.593000000000000416,-0.608919885403611749
0.594000000000000417,-0.605559643254214963
0.595000000000000417,-0.602198357969258913
0.596000000000000418,-0.598836143477577520
0.597000000000000419,-0.595473108620670599
0.598000000000000420,-0.592109357431129801
0.599000000000000421,-0.588744989401479013
0.600000000000000422,-0.585380099743506133
0.601000000000000423,-0.582014779638386992
0.602000000000000424,-0.578649116477830683
0.603000000000000425,-0.575283194096436801
0.604000000000000425,-0.571917092995477661
0.605000000000000426,-0.568550890558350841
0.606000000000000427,-0.565184661257941756
0.607000000000000428,-0.561818476855927340
0.608000000000000429,-0.558452406594561412
0.609000000000000430,-0.555086517380722122
0.610000000000000431,-0.551720873962812108
0.611000000000000432,-0.548355539100432887
0.612000000000000433,-0.544990573727129335
0.613000000000000433,-0.541626037106427427
0.614000000000000434,-0.538261986981276142
0.615000000000000435,-0.534898479717088926
0.616000000000000436,-0.531535570438576133
0.617000000000000437,-0.528173313160606228
0.618000000000000438,-0.524811760913127978
0.619000000000000439,-0.521450965860400739
0.620000000000000440,-0.518090979414749242
0.621000000000000441,-0.514731852344888607
0.622000000000000441,-0.511373634879080385
0.623000000000000442,-0.508016376803175240
0.624000000000000443,-0.504660127553796856
0.625000000000000444,-0.501304936306760873
0.626000000000000445,-0.497950852060838833
0.627000000000000446,-0.494597923717104759
0.628000000000000447,-0.491246200153915180
0.629000000000000448,-0.487895730297701058
0.630000000000000449,-0.484546563189690305
0.631000000000000449,-0.481198748048712210
0.632000000000000450,-0.477852334330179651
0.633000000000000451,-0.474507371781418996
0.634000000000000452,-0.471163910493387961
0.635000000000000453,-0.467822000949025874
0.636000000000000454,-0.464481694068200612
0.637000000000000455,-0.461143041249528818
0.638000000000000456,-0.457806094409019759
0.639000000000000457,-0.454470906015772114
0.640000000000000457,-0.451137529124804038
0.641000000000000458,-0.447806017407025247
0.642000000000000459,-0.444476425176634438
0.643000000000000460,-0.441148807415828625
0.644000000000000461,-0.437823219797102703
0.645000000000000462,-0.434499718703129534
0.646000000000000463,-0.431178361244310471
0.647000000000000464,-0.427859205274154553
0.648000000000000465,-0.424542309402517859
0.649000000000000465,-0.421227733006777127
0.650000000000000466,-0.417915536241086683
0.651000000000000467,-0.414605780043698580
0.652000000000000468,-0.411298526142537257
0.653000000000000469,-0.407993837058984010
0.654000000000000470,-0.404691776110080836
0.655000000000000471,-0.401392407409093488
0.656000000000000472,-0.398095795864584545
0.657000000000000473,-0.394802007178029490
0.658000000000000473,-0.391511107840086359
0.659000000000000474,-0.388223165125507697
0.660000000000000475,-0.384938247086842766
0.661000000000000476,-0.381656422546893859
0.662000000000000477,-0.378377761090101961
0.663000000000000478,-0.375102333052797055
0.664000000000000479,-0.371830209512497400
0.665000000000000480,-0.368561462276133844
0.666000000000000481,-0.365296163867498247
0.667000000000000481,-0.362034387513677058
0.668000000000000482,-0.358776207130814928
0.669000000000000483,-0.355521697308986639
0.670000000000000484,-0.352270933296424671
0.671000000000000485,-0.349023990983038934
0.672000000000000486,-0.345780946883287477
0.673000000000000487,-0.342541878118507059
0.674000000000000488,-0.339306862398624731
0.675000000000000488,-0.336075978003379960
0.676000000000000489,-0.332849303763124382
0.677000000000000490,-0.329626919039076927
0.678000000000000491,-0.326408903703268360
0.679000000000000492,-0.323195338118072495
0.680000000000000493,-0.319986303115392556
0.681000000000000494,-0.316781879975582936
0.682000000000000495,-0.313582150406037430
0.683000000000000496,-0.310387196519593900
0.684000000000000496,-0.307197100812683366
0.685000000000000497,-0.304011946143286471
0.686000000000000498,-0.300831815708767047
0.687000000000000499,-0.297656793023521327
0.688000000000000500,-0.294486961896534616
0.689000000000000501,-0.291322406408858481
0.690000000000000502,-0.288163210891013599
0.691000000000000503,-0.285009459900346485
0.692000000000000504,-0.281861238198339303
0.693000000000000504,-0.278718630727990468
0.694000000000000505,-0.275581722591096590
0.695000000000000506,-0.272450599025687690
0.696000000000000507,-0.269325345383431614
0.697000000000000508,-0.266206047107131472
0.698000000000000509,-0.263092789708328167
0.699000000000000510,-0.259985658744972092
0.700000000000000511,-0.256884739799230433
0.701000000000000512,-0.253790118455420599
0.702000000000000512,-0.250701880278077660
0.703000000000000513,-0.247620110790186337
0.704000000000000514,-0.244544895451584809
0.705000000000000515,-0.241476319637531495
0.706000000000000516,-0.238414468617477504
0.707000000000000517,-0.235359427534051369
0.708000000000000518,-0.232311281382191925
0.709000000000000519,-0.229270114988617157
0.710000000000000520,-0.226236012991392038
0.711000000000000520,-0.223209059819831329
0.712000000000000521,-0.220189339674607049
0.713000000000000522,-0.217176936508089446
0.714000000000000523,-0.214171934005015108
0.715000000000000524,-0.211174415563333218
0.716000000000000525,-0.208184464275401382
0.717000000000000526,-0.205202162909427416
0.718000000000000527,-0.202227593891166985
0.719000000000000528,-0.199260839285950481
0.720000000000000528,-0.196301980781018792
0.721000000000000529,-0.193351099668067822
0.722000000000000530,-0.190408276826208950
0.723000000000000531,-0.187473592705125286
0.724000000000000532,-0.184547127308623965
0.725000000000000533,-0.181628960178451981
0.726000000000000534,-0.178719170378411729
0.727000000000000535,-0.175817836478835809
0.728000000000000536,-0.172925036541339755
0.729000000000000536,-0.170040848103902298
0.730000000000000537,-0.167165348166297328
0.731000000000000538,-0.164298613175777652
0.732000000000000539,-0.161440719013152600
0.733000000000000540,-0.158591740979144136
0.734000000000000541,-0.155751753781085273
0.735000000000000542,-0.152920831519903128
0.736000000000000543,-0.150099047677501624
0.737000000000000544,-0.147286475104368791
0.738000000000000544,-0.144483186007603126
0.739000000000000545,-0.141689251939175281
0.740000000000000546,-0.138904743784570878
0.741000000000000547,-0.136129731751704230
0.742000000000000548,-0.133364285360236950
0.743000000000000549,-0.130608473431078426
0.744000000000000550,-0.127862364076320900
0.745000000000000551,-0.125126024689432069
0.746000000000000552,-0.122399521935780381
0.747000000000000552,-0.119682921743460402
0.748000000000000553,-0.116976289294421526
0.749000000000000554,-0.114279689015914565
0.750000000000000555,-0.111593184572248261
0.751000000000000556,-0.108916838856815718
0.752000000000000557,-0.106250713984487807
0.753000000000000558,-0.103594871284193243
0.754000000000000559,-0.100949371291920151
0.755000000000000560,-0.098314273743906888
0.756000000000000560,-0.095689637570204142
0.757000000000000561,-0.093075520888439525
0.758000000000000562,-0.090471980997923057
0.759000000000000563,-0.087879074374031571
0.760000000000000564,-0.085296856662850098
0.761000000000000565,-0.082725382676085882
0.762000000000000566,-0.080164706386276680
0.763000000000000567,-0.077614880922240906
0.764000000000000568,-0.075075958564799095
0.765000000000000568,-0.072547990742790378
0.766000000000000569,-0.070031028029282141
0.767000000000000570,-0.067525120138106062
0.768000000000000571,-0.065030315920572637
0.769000000000000572,-0.062546663362501129
0.770000000000000573,-0.060074209581448948
0.771000000000000574,-0.057613000824204633
0.772000000000000575,-0.055163082464508170
0.773000000000000576,-0.052724499001002983
0.774000000000000576,-0.050297294055424380
0.775000000000000577,-0.047881510371021674
0.776000000000000578,-0.045477189811180971
0.777000000000000579,-0.043084373358300447
0.778000000000000580,-0.040703101112842997
0.779000000000000581,-0.038333412292636510
0.780000000000000582,-0.035975345232355710
0.781000000000000583,-0.033628937383239528
0.782000000000000584,-0.031294225312976279
0.783000000000000584,-0.028971244705803124
0.784000000000000585,-0.026660030362820782
0.785000000000000586,-0.024360616202447331
0.786000000000000587,-0.022073035261119176
0.787000000000000588,-0.019797319694135940
0.788000000000000589,-0.017533500776683780
0.789000000000000590,-0.015281608905080330
0.790000000000000591,-0.013041673598136249
0.791000000000000592,-0.010813723498720031
0.792000000000000592,-0.008597786375486523
0.793000000000000593,-0.006393889124752816
0.794000000000000594,-0.004202057772550361
0.795000000000000595,-0.002022317476837373
0.796000000000000596,0.000145307470173455
0.797000000000000597,0.002300793639487726
0.798000000000000598,0.004444118462684221
0.799000000000000599,0.006575260229138848
0.800000000000000600,0.008694198083062392
0.801000000000000600,0.010800912020463328
0.802000000000000601,0.012895382885932054
0.803000000000000602,0.014977592369319637
0.804000000000000603,0.017047523002270235
0.805000000000000604,0.019105158154639333
0.806000000000000605,0.021150482030825691
0.807000000000000606,0.023183479665914920
0.808000000000000607,0.025204136921772466
0.809000000000000608,0.027212440483007857
0.810000000000000608,0.029208377852786887
0.811000000000000609,0.031191937348648696
0.812000000000000610,0.033163108098068939
0.813000000000000611,0.035121880034072822
0.814000000000000612,0.037068243890654620
0.815000000000000613,0.039002191198121927
0.816000000000000614,0.040923714278388944
0.817000000000000615,0.042832806240147604
0.818000000000000616,0.044729460973947532
0.819000000000000616,0.046613673147216324
0.820000000000000617,0.048485438199207191
0.821000000000000618,0.050344752335831564
0.822000000000000619,0.052191612524440621
0.823000000000000620,0.054026016488548267
0.824000000000000621,0.055847962702475426
0.825000000000000622,0.057657450385904571
0.826000000000000623,0.059454479498397578
0.827000000000000624,0.061239050733853745
0.828000000000000624,0.063011165514878453
0.829000000000000625,0.064770825987142303
0.830000000000000626,0.066518035013634499
0.831000000000000627,0.068252796168900010
0.832000000000000628,0.069975113733204392
0.833000000000000629,0.071684992686673693
0.834000000000000630,0.073382438703371106
0.835000000000000631,0.075067458145330529
0.836000000000000631,0.076740058056565114
0.837000000000000632,0.078400246157002612
0.838000000000000633,0.080048030836434400
0.839000000000000634,0.081683421148384630
0.840000000000000635,0.083306426803956501
0.841000000000000636,0.084917058165674464
0.842000000000000637,0.086515326241250051
0.843000000000000638,0.088101242677366215
0.844000000000000639,0.089674819753406618
0.845000000000000639,0.091236070375169578
0.846000000000000640,0.092785008068578631
0.847000000000000641,0.094321646973317699
0.848000000000000642,0.095846001836526265
0.849000000000000643,0.097358088006422608
0.850000000000000644,0.098857921425901996
0.851000000000000645,0.100345518626185889
0.852000000000000646,0.101820896720393128
0.853000000000000647,0.103284073397125725
0.854000000000000647,0.104735066914067212
0.855000000000000648,0.106173896091535366
0.856000000000000649,0.107600580306048216
0.857000000000000650,0.109015139483884776
0.858000000000000651,0.110417594094654209
0.859000000000000652,0.111807965144841079
0.860000000000000653,0.113186274171349480
0.861000000000000654,0.114552543235093049
0.862000000000000655,0.115906794914513903
0.863000000000000655,0.117249052299177731
0.864000000000000656,0.118579338983314644
0.865000000000000657,0.119897679059423959
0.866000000000000658,0.121204097111826475
0.867000000000000659,0.122498618210256691
0.868000000000000660,0.123781267903479847
0.869000000000000661,0.125052072212892107
0.870000000000000662,0.126311057626140977
0.871000000000000663,0.127558251090744229
0.872000000000000663,0.128793680007772193
0.873000000000000664,0.130017372225478128
0.874000000000000665,0.131229356032998873
0.875000000000000666,0.132429660154029932
0.876000000000000667,0.133618313740560435
0.877000000000000668,0.134795346366592989
0.878000000000000669,0.135960788021886797
0.879000000000000670,0.137114669105751708
0.880000000000000671,0.138257020420814364
0.881000000000000671,0.139387873166864906
0.882000000000000672,0.140507258934657681
0.883000000000000673,0.141615209699806094
0.884000000000000674,0.142711757816641915
0.885000000000000675,0.143796936012146104
0.886000000000000676,0.144870777379870502
0.887000000000000677,0.145933315373907940
0.888000000000000678,0.146984583802886176
0.889000000000000679,0.148024616823976135
0.890000000000000679,0.149053448936942501
0.891000000000000680,0.150071114978218734
0.892000000000000681,0.151077650115009759
0.893000000000000682,0.152073089839430409
0.894000000000000683,0.153057469962673470
0.895000000000000684,0.154030826609196009
0.896000000000000685,0.154993196210955808
0.897000000000000686,0.155944615501673378
0.898000000000000687,0.156885121511117109
0.899000000000000687,0.157814751559440192
0.900000000000000688,0.158733543251532522
0.901000000000000689,0.159641534471423929
0.902000000000000690,0.160538763376700089
0.903000000000000691,0.161425268392976995
0.904000000000000692,0.162301088208396838
0.905000000000000693,0.163166261768165066
0.906000000000000694,0.164020828269107216
0.907000000000000695,0.164864827154299343
0.908000000000000695,0.165698298107687575
0.909000000000000696,0.166521281048788689
0.910000000000000697,0.167333816127388180
0.911000000000000698,0.168135943718312225
0.912000000000000699,0.168927704416211966
0.913000000000000700,0.169709139030385231
0.914000000000000701,0.170480288579672484
0.915000000000000702,0.171241194287333170
0.916000000000000703,0.171991897576012021
0.917000000000000703,0.172732440062715847
0.918000000000000704,0.173462863553835778
0.919000000000000705,0.174183210040221803
0.920000000000000706,0.174893521692267018
0.921000000000000707,0.175593840855066630
0.922000000000000708,0.176284210043598233
0.923000000000000709,0.176964671937920870
0.924000000000000710,0.177635269378470878
0.925000000000000711,0.178296045361337696
0.926000000000000711,0.178947043033615721
0.927000000000000712,0.179588305688786781
0.928000000000000713,0.180219876762144460
0.929000000000000714,0.180841799826236910
0.930000000000000715,0.181454118586400120
0.931000000000000716,0.182056876876286244
0.932000000000000717,0.182650118653441995
0.933000000000000718,0.183233887994945555
0.934000000000000719,0.183808229093063186
0.935000000000000719,0.184373186250953669
0.936000000000000720,0.184928803878427833
0.937000000000000721,0.185475126487723990
0.938000000000000722,0.186012198689330333
0.939000000000000723,0.186540065187870474
0.940000000000000724,0.187058770778000205
0.941000000000000725,0.187568360340361062
0.942000000000000726,0.188068878837560044
0.943000000000000727,0.188560371310220326
0.944000000000000727,0.189042882873033918
0.945000000000000728,0.189516458710871027
0.946000000000000729,0.189981144074955227
0.947000000000000730,0.190436984279019894
0.948000000000000731,0.190884024695574028
0.949000000000000732,0.191322310752147284
0.950000000000000733,0.191751887927624792
0.951000000000000734,0.192172801748566546
0.952000000000000735,0.192585097785627130
0.953000000000000735,0.192988821649982489
0.954000000000000736,0.193384018989785689
0.955000000000000737,0.193770735486690659
0.956000000000000738,0.194149016852391804
0.957000000000000739,0.194518908825218689
0.958000000000000740,0.194880457166755117
0.959000000000000741,0.195233707658519079
0.960000000000000742,0.195578706098648192
0.961000000000000743,0.195915498298656260
0.962000000000000743,0.196244130080216433
0.963000000000000744,0.196564647271974591
0.964000000000000745,0.196877095706403826
0.965000000000000746,0.197181521216712868
0.966000000000000747,0.197477969633767958
0.967000000000000748,0.197766486783078954
0.968000000000000749,0.198047118481785939
0.969000000000000750,0.198319910535732447
0.970000000000000751,0.198584908736518934
0.971000000000000751,0.198842158858651585
0.972000000000000752,0.199091706656692236
0.973000000000000753,0.199333597862429795
0.974000000000000754,0.199567878182140002
0.975000000000000755,0.199794593293835310
0.976000000000000756,0.200013788844569135
0.977000000000000757,0.200225510447780725
0.978000000000000758,0.200429803680663654
0.979000000000000759,0.200626714081563629
0.980000000000000759,0.200816287147450645
0.981000000000000760,0.200998568331373528
0.982000000000000761,0.201173603039975002
0.983000000000000762,0.201341436631054277
0.984000000000000763,0.201502114411146099
0.985000000000000764,0.201655681633123030
0.986000000000000765,0.201802183493863752
0.987000000000000766,0.201941665131930598
0.988000000000000766,0.202074171625290178
0.989000000000000767,0.202199747989059264
0.990000000000000768,0.202318439173284598
0.991000000000000769,0.202430290060779228
0.992000000000000770,0.202535345464961436
0.993000000000000771,0.202633650127719167
0.994000000000000772,0.202725248717361362
0.995000000000000773,0.202810185826526185
0.996000000000000774,0.202888505970186123
0.997000000000000774,0.202960253583642086
0.998000000000000775,0.203025473020567865
0.999000000000000776,0.203084208551083834
1.000000000000000666,0.203136504359858749
1.001000000000000778,0.203182404544234974
1.002000000000000668,0.203221953112401349
1.003000000000000780,0.203255193981579985
1.004000000000000670,0.203282170976254728
1.005000000000000782,0.203302927826413599
1.006000000000000671,0.203317508165834965
1.007000000000000783,0.203325955530407526
1.008000000000000673,0.203328313356454377
1.009000000000000785,0.203324624979111218
1.010000000000000675,0.203314933630720535
1.011000000000000787,0.203299282439258905
1.012000000000000677,0.203277714426783995
1.013000000000000789,0.203250272507911944
1.014000000000000679,0.203216999488349592
1.015000000000000790,0.203177938063393043
1.016000000000000680,0.203133130816515739
1.017000000000000792,0.203082620217945875
1.018000000000000682,0.203026448623292943
1.019000000000000794,0.202964658272177079
1.020000000000000684,0.202897291286898096
1.021000000000000796,0.202824389671135974
1.022000000000000686,0.202745995308666799
1.023000000000000798,0.202662149962103827
1.024000000000000687,0.202572895271673353
1.025000000000000799,0.202478272754003791
1.026000000000000689,0.202378323800942339
1.027000000000000801,0.202273089678408485
1.028000000000000691,0.202162611525250890
1.029000000000000803,0.202046930352142995
1.030000000000000693,0.201926087040507213
1.031000000000000805,0.201800122341429855
1.032000000000000695,0.201669076874653325
1.033000000000000806,0.201532991127537336
1.034000000000000696,0.201391905454075842
1.035000000000000808,0.201245860073931110
1.036000000000000698,0.201094895071486146
1.037000000000000810,0.200939050394900592
1.038000000000000700,0.200778365855236174
1.039000000000000812,0.200612881125562775
1.040000000000000702,0.200442635740088859
1.041000000000000814,0.200267669093332018
1.042000000000000703,0.200088020439310177
1.043000000000000815,0.199903728890726717
1.044000000000000705,0.199714833418196513
1.045000000000000817,0.199521372849511769
1.046000000000000707,0.199323385868875796
1.047000000000000819,0.199120911016204855
1.048000000000000709,0.198913986686426680
1.049000000000000821,0.198702651128806446
1.050000000000000711,0.198486942446289033
1.051000000000000822,0.198266898594854107
1.052000000000000712,0.198042557382906048
1.053000000000000824,0.197813956470666741
1.054000000000000714,0.197581133369594542
1.055000000000000826,0.197344125441821061
1.056000000000000716,0.197102969899602243
1.057000000000000828,0.196857703804792422
1.058000000000000718,0.196608364068334290
1.059000000000000830,0.196354987449764623
1.060000000000000719,0.196097610556735691
1.061000000000000831,0.195836269844556987
1.062000000000000721,0.195571001615763379
1.063000000000000833,0.195301842019663829
1.064000000000000723,0.195028827051963977
1.065000000000000835,0.194751992554350550
1.066000000000000725,0.194471374214115866
1.067000000000000837,0.194187007563820013
1.068000000000000727,0.193898927980906105
1.069000000000000838,0.193607170687409180
1.070000000000000728,0.193311770749615253
1.071000000000000840,0.193012763077774291
1.072000000000000730,0.192710182425806786
1.073000000000000842,0.192404063391039271
1.074000000000000732,0.192094440413958595
1.075000000000000844,0.191781347777948918
1.076000000000000734,0.191464819609076964
1.077000000000000846,0.191144889875885349
1.078000000000000735,0.190821592389178563
1.079000000000000847,0.190494960801854046
1.080000000000000737,0.190165028608708486
1.081000000000000849,0.189831829146301034
1.082000000000000739,0.189495395592798183
1.083000000000000851,0.189155760967837816
1.084000000000000741,0.188812958132408892
1.085000000000000853,0.188467019788753576
1.086000000000000743,0.188117978480267095
1.087000000000000854,0.187765866591407121
1.088000000000000744,0.187410716347630124
1.089000000000000856,0.187052559815337721
1.090000000000000746,0.186691428901824136
1.091000000000000858,0.186327355355233953
1.092000000000000748,0.185960370764553962
1.093000000000000860,0.185590506559579649
1.094000000000000750,0.185217794010943015
1.095000000000000862,0.184842264230087289
1.096000000000000751,0.184463948169310832
1.097000000000000863,0.184082876621798480
1.098000000000000753,0.183699080221646716
1.099000000000000865,0.183312589443924367
1.100000000000000755,0.182923434604741919
1.101000000000000867,0.182531645861311903
1.102000000000000757,0.182137253212037303
1.103000000000000869,0.181740286496594627
1.104000000000000759,0.181340775396052423
1.105000000000000870,0.180938749432959345
1.106000000000000760,0.180534237971489681
1.107000000000000872,0.180127270217549262
1.108000000000000762,0.179717875218924183
1.109000000000000874,0.179306081865426625
1.110000000000000764,0.178891918889054646
1.111000000000000876,0.178475414864156079
1.112000000000000766,0.178056598207592537
1.113000000000000878,0.177635497178929680
1.114000000000000767,0.177212139880623454
1.115000000000000879,0.176786554258222095
1.116000000000000769,0.176358768100565860
1.117000000000000881,0.175928809040005296
1.118000000000000771,0.175496704552621285
1.119000000000000883,0.175062481958449701
1.120000000000000773,0.174626168421722433
1.121000000000000885,0.174187790951109062
1.122000000000000774,0.173747376399973480
1.123000000000000886,0.173304951466624668
1.124000000000000776,0.172860542694575958
1.125000000000000888,0.172414176472836966
1.126000000000000778,0.171965879036179242
1.127000000000000890,0.171515676465405775
1.128000000000000780,0.171063594687680037
1.129000000000000892,0.170609659476790410
1.130000000000000782,0.170153896453467512
1.131000000000000894,0.169696331085700702
1.132000000000000783,0.169236988689044271
1.133000000000000895,0.168775894426937523
1.134000000000000785,0.168313073311054717
1.135000000000000897,0.167848550201604996
1.136000000000000787,0.167382349807706887
1.137000000000000899,0.166914496687704250
1.138000000000000789,0.166445015249543748
1.139000000000000901,0.165973929751099730
1.140000000000000790,0.165501264300562778
1.141000000000000902,0.165027042856797396
1.142000000000000792,0.164551289229704661
1.143000000000000904,0.164074027080611473
1.144000000000000794,0.163595279922631842
1.145000000000000906,0.163115071121085808
1.146000000000000796,0.162633423893848689
1.147000000000000908,0.162150361311777819
1.148000000000000798,0.161665906299097273
1.149000000000000909,0.161180081633799932
1.150000000000000799,0.160692909948069340
1.151000000000000689,0.160204413728673056
1.152000000000000801,0.159714615317391173
1.153000000000000913,0.159223536911427016
1.154000000000000803,0.158731200563838992
1.155000000000000693,0.158237628183970164
1.156000000000000805,0.157742841537861722
1.157000000000000917,0.157246862248715369
1.158000000000000806,0.156749711797305180
1.159000000000000696,0.156251411522434908
1.160000000000000808,0.155751982621383844
1.161000000000000920,0.155251446150346806
1.162000000000000810,0.154749823024887018
1.163000000000000700,0.154247134020400606
1.164000000000000812,0.153743399772560879
1.165000000000000924,0.153238640777796892
1.166000000000000814,0.152732877393734923
1.167000000000000703,0.152226129839685559
1.168000000000000815,0.151718418197097638
1.169000000000000927,0.151209762410044607
1.170000000000000817,0.150700182285686407
1.171000000000000707,0.150189697494758218
1.172000000000000819,0.149678327572034253
1.173000000000000931,0.149166091916827254
1.174000000000000821,0.148653009793468016
1.175000000000000711,0.148139100331783763
1.176000000000000822,0.147624382527592884
1.177000000000000934,0.147108875243200904
1.178000000000000824,0.146592597207882064
1.179000000000000714,0.146075567018389640
1.180000000000000826,0.145557803139434061
1.181000000000000938,0.145039323904201434
1.182000000000000828,0.144520147514841685
1.183000000000000718,0.144000292042969075
1.184000000000000830,0.143479775430175011
1.185000000000000941,0.142958615488535529
1.186000000000000831,0.142436829901103401
1.187000000000000721,0.141914436222436185
1.188000000000000833,0.141391451879089997
1.189000000000000945,0.140867894170143171
1.190000000000000835,0.140343780267696366
1.191000000000000725,0.139819127217409550
1.192000000000000837,0.139293951938982197
1.193000000000000949,0.138768271226710649
1.194000000000000838,0.138242101749970453
1.195000000000000728,0.137715460053760286
1.196000000000000840,0.137188362559208715
1.197000000000000952,0.136660825564093452
1.198000000000000842,0.136132865243376894
1.199000000000000732,0.135604497649704503
1.200000000000000844,0.135075738713964361
1.201000000000000956,0.134546604245771140
1.202000000000000846,0.134017109934019080
1.203000000000000735,0.133487271347395520
1.204000000000000847,0.132957103934916748
1.205000000000000959,0.132426623026434487
1.206000000000000849,0.131895843833186144
1.207000000000000739,0.131364781448312845
1.208000000000000851,0.130833450847382543
1.209000000000000963,0.130301866888929085
1.210000000000000853,0.129770044314968414
1.211000000000000743,0.129237997751544043
1.212000000000000854,0.128705741709238708
1.213000000000000966,0.128173290583723343
1.214000000000000856,0.127640658656261285
1.215000000000000746,0.127107860094271302
1.216000000000000858,0.126574908951824328
1.217000000000000970,0.126041819170199104
1.218000000000000860,0.125508604578401517
1.219000000000000750,0.124975278893693795
1.220000000000000862,0.124441855722125919
1.221000000000000973,0.123908348559071249
1.222000000000000863,0.123374770789747901
1.223000000000000753,0.122841135689757908
1.224000000000000865,0.122307456425608696
1.225000000000000977,0.121773746055244478
1.226000000000000867,0.121240017528579658
1.227000000000000757,0.120706283688024885
1.228000000000000869,0.120172557269019056
1.229000000000000981,0.119638850900542604
1.230000000000000870,0.119105177105675905
1.231000000000000760,0.118571548302096000
1.232000000000000872,0.118037976802610495
1.233000000000000984,0.117504474815709484
1.234000000000000874,0.116971054446051229
1.235000000000000764,0.116437727695021503
1.236000000000000876,0.115904506461239065
1.237000000000000988,0.115371402541092641
1.238000000000000878,0.114838427629250575
1.239000000000000767,0.114305593319200122
1.240000000000000879,0.113772911103756896
1.241000000000000991,0.113240392375593052
1.242000000000000881,0.112708048427760360
1.243000000000000771,0.112175890454203522
1.244000000000000883,0.111643929550287249
1.245000000000000995,0.111112176713309835
1.246000000000000885,0.110580642843021063
1.247000000000000774,0.110049338742146716
1.248000000000000886,0.109518275116895158
1.249000000000000998,0.108987462577481181
1.250000000000000888,0.108456911638630998
1.251000000000000778,0.107926632720106705
1.252000000000000890,0.107396636147208610
1.253000000000001002,0.106866932151301178
1.254000000000000892,0.106337530870302302
1.255000000000000782,0.105808442349214257
1.256000000000000894,0.105279676540621758
1.257000000000001005,0.104751243305198471
1.258000000000000895,0.104223152412218287
1.259000000000000785,0.103695413540058359
1.260000000000000897,0.103168036276705621
1.261000000000001009,0.102641030120251650
1.262000000000000899,0.102114404479410628
1.263000000000000789,0.101588168674005525
1.264000000000000901,0.101062331935471525
1.265000000000001013,0.100536903407361794
1.266000000000000902,0.100011892145833808
1.267000000000000792,0.099487307120155952
1.268000000000000904,0.098963157213193098
1.269000000000001016,0.098439451221908753
1.270000000000000906,0.097916197857846693
1.271000000000000796,0.097393405747633180
1.272000000000000908,0.096871083433461791
1.273000000000001020,0.096349239373580434
1.274000000000000909,0.095827881942779081
1.275000000000000799,0.095307019432882265
1.276000000000000911,0.094786660053217855
1.277000000000001023,0.094266811931117411
1.278000000000000913,0.093747483112389979
1.279000000000000803,0.093228681561799046
1.280000000000000915,0.092710415163541338
1.281000000000001027,0.092192691721740064
1.282000000000000917,0.091675518960896929
1.283000000000000806,0.091158904526386267
1.284000000000000918,0.090642855984911258
1.285000000000001030,0.090127380824994913
1.286000000000000920,0.089612486457433027
1.287000000000000810,0.089098180215773551
1.288000000000000922,0.088584469356773915
1.289000000000001034,0.088071361060877457
1.290000000000000924,0.087558862432677825
1.291000000000000814,0.087046980501363350
1.292000000000000925,0.086535722221208602
1.293000000000001037,0.086025094471999589
1.294000000000000927,0.085515104059518662
1.295000000000000817,0.085005757715993654
1.296000000000000929,0.084497062100541753
1.297000000000001041,0.083989023799640877
1.298000000000000931,0.083481649327567423
1.299000000000000821,0.082974945126848124
1.300000000000000933,0.082468917568720795
1.301000000000001044,0.081963572953564656
1.302000000000000934,0.081458917511359627
1.303000000000000824,0.080954957402113226
1.304000000000000936,0.080451698716328471
1.305000000000001048,0.079949147475418939
1.306000000000000938,0.079447309632158916
1.307000000000000828,0.078946191071124217
1.308000000000000940,0.078445797609124235
1.309000000000001052,0.077946134995627428
1.310000000000000941,0.077447208913210497
1.311000000000000831,0.076949024977972458
1.312000000000000943,0.076451588739982770
1.313000000000001055,0.075954905683682239
1.314000000000000945,0.075458981228335040
1.315000000000000835,0.074963820728440225
1.316000000000000947,0.074469429474151916
1.317000000000001059,0.073975812691702586
1.318000000000000949,0.073482975543834039
1.319000000000000838,0.072990923130187235
1.320000000000000950,0.072499660487745227
1.321000000000001062,0.072009192591235879
1.322000000000000952,0.071519524353539754
1.323000000000000842,0.071030660626112227
1.324000000000000954,0.070542606199379104
1.325000000000001066,0.070055365803156522
1.326000000000000956,0.069568944107045255
1.327000000000000846,0.069083345720843903
1.328000000000000957,0.068598575194939337
1.329000000000001069,0.068114637020726260
1.330000000000000959,0.067631535630981426
1.331000000000000849,0.067149275400277209
1.332000000000000961,0.066667860645377552
1.333000000000001073,0.066187295625625100
1.334000000000000963,0.065707584543328326
1.335000000000000853,0.065228731544163823
1.336000000000000965,0.064750740717556751
1.337000000000001076,0.064273616097067526
1.338000000000000966,0.063797361660783494
1.339000000000000856,0.063321981331690730
1.340000000000000968,0.062847478978066196
1.341000000000001080,0.062373858413853941
1.342000000000000970,0.061901123399041420
1.343000000000000860,0.061429277640034953
1.344000000000000972,0.060958324790041443
1.345000000000001084,0.060488268449429679
1.346000000000000973,0.060019112166113150
1.347000000000000863,0.059550859435910569
1.348000000000000975,0.059083513702923182
1.349000000000001087,0.058617078359892272
1.350000000000000977,0.058151556748563822
1.351000000000000867,0.057686952160052769
1.352000000000000979,0.057223267835217313
1.353000000000001091,0.056760506964989473
1.354000000000000981,0.056298672690756918
1.355000000000000870,0.055837768104711673
1.356000000000000982,0.055377796250200791
1.357000000000001094,0.054918760122080586
1.358000000000000984,0.054460662667068047
1.359000000000000874,0.054003506784093595
1.360000000000000986,0.053547295324642405
1.361000000000001098,0.053092031093096098
1.362000000000000988,0.052637716847091974
1.363000000000000878,0.052184355297853362
1.364000000000000989,0.051731949110523714
1.365000000000001101,0.051280500904528167
1.366000000000000991,0.050830013253889965
1.367000000000000881,0.050380488687570738
1.368000000000000993,0.049931929689810389
1.369000000000001105,0.049484338700453358
1.370000000000000995,0.049037718115281202
1.371000000000000885,0.048592070286342000
1.372000000000000997,0.048147397522276793
1.373000000000001108,0.047703702088638958
1.374000000000000998,0.047260986208237814
1.375000000000000888,0.046819252061430436
1.376000000000001000,0.046378501786465812
1.377000000000001112,0.045938737479799485
1.378000000000001002,0.045499961196400866
1.379000000000000892,0.045062174950080969
1.380000000000001004,0.044625380713798672
1.381000000000001116,0.044189580419970259
1.382000000000001005,0.043754775960792421
1.383000000000000895,0.043320969188539088
1.384000000000001007,0.042888161915873628
1.385000000000001119,0.042456355916155361
1.386000000000001009,0.042025552923737448
1.387000000000000899,0.041595754634287621
1.388000000000001011,0.041166962705053954
1.389000000000001123,0.040739178755205233
1.390000000000001013,0.040312404366100084
1.391000000000000902,0.039886641081594808
1.392000000000001014,0.039461890408335080
1.393000000000001126,0.039038153816048436
1.394000000000001016,0.038615432737832793
1.395000000000000906,0.038193728570453327
1.396000000000001018,0.037773042674627097
1.397000000000001130,0.037353376375305475
1.398000000000001020,0.036934730961964202
1.399000000000000909,0.036517107688885220
1.400000000000001021,0.036100507775439890
1.401000000000001133,0.035684932406362224
1.402000000000001023,0.035270382732039397
1.403000000000000913,0.034856859868783625
1.404000000000001025,0.034444364899097163
1.405000000000001137,0.034032898871966991
1.406000000000001027,0.033622462803122338
1.407000000000000917,0.033213057675303123
1.408000000000001029,0.032804684438546373
1.409000000000001140,0.032397344010437694
1.410000000000001030,0.031991037276383916
1.411000000000000920,0.031585765089880632
1.412000000000001032,0.031181528272770712
1.413000000000001144,0.030778327615506727
1.414000000000001034,0.030376163877416949
1.415000000000000924,0.029975037786961138
1.416000000000001036,0.029574950041979121
1.417000000000001148,0.029175901309959326
1.418000000000001037,0.028777892228290771
1.419000000000000927,0.028380923404512440
1.420000000000001039,0.027984995416566849
1.421000000000001151,0.027590108813044273
1.422000000000001041,0.027196264113444536
1.423000000000000931,0.026803461808411679
1.424000000000001043,0.026411702359982709
1.425000000000001155,0.026020986201838719
1.426000000000001044,0.025631313739536594
1.427000000000000934,0.025242685350758437
1.428000000000001046,0.024855101385548636
1.429000000000001158,0.024468562166557274
1.430000000000001048,0.024083067989263608
1.431000000000000938,0.023698619122231000
1.432000000000001050,0.023315215807325991
1.433000000000001162,0.022932858259954798
1.434000000000001052,0.022551546669303240
1.435000000000000941,0.022171281198550406
1.436000000000001053,0.021792061985116264
1.437000000000001165,0.021413889140878259
1.438000000000001055,0.021036762752392180
1.439000000000000945,0.020660682881130682
1.440000000000001057,0.020285649563693556
1.441000000000001169,0.019911662812041962
1.442000000000001059,0.019538722613708252
1.443000000000000949,0.019166828932017699
1.444000000000001060,0.018795981706310402
1.445000000000001172,0.018426180852158289
1.446000000000001062,0.018057426261568036
1.447000000000000952,0.017689717803213691
1.448000000000001064,0.017323055322634211
1.449000000000001176,0.016957438642448915
1.450000000000001066,0.016592867562573034
1.451000000000000956,0.016229341860420098
1.452000000000001068,0.015866861291108671
1.453000000000001180,0.015505425587671639
1.454000000000001069,0.015145034461264218
1.455000000000000959,0.014785687601355350
1.456000000000001071,0.014427384675943579
1.457000000000001183,0.014070125331747584
1.458000000000001073,0.013713909194410765
1.459000000000000963,0.013358735868702959
1.460000000000001075,0.013004604938708066
1.461000000000001187,0.012651515968030592
1.462000000000001076,0.012299468499977536
1.463000000000000966,0.011948462057766328
1.464000000000001078,0.011598496144705336
1.465000000000001190,0.011249570244390808
1.466000000000001080,0.010901683820893564
1.467000000000000970,0.010554836318950819
1.468000000000001082,0.010209027164147099
1.469000000000001194,0.009864255763111491
1.470000000000001084,0.009520521503689122
1.471000000000000973,0.009177823755135745
1.472000000000001085,0.008836161868288433
1.473000000000001197,0.008495535175763902
1.474000000000001087,0.008155942992118014
1.475000000000000977,0.007817384614046572
1.476000000000001089,0.007479859320543496
1.477000000000001201,0.007143366373085738
1.478000000000001091,0.006807905015813686
1.479000000000000981,0.006473474475698147
1.480000000000001092,0.006140073962713807
1.481000000000001204,0.005807702670017294
1.482000000000001094,0.005476359774109730
1.483000000000000984,0.005146044435009033
1.484000000000001096,0.004816755796425386
1.485000000000001208,0.004488492985923297
1.486000000000001098,0.004161255115080626
1.487000000000000988,0.003835041279668413
1.488000000000001100,0.003509850559807446
1.489000000000001211,0.003185682020125301
1.490000000000001101,0.002862534709930700
1.491000000000000991,0.002540407663367224
1.492000000000001103,0.002219299899572127
1.493000000000001215,0.001899210422834167
1.494000000000001105,0.001580138222762955
1.495000000000000995,0.001262082274430180
1.496000000000001107,0.000945041538531357
1.497000000000001219,0.000629014961540529
1.498000000000001108,0.000314001475866180
1.499000000000000998,0.000000000000000000
