# Cr2O3-001_MAMM-AC
# h[nm],U(h)[kJ/mol]
0.149999999999999994,108.553016362031982567
0.150999999999999995,106.853974822407650436
0.151999999999999996,105.120318617817048334
0.152999999999999997,103.339168182685128272
0.153999999999999998,101.532850955345708144
0.154999999999999999,99.728615535663180935
0.156000000000000000,97.946979633946781973
0.157000000000000001,96.199276640292595175
0.158000000000000002,94.489136528589909858
0.159000000000000002,92.815141576720350258
0.160000000000000003,91.173351754794481394
0.161000000000000004,89.559200155010387334
0.162000000000000005,87.968673939032242970
0.163000000000000006,86.398884608541408170
0.164000000000000007,84.848194503670143263
0.165000000000000008,83.316065669334349764
0.166000000000000009,81.802768385244405636
0.167000000000000010,80.309049544428873446
0.168000000000000010,78.835825782743000900
0.169000000000000011,77.383937194303456408
0.170000000000000012,75.953975813697724107
0.171000000000000013,74.546188363668065335
0.172000000000000014,73.160443894055589453
0.173000000000000015,71.796252510137321678
0.174000000000000016,70.452820113553499937
0.175000000000000017,69.129124859589225593
0.176000000000000018,67.824003007064533222
0.177000000000000018,66.536234363784515722
0.178000000000000019,65.264620169921272463
0.179000000000000020,64.008048731141499843
0.180000000000000021,62.765546251566526337
0.181000000000000022,61.536312050750403557
0.182000000000000023,60.319738666266722760
0.183000000000000024,59.115418270301915982
0.184000000000000025,57.923137413066669410
0.185000000000000026,56.742862406268216091
0.186000000000000026,55.574717736803698642
0.187000000000000027,54.418959811498247348
0.188000000000000028,53.275948129124458319
0.189000000000000029,52.146115699351426542
0.190000000000000030,51.029940214776708274
0.191000000000000031,49.927917159040845263
0.192000000000000032,48.840535721343584896
0.193000000000000033,47.768258099436422981
0.194000000000000034,46.711502518191956312
0.195000000000000034,45.670630073847235053
0.196000000000000035,44.645935336505822022
0.197000000000000036,43.637640504617010606
0.198000000000000037,42.645892802431703217
0.199000000000000038,41.670764741293133682
0.200000000000000039,40.712256823881823209
0.201000000000000040,39.770302252776509988
0.202000000000000041,38.844773206519690234
0.203000000000000042,37.935488263609883575
0.204000000000000042,37.042220583641025655
0.205000000000000043,36.164706491761378970
0.206000000000000044,35.302654154763814631
0.207000000000000045,34.455752081956212862
0.208000000000000046,33.623677229444197678
0.209000000000000047,32.806102530968033193
0.210000000000000048,32.002703720722166736
0.211000000000000049,31.213165352750053216
0.212000000000000050,30.437185956930079556
0.213000000000000050,29.674482302887803087
0.214000000000000051,28.924792770221085192
0.215000000000000052,28.187879846208954149
0.216000000000000053,27.463531790822020895
0.217000000000000054,26.751563523584604098
0.218000000000000055,26.051816797950266391
0.219000000000000056,25.364159736680811363
0.220000000000000057,24.688485806623553742
0.221000000000000058,24.024712313641295225
0.222000000000000058,23.372778498624917631
0.223000000000000059,22.732643313875005475
0.224000000000000060,22.104282956007146765
0.225000000000000061,21.487688227231210192
0.226000000000000062,20.882861791661433415
0.227000000000000063,20.289815387485710119
0.228000000000000064,19.708567049585415276
0.229000000000000065,19.139138390742452600
0.230000000000000066,18.581551983068031575
0.231000000000000066,18.035828874872233740
0.232000000000000067,17.501986271980221943
0.233000000000000068,16.980035406578803503
0.234000000000000069,16.469979611114219153
0.235000000000000070,15.971812609610207545
0.236000000000000071,15.485517034067058262
0.237000000000000072,15.011063169357388603
0.238000000000000073,14.548407926261642586
0.239000000000000073,14.097494038983461095
0.240000000000000074,13.658249480638824380
0.241000000000000075,13.230587087811645830
0.242000000000000076,12.814404383284520250
0.243000000000000077,12.409583584464224160
0.244000000000000078,12.015991783797014492
0.245000000000000079,11.633481286579055336
0.246000000000000080,11.261890090980731571
0.247000000000000081,10.901042494788155679
0.248000000000000081,10.550749813291128376
0.249000000000000082,10.210811192882415455
0.250000000000000111,9.881014505249885005
0.251000000000000112,9.561137307513645212
0.252000000000000113,9.250947854257706382
0.253000000000000114,8.950206148108156512
0.254000000000000115,8.658665016291786642
0.255000000000000115,8.376071201454251991
0.256000000000000116,8.102166455903756059
0.257000000000000117,7.836688629360628155
0.258000000000000118,7.579372741220316456
0.259000000000000119,7.329952029263880675
0.260000000000000120,7.088158967665878052
0.261000000000000121,6.853726248045705738
0.262000000000000122,6.626387718175837271
0.263000000000000123,6.405879273794484519
0.264000000000000123,6.191939699763874927
0.265000000000000124,5.984311457566596104
0.266000000000000125,5.782741416836363335
0.267000000000000126,5.586981529276173752
0.268000000000000127,5.396789443922656027
0.269000000000000128,5.211929063272248364
0.270000000000000129,5.032171040290970510
0.271000000000000130,4.857293216786438883
0.272000000000000131,4.687081004029671760
0.273000000000000131,4.521327706876082431
0.274000000000000132,4.359834792951888360
0.275000000000000133,4.202412108746091057
0.276000000000000134,4.048878044681083921
0.277000000000000135,3.899059651429790385
0.278000000000000136,3.752792709905324209
0.279000000000000137,3.609921757474388926
0.280000000000000138,3.470300073039468636
0.281000000000000139,3.333789623700007976
0.282000000000000139,3.200260975742261760
0.283000000000000140,3.069593172722831387
0.284000000000000141,2.941673583405306491
0.285000000000000142,2.816397722284546212
0.286000000000000143,2.693669045391389183
0.287000000000000144,2.573398724014221095
0.288000000000000145,2.455505398904053838
0.289000000000000146,2.339914917449812837
0.290000000000000147,2.226560056220243666
0.291000000000000147,2.115380231171791081
0.292000000000000148,2.006321197717674476
0.293000000000000149,1.899334742745150351
0.294000000000000150,1.794378370555519853
0.295000000000000151,1.691414984586766979
0.296000000000000152,1.590412566662691152
0.297000000000000153,1.491343855395707685
0.298000000000000154,1.394186025254157579
0.299000000000000155,1.298920367689816224
0.300000000000000155,1.205531975607662343
0.301000000000000156,1.114009432348933792
0.302000000000000157,1.024344506249756037
0.303000000000000158,0.936531851732731568
0.304000000000000159,0.850568717786825745
0.305000000000000160,0.766454664593351764
0.306000000000000161,0.684191288961858324
0.307000000000000162,0.603781959150210712
0.308000000000000163,0.525231559558178684
0.309000000000000163,0.448546245703001056
0.310000000000000164,0.373733209809328060
0.311000000000000165,0.300800457274451150
0.312000000000000166,0.229756594202531389
0.313000000000000167,0.160610626139084417
0.314000000000000168,0.093371768078906903
0.315000000000000169,0.028049265766752662
0.316000000000000170,-0.035347771739444887
0.317000000000000171,-0.096810528318314326
0.318000000000000171,-0.156330625964737402
0.319000000000000172,-0.213900259054102593
0.320000000000000173,-0.269512317879449070
0.321000000000000174,-0.323160501680201939
0.322000000000000175,-0.374839421408152462
0.323000000000000176,-0.424544692499997545
0.324000000000000177,-0.472273017946422846
0.325000000000000178,-0.518022261965366715
0.326000000000000179,-0.561791514602407394
0.327000000000000179,-0.603581147593344580
0.328000000000000180,-0.643392861834365060
0.329000000000000181,-0.681229726813069036
0.330000000000000182,-0.717096212359127128
0.331000000000000183,-0.750998213077591514
0.332000000000000184,-0.782943065829577067
0.333000000000000185,-0.812939560625726587
0.334000000000000186,-0.840997945296679816
0.335000000000000187,-0.867129924302395105
0.336000000000000187,-0.891348652038539191
0.337000000000000188,-0.913668720993199512
0.338000000000000189,-0.934106145101668117
0.339000000000000190,-0.952678338640173372
0.340000000000000191,-0.969404090991883960
0.341000000000000192,-0.984303537610660917
0.342000000000000193,-0.997398127498852816
0.343000000000000194,-1.008710587506572498
0.344000000000000195,-1.018264883749661731
0.345000000000000195,-1.026086180434071293
0.346000000000000196,-1.032200796363422990
0.347000000000000197,-1.036636159396324031
0.348000000000000198,-1.039420759109081605
0.349000000000000199,-1.040584097908539452
0.350000000000000200,-1.040156640829005275
0.351000000000000201,-1.038169764236069215
0.352000000000000202,-1.034655703649348890
0.353000000000000203,-1.029647500885324529
0.354000000000000203,-1.023178950710657231
0.355000000000000204,-1.015284547185725028
0.356000000000000205,-1.005999429867805661
0.357000000000000206,-0.995359330033023904
0.358000000000000207,-0.983400517065979640
0.359000000000000208,-0.970159745156450981
0.360000000000000209,-0.955674200432803822
0.361000000000000210,-0.939981448652434159
0.362000000000000210,-0.923119383560661810
0.363000000000000211,-0.905126176020610296
0.364000000000000212,-0.886040224008309507
0.365000000000000213,-0.865900103558911005
0.366000000000000214,-0.844744520742240157
0.367000000000000215,-0.822612264738205701
0.368000000000000216,-0.799542162075518648
0.369000000000000217,-0.775573032090019376
0.370000000000000218,-0.750743643652542314
0.371000000000000218,-0.725092673209665306
0.372000000000000219,-0.698658664174916177
0.373000000000000220,-0.671479987702116587
0.374000000000000221,-0.643594804867240966
0.375000000000000222,-0.615041030279871559
0.376000000000000223,-0.585856297140741278
0.377000000000000224,-0.556077923757016590
0.378000000000000225,-0.525742881522826888
0.379000000000000226,-0.494887764368458494
0.380000000000000226,-0.463548759677937183
0.381000000000000227,-0.431761620670979451
0.382000000000000228,-0.399561640242303506
0.383000000000000229,-0.366983626248003181
0.384000000000000230,-0.334061878225883402
0.385000000000000231,-0.300830165534260507
0.386000000000000232,-0.267321706890985333
0.387000000000000233,-0.233569151292569055
0.388000000000000234,-0.199604560291021055
0.389000000000000234,-0.165459391604428435
0.390000000000000235,-0.131164484035421885
0.391000000000000236,-0.096750043670396774
0.392000000000000237,-0.062245631330874004
0.393000000000000238,-0.027680151247379721
0.394000000000000239,0.006918159074979463
0.395000000000000240,0.041521737830760796
0.396000000000000241,0.076103706760655337
0.397000000000000242,0.110637877903201454
0.398000000000000242,0.145098759285154422
0.399000000000000243,0.179461559584496833
0.400000000000000244,0.213702191800318353
0.401000000000000245,0.247797275963824060
0.402000000000000246,0.281724140925182276
0.403000000000000247,0.315460825250648558
0.404000000000000248,0.348986077264485939
0.405000000000000249,0.382279354270067373
0.406000000000000250,0.415320820984359795
0.407000000000000250,0.448091347219678582
0.408000000000000251,0.480572504846388415
0.409000000000000252,0.512746564069735622
0.410000000000000253,0.544596489053708277
0.411000000000000254,0.576105932924255826
0.412000000000000255,0.607259232183782971
0.413000000000000256,0.638041400568198247
0.414000000000000257,0.668438122377383981
0.415000000000000258,0.698435745309130551
0.416000000000000258,0.728021272826200772
0.417000000000000259,0.757182356085325581
0.418000000000000260,0.785907285456410643
0.419000000000000261,0.814184981659481055
0.420000000000000262,0.842004986546188716
0.421000000000000263,0.869357453552014880
0.422000000000000264,0.896233137844580474
0.423000000000000265,0.922623386192762518
0.424000000000000266,0.948520126580451928
0.425000000000000266,0.973915857588300016
0.426000000000000267,0.998803637565784719
0.427000000000000268,1.023177073615389787
0.428000000000000269,1.047030310409854170
0.429000000000000270,1.070358018862697325
0.430000000000000271,1.093155384671608221
0.431000000000000272,1.115418096753401311
0.432000000000000273,1.137142335588666509
0.433000000000000274,1.158324761493409127
0.434000000000000274,1.178962502834390635
0.435000000000000275,1.199053144204073718
0.436000000000000276,1.218594714570454762
0.437000000000000277,1.237585675416422504
0.438000000000000278,1.256024908882533042
0.439000000000000279,1.273911705926501492
0.440000000000000280,1.291245754512096555
0.441000000000000281,1.308027127839456183
0.442000000000000282,1.324256272628201891
0.443000000000000282,1.339933997464286097
0.444000000000000283,1.355061461220700814
0.445000000000000284,1.369640161561806568
0.446000000000000285,1.383671923540442883
0.447000000000000286,1.397158888296272439
0.448000000000000287,1.410103501863620545
0.449000000000000288,1.422508504096207105
0.450000000000000289,1.434376917715960875
0.451000000000000290,1.445712037492449031
0.452000000000000290,1.456517419559061555
0.453000000000000291,1.466796870871674541
0.454000000000000292,1.476554438814975834
0.455000000000000293,1.485794400961362838
0.456000000000000294,1.494521254986776793
0.457000000000000295,1.502739708747550251
0.458000000000000296,1.510454670521921727
0.459000000000000297,1.517671239419518425
0.460000000000000298,1.524394695961758028
0.461000000000000298,1.530630492835804990
0.462000000000000299,1.536384245824345296
0.463000000000000300,1.541661724913231168
0.464000000000000301,1.546468845578625517
0.465000000000000302,1.550811660255092317
0.466000000000000303,1.554696349985787318
0.467000000000000304,1.558129216255617289
0.468000000000000305,1.561116673007989064
0.469000000000000306,1.563665238845604488
0.470000000000000306,1.565781529415410489
0.471000000000000307,1.567472249977748477
0.472000000000000308,1.568744188159391539
0.473000000000000309,1.569604206890109266
0.474000000000000310,1.570059237522103635
0.475000000000000311,1.570116273131564766
0.476000000000000312,1.569782362001372000
0.477000000000000313,1.569064601283884475
0.478000000000000314,1.567970130842558429
0.479000000000000314,1.566506127270988369
0.480000000000000315,1.564679798087933227
0.481000000000000316,1.562498376106630449
0.482000000000000317,1.559969113976727328
0.483000000000000318,1.557099278896936667
0.484000000000000319,1.553896147496536928
0.485000000000000320,1.550367000883633661
0.486000000000000321,1.546519119858122293
0.487000000000000322,1.542359780287140936
0.488000000000000322,1.537896248640785668
0.489000000000000323,1.533135777685730394
0.490000000000000324,1.528085602334419590
0.491000000000000325,1.522752935647371020
0.492000000000000326,1.517144964986147260
0.493000000000000327,1.511268848314442970
0.494000000000000328,1.505131710644753706
0.495000000000000329,1.498740640628041021
0.496000000000000330,1.492102687283773488
0.497000000000000330,1.485224856867690235
0.498000000000000331,1.478114109874669069
0.499000000000000332,1.470777358173979810
0.500000000000000333,1.463221462274252982
0.501000000000000334,1.455453228715496206
0.502000000000000335,1.447479407585406053
0.503000000000000336,1.439306690157318602
0.504000000000000337,1.430941706647084866
0.505000000000000338,1.422391024086157474
0.506000000000000338,1.413661144308222317
0.507000000000000339,1.404758502046676627
0.508000000000000340,1.395689463140304509
0.509000000000000341,1.386460322844466519
0.510000000000000342,1.377077304245188261
0.511000000000000343,1.367546556773513000
0.512000000000000344,1.357874154817529710
0.513000000000000345,1.348066096429481053
0.514000000000000346,1.338128302125400015
0.515000000000000346,1.328066613774754767
0.516000000000000347,1.317886793577596860
0.517000000000000348,1.307594523126696329
0.518000000000000349,1.297195402552278498
0.519000000000000350,1.286694949746897354
0.520000000000000351,1.276098599668072708
0.521000000000000352,1.265411703716330605
0.522000000000000353,1.254639529186345248
0.523000000000000353,1.243787258788854988
0.524000000000000354,1.232859990241138792
0.525000000000000355,1.221862735923799459
0.526000000000000356,1.210800422601704396
0.527000000000000357,1.199677891206887725
0.528000000000000358,1.188499896681357137
0.529000000000000359,1.177271107877686962
0.530000000000000360,1.165996107515388402
0.531000000000000361,1.154679392191031884
0.532000000000000361,1.143325372440190169
0.533000000000000362,1.131938372849231822
0.534000000000000363,1.120522632215137371
0.535000000000000364,1.109082303751427911
0.536000000000000365,1.097621455338443131
0.537000000000000366,1.086144069816159741
0.538000000000000367,1.074654045317851025
0.539000000000000368,1.063155195642840889
0.540000000000000369,1.051651250666748805
0.541000000000000369,1.040145856787545675
0.542000000000000370,1.028642577405885827
0.543000000000000371,1.017144893438132858
0.544000000000000372,1.005656203860574305
0.545000000000000373,0.994179826283357437
0.546000000000000374,0.982718997552695206
0.547000000000000375,0.971276874379958910
0.548000000000000376,0.959856533996251704
0.549000000000000377,0.948460974831172643
0.550000000000000377,0.937093117214441884
0.551000000000000378,0.925755804099132384
0.552000000000000379,0.914451801805290065
0.553000000000000380,0.903183800782711543
0.554000000000000381,0.891954416391764537
0.555000000000000382,0.880766189701063573
0.556000000000000383,0.869621588300956483
0.557000000000000384,0.858523007131704596
0.558000000000000385,0.847472769325362529
0.559000000000000385,0.836473127060314070
0.560000000000000386,0.825526262427520918
0.561000000000000387,0.814634288307514276
0.562000000000000388,0.803799249257230009
0.563000000000000389,0.793023122405773329
0.564000000000000390,0.782307818358296103
0.565000000000000391,0.771655182107101489
0.566000000000000392,0.761066993949222281
0.567000000000000393,0.750544970409645962
0.568000000000000393,0.740090765169483022
0.569000000000000394,0.729705969998295179
0.570000000000000395,0.719392115689945877
0.571000000000000396,0.709150673001244458
0.572000000000000397,0.698983053592738046
0.573000000000000398,0.688890610971063966
0.574000000000000399,0.678874641432192449
0.575000000000000400,0.668936385005028611
0.576000000000000401,0.659077026394789378
0.577000000000000401,0.649297695925602159
0.578000000000000402,0.639599470481832189
0.579000000000000403,0.629983374447637412
0.580000000000000404,0.620450380644236410
0.581000000000000405,0.611001411264485372
0.582000000000000406,0.601637338804280497
0.583000000000000407,0.592358986990378589
0.584000000000000408,0.583167131704243502
0.585000000000000409,0.574062501901525968
0.586000000000000409,0.565045780526794772
0.587000000000000410,0.556117605423187333
0.588000000000000411,0.547278570236651385
0.589000000000000412,0.538529225314418936
0.590000000000000413,0.529870078597464822
0.591000000000000414,0.521301596506620224
0.592000000000000415,0.512824204822081908
0.593000000000000416,0.504438289556066954
0.594000000000000417,0.496144197818350896
0.595000000000000417,0.487942238674469675
0.596000000000000418,0.479832683996368636
0.597000000000000419,0.471815769305280575
0.598000000000000420,0.463891694606658356
0.599000000000000421,0.456060625216960502
0.600000000000000422,0.448322692582132032
0.601000000000000423,0.440677995087632890
0.602000000000000424,0.433126598859842393
0.603000000000000425,0.425668538558706566
0.604000000000000425,0.418303818161537833
0.605000000000000426,0.411032411737805359
0.606000000000000427,0.403854264214815406
0.607000000000000428,0.396769292134245333
0.608000000000000429,0.389777384399314308
0.609000000000000430,0.382878403012680946
0.610000000000000431,0.376072183804834481
0.611000000000000432,0.369358537153020083
0.612000000000000433,0.362737248690620462
0.613000000000000433,0.356208080006900130
0.614000000000000434,0.349770769337139853
0.615000000000000435,0.343425032243090289
0.616000000000000436,0.337170562283713615
0.617000000000000437,0.331007031676202490
0.618000000000000438,0.324934091947274406
0.619000000000000439,0.318951374574715618
0.620000000000000440,0.313058491619174262
0.621000000000000441,0.307255036346216259
0.622000000000000441,0.301540583838639686
0.623000000000000442,0.295914691599086510
0.624000000000000443,0.290376900142930439
0.625000000000000444,0.284926733581497005
0.626000000000000445,0.279563700195637643
0.627000000000000446,0.274287292999685905
0.628000000000000447,0.269096990295816130
0.629000000000000448,0.263992256218883614
0.630000000000000449,0.258972541271764112
0.631000000000000449,0.254037282851230173
0.632000000000000450,0.249185905764454235
0.633000000000000451,0.244417822736138379
0.634000000000000452,0.239732434906393677
0.635000000000000453,0.235129132319370104
0.636000000000000454,0.230607294402736557
0.637000000000000455,0.226166290438062745
0.638000000000000456,0.221805480022177509
0.639000000000000457,0.217524213519577014
0.640000000000000457,0.213321832505925790
0.641000000000000458,0.209197670202794950
0.642000000000000459,0.205151051903625259
0.643000000000000460,0.201181295391075959
0.644000000000000461,0.197287711345776856
0.645000000000000462,0.193469603746610513
0.646000000000000463,0.189726270262592200
0.647000000000000464,0.186057002636420943
0.648000000000000465,0.182461087059806015
0.649000000000000465,0.178937804540656137
0.650000000000000466,0.175486431262200343
0.651000000000000467,0.172106238934165739
0.652000000000000468,0.168796495136059876
0.653000000000000469,0.165556463652700186
0.654000000000000470,0.162385404802023625
0.655000000000000471,0.159282575755324812
0.656000000000000472,0.156247230849982877
0.657000000000000473,0.153278621894795852
0.658000000000000473,0.150375998467977112
0.659000000000000474,0.147538608207956529
0.660000000000000475,0.144765697097057527
0.661000000000000476,0.142056509738147152
0.662000000000000477,0.139410289624350620
0.663000000000000478,0.136826279401947110
0.664000000000000479,0.134303721126505182
0.665000000000000480,0.131841856512417671
0.666000000000000481,0.129439927175833691
0.667000000000000481,0.127097174871210250
0.668000000000000482,0.124812841721447174
0.669000000000000483,0.122586170441811568
0.670000000000000484,0.120416404557674467
0.671000000000000485,0.118302788616192700
0.672000000000000486,0.116244568392025197
0.673000000000000487,0.114240991087142141
0.674000000000000488,0.112291305524893331
0.675000000000000488,0.110394762338362623
0.676000000000000489,0.108550614153118147
0.677000000000000490,0.106758115764488792
0.678000000000000491,0.105016524309400783
0.679000000000000492,0.103325099432907991
0.680000000000000493,0.101683103449504181
0.681000000000000494,0.100089801499265232
0.682000000000000495,0.098544461698984967
0.683000000000000496,0.097046355288314914
0.684000000000000496,0.095594756771057512
0.685000000000000497,0.094188944051667917
0.686000000000000498,0.092828198567051975
0.687000000000000499,0.091511805413777528
0.688000000000000500,0.090239053470737532
0.689000000000000501,0.089009235517390484
0.690000000000000502,0.087821648347630760
0.691000000000000503,0.086675592879402658
0.692000000000000504,0.085570374260121082
0.693000000000000504,0.084505301967965865
0.694000000000000505,0.083479689909185945
0.695000000000000506,0.082492856511410612
0.696000000000000507,0.081544124813129421
0.697000000000000508,0.080632822549365837
0.698000000000000509,0.079758282233635472
0.699000000000000510,0.078919841236268953
0.700000000000000511,0.078116841859183273
0.701000000000000512,0.077348631407149426
0.702000000000000512,0.076614562255663016
0.703000000000000513,0.075913991915462081
0.704000000000000514,0.075246283093781313
0.705000000000000515,0.074610803752409444
0.706000000000000516,0.074006927162621056
0.707000000000000517,0.073434031957035267
0.708000000000000518,0.072891502178516115
0.709000000000000519,0.072378727326100109
0.710000000000000520,0.071895102398125271
0.711000000000000520,0.071440027932516775
0.712000000000000521,0.071012910044379207
0.713000000000000522,0.070613160460918478
0.714000000000000523,0.070240196553748774
0.715000000000000524,0.069893441368684764
0.716000000000000525,0.069572323653028428
0.717000000000000526,0.069276277880466391
0.718000000000000527,0.069004744273586979
0.719000000000000528,0.068757168824116824
0.720000000000000528,0.068533003310877444
0.721000000000000529,0.068331705315617747
0.722000000000000530,0.068152738236641142
0.723000000000000531,0.067995571300419444
0.724000000000000532,0.067859679571147385
0.725000000000000533,0.067744543958330988
0.726000000000000534,0.067649651222480858
0.727000000000000535,0.067574493978908509
0.728000000000000536,0.067518570699731231
0.729000000000000536,0.067481385714099257
0.730000000000000537,0.067462449206695974
0.731000000000000538,0.067461277214593274
0.732000000000000539,0.067477391622455626
0.733000000000000540,0.067510320156190198
0.734000000000000541,0.067559596375045217
0.735000000000000542,0.067624759662246292
0.736000000000000543,0.067705355214159421
0.737000000000000544,0.067800934028086082
0.738000000000000544,0.067911052888667653
0.739000000000000545,0.068035274353004785
0.740000000000000546,0.068173166734477847
0.741000000000000547,0.068324304085354018
0.742000000000000548,0.068488266178153331
0.743000000000000549,0.068664638485927340
0.744000000000000550,0.068853012161354338
0.745000000000000551,0.069052984014780300
0.746000000000000552,0.069264156491211676
0.747000000000000552,0.069486137646283017
0.748000000000000553,0.069718541121272515
0.749000000000000554,0.069960986117153540
0.750000000000000555,0.070213097367741048
0.751000000000000556,0.070474505111981015
0.752000000000000557,0.070744845065357914
0.753000000000000558,0.071023758390544492
0.754000000000000559,0.071310891667213577
0.755000000000000560,0.071605896861139356
0.756000000000000560,0.071908431292554781
0.757000000000000561,0.072218157603831698
0.758000000000000562,0.072534743726496292
0.759000000000000563,0.072857862847588703
0.760000000000000564,0.073187193375436665
0.761000000000000565,0.073522418904838155
0.762000000000000566,0.073863228181685142
0.763000000000000567,0.074209315067062173
0.764000000000000568,0.074560378500839644
0.765000000000000568,0.074916122464769822
0.766000000000000569,0.075276255945154330
0.767000000000000570,0.075640492895042308
0.768000000000000571,0.076008552196055776
0.769000000000000572,0.076380157619787753
0.770000000000000573,0.076755037788858851
0.771000000000000574,0.077132926137611316
0.772000000000000575,0.077513560872489062
0.773000000000000576,0.077896684932106025
0.774000000000000576,0.078282045947027756
0.775000000000000577,0.078669396199287103
0.776000000000000578,0.079058492581657702
0.777000000000000579,0.079449096556680879
0.778000000000000580,0.079840974115506211
0.779000000000000581,0.080233895736512933
0.780000000000000582,0.080627636343777551
0.781000000000000583,0.081021975265351778
0.782000000000000584,0.081416696191423304
0.783000000000000584,0.081811587132338118
0.784000000000000585,0.082206440376495604
0.785000000000000586,0.082601052448170356
0.786000000000000587,0.082995224065226261
0.787000000000000588,0.083388760096773124
0.788000000000000589,0.083781469520772506
0.789000000000000590,0.084173165381575460
0.790000000000000591,0.084563664747463949
0.791000000000000592,0.084952788668147844
0.792000000000000592,0.085340362132272363
0.793000000000000593,0.085726214024925015
0.794000000000000594,0.086110177085169784
0.795000000000000595,0.086492087863588793
0.796000000000000596,0.086871786679907373
0.797000000000000597,0.087249117580620858
0.798000000000000598,0.087623928296717613
0.799000000000000599,0.087996070201465687
0.800000000000000600,0.088365398268267198
0.801000000000000600,0.088731771028627504
0.802000000000000601,0.089095050530204833
0.803000000000000602,0.089455102294980396
0.804000000000000603,0.089811795277535841
0.805000000000000604,0.090165001823461877
0.806000000000000605,0.090514597627913626
0.807000000000000606,0.090860461694275502
0.808000000000000607,0.091202476293009122
0.809000000000000608,0.091540526920641588
0.810000000000000608,0.091874502258900065
0.811000000000000609,0.092204294134066389
0.812000000000000610,0.092529797476442535
0.813000000000000611,0.092850910280059124
0.814000000000000612,0.093167533562532531
0.815000000000000613,0.093479571325125924
0.816000000000000614,0.093786930513029193
0.817000000000000615,0.094089520975820462
0.818000000000000616,0.094387255428145328
0.819000000000000616,0.094680049410621733
0.820000000000000617,0.094967821250958262
0.821000000000000618,0.095250492025294412
0.822000000000000619,0.095527985519768419
0.823000000000000620,0.095800228192331180
0.824000000000000621,0.096067149134793972
0.825000000000000622,0.096328680035106001
0.826000000000000623,0.096584755139888026
0.827000000000000624,0.096835311217215378
0.828000000000000624,0.097080287519644620
0.829000000000000625,0.097319625747514224
0.830000000000000626,0.097553270012472687
0.831000000000000627,0.097781166801300626
0.832000000000000628,0.098003264939967166
0.833000000000000629,0.098219515557981918
0.834000000000000630,0.098429872052992834
0.835000000000000631,0.098634290055663931
0.836000000000000631,0.098832727394827374
0.837000000000000632,0.099025144062905052
0.838000000000000633,0.099211502181620156
0.839000000000000634,0.099391765967971904
0.840000000000000635,0.099565901700492995
0.841000000000000636,0.099733877685809880
0.842000000000000637,0.099895664225449016
0.843000000000000638,0.100051233582964708
0.844000000000000639,0.100200559951328885
0.845000000000000639,0.100343619420617314
0.846000000000000640,0.100480389945987028
0.847000000000000641,0.100610851315923067
0.848000000000000642,0.100734985120800563
0.849000000000000643,0.100852774721727420
0.850000000000000644,0.100964205219651298
0.851000000000000645,0.101069263424812553
0.852000000000000646,0.101167937826431326
0.853000000000000647,0.101260218562720800
0.854000000000000647,0.101346097391186094
0.855000000000000648,0.101425567659203991
0.856000000000000649,0.101498624274905608
0.857000000000000650,0.101565263678340095
0.858000000000000651,0.101625483812948933
0.859000000000000652,0.101679284097311667
0.860000000000000653,0.101726665397184599
0.861000000000000654,0.101767629997851647
0.862000000000000655,0.101802181576727963
0.863000000000000655,0.101830325176297573
0.864000000000000656,0.101852067177298583
0.865000000000000657,0.101867415272231532
0.866000000000000658,0.101876378439129736
0.867000000000000659,0.101878966915625965
0.868000000000000660,0.101875192173316115
0.869000000000000661,0.101865066892395412
0.870000000000000662,0.101848604936582349
0.871000000000000663,0.101825821328319993
0.872000000000000663,0.101796732224280956
0.873000000000000664,0.101761354891130557
0.874000000000000665,0.101719707681584254
0.875000000000000666,0.101671810010736913
0.876000000000000667,0.101617682332678982
0.877000000000000668,0.101557346117384026
0.878000000000000669,0.101490823827865853
0.879000000000000670,0.101418138897630808
0.880000000000000671,0.101339315708374761
0.881000000000000671,0.101254379567982999
0.882000000000000672,0.101163356688771189
0.883000000000000673,0.101066274166016185
0.884000000000000674,0.100963159956744833
0.885000000000000675,0.100854042858794429
0.886000000000000676,0.100738952490130623
0.887000000000000677,0.100617919268432776
0.888000000000000678,0.100490974390950144
0.889000000000000679,0.100358149814594122
0.890000000000000679,0.100219478236313969
0.891000000000000680,0.100074993073711593
0.892000000000000681,0.099924728445920791
0.893000000000000682,0.099768719154738783
0.894000000000000683,0.099607000666010539
0.895000000000000684,0.099439609091249881
0.896000000000000685,0.099266581169530022
0.897000000000000686,0.099087954249605106
0.898000000000000687,0.098903766272278065
0.899000000000000687,0.098714055753021307
0.900000000000000688,0.098518861764826132
0.901000000000000689,0.098318223921301656
0.902000000000000690,0.098112182359998121
0.903000000000000691,0.097900777725982824
0.904000000000000692,0.097684051155635762
0.905000000000000693,0.097462044260686359
0.906000000000000694,0.097234799112469905
0.907000000000000695,0.097002358226429691
0.908000000000000695,0.096764764546819412
0.909000000000000696,0.096522061431662157
0.910000000000000697,0.096274292637898731
0.911000000000000698,0.096021502306785633
0.912000000000000699,0.095763734949493320
0.913000000000000700,0.095501035432918921
0.914000000000000701,0.095233448965743844
0.915000000000000702,0.094961021084657732
0.916000000000000703,0.094683797640834816
0.917000000000000703,0.094401824786594021
0.918000000000000704,0.094115148962281389
0.919000000000000705,0.093823816883350369
0.920000000000000706,0.093527875527640678
0.921000000000000707,0.093227372122874491
0.922000000000000708,0.092922354134340440
0.923000000000000709,0.092612869252768279
0.924000000000000710,0.092298965382423506
0.925000000000000711,0.091980690629369949
0.926000000000000711,0.091658093289940845
0.927000000000000712,0.091331221839392990
0.928000000000000713,0.091000124920752823
0.929000000000000714,0.090664851333839530
0.930000000000000715,0.090325450024490800
0.931000000000000716,0.089981970073955059
0.932000000000000717,0.089634460688462300
0.933000000000000718,0.089282971188995350
0.934000000000000719,0.088927551001210192
0.935000000000000719,0.088568249645548741
0.936000000000000720,0.088205116727524138
0.937000000000000721,0.087838201928171905
0.938000000000000722,0.087467554994664146
0.939000000000000723,0.087093225731114526
0.940000000000000724,0.086715263989521313
0.941000000000000725,0.086333719660895897
0.942000000000000726,0.085948642666534791
0.943000000000000727,0.085560082949474731
0.944000000000000727,0.085168090466082758
0.945000000000000728,0.084772715177812444
0.946000000000000729,0.084374007043132401
0.947000000000000730,0.083972016009569134
0.948000000000000731,0.083566792005946106
0.949000000000000732,0.083158384934731031
0.950000000000000733,0.082746844664569760
0.951000000000000734,0.082332221022923355
0.952000000000000735,0.081914563788896430
0.953000000000000735,0.081493922686174142
0.954000000000000736,0.081070347376111379
0.955000000000000737,0.080643887450962876
0.956000000000000738,0.080214592427249279
0.957000000000000739,0.079782511739256323
0.958000000000000740,0.079347694732677373
0.959000000000000741,0.078910190658376345
0.960000000000000742,0.078470048666289399
0.961000000000000743,0.078027317799456514
0.962000000000000743,0.077582046988177375
0.963000000000000744,0.077134285044296341
0.964000000000000745,0.076684080655604309
0.965000000000000746,0.076231482380378454
0.966000000000000747,0.075776538642026825
0.967000000000000748,0.075319297723871248
0.968000000000000749,0.074859807764021458
0.969000000000000750,0.074398116750400201
0.970000000000000751,0.073934272515848984
0.971000000000000751,0.073468322733379304
0.972000000000000752,0.073000314911518288
0.973000000000000753,0.072530296389752946
0.974000000000000754,0.072058314334120632
0.975000000000000755,0.071584415732869749
0.976000000000000756,0.071108647392248481
0.977000000000000757,0.070631055932392106
0.978000000000000758,0.070151687783317346
0.979000000000000759,0.069670589181000664
0.980000000000000759,0.069187806163595433
0.981000000000000760,0.068703384567708331
0.982000000000000761,0.068217370024788115
0.983000000000000762,0.067729807957624816
0.984000000000000763,0.067240743576928080
0.985000000000000764,0.066750221877995550
0.986000000000000765,0.066258287637491503
0.987000000000000766,0.065764985410303220
0.988000000000000766,0.065270359526491711
0.989000000000000767,0.064774454088324565
0.990000000000000768,0.064277312967404396
0.991000000000000769,0.063778979801886973
0.992000000000000770,0.063279497993770945
0.993000000000000771,0.062778910706270508
0.994000000000000772,0.062277260861295272
0.995000000000000773,0.061774591136973610
0.996000000000000774,0.061270943965289967
0.997000000000000774,0.060766361529777858
0.998000000000000775,0.060260885763301152
0.999000000000000776,0.059754558345909405
1.000000000000000666,0.059247420702767430
1.001000000000000778,0.058739514002156587
1.002000000000000668,0.058230879153555806
1.003000000000000780,0.057721556805785834
1.004000000000000670,0.057211587345233038
1.005000000000000782,0.056701010894128802
1.006000000000000671,0.056189867308912247
1.007000000000000783,0.055678196178656839
1.008000000000000673,0.055166036823552186
1.009000000000000785,0.054653428293462716
1.010000000000000675,0.054140409366549805
1.011000000000000787,0.053627018547951114
1.012000000000000677,0.053113294068519903
1.013000000000000789,0.052599273883636166
1.014000000000000679,0.052084995672074544
1.015000000000000790,0.051570496834917191
1.016000000000000680,0.051055814494543258
1.017000000000000792,0.050540985493667569
1.018000000000000682,0.050026046394433143
1.019000000000000794,0.049511033477565691
1.020000000000000684,0.048995982741569744
1.021000000000000796,0.048480929901992070
1.022000000000000686,0.047965910390733515
1.023000000000000798,0.047450959355401459
1.024000000000000687,0.046936111658733792
1.025000000000000799,0.046421401878048454
1.026000000000000689,0.045906864304760021
1.027000000000000801,0.045392532943936845
1.028000000000000691,0.044878441513904653
1.029000000000000803,0.044364623445897346
1.030000000000000693,0.043851111883760771
1.031000000000000805,0.043337939683678481
1.032000000000000695,0.042825139413976233
1.033000000000000806,0.042312743354931195
1.034000000000000696,0.041800783498652641
1.035000000000000808,0.041289291548993787
1.036000000000000698,0.040778298921500103
1.037000000000000810,0.040267836743391926
1.038000000000000700,0.039757935853615721
1.039000000000000812,0.039248626802897688
1.040000000000000702,0.038739939853851602
1.041000000000000814,0.038231904981121459
1.042000000000000703,0.037724551871573059
1.043000000000000815,0.037217909924491442
1.044000000000000705,0.036712008251838443
1.045000000000000817,0.036206875678540584
1.046000000000000707,0.035702540742794955
1.047000000000000819,0.035199031696425097
1.048000000000000709,0.034696376505265435
1.049000000000000821,0.034194602849562467
1.050000000000000711,0.033693738124434901
1.051000000000000822,0.033193809440327349
1.052000000000000712,0.032694843623528591
1.053000000000000824,0.032196867216695998
1.054000000000000714,0.031699906479414654
1.055000000000000826,0.031203987388788046
1.056000000000000716,0.030709135640046868
1.057000000000000828,0.030215376647193537
1.058000000000000718,0.029722735543668510
1.059000000000000830,0.029231237183039670
1.060000000000000719,0.028740906139714983
1.061000000000000831,0.028251766709691324
1.062000000000000721,0.027763842911311277
1.063000000000000833,0.027277158486045790
1.064000000000000723,0.026791736899314772
1.065000000000000835,0.026307601341309945
1.066000000000000725,0.025824774727842160
1.067000000000000837,0.025343279701231625
1.068000000000000727,0.024863138631177967
1.069000000000000838,0.024384373615695218
1.070000000000000728,0.023907006482029907
1.071000000000000840,0.023431058787618676
1.072000000000000730,0.022956551821055268
1.073000000000000842,0.022483506603079132
1.074000000000000732,0.022011943887586712
1.075000000000000844,0.021541884162642196
1.076000000000000734,0.021073347651523695
1.077000000000000846,0.020606354313779857
1.078000000000000735,0.020140923846292007
1.079000000000000847,0.019677075684371444
1.080000000000000737,0.019214829002845879
1.081000000000000849,0.018754202717188688
1.082000000000000739,0.018295215484639256
1.083000000000000851,0.017837885705348132
1.084000000000000741,0.017382231523529138
1.085000000000000853,0.016928270828634701
1.086000000000000743,0.016476021256532268
1.087000000000000854,0.016025500190696856
1.088000000000000744,0.015576724763411659
1.089000000000000856,0.015129711856997486
1.090000000000000746,0.014684478105024556
1.091000000000000858,0.014241039893555379
1.092000000000000748,0.013799413362394080
1.093000000000000860,0.013359614406338639
1.094000000000000750,0.012921658676453817
1.095000000000000862,0.012485561581341471
1.096000000000000751,0.012051338288424061
1.097000000000000863,0.011619003725247549
1.098000000000000753,0.011188572580770667
1.099000000000000865,0.010760059306676922
1.100000000000000755,0.010333478118700357
1.101000000000000867,0.009908842997936502
1.102000000000000757,0.009486167692181816
1.103000000000000869,0.009065465717264309
1.104000000000000759,0.008646750358398056
1.105000000000000870,0.008230034671517191
1.106000000000000760,0.007815331484650504
1.107000000000000872,0.007402653399265338
1.108000000000000762,0.006992012791641189
1.109000000000000874,0.006583421814242099
1.110000000000000764,0.006176892397091754
1.111000000000000876,0.005772436249153884
1.112000000000000766,0.005370064859713608
1.113000000000000878,0.004969789499771960
1.114000000000000767,0.004571621223429231
1.115000000000000879,0.004175570869291970
1.116000000000000769,0.003781649061862469
1.117000000000000881,0.003389866212945722
1.118000000000000771,0.003000232523051566
1.119000000000000883,0.002612757982802158
1.120000000000000773,0.002227452374339242
1.121000000000000885,0.001844325272742497
1.122000000000000774,0.001463386047435700
1.123000000000000886,0.001084643863606069
1.124000000000000776,0.000708107683614118
1.125000000000000888,0.000333786268423580
1.126000000000000778,-0.000038311820989553
1.127000000000000890,-0.000408178222220848
1.128000000000000780,-0.000775804770001906
1.129000000000000892,-0.001141183494795550
1.130000000000000782,-0.001504306621365298
1.131000000000000894,-0.001865166567357462
1.132000000000000783,-0.002223755941877123
1.133000000000000895,-0.002580067544075243
1.134000000000000785,-0.002934094361713030
1.135000000000000897,-0.003285829569760729
1.136000000000000787,-0.003635266528960729
1.137000000000000899,-0.003982398784423335
1.138000000000000789,-0.004327220064194120
1.139000000000000901,-0.004669724277859106
1.140000000000000790,-0.005009905515109786
1.141000000000000902,-0.005347758044334705
1.142000000000000792,-0.005683276311215879
1.143000000000000904,-0.006016454937310472
1.144000000000000794,-0.006347288718650030
1.145000000000000906,-0.006675772624321103
1.146000000000000796,-0.007001901795078725
1.147000000000000908,-0.007325671541932926
1.148000000000000798,-0.007647077344752617
1.149000000000000909,-0.007966114850871448
1.150000000000000799,-0.008282779873688478
1.151000000000000689,-0.008597068391283224
1.152000000000000801,-0.008908976545024417
1.153000000000000913,-0.009218500638185656
1.154000000000000803,-0.009525637134562347
1.155000000000000693,-0.009830382657091125
1.156000000000000805,-0.010132733986484038
1.157000000000000917,-0.010432688059840245
1.158000000000000806,-0.010730241969293803
1.159000000000000696,-0.011025392960639280
1.160000000000000808,-0.011318138431972153
1.161000000000000920,-0.011608475932334644
1.162000000000000810,-0.011896403160361963
1.163000000000000700,-0.012181917962928595
1.164000000000000812,-0.012465018333810668
1.165000000000000924,-0.012745702412335996
1.166000000000000814,-0.013023968482056775
1.167000000000000703,-0.013299814969410712
1.168000000000000815,-0.013573240442398654
1.169000000000000927,-0.013844243609253137
1.170000000000000817,-0.014112823317130829
1.171000000000000707,-0.014378978550785964
1.172000000000000819,-0.014642708431274543
1.173000000000000931,-0.014904012214640388
1.174000000000000821,-0.015162889290615067
1.175000000000000711,-0.015419339181330382
1.176000000000000822,-0.015673361540025098
1.177000000000000934,-0.015924956149756891
1.178000000000000824,-0.016174122922130330
1.179000000000000714,-0.016420861896012134
1.180000000000000826,-0.016665173236276577
1.181000000000000938,-0.016907057232527618
1.182000000000000828,-0.017146514297847748
1.183000000000000718,-0.017383544967545871
1.184000000000000830,-0.017618149897908643
1.185000000000000941,-0.017850329864950980
1.186000000000000831,-0.018080085763195176
1.187000000000000721,-0.018307418604423604
1.188000000000000833,-0.018532329516464476
1.189000000000000945,-0.018754819741969186
1.190000000000000835,-0.018974890637198278
1.191000000000000725,-0.019192543670806621
1.192000000000000837,-0.019407780422659487
1.193000000000000949,-0.019620602582611328
1.194000000000000838,-0.019831011949338024
1.195000000000000728,-0.020039010429134856
1.196000000000000840,-0.020244600034747300
1.197000000000000952,-0.020447782884198747
1.198000000000000842,-0.020648561199614852
1.199000000000000732,-0.020846937306077579
1.200000000000000844,-0.021042913630448475
1.201000000000000956,-0.021236492700244348
1.202000000000000846,-0.021427677142476963
1.203000000000000735,-0.021616469682525917
1.204000000000000847,-0.021802873143000074
1.205000000000000959,-0.021986890442625379
1.206000000000000849,-0.022168524595115979
1.207000000000000739,-0.022347778708064085
1.208000000000000851,-0.022524655981840523
1.209000000000000963,-0.022699159708489958
1.210000000000000853,-0.022871293270638582
1.211000000000000743,-0.023041060140409332
1.212000000000000854,-0.023208463878339126
1.213000000000000966,-0.023373508132302580
1.214000000000000856,-0.023536196636453770
1.215000000000000746,-0.023696533210149768
1.216000000000000858,-0.023854521756910545
1.217000000000000970,-0.024010166263357974
1.218000000000000860,-0.024163470798177794
1.219000000000000750,-0.024314439511086427
1.220000000000000862,-0.024463076631796948
1.221000000000000973,-0.024609386468994836
1.222000000000000863,-0.024753373409326096
1.223000000000000753,-0.024895041916379333
1.224000000000000865,-0.025034396529686604
1.225000000000000977,-0.025171441863724598
1.226000000000000867,-0.025306182606921201
1.227000000000000757,-0.025438623520671368
1.228000000000000869,-0.025568769438353768
1.229000000000000981,-0.025696625264372237
1.230000000000000870,-0.025822195973167518
1.231000000000000760,-0.025945486608275992
1.232000000000000872,-0.026066502281374138
1.233000000000000984,-0.026185248171315435
1.234000000000000874,-0.026301729523213791
1.235000000000000764,-0.026415951647487491
1.236000000000000876,-0.026527919918946485
1.237000000000000988,-0.026637639775859735
1.238000000000000878,-0.026745116719049795
1.239000000000000767,-0.026850356310974620
1.240000000000000879,-0.026953364174834016
1.241000000000000991,-0.027054145993664520
1.242000000000000881,-0.027152707509455021
1.243000000000000771,-0.027249054522261014
1.244000000000000883,-0.027343192889326608
1.245000000000000995,-0.027435128524216968
1.246000000000000885,-0.027524867395949160
1.247000000000000774,-0.027612415528134659
1.248000000000000886,-0.027697778998127441
1.249000000000000998,-0.027780963936178758
1.250000000000000888,-0.027861976524597497
1.251000000000000778,-0.027940822996910659
1.252000000000000890,-0.028017509637046245
1.253000000000001002,-0.028092042778498527
1.254000000000000892,-0.028164428803528256
1.255000000000000782,-0.028234674142339565
1.256000000000000894,-0.028302785272285018
1.257000000000001005,-0.028368768717067654
1.258000000000000895,-0.028432631045948197
1.259000000000000785,-0.028494378872960913
1.260000000000000897,-0.028554018856136499
1.261000000000001009,-0.028611557696729951
1.262000000000000899,-0.028667002138449006
1.263000000000000789,-0.028720358966699701
1.264000000000000901,-0.028771635007830899
1.265000000000001013,-0.028820837128381370
1.266000000000000902,-0.028867972234340171
1.267000000000000792,-0.028913047270411819
1.268000000000000904,-0.028956069219281420
1.269000000000001016,-0.028997045100892620
1.270000000000000906,-0.029035981971729428
1.271000000000000796,-0.029072886924099917
1.272000000000000908,-0.029107767085428803
1.273000000000001020,-0.029140629617560910
1.274000000000000909,-0.029171481716060498
1.275000000000000799,-0.029200330609520143
1.276000000000000911,-0.029227183558885195
1.277000000000001023,-0.029252047856762713
1.278000000000000913,-0.029274930826758867
1.279000000000000803,-0.029295839822807580
1.280000000000000915,-0.029314782228513102
1.281000000000001027,-0.029331765456479857
1.282000000000000917,-0.029346796947685300
1.283000000000000806,-0.029359884170814400
1.284000000000000918,-0.029371034621634227
1.285000000000001030,-0.029380255822350699
1.286000000000000920,-0.029387555320989099
1.287000000000000810,-0.029392940690762454
1.288000000000000922,-0.029396419529465388
1.289000000000001034,-0.029397999458852391
1.290000000000000924,-0.029397688124033105
1.291000000000000814,-0.029395493192880606
1.292000000000000925,-0.029391422355420659
1.293000000000001037,-0.029385483323257057
1.294000000000000927,-0.029377683828977274
1.295000000000000817,-0.029368031625573027
1.296000000000000929,-0.029356534485871232
1.297000000000001041,-0.029343200201957936
1.298000000000000931,-0.029328036584622498
1.299000000000000821,-0.029311051462793634
1.300000000000000933,-0.029292252682983810
1.301000000000001044,-0.029271648108747671
1.302000000000000934,-0.029249245620131842
1.303000000000000824,-0.029225053113144876
1.304000000000000936,-0.029199078499211283
1.305000000000001048,-0.029171329704658328
1.306000000000000938,-0.029141814670183768
1.307000000000000828,-0.029110541350337527
1.308000000000000940,-0.029077517713009964
1.309000000000001052,-0.029042751738929829
1.310000000000000941,-0.029006251421150875
1.311000000000000831,-0.028968024764559092
1.312000000000000943,-0.028928079785372630
1.313000000000001055,-0.028886424510668595
1.314000000000000945,-0.028843066977879878
1.315000000000000835,-0.028798015234325142
1.316000000000000947,-0.028751277336736259
1.317000000000001059,-0.028702861350785501
1.318000000000000949,-0.028652775350614855
1.319000000000000838,-0.028601027418389630
1.320000000000000950,-0.028547625643828817
1.321000000000001062,-0.028492578123758189
1.322000000000000952,-0.028435892961667895
1.323000000000000842,-0.028377578267262882
1.324000000000000954,-0.028317642156032684
1.325000000000001066,-0.028256092748809646
1.326000000000000956,-0.028192938171351191
1.327000000000000846,-0.028128186553904106
1.328000000000000957,-0.028061846030794969
1.329000000000001069,-0.027993924740003923
1.330000000000000959,-0.027924430822765828
1.331000000000000849,-0.027853372423154131
1.332000000000000961,-0.027780757687679691
1.333000000000001073,-0.027706594764894656
1.334000000000000963,-0.027630891805001539
1.335000000000000853,-0.027553656959454630
1.336000000000000965,-0.027474898380585294
1.337000000000001076,-0.027394624221211573
1.338000000000000966,-0.027312842634264912
1.339000000000000856,-0.027229561772418493
1.340000000000000968,-0.027144789787715139
1.341000000000001080,-0.027058534831202317
1.342000000000000970,-0.026970805052574997
1.343000000000000860,-0.026881608599814984
1.344000000000000972,-0.026790953618837522
1.345000000000001084,-0.026698848253150026
1.346000000000000973,-0.026605300643494728
1.347000000000000863,-0.026510318927518428
1.348000000000000975,-0.026413911239426536
1.349000000000001087,-0.026316085709656468
1.350000000000000977,-0.026216850464547144
1.351000000000000867,-0.026116213626010677
1.352000000000000979,-0.026014183311206029
1.353000000000001091,-0.025910767632234145
1.354000000000000981,-0.025805974695812594
1.355000000000000870,-0.025699812602964257
1.356000000000000982,-0.025592289448716370
1.357000000000001094,-0.025483413321795722
1.358000000000000984,-0.025373192304323527
1.359000000000000874,-0.025261634471523815
1.360000000000000986,-0.025148747891429651
1.361000000000001098,-0.025034540624597212
1.362000000000000988,-0.024919020723810935
1.363000000000000878,-0.024802196233810275
1.364000000000000989,-0.024684075191011703
1.365000000000001101,-0.024564665623222300
1.366000000000000991,-0.024443975549379555
1.367000000000000881,-0.024322012979278725
1.368000000000000993,-0.024198785913308013
1.369000000000001105,-0.024074302342183669
1.370000000000000995,-0.023948570246698130
1.371000000000000885,-0.023821597597458499
1.372000000000000997,-0.023693392354637799
1.373000000000001108,-0.023563962467729953
1.374000000000000998,-0.023433315875290472
1.375000000000000888,-0.023301460504715477
1.376000000000001000,-0.023168404271985198
1.377000000000001112,-0.023034155081434339
1.378000000000001002,-0.022898720825521367
1.379000000000000892,-0.022762109384595042
1.380000000000001004,-0.022624328626668744
1.381000000000001116,-0.022485386407201550
1.382000000000001005,-0.022345290568869813
1.383000000000000895,-0.022204048941354273
1.384000000000001007,-0.022061669341127368
1.385000000000001119,-0.021918159571237172
1.386000000000001009,-0.021773527421103035
1.387000000000000899,-0.021627780666301576
1.388000000000001011,-0.021480927068381624
1.389000000000001123,-0.021332974374642016
1.390000000000001013,-0.021183930317950444
1.391000000000000902,-0.021033802616541815
1.392000000000001014,-0.020882598973829002
1.393000000000001126,-0.020730327078215153
1.394000000000001016,-0.020576994602907184
1.395000000000000906,-0.020422609205731104
1.396000000000001018,-0.020267178528950276
1.397000000000001130,-0.020110710199092087
1.398000000000001020,-0.019953211826772101
1.399000000000000909,-0.019794691006515895
1.400000000000001021,-0.019635155316594849
1.401000000000001133,-0.019474612318858914
1.402000000000001023,-0.019313069558567698
1.403000000000000913,-0.019150534564230482
1.404000000000001025,-0.018987014847449250
1.405000000000001137,-0.018822517902757456
1.406000000000001027,-0.018657051207465653
1.407000000000000917,-0.018490622221517317
1.408000000000001029,-0.018323238387324099
1.409000000000001140,-0.018154907129632764
1.410000000000001030,-0.017985635855373969
1.411000000000000920,-0.017815431953520384
1.412000000000001032,-0.017644302794943879
1.413000000000001144,-0.017472255732286550
1.414000000000001034,-0.017299298099815470
1.415000000000000924,-0.017125437213292551
1.416000000000001036,-0.016950680369848627
1.417000000000001148,-0.016775034847850846
1.418000000000001037,-0.016598507906774335
1.419000000000000927,-0.016421106787080676
1.420000000000001039,-0.016242838710096508
1.421000000000001151,-0.016063710877895716
1.422000000000001041,-0.015883730473175307
1.423000000000000931,-0.015702904659147261
1.424000000000001043,-0.015521240579421220
1.425000000000001155,-0.015338745357894460
1.426000000000001044,-0.015155426098642923
1.427000000000000934,-0.014971289885815591
1.428000000000001046,-0.014786343783528000
1.429000000000001158,-0.014600594835757296
1.430000000000001048,-0.014414050066249092
1.431000000000000938,-0.014226716478407364
1.432000000000001050,-0.014038601055209090
1.433000000000001162,-0.013849710759102371
1.434000000000001052,-0.013660052531913203
1.435000000000000941,-0.013469633294761262
1.436000000000001053,-0.013278459947962108
1.437000000000001165,-0.013086539370944414
1.438000000000001055,-0.012893878422168062
1.439000000000000945,-0.012700483939033743
1.440000000000001057,-0.012506362737807386
1.441000000000001169,-0.012311521613534293
1.442000000000001059,-0.012115967339964550
1.443000000000000949,-0.011919706669482912
1.444000000000001060,-0.011722746333023676
1.445000000000001172,-0.011525093040000092
1.446000000000001062,-0.011326753478245246
1.447000000000000952,-0.011127734313924288
1.448000000000001064,-0.010928042191482239
1.449000000000001176,-0.010727683733572585
1.450000000000001066,-0.010526665540990835
1.451000000000000956,-0.010324994192614836
1.452000000000001068,-0.010122676245345149
1.453000000000001180,-0.009919718234043324
1.454000000000001069,-0.009716126671474212
1.455000000000000959,-0.009511908048253939
1.456000000000001071,-0.009307068832788435
1.457000000000001183,-0.009101615471230342
1.458000000000001073,-0.008895554387418727
1.459000000000000963,-0.008688891982832949
1.460000000000001075,-0.008481634636545379
1.461000000000001187,-0.008273788705171623
1.462000000000001076,-0.008065360522832252
1.463000000000000966,-0.007856356401098569
1.464000000000001078,-0.007646782628958067
1.465000000000001190,-0.007436645472773833
1.466000000000001080,-0.007225951176237727
1.467000000000000970,-0.007014705960340440
1.468000000000001082,-0.006802916023331980
1.469000000000001194,-0.006590587540683475
1.470000000000001084,-0.006377726665058395
1.471000000000000973,-0.006164339526274799
1.472000000000001085,-0.005950432231281744
1.473000000000001197,-0.005736010864119330
1.474000000000001087,-0.005521081485899235
1.475000000000000977,-0.005305650134769720
1.476000000000001089,-0.005089722825897843
1.477000000000001201,-0.004873305551438268
1.478000000000001091,-0.004656404280512190
1.479000000000000981,-0.004439024959185651
1.480000000000001092,-0.004221173510445904
1.481000000000001204,-0.004002855834187156
1.482000000000001094,-0.003784077807185455
1.483000000000000984,-0.003564845283088614
1.484000000000001096,-0.003345164092392462
1.485000000000001208,-0.003125040042428576
1.486000000000001098,-0.002904478917355543
1.487000000000000988,-0.002683486478138872
1.488000000000001100,-0.002462068462541509
1.489000000000001211,-0.002240230585117817
1.490000000000001101,-0.002017978537199179
1.491000000000000991,-0.001795317986886071
1.492000000000001103,-0.001572254579044981
1.493000000000001215,-0.001348793935299169
1.494000000000001105,-0.001124941654021105
1.495000000000000995,-0.000900703310333993
1.496000000000001107,-0.000676084456106163
1.497000000000001219,-0.000451090619948749
1.498000000000001108,-0.000225727307215183
1.499000000000000998,0.000000000000000000
