# Cr2O3-001_HUMICACID-NEUTRAL-AC
# h[nm],U(h)[kJ/mol]
0.149999999999999994,214.355223319512020907
0.150999999999999995,213.876890721437177945
0.151999999999999996,210.531033775725290980
0.152999999999999997,206.666227614120771250
0.153999999999999998,203.090333661726475611
0.154999999999999999,199.916993811440704576
0.156000000000000000,197.009461138019929649
0.157000000000000001,194.192405187351653240
0.158000000000000002,191.336391879607674582
0.159000000000000002,188.377474032110768576
0.160000000000000003,185.307720793380298119
0.161000000000000004,182.156137999658938043
0.162000000000000005,178.969645949226247694
0.163000000000000006,175.798166440607047889
0.164000000000000007,172.684836977477004893
0.165000000000000008,169.660886261119486562
0.166000000000000009,166.744114946590997306
0.167000000000000010,163.939819894172615022
0.168000000000000010,161.243130934930263720
0.169000000000000011,158.641952232360665676
0.170000000000000012,156.119936581291369748
0.171000000000000013,153.659131266851716191
0.172000000000000014,151.242102776828573951
0.173000000000000015,148.853472224994533235
0.174000000000000016,146.480877995363329092
0.175000000000000017,144.115433875265409824
0.176000000000000018,141.751777442720253930
0.177000000000000018,139.387811797798917723
0.178000000000000019,137.024239891084391729
0.179000000000000020,134.663979487653449496
0.180000000000000021,132.311531813513482803
0.181000000000000022,129.972360730501634407
0.182000000000000023,127.652323592975704969
0.183000000000000024,125.357180808382764781
0.184000000000000025,123.092199110472023449
0.185000000000000026,120.861853860706716546
0.186000000000000026,118.669628283286940018
0.187000000000000027,116.517902225213717315
0.188000000000000028,114.407919544976749648
0.189000000000000029,112.339821266517404297
0.190000000000000030,110.312730881471637190
0.191000000000000031,108.324878353426583999
0.192000000000000032,106.373750215147566678
0.193000000000000033,104.456254432578589331
0.194000000000000034,102.568890255584918236
0.195000000000000034,100.707914939785069919
0.196000000000000035,98.869500895330403978
0.197000000000000036,97.049878415979023316
0.198000000000000037,95.245460609505897764
0.199000000000000038,93.452948453552963315
0.200000000000000039,91.669415021292337542
0.201000000000000040,89.892368853484555302
0.202000000000000041,88.119797201971422851
0.203000000000000042,86.350190445428125940
0.204000000000000042,84.582549396842665601
0.205000000000000043,82.816377501840079844
0.206000000000000044,81.051660086914736780
0.207000000000000045,79.288832876243802161
0.208000000000000046,77.528741973659847986
0.209000000000000047,75.772597419918923833
0.210000000000000048,74.021922300345167400
0.211000000000000049,72.278499208193437653
0.212000000000000050,70.544315676680525939
0.213000000000000050,68.821509987789696083
0.214000000000000051,67.112318557047316858
0.215000000000000052,65.419025887278991149
0.216000000000000053,63.743917886142511975
0.217000000000000054,62.089239155955034732
0.218000000000000055,60.457154692787732131
0.219000000000000056,58.849716276806589121
0.220000000000000057,57.268833698392803910
0.221000000000000058,55.716250845015238724
0.222000000000000058,54.193526571927307600
0.223000000000000059,52.702020194911767703
0.224000000000000060,51.242881374549355655
0.225000000000000061,49.817044107687841858
0.226000000000000062,48.425224501630893315
0.227000000000000063,47.067921978664152505
0.228000000000000064,45.745423541474636409
0.229000000000000065,44.457810722388515501
0.230000000000000066,43.204968839795910185
0.231000000000000066,41.986598192345354619
0.232000000000000067,40.802226834270996392
0.233000000000000068,39.651224592440591721
0.234000000000000069,38.532818006371002184
0.235000000000000070,37.446105895642290307
0.236000000000000071,36.390075284046545789
0.237000000000000072,35.363617435733601724
0.238000000000000073,34.365543784960166818
0.239000000000000073,33.394601567303610068
0.240000000000000074,32.449488985936739027
0.241000000000000075,31.528869771438131409
0.242000000000000076,30.631387017353524982
0.243000000000000077,29.755676196119317467
0.244000000000000078,28.900377280857249218
0.245000000000000079,28.064145917842854061
0.246000000000000080,27.245663612081365557
0.247000000000000081,26.443646904363799166
0.248000000000000081,25.656855532434384770
0.249000000000000082,24.884099581504479204
0.250000000000000111,24.124245640353088049
0.251000000000000112,23.376221988725191636
0.252000000000000113,22.639022849758138278
0.253000000000000114,21.911711747825250995
0.254000000000000115,21.193424017573814666
0.255000000000000115,20.483368514159977281
0.256000000000000116,19.780828577838732940
0.257000000000000117,19.085162308259572939
0.258000000000000118,18.395802205145308506
0.259000000000000119,17.712254232587447689
0.260000000000000120,17.034096364071547924
0.261000000000000121,16.360976664638137379
0.262000000000000122,15.692610965369677700
0.263000000000000123,15.028780183753474020
0.264000000000000123,14.369327341471954895
0.265000000000000124,13.714154328886269951
0.266000000000000125,13.063218462963581246
0.267000000000000126,12.416528882710688109
0.268000000000000127,11.774142823363501265
0.269000000000000128,11.136161807691085102
0.270000000000000129,10.502727789840152539
0.271000000000000130,9.874019284206928759
0.272000000000000131,9.250247508909486882
0.273000000000000131,8.631652570567343474
0.274000000000000132,8.018499714301277947
0.275000000000000133,7.411075660160723722
0.276000000000000134,6.809685044584746549
0.277000000000000135,6.214646983018096371
0.278000000000000136,5.626291767442327618
0.279000000000000137,5.044957710353948244
0.280000000000000138,4.470988144629781225
0.281000000000000139,3.904728586765321641
0.282000000000000139,3.346524069159942716
0.283000000000000140,2.796716645448170446
0.284000000000000141,2.255643071341331130
0.285000000000000142,1.723632662042902997
0.286000000000000143,1.201005326032142495
0.287000000000000144,0.688069773869132595
0.288000000000000145,0.185121899653948929
0.289000000000000146,-0.307556668128420641
0.290000000000000147,-0.789699850439097406
0.291000000000000147,-1.261058240938996766
0.292000000000000148,-1.721400074000824176
0.293000000000000149,-2.170512043308920447
0.294000000000000150,-2.608199977286213667
0.295000000000000151,-3.034289377915486696
0.296000000000000152,-3.448625829777420826
0.297000000000000153,-3.851075286314061596
0.298000000000000154,-4.241524240451671979
0.299000000000000155,-4.619879786784762743
0.300000000000000155,-4.986069582540579859
0.301000000000000156,-5.340041714514340399
0.302000000000000157,-5.681764479096828246
0.303000000000000158,-6.011226082409335092
0.304000000000000159,-6.328434267424182913
0.305000000000000160,-6.633415874783331390
0.306000000000000161,-6.926216343839169731
0.307000000000000162,-7.206899160232046242
0.308000000000000163,-7.475545256093289126
0.309000000000000163,-7.732252368722742908
0.310000000000000164,-7.977134363339307477
0.311000000000000165,-8.210320525243981038
0.312000000000000166,-8.431954826470153819
0.313000000000000167,-8.642195171727426128
0.314000000000000168,-8.841212628174593746
0.315000000000000169,-9.029190643287307694
0.316000000000000170,-9.206324254816959041
0.317000000000000171,-9.372819296571005765
0.318000000000000171,-9.528891603483229389
0.319000000000000172,-9.674766219185892524
0.320000000000000173,-9.810676609044472585
0.321000000000000174,-9.936863881372321572
0.322000000000000175,-10.053576019306147415
0.323000000000000176,-10.161067125595071303
0.324000000000000177,-10.259596682336283635
0.325000000000000178,-10.349428827479378867
0.326000000000000179,-10.430831649720378351
0.327000000000000179,-10.504076503213280347
0.328000000000000180,-10.569437343344645797
0.329000000000000181,-10.627190084643345358
0.330000000000000182,-10.677611981732962221
0.331000000000000183,-10.720981034080816485
0.332000000000000184,-10.757575415151357845
0.333000000000000185,-10.787672926436071563
0.334000000000000186,-10.811550476704992363
0.335000000000000187,-10.829483586706157183
0.336000000000000187,-10.841745919430033851
0.337000000000000188,-10.848608835953768903
0.338000000000000189,-10.850340976787283154
0.339000000000000190,-10.847207868556917987
0.340000000000000191,-10.839471555784021106
0.341000000000000192,-10.827390257444800881
0.342000000000000193,-10.811218047933047970
0.343000000000000194,-10.791204561989719224
0.344000000000000195,-10.767594723110889277
0.345000000000000195,-10.740628494900715140
0.346000000000000196,-10.710540654794524329
0.347000000000000197,-10.677560589542947511
0.348000000000000198,-10.641912111817285691
0.349000000000000199,-10.603813297270948013
0.350000000000000200,-10.563476341370698464
0.351000000000000201,-10.521107435294098309
0.352000000000000202,-10.476906660176339869
0.353000000000000203,-10.431067898979989650
0.354000000000000203,-10.383778765254449539
0.355000000000000204,-10.335220548048321021
0.356000000000000205,-10.285568172237555373
0.357000000000000206,-10.234990173533791591
0.358000000000000207,-10.183648687441342773
0.359000000000000208,-10.131699451437949477
0.360000000000000209,-10.079291819662421048
0.361000000000000210,-10.026568789402162452
0.362000000000000210,-9.973667038685437802
0.363000000000000211,-9.920716974295725521
0.364000000000000212,-9.867842789540105741
0.365000000000000213,-9.815162531118513556
0.366000000000000214,-9.762788174457107004
0.367000000000000215,-9.710825706885847453
0.368000000000000216,-9.659375218058249501
0.369000000000000217,-9.608530997029273379
0.370000000000000218,-9.558381635426346890
0.371000000000000218,-9.509010136167232119
0.372000000000000219,-9.460494027198198097
0.373000000000000220,-9.412905479745205639
0.374000000000000221,-9.366311430590641862
0.375000000000000222,-9.320773707907530792
0.376000000000000223,-9.276349160203389843
0.377000000000000224,-9.233089787944681603
0.378000000000000225,-9.191042877452940019
0.379000000000000226,-9.150251136682214792
0.380000000000000226,-9.110752832507140297
0.381000000000000227,-9.072581929168881842
0.382000000000000228,-9.035768227545188935
0.383000000000000229,-9.000337504928459964
0.384000000000000230,-8.966311655013338822
0.385000000000000231,-8.933708827812941067
0.386000000000000232,-8.902543569239131926
0.387000000000000233,-8.872826960099009952
0.388000000000000234,-8.844566754275451359
0.389000000000000234,-8.817767515875180706
0.390000000000000235,-8.792430755142524035
0.391000000000000236,-8.768555062951850942
0.392000000000000237,-8.746136243705235458
0.393000000000000238,-8.725167446475817101
0.394000000000000239,-8.705639294249923665
0.395000000000000240,-8.687540011133823015
0.396000000000000241,-8.670855547402746666
0.397000000000000242,-8.655569702281471933
0.398000000000000242,-8.641664244356761060
0.399000000000000243,-8.629119029532366980
0.400000000000000244,-8.617912116447527637
0.401000000000000245,-8.608019879289559029
0.402000000000000246,-8.599417117939845312
0.403000000000000247,-8.592077165401899919
0.404000000000000248,-8.585971992467770875
0.405000000000000249,-8.581072309587408853
0.406000000000000250,-8.577347665912581576
0.407000000000000250,-8.574766545494306058
0.408000000000000251,-8.573296460619044268
0.409000000000000252,-8.572904042275412806
0.410000000000000253,-8.573555127748706539
0.411000000000000254,-8.575214845346270209
0.412000000000000255,-8.577847696261699184
0.413000000000000256,-8.581417633590806560
0.414000000000000257,-8.585888138516523327
0.415000000000000258,-8.591222293684378286
0.416000000000000258,-8.597382853793686053
0.417000000000000259,-8.604332313433435075
0.418000000000000260,-8.612032972194992198
0.419000000000000261,-8.620446997096726349
0.420000000000000262,-8.629536482358544092
0.421000000000000263,-8.639263506566804196
0.422000000000000264,-8.649590187272064412
0.423000000000000265,-8.660478733064756796
0.424000000000000266,-8.671891493175191812
0.425000000000000266,-8.683791004646113976
0.426000000000000267,-8.696140037127580769
0.427000000000000268,-8.708901635345101866
0.428000000000000269,-8.722039159292986454
0.429000000000000270,-8.735516322205986839
0.430000000000000271,-8.749297226362852342
0.431000000000000272,-8.763346396776256597
0.432000000000000273,-8.777628812823888182
0.433000000000000274,-8.792109937875885350
0.434000000000000274,-8.806755746974138432
0.435000000000000275,-8.821532752618931994
0.436000000000000276,-8.836408028718530261
0.437000000000000277,-8.851349232757190322
0.438000000000000278,-8.866324626236908202
0.439000000000000279,-8.881303093447920460
0.440000000000000280,-8.896254158622642905
0.441000000000000281,-8.911148001527273266
0.442000000000000282,-8.925955471544982700
0.443000000000000282,-8.940648100303594248
0.444000000000000283,-8.955198112900710328
0.445000000000000284,-8.969578437777899538
0.446000000000000285,-8.983762715295281254
0.447000000000000286,-8.997725305057038270
0.448000000000000287,-9.011441292037243755
0.449000000000000288,-9.024886491555061951
0.450000000000000289,-9.038037453147058642
0.451000000000000290,-9.050871463383703741
0.452000000000000290,-9.063366547676253049
0.453000000000000291,-9.075501471118956331
0.454000000000000292,-9.087255738410977557
0.455000000000000293,-9.098609592901105714
0.456000000000000294,-9.109544014797487321
0.457000000000000295,-9.120040718583641848
0.458000000000000296,-9.130082149680797343
0.459000000000000297,-9.139651480395910355
0.460000000000000298,-9.148732605193348633
0.461000000000000298,-9.157310135327435319
0.462000000000000299,-9.165369392871973275
0.463000000000000300,-9.172896404181711816
0.464000000000000301,-9.179877892819980900
0.465000000000000302,-9.186301271985373162
0.466000000000000303,-9.192154636469631157
0.467000000000000304,-9.197426754177740804
0.468000000000000305,-9.202107057240231924
0.469000000000000306,-9.206185632746855418
0.470000000000000306,-9.209653213129730176
0.471000000000000307,-9.212501166222967441
0.472000000000000308,-9.214721485025233250
0.473000000000000309,-9.216306777190332866
0.474000000000000310,-9.217250254270243914
0.475000000000000311,-9.217545720734117154
0.476000000000000312,-9.217187562785777999
0.477000000000000313,-9.216170737001517566
0.478000000000000314,-9.214490758808912219
0.479000000000000314,-9.212143690826923859
0.480000000000000315,-9.209126131086273759
0.481000000000000316,-9.205435201148752355
0.482000000000000317,-9.201068534142866184
0.483000000000000318,-9.196024262732921173
0.484000000000000319,-9.190301007037550818
0.485000000000000320,-9.183897862513161314
0.486000000000000321,-9.176814387816961016
0.487000000000000322,-9.169050592663658961
0.488000000000000322,-9.160606925689014801
0.489000000000000323,-9.151484262333159592
0.490000000000000324,-9.141683892755551710
0.491000000000000325,-9.131207509793078714
0.492000000000000326,-9.120057196972094715
0.493000000000000327,-9.108235416584744115
0.494000000000000328,-9.095744997839114276
0.495000000000000329,-9.082589125092489724
0.496000000000000330,-9.068771326176150893
0.497000000000000330,-9.054295460820089403
0.498000000000000331,-9.039165709184809216
0.499000000000000332,-9.023386560507777432
0.500000000000000333,-9.006962801870907143
0.501000000000000334,-8.989899507095236331
0.502000000000000335,-8.972202025768797995
0.503000000000000336,-8.953875972412795647
0.504000000000000337,-8.934927215791187649
0.505000000000000338,-8.915361868368117726
0.506000000000000338,-8.895186275917485119
0.507000000000000339,-8.874407007288384719
0.508000000000000340,-8.853030844329889959
0.509000000000000341,-8.831064771978507366
0.510000000000000342,-8.808515968510779004
0.511000000000000343,-8.785391795963935380
0.512000000000000344,-8.761699790726526160
0.513000000000000345,-8.737447654301092825
0.514000000000000346,-8.712643244240670271
0.515000000000000346,-8.687294565260241797
0.516000000000000347,-8.661409760524609425
0.517000000000000348,-8.634997103113489558
0.518000000000000349,-8.608064987664471701
0.519000000000000350,-8.580621922194517026
0.520000000000000351,-8.552676520100087387
0.521000000000000352,-8.524237492336219191
0.522000000000000353,-8.495313639774231262
0.523000000000000353,-8.465913845737944143
0.524000000000000354,-8.436047068718028896
0.525000000000000355,-8.405722335263732248
0.526000000000000356,-8.374948733051352789
0.527000000000000357,-8.343735404128659994
0.528000000000000358,-8.312091538334035690
0.529000000000000359,-8.280026366889499556
0.530000000000000360,-8.247549156166035900
0.531000000000000361,-8.214669201620171890
0.532000000000000361,-8.181395821900125043
0.533000000000000362,-8.147738353120063337
0.534000000000000363,-8.113706143300769114
0.535000000000000364,-8.079308546975058292
0.536000000000000365,-8.044554919955997363
0.537000000000000366,-8.009454614266189765
0.538000000000000367,-7.974016973225971583
0.539000000000000368,-7.938251326698809507
0.540000000000000369,-7.902166986491410583
0.541000000000000369,-7.865773241906867774
0.542000000000000370,-7.829079355448234523
0.543000000000000371,-7.792094558670650706
0.544000000000000372,-7.754828048179558841
0.545000000000000373,-7.717288981772831846
0.546000000000000374,-7.679486474724392053
0.547000000000000375,-7.641429596207032660
0.548000000000000376,-7.603127365852111907
0.549000000000000377,-7.564588750443610010
0.550000000000000377,-7.525822660744248438
0.551000000000000378,-7.486837948451150915
0.552000000000000379,-7.447643403278756402
0.553000000000000380,-7.408247750166383483
0.554000000000000381,-7.368659646608056057
0.555000000000000382,-7.328887680102297963
0.556000000000000383,-7.288940365719104086
0.557000000000000384,-7.248826143782072684
0.558000000000000385,-7.208553377662854977
0.559000000000000385,-7.168130351685803703
0.560000000000000386,-7.127565269140210269
0.561000000000000387,-7.086866250397807043
0.562000000000000388,-7.046041331133045205
0.563000000000000389,-7.005098460643933045
0.564000000000000390,-6.964045500270839462
0.565000000000000391,-6.922890221911093711
0.566000000000000392,-6.881640306626946035
0.567000000000000393,-6.840303343344665166
0.568000000000000393,-6.798886827642343533
0.569000000000000394,-6.757398160624238592
0.570000000000000395,-6.715844647879466223
0.571000000000000396,-6.674233498522586849
0.572000000000000397,-6.632571824314195119
0.573000000000000398,-6.590866638859071536
0.574000000000000399,-6.549124856879936729
0.575000000000000400,-6.507353293564548835
0.576000000000000401,-6.465558663984151799
0.577000000000000401,-6.423747582581249560
0.578000000000000402,-6.381926562724482110
0.579000000000000403,-6.340102016328787116
0.580000000000000404,-6.298280253538871776
0.581000000000000405,-6.256467482473865971
0.582000000000000406,-6.214669809031508230
0.583000000000000407,-6.172893236749710688
0.584000000000000408,-6.131143666723916752
0.585000000000000409,-6.089426897578229969
0.586000000000000409,-6.047748625488611474
0.587000000000000410,-6.006114444256435370
0.588000000000000411,-5.964529845430534216
0.589000000000000412,-5.923000218476258460
0.590000000000000413,-5.881530850989642012
0.591000000000000414,-5.840126928955245766
0.592000000000000415,-5.798793537046026181
0.593000000000000416,-5.757535658963571557
0.594000000000000417,-5.716358177817265407
0.595000000000000417,-5.675265876540981580
0.596000000000000418,-5.634263438345468167
0.597000000000000419,-5.593355447205519582
0.598000000000000420,-5.552546388379972164
0.599000000000000421,-5.511840648963612921
0.600000000000000422,-5.471242518469320970
0.601000000000000423,-5.430756189439325254
0.602000000000000424,-5.390385758084187628
0.603000000000000425,-5.350135224948312285
0.604000000000000425,-5.310008495600698986
0.605000000000000426,-5.270009381349782807
0.606000000000000427,-5.230141599981250167
0.607000000000000428,-5.190408776517417166
0.608000000000000429,-5.150814443997546732
0.609000000000000430,-5.111362044277436567
0.610000000000000431,-5.072054928847752997
0.611000000000000432,-5.032896359669687847
0.612000000000000433,-4.993889510027132772
0.613000000000000433,-4.955037465394363849
0.614000000000000434,-4.916343224318286076
0.615000000000000435,-4.877809699314197722
0.616000000000000436,-4.839439717774344452
0.617000000000000437,-4.801236022888350163
0.618000000000000438,-4.763201274574565325
0.619000000000000439,-4.725338050421543201
0.620000000000000440,-4.687648846638991174
0.621000000000000441,-4.650136079017196167
0.622000000000000441,-4.612802083894335325
0.623000000000000442,-4.575649119130805964
0.624000000000000443,-4.538679365089965501
0.625000000000000444,-4.501894925624602806
0.626000000000000445,-4.465297829068278546
0.627000000000000446,-4.428890029231207670
0.628000000000000447,-4.392673406399723923
0.629000000000000448,-4.356649768338971995
0.630000000000000449,-4.320820851298086573
0.631000000000000449,-4.285188321017348478
0.632000000000000450,-4.249753773736784979
0.633000000000000451,-4.214518737205652954
0.634000000000000452,-4.179484671692270226
0.635000000000000453,-4.144652970993779384
0.636000000000000454,-4.110024963445246371
0.637000000000000455,-4.075601912927805159
0.638000000000000456,-4.041385019875178841
0.639000000000000457,-4.007375422278382615
0.640000000000000457,-3.973574196688045568
0.641000000000000458,-3.939982359213947571
0.642000000000000459,-3.906600866521583892
0.643000000000000460,-3.873430616825063399
0.644000000000000461,-3.840472450876337263
0.645000000000000462,-3.807727152950188376
0.646000000000000463,-3.775195451824713722
0.647000000000000464,-3.742878021757049645
0.648000000000000465,-3.710775483454008317
0.649000000000000465,-3.678888405037271436
0.650000000000000466,-3.647217303003039923
0.651000000000000467,-3.615762643175661317
0.652000000000000468,-3.584524841655206906
0.653000000000000469,-3.553504265758576253
0.654000000000000470,-3.522701234954080718
0.655000000000000471,-3.492116021789131164
0.656000000000000472,-3.461748852810931254
0.657000000000000473,-3.431599909479952082
0.658000000000000473,-3.401669329076035808
0.659000000000000474,-3.371957205596883167
0.660000000000000475,-3.342463590648892424
0.661000000000000476,-3.313188494330010059
0.662000000000000477,-3.284131886104682874
0.663000000000000478,-3.255293695670543830
0.664000000000000479,-3.226673813816941738
0.665000000000000480,-3.198272093274908912
0.666000000000000481,-3.170088349558819463
0.667000000000000481,-3.142122361799233321
0.668000000000000482,-3.114373873567260809
0.669000000000000483,-3.086842593689942849
0.670000000000000484,-3.059528197056889720
0.671000000000000485,-3.032430325417955874
0.672000000000000486,-3.005548588171864655
0.673000000000000487,-2.978882563145888618
0.674000000000000488,-2.952431797366281252
0.675000000000000488,-2.926195807819621741
0.676000000000000489,-2.900174082205020376
0.677000000000000490,-2.874366079676945240
0.678000000000000491,-2.848771231578933083
0.679000000000000492,-2.823388942167934346
0.680000000000000493,-2.798218589329361627
0.681000000000000494,-2.773259525282874005
0.682000000000000495,-2.748511077278752879
0.683000000000000496,-2.723972548285032769
0.684000000000000496,-2.699643217665257389
0.685000000000000497,-2.675522341846904961
0.686000000000000498,-2.651609154980534733
0.687000000000000499,-2.627902869589616941
0.688000000000000500,-2.604402677211033801
0.689000000000000501,-2.581107749026394504
0.690000000000000502,-2.558017236484058099
0.691000000000000503,-2.535130271911948618
0.692000000000000504,-2.512445969121178013
0.693000000000000504,-2.489963424000577685
0.694000000000000505,-2.467681715102013840
0.695000000000000506,-2.445599904216745557
0.696000000000000507,-2.423717036942664382
0.697000000000000508,-2.402032143242574413
0.698000000000000509,-2.380544237993574619
0.699000000000000510,-2.359252321527474550
0.700000000000000511,-2.338155380162450392
0.701000000000000512,-2.317252386725871194
0.702000000000000512,-2.296542301068415171
0.703000000000000513,-2.276024070569520497
0.704000000000000514,-2.255696630634231425
0.705000000000000515,-2.235558905181483702
0.706000000000000516,-2.215609807123936736
0.707000000000000517,-2.195848238839373412
0.708000000000000518,-2.176273092633719486
0.709000000000000519,-2.156883251195881979
0.710000000000000520,-2.137677588044242238
0.711000000000000520,-2.118654967965124314
0.712000000000000521,-2.099814247443133830
0.713000000000000522,-2.081154275083495264
0.714000000000000523,-2.062673892026546163
0.715000000000000524,-2.044371932354258625
0.716000000000000525,-2.026247223489126004
0.717000000000000526,-2.008298586585277601
0.718000000000000527,-1.990524836911969686
0.719000000000000528,-1.972924784229579176
0.720000000000000528,-1.955497233158168369
0.721000000000000529,-1.938240983538549900
0.722000000000000530,-1.921154830786214962
0.723000000000000531,-1.904237566237888313
0.724000000000000532,-1.887487977491077107
0.725000000000000533,-1.870904848736492765
0.726000000000000534,-1.854486961083487540
0.727000000000000535,-1.838233092878656549
0.728000000000000536,-1.822142020017576858
0.729000000000000536,-1.806212516249836808
0.730000000000000537,-1.790443353477454425
0.731000000000000538,-1.774833302046648909
0.732000000000000539,-1.759381131033223467
0.733000000000000540,-1.744085608521485309
0.734000000000000541,-1.728945501876887336
0.735000000000000542,-1.713959578012377749
0.736000000000000543,-1.699126603648709821
0.737000000000000544,-1.684445345568533314
0.738000000000000544,-1.669914570864647008
0.739000000000000545,-1.655533047182219830
0.740000000000000546,-1.641299542955269031
0.741000000000000547,-1.627212827637331216
0.742000000000000548,-1.613271671926581607
0.743000000000000549,-1.599474847985208559
0.744000000000000550,-1.585821129653412820
0.745000000000000551,-1.572309292657937174
0.746000000000000552,-1.558938114815264786
0.747000000000000552,-1.545706376229551093
0.748000000000000553,-1.532612859485357193
0.749000000000000554,-1.519656349835281084
0.750000000000000555,-1.506835635382594685
0.751000000000000556,-1.494149507258860199
0.752000000000000557,-1.481596759796767193
0.753000000000000558,-1.469176190698041840
0.754000000000000559,-1.456886601196775377
0.755000000000000560,-1.444726796217979947
0.756000000000000560,-1.432695584531689770
0.757000000000000561,-1.420791778902432245
0.758000000000000562,-1.409014196234372518
0.759000000000000563,-1.397361657712078653
0.760000000000000564,-1.385832988936992916
0.761000000000000565,-1.374427020059702187
0.762000000000000566,-1.363142585908065030
0.763000000000000567,-1.351978526111288215
0.764000000000000568,-1.340933685219962701
0.765000000000000568,-1.330006912822247589
0.766000000000000569,-1.319197063656101232
0.767000000000000570,-1.308502997717807537
0.768000000000000571,-1.297923580366685981
0.769000000000000572,-1.287457682426226713
0.770000000000000573,-1.277104180281583679
0.771000000000000574,-1.266861955973558995
0.772000000000000575,-1.256729897289107445
0.773000000000000576,-1.246706897848450790
0.774000000000000576,-1.236791857188849431
0.775000000000000577,-1.226983680845127767
0.776000000000000578,-1.217281280426916634
0.777000000000000579,-1.207683573692841072
0.778000000000000580,-1.198189484621515977
0.779000000000000581,-1.188797943479581010
0.780000000000000582,-1.179507886886729029
0.781000000000000583,-1.170318257877833279
0.782000000000000584,-1.161228005962197996
0.783000000000000584,-1.152236087180016133
0.784000000000000585,-1.143341464156104381
0.785000000000000586,-1.134543106150890823
0.786000000000000587,-1.125839989108832651
0.787000000000000588,-1.117231095704215083
0.788000000000000589,-1.108715415384390557
0.789000000000000590,-1.100291944410643818
0.790000000000000591,-1.091959685896506382
0.791000000000000592,-1.083717649843789044
0.792000000000000592,-1.075564853176250724
0.793000000000000593,-1.067500319770993134
0.794000000000000594,-1.059523080487651203
0.795000000000000595,-1.051632173195413245
0.796000000000000596,-1.043826642797844872
0.797000000000000597,-1.036105541255731843
0.798000000000000598,-1.028467927607820576
0.799000000000000599,-1.020912867989571371
0.800000000000000600,-1.013439435650015819
0.801000000000000600,-1.006046710966651103
0.802000000000000601,-0.998733781458520320
0.803000000000000602,-0.991499741797464251
0.804000000000000603,-0.984343693817604892
0.805000000000000604,-0.977264746523121675
0.806000000000000605,-0.970262016094263324
0.807000000000000606,-0.963334625891827612
0.808000000000000607,-0.956481706459935688
0.809000000000000608,-0.949702395527275756
0.810000000000000608,-0.942995838006857490
0.811000000000000609,-0.936361185994158296
0.812000000000000610,-0.929797598763980937
0.813000000000000611,-0.923304242765718208
0.814000000000000612,-0.916880291617372833
0.815000000000000613,-0.910524926098183585
0.816000000000000614,-0.904237334139903481
0.817000000000000615,-0.898016710816860075
0.818000000000000616,-0.891862258334756630
0.819000000000000616,-0.885773186018239733
0.820000000000000617,-0.879748710297310055
0.821000000000000618,-0.873788054692601790
0.822000000000000619,-0.867890449799544994
0.823000000000000620,-0.862055133271416252
0.824000000000000621,-0.856281349801363389
0.825000000000000622,-0.850568351103426101
0.826000000000000623,-0.844915395892551602
0.827000000000000624,-0.839321749863618960
0.828000000000000624,-0.833786685669590910
0.829000000000000625,-0.828309482898700211
0.830000000000000626,-0.822889428050797123
0.831000000000000627,-0.817525814512836568
0.832000000000000628,-0.812217942533550841
0.833000000000000629,-0.806965119197286640
0.834000000000000630,-0.801766658397120358
0.835000000000000631,-0.796621880807196314
0.836000000000000631,-0.791530113854334694
0.837000000000000632,-0.786490691688993437
0.838000000000000633,-0.781502955155472079
0.839000000000000634,-0.776566251761531157
0.840000000000000635,-0.771679935647376580
0.841000000000000636,-0.766843367553986299
0.842000000000000637,-0.762055914790928268
0.843000000000000638,-0.757316951203549804
0.844000000000000639,-0.752625857139659460
0.845000000000000639,-0.747982019415692756
0.846000000000000640,-0.743384831282333680
0.847000000000000641,-0.738833692389739061
0.848000000000000642,-0.734328008752197503
0.849000000000000643,-0.729867192712414181
0.850000000000000644,-0.725450662905392840
0.851000000000000645,-0.721077844221814646
0.852000000000000646,-0.716748167771142031
0.853000000000000647,-0.712461070844279343
0.854000000000000647,-0.708215996875902420
0.855000000000000648,-0.704012395406456326
0.856000000000000649,-0.699849722043847322
0.857000000000000650,-0.695727438424798450
0.858000000000000651,-0.691645012175937768
0.859000000000000652,-0.687601916874610475
0.860000000000000653,-0.683597632009466882
0.861000000000000654,-0.679631642940721981
0.862000000000000655,-0.675703440860307203
0.863000000000000655,-0.671812522751690566
0.864000000000000656,-0.667958391349601888
0.865000000000000657,-0.664140555099474117
0.866000000000000658,-0.660358528116799959
0.867000000000000659,-0.656611830146284992
0.868000000000000660,-0.652899986520838804
0.869000000000000661,-0.649222528120456333
0.870000000000000662,-0.645578991330985841
0.871000000000000663,-0.641968918002774003
0.872000000000000663,-0.638391855409175313
0.873000000000000664,-0.634847356205052504
0.874000000000000665,-0.631334978385108214
0.875000000000000666,-0.627854285242246180
0.876000000000000667,-0.624404845325777225
0.877000000000000668,-0.620986232399659221
0.878000000000000669,-0.617598025400666550
0.879000000000000670,-0.614239808396516929
0.880000000000000671,-0.610911170544030546
0.881000000000000671,-0.607611706047215372
0.882000000000000672,-0.604341014115430952
0.883000000000000673,-0.601098698921483487
0.884000000000000674,-0.597884369559804951
0.885000000000000675,-0.594697640004610117
0.886000000000000676,-0.591538129068123530
0.887000000000000677,-0.588405460358828458
0.888000000000000678,-0.585299262239764917
0.889000000000000679,-0.582219167786904412
0.890000000000000679,-0.579164814747572976
0.891000000000000680,-0.576135845498950694
0.892000000000000681,-0.573131907006649066
0.893000000000000682,-0.570152650783376957
0.894000000000000683,-0.567197732847687264
0.895000000000000684,-0.564266813682843482
0.896000000000000685,-0.561359558195772768
0.897000000000000686,-0.558475635676123794
0.898000000000000687,-0.555614719755471720
0.899000000000000687,-0.552776488366597207
0.900000000000000688,-0.549960623702939522
0.901000000000000689,-0.547166812178142781
0.902000000000000690,-0.544394744385776730
0.903000000000000691,-0.541644115059160658
0.904000000000000692,-0.538914623031362838
0.905000000000000693,-0.536205971195329756
0.906000000000000694,-0.533517866464212842
0.907000000000000695,-0.530850019731774703
0.908000000000000695,-0.528202145833058800
0.909000000000000696,-0.525573963505141295
0.910000000000000697,-0.522965195348119916
0.911000000000000698,-0.520375567786227511
0.912000000000000699,-0.517804811029160983
0.913000000000000700,-0.515252659033585525
0.914000000000000701,-0.512718849464788962
0.915000000000000702,-0.510203123658598434
0.916000000000000703,-0.507705226583409996
0.917000000000000703,-0.505224906802474893
0.918000000000000704,-0.502761916436350931
0.919000000000000705,-0.500316011125554239
0.920000000000000706,-0.497886949993448791
0.921000000000000707,-0.495474495609289800
0.922000000000000708,-0.493078413951514638
0.923000000000000709,-0.490698474371253357
0.924000000000000710,-0.488334449555994698
0.925000000000000711,-0.485986115493534154
0.926000000000000711,-0.483653251436098608
0.927000000000000712,-0.481335639864702292
0.928000000000000713,-0.479033066453717793
0.929000000000000714,-0.476745320035699138
0.930000000000000715,-0.474472192566368911
0.931000000000000716,-0.472213479089888755
0.932000000000000717,-0.469968977704336155
0.933000000000000718,-0.467738489527393830
0.934000000000000719,-0.465521818662301690
0.935000000000000719,-0.463318772164015791
0.936000000000000720,-0.461129160005596117
0.937000000000000721,-0.458952795044847039
0.938000000000000722,-0.456789492991187429
0.939000000000000723,-0.454639072372735431
0.940000000000000724,-0.452501354503654252
0.941000000000000725,-0.450376163451719491
0.942000000000000726,-0.448263326006142104
0.943000000000000727,-0.446162671645589648
0.944000000000000727,-0.444074032506498795
0.945000000000000728,-0.441997243351591629
0.946000000000000729,-0.439932141538623867
0.947000000000000730,-0.437878566989420903
0.948000000000000731,-0.435836362159085944
0.949000000000000732,-0.433805372005514667
0.950000000000000733,-0.431785443959093240
0.951000000000000734,-0.429776427892696433
0.952000000000000735,-0.427778176091866136
0.953000000000000735,-0.425790543225261497
0.954000000000000736,-0.423813386315357143
0.955000000000000737,-0.421846564709364102
0.956000000000000738,-0.419889940050401367
0.957000000000000739,-0.417943376248900100
0.958000000000000740,-0.416006739454261698
0.959000000000000741,-0.414079898026730675
0.960000000000000742,-0.412162722509542445
0.961000000000000743,-0.410255085601278491
0.962000000000000743,-0.408356862128471665
0.963000000000000744,-0.406467929018452356
0.964000000000000745,-0.404588165272445011
0.965000000000000746,-0.402717451938865989
0.966000000000000747,-0.400855672086896486
0.967000000000000748,-0.399002710780261172
0.968000000000000749,-0.397158455051283221
0.969000000000000750,-0.395322793875112655
0.970000000000000751,-0.393495618144268255
0.971000000000000751,-0.391676820643325319
0.972000000000000752,-0.389866296023901160
0.973000000000000753,-0.388063940779871719
0.974000000000000754,-0.386269653222767628
0.975000000000000755,-0.384483333457453058
0.976000000000000756,-0.382704883358014558
0.977000000000000757,-0.380934206543869058
0.978000000000000758,-0.379171208356115508
0.979000000000000759,-0.377415795834125212
0.980000000000000759,-0.375667877692312302
0.981000000000000760,-0.373927364297173104
0.982000000000000761,-0.372194167644553098
0.983000000000000762,-0.370468201337087799
0.984000000000000763,-0.368749380561909645
0.985000000000000764,-0.367037622068580371
0.986000000000000765,-0.365332844147207070
0.987000000000000766,-0.363634966606801002
0.988000000000000766,-0.361943910753855291
0.989000000000000767,-0.360259599371134498
0.990000000000000768,-0.358581956696691795
0.991000000000000769,-0.356910908403058780
0.992000000000000770,-0.355246381576702519
0.993000000000000771,-0.353588304697681433
0.994000000000000772,-0.351936607619466324
0.995000000000000773,-0.350291221549048959
0.996000000000000774,-0.348652079027187756
0.997000000000000774,-0.347019113908903720
0.998000000000000775,-0.345392261344168117
0.999000000000000776,-0.343771457758794252
1.000000000000000666,-0.342156640835539094
1.001000000000000778,-0.340547749495404062
1.002000000000000668,-0.338944723879133381
1.003000000000000780,-0.337347505328916331
1.004000000000000670,-0.335756036370285227
1.005000000000000782,-0.334170260694223176
1.006000000000000671,-0.332590123139451799
1.007000000000000783,-0.331015569674910748
1.008000000000000673,-0.329446547382454991
1.009000000000000785,-0.327883004439716408
1.010000000000000675,-0.326324890103177556
1.011000000000000787,-0.324772154691413406
1.012000000000000677,-0.323224749568550074
1.013000000000000789,-0.321682627127888421
1.014000000000000679,-0.320145740775697740
1.015000000000000790,-0.318614044915248085
1.016000000000000680,-0.317087494930971880
1.017000000000000792,-0.315566047172830877
1.018000000000000682,-0.314049658940849907
1.019000000000000794,-0.312538288469855652
1.020000000000000684,-0.311031894914362117
1.021000000000000796,-0.309530438333651459
1.022000000000000686,-0.308033879677018230
1.023000000000000798,-0.306542180769197592
1.024000000000000687,-0.305055304295950735
1.025000000000000799,-0.303573213789844476
1.026000000000000689,-0.302095873616174848
1.027000000000000801,-0.300623248959065781
1.028000000000000691,-0.299155305807752847
1.029000000000000803,-0.297692010942998631
1.030000000000000693,-0.296233331923699716
1.031000000000000805,-0.294779237073653000
1.032000000000000695,-0.293329695468458607
1.033000000000000806,-0.291884676922619934
1.034000000000000696,-0.290444151976771592
1.035000000000000808,-0.289008091885073592
1.036000000000000698,-0.287576468602761648
1.037000000000000810,-0.286149254773878647
1.038000000000000700,-0.284726423719096400
1.039000000000000812,-0.283307949423740546
1.040000000000000702,-0.281893806525967128
1.041000000000000814,-0.280483970305056840
1.042000000000000703,-0.279078416669863827
1.043000000000000815,-0.277677122147443112
1.044000000000000705,-0.276280063871793158
1.045000000000000817,-0.274887219572724384
1.046000000000000707,-0.273498567564930462
1.047000000000000819,-0.272114086737145489
1.048000000000000709,-0.270733756541462089
1.049000000000000821,-0.269357556982787627
1.050000000000000711,-0.267985468608432142
1.051000000000000822,-0.266617472497850394
1.052000000000000712,-0.265253550252487813
1.053000000000000824,-0.263893683985788663
1.054000000000000714,-0.262537856313315165
1.055000000000000826,-0.261186050343017950
1.056000000000000716,-0.259838249665619858
1.057000000000000828,-0.258494438345129640
1.058000000000000718,-0.257154600909495601
1.059000000000000830,-0.255818722341364491
1.060000000000000719,-0.254486788068990721
1.061000000000000831,-0.253158783957247280
1.062000000000000721,-0.251834696298762095
1.063000000000000833,-0.250514511805199069
1.064000000000000723,-0.249198217598618432
1.065000000000000835,-0.247885801202988920
1.066000000000000725,-0.246577250535815307
1.067000000000000837,-0.245272553899842455
1.068000000000000727,-0.243971699974947331
1.069000000000000838,-0.242674677810062855
1.070000000000000728,-0.241381476815285489
1.071000000000000840,-0.240092086754040507
1.072000000000000730,-0.238806497735403273
1.073000000000000842,-0.237524700206488498
1.074000000000000732,-0.236246684944967228
1.075000000000000844,-0.234972443051704033
1.076000000000000734,-0.233701965943478612
1.077000000000000846,-0.232435245345813335
1.078000000000000735,-0.231172273285929097
1.079000000000000847,-0.229913042085754082
1.080000000000000737,-0.228657544355113374
1.081000000000000849,-0.227405772984926091
1.082000000000000739,-0.226157721140566592
1.083000000000000851,-0.224913382255309630
1.084000000000000741,-0.223672750023864164
1.085000000000000853,-0.222435818395998075
1.086000000000000743,-0.221202581570273893
1.087000000000000854,-0.219973033987876543
1.088000000000000744,-0.218747170326530238
1.089000000000000856,-0.217524985494489898
1.090000000000000746,-0.216306474624651857
1.091000000000000858,-0.215091633068753119
1.092000000000000748,-0.213880456391627671
1.093000000000000860,-0.212672940365596391
1.094000000000000750,-0.211469080964891976
1.095000000000000862,-0.210268874360226121
1.096000000000000751,-0.209072316913406914
1.097000000000000863,-0.207879405172020831
1.098000000000000753,-0.206690135864265212
1.099000000000000865,-0.205504505893800232
1.100000000000000755,-0.204322512334699946
1.101000000000000867,-0.203144152426494001
1.102000000000000757,-0.201969423569287709
1.103000000000000869,-0.200798323318953420
1.104000000000000759,-0.199630849382383346
1.105000000000000870,-0.198466999612873174
1.106000000000000760,-0.197306772005499786
1.107000000000000872,-0.196150164692660722
1.108000000000000762,-0.194997175939625789
1.109000000000000874,-0.193847804140186347
1.110000000000000764,-0.192702047812371602
1.111000000000000876,-0.191559905594229279
1.112000000000000766,-0.190421376239704954
1.113000000000000878,-0.189286458614556480
1.114000000000000767,-0.188155151692357830
1.115000000000000879,-0.187027454550554501
1.116000000000000769,-0.185903366366613365
1.117000000000000881,-0.184782886414205927
1.118000000000000771,-0.183666014059485239
1.119000000000000883,-0.182552748757410288
1.120000000000000773,-0.181443090048143546
1.121000000000000885,-0.180337037553502000
1.122000000000000774,-0.179234590973478020
1.123000000000000886,-0.178135750082820565
1.124000000000000776,-0.177040514727691362
1.125000000000000888,-0.175948884822334700
1.126000000000000778,-0.174860860345862484
1.127000000000000890,-0.173776441339086374
1.128000000000000780,-0.172695627901353010
1.129000000000000892,-0.171618420187518689
1.130000000000000782,-0.170544818404926940
1.131000000000000894,-0.169474822810443293
1.132000000000000783,-0.168408433707575578
1.133000000000000895,-0.167345651443627730
1.134000000000000785,-0.166286476406886818
1.135000000000000897,-0.165230909023923095
1.136000000000000787,-0.164178949756867476
1.137000000000000899,-0.163130599100808321
1.138000000000000789,-0.162085857581175830
1.139000000000000901,-0.161044725751251200
1.140000000000000790,-0.160007204189650171
1.141000000000000902,-0.158973293497887996
1.142000000000000792,-0.157942994298019584
1.143000000000000904,-0.156916307230270807
1.144000000000000794,-0.155893232950781307
1.145000000000000906,-0.154873772129309972
1.146000000000000796,-0.153857925447088595
1.147000000000000908,-0.152845693594631793
1.148000000000000798,-0.151837077269638160
1.149000000000000909,-0.150832077174929580
1.150000000000000799,-0.149830694016404975
1.151000000000000689,-0.148832928501095113
1.152000000000000801,-0.147838781335195735
1.153000000000000913,-0.146848253222187669
1.154000000000000803,-0.145861344860972075
1.155000000000000693,-0.144878056944046735
1.156000000000000805,-0.143898390155764194
1.157000000000000917,-0.142922345170547110
1.158000000000000806,-0.141949922651233768
1.159000000000000696,-0.140981123247394036
1.160000000000000808,-0.140015947593712997
1.161000000000000920,-0.139054396308406603
1.162000000000000810,-0.138096469991682042
1.163000000000000700,-0.137142169224213628
1.164000000000000812,-0.136191494565670645
1.165000000000000924,-0.135244446553272335
1.166000000000000814,-0.134301025700397147
1.167000000000000703,-0.133361232495181170
1.168000000000000815,-0.132425067399214058
1.169000000000000927,-0.131492530846199079
1.170000000000000817,-0.130563623240704224
1.171000000000000707,-0.129638344956901630
1.172000000000000819,-0.128716696337380032
1.173000000000000931,-0.127798677691947193
1.174000000000000821,-0.126884289296484182
1.175000000000000711,-0.125973531391834037
1.176000000000000822,-0.125066404182718388
1.177000000000000934,-0.124162907836663255
1.178000000000000824,-0.123263042482987278
1.179000000000000714,-0.122366808211777367
1.180000000000000826,-0.121474205072947816
1.181000000000000938,-0.120585233075261561
1.182000000000000828,-0.119699892185434087
1.183000000000000718,-0.118818182327238397
1.184000000000000830,-0.117940103380636763
1.185000000000000941,-0.117065655180929901
1.186000000000000831,-0.116194837517971036
1.187000000000000721,-0.115327650135350374
1.188000000000000833,-0.114464092729650524
1.189000000000000945,-0.113604164949696718
1.190000000000000835,-0.112747866395849966
1.191000000000000725,-0.111895196619295076
1.192000000000000837,-0.111046155121414664
1.193000000000000949,-0.110200741353089798
1.194000000000000838,-0.109358954714124573
1.195000000000000728,-0.108520794552613209
1.196000000000000840,-0.107686260164376907
1.197000000000000952,-0.106855350792410445
1.198000000000000842,-0.106028065626326468
1.199000000000000732,-0.105204403801867574
1.200000000000000844,-0.104384364400376795
1.201000000000000956,-0.103567946448356790
1.202000000000000846,-0.102755148916996136
1.203000000000000735,-0.101945970721735307
1.204000000000000847,-0.101140410721842905
1.205000000000000959,-0.100338467720047023
1.206000000000000849,-0.099540140462118537
1.207000000000000739,-0.098745427636529715
1.208000000000000851,-0.097954327874111291
1.209000000000000963,-0.097166839747718337
1.210000000000000853,-0.096382961771932951
1.211000000000000743,-0.095602692402754194
1.212000000000000854,-0.094826030037347853
1.213000000000000966,-0.094052973013757896
1.214000000000000856,-0.093283519610699722
1.215000000000000746,-0.092517668047295790
1.216000000000000858,-0.091755416482892649
1.217000000000000970,-0.090996763016851598
1.218000000000000860,-0.090241705688366203
1.219000000000000750,-0.089490242476304660
1.220000000000000862,-0.088742371299051964
1.221000000000000973,-0.087998090014368771
1.222000000000000863,-0.087257396419277974
1.223000000000000753,-0.086520288249939695
1.224000000000000865,-0.085786763181565931
1.225000000000000977,-0.085056818828338931
1.226000000000000867,-0.084330452743326414
1.227000000000000757,-0.083607662418434509
1.228000000000000869,-0.082888445284352560
1.229000000000000981,-0.082172798710542935
1.230000000000000870,-0.081460720005179760
1.231000000000000760,-0.080752206415171848
1.232000000000000872,-0.080047255126165590
1.233000000000000984,-0.079345863262519231
1.234000000000000874,-0.078648027887376459
1.235000000000000764,-0.077953746002665886
1.236000000000000876,-0.077263014549163289
1.237000000000000988,-0.076575830406535011
1.238000000000000878,-0.075892190393423972
1.239000000000000767,-0.075212091267498907
1.240000000000000879,-0.074535529725563154
1.241000000000000991,-0.073862502403637093
1.242000000000000881,-0.073193005877064468
1.243000000000000771,-0.072527036660631067
1.244000000000000883,-0.071864591208679024
1.245000000000000995,-0.071205665915251209
1.246000000000000885,-0.070550257114221915
1.247000000000000774,-0.069898361079442736
1.248000000000000886,-0.069249974024906152
1.249000000000000998,-0.068605092104911586
1.250000000000000888,-0.067963711414235656
1.251000000000000778,-0.067325827988308246
1.252000000000000890,-0.066691437803408443
1.253000000000001002,-0.066060536776850559
1.254000000000000892,-0.065433120767203645
1.255000000000000782,-0.064809185574481079
1.256000000000000894,-0.064188726940367077
1.257000000000001005,-0.063571740548442987
1.258000000000000895,-0.062958222024411509
1.259000000000000785,-0.062348166936338087
1.260000000000000897,-0.061741570794882572
1.261000000000001009,-0.061138429053568588
1.262000000000000899,-0.060538737109009720
1.263000000000000789,-0.059942490301198227
1.264000000000000901,-0.059349683913754059
1.265000000000001013,-0.058760313174196555
1.266000000000000902,-0.058174373254232380
1.267000000000000792,-0.057591859270025081
1.268000000000000904,-0.057012766282492092
1.269000000000001016,-0.056437089297586576
1.270000000000000906,-0.055864823266612386
1.271000000000000796,-0.055295963086505542
1.272000000000000908,-0.054730503600146196
1.273000000000001020,-0.054168439596679739
1.274000000000000909,-0.053609765811823841
1.275000000000000799,-0.053054476928179294
1.276000000000000911,-0.052502567575575698
1.277000000000001023,-0.051954032331375320
1.278000000000000913,-0.051408865720814281
1.279000000000000803,-0.050867062217341039
1.280000000000000915,-0.050328616242957633
1.281000000000001027,-0.049793522168535068
1.282000000000000917,-0.049261774314196892
1.283000000000000806,-0.048733366949639131
1.284000000000000918,-0.048208294294499035
1.285000000000001030,-0.047686550518694942
1.286000000000000920,-0.047168129742797479
1.287000000000000810,-0.046653026038380216
1.288000000000000922,-0.046141233428393262
1.289000000000001034,-0.045632745887519088
1.290000000000000924,-0.045127557342538191
1.291000000000000814,-0.044625661672722125
1.292000000000000925,-0.044127052710171942
1.293000000000001037,-0.043631724240233080
1.294000000000000927,-0.043139670001842455
1.295000000000000817,-0.042650883687915912
1.296000000000000929,-0.042165358945742873
1.297000000000001041,-0.041683089377350158
1.298000000000000931,-0.041204068539905450
1.299000000000000821,-0.040728289946097215
1.300000000000000933,-0.040255747064514333
1.301000000000001044,-0.039786433320054646
1.302000000000000934,-0.039320342094299972
1.303000000000000824,-0.038857466725931315
1.304000000000000936,-0.038397800511090249
1.305000000000001048,-0.037941336703808851
1.306000000000000938,-0.037488068516391790
1.307000000000000828,-0.037037989119807310
1.308000000000000940,-0.036591091644096699
1.309000000000001052,-0.036147369178780760
1.310000000000000941,-0.035706814773245554
1.311000000000000831,-0.035269421437156015
1.312000000000000943,-0.034835182140842233
1.313000000000001055,-0.034404089815737192
1.314000000000000945,-0.033976137354743467
1.315000000000000835,-0.033551317612654549
1.316000000000000947,-0.033129623406564342
1.317000000000001059,-0.032711047516267952
1.318000000000000949,-0.032295582684657959
1.319000000000000838,-0.031883221618155051
1.320000000000000950,-0.031473956987092225
1.321000000000001062,-0.031067781426128434
1.322000000000000952,-0.030664687534660097
1.323000000000000842,-0.030264667877221325
1.324000000000000954,-0.029867714983900690
1.325000000000001066,-0.029473821350734043
1.326000000000000956,-0.029082979440129785
1.327000000000000846,-0.028695181681256971
1.328000000000000957,-0.028310420470471293
1.329000000000001069,-0.027928688171699457
1.330000000000000959,-0.027549977116871217
1.331000000000000849,-0.027174279606307757
1.332000000000000961,-0.026801587909125846
1.333000000000001073,-0.026431894263651456
1.334000000000000963,-0.026065190877831344
1.335000000000000853,-0.025701469929615878
1.336000000000000965,-0.025340723567384028
1.337000000000001076,-0.024982943910336269
1.338000000000000966,-0.024628123048898796
1.339000000000000856,-0.024276253045126501
1.340000000000000968,-0.023927325933104725
1.341000000000001080,-0.023581333719345860
1.342000000000000970,-0.023238268383195169
1.343000000000000860,-0.022898121877227014
1.344000000000000972,-0.022560886127639040
1.345000000000001084,-0.022226553034662817
1.346000000000000973,-0.021895114472943195
1.347000000000000863,-0.021566562291945653
1.348000000000000975,-0.021240888316341317
1.349000000000001087,-0.020918084346410588
1.350000000000000977,-0.020598142158432801
1.351000000000000867,-0.020281053505076436
1.352000000000000979,-0.019966810115774097
1.353000000000001091,-0.019655403697145184
1.354000000000000981,-0.019346825933360789
1.355000000000000870,-0.019041068486525529
1.356000000000000982,-0.018738122997077923
1.357000000000001094,-0.018437981084175319
1.358000000000000984,-0.018140634346059937
1.359000000000000874,-0.017846074360456692
1.360000000000000986,-0.017554292684946172
1.361000000000001098,-0.017265280857352155
1.362000000000000988,-0.016979030396104301
1.363000000000000878,-0.016695532800625641
1.364000000000000989,-0.016414779551714515
1.365000000000001101,-0.016136762111894722
1.366000000000000991,-0.015861471925806871
1.367000000000000881,-0.015588900420576719
1.368000000000000993,-0.015319039006175927
1.369000000000001105,-0.015051879075798691
1.370000000000000995,-0.014787412006221695
1.371000000000000885,-0.014525629158167398
1.372000000000000997,-0.014266521876673835
1.373000000000001108,-0.014010081491458428
1.374000000000000998,-0.013756299317247988
1.375000000000000888,-0.013505166654185913
1.376000000000001000,-0.013256674788149615
1.377000000000001112,-0.013010814991118563
1.378000000000001002,-0.012767578521527595
1.379000000000000892,-0.012526956624618075
1.380000000000001004,-0.012288940532782403
1.381000000000001116,-0.012053521465924536
1.382000000000001005,-0.011820690631791283
1.383000000000000895,-0.011590439226322540
1.384000000000001007,-0.011362758433998987
1.385000000000001119,-0.011137639428173113
1.386000000000001009,-0.010915073371422199
1.387000000000000899,-0.010695051415861192
1.388000000000001011,-0.010477564703519439
1.389000000000001123,-0.010262604366623702
1.390000000000001013,-0.010050161527968223
1.391000000000000902,-0.009840227301230230
1.392000000000001014,-0.009632792791296772
1.393000000000001126,-0.009427849094593110
1.394000000000001016,-0.009225387299417241
1.395000000000000906,-0.009025398486243973
1.396000000000001018,-0.008827873728054481
1.397000000000001130,-0.008632804090660235
1.398000000000001020,-0.008440180633014511
1.399000000000000909,-0.008249994407526468
1.400000000000001021,-0.008062236460371519
1.401000000000001133,-0.007876897831819683
1.402000000000001023,-0.007693969556517945
1.403000000000000913,-0.007513442663814952
1.404000000000001025,-0.007335308178072578
1.405000000000001137,-0.007159557118945174
1.406000000000001027,-0.006986180501702649
1.407000000000000917,-0.006815169337531965
1.408000000000001029,-0.006646514633809436
1.409000000000001140,-0.006480207394425582
1.410000000000001030,-0.006316238620061450
1.411000000000000920,-0.006154599308484684
1.412000000000001032,-0.005995280454840636
1.413000000000001144,-0.005838273051943166
1.414000000000001034,-0.005683568090549149
1.415000000000000924,-0.005531156559653016
1.416000000000001036,-0.005381029446771879
1.417000000000001148,-0.005233177738214083
1.418000000000001037,-0.005087592419361166
1.419000000000000927,-0.004944264474946095
1.420000000000001039,-0.004803184889327289
1.421000000000001151,-0.004664344646762113
1.422000000000001041,-0.004527734731671467
1.423000000000000931,-0.004393346128909063
1.424000000000001043,-0.004261169824036364
1.425000000000001155,-0.004131196803571632
1.426000000000001044,-0.004003418055268305
1.427000000000000934,-0.003877824568363934
1.428000000000001046,-0.003754407333843247
1.429000000000001158,-0.003633157344684795
1.430000000000001048,-0.003514065596137753
1.431000000000000938,-0.003397123085948249
1.432000000000001050,-0.003282320814625793
1.433000000000001162,-0.003169649785690533
1.434000000000001052,-0.003059101005907901
1.435000000000000941,-0.002950665485552977
1.436000000000001053,-0.002844334238630348
1.437000000000001165,-0.002740098283129472
1.438000000000001055,-0.002637948641265428
1.439000000000000945,-0.002537876339702673
1.440000000000001057,-0.002439872409803020
1.441000000000001169,-0.002343927887842633
1.442000000000001059,-0.002250033815259598
1.443000000000000949,-0.002158181238877534
1.444000000000001060,-0.002068361211125296
1.445000000000001172,-0.001980564790263669
1.446000000000001062,-0.001894783040623973
1.447000000000000952,-0.001811007032804481
1.448000000000001064,-0.001729227843909379
1.449000000000001176,-0.001649436557760513
1.450000000000001066,-0.001571624265103332
1.451000000000000956,-0.001495782063832790
1.452000000000001068,-0.001421901059200681
1.453000000000001180,-0.001349972364022776
1.454000000000001069,-0.001279987098890528
1.455000000000000959,-0.001211936392373516
1.456000000000001071,-0.001145811381223241
1.457000000000001183,-0.001081603210582118
1.458000000000001073,-0.001019303034177989
1.459000000000000963,-0.000958902014516010
1.460000000000001075,-0.000900391323089296
1.461000000000001187,-0.000843762140559687
1.462000000000001076,-0.000789005656968973
1.463000000000000966,-0.000736113071906264
1.464000000000001078,-0.000685075594713355
1.465000000000001190,-0.000635884444671862
1.466000000000001080,-0.000588530851178432
1.467000000000000970,-0.000543006053937271
1.468000000000001082,-0.000499301303142226
1.469000000000001194,-0.000457407859645025
1.470000000000001084,-0.000417316995151811
1.471000000000000973,-0.000379019992383040
1.472000000000001085,-0.000342508145261917
1.473000000000001197,-0.000307772759075846
1.474000000000001087,-0.000274805150653652
1.475000000000000977,-0.000243596648530290
1.476000000000001089,-0.000214138593122011
1.477000000000001201,-0.000186422336889200
1.478000000000001091,-0.000160439244492007
1.479000000000000981,-0.000136180692964973
1.480000000000001092,-0.000113638071868771
1.481000000000001204,-0.000092802783456383
1.482000000000001094,-0.000073666242820920
1.483000000000000984,-0.000056219878066607
1.484000000000001096,-0.000040455130445178
1.485000000000001208,-0.000026363454510221
1.486000000000001098,-0.000013936318283429
1.487000000000000988,-0.000003165203389030
1.488000000000001100,0.000005958394802606
1.489000000000001211,0.000013442967014528
1.490000000000001101,0.000019296989928937
1.491000000000000991,0.000023528926051281
1.492000000000001103,0.000026147223552716
1.493000000000001215,0.000027160316145490
1.494000000000001105,0.000026576622945498
1.495000000000000995,0.000024404548328127
1.496000000000001107,0.000020652481797620
1.497000000000001219,0.000015328797862797
1.498000000000001108,0.000008441855892202
1.499000000000000998,0.000000000000000000
