# CNT15-COO--10_HSPSCA-AC
# h[nm],U(h)[kJ/mol]
0.149999999999999994,107.199205346732313160
0.150999999999999995,103.638442198107625813
0.151999999999999996,101.750712262637620142
0.152999999999999997,100.167162073661501154
0.153999999999999998,98.422378978312011100
0.154999999999999999,96.457612028014438010
0.156000000000000000,94.360329188519756372
0.157000000000000001,92.239898392237108737
0.158000000000000002,90.177956028767582097
0.159000000000000002,88.216851626583235202
0.160000000000000003,86.365169314032669945
0.161000000000000004,84.608925776066044477
0.162000000000000005,82.922775496300772602
0.163000000000000006,81.278840426170376077
0.164000000000000007,79.652556728132694275
0.165000000000000008,78.025800204009115646
0.166000000000000009,76.387898849671216794
0.167000000000000010,74.735204938733303948
0.168000000000000010,73.069824844519530416
0.169000000000000011,71.397976570491010762
0.170000000000000012,69.728308728131310090
0.171000000000000013,68.070393272604022172
0.172000000000000014,66.433506780300973560
0.173000000000000015,64.825742899999085012
0.174000000000000016,63.253449426292490898
0.175000000000000017,61.720953194516503970
0.176000000000000018,60.230520291047454862
0.177000000000000018,58.782493839869871977
0.178000000000000019,57.375553414330603630
0.179000000000000020,56.007046189016442383
0.180000000000000021,54.673348226696511176
0.181000000000000022,53.370223318282356217
0.182000000000000023,52.093155575316039574
0.183000000000000024,50.837639909897305301
0.184000000000000025,49.599421304915388475
0.185000000000000026,48.374679258509637236
0.186000000000000026,47.160157997490955495
0.187000000000000027,45.953246096849518665
0.188000000000000028,44.752011165526333514
0.189000000000000029,43.555196431511014055
0.190000000000000030,42.362186552760491054
0.191000000000000031,41.172949954798561123
0.192000000000000032,39.987964594276689922
0.193000000000000033,38.808133392795070904
0.194000000000000034,37.634694778010143068
0.195000000000000034,36.469132889957094790
0.196000000000000035,35.313091121207619949
0.197000000000000036,34.168291805037043218
0.198000000000000037,33.036464077238029802
0.199000000000000038,31.919281234121463342
0.200000000000000039,30.818308301938621696
0.201000000000000040,29.734960024718862570
0.202000000000000041,28.670469066376046641
0.203000000000000042,27.625863903227276808
0.204000000000000042,26.601955646678920431
0.205000000000000043,25.599332873245696618
0.206000000000000044,24.618363440109618523
0.207000000000000045,23.659202218896624004
0.208000000000000046,22.721803678427345830
0.209000000000000047,21.805938279744331965
0.210000000000000048,20.911211705453659704
0.211000000000000049,20.037086023030376225
0.212000000000000050,19.182901971904502858
0.213000000000000050,18.347901661536532458
0.214000000000000051,17.531251067906779895
0.215000000000000052,16.732061815350778744
0.216000000000000053,15.949411826721595631
0.217000000000000054,15.182364515388050208
0.218000000000000055,14.429986276125188027
0.219000000000000056,13.691362107567190520
0.220000000000000057,12.965609266040411640
0.221000000000000058,12.251888909100198788
0.222000000000000058,11.549415737038199126
0.223000000000000059,10.857465682323347522
0.224000000000000060,10.175381730839648142
0.225000000000000061,9.502577985465025634
0.226000000000000062,8.838542102638930587
0.227000000000000063,8.182836246775696765
0.228000000000000064,7.535096716392476246
0.229000000000000065,6.895032400321883692
0.230000000000000066,6.262422223039636471
0.231000000000000066,5.637111735582109873
0.232000000000000067,5.019009003349340858
0.233000000000000068,4.408079934820499979
0.234000000000000069,3.804343186339585348
0.235000000000000070,3.207864768091299279
0.236000000000000071,2.618752465563308540
0.237000000000000072,2.037150179508700809
0.238000000000000073,1.463232275966372509
0.239000000000000073,0.897198026502850632
0.240000000000000074,0.339266207698294964
0.241000000000000075,-0.210330081825236992
0.242000000000000076,-0.751348338726489429
0.243000000000000077,-1.283541268075764297
0.244000000000000078,-1.806661062620877001
0.245000000000000079,-2.320463326651867497
0.246000000000000080,-2.824710630305046433
0.247000000000000081,-3.319175686763208510
0.248000000000000081,-3.803644150667869983
0.249000000000000082,-4.277917041183681768
0.250000000000000111,-4.741812797572655391
0.251000000000000112,-5.195168978880312594
0.252000000000000113,-5.637843622451191195
0.253000000000000114,-6.069716278515993935
0.254000000000000115,-6.490688740080456043
0.255000000000000115,-6.900685488837186021
0.256000000000000116,-7.299653878869160728
0.257000000000000117,-7.687564080561438473
0.258000000000000118,-8.064408807431702186
0.259000000000000119,-8.430202848576122676
0.260000000000000120,-8.784982429144884364
0.261000000000000121,-9.128804420750753934
0.262000000000000122,-9.461745423012621004
0.263000000000000123,-9.783900736575617429
0.264000000000000123,-10.095383246963596235
0.265000000000000124,-10.396322237534771915
0.266000000000000125,-10.686862148654224569
0.267000000000000126,-10.967161298989253737
0.268000000000000127,-11.237390583597255400
0.269000000000000128,-11.497732162226162345
0.270000000000000129,-11.748378150002464437
0.271000000000000130,-11.989529321453389343
0.272000000000000131,-12.221393837608989230
0.273000000000000131,-12.444186004767113118
0.274000000000000132,-12.658125072385960408
0.275000000000000133,-12.863434076502588965
0.276000000000000134,-13.060338734064790955
0.277000000000000135,-13.249066392612382614
0.278000000000000136,-13.429845038854812955
0.279000000000000137,-13.602902368865699145
0.280000000000000138,-13.768464921852174854
0.281000000000000139,-13.926757278758518765
0.282000000000000139,-14.078001326327003184
0.283000000000000140,-14.222415586664272524
0.284000000000000141,-14.360214611846227939
0.285000000000000142,-14.491608442636557896
0.286000000000000143,-14.616802129991052439
0.287000000000000144,-14.735995317668857396
0.288000000000000145,-14.849381883970897533
0.289000000000000146,-14.957149640369916455
0.290000000000000147,-15.059480084585704418
0.291000000000000147,-15.156548205486950920
0.292000000000000148,-15.248522337067765164
0.293000000000000149,-15.335564058646383501
0.294000000000000150,-15.417828138365248236
0.295000000000000151,-15.495462517031494798
0.296000000000000152,-15.568608329322069395
0.297000000000000153,-15.637399959386106829
0.298000000000000154,-15.701965127906138520
0.299000000000000155,-15.762425007726159620
0.300000000000000155,-15.818894365217365916
0.301000000000000156,-15.871481724628157650
0.302000000000000157,-15.920289552752890927
0.303000000000000158,-15.965414461350951214
0.304000000000000159,-16.006947424853294137
0.305000000000000160,-16.044974011005059822
0.306000000000000161,-16.079574622209701573
0.307000000000000162,-16.110824745460345042
0.308000000000000163,-16.138795208866582698
0.309000000000000163,-16.163552442909001172
0.310000000000000164,-16.185158744678155074
0.311000000000000165,-16.203672543478131018
0.312000000000000166,-16.219148666297702022
0.313000000000000167,-16.231638601772342412
0.314000000000000168,-16.241190761378273777
0.315000000000000169,-16.247850736714582354
0.316000000000000170,-16.251661551841046105
0.317000000000000171,-16.252663909746292603
0.318000000000000171,-16.250896432124669388
0.319000000000000172,-16.246395891739112471
0.320000000000000173,-16.239197436741484637
0.321000000000000174,-16.229334806411710446
0.322000000000000175,-16.216840537861976657
0.323000000000000176,-16.201746163332341411
0.324000000000000177,-16.184082397779359752
0.325000000000000178,-16.163879316529655483
0.326000000000000179,-16.141166522836485342
0.327000000000000179,-16.115973305237847768
0.328000000000000180,-16.088328784671364957
0.329000000000000181,-16.058262051353331401
0.330000000000000182,-16.025802291476306749
0.331000000000000183,-15.990978903823773294
0.332000000000000184,-15.953821606439072767
0.333000000000000185,-15.914360533521696439
0.334000000000000186,-15.872626322755522210
0.335000000000000187,-15.828650193301774252
0.336000000000000187,-15.782464014714395972
0.337000000000000188,-15.734100367056834457
0.338000000000000189,-15.683592592518047937
0.339000000000000190,-15.630974838841163788
0.340000000000000191,-15.576282094891036323
0.341000000000000192,-15.519550218697890642
0.342000000000000193,-15.460815958321870056
0.343000000000000194,-15.400116965889903753
0.344000000000000195,-15.337491805159681135
0.345000000000000195,-15.272979952968309902
0.346000000000000196,-15.206621794923023572
0.347000000000000197,-15.138458615690751685
0.348000000000000198,-15.068532584240339034
0.349000000000000199,-14.996886734387668838
0.350000000000000200,-14.923564940988924832
0.351000000000000201,-14.848611892120853639
0.352000000000000202,-14.772073057580453082
0.353000000000000203,-14.693994654028150748
0.354000000000000203,-14.614423607090571977
0.355000000000000204,-14.533407510729350776
0.356000000000000205,-14.450994584173139756
0.357000000000000206,-14.367233626699862370
0.358000000000000207,-14.282173970545372299
0.359000000000000208,-14.195865432204513468
0.360000000000000209,-14.108358262379159243
0.361000000000000210,-14.019703094816724942
0.362000000000000210,-13.929950894271593498
0.363000000000000211,-13.839152903810253648
0.364000000000000212,-13.747360591670084062
0.365000000000000213,-13.654625597869941345
0.366000000000000214,-13.560999680759953989
0.367000000000000215,-13.466534663686664075
0.368000000000000216,-13.371282381938760508
0.369000000000000217,-13.275294630127964624
0.370000000000000218,-13.178623110149169761
0.371000000000000218,-13.081319379853448837
0.372000000000000219,-12.983434802557770382
0.373000000000000220,-12.885020497505328407
0.374000000000000221,-12.786127291381042426
0.375000000000000222,-12.686805670977346239
0.376000000000000223,-12.587105737096973002
0.377000000000000224,-12.487077159770333168
0.378000000000000225,-12.386769134857313901
0.379000000000000226,-12.286230342095072032
0.380000000000000226,-12.185508904646127348
0.381000000000000227,-12.084652350193417547
0.382000000000000228,-11.983707573622464082
0.383000000000000229,-11.882720801323937820
0.384000000000000230,-11.781737557143619810
0.385000000000000231,-11.680802630001105413
0.386000000000000232,-11.579960043192562225
0.387000000000000233,-11.479253025387871290
0.388000000000000234,-11.378723983327255098
0.389000000000000234,-11.278414476218017626
0.390000000000000235,-11.178365191827246861
0.391000000000000236,-11.078615924262765091
0.392000000000000237,-10.979205553430062992
0.393000000000000238,-10.880172026150129128
0.394000000000000239,-10.781552338919107470
0.395000000000000240,-10.683382522288198402
0.396000000000000241,-10.585697626839065677
0.397000000000000242,-10.488531710727523105
0.398000000000000242,-10.391917828766141341
0.399000000000000243,-10.295888023013960222
0.400000000000000244,-10.200473314839722860
0.401000000000000245,-10.105703698423575077
0.402000000000000246,-10.011608135660209129
0.403000000000000247,-9.918214552425366648
0.404000000000000248,-9.825549836166519668
0.405000000000000249,-9.733639834777354949
0.406000000000000250,-9.642509356714910496
0.407000000000000250,-9.552182172317658981
0.408000000000000251,-9.462681016282049384
0.409000000000000252,-9.374027591254856517
0.410000000000000253,-9.286242572498156989
0.411000000000000254,-9.199345613583794545
0.412000000000000255,-9.113355353073950837
0.413000000000000256,-9.028289422144649023
0.414000000000000257,-8.944164453108978563
0.415000000000000258,-8.860996088797216785
0.416000000000000258,-8.778798992751239538
0.417000000000000259,-8.697586860191023561
0.418000000000000260,-8.617372429711526394
0.419000000000000261,-8.538167495668659512
0.420000000000000262,-8.459982921213851981
0.421000000000000263,-8.382828651937092701
0.422000000000000264,-8.306713730079225755
0.423000000000000265,-8.231646309274848861
0.424000000000000266,-8.157633669788168618
0.425000000000000266,-8.084682234204624507
0.426000000000000267,-8.012797583542308644
0.427000000000000268,-7.941984473747799811
0.428000000000000269,-7.872246852542066797
0.429000000000000270,-7.803587876582983363
0.430000000000000271,-7.736009928911833811
0.431000000000000272,-7.669514636652339235
0.432000000000000273,-7.604102888931405069
0.433000000000000274,-7.539774854992093545
0.434000000000000274,-7.476530002469914393
0.435000000000000275,-7.414367115804848751
0.436000000000000276,-7.353284314762293938
0.437000000000000277,-7.293279073037086668
0.438000000000000278,-7.234348236915851160
0.439000000000000279,-7.176488043973809461
0.440000000000000280,-7.119694141783087460
0.441000000000000281,-7.063961606610637212
0.442000000000000282,-7.009284962084736392
0.443000000000000282,-6.955658197809941434
0.444000000000000283,-6.903074787911424259
0.445000000000000284,-6.851527709490321527
0.446000000000000285,-6.801009460972728959
0.447000000000000286,-6.751512080335970722
0.448000000000000287,-6.703027163196269456
0.449000000000000288,-6.655545880743224174
0.450000000000000289,-6.609058997506963351
0.451000000000000290,-6.563556888944854784
0.452000000000000290,-6.519029558835377713
0.453000000000000291,-6.475466656467474991
0.454000000000000292,-6.432857493614593025
0.455000000000000293,-6.391191061283127972
0.456000000000000294,-6.350456046225973594
0.457000000000000295,-6.310640847212304116
0.458000000000000296,-6.271733591045533629
0.459000000000000297,-6.233722148322027756
0.460000000000000298,-6.196594148923724177
0.461000000000000298,-6.160336997238485601
0.462000000000000299,-6.124937887102529288
0.463000000000000300,-6.090383816459878474
0.464000000000000301,-6.056661601734379730
0.465000000000000302,-6.023757891910273443
0.466000000000000303,-5.991659182317810917
0.467000000000000304,-5.960351828121014606
0.468000000000000305,-5.929822057505019117
0.469000000000000306,-5.900055984560924394
0.470000000000000306,-5.871039621866614766
0.471000000000000307,-5.842758892762198286
0.472000000000000308,-5.815199643319386880
0.473000000000000309,-5.788347654004281750
0.474000000000000310,-5.762188651033548936
0.475000000000000311,-5.736708317424206172
0.476000000000000312,-5.711892303737706733
0.477000000000000313,-5.687726238519098310
0.478000000000000314,-5.664195738432561633
0.479000000000000314,-5.641286418094854760
0.480000000000000315,-5.618983899608243071
0.481000000000000316,-5.597273821795160309
0.482000000000000317,-5.576141849136615036
0.483000000000000318,-5.555573680416985738
0.484000000000000319,-5.535555057077770513
0.485000000000000320,-5.516071771283236558
0.486000000000000321,-5.497109673700983912
0.487000000000000322,-5.478654681000683091
0.488000000000000322,-5.460692783074337697
0.489000000000000323,-5.443210049981685117
0.490000000000000324,-5.426192638624337761
0.491000000000000325,-5.409626799152521315
0.492000000000000326,-5.393498881108309106
0.493000000000000327,-5.377795339309381362
0.494000000000000328,-5.362502739477454483
0.495000000000000329,-5.347607763615592980
0.496000000000000330,-5.333097215138653091
0.497000000000000330,-5.318958023761302556
0.498000000000000331,-5.305177250147965040
0.499000000000000332,-5.291742090329210058
0.500000000000000333,-5.278639879889149178
0.501000000000000334,-5.265858097928303394
0.502000000000000335,-5.253384370806656989
0.503000000000000336,-5.241206475671460474
0.504000000000000337,-5.229312343774448202
0.505000000000000338,-5.217690063583108717
0.506000000000000338,-5.206327883690726743
0.507000000000000339,-5.195214215529817992
0.508000000000000340,-5.184337635893632168
0.509000000000000341,-5.173686889270448397
0.510000000000000342,-5.163250889995205206
0.511000000000000343,-5.153018724223201730
0.512000000000000344,-5.142979651730411383
0.513000000000000345,-5.133123107545016772
0.514000000000000346,-5.123438703414786133
0.515000000000000346,-5.113916229114684242
0.516000000000000347,-5.104545653599342536
0.517000000000000348,-5.095317126004792030
0.518000000000000349,-5.086220976503835978
0.519000000000000350,-5.077247717019499618
0.520000000000000351,-5.068388041800830024
0.521000000000000352,-5.059632827865348403
0.522000000000000353,-5.050973135312362139
0.523000000000000353,-5.042400207511293253
0.524000000000000354,-5.033905471169200396
0.525000000000000355,-5.025480536281486721
0.526000000000000356,-5.017117195969799326
0.527000000000000357,-5.008807426211133951
0.528000000000000358,-5.000543385461929446
0.529000000000000359,-4.992317414181053792
0.530000000000000360,-4.984122034255372924
0.531000000000000361,-4.975949948331644279
0.532000000000000361,-4.967794039058351707
0.533000000000000362,-4.959647368241007825
0.534000000000000363,-4.951503175914494292
0.535000000000000364,-4.943354879335807084
0.536000000000000365,-4.935196071900582737
0.537000000000000366,-4.927020521986759327
0.538000000000000367,-4.918822171728499448
0.539000000000000368,-4.910595135723663240
0.540000000000000369,-4.902333699677813073
0.541000000000000369,-4.894032318987869168
0.542000000000000370,-4.885685617268308967
0.543000000000000371,-4.877288384822858980
0.544000000000000372,-4.868835577064471565
0.545000000000000373,-4.860322312886379059
0.546000000000000374,-4.851743872986881811
0.547000000000000375,-4.843095698150530204
0.548000000000000376,-4.834373387488279050
0.549000000000000377,-4.825572696639063963
0.550000000000000377,-4.816689535935288369
0.551000000000000378,-4.807719968534547306
0.552000000000000379,-4.798660208519947901
0.553000000000000380,-4.789506618971216767
0.554000000000000381,-4.780255710008816550
0.555000000000000382,-4.770904136813213903
0.556000000000000383,-4.761448697621271542
0.557000000000000384,-4.751886331701898669
0.558000000000000385,-4.742214117312776978
0.559000000000000385,-4.732429269640163305
0.560000000000000386,-4.722529138723486675
0.561000000000000387,-4.712511207366619104
0.562000000000000388,-4.702373089037443776
0.563000000000000389,-4.692112525757474728
0.564000000000000390,-4.681727385983037060
0.565000000000000391,-4.671215662479663244
0.566000000000000392,-4.660575470191126612
0.567000000000000393,-4.649805044104640572
0.568000000000000393,-4.638902737113541619
0.569000000000000394,-4.627867017878882550
0.570000000000000395,-4.616696468691229072
0.571000000000000396,-4.605389783333857956
0.572000000000000397,-4.593945764948658805
0.573000000000000398,-4.582363323905829233
0.574000000000000399,-4.570641475678534071
0.575000000000000400,-4.558779338723578434
0.576000000000000401,-4.546776132369115153
0.577000000000000401,-4.534631174710465729
0.578000000000000402,-4.522343880514872794
0.579000000000000403,-4.509913759136197520
0.580000000000000404,-4.497340412440417268
0.581000000000000405,-4.484623532742714858
0.582000000000000406,-4.471762900757016546
0.583000000000000407,-4.458758383558669713
0.584000000000000408,-4.445609932561065847
0.585000000000000409,-4.432317581506833193
0.586000000000000409,-4.418881444474275000
0.587000000000000410,-4.405301713899722138
0.588000000000000411,-4.391578658616280606
0.589000000000000412,-4.377712621909698676
0.590000000000000413,-4.363704019591686745
0.591000000000000414,-4.349553338091384447
0.592000000000000415,-4.335261132565301878
0.593000000000000416,-4.320828025026235863
0.594000000000000417,-4.306254702491577824
0.595000000000000417,-4.291541915151432462
0.596000000000000418,-4.276690474556788857
0.597000000000000419,-4.261701251828271531
0.598000000000000420,-4.246575175885594966
0.599000000000000421,-4.231313231698162092
0.600000000000000422,-4.215916458556969282
0.601000000000000423,-4.200385948368138500
0.602000000000000424,-4.184722843968244455
0.603000000000000425,-4.168928337461686340
0.604000000000000425,-4.153003668580245389
0.605000000000000426,-4.136950123065014751
0.606000000000000427,-4.120769031070890875
0.607000000000000428,-4.104461765593597100
0.608000000000000429,-4.088029740919602695
0.609000000000000430,-4.071474411098743751
0.610000000000000431,-4.054797268439879865
0.611000000000000432,-4.037999842029456055
0.612000000000000433,-4.021083696273092478
0.613000000000000433,-4.004050429460266791
0.614000000000000434,-3.986901672352058945
0.615000000000000435,-3.969639086791902027
0.616000000000000436,-3.952264364339470148
0.617000000000000437,-3.934779224927580366
0.618000000000000438,-3.917185415542076221
0.619000000000000439,-3.899484708924661813
0.620000000000000440,-3.881678902298666856
0.621000000000000441,-3.863769816117592626
0.622000000000000441,-3.845759292836440579
0.623000000000000442,-3.827649195705654872
0.624000000000000443,-3.809441407587647266
0.625000000000000444,-3.791137829795791614
0.626000000000000445,-3.772740380955676098
0.627000000000000446,-3.754250995888654074
0.628000000000000447,-3.735671624517392875
0.629000000000000448,-3.717004230793408137
0.630000000000000449,-3.698250791646350955
0.631000000000000449,-3.679413295954932384
0.632000000000000450,-3.660493743539343647
0.633000000000000451,-3.641494144174955316
0.634000000000000452,-3.622416516627162686
0.635000000000000453,-3.603262887707183726
0.636000000000000454,-3.584035291348624419
0.637000000000000455,-3.564735767704651614
0.638000000000000456,-3.545366362265517601
0.639000000000000457,-3.525929124996328490
0.640000000000000457,-3.506426109494788168
0.641000000000000458,-3.486859372168708227
0.642000000000000459,-3.467230971433178155
0.643000000000000460,-3.447542966927011232
0.644000000000000461,-3.427797418748435909
0.645000000000000462,-3.407996386709696957
0.646000000000000463,-3.388141929610367420
0.647000000000000464,-3.368236104529185759
0.648000000000000465,-3.348280966134196124
0.649000000000000465,-3.328278566010876460
0.650000000000000466,-3.308230952008185177
0.651000000000000467,-3.288140167602128905
0.652000000000000468,-3.268008251276756759
0.653000000000000469,-3.247837235922248933
0.654000000000000470,-3.227629148249977042
0.655000000000000471,-3.207386008224172080
0.656000000000000472,-3.187109828510085840
0.657000000000000473,-3.166802613938328737
0.658000000000000473,-3.146466360985210819
0.659000000000000474,-3.126103057268800889
0.660000000000000475,-3.105714681060521620
0.661000000000000476,-3.085303200811969848
0.662000000000000477,-3.064870574696832328
0.663000000000000478,-3.044418750167557697
0.664000000000000479,-3.023949663526653620
0.665000000000000480,-3.003465239512241425
0.666000000000000481,-2.982967390897831361
0.667000000000000481,-2.962458018105839308
0.668000000000000482,-2.941939008834886238
0.669000000000000483,-2.921412237700405257
0.670000000000000484,-2.900879565888492717
0.671000000000000485,-2.880342840822703199
0.672000000000000486,-2.859803895843561428
0.673000000000000487,-2.839264549900640588
0.674000000000000488,-2.818726607256846872
0.675000000000000488,-2.798191857204802346
0.676000000000000489,-2.777662073795120534
0.677000000000000490,-2.757139015576195451
0.678000000000000491,-2.736624425345500544
0.679000000000000492,-2.716120029912023615
0.680000000000000493,-2.695627539869671629
0.681000000000000494,-2.675148649381478005
0.682000000000000495,-2.654685035974311713
0.683000000000000496,-2.634238360343983398
0.684000000000000496,-2.613810266170435437
0.685000000000000497,-2.593402379942905345
0.686000000000000498,-2.573016310794794315
0.687000000000000499,-2.552653650348080117
0.688000000000000500,-2.532315972567022566
0.689000000000000501,-2.512004833621049649
0.690000000000000502,-2.491721771756557846
0.691000000000000503,-2.471468307177443258
0.692000000000000504,-2.451245941934193873
0.693000000000000504,-2.431056159821391560
0.694000000000000505,-2.410900426283297371
0.695000000000000506,-2.390780188327543243
0.696000000000000507,-2.370696874446546865
0.697000000000000508,-2.350651894546606613
0.698000000000000509,-2.330646639884463855
0.699000000000000510,-2.310682483011082589
0.700000000000000511,-2.290760777722629093
0.701000000000000512,-2.270882859018304778
0.702000000000000512,-2.251050043065010442
0.703000000000000513,-2.231263627168572850
0.704000000000000514,-2.211524889751439904
0.705000000000000515,-2.191835090336632597
0.706000000000000516,-2.172195469537839152
0.707000000000000517,-2.152607249055448424
0.708000000000000518,-2.133071631678392865
0.709000000000000519,-2.113589801291687831
0.710000000000000520,-2.094162922889402978
0.711000000000000520,-2.074792142593059996
0.712000000000000521,-2.055478587675202640
0.713000000000000522,-2.036223366588031158
0.714000000000000523,-2.017027568997017184
0.715000000000000524,-1.997892265819215085
0.716000000000000525,-1.978818509266321302
0.717000000000000526,-1.959807332892184117
0.718000000000000527,-1.940859751644719022
0.719000000000000528,-1.921976761922078891
0.720000000000000528,-1.903159341632969959
0.721000000000000529,-1.884408450260904200
0.722000000000000530,-1.865725028932423202
0.723000000000000531,-1.847110000488979775
0.724000000000000532,-1.828564269562531042
0.725000000000000533,-1.810088722654610738
0.726000000000000534,-1.791684228218803243
0.727000000000000535,-1.773351636746528515
0.728000000000000536,-1.755091780855976946
0.729000000000000536,-1.736905475384137976
0.730000000000000537,-1.718793517481790989
0.731000000000000538,-1.700756686711307974
0.732000000000000539,-1.682795745147281918
0.733000000000000540,-1.664911437479744238
0.734000000000000541,-1.647104491119966152
0.735000000000000542,-1.629375616308688324
0.736000000000000543,-1.611725506226766358
0.737000000000000544,-1.594154837107992773
0.738000000000000544,-1.576664268354195375
0.739000000000000545,-1.559254442652316275
0.740000000000000546,-1.541925986093569012
0.741000000000000547,-1.524679508294445096
0.742000000000000548,-1.507515602519605924
0.743000000000000549,-1.490434845806447139
0.744000000000000550,-1.473437799091355860
0.745000000000000551,-1.456525007337563071
0.746000000000000552,-1.439696999664476618
0.747000000000000552,-1.422954289478445711
0.748000000000000553,-1.406297374604874806
0.749000000000000554,-1.389726737421608460
0.750000000000000555,-1.373242844993558309
0.751000000000000556,-1.356846149208408958
0.752000000000000557,-1.340537086913461184
0.753000000000000558,-1.324316080053406397
0.754000000000000559,-1.308183535809103626
0.755000000000000560,-1.292139846737174302
0.756000000000000560,-1.276185390910473894
0.757000000000000561,-1.260320532059229226
0.758000000000000562,-1.244545619712935869
0.759000000000000563,-1.228860989342864141
0.760000000000000564,-1.213266962505148872
0.761000000000000565,-1.197763846984382985
0.762000000000000566,-1.182351936937694248
0.763000000000000567,-1.167031513039246571
0.764000000000000568,-1.151802842625065271
0.765000000000000568,-1.136666179838238477
0.766000000000000569,-1.121621765774319268
0.767000000000000570,-1.106669828627005803
0.768000000000000571,-1.091810583833923154
0.769000000000000572,-1.077044234222609864
0.770000000000000573,-1.062370970156528260
0.771000000000000574,-1.047790969681148487
0.772000000000000575,-1.033304398670011448
0.773000000000000576,-1.018911410970757547
0.774000000000000576,-1.004612148551074613
0.775000000000000577,-0.990406741644543454
0.776000000000000578,-0.976295308896279357
0.777000000000000579,-0.962277957508448800
0.778000000000000580,-0.948354783385491173
0.779000000000000581,-0.934525871279134557
0.780000000000000582,-0.920791294933075100
0.781000000000000583,-0.907151117227370407
0.782000000000000584,-0.893605390322430582
0.783000000000000584,-0.880154155802654992
0.784000000000000585,-0.866797444819653484
0.785000000000000586,-0.853535278234982320
0.786000000000000587,-0.840367666762463883
0.787000000000000588,-0.827294611109973155
0.788000000000000589,-0.814316102120679397
0.789000000000000590,-0.801432120913811219
0.790000000000000591,-0.788642639024754954
0.791000000000000592,-0.775947618544637119
0.792000000000000592,-0.763347012259231072
0.793000000000000593,-0.750840763787249399
0.794000000000000594,-0.738428807717973590
0.795000000000000595,-0.726111069748199833
0.796000000000000596,-0.713887466818465932
0.797000000000000597,-0.701757907248591661
0.798000000000000598,-0.689722290872449406
0.799000000000000599,-0.677780509171995060
0.800000000000000600,-0.665932445410533314
0.801000000000000600,-0.654177974765174697
0.802000000000000601,-0.642516964458507589
0.803000000000000602,-0.630949273889439444
0.804000000000000603,-0.619474754763219559
0.805000000000000604,-0.608093251220614528
0.806000000000000605,-0.596804599966192728
0.807000000000000606,-0.585608630395803353
0.808000000000000607,-0.574505164723103534
0.809000000000000608,-0.563494018105236694
0.810000000000000608,-0.552574998767611847
0.811000000000000609,-0.541747908127708344
0.812000000000000610,-0.531012540918049170
0.813000000000000611,-0.520368685308151058
0.814000000000000612,-0.509816123025594869
0.815000000000000613,-0.499354629476134515
0.816000000000000614,-0.488983973862816168
0.817000000000000615,-0.478703919304177383
0.818000000000000616,-0.468514222951453452
0.819000000000000616,-0.458414636104802597
0.820000000000000617,-0.448404904328554399
0.821000000000000618,-0.438484767565478939
0.822000000000000619,-0.428653960250056254
0.823000000000000620,-0.418912211420740810
0.824000000000000621,-0.409259244831224334
0.825000000000000622,-0.399694779060706051
0.826000000000000623,-0.390218527623151012
0.827000000000000624,-0.380830199075517517
0.828000000000000624,-0.371529497124999941
0.829000000000000625,-0.362316120735218294
0.830000000000000626,-0.353189764231420567
0.831000000000000627,-0.344150117404641520
0.832000000000000628,-0.335196865614868389
0.833000000000000629,-0.326329689893130437
0.834000000000000630,-0.317548267042621235
0.835000000000000631,-0.308852269738764063
0.836000000000000631,-0.300241366628246353
0.837000000000000632,-0.291715222427066767
0.838000000000000633,-0.283273498017502345
0.839000000000000634,-0.274915850544097673
0.840000000000000635,-0.266641933508618645
0.841000000000000636,-0.258451396863953020
0.842000000000000637,-0.250343887107048024
0.843000000000000638,-0.242319047370771562
0.844000000000000639,-0.234376517514787663
0.845000000000000639,-0.226515934215412468
0.846000000000000640,-0.218736931054434092
0.847000000000000641,-0.211039138606968157
0.848000000000000642,-0.203422184528251421
0.849000000000000643,-0.195885693639450797
0.850000000000000644,-0.188429288012507717
0.851000000000000645,-0.181052587053895264
0.852000000000000646,-0.173755207587475924
0.853000000000000647,-0.166536763936298099
0.854000000000000647,-0.159396868003428033
0.855000000000000648,-0.152335129351797272
0.856000000000000649,-0.145351155283072464
0.857000000000000650,-0.138444550915536035
0.858000000000000651,-0.131614919260993501
0.859000000000000652,-0.124861861300724714
0.860000000000000653,-0.118184976060468253
0.861000000000000654,-0.111583860684426495
0.862000000000000655,-0.105058110508352315
0.863000000000000655,-0.098607319131644638
0.864000000000000656,-0.092231078488540105
0.865000000000000657,-0.085928978918321214
0.866000000000000658,-0.079700609234631556
0.867000000000000659,-0.073545556793843198
0.868000000000000660,-0.067463407562491251
0.869000000000000661,-0.061453746183799243
0.870000000000000662,-0.055516156043304135
0.871000000000000663,-0.049650219333557517
0.872000000000000663,-0.043855517117920940
0.873000000000000664,-0.038131629393495493
0.874000000000000665,-0.032478135153116927
0.875000000000000666,-0.026894612446522914
0.876000000000000667,-0.021380638440581627
0.877000000000000668,-0.015935789478701324
0.878000000000000669,-0.010559641139349740
0.879000000000000670,-0.005251768293707821
0.880000000000000671,-0.000011745162498489
0.881000000000000671,0.005160854628071648
0.882000000000000672,0.010266457991156885
0.883000000000000673,0.015305492325008529
0.884000000000000674,0.020278385459491077
0.885000000000000675,0.025185565603450921
0.886000000000000676,0.030027461292875868
0.887000000000000677,0.034804501339876739
0.888000000000000678,0.039517114782472496
0.889000000000000679,0.044165730835148562
0.890000000000000679,0.048750778840231788
0.891000000000000680,0.053272688220017503
0.892000000000000681,0.057731888429694810
0.893000000000000682,0.062128808911024257
0.894000000000000683,0.066463879046791602
0.895000000000000684,0.070737528115989351
0.896000000000000685,0.074950185249774065
0.897000000000000686,0.079102279388154270
0.898000000000000687,0.083194239237393011
0.899000000000000687,0.087226493228179436
0.900000000000000688,0.091199469474477227
0.901000000000000689,0.095113595733115730
0.902000000000000690,0.098969299364069493
0.903000000000000691,0.102767007291451759
0.904000000000000692,0.106507145965194908
0.905000000000000693,0.110190141323418131
0.906000000000000694,0.113816418755465595
0.907000000000000695,0.117386403065646225
0.908000000000000695,0.120900518437596083
0.909000000000000696,0.124359188399344900
0.910000000000000697,0.127762835789000773
0.911000000000000698,0.131111882721102246
0.912000000000000699,0.134406750553603821
0.913000000000000700,0.137647859855477728
0.914000000000000701,0.140835630374985976
0.915000000000000702,0.143970481008511619
0.916000000000000703,0.147052829770056098
0.917000000000000703,0.150083093761309072
0.918000000000000704,0.153061689142334034
0.919000000000000705,0.155989031102846926
0.920000000000000706,0.158865533834063599
0.921000000000000707,0.161691610501159155
0.922000000000000708,0.164467673216273036
0.923000000000000709,0.167194133012082358
0.924000000000000710,0.169871399815965329
0.925000000000000711,0.172499882424680617
0.926000000000000711,0.175079988479621862
0.927000000000000712,0.177612124442602271
0.928000000000000713,0.180096695572176196
0.929000000000000714,0.182534105900487742
0.930000000000000715,0.184924758210653267
0.931000000000000716,0.187269054014648273
0.932000000000000717,0.189567393531702627
0.933000000000000718,0.191820175667221371
0.934000000000000719,0.194027797992173318
0.935000000000000719,0.196190656722995960
0.936000000000000720,0.198309146701980049
0.937000000000000721,0.200383661378127881
0.938000000000000722,0.202414592788489667
0.939000000000000723,0.204402331539976834
0.940000000000000724,0.206347266791620021
0.941000000000000725,0.208249786237305556
0.942000000000000726,0.210110276088937120
0.943000000000000727,0.211929121060071335
0.944000000000000727,0.213706704349966026
0.945000000000000728,0.215443407628075956
0.946000000000000729,0.217139611018984102
0.947000000000000730,0.218795693087729864
0.948000000000000731,0.220412030825588662
0.949000000000000732,0.221988999636226009
0.950000000000000733,0.223526973322293321
0.951000000000000734,0.225026324072384376
0.952000000000000735,0.226487422448431730
0.953000000000000735,0.227910637373457708
0.954000000000000736,0.229296336119725275
0.955000000000000737,0.230644884297263486
0.956000000000000738,0.231956645842765929
0.957000000000000739,0.233231983008867549
0.958000000000000740,0.234471256353768143
0.959000000000000741,0.235674824731230886
0.960000000000000742,0.236843045280919096
0.961000000000000743,0.237976273419097273
0.962000000000000743,0.239074862829662838
0.963000000000000744,0.240139165455524356
0.964000000000000745,0.241169531490298988
0.965000000000000746,0.242166309370363569
0.966000000000000747,0.243129845767206199
0.967000000000000748,0.244060485580112646
0.968000000000000749,0.244958571929148772
0.969000000000000750,0.245824446148481840
0.970000000000000751,0.246658447779968981
0.971000000000000751,0.247460914567085910
0.972000000000000752,0.248232182449126842
0.973000000000000753,0.248972585555688852
0.974000000000000754,0.249682456201476249
0.975000000000000755,0.250362124881350012
0.976000000000000756,0.251011920265682698
0.977000000000000757,0.251632169195973310
0.978000000000000758,0.252223196680741113
0.979000000000000759,0.252785325891664137
0.980000000000000759,0.253318878160014027
0.981000000000000760,0.253824172973317719
0.982000000000000761,0.254301527972273900
0.983000000000000762,0.254751258947941706
0.984000000000000763,0.255173679839153400
0.985000000000000764,0.255569102730165865
0.986000000000000765,0.255937837848564942
0.987000000000000766,0.256280193563392489
0.988000000000000766,0.256596476383502192
0.989000000000000767,0.256886990956139316
0.990000000000000768,0.257152040065746601
0.991000000000000769,0.257391924632990876
0.992000000000000770,0.257606943713994563
0.993000000000000771,0.257797394499774402
0.994000000000000772,0.257963572315909440
0.995000000000000773,0.258105770622377440
0.996000000000000774,0.258224281013625379
0.997000000000000774,0.258319393218811144
0.998000000000000775,0.258391395102251231
0.999000000000000776,0.258440572664047741
1.000000000000000666,0.258467210040910889
1.001000000000000778,0.258471589507155985
1.002000000000000668,0.258453991475882272
1.003000000000000780,0.258414694500331943
1.004000000000000670,0.258353975275410264
1.005000000000000782,0.258272108639385767
1.006000000000000671,0.258169367575746711
1.007000000000000783,0.258046023215240505
1.008000000000000673,0.257902344838039088
1.009000000000000785,0.257738599876095098
1.010000000000000675,0.257555053915629828
1.011000000000000787,0.257351970699785493
1.012000000000000677,0.257129612131409668
1.013000000000000789,0.256888238275999381
1.014000000000000679,0.256628107364789249
1.015000000000000790,0.256349475797954585
1.016000000000000680,0.256052598147978094
1.017000000000000792,0.255737727163141249
1.018000000000000682,0.255405113771136949
1.019000000000000794,0.255055007082824914
1.020000000000000684,0.254687654396101304
1.021000000000000796,0.254303301199893750
1.022000000000000686,0.253902191178287662
1.023000000000000798,0.253484566214746798
1.024000000000000687,0.253050666396476553
1.025000000000000799,0.252600730018872788
1.026000000000000689,0.252134993590105938
1.027000000000000801,0.251653691835793780
1.028000000000000691,0.251157057703782216
1.029000000000000803,0.250645322369044798
1.030000000000000693,0.250118715238663247
1.031000000000000805,0.249577463956909634
1.032000000000000695,0.249021794410443531
1.033000000000000806,0.248451930733567472
1.034000000000000696,0.247868095313607290
1.035000000000000808,0.247270508796369443
1.036000000000000698,0.246659390091680919
1.037000000000000810,0.246034956379005409
1.038000000000000700,0.245397423113178359
1.039000000000000812,0.244747004030180598
1.040000000000000702,0.244083911153012867
1.041000000000000814,0.243408354797638588
1.042000000000000703,0.242720543579021258
1.043000000000000815,0.242020684417195625
1.044000000000000705,0.241308982543445294
1.045000000000000817,0.240585641506539105
1.046000000000000707,0.239850863179020823
1.047000000000000819,0.239104847763578127
1.048000000000000709,0.238347793799479207
1.049000000000000821,0.237579898169045706
1.050000000000000711,0.236801356104223343
1.051000000000000822,0.236012361193166237
1.052000000000000712,0.235213105386915894
1.053000000000000824,0.234403779006115615
1.054000000000000714,0.233584570747775111
1.055000000000000826,0.232755667692099433
1.056000000000000716,0.231917255309350534
1.057000000000000828,0.231069517466774649
1.058000000000000718,0.230212636435561280
1.059000000000000830,0.229346792897856588
1.060000000000000719,0.228472165953806428
1.061000000000000831,0.227588933128666904
1.062000000000000721,0.226697270379922683
1.063000000000000833,0.225797352104462501
1.064000000000000723,0.224889351145800109
1.065000000000000835,0.223973438801305491
1.066000000000000725,0.223049784829489672
1.067000000000000837,0.222118557457328336
1.068000000000000727,0.221179923387583965
1.069000000000000838,0.220234047806205258
1.070000000000000728,0.219281094389711717
1.071000000000000840,0.218321225312637285
1.072000000000000730,0.217354601254978075
1.073000000000000842,0.216381381409683937
1.074000000000000732,0.215401723490162539
1.075000000000000844,0.214415783737805399
1.076000000000000734,0.213423716929544816
1.077000000000000846,0.212425676385419177
1.078000000000000735,0.211421813976166190
1.079000000000000847,0.210412280130834878
1.080000000000000737,0.209397223844399905
1.081000000000000849,0.208376792685417506
1.082000000000000739,0.207351132803669985
1.083000000000000851,0.206320388937840660
1.084000000000000741,0.205284704423189135
1.085000000000000853,0.204244221199256781
1.086000000000000743,0.203199079817561135
1.087000000000000854,0.202149419449312917
1.088000000000000744,0.201095377893133254
1.089000000000000856,0.200037091582796617
1.090000000000000746,0.198974695594955953
1.091000000000000858,0.197908323656884100
1.092000000000000748,0.196838108154231362
1.093000000000000860,0.195764180138766536
1.094000000000000750,0.194686669336138624
1.095000000000000862,0.193605704153627822
1.096000000000000751,0.192521411687903710
1.097000000000000863,0.191433917732792114
1.098000000000000753,0.190343346787022000
1.099000000000000865,0.189249822061983070
1.100000000000000755,0.188153465489495658
1.101000000000000867,0.187054397729544269
1.102000000000000757,0.185952738178040033
1.103000000000000869,0.184848604974555630
1.104000000000000759,0.183742115010078644
1.105000000000000870,0.182633383934729665
1.106000000000000760,0.181522526165508569
1.107000000000000872,0.180409654893999377
1.108000000000000762,0.179294882094092972
1.109000000000000874,0.178178318529691876
1.110000000000000764,0.177060073762403347
1.111000000000000876,0.175940256159232838
1.112000000000000766,0.174818972900251890
1.113000000000000878,0.173696329986270659
1.114000000000000767,0.172572432246487051
1.115000000000000879,0.171447383346136351
1.116000000000000769,0.170321285794114929
1.117000000000000881,0.169194240950597707
1.118000000000000771,0.168066349034644014
1.119000000000000883,0.166937709131783935
1.120000000000000773,0.165808419201591173
1.121000000000000885,0.164678576085246386
1.122000000000000774,0.163548275513077879
1.123000000000000886,0.162417612112085330
1.124000000000000776,0.161286679413451622
1.125000000000000888,0.160155569860041092
1.126000000000000778,0.159024374813868830
1.127000000000000890,0.157893184563549838
1.128000000000000780,0.156762088331758753
1.129000000000000892,0.155631174282627960
1.130000000000000782,0.154500529529160324
1.131000000000000894,0.153370240140601716
1.132000000000000783,0.152240391149808640
1.133000000000000895,0.151111066560575658
1.134000000000000785,0.149982349354970956
1.135000000000000897,0.148854321500611869
1.136000000000000787,0.147727063957960453
1.137000000000000899,0.146600656687558561
1.138000000000000789,0.145475178657278464
1.139000000000000901,0.144350707849502907
1.140000000000000790,0.143227321268336205
1.141000000000000902,0.142105094946754607
1.142000000000000792,0.140984103953740059
1.143000000000000904,0.139864422401396904
1.144000000000000794,0.138746123452039877
1.145000000000000906,0.137629279325268361
1.146000000000000796,0.136513961304983417
1.147000000000000908,0.135400239746423068
1.148000000000000798,0.134288184083142720
1.149000000000000909,0.133177862833975091
1.150000000000000799,0.132069343609975048
1.151000000000000689,0.130962693121323470
1.152000000000000801,0.129857977184213491
1.153000000000000913,0.128755260727710541
1.154000000000000803,0.127654607800577441
1.155000000000000693,0.126556081578089508
1.156000000000000805,0.125459744368793591
1.157000000000000917,0.124365657621272718
1.158000000000000806,0.123273881930859669
1.159000000000000696,0.122184477046329204
1.160000000000000808,0.121097501876568731
1.161000000000000920,0.120013014497210732
1.162000000000000810,0.118931072157239415
1.163000000000000700,0.117851731285579173
1.164000000000000812,0.116775047497631151
1.165000000000000924,0.115701075601812906
1.166000000000000814,0.114629869606038562
1.167000000000000703,0.113561482724186133
1.168000000000000815,0.112495967382534312
1.169000000000000927,0.111433375226166920
1.170000000000000817,0.110373757125345473
1.171000000000000707,0.109317163181862534
1.172000000000000819,0.108263642735345583
1.173000000000000931,0.107213244369553748
1.174000000000000821,0.106166015918635726
1.175000000000000711,0.105122004473344438
1.176000000000000822,0.104081256387241153
1.177000000000000934,0.103043817282859898
1.178000000000000824,0.102009732057842098
1.179000000000000714,0.100979044891044506
1.180000000000000826,0.099951799248603965
1.181000000000000938,0.098928037889993367
1.182000000000000828,0.097907802874027228
1.183000000000000718,0.096891135564845854
1.184000000000000830,0.095878076637864490
1.185000000000000941,0.094868666085702963
1.186000000000000831,0.093862943224062079
1.187000000000000721,0.092860946697593261
1.188000000000000833,0.091862714485722308
1.189000000000000945,0.090868283908446354
1.190000000000000835,0.089877691632098883
1.191000000000000725,0.088890973675095408
1.192000000000000837,0.087908165413611170
1.193000000000000949,0.086929301587290203
1.194000000000000838,0.085954416304852094
1.195000000000000728,0.084983543049730048
1.196000000000000840,0.084016714685631974
1.197000000000000952,0.083053963462096189
1.198000000000000842,0.082095321020010714
1.199000000000000732,0.081140818397089018
1.200000000000000844,0.080190486033344638
1.201000000000000956,0.079244353776488294
1.202000000000000846,0.078302450887346650
1.203000000000000735,0.077364806045201379
1.204000000000000847,0.076431447353141405
1.205000000000000959,0.075502402343338132
1.206000000000000849,0.074577697982335822
1.207000000000000739,0.073657360676275027
1.208000000000000851,0.072741416276104615
1.209000000000000963,0.071829890082752937
1.210000000000000853,0.070922806852276268
1.211000000000000743,0.070020190800971466
1.212000000000000854,0.069122065610455821
1.213000000000000966,0.068228454432720104
1.214000000000000856,0.067339379895147530
1.215000000000000746,0.066454864105512851
1.216000000000000858,0.065574928656923603
1.217000000000000970,0.064699594632770849
1.218000000000000860,0.063828882611611890
1.219000000000000750,0.062962812672039237
1.220000000000000862,0.062101404397523007
1.221000000000000973,0.061244676881218006
1.222000000000000863,0.060392648730732287
1.223000000000000753,0.059545338072881149
1.224000000000000865,0.058702762558401254
1.225000000000000977,0.057864939366624846
1.226000000000000867,0.057031885210156098
1.227000000000000757,0.056203616339476750
1.228000000000000869,0.055380148547557705
1.229000000000000981,0.054561497174403839
1.230000000000000870,0.053747677111615391
1.231000000000000760,0.052938702806870852
1.232000000000000872,0.052134588268412163
1.233000000000000984,0.051335347069500381
1.234000000000000874,0.050540992352811384
1.235000000000000764,0.049751536834846385
1.236000000000000876,0.048966992810270428
1.237000000000000988,0.048187372156258269
1.238000000000000878,0.047412686336777768
1.239000000000000767,0.046642946406873741
1.240000000000000879,0.045878163016900821
1.241000000000000991,0.045118346416742415
1.242000000000000881,0.044363506459990987
1.243000000000000771,0.043613652608098720
1.244000000000000883,0.042868793934517438
1.245000000000000995,0.042128939128782524
1.246000000000000885,0.041394096500585599
1.247000000000000774,0.040664273983820297
1.248000000000000886,0.039939479140594432
1.249000000000000998,0.039219719165208847
1.250000000000000888,0.038505000888116744
1.251000000000000778,0.037795330779856015
1.252000000000000890,0.037090714954944058
1.253000000000001002,0.036391159175760072
1.254000000000000892,0.035696668856374646
1.255000000000000782,0.035007249066383833
1.256000000000000894,0.034322904534689655
1.257000000000001005,0.033643639653267152
1.258000000000000895,0.032969458480897489
1.259000000000000785,0.032300364746880320
1.260000000000000897,0.031636361854712691
1.261000000000001009,0.030977452885739932
1.262000000000000899,0.030323640602797818
1.263000000000000789,0.029674927453796334
1.264000000000000901,0.029031315575303647
1.265000000000001013,0.028392806796095273
1.266000000000000902,0.027759402640673038
1.267000000000000792,0.027131104332759542
1.268000000000000904,0.026507912798773191
1.269000000000001016,0.025889828671267878
1.270000000000000906,0.025276852292348707
1.271000000000000796,0.024668983717067400
1.272000000000000908,0.024066222716791461
1.273000000000001020,0.023468568782537530
1.274000000000000909,0.022876021128291440
1.275000000000000799,0.022288578694300887
1.276000000000000911,0.021706240150330222
1.277000000000001023,0.021129003898913035
1.278000000000000913,0.020556868078558364
1.279000000000000803,0.019989830566946153
1.280000000000000915,0.019427888984083229
1.281000000000001027,0.018871040695458911
1.282000000000000917,0.018319282815149395
1.283000000000000806,0.017772612208912519
1.284000000000000918,0.017231025497257406
1.285000000000001030,0.016694519058489399
1.286000000000000920,0.016163089031723747
1.287000000000000810,0.015636731319887649
1.288000000000000922,0.015115441592687014
1.289000000000001034,0.014599215289559628
1.290000000000000924,0.014088047622600719
1.291000000000000814,0.013581933579453101
1.292000000000000925,0.013080867926206084
1.293000000000001037,0.012584845210225709
1.294000000000000927,0.012093859763009054
1.295000000000000817,0.011607905702979381
1.296000000000000929,0.011126976938277345
1.297000000000001041,0.010651067169528695
1.298000000000000931,0.010180169892576493
1.299000000000000821,0.009714278401203846
1.300000000000000933,0.009253385789836277
1.301000000000001044,0.008797484956207788
1.302000000000000934,0.008346568604019271
1.303000000000000824,0.007900629245559903
1.304000000000000936,0.007459659204330729
1.305000000000001048,0.007023650617615984
1.306000000000000938,0.006592595439053574
1.307000000000000828,0.006166485441189071
1.308000000000000940,0.005745312217985450
1.309000000000001052,0.005329067187324244
1.310000000000000941,0.004917741593494909
1.311000000000000831,0.004511326509648509
1.312000000000000943,0.004109812840244037
1.313000000000001055,0.003713191323445994
1.314000000000000945,0.003321452533543968
1.315000000000000835,0.002934586883321163
1.316000000000000947,0.002552584626407462
1.317000000000001059,0.002175435859617231
1.318000000000000949,0.001803130525271117
1.319000000000000838,0.001435658413481761
1.320000000000000950,0.001073009164436507
1.321000000000001062,0.000715172270656418
1.322000000000000952,0.000362137079228544
1.323000000000000842,0.000013892794021847
1.324000000000000954,-0.000329571522111695
1.325000000000001066,-0.000668266945157255
1.326000000000000956,-0.001002204687784275
1.327000000000000846,-0.001331396097194644
1.328000000000000957,-0.001655852653017956
1.329000000000001069,-0.001975585965187675
1.330000000000000959,-0.002290607771879581
1.331000000000000849,-0.002600929937429938
1.332000000000000961,-0.002906564450293058
1.333000000000001073,-0.003207523421015107
1.334000000000000963,-0.003503819080225157
1.335000000000000853,-0.003795463776633798
1.336000000000000965,-0.004082469975071732
1.337000000000001076,-0.004364850254523539
1.338000000000000966,-0.004642617306191787
1.339000000000000856,-0.004915783931580745
1.340000000000000968,-0.005184363040583848
1.341000000000001080,-0.005448367649605035
1.342000000000000970,-0.005707810879688783
1.343000000000000860,-0.005962705954664494
1.344000000000000972,-0.006213066199317580
1.345000000000001084,-0.006458905037571955
1.346000000000000973,-0.006700235990682551
1.347000000000000863,-0.006937072675459418
1.348000000000000975,-0.007169428802494202
1.349000000000001087,-0.007397318174416320
1.350000000000000977,-0.007620754684151266
1.351000000000000867,-0.007839752313211375
1.352000000000000979,-0.008054325129981773
1.353000000000001091,-0.008264487288047606
1.354000000000000981,-0.008470253024521182
1.355000000000000870,-0.008671636658378671
1.356000000000000982,-0.008868652588832595
1.357000000000001094,-0.009061315293709840
1.358000000000000984,-0.009249639327835495
1.359000000000000874,-0.009433639321449822
1.360000000000000986,-0.009613329978629803
1.361000000000001098,-0.009788726075730229
1.362000000000000988,-0.009959842459829945
1.363000000000000878,-0.010126694047211306
1.364000000000000989,-0.010289295821844513
1.365000000000001101,-0.010447662833873961
1.366000000000000991,-0.010601810198145855
1.367000000000000881,-0.010751753092730692
1.368000000000000993,-0.010897506757466213
1.369000000000001105,-0.011039086492516439
1.370000000000000995,-0.011176507656941250
1.371000000000000885,-0.011309785667283028
1.372000000000000997,-0.011438935996166582
1.373000000000001108,-0.011563974170919570
1.374000000000000998,-0.011684915772177600
1.375000000000000888,-0.011801776432560595
1.376000000000001000,-0.011914571835298251
1.377000000000001112,-0.012023317712914459
1.378000000000001002,-0.012128029845903793
1.379000000000000892,-0.012228724061429502
1.380000000000001004,-0.012325416232030798
1.381000000000001116,-0.012418122274350126
1.382000000000001005,-0.012506858147860168
1.383000000000000895,-0.012591639853618275
1.384000000000001007,-0.012672483433028268
1.385000000000001119,-0.012749404966609293
1.386000000000001009,-0.012822420572791171
1.387000000000000899,-0.012891546406699358
1.388000000000001011,-0.012956798658991889
1.389000000000001123,-0.013018193554652798
1.390000000000001013,-0.013075747351853333
1.391000000000000902,-0.013129476340788751
1.392000000000001014,-0.013179396842544802
1.393000000000001126,-0.013225525207967789
1.394000000000001016,-0.013267877816554677
1.395000000000000906,-0.013306471075345268
1.396000000000001018,-0.013341321417830310
1.397000000000001130,-0.013372445302880348
1.398000000000001020,-0.013399859213670155
1.399000000000000909,-0.013423579656626055
1.400000000000001021,-0.013443623160376764
1.401000000000001133,-0.013460006274732265
1.402000000000001023,-0.013472745569645403
1.403000000000000913,-0.013481857634212311
1.404000000000001025,-0.013487359075670799
1.405000000000001137,-0.013489266518408347
1.406000000000001027,-0.013487596602984148
1.407000000000000917,-0.013482365985174069
1.408000000000001029,-0.013473591334992815
1.409000000000001140,-0.013461289335767890
1.410000000000001030,-0.013445476683195064
1.411000000000000920,-0.013426170084417747
1.412000000000001032,-0.013403386257108388
1.413000000000001144,-0.013377141928572658
1.414000000000001034,-0.013347453834847386
1.415000000000000924,-0.013314338719821744
1.416000000000001036,-0.013277813334367686
1.417000000000001148,-0.013237894435470321
1.418000000000001037,-0.013194598785377997
1.419000000000000927,-0.013147943150758842
1.420000000000001039,-0.013097944301865005
1.421000000000001151,-0.013044619011715556
1.422000000000001041,-0.012987984055276463
1.423000000000000931,-0.012928056208655272
1.424000000000001043,-0.012864852248308070
1.425000000000001155,-0.012798388950257009
1.426000000000001044,-0.012728683089308213
1.427000000000000934,-0.012655751438289942
1.428000000000001046,-0.012579610767288949
1.429000000000001158,-0.012500277842903839
1.430000000000001048,-0.012417769427509589
1.431000000000000938,-0.012332102278519812
1.432000000000001050,-0.012243293147668425
1.433000000000001162,-0.012151358780297323
1.434000000000001052,-0.012056315914646107
1.435000000000000941,-0.011958181281166384
1.436000000000001053,-0.011856971601823843
1.437000000000001165,-0.011752703589422341
1.438000000000001055,-0.011645393946941539
1.439000000000000945,-0.011535059366863488
1.440000000000001057,-0.011421716530526722
1.441000000000001169,-0.011305382107474081
1.442000000000001059,-0.011186072754820786
1.443000000000000949,-0.011063805116628614
1.444000000000001060,-0.010938595823275785
1.445000000000001172,-0.010810461490843082
1.446000000000001062,-0.010679418720523930
1.447000000000000952,-0.010545484098005351
1.448000000000001064,-0.010408674192895087
1.449000000000001176,-0.010269005558134975
1.450000000000001066,-0.010126494729417661
1.451000000000000956,-0.009981158224632372
1.452000000000001068,-0.009833012543297985
1.453000000000001180,-0.009682074166012768
1.454000000000001069,-0.009528359553910667
1.455000000000000959,-0.009371885148122627
1.456000000000001071,-0.009212667369244202
1.457000000000001183,-0.009050722616821657
1.458000000000001073,-0.008886067268825687
1.459000000000000963,-0.008718717681145871
1.460000000000001075,-0.008548690187091881
1.461000000000001187,-0.008376001096893262
1.462000000000001076,-0.008200666697221692
1.463000000000000966,-0.008022703250695346
1.464000000000001078,-0.007842126995412797
1.465000000000001190,-0.007658954144491401
1.466000000000001080,-0.007473200885588502
1.467000000000000970,-0.007284883380463012
1.468000000000001082,-0.007094017764523295
1.469000000000001194,-0.006900620146379441
1.470000000000001084,-0.006704706607414720
1.471000000000000973,-0.006506293201352173
1.472000000000001085,-0.006305395953838000
1.473000000000001197,-0.006102030862019902
1.474000000000001087,-0.005896213894136766
1.475000000000000977,-0.005687960989115309
1.476000000000001089,-0.005477288056175872
1.477000000000001201,-0.005264210974437022
1.478000000000001091,-0.005048745592525674
1.479000000000000981,-0.004830907728205608
1.480000000000001092,-0.004610713167993202
1.481000000000001204,-0.004388177666799583
1.482000000000001094,-0.004163316947556298
1.483000000000000984,-0.003936146700868961
1.484000000000001096,-0.003706682584659912
1.485000000000001208,-0.003474940223815974
1.486000000000001098,-0.003240935209865307
1.487000000000000988,-0.003004683100624939
1.488000000000001100,-0.002766199419879176
1.489000000000001211,-0.002525499657056291
1.490000000000001101,-0.002282599266907809
1.491000000000000991,-0.002037513669191187
1.492000000000001103,-0.001790258248371905
1.493000000000001215,-0.001540848353307234
1.494000000000001105,-0.001289299296956269
1.495000000000000995,-0.001035626356086728
1.496000000000001107,-0.000779844770983980
1.497000000000001219,-0.000521969745167750
1.498000000000001108,-0.000262016445119134
1.499000000000000998,0.000000000000000000
