# AuFCC100-Ablate50_PHO-AC
# h[nm],U(h)[kJ/mol]
0.149999999999999994,169.420375578642023129
0.150999999999999995,166.169002198005074433
0.151999999999999996,162.946130547000137767
0.152999999999999997,159.700573330423935658
0.153999999999999998,156.435988616600582191
0.154999999999999999,153.173179376444977606
0.156000000000000000,149.933093871281357679
0.157000000000000001,146.730745156051142430
0.158000000000000002,143.574403736760302763
0.159000000000000002,140.466948706622758891
0.160000000000000003,137.407771109700718171
0.161000000000000004,134.394490698884766289
0.162000000000000005,131.424221486302371886
0.163000000000000006,128.494361139930930449
0.164000000000000007,125.602984157406808663
0.165000000000000008,122.748950301427811382
0.166000000000000009,119.931834805720697545
0.167000000000000010,117.151766554225190475
0.168000000000000010,114.409236338110687825
0.169000000000000011,111.704915126676581849
0.170000000000000012,109.039504396886826498
0.171000000000000013,106.413627451349469766
0.172000000000000014,103.827761892420497247
0.173000000000000015,101.282208206795658612
0.174000000000000016,98.777086866896127049
0.175000000000000017,96.312355662233613884
0.176000000000000018,93.887839463647580374
0.177000000000000018,91.503265777421773919
0.178000000000000019,89.158300889728408833
0.179000000000000020,86.852582880964590117
0.180000000000000021,84.585749146954810840
0.181000000000000022,82.357457214413187785
0.182000000000000023,80.167398547411039544
0.183000000000000024,78.015305709926153099
0.184000000000000025,75.900953697861524461
0.185000000000000026,73.824156514429120080
0.186000000000000026,71.784760172082116014
0.187000000000000027,69.782633298629960450
0.188000000000000028,67.817656438180307532
0.189000000000000029,65.889710997997980257
0.190000000000000030,63.998668624007493122
0.191000000000000031,62.144381609117999687
0.192000000000000032,60.326674763673835855
0.193000000000000033,58.545339015798141702
0.194000000000000034,56.800126867361981908
0.195000000000000034,55.090749712080516076
0.196000000000000035,53.416876926936424752
0.197000000000000036,51.778136576250211931
0.198000000000000037,50.174117517620388185
0.199000000000000038,48.604372668285684256
0.200000000000000039,47.068423176460477464
0.201000000000000040,45.565763241955728802
0.202000000000000041,44.095865341058569697
0.203000000000000042,42.658185629506654379
0.204000000000000042,41.252169322012022690
0.205000000000000043,39.877255875028581045
0.206000000000000044,38.532883829491645145
0.207000000000000045,37.218495200601019235
0.208000000000000046,35.933539331180220699
0.209000000000000047,34.677476152825462918
0.210000000000000048,33.449778824311771075
0.211000000000000049,32.249935739126748047
0.212000000000000050,31.077451913312472698
0.213000000000000050,29.931849780935227301
0.214000000000000051,28.812669437502609782
0.215000000000000052,27.719468381647999422
0.216000000000000053,26.651820812603261857
0.217000000000000054,25.609316545635504525
0.218000000000000055,24.591559610013579373
0.219000000000000056,23.598166594494802695
0.220000000000000057,22.628764804073504990
0.221000000000000058,21.682990289116808924
0.222000000000000058,20.760485804289409373
0.223000000000000059,19.860898750115229205
0.224000000000000060,18.983879144861539601
0.225000000000000061,18.129077668878654350
0.226000000000000062,17.296143817767891449
0.227000000000000063,16.484724194941495767
0.228000000000000064,15.694460968415347324
0.229000000000000065,14.924990511145285410
0.230000000000000066,14.175942238974140963
0.231000000000000066,13.446937655359542774
0.232000000000000067,12.737589607557666227
0.233000000000000068,12.047501754873312763
0.234000000000000069,11.376268245974433313
0.235000000000000070,10.723473599113777510
0.236000000000000071,10.088692776400801421
0.237000000000000072,9.471491441008424772
0.238000000000000073,8.871426384366921880
0.239000000000000073,8.288046108966382164
0.240000000000000074,7.720891551329574831
0.241000000000000075,7.169496929004369079
0.242000000000000076,6.633390695022479022
0.243000000000000077,6.112096583148379558
0.244000000000000078,5.605134727367165226
0.245000000000000079,5.112022839399140928
0.246000000000000080,4.632277428552757037
0.247000000000000081,4.165415048903900797
0.248000000000000081,3.710953559594032836
0.249000000000000082,3.268413384943097633
0.250000000000000111,2.837318762052783772
0.251000000000000112,2.417198964610471901
0.252000000000000113,2.007589492671024267
0.253000000000000114,1.608033219280950998
0.254000000000000115,1.218081485893758309
0.255000000000000115,0.837295139600676253
0.256000000000000116,0.465245506250329899
0.257000000000000117,0.101515294546983978
0.258000000000000118,-0.254300572807863001
0.259000000000000119,-0.602594203940522100
0.260000000000000120,-0.943744060734557522
0.261000000000000121,-1.278114361186689418
0.262000000000000122,-1.606054561757279231
0.263000000000000123,-1.927898919589339455
0.264000000000000123,-2.243966133839911059
0.265000000000000124,-2.554559064798342494
0.266000000000000125,-2.859964528959281438
0.267000000000000126,-3.160453167770516991
0.268000000000000127,-3.456279387387447777
0.269000000000000128,-3.747681366432324523
0.270000000000000129,-4.034881128476849099
0.271000000000000130,-4.318084675737650535
0.272000000000000131,-4.597482180292004728
0.273000000000000131,-4.873248228983809049
0.274000000000000132,-5.145542118093082706
0.275000000000000133,-5.414508193783869494
0.276000000000000134,-5.680276234321125273
0.277000000000000135,-5.942961870053922624
0.278000000000000136,-6.202667037198422051
0.279000000000000137,-6.459480461513964045
0.280000000000000138,-6.713478168048455430
0.281000000000000139,-6.964724013231608168
0.282000000000000139,-7.213270235713157952
0.283000000000000140,-7.459158022476565009
0.284000000000000141,-7.702418086903458416
0.285000000000000142,-7.943071255618948889
0.286000000000000143,-8.181129061110191003
0.287000000000000144,-8.416594337278267446
0.288000000000000145,-8.649461815256328734
0.289000000000000146,-8.879718717000192996
0.290000000000000147,-9.107345344334307313
0.291000000000000147,-9.332315661310106591
0.292000000000000148,-9.554597867908501740
0.293000000000000149,-9.774154963288719244
0.294000000000000150,-9.990945296954178545
0.295000000000000151,-10.204923106369927055
0.296000000000000152,-10.416039039724992676
0.297000000000000153,-10.624240662686993630
0.298000000000000154,-10.829472948144186262
0.299000000000000155,-11.031678748071929164
0.300000000000000155,-11.230799246795807989
0.301000000000000156,-11.426774395052044397
0.302000000000000157,-11.619543324368045489
0.303000000000000158,-11.809044741399917555
0.304000000000000159,-11.995217301972317614
0.305000000000000160,-12.177999964666053501
0.306000000000000161,-12.357332323893240655
0.307000000000000162,-12.533154922486419380
0.308000000000000163,-12.705409543908466219
0.309000000000000163,-12.874039484263622768
0.310000000000000164,-13.038989804357559166
0.311000000000000165,-13.200207562115039650
0.312000000000000166,-13.357642025719380641
0.313000000000000167,-13.511244867886759380
0.314000000000000168,-13.660970341732625144
0.315000000000000169,-13.806775438725860994
0.316000000000000170,-13.948620029260222708
0.317000000000000171,-14.086466986401044110
0.318000000000000171,-14.220282293389811201
0.319000000000000172,-14.350035135509585871
0.320000000000000173,-14.475697976929902566
0.321000000000000174,-14.597246623162774881
0.322000000000000175,-14.714660269770153178
0.323000000000000176,-14.827921537969302790
0.324000000000000177,-14.937016497785162272
0.325000000000000178,-15.041934679398860197
0.326000000000000179,-15.142669073339698471
0.327000000000000179,-15.239216120162353718
0.328000000000000180,-15.331575690245106358
0.329000000000000181,-15.419751054335966600
0.330000000000000182,-15.503748845462798300
0.331000000000000183,-15.583579012812640130
0.332000000000000184,-15.659254768171205541
0.333000000000000185,-15.730792525499889933
0.334000000000000186,-15.798211834211873139
0.335000000000000187,-15.861535306692626790
0.336000000000000187,-15.920788540593576954
0.337000000000000188,-15.976000036408999350
0.338000000000000189,-16.027201110829423669
0.339000000000000190,-16.074425806345260526
0.340000000000000191,-16.117710797555847790
0.341000000000000192,-16.157095294620496873
0.342000000000000193,-16.192620944268362848
0.343000000000000194,-16.224331728765484684
0.344000000000000195,-16.252273863217546079
0.345000000000000195,-16.276495691568818813
0.346000000000000196,-16.297047581638057778
0.347000000000000197,-16.313981819514204119
0.348000000000000198,-16.327352503616271662
0.349000000000000199,-16.337215438703577064
0.350000000000000200,-16.343628030105467275
0.351000000000000201,-16.346649178421774451
0.352000000000000202,-16.346339174929035210
0.353000000000000203,-16.342759597910845315
0.354000000000000203,-16.335973210115099619
0.355000000000000204,-16.326043857525046832
0.356000000000000205,-16.313036369616842336
0.357000000000000206,-16.297016461261531362
0.358000000000000207,-16.278050636415368757
0.359000000000000208,-16.256206093729616668
0.360000000000000209,-16.231550634197763117
0.361000000000000210,-16.204152570945929313
0.362000000000000210,-16.174080641260591307
0.363000000000000211,-16.141403920936483019
0.364000000000000212,-16.106191741016939289
0.365000000000000213,-16.068513606988709341
0.366000000000000214,-16.028439120483664482
0.367000000000000215,-15.986037903530663229
0.368000000000000216,-15.941379525392306959
0.369000000000000217,-15.894533432012874385
0.370000000000000218,-15.845568878096491616
0.371000000000000218,-15.794554861826686221
0.372000000000000219,-15.741560062232457184
0.373000000000000220,-15.686652779199055985
0.374000000000000221,-15.629900876116030517
0.375000000000000222,-15.571371725149315779
0.376000000000000223,-15.511132155119463860
0.377000000000000224,-15.449248401962815791
0.378000000000000225,-15.385786061748452980
0.379000000000000226,-15.320810046219415668
0.380000000000000226,-15.254384540823398453
0.381000000000000227,-15.186572965194111262
0.382000000000000228,-15.117437936042218638
0.383000000000000229,-15.047041232411354272
0.384000000000000230,-14.975443763252432205
0.385000000000000231,-14.902705537267559421
0.386000000000000232,-14.828885634972342800
0.387000000000000233,-14.754042182924161253
0.388000000000000234,-14.678232330062101596
0.389000000000000234,-14.601512226103377401
0.390000000000000235,-14.523937001939572156
0.391000000000000236,-14.445560751975552449
0.392000000000000237,-14.366436518352850626
0.393000000000000238,-14.286616276999279052
0.394000000000000239,-14.206150925445555799
0.395000000000000240,-14.125090272350130149
0.396000000000000241,-14.043483028673017898
0.397000000000000242,-13.961376800439404988
0.398000000000000242,-13.878818083034456521
0.399000000000000243,-13.795852256970487559
0.400000000000000244,-13.712523585068442600
0.401000000000000245,-13.628875210996142187
0.402000000000000246,-13.544949159106129954
0.403000000000000247,-13.460786335516710110
0.404000000000000248,-13.376426530380765456
0.405000000000000249,-13.291908421287393693
0.406000000000000250,-13.207269577742531297
0.407000000000000250,-13.122546466675581556
0.408000000000000251,-13.037774458920107890
0.409000000000000252,-12.952987836617626982
0.410000000000000253,-12.868219801494589660
0.411000000000000254,-12.783502483963909313
0.412000000000000255,-12.698866953003260960
0.413000000000000256,-12.614343226763828909
0.414000000000000257,-12.529960283864017612
0.415000000000000258,-12.445746075324283453
0.416000000000000258,-12.361727537099977070
0.417000000000000259,-12.277930603170633006
0.418000000000000260,-12.194380219145292799
0.419000000000000261,-12.111100356344561391
0.420000000000000262,-12.028114026321450325
0.421000000000000263,-11.945443295784336613
0.422000000000000264,-11.863109301886307634
0.423000000000000265,-11.781132267846736283
0.424000000000000266,-11.699531518871985725
0.425000000000000266,-11.618325498343144986
0.426000000000000267,-11.537531784240288246
0.427000000000000268,-11.457167105773521598
0.428000000000000269,-11.377247360192511039
0.429000000000000270,-11.297787629747213956
0.430000000000000271,-11.218802198773598633
0.431000000000000272,-11.140304570879390411
0.432000000000000273,-11.062307486205819274
0.433000000000000274,-10.984822938742535570
0.434000000000000274,-10.907862193673722118
0.435000000000000275,-10.831435804734685036
0.436000000000000276,-10.755553631559010341
0.437000000000000277,-10.680224856997361016
0.438000000000000278,-10.605458004390090565
0.439000000000000279,-10.531260954776650252
0.440000000000000280,-10.457640964025594954
0.441000000000000281,-10.384604679870076183
0.442000000000000282,-10.312158158834433763
0.443000000000000282,-10.240306883038282848
0.444000000000000283,-10.169055776865439711
0.445000000000000284,-10.098409223485719011
0.446000000000000285,-10.028371081218274696
0.447000000000000286,-9.958944699726334449
0.448000000000000287,-9.890132936033145583
0.449000000000000288,-9.821938170350493991
0.450000000000000289,-9.754362321710999595
0.451000000000000290,-9.687406863396736512
0.452000000000000290,-9.621072838156850437
0.453000000000000291,-9.555360873207588313
0.454000000000000292,-9.490271195008952887
0.455000000000000293,-9.425803643812255217
0.456000000000000294,-9.361957687973937681
0.457000000000000295,-9.298732438031073855
0.458000000000000296,-9.236126660534671018
0.459000000000000297,-9.174138791637451718
0.460000000000000298,-9.112766950432867219
0.461000000000000298,-9.052008952043044232
0.462000000000000299,-8.991862320453314794
0.463000000000000300,-8.932324301091570717
0.464000000000000301,-8.873391873151138753
0.465000000000000302,-8.815061761656085793
0.466000000000000303,-8.757330449268156514
0.467000000000000304,-8.700194187835110782
0.468000000000000305,-8.643649009680244077
0.469000000000000306,-8.587690738633380505
0.470000000000000306,-8.532315000803858851
0.471000000000000307,-8.477517235096058812
0.472000000000000308,-8.423292703468735709
0.473000000000000309,-8.369636500939179768
0.474000000000000310,-8.316543565333697430
0.475000000000000311,-8.264008686786059599
0.476000000000000312,-8.212026516985849511
0.477000000000000313,-8.160591578178522099
0.478000000000000314,-8.109698271919555168
0.479000000000000314,-8.059340887584983903
0.480000000000000315,-8.009513610640732750
0.481000000000000316,-7.960210530673518470
0.482000000000000317,-7.911425649185953368
0.483000000000000318,-7.863152887158793014
0.484000000000000319,-7.815386092383278083
0.485000000000000320,-7.768119046566710040
0.486000000000000321,-7.721345472214335537
0.487000000000000322,-7.675059039290914598
0.488000000000000322,-7.629253371665124739
0.489000000000000323,-7.583922053340418579
0.490000000000000324,-7.539058634475613196
0.491000000000000325,-7.494656637198792382
0.492000000000000326,-7.450709561218035404
0.493000000000000327,-7.407210889232617390
0.494000000000000328,-7.364154092148252673
0.495000000000000329,-7.321532634100087478
0.496000000000000330,-7.279339977287020425
0.497000000000000330,-7.237569586621200202
0.498000000000000331,-7.196214934196193624
0.499000000000000332,-7.155269503577772916
0.500000000000000333,-7.114726793920867820
0.501000000000000334,-7.074580323916386249
0.502000000000000335,-7.034823635571763489
0.503000000000000336,-6.995450297828810449
0.504000000000000337,-6.956453910022564635
0.505000000000000338,-6.917828105184855580
0.506000000000000338,-6.879566553196227119
0.507000000000000339,-6.841662963789806540
0.508000000000000340,-6.804111089410755930
0.509000000000000341,-6.766904727934925923
0.510000000000000342,-6.730037725250175740
0.511000000000000343,-6.693503977703942454
0.512000000000000344,-6.657297434420501148
0.513000000000000345,-6.621412099491378100
0.514000000000000346,-6.585842034042379112
0.515000000000000346,-6.550581358180487257
0.516000000000000347,-6.515624252824037121
0.517000000000000348,-6.480964961419505066
0.518000000000000349,-6.446597791547979739
0.519000000000000350,-6.412517116424713670
0.520000000000000351,-6.378717376294771313
0.521000000000000352,-6.345193079727955876
0.522000000000000353,-6.311938804815992121
0.523000000000000353,-6.278949200275045328
0.524000000000000354,-6.246218986456540279
0.525000000000000355,-6.213742956269113549
0.526000000000000356,-6.181515976014608782
0.527000000000000357,-6.149532986140982871
0.528000000000000358,-6.117789001914720082
0.529000000000000359,-6.086279114015659353
0.530000000000000360,-6.054998489056711009
0.531000000000000361,-6.023942370031202032
0.532000000000000361,-5.993106076690308370
0.533000000000000362,-5.962485005853141118
0.534000000000000363,-5.932074631651895302
0.535000000000000364,-5.901870505714476245
0.536000000000000365,-5.871868257286934067
0.537000000000000366,-5.842063593298049362
0.538000000000000367,-5.812452298368208758
0.539000000000000368,-5.783030234764940047
0.540000000000000369,-5.753793342307040426
0.541000000000000369,-5.724737638219578706
0.542000000000000370,-5.695859216941695280
0.543000000000000371,-5.667154249889234663
0.544000000000000372,-5.638618985174194798
0.545000000000000373,-5.610249747282822774
0.546000000000000374,-5.582042936714268322
0.547000000000000375,-5.553995029581543008
0.548000000000000376,-5.526102577176628117
0.549000000000000377,-5.498362205501345024
0.550000000000000377,-5.470770614765730677
0.551000000000000378,-5.443324578855485818
0.552000000000000379,-5.416020944770137291
0.553000000000000380,-5.388856632033377281
0.554000000000000381,-5.361828632077108026
0.555000000000000382,-5.334934007600697470
0.556000000000000383,-5.308169891906691973
0.557000000000000384,-5.281533488214577687
0.558000000000000385,-5.255022068953694614
0.559000000000000385,-5.228632975036768826
0.560000000000000386,-5.202363615115198847
0.561000000000000387,-5.176211464817369823
0.562000000000000388,-5.150174065971121706
0.563000000000000389,-5.124249025811555391
0.564000000000000390,-5.098434016175238170
0.565000000000000391,-5.072726772681901863
0.566000000000000392,-5.047125093904638149
0.567000000000000393,-5.021626840529630265
0.568000000000000393,-4.996229934506322579
0.569000000000000394,-4.970932358188997924
0.570000000000000395,-4.945732153470709491
0.571000000000000396,-4.920627420910276939
0.572000000000000397,-4.895616318853417859
0.573000000000000398,-4.870697062548583922
0.574000000000000399,-4.845867923258457388
0.575000000000000400,-4.821127227367768775
0.576000000000000401,-4.796473355488149792
0.577000000000000401,-4.771904741560824448
0.578000000000000402,-4.747419871957641924
0.579000000000000403,-4.723017284581209729
0.580000000000000404,-4.698695567964751518
0.581000000000000405,-4.674453360372178956
0.582000000000000406,-4.650289348899069530
0.583000000000000407,-4.626202268574985510
0.584000000000000408,-4.602190901467743345
0.585000000000000409,-4.578254075790090027
0.586000000000000409,-4.554390665009234951
0.587000000000000410,-4.530599586959796810
0.588000000000000411,-4.506879802960457759
0.589000000000000412,-4.483230316934890602
0.590000000000000413,-4.459650174537216571
0.591000000000000414,-4.436138462282484873
0.592000000000000415,-4.412694306682479528
0.593000000000000416,-4.389316873387169693
0.594000000000000417,-4.366005366332182724
0.595000000000000417,-4.342759026892632157
0.596000000000000418,-4.319577133043413397
0.597000000000000419,-4.296458998526548001
0.598000000000000420,-4.273403972025489495
0.599000000000000421,-4.250411436346944072
0.600000000000000422,-4.227480807610212388
0.601000000000000423,-4.204611534444390841
0.602000000000000424,-4.181803097193599328
0.603000000000000425,-4.159055007130428194
0.604000000000000425,-4.136366805677752723
0.605000000000000426,-4.113738063639133635
0.606000000000000427,-4.091168380437956387
0.607000000000000428,-4.068657383365298585
0.608000000000000429,-4.046204726836968746
0.609000000000000430,-4.023810091659449029
0.610000000000000431,-4.001473184305207376
0.611000000000000432,-3.979193736197216058
0.612000000000000433,-3.956971503002890245
0.613000000000000433,-3.934806263937536297
0.614000000000000434,-3.912697821077318228
0.615000000000000435,-3.890645998681813378
0.616000000000000436,-3.868650642526249239
0.617000000000000437,-3.846711619243474267
0.618000000000000438,-3.824828815675642257
0.619000000000000439,-3.803002138235629381
0.620000000000000440,-3.781231512278348639
0.621000000000000441,-3.759516881481784090
0.622000000000000441,-3.737858207237901631
0.623000000000000442,-3.716255468053359490
0.624000000000000443,-3.694708658960037528
0.625000000000000444,-3.673217790935410676
0.626000000000000445,-3.651782890332673226
0.627000000000000446,-3.630403998320684167
0.628000000000000447,-3.609081170333644284
0.629000000000000448,-3.587814475530498814
0.630000000000000449,-3.566603996264022580
0.631000000000000449,-3.545449827559559175
0.632000000000000450,-3.524352076603373796
0.633000000000000451,-3.503310862240558432
0.634000000000000452,-3.482326314482426799
0.635000000000000453,-3.461398574023393682
0.636000000000000454,-3.440527791767202359
0.637000000000000455,-3.419714128362541850
0.638000000000000456,-3.398957753747862576
0.639000000000000457,-3.378258846705438856
0.640000000000000457,-3.357617594424553431
0.641000000000000458,-3.337034192073683236
0.642000000000000459,-3.316508842381763689
0.643000000000000460,-3.296041755228228620
0.644000000000000461,-3.275633147241964416
0.645000000000000462,-3.255283241408965633
0.646000000000000463,-3.234992266688619278
0.647000000000000464,-3.214760457638581759
0.648000000000000465,-3.194588054048140169
0.649000000000000465,-3.174475300579913117
0.650000000000000466,-3.154422446419909321
0.651000000000000467,-3.134429744935732565
0.652000000000000468,-3.114497453342930822
0.653000000000000469,-3.094625832379324315
0.654000000000000470,-3.074815145987317422
0.655000000000000471,-3.055065661003956379
0.656000000000000472,-3.035377646858748779
0.657000000000000473,-3.015751375279104529
0.658000000000000473,-2.996187120003312554
0.659000000000000474,-2.976685156500912477
0.660000000000000475,-2.957245761700442621
0.661000000000000476,-2.937869213724350725
0.662000000000000477,-2.918555791631096241
0.663000000000000478,-2.899305775164221277
0.664000000000000479,-2.880119444508406623
0.665000000000000480,-2.860997080052254837
0.666000000000000481,-2.841938962157922077
0.667000000000000481,-2.822945370937223863
0.668000000000000482,-2.804016586034408842
0.669000000000000483,-2.785152886415219076
0.670000000000000484,-2.766354550162349657
0.671000000000000485,-2.747621854277090048
0.672000000000000486,-2.728955074487068533
0.673000000000000487,-2.710354485060068264
0.674000000000000488,-2.691820358623679965
0.675000000000000488,-2.673352965990805075
0.676000000000000489,-2.654952575990922714
0.677000000000000490,-2.636619455306875359
0.678000000000000491,-2.618353868317258915
0.679000000000000492,-2.600156076944208028
0.680000000000000493,-2.582026340506479833
0.681000000000000494,-2.563964915577816139
0.682000000000000495,-2.545972055850390436
0.683000000000000496,-2.528048012003346834
0.684000000000000496,-2.510193031576234635
0.685000000000000497,-2.492407358847322563
0.686000000000000498,-2.474691234716674071
0.687000000000000499,-2.457044896593878480
0.688000000000000500,-2.439468578290348688
0.689000000000000501,-2.421962509916137485
0.690000000000000502,-2.404526917781132589
0.691000000000000503,-2.387162024300554908
0.692000000000000504,-2.369868047904668540
0.693000000000000504,-2.352645202952688308
0.694000000000000505,-2.335493699650624144
0.695000000000000506,-2.318413743973210650
0.696000000000000507,-2.301405537589630068
0.697000000000000508,-2.284469277793057085
0.698000000000000509,-2.267605157433955743
0.699000000000000510,-2.250813364856933951
0.700000000000000511,-2.234094083841230649
0.701000000000000512,-2.217447493544629999
0.702000000000000512,-2.200873768450776868
0.703000000000000513,-2.184373078319829187
0.704000000000000514,-2.167945588142345947
0.705000000000000515,-2.151591458096325127
0.706000000000000516,-2.135310843507364886
0.707000000000000517,-2.119103894811837918
0.708000000000000518,-2.102970757522965251
0.709000000000000519,-2.086911572199870779
0.710000000000000520,-2.070926474419330532
0.711000000000000520,-2.055015594750332575
0.712000000000000521,-2.039179058731285910
0.713000000000000522,-2.023416986849796206
0.714000000000000523,-2.007729494525068770
0.715000000000000524,-1.992116692092660291
0.716000000000000525,-1.976578684791744589
0.717000000000000526,-1.961115572754667635
0.718000000000000527,-1.945727450998775421
0.719000000000000528,-1.930414409420487587
0.720000000000000528,-1.915176532791553310
0.721000000000000529,-1.900013900757309582
0.722000000000000530,-1.884926587837121748
0.723000000000000531,-1.869914663426668344
0.724000000000000532,-1.854978191802263865
0.725000000000000533,-1.840117232127000069
0.726000000000000534,-1.825331838458691847
0.727000000000000535,-1.810622059759636970
0.728000000000000536,-1.795987939908037845
0.729000000000000536,-1.781429517711108357
0.730000000000000537,-1.766946826919809199
0.731000000000000538,-1.752539896245072226
0.732000000000000539,-1.738208749375620643
0.733000000000000540,-1.723953404997191852
0.734000000000000541,-1.709773876813193372
0.735000000000000542,-1.695670173566715233
0.736000000000000543,-1.681642299063903279
0.737000000000000544,-1.667690252198540835
0.738000000000000544,-1.653814026977946217
0.739000000000000545,-1.640013612549983790
0.740000000000000546,-1.626288993231278734
0.741000000000000547,-1.612640148536492291
0.742000000000000548,-1.599067053208741873
0.743000000000000549,-1.585569677250936227
0.744000000000000550,-1.572147985958184613
0.745000000000000551,-1.558801939951126814
0.746000000000000552,-1.545531495210174189
0.747000000000000552,-1.532336603110641793
0.748000000000000553,-1.519217210458683187
0.749000000000000554,-1.506173259528065023
0.750000000000000555,-1.493204688097709454
0.751000000000000556,-1.480311429489943098
0.752000000000000557,-1.467493412609505610
0.753000000000000558,-1.454750561983147117
0.754000000000000559,-1.442082797799958849
0.755000000000000560,-1.429490035952229787
0.756000000000000560,-1.416972188076965455
0.757000000000000561,-1.404529161597860121
0.758000000000000562,-1.392160859767859638
0.759000000000000563,-1.379867181712213897
0.760000000000000564,-1.367648022471960267
0.761000000000000565,-1.355503273047863333
0.762000000000000566,-1.343432820444768527
0.763000000000000567,-1.331436547716347452
0.764000000000000568,-1.319514334010163825
0.765000000000000568,-1.307666054613160878
0.766000000000000569,-1.295891580997361014
0.767000000000000570,-1.284190780865943626
0.768000000000000571,-1.272563518199502752
0.769000000000000572,-1.261009653302642253
0.770000000000000573,-1.249529042850717753
0.771000000000000574,-1.238121539936833271
0.772000000000000575,-1.226786994118985286
0.773000000000000576,-1.215525251467379331
0.774000000000000576,-1.204336154611894028
0.775000000000000577,-1.193219542789680787
0.776000000000000578,-1.182175251892815027
0.777000000000000579,-1.171203114516120802
0.778000000000000580,-1.160302960004971684
0.779000000000000581,-1.149474614503219971
0.780000000000000582,-1.138717901001104593
0.781000000000000583,-1.128032639383235836
0.782000000000000584,-1.117418646476524335
0.783000000000000584,-1.106875736098138274
0.784000000000000585,-1.096403719103434593
0.785000000000000586,-1.086002403433817154
0.786000000000000587,-1.075671594164587797
0.787000000000000588,-1.065411093552695476
0.788000000000000589,-1.055220701084396584
0.789000000000000590,-1.045100213522877963
0.790000000000000591,-1.035049424955706510
0.791000000000000592,-1.025068126842204164
0.792000000000000592,-1.015156108060679463
0.793000000000000593,-1.005313154955508770
0.794000000000000594,-0.995539051384095375
0.795000000000000595,-0.985833578763646967
0.796000000000000596,-0.976196516117764368
0.797000000000000597,-0.966627640122891707
0.798000000000000598,-0.957126725154537228
0.799000000000000599,-0.947693543333307131
0.800000000000000600,-0.938327864570745462
0.801000000000000600,-0.929029456614930971
0.802000000000000601,-0.919798085095855589
0.803000000000000602,-0.910633513570581754
0.804000000000000603,-0.901535503568146601
0.805000000000000604,-0.892503814634233117
0.806000000000000605,-0.883538204375535985
0.807000000000000606,-0.874638428503947574
0.808000000000000607,-0.865804240880397202
0.809000000000000608,-0.857035393558451930
0.810000000000000608,-0.848331636827660107
0.811000000000000609,-0.839692719256520670
0.812000000000000610,-0.831118387735288122
0.813000000000000611,-0.822608387518344975
0.814000000000000612,-0.814162462266373899
0.815000000000000613,-0.805780354088187045
0.816000000000000614,-0.797461803582213968
0.817000000000000615,-0.789206549877712993
0.818000000000000616,-0.781014330675663837
0.819000000000000616,-0.772884882289295971
0.820000000000000617,-0.764817939684316217
0.821000000000000618,-0.756813236518811161
0.822000000000000619,-0.748870505182811175
0.823000000000000620,-0.740989476837490946
0.824000000000000621,-0.733169881454047379
0.825000000000000622,-0.725411447852247093
0.826000000000000623,-0.717713903738609438
0.827000000000000624,-0.710076975744237227
0.828000000000000624,-0.702500389462315189
0.829000000000000625,-0.694983869485229389
0.830000000000000626,-0.687527139441351576
0.831000000000000627,-0.680129922031459166
0.832000000000000628,-0.672791939064814826
0.833000000000000629,-0.665512911494835824
0.834000000000000630,-0.658292559454462078
0.835000000000000631,-0.651130602291121852
0.836000000000000631,-0.644026758601344063
0.837000000000000632,-0.636980746265029096
0.838000000000000633,-0.629992282479301724
0.839000000000000634,-0.623061083792049386
0.840000000000000635,-0.616186866135080558
0.841000000000000636,-0.609369344856880879
0.842000000000000637,-0.602608234755071637
0.843000000000000638,-0.595903250108423821
0.844000000000000639,-0.589254104708558435
0.845000000000000639,-0.582660511891266331
0.846000000000000640,-0.576122184567431583
0.847000000000000641,-0.569638835253651998
0.848000000000000642,-0.563210176102414861
0.849000000000000643,-0.556835918931956053
0.850000000000000644,-0.550515775255768003
0.851000000000000645,-0.544249456311670654
0.852000000000000646,-0.538036673090598772
0.853000000000000647,-0.531877136364984571
0.854000000000000647,-0.525770556716762760
0.855000000000000648,-0.519716644565053620
0.856000000000000649,-0.513715110193462943
0.857000000000000650,-0.507765663777021592
0.858000000000000651,-0.501868015408766910
0.859000000000000652,-0.496021875125964129
0.860000000000000653,-0.490226952936002214
0.861000000000000654,-0.484482958841867706
0.862000000000000655,-0.478789602867349395
0.863000000000000655,-0.473146595081811672
0.864000000000000656,-0.467553645624685710
0.865000000000000657,-0.462010464729547821
0.866000000000000658,-0.456516762747909588
0.867000000000000659,-0.451072250172630196
0.868000000000000660,-0.445676637660979147
0.869000000000000661,-0.440329636057372298
0.870000000000000662,-0.435030956415770498
0.871000000000000663,-0.429780310021740053
0.872000000000000663,-0.424577408414141488
0.873000000000000664,-0.419421963406550524
0.874000000000000665,-0.414313687108274653
0.875000000000000666,-0.409252291945101210
0.876000000000000667,-0.404237490679670408
0.877000000000000668,-0.399268996431548895
0.878000000000000669,-0.394346522696980228
0.879000000000000670,-0.389469783368286859
0.880000000000000671,-0.384638492752991001
0.881000000000000671,-0.379852365592576402
0.882000000000000672,-0.375111117080983714
0.883000000000000673,-0.370414462882740492
0.884000000000000674,-0.365762119150825904
0.885000000000000675,-0.361153802544188995
0.886000000000000676,-0.356589230245000555
0.887000000000000677,-0.352068119975567861
0.888000000000000678,-0.347590190014954170
0.889000000000000679,-0.343155159215326078
0.890000000000000679,-0.338762747017969990
0.891000000000000680,-0.334412673469039301
0.892000000000000681,-0.330104659234995768
0.893000000000000682,-0.325838425617767657
0.894000000000000683,-0.321613694569616082
0.895000000000000684,-0.317430188707732819
0.896000000000000685,-0.313287631328542149
0.897000000000000686,-0.309185746421721253
0.898000000000000687,-0.305124258683959648
0.899000000000000687,-0.301102893532431248
0.900000000000000688,-0.297121377117998464
0.901000000000000689,-0.293179436338147414
0.902000000000000690,-0.289276798849670225
0.903000000000000691,-0.285413193081055838
0.904000000000000692,-0.281588348244642295
0.905000000000000693,-0.277801994348500447
0.906000000000000694,-0.274053862208075538
0.907000000000000695,-0.270343683457540895
0.908000000000000695,-0.266671190560952454
0.909000000000000696,-0.263036116823100130
0.910000000000000697,-0.259438196400161192
0.911000000000000698,-0.255877164310069127
0.912000000000000699,-0.252352756442673798
0.913000000000000700,-0.248864709569656339
0.914000000000000701,-0.245412761354175363
0.915000000000000702,-0.241996650360339460
0.916000000000000703,-0.238616116062397104
0.917000000000000703,-0.235270898853724375
0.918000000000000704,-0.231960740055585868
0.919000000000000705,-0.228685381925648301
0.920000000000000706,-0.225444567666319567
0.921000000000000707,-0.222238041432822664
0.922000000000000708,-0.219065548341075139
0.923000000000000709,-0.215926834475374640
0.924000000000000710,-0.212821646895824973
0.925000000000000711,-0.209749733645603925
0.926000000000000711,-0.206710843757993062
0.927000000000000712,-0.203704727263217616
0.928000000000000713,-0.200731135195079402
0.929000000000000714,-0.197789819597413652
0.930000000000000715,-0.194880533530303962
0.931000000000000716,-0.192003031076140890
0.932000000000000717,-0.189157067345490676
0.933000000000000718,-0.186342398482745170
0.934000000000000719,-0.183558781671617960
0.935000000000000719,-0.180805975140435782
0.936000000000000720,-0.178083738167251981
0.937000000000000721,-0.175391831084785066
0.938000000000000722,-0.172730015285183780
0.939000000000000723,-0.170098053224601697
0.940000000000000724,-0.167495708427611578
0.941000000000000725,-0.164922745491448614
0.942000000000000726,-0.162378930090089357
0.943000000000000727,-0.159864028978143141
0.944000000000000727,-0.157377809994613177
0.945000000000000728,-0.154920042066472474
0.946000000000000729,-0.152490495212078470
0.947000000000000730,-0.150088940544459454
0.948000000000000731,-0.147715150274399271
0.949000000000000732,-0.145368897713425149
0.950000000000000733,-0.143049957276587314
0.951000000000000734,-0.140758104485149277
0.952000000000000735,-0.138493115969081204
0.953000000000000735,-0.136254769469426662
0.954000000000000736,-0.134042843840545128
0.955000000000000737,-0.131857119052186639
0.956000000000000738,-0.129697376191454800
0.957000000000000739,-0.127563397464601963
0.958000000000000740,-0.125454966198728174
0.959000000000000741,-0.123371866843306616
0.960000000000000742,-0.121313884971628538
0.961000000000000743,-0.119280807282068288
0.962000000000000743,-0.117272421599256549
0.963000000000000744,-0.115288516875117097
0.964000000000000745,-0.113328883189794991
0.965000000000000746,-0.111393311752437413
0.966000000000000747,-0.109481594901877768
0.967000000000000748,-0.107593526107195997
0.968000000000000749,-0.105728899968176498
0.969000000000000750,-0.103887512215622313
0.970000000000000751,-0.102069159711600022
0.971000000000000751,-0.100273640449535642
0.972000000000000752,-0.098500753554218251
0.973000000000000753,-0.096750299281727098
0.974000000000000754,-0.095022079019196376
0.975000000000000755,-0.093315895284529077
0.976000000000000756,-0.091631551725982030
0.977000000000000757,-0.089968853121661446
0.978000000000000758,-0.088327605378917734
0.979000000000000759,-0.086707615533662658
0.980000000000000759,-0.085108691749551393
0.981000000000000760,-0.083530643317115932
0.982000000000000761,-0.081973280652796049
0.983000000000000762,-0.080436415297856417
0.984000000000000763,-0.078919859917241625
0.985000000000000764,-0.077423428298351998
0.986000000000000765,-0.075946935349706826
0.987000000000000766,-0.074490197099542965
0.988000000000000766,-0.073053030694328419
0.989000000000000767,-0.071635254397206694
0.990000000000000768,-0.070236687586345894
0.991000000000000769,-0.068857150753212443
0.992000000000000770,-0.067496465500776509
0.993000000000000771,-0.066154454541661439
0.994000000000000772,-0.064830941696167488
0.995000000000000773,-0.063525751890291665
0.996000000000000774,-0.062238711153620320
0.997000000000000774,-0.060969646617190662
0.998000000000000775,-0.059718386511265445
0.999000000000000776,-0.058484760163052797
1.000000000000000666,-0.057268597994352313
1.001000000000000778,-0.056069731519152899
1.002000000000000668,-0.054887993341149056
1.003000000000000780,-0.053723217151209049
1.004000000000000670,-0.052575237724786741
1.005000000000000782,-0.051443890919267876
1.006000000000000671,-0.050329013671269206
1.007000000000000783,-0.049230443993854678
1.008000000000000673,-0.048148020973743474
1.009000000000000785,-0.047081584768426117
1.010000000000000675,-0.046030976603243824
1.011000000000000787,-0.044996038768411815
1.012000000000000677,-0.043976614616009123
1.013000000000000789,-0.042972548556897271
1.014000000000000679,-0.041983686057597905
1.015000000000000790,-0.041009873637141030
1.016000000000000680,-0.040050958863853521
1.017000000000000792,-0.039106790352093017
1.018000000000000682,-0.038177217758962614
1.019000000000000794,-0.037262091780967788
1.020000000000000684,-0.036361264150645001
1.021000000000000796,-0.035474587633132777
1.022000000000000686,-0.034601916022712377
1.023000000000000798,-0.033743104139325762
1.024000000000000687,-0.032898007825025617
1.025000000000000799,-0.032066483940420311
1.026000000000000689,-0.031248390361064183
1.027000000000000801,-0.030443585973820169
1.028000000000000691,-0.029651930673193334
1.029000000000000803,-0.028873285357623086
1.030000000000000693,-0.028107511925748736
1.031000000000000805,-0.027354473272656731
1.032000000000000695,-0.026614033286068244
1.033000000000000806,-0.025886056842537485
1.034000000000000696,-0.025170409803590827
1.035000000000000808,-0.024466959011846461
1.036000000000000698,-0.023775572287113640
1.037000000000000810,-0.023096118422487572
1.038000000000000700,-0.022428467180359263
1.039000000000000812,-0.021772489288464682
1.040000000000000702,-0.021128056435883523
1.041000000000000814,-0.020495041269019302
1.042000000000000703,-0.019873317387541466
1.043000000000000815,-0.019262759340347668
1.044000000000000705,-0.018663242621471305
1.045000000000000817,-0.018074643665970409
1.046000000000000707,-0.017496839845826971
1.047000000000000819,-0.016929709465803335
1.048000000000000709,-0.016373131759279003
1.049000000000000821,-0.015826986884099586
1.050000000000000711,-0.015291155918371080
1.051000000000000822,-0.014765520856280703
1.052000000000000712,-0.014249964603869869
1.053000000000000824,-0.013744370974805431
1.054000000000000714,-0.013248624686150878
1.055000000000000826,-0.012762611354101380
1.056000000000000716,-0.012286217489732245
1.057000000000000828,-0.011819330494713979
1.058000000000000718,-0.011361838657026930
1.059000000000000830,-0.010913631146672995
1.060000000000000719,-0.010474598011370588
1.061000000000000831,-0.010044630172232508
1.062000000000000721,-0.009623619419452856
1.063000000000000833,-0.009211458407984260
1.064000000000000723,-0.008808040653188095
1.065000000000000835,-0.008413260526497723
1.066000000000000725,-0.008027013251085643
1.067000000000000837,-0.007649194897477583
1.068000000000000727,-0.007279702379236463
1.069000000000000838,-0.006918433448561935
1.070000000000000728,-0.006565286691947583
1.071000000000000840,-0.006220161525803208
1.072000000000000730,-0.005882958192084503
1.073000000000000842,-0.005553577753922088
1.074000000000000732,-0.005231922091227412
1.075000000000000844,-0.004917893896339412
1.076000000000000734,-0.004611396669629576
1.077000000000000846,-0.004312334715122913
1.078000000000000735,-0.004020613136127046
1.079000000000000847,-0.003736137830833884
1.080000000000000737,-0.003458815487969759
1.081000000000000849,-0.003188553582386320
1.082000000000000739,-0.002925260370702479
1.083000000000000851,-0.002668844886923041
1.084000000000000741,-0.002419216938075659
1.085000000000000853,-0.002176287099823120
1.086000000000000743,-0.001939966712110163
1.087000000000000854,-0.001710167874799418
1.088000000000000744,-0.001486803443310109
1.089000000000000856,-0.001269787024255267
1.090000000000000746,-0.001059032971096366
1.091000000000000858,-0.000854456379804417
1.092000000000000748,-0.000655973084502580
1.093000000000000860,-0.000463499653144825
1.094000000000000750,-0.000276953383172868
1.095000000000000862,-0.000096252297203970
1.096000000000000751,0.000078684861290301
1.097000000000000863,0.000247938632308307
1.098000000000000753,0.000411588843599580
1.099000000000000865,0.000569714614974817
1.100000000000000755,0.000722394362601355
1.101000000000000867,0.000869705803272687
1.102000000000000757,0.001011725958685044
1.103000000000000869,0.001148531159701786
1.104000000000000759,0.001280197050623139
1.105000000000000870,0.001406798593407610
1.106000000000000760,0.001528410071941324
1.107000000000000872,0.001645105096240347
1.108000000000000762,0.001756956606685005
1.109000000000000874,0.001864036878223906
1.110000000000000764,0.001966417524578172
1.111000000000000876,0.002064169502429831
1.112000000000000766,0.002157363115596762
1.113000000000000878,0.002246068019204364
1.114000000000000767,0.002330353223836811
1.115000000000000879,0.002410287099695999
1.116000000000000769,0.002485937380724008
1.117000000000000881,0.002557371168731143
1.118000000000000771,0.002624654937508234
1.119000000000000883,0.002687854536922696
1.120000000000000773,0.002747035197007416
1.121000000000000885,0.002802261532038497
1.122000000000000774,0.002853597544599579
1.123000000000000886,0.002901106629626177
1.124000000000000776,0.002944851578440007
1.125000000000000888,0.002984894582791300
1.126000000000000778,0.003021297238853652
1.127000000000000890,0.003054120551217965
1.128000000000000780,0.003083424936901469
1.129000000000000892,0.003109270229294287
1.130000000000000782,0.003131715682129385
1.131000000000000894,0.003150819973425137
1.132000000000000783,0.003166641209414306
1.133000000000000895,0.003179236928452807
1.134000000000000785,0.003188664104943389
1.135000000000000897,0.003194979153191972
1.136000000000000787,0.003198237931308782
1.137000000000000899,0.003198495745047358
1.138000000000000789,0.003195807351665897
1.139000000000000901,0.003190226963732830
1.140000000000000790,0.003181808252963132
1.141000000000000902,0.003170604354012570
1.142000000000000792,0.003156667868254128
1.143000000000000904,0.003140050867554485
1.144000000000000794,0.003120804898017912
1.145000000000000906,0.003098980983749349
1.146000000000000796,0.003074629630542288
1.147000000000000908,0.003047800829617204
1.148000000000000798,0.003018544061296092
1.149000000000000909,0.002986908298684606
1.150000000000000799,0.002952942011339975
1.151000000000000689,0.002916693168902955
1.152000000000000801,0.002878209244733605
1.153000000000000913,0.002837537219524654
1.154000000000000803,0.002794723584899934
1.155000000000000693,0.002749814346998313
1.156000000000000805,0.002702855030025765
1.157000000000000917,0.002653890679824554
1.158000000000000806,0.002602965867387673
1.159000000000000696,0.002550124692386443
1.160000000000000808,0.002495410786672683
1.161000000000000920,0.002438867317753990
1.162000000000000810,0.002380536992265138
1.163000000000000700,0.002320462059424569
1.164000000000000812,0.002258684314460483
1.165000000000000924,0.002195245102042673
1.166000000000000814,0.002130185319667060
1.167000000000000703,0.002063545421057265
1.168000000000000815,0.001995365419519095
1.169000000000000927,0.001925684891310960
1.170000000000000817,0.001854542978958488
1.171000000000000707,0.001781978394595669
1.172000000000000819,0.001708029423245041
1.173000000000000931,0.001632733926120647
1.174000000000000821,0.001556129343892727
1.175000000000000711,0.001478252699935431
1.176000000000000822,0.001399140603564710
1.177000000000000934,0.001318829253264013
1.178000000000000824,0.001237354439875093
1.179000000000000714,0.001154751549797341
1.180000000000000826,0.001071055568138260
1.181000000000000938,0.000986301081887549
1.182000000000000828,0.000900522283035920
1.183000000000000718,0.000813752971698143
1.184000000000000830,0.000726026559217729
1.185000000000000941,0.000637376071254697
1.186000000000000831,0.000547834150842775
1.187000000000000721,0.000457433061455870
1.188000000000000833,0.000366204690031115
1.189000000000000945,0.000274180549992000
1.190000000000000835,0.000181391784248809
1.191000000000000725,0.000087869168195779
1.192000000000000837,-0.000006356887350735
1.193000000000000949,-0.000101256333161582
1.194000000000000838,-0.000196799478693436
1.195000000000000728,-0.000292956989146367
1.196000000000000840,-0.000389699882576338
1.197000000000000952,-0.000486999527007501
1.198000000000000842,-0.000584827637553310
1.199000000000000732,-0.000683156273585043
1.200000000000000844,-0.000781957835864395
1.201000000000000956,-0.000881205063761098
1.202000000000000846,-0.000980871032419657
1.203000000000000735,-0.001080929149991801
1.204000000000000847,-0.001181353154849893
1.205000000000000959,-0.001282117112857420
1.206000000000000849,-0.001383195414606511
1.207000000000000739,-0.001484562772708677
1.208000000000000851,-0.001586194219091343
1.209000000000000963,-0.001688065102304321
1.210000000000000853,-0.001790151084856611
1.211000000000000743,-0.001892428140541119
1.212000000000000854,-0.001994872551820228
1.213000000000000966,-0.002097460907174819
1.214000000000000856,-0.002200170098525518
1.215000000000000746,-0.002302977318609094
1.216000000000000858,-0.002405860058433815
1.217000000000000970,-0.002508796104693361
1.218000000000000860,-0.002611763537236533
1.219000000000000750,-0.002714740726537145
1.220000000000000862,-0.002817706331183362
1.221000000000000973,-0.002920639295369218
1.222000000000000863,-0.003023518846431533
1.223000000000000753,-0.003126324492368410
1.224000000000000865,-0.003229036019400565
1.225000000000000977,-0.003331633489533484
1.226000000000000867,-0.003434097238137265
1.227000000000000757,-0.003536407871543494
1.228000000000000869,-0.003638546264654136
1.229000000000000981,-0.003740493558589224
1.230000000000000870,-0.003842231158295076
1.231000000000000760,-0.003943740730233079
1.232000000000000872,-0.004045004200046119
1.233000000000000984,-0.004146003750227103
1.234000000000000874,-0.004246721817857067
1.235000000000000764,-0.004347141092290892
1.236000000000000876,-0.004447244512918025
1.237000000000000988,-0.004547015266887854
1.238000000000000878,-0.004646436786898816
1.239000000000000767,-0.004745492748951460
1.240000000000000879,-0.004844167070162599
1.241000000000000991,-0.004942443906559460
1.242000000000000881,-0.005040307650909409
1.243000000000000771,-0.005137742930560081
1.244000000000000883,-0.005234734605280754
1.245000000000000995,-0.005331267765141585
1.246000000000000885,-0.005427327728389171
1.247000000000000774,-0.005522900039340602
1.248000000000000886,-0.005617970466293100
1.249000000000000998,-0.005712524999452489
1.250000000000000888,-0.005806549848873109
1.251000000000000778,-0.005900031442400293
1.252000000000000890,-0.005992956423649757
1.253000000000001002,-0.006085311649973351
1.254000000000000892,-0.006177084190473190
1.255000000000000782,-0.006268261323997107
1.256000000000000894,-0.006358830537157839
1.257000000000001005,-0.006448779522385595
1.258000000000000895,-0.006538096175965744
1.259000000000000785,-0.006626768596103313
1.260000000000000897,-0.006714785081005298
1.261000000000001009,-0.006802134126973371
1.262000000000000899,-0.006888804426497209
1.263000000000000789,-0.006974784866387092
1.264000000000000901,-0.007060064525898688
1.265000000000001013,-0.007144632674874185
1.266000000000000902,-0.007228478771908670
1.267000000000000792,-0.007311592462516267
1.268000000000000904,-0.007393963577315109
1.269000000000001016,-0.007475582130225374
1.270000000000000906,-0.007556438316685103
1.271000000000000796,-0.007636522511864567
1.272000000000000908,-0.007715825268907671
1.273000000000001020,-0.007794337317183283
1.274000000000000909,-0.007872049560544072
1.275000000000000799,-0.007948953075599289
1.276000000000000911,-0.008025039110014755
1.277000000000001023,-0.008100299080793870
1.278000000000000913,-0.008174724572603990
1.279000000000000803,-0.008248307336096872
1.280000000000000915,-0.008321039286254538
1.281000000000001027,-0.008392912500717692
1.282000000000000917,-0.008463919218172581
1.283000000000000806,-0.008534051836708096
1.284000000000000918,-0.008603302912215283
1.285000000000001030,-0.008671665156770243
1.286000000000000920,-0.008739131437063027
1.287000000000000810,-0.008805694772801928
1.288000000000000922,-0.008871348335165626
1.289000000000001034,-0.008936085445234438
1.290000000000000924,-0.008999899572451614
1.291000000000000814,-0.009062784333107202
1.292000000000000925,-0.009124733488791906
1.293000000000001037,-0.009185740944922199
1.294000000000000927,-0.009245800749220146
1.295000000000000817,-0.009304907090238377
1.296000000000000929,-0.009363054295888235
1.297000000000001041,-0.009420236831974640
1.298000000000000931,-0.009476449300752044
1.299000000000000821,-0.009531686439481666
1.300000000000000933,-0.009585943118999877
1.301000000000001044,-0.009639214342310014
1.302000000000000934,-0.009691495243166945
1.303000000000000824,-0.009742781084696605
1.304000000000000936,-0.009793067257990307
1.305000000000001048,-0.009842349280755430
1.306000000000000938,-0.009890622795942017
1.307000000000000828,-0.009937883570383539
1.308000000000000940,-0.009984127493466848
1.309000000000001052,-0.010029350575806726
1.310000000000000941,-0.010073548947909423
1.311000000000000831,-0.010116718858878710
1.312000000000000943,-0.010158856675097855
1.313000000000001055,-0.010199958878973295
1.314000000000000945,-0.010240022067621696
1.315000000000000835,-0.010279042951623355
1.316000000000000947,-0.010317018353752830
1.317000000000001059,-0.010353945207744211
1.318000000000000949,-0.010389820557032959
1.319000000000000838,-0.010424641553553462
1.320000000000000950,-0.010458405456501053
1.321000000000001062,-0.010491109631127357
1.322000000000000952,-0.010522751547552729
1.323000000000000842,-0.010553328779564216
1.324000000000000954,-0.010582839003448318
1.325000000000001066,-0.010611279996807088
1.326000000000000956,-0.010638649637418488
1.327000000000000846,-0.010664945902066739
1.328000000000000957,-0.010690166865415475
1.329000000000001069,-0.010714310698862920
1.330000000000000959,-0.010737375669439473
1.331000000000000849,-0.010759360138675324
1.332000000000000961,-0.010780262561503898
1.333000000000001073,-0.010800081485167456
1.334000000000000963,-0.010818815548139491
1.335000000000000853,-0.010836463479032280
1.336000000000000965,-0.010853024095544530
1.337000000000001076,-0.010868496303394936
1.338000000000000966,-0.010882879095271872
1.339000000000000856,-0.010896171549801917
1.340000000000000968,-0.010908372830503801
1.341000000000001080,-0.010919482184775117
1.342000000000000970,-0.010929498942875069
1.343000000000000860,-0.010938422516918163
1.344000000000000972,-0.010946252399872519
1.345000000000001084,-0.010952988164584374
1.346000000000000973,-0.010958629462778743
1.347000000000000863,-0.010963176024099375
1.348000000000000975,-0.010966627655138506
1.349000000000001087,-0.010968984238486688
1.350000000000000977,-0.010970245731781517
1.351000000000000867,-0.010970412166772841
1.352000000000000979,-0.010969483648375685
1.353000000000001091,-0.010967460353769276
1.354000000000000981,-0.010964342531471164
1.355000000000000870,-0.010960130500421482
1.356000000000000982,-0.010954824649096176
1.357000000000001094,-0.010948425434613614
1.358000000000000984,-0.010940933381840580
1.359000000000000874,-0.010932349082527573
1.360000000000000986,-0.010922673194430823
1.361000000000001098,-0.010911906440464830
1.362000000000000988,-0.010900049607828402
1.363000000000000878,-0.010887103547174181
1.364000000000000989,-0.010873069171775407
1.365000000000001101,-0.010857947456669664
1.366000000000000991,-0.010841739437861441
1.367000000000000881,-0.010824446211491373
1.368000000000000993,-0.010806068933033158
1.369000000000001105,-0.010786608816488788
1.370000000000000995,-0.010766067133591127
1.371000000000000885,-0.010744445213022674
1.372000000000000997,-0.010721744439628273
1.373000000000001108,-0.010697966253654236
1.374000000000000998,-0.010673112149952934
1.375000000000000888,-0.010647183677260332
1.376000000000001000,-0.010620182437416539
1.377000000000001112,-0.010592110084629344
1.378000000000001002,-0.010562968324731475
1.379000000000000892,-0.010532758914453154
1.380000000000001004,-0.010501483660686182
1.381000000000001116,-0.010469144419781876
1.382000000000001005,-0.010435743096818665
1.383000000000000895,-0.010401281644904371
1.384000000000001007,-0.010365762064481926
1.385000000000001119,-0.010329186402626188
1.386000000000001009,-0.010291556752367238
1.387000000000000899,-0.010252875251989505
1.388000000000001011,-0.010213144084395850
1.389000000000001123,-0.010172365476392319
1.390000000000001013,-0.010130541698061300
1.391000000000000902,-0.010087675062090240
1.392000000000001014,-0.010043767923125569
1.393000000000001126,-0.009998822677128080
1.394000000000001016,-0.009952841760741547
1.395000000000000906,-0.009905827650651873
1.396000000000001018,-0.009857782862962482
1.397000000000001130,-0.009808709952583986
1.398000000000001020,-0.009758611512611348
1.399000000000000909,-0.009707490173718591
1.400000000000001021,-0.009655348603553592
1.401000000000001133,-0.009602189506149886
1.402000000000001023,-0.009548015621326567
1.403000000000000913,-0.009492829724105440
1.404000000000001025,-0.009436634624134391
1.405000000000001137,-0.009379433165111781
1.406000000000001027,-0.009321228224212167
1.407000000000000917,-0.009262022711540880
1.408000000000001029,-0.009201819569549213
1.409000000000001140,-0.009140621772505703
1.410000000000001030,-0.009078432325937781
1.411000000000000920,-0.009015254266091731
1.412000000000001032,-0.008951090659396704
1.413000000000001144,-0.008885944601936617
1.414000000000001034,-0.008819819218919998
1.415000000000000924,-0.008752717664154756
1.416000000000001036,-0.008684643119550100
1.417000000000001148,-0.008615598794587157
1.418000000000001037,-0.008545587925818075
1.419000000000000927,-0.008474613776372604
1.420000000000001039,-0.008402679635451788
1.421000000000001151,-0.008329788817850290
1.422000000000001041,-0.008255944663457176
1.423000000000000931,-0.008181150536781936
1.424000000000001043,-0.008105409826478623
1.425000000000001155,-0.008028725944870923
1.426000000000001044,-0.007951102327487742
1.427000000000000934,-0.007872542432604504
1.428000000000001046,-0.007793049740778215
1.429000000000001158,-0.007712627754396901
1.430000000000001048,-0.007631279997237801
1.431000000000000938,-0.007549010014015074
1.432000000000001050,-0.007465821369946990
1.433000000000001162,-0.007381717650319326
1.434000000000001052,-0.007296702460052006
1.435000000000000941,-0.007210779423280066
1.436000000000001053,-0.007123952182926069
1.437000000000001165,-0.007036224400280490
1.438000000000001055,-0.006947599754604153
1.439000000000000945,-0.006858081942702837
1.440000000000001057,-0.006767674678532081
1.441000000000001169,-0.006676381692787727
1.442000000000001059,-0.006584206732523900
1.443000000000000949,-0.006491153560754520
1.444000000000001060,-0.006397225956062627
1.445000000000001172,-0.006302427712216495
1.446000000000001062,-0.006206762637801709
1.447000000000000952,-0.006110234555828521
1.448000000000001064,-0.006012847303372505
1.449000000000001176,-0.005914604731208292
1.450000000000001066,-0.005815510703429577
1.451000000000000956,-0.005715569097109482
1.452000000000001068,-0.005614783801931982
1.453000000000001180,-0.005513158719845967
1.454000000000001069,-0.005410697764709723
1.455000000000000959,-0.005307404861956087
1.456000000000001071,-0.005203283948239813
1.457000000000001183,-0.005098338971114899
1.458000000000001073,-0.004992573888689789
1.459000000000000963,-0.004885992669297001
1.460000000000001075,-0.004778599291172378
1.461000000000001187,-0.004670397742130980
1.462000000000001076,-0.004561392019251403
1.463000000000000966,-0.004451586128548832
1.464000000000001078,-0.004340984084669920
1.465000000000001190,-0.004229589910595588
1.466000000000001080,-0.004117407637308502
1.467000000000000970,-0.004004441303515595
1.468000000000001082,-0.003890694955342944
1.469000000000001194,-0.003776172646030249
1.470000000000001084,-0.003660878435652385
1.471000000000000973,-0.003544816390822905
1.472000000000001085,-0.003427990584415553
1.473000000000001197,-0.003310405095273339
1.474000000000001087,-0.003192064007937712
1.475000000000000977,-0.003072971412363041
1.476000000000001089,-0.002953131403655895
1.477000000000001201,-0.002832548081800453
1.478000000000001091,-0.002711225551386508
1.479000000000000981,-0.002589167921355385
1.480000000000001092,-0.002466379304732333
1.481000000000001204,-0.002342863818374178
1.482000000000001094,-0.002218625582712875
1.483000000000000984,-0.002093668721508623
1.484000000000001096,-0.001967997361592440
1.485000000000001208,-0.001841615632625076
1.486000000000001098,-0.001714527666862186
1.487000000000000988,-0.001586737598901526
1.488000000000001100,-0.001458249565454298
1.489000000000001211,-0.001329067705109708
1.490000000000001101,-0.001199196158105855
1.491000000000000991,-0.001068639066093887
1.492000000000001103,-0.000937400571922077
1.493000000000001215,-0.000805484819407520
1.494000000000001105,-0.000672895953113195
1.495000000000000995,-0.000539638118136893
1.496000000000001107,-0.000405715459892889
1.497000000000001219,-0.000271132123897858
1.498000000000001108,-0.000135892255568281
1.499000000000000998,0.000000000000000000
