# Ag322_ALASCA-AC
# h[nm],U(h)[kJ/mol]
0.149999999999999994,130.507597086014243359
0.150999999999999995,131.098877627096015885
0.151999999999999996,128.301648591342257077
0.152999999999999997,124.779734477269741433
0.153999999999999998,121.554639163883081210
0.154999999999999999,118.851458861786070997
0.156000000000000000,116.566393480026448515
0.157000000000000001,114.507331313160761965
0.158000000000000002,112.503430134551010156
0.159000000000000002,110.443081215711615073
0.160000000000000003,108.275955879096983381
0.161000000000000004,105.999747570893831039
0.162000000000000005,103.642826696418495658
0.163000000000000006,101.248343828996652860
0.164000000000000007,98.862018344573968420
0.165000000000000008,96.524047356356703631
0.166000000000000009,94.264680940228842587
0.167000000000000010,92.102656687295933580
0.168000000000000010,90.045630251635586205
0.169000000000000011,88.091830940082232360
0.170000000000000012,86.232324459546504158
0.171000000000000013,84.453428982935434988
0.172000000000000014,82.738980016225397662
0.173000000000000015,81.072263001860363829
0.174000000000000016,79.437527452189243604
0.175000000000000017,77.821064466351288047
0.176000000000000018,76.211874652189564472
0.177000000000000018,74.601980341402708063
0.178000000000000019,72.986449025496398235
0.179000000000000020,71.363198109417751880
0.180000000000000021,69.732647659772595716
0.181000000000000022,68.097280400016671820
0.182000000000000023,66.461158720579007309
0.183000000000000024,64.829438322223353453
0.184000000000000025,63.207908241477049671
0.185000000000000026,61.602578010813488163
0.186000000000000026,60.019324911004673595
0.187000000000000027,58.463607813787426437
0.188000000000000028,56.940248991892737251
0.189000000000000029,55.453281406414475896
0.190000000000000030,54.005856233302665714
0.191000000000000031,52.600203601261341646
0.192000000000000032,51.237638515532388794
0.193000000000000033,49.918603574438051851
0.194000000000000034,48.642740199771282050
0.195000000000000034,47.408980567168121922
0.196000000000000035,46.215653126678617468
0.197000000000000036,45.060595454366612955
0.198000000000000037,43.941269098708524155
0.199000000000000038,42.854872023251310509
0.200000000000000039,41.798445156459095529
0.201000000000000040,40.768970410432352480
0.202000000000000041,39.763458302088288576
0.203000000000000042,38.779023991709472341
0.204000000000000042,37.812951139361587138
0.205000000000000043,36.862743469468242097
0.206000000000000044,35.926164331416195807
0.207000000000000045,35.001264855654262931
0.208000000000000046,34.086401538207589113
0.209000000000000047,33.180244250666717676
0.210000000000000048,32.281775776708492742
0.211000000000000049,31.390284029188041615
0.212000000000000050,30.505348112561925689
0.213000000000000050,29.626819372035146927
0.214000000000000051,28.754798520813928064
0.215000000000000052,27.889609866844587316
0.216000000000000053,27.031773576246809654
0.217000000000000054,26.181976817309212890
0.218000000000000055,25.341044530621580577
0.219000000000000056,24.509910471149442657
0.220000000000000057,23.689589069614186201
0.221000000000000058,22.881148565628897984
0.222000000000000058,22.085685775311240775
0.223000000000000059,21.304302772755825401
0.224000000000000060,20.538085688594168943
0.225000000000000061,19.788085760369931165
0.226000000000000062,19.055302708801935552
0.227000000000000063,18.340670461164318539
0.228000000000000064,17.645045197778710389
0.229000000000000065,16.969195659641172824
0.230000000000000066,16.313795624062915834
0.231000000000000066,15.679418430374544968
0.232000000000000067,15.066533418682507062
0.233000000000000068,14.475504130797014923
0.234000000000000069,13.906588113198973033
0.235000000000000070,13.359938156708631496
0.236000000000000071,12.835604805814426754
0.237000000000000072,12.333539971893715759
0.238000000000000073,11.853601488321615420
0.239000000000000073,11.395558451269435452
0.240000000000000074,10.959097197425162307
0.241000000000000075,10.543827778558677366
0.242000000000000076,10.149290802467216821
0.243000000000000077,9.774964520082047414
0.244000000000000078,9.420272049138869619
0.245000000000000079,9.084588635592487194
0.246000000000000080,8.767248864704255240
0.247000000000000081,8.467553744291045348
0.248000000000000081,8.184777592871087748
0.249000000000000082,7.918174675270148732
0.250000000000000111,7.666985537581561871
0.251000000000000112,7.430443002146040143
0.252000000000000113,7.207777791388652489
0.253000000000000114,6.998223756895585623
0.254000000000000115,6.801022697016118279
0.255000000000000115,6.615428752536497647
0.256000000000000116,6.440712375595730066
0.257000000000000117,6.276163872016336853
0.258000000000000118,6.121096521625593923
0.259000000000000119,5.974849284970650487
0.260000000000000120,5.836789108114677660
0.261000000000000121,5.706312839973419315
0.262000000000000122,5.582848778945868062
0.263000000000000123,5.465857867446151985
0.264000000000000123,5.354834554390416557
0.265000000000000124,5.249307346770340388
0.266000000000000125,5.148839072187058719
0.267000000000000126,5.053026874662157830
0.268000000000000127,4.961501966217138460
0.269000000000000128,4.873929156652652139
0.270000000000000129,4.790006183692453234
0.271000000000000130,4.709462865213417615
0.272000000000000131,4.632060094688059237
0.273000000000000131,4.557588700244349589
0.274000000000000132,4.485868186921512901
0.275000000000000133,4.416745380790702669
0.276000000000000134,4.350092992634900568
0.277000000000000135,4.285808117859466471
0.278000000000000136,4.223810688249253431
0.279000000000000137,4.164041890113485245
0.280000000000000138,4.106462562277404693
0.281000000000000139,4.051051586300974172
0.282000000000000139,3.997804280238493213
0.283000000000000140,3.946730806206782738
0.284000000000000141,3.897854601010371844
0.285000000000000142,3.851210838085370458
0.286000000000000143,3.806844928073798595
0.287000000000000144,3.764811064431508925
0.288000000000000145,3.725170819606850703
0.289000000000000146,3.687991796508044651
0.290000000000000147,3.653346339203990656
0.291000000000000147,3.621310306079089880
0.292000000000000148,3.591961907985796731
0.293000000000000149,3.565380613310868974
0.294000000000000150,3.541646121290761506
0.295000000000000151,3.520837404377989088
0.296000000000000152,3.503031819972876715
0.297000000000000153,3.488304291391590706
0.298000000000000154,3.476726557541253815
0.299000000000000155,3.468366490413746561
0.300000000000000155,3.463287479190049201
0.301000000000000156,3.461547879464887956
0.302000000000000157,3.463200525854620793
0.303000000000000158,3.468292306038205819
0.304000000000000159,3.476863794099146254
0.305000000000000160,3.488948940884414984
0.306000000000000161,3.504574818971009531
0.307000000000000162,3.523761419731639144
0.308000000000000163,3.546521499915212594
0.309000000000000163,3.572860475103128319
0.310000000000000164,3.602776357368158155
0.311000000000000165,3.636259734446150027
0.312000000000000166,3.673293787730436577
0.313000000000000167,3.713854346413595131
0.314000000000000168,3.757909975128813418
0.315000000000000169,3.805422092482672269
0.316000000000000170,3.856345117920834120
0.317000000000000171,3.910626644427156684
0.318000000000000171,3.968207634623401425
0.319000000000000172,4.029022637910212978
0.320000000000000173,4.093000026369001176
0.321000000000000174,4.160062247228466958
0.322000000000000175,4.230126089786731214
0.323000000000000176,4.303102964770839201
0.324000000000000177,4.378899194208011103
0.325000000000000178,4.457416309977316971
0.326000000000000179,4.538551359305372124
0.327000000000000179,4.622197215565149619
0.328000000000000180,4.708242892832344317
0.329000000000000181,4.796573862747449013
0.330000000000000182,4.887072372326136893
0.331000000000000183,4.979617761451330615
0.332000000000000184,5.074086778871204295
0.333000000000000185,5.170353895615020789
0.334000000000000186,5.268291614824468283
0.335000000000000187,5.367770777081505074
0.336000000000000187,5.468660860394072287
0.337000000000000188,5.570830274078954147
0.338000000000000189,5.674146645855658200
0.339000000000000190,5.778477101537085048
0.340000000000000191,5.883688536771559008
0.341000000000000192,5.989647880356008258
0.342000000000000193,6.096222348703111749
0.343000000000000194,6.203279691103893434
0.344000000000000195,6.310688425484054065
0.345000000000000195,6.418318064404873624
0.346000000000000196,6.526039331109908304
0.347000000000000197,6.633724365465577755
0.348000000000000198,6.741246919687659656
0.349000000000000199,6.848482543787133281
0.350000000000000200,6.955308760706813587
0.351000000000000201,7.061605231156187656
0.352000000000000202,7.167253908184457956
0.353000000000000203,7.272139181562353727
0.354000000000000203,7.376148012071273463
0.355000000000000204,7.479170055823578522
0.356000000000000205,7.581097778761335171
0.357000000000000206,7.681826561501798878
0.358000000000000207,7.781254794716829792
0.359000000000000208,7.879283965250531097
0.360000000000000209,7.975818733194391719
0.361000000000000210,8.070767000152564208
0.362000000000000210,8.164039968941471770
0.363000000000000211,8.255552194977941127
0.364000000000000212,8.345221629618457371
0.365000000000000213,8.432969655719334767
0.366000000000000214,8.518721115693045576
0.367000000000000215,8.602404332340690019
0.368000000000000216,8.683951122743582829
0.369000000000000217,8.763296805499342312
0.370000000000000218,8.840380201588878606
0.371000000000000218,8.915143629161043748
0.372000000000000219,8.987532892520910366
0.373000000000000220,9.057497265606407666
0.374000000000000221,9.124989470235627564
0.375000000000000222,9.189965649404561177
0.376000000000000223,9.252385335911295527
0.377000000000000224,9.312211416578968226
0.378000000000000225,9.369410092344979901
0.379000000000000226,9.423950834479306593
0.380000000000000226,9.475806337189249362
0.381000000000000227,9.524952466862181666
0.382000000000000228,9.571368208192174265
0.383000000000000229,9.615035607429607722
0.384000000000000230,9.655939712986938872
0.385000000000000231,9.694068513626584505
0.386000000000000232,9.729412874450357407
0.387000000000000233,9.761966470902867954
0.388000000000000234,9.791725720994028492
0.389000000000000234,9.818689715938898388
0.390000000000000235,9.842860149405789016
0.391000000000000236,9.864241245556312876
0.392000000000000237,9.882839686053923600
0.393000000000000238,9.898664536210272757
0.394000000000000239,9.911727170431507972
0.395000000000000240,9.922041197119614964
0.396000000000000241,9.929622383176903710
0.397000000000000242,9.934488578254597968
0.398000000000000242,9.936659638879966394
0.399000000000000243,9.936157352589335190
0.400000000000000244,9.933005362188191967
0.401000000000000245,9.927229090252408739
0.402000000000000246,9.918855663979076809
0.403000000000000247,9.907913840488509649
0.404000000000000248,9.894433932673461385
0.405000000000000249,9.878447735685304210
0.406000000000000250,9.859988454141472403
0.407000000000000250,9.839090630132638182
0.408000000000000251,9.815790072102878128
0.409000000000000252,9.790123784670687002
0.410000000000000253,9.762129899453677595
0.411000000000000254,9.731847606954884711
0.412000000000000255,9.699317089563852079
0.413000000000000256,9.664579455721014511
0.414000000000000257,9.627676675289654540
0.415000000000000258,9.588651516175266565
0.416000000000000258,9.547547482228271321
0.417000000000000259,9.504408752461959153
0.418000000000000260,9.459280121613895531
0.419000000000000261,9.412206942075419747
0.420000000000000262,9.363235067210371909
0.421000000000000263,9.312410796080964559
0.422000000000000264,9.259780819595652801
0.423000000000000265,9.205392168090742899
0.424000000000000266,9.149292160354741910
0.425000000000000266,9.091528354101782838
0.426000000000000267,9.032148497897923178
0.427000000000000268,8.971200484541531850
0.428000000000000269,8.908732305897046899
0.429000000000000270,8.844792009178897629
0.430000000000000271,8.779427654680523219
0.431000000000000272,8.712687274941574245
0.432000000000000273,8.644618835344452634
0.433000000000000274,8.575270196129839206
0.434000000000000274,8.504689075819054978
0.435000000000000275,8.432923016030022367
0.436000000000000276,8.360019347671880041
0.437000000000000277,8.286025158502216215
0.438000000000000278,8.210987262029760814
0.439000000000000279,8.134952167744264884
0.440000000000000280,8.057966052654212064
0.441000000000000281,7.980074734112415413
0.442000000000000282,7.901323643908325423
0.443000000000000282,7.821757803605538406
0.444000000000000283,7.741421801102006839
0.445000000000000284,7.660359768390146762
0.446000000000000285,7.578615360493270892
0.447000000000000286,7.496231735554482967
0.448000000000000287,7.413251536053674151
0.449000000000000288,7.329716871128042044
0.450000000000000289,7.245669299971069677
0.451000000000000290,7.161149816284897440
0.452000000000000290,7.076198833760727780
0.453000000000000291,6.990856172561697335
0.454000000000000292,6.905161046782779977
0.455000000000000293,6.819152052861952029
0.456000000000000294,6.732867158917136052
0.457000000000000295,6.646343694983263717
0.458000000000000296,6.559618344123916422
0.459000000000000297,6.472727134392213699
0.460000000000000298,6.385705431615499528
0.461000000000000298,6.298587932978930048
0.462000000000000299,6.211408661382742835
0.463000000000000300,6.124200960548720651
0.464000000000000301,6.036997490851173431
0.465000000000000302,5.949830225848377729
0.466000000000000303,5.862730449490290319
0.467000000000000304,5.775728753979096908
0.468000000000000305,5.688855038259094776
0.469000000000000306,5.602138507112930377
0.470000000000000306,5.515607670841554899
0.471000000000000307,5.429290345505476623
0.472000000000000308,5.343213653705451094
0.473000000000000309,5.257404025880926035
0.474000000000000310,5.171887202105192927
0.475000000000000311,5.086688234356161686
0.476000000000000312,5.001831489242796636
0.477000000000000313,4.917340651166694165
0.478000000000000314,4.833238725899667187
0.479000000000000314,4.749548044557895921
0.480000000000000315,4.666290267953991489
0.481000000000000316,4.583486391308651875
0.482000000000000317,4.501156749303964588
0.483000000000000318,4.419321021460916654
0.484000000000000319,4.337998237824007397
0.485000000000000320,4.257206784936419908
0.486000000000000321,4.176964412089430034
0.487000000000000322,4.097288237830360558
0.488000000000000322,4.018194756713667992
0.489000000000000323,3.939699846280275697
0.490000000000000324,3.861818774250529884
0.491000000000000325,3.784566205916769288
0.492000000000000326,3.707956211721698203
0.493000000000000327,3.632002275009370784
0.494000000000000328,3.556717299935777454
0.495000000000000329,3.482113619526605586
0.496000000000000330,3.408203003870041492
0.497000000000000330,3.334996668432838707
0.498000000000000331,3.262505282488365133
0.499000000000000332,3.190738977645685814
0.500000000000000333,3.119707356468953918
0.501000000000000334,3.049419501176985570
0.502000000000000335,2.979883982413100263
0.503000000000000336,2.911108868075722889
0.504000000000000337,2.843101732200483678
0.505000000000000338,2.775869663885077721
0.506000000000000338,2.709419276248316688
0.507000000000000339,2.643756715415143344
0.508000000000000340,2.578887669519834613
0.509000000000000341,2.514817377719776648
0.510000000000000342,2.451550639212567440
0.511000000000000343,2.389091822249498787
0.512000000000000344,2.327444873138764692
0.513000000000000345,2.266613325232045284
0.514000000000000346,2.206600307888282764
0.515000000000000346,2.147408555408952591
0.516000000000000347,2.089040415939180217
0.517000000000000348,2.031497860329435579
0.518000000000000349,1.974782490952735170
0.519000000000000350,1.918895550472617284
0.520000000000000351,1.863837930557230793
0.521000000000000352,1.809610180535272450
0.522000000000000353,1.756212515989693745
0.523000000000000353,1.703644827285164753
0.524000000000000354,1.651906688025812198
0.525000000000000355,1.600997363439570886
0.526000000000000356,1.550915818686069869
0.527000000000000357,1.501660727084857871
0.528000000000000358,1.453230478261085645
0.529000000000000359,1.405623186206101050
0.530000000000000360,1.358836697250251024
0.531000000000000361,1.312868597945672011
0.532000000000000361,1.267716222856811736
0.533000000000000362,1.223376662256754788
0.534000000000000363,1.179846769727403100
0.535000000000000364,1.137123169661828026
0.536000000000000365,1.095202264667268555
0.537000000000000366,1.054080242867285744
0.538000000000000367,1.013753085101841922
0.539000000000000368,0.974216572024089955
0.540000000000000369,0.935466291092882707
0.541000000000000369,0.897497643460054895
0.542000000000000370,0.860305850751725387
0.543000000000000371,0.823885961742872430
0.544000000000000372,0.788232858924654001
0.545000000000000373,0.753341264963995449
0.546000000000000374,0.719205749055021548
0.547000000000000375,0.685820733162126772
0.548000000000000376,0.653180498154430356
0.549000000000000377,0.621279189831571932
0.550000000000000377,0.590110824840750281
0.551000000000000378,0.559669296485186152
0.552000000000000379,0.529948380424021037
0.553000000000000380,0.500941740263965651
0.554000000000000381,0.472642933042928703
0.555000000000000382,0.445045414605965806
0.556000000000000383,0.418142544874022193
0.557000000000000384,0.391927593005859332
0.558000000000000385,0.366393742453772486
0.559000000000000385,0.341534095913621771
0.560000000000000386,0.317341680169854368
0.561000000000000387,0.293809450836174157
0.562000000000000388,0.270930296992636432
0.563000000000000389,0.248697045719842441
0.564000000000000390,0.227102466531191149
0.565000000000000391,0.206139275703915548
0.566000000000000392,0.185800140509863737
0.567000000000000393,0.166077683346929184
0.568000000000000393,0.146964485772096615
0.569000000000000394,0.128453092437069594
0.570000000000000395,0.110536014927514220
0.571000000000000396,0.093205735506972712
0.572000000000000397,0.076454710766458614
0.573000000000000398,0.060275375180872268
0.574000000000000399,0.044660144573334559
0.575000000000000400,0.029601419488543203
0.576000000000000401,0.015091588476317997
0.577000000000000401,0.001123031286464704
0.578000000000000402,-0.012311878023825218
0.579000000000000403,-0.025220768068896234
0.580000000000000404,-0.037611267198660772
0.581000000000000405,-0.049491000646518811
0.582000000000000406,-0.060867587759994034
0.583000000000000407,-0.071748639312788673
0.584000000000000408,-0.082141754897145910
0.585000000000000409,-0.092054520395148026
0.586000000000000409,-0.101494505527826823
0.587000000000000410,-0.110469261480812125
0.588000000000000411,-0.118986318605218688
0.589000000000000412,-0.127053184192656404
0.590000000000000413,-0.134677340322979788
0.591000000000000414,-0.141866241783632885
0.592000000000000415,-0.148627314059341570
0.593000000000000416,-0.154967951390854980
0.594000000000000417,-0.160895514901573583
0.595000000000000417,-0.166417330790810780
0.596000000000000418,-0.171540688592436097
0.597000000000000419,-0.176272839497743972
0.598000000000000420,-0.180620994741263086
0.599000000000000421,-0.184592324048361067
0.600000000000000422,-0.188193954143419329
0.601000000000000423,-0.191432967317371083
0.602000000000000424,-0.194316400053454352
0.603000000000000425,-0.196851241710023300
0.604000000000000425,-0.199044433259149361
0.605000000000000426,-0.200902866079993275
0.606000000000000427,-0.202433380805725538
0.607000000000000428,-0.203642766222842025
0.608000000000000429,-0.204537758221852606
0.609000000000000430,-0.205125038798072673
0.610000000000000431,-0.205411235101598783
0.611000000000000432,-0.205402918535209700
0.612000000000000433,-0.205106603899225914
0.613000000000000433,-0.204528748582232828
0.614000000000000434,-0.203675751796587617
0.615000000000000435,-0.202553953857676466
0.616000000000000436,-0.201169635505938971
0.617000000000000437,-0.199529017270592440
0.618000000000000438,-0.197638258874059197
0.619000000000000439,-0.195503458676127367
0.620000000000000440,-0.193130653156855209
0.621000000000000441,-0.190525816437261464
0.622000000000000441,-0.187694859836862404
0.623000000000000442,-0.184643631467051067
0.624000000000000443,-0.181377915859521788
0.625000000000000444,-0.177903433628720326
0.626000000000000445,-0.174225841167437862
0.627000000000000446,-0.170350730374739967
0.628000000000000447,-0.166283628415279244
0.629000000000000448,-0.162029997509181289
0.630000000000000449,-0.157595234751619961
0.631000000000000449,-0.152984671961328533
0.632000000000000450,-0.148203575557150607
0.633000000000000451,-0.143257146461890639
0.634000000000000452,-0.138150520032631841
0.635000000000000453,-0.132888766016768772
0.636000000000000454,-0.127476888533011173
0.637000000000000455,-0.121919826076581542
0.638000000000000456,-0.116222451547874139
0.639000000000000457,-0.110389572303878108
0.640000000000000457,-0.104425930231652322
0.641000000000000458,-0.098336201843113175
0.642000000000000459,-0.092124998390534826
0.643000000000000460,-0.085796866002010683
0.644000000000000461,-0.079356285836279766
0.645000000000000462,-0.072807674256246652
0.646000000000000463,-0.066155383020545327
0.647000000000000464,-0.059403699492590958
0.648000000000000465,-0.052556846866450749
0.649000000000000465,-0.045618984408964093
0.650000000000000466,-0.038594207717543134
0.651000000000000467,-0.031486548993050020
0.652000000000000468,-0.024299977327245825
0.653000000000000469,-0.017038399004176575
0.654000000000000470,-0.009705657815089669
0.655000000000000471,-0.002305535386222446
0.656000000000000472,0.005158248480951306
0.657000000000000473,0.012682035457575718
0.658000000000000473,0.020262228323819936
0.659000000000000474,0.027895290594331140
0.660000000000000475,0.035577746133222829
0.661000000000000476,0.043306178759023720
0.662000000000000477,0.051077231840042446
0.663000000000000478,0.058887607880609004
0.664000000000000479,0.066734068098580263
0.665000000000000480,0.074613431994571072
0.666000000000000481,0.082522576913259149
0.667000000000000481,0.090458437597247837
0.668000000000000482,0.098418005733772213
0.669000000000000483,0.106398329494699809
0.670000000000000484,0.114396513070182768
0.671000000000000485,0.122409716196280632
0.672000000000000486,0.130435153676983162
0.673000000000000487,0.138470094900852658
0.674000000000000488,0.146511863352775690
0.675000000000000488,0.154557836121009151
0.676000000000000489,0.162605443399906346
0.677000000000000490,0.170652167988637304
0.678000000000000491,0.178695544786157012
0.679000000000000492,0.186733160282753025
0.680000000000000493,0.194762652048455054
0.681000000000000494,0.202781708218536860
0.682000000000000495,0.210788066976461824
0.683000000000000496,0.218779516034435600
0.684000000000000496,0.226753892111899280
0.685000000000000497,0.234709080412164095
0.686000000000000498,0.242643014097453757
0.687000000000000499,0.250553673762561047
0.688000000000000500,0.258439086907371607
0.689000000000000501,0.266297327408455853
0.690000000000000502,0.274126514989925518
0.691000000000000503,0.281924814693824966
0.692000000000000504,0.289690436350179548
0.693000000000000504,0.297421634046928784
0.694000000000000505,0.305116705599963400
0.695000000000000506,0.312773992023369529
0.696000000000000507,0.320391877000149095
0.697000000000000508,0.327968786353516450
0.698000000000000509,0.335503187518953305
0.699000000000000510,0.342993589017208000
0.700000000000000511,0.350438539928359938
0.701000000000000512,0.357836629367120351
0.702000000000000512,0.365186485959486662
0.703000000000000513,0.372486777320924223
0.704000000000000514,0.379736209536183089
0.705000000000000515,0.386933526640882763
0.706000000000000516,0.394077510104997308
0.707000000000000517,0.401166978318355016
0.708000000000000518,0.408200786078277200
0.709000000000000519,0.415177824079425217
0.710000000000000520,0.422097018406051905
0.711000000000000520,0.428957330026640105
0.712000000000000521,0.435757754291146437
0.713000000000000522,0.442497320430842056
0.714000000000000523,0.449175091060918685
0.715000000000000524,0.455790161685899420
0.716000000000000525,0.462341660207947203
0.717000000000000526,0.468828746438176514
0.718000000000000527,0.475250611610992912
0.719000000000000528,0.481606477901599384
0.720000000000000528,0.487895597946651438
0.721000000000000529,0.494117254368238445
0.722000000000000530,0.500270759301135293
0.723000000000000531,0.506355453923478027
0.724000000000000532,0.512370707990863483
0.725000000000000533,0.518315919373944833
0.726000000000000534,0.524190513599587904
0.727000000000000535,0.529993943395608569
0.728000000000000536,0.535725688239147790
0.729000000000000536,0.541385253908747588
0.730000000000000537,0.546972172040107951
0.731000000000000538,0.552485999685653928
0.732000000000000539,0.557926318877843941
0.733000000000000540,0.563292736196347787
0.734000000000000541,0.568584882339034814
0.735000000000000542,0.573802411696899162
0.736000000000000543,0.578945001932825387
0.737000000000000544,0.584012353564362430
0.738000000000000544,0.589004189550366264
0.739000000000000545,0.593920254881699194
0.740000000000000546,0.598760316175842799
0.741000000000000547,0.603524161275585280
0.742000000000000548,0.608211598851643886
0.743000000000000549,0.612822458009408377
0.744000000000000550,0.617356587899662967
0.745000000000000551,0.621813857333369135
0.746000000000000552,0.626194154400520397
0.747000000000000552,0.630497386093032075
0.748000000000000553,0.634723477931712576
0.749000000000000554,0.638872373597309418
0.750000000000000555,0.642944034565579914
0.751000000000000556,0.646938439746484795
0.752000000000000557,0.650855585127389058
0.753000000000000558,0.654695483420381530
0.754000000000000559,0.658458163713587785
0.755000000000000560,0.662143671126584787
0.756000000000000560,0.665752066469821324
0.757000000000000561,0.669283425908104412
0.758000000000000562,0.672737840628093275
0.759000000000000563,0.676115416509800449
0.760000000000000564,0.679416273802117776
0.761000000000000565,0.682640546802317560
0.762000000000000566,0.685788383539538970
0.763000000000000567,0.688859945462239609
0.764000000000000568,0.691855407129586597
0.765000000000000568,0.694774955906792946
0.766000000000000569,0.697618791664362026
0.767000000000000570,0.700387126481233802
0.768000000000000571,0.703080184351809079
0.769000000000000572,0.705698200896844874
0.770000000000000573,0.708241423078170396
0.771000000000000574,0.710710108917251282
0.772000000000000575,0.713104527217529371
0.773000000000000576,0.715424957290566987
0.774000000000000576,0.717671688685927345
0.775000000000000577,0.719845020924791856
0.776000000000000578,0.721945263237307566
0.777000000000000579,0.723972734303588106
0.778000000000000580,0.725927761998414800
0.779000000000000581,0.727810683139547665
0.780000000000000582,0.729621843239674495
0.781000000000000583,0.731361596261914437
0.782000000000000584,0.733030304378920583
0.783000000000000584,0.734628337735499404
0.784000000000000585,0.736156074214730061
0.785000000000000586,0.737613899207592127
0.786000000000000587,0.739002205386028344
0.787000000000000588,0.740321392479434737
0.788000000000000589,0.741571867054571454
0.789000000000000590,0.742754042298813588
0.790000000000000591,0.743868337806779634
0.791000000000000592,0.744915179370244429
0.792000000000000592,0.745894998771366780
0.793000000000000593,0.746808233579141834
0.794000000000000594,0.747655326949122956
0.795000000000000595,0.748436727426300186
0.796000000000000596,0.749152888751194790
0.797000000000000597,0.749804269669044787
0.798000000000000598,0.750391333742139621
0.799000000000000599,0.750914549165230039
0.800000000000000600,0.751374388583958996
0.801000000000000600,0.751771328916376658
0.802000000000000601,0.752105851177372053
0.803000000000000602,0.752378440306135210
0.804000000000000603,0.752589584996503635
0.805000000000000604,0.752739777530233356
0.806000000000000605,0.752829513613149759
0.807000000000000606,0.752859292214110853
0.808000000000000607,0.752829615406820696
0.809000000000000608,0.752740988214397722
0.810000000000000608,0.752593918456696320
0.811000000000000609,0.752388916600381430
0.812000000000000610,0.752126495611656010
0.813000000000000611,0.751807170811677805
0.814000000000000612,0.751431459734605012
0.815000000000000613,0.750999881988228979
0.816000000000000614,0.750512959117210277
0.817000000000000615,0.749971214468835301
0.818000000000000616,0.749375173061297417
0.819000000000000616,0.748725361454460669
0.820000000000000617,0.748022307623088856
0.821000000000000618,0.747266540832491222
0.822000000000000619,0.746458591516573011
0.823000000000000620,0.745598991158243019
0.824000000000000621,0.744688272172190691
0.825000000000000622,0.743726967789941740
0.826000000000000623,0.742715611947220689
0.827000000000000624,0.741654739173561395
0.828000000000000624,0.740544884484129806
0.829000000000000625,0.739386583273790698
0.830000000000000626,0.738180371213283171
0.831000000000000627,0.736926784147586389
0.832000000000000628,0.735626357996387981
0.833000000000000629,0.734279628656631767
0.834000000000000630,0.732887131907142941
0.835000000000000631,0.731449403315269198
0.836000000000000631,0.729966978145543566
0.837000000000000632,0.728440391270319565
0.838000000000000633,0.726870177082373115
0.839000000000000634,0.725256869409406590
0.840000000000000635,0.723601001430478785
0.841000000000000636,0.721903105594305372
0.842000000000000637,0.720163713539397787
0.843000000000000638,0.718383356016039420
0.844000000000000639,0.716562562810043824
0.845000000000000639,0.714701862668317811
0.846000000000000640,0.712801783226135965
0.847000000000000641,0.710862850936161306
0.848000000000000642,0.708885590999157822
0.849000000000000643,0.706870527296393436
0.850000000000000644,0.704818182323651121
0.851000000000000645,0.702729077126926338
0.852000000000000646,0.700603731239679894
0.853000000000000647,0.698442662621694077
0.854000000000000647,0.696246387599470884
0.855000000000000648,0.694015420808182792
0.856000000000000649,0.691750275135105008
0.857000000000000650,0.689451461664562948
0.858000000000000651,0.687119489624335222
0.859000000000000652,0.684754866333484147
0.860000000000000653,0.682358097151632093
0.861000000000000654,0.679929685429622954
0.862000000000000655,0.677470132461548746
0.863000000000000655,0.674979937438166866
0.864000000000000656,0.672459597401612319
0.865000000000000657,0.669909607201447654
0.866000000000000658,0.667330459452007974
0.867000000000000659,0.664722644490988723
0.868000000000000660,0.662086650339325566
0.869000000000000661,0.659422962662282619
0.870000000000000662,0.656732064731751830
0.871000000000000663,0.654014437389747960
0.872000000000000663,0.651270559013079398
0.873000000000000664,0.648500905479180823
0.874000000000000665,0.645705950133049322
0.875000000000000666,0.642886163755335249
0.876000000000000667,0.640042014531498005
0.877000000000000668,0.637173968022058945
0.878000000000000669,0.634282487133906225
0.879000000000000670,0.631368032092652465
0.880000000000000671,0.628431060415987619
0.881000000000000671,0.625472026888083343
0.882000000000000672,0.622491383534947484
0.883000000000000673,0.619489579600770113
0.884000000000000674,0.616467061525219684
0.885000000000000675,0.613424272921670788
0.886000000000000676,0.610361654556378697
0.887000000000000677,0.607279644328516222
0.888000000000000678,0.604178677251149598
0.889000000000000679,0.601059185433043264
0.890000000000000679,0.597921598061352588
0.891000000000000680,0.594766341385137287
0.892000000000000681,0.591593838699715380
0.893000000000000682,0.588404510331828057
0.894000000000000683,0.585198773625588808
0.895000000000000684,0.581977042929219257
0.896000000000000685,0.578739729582559481
0.897000000000000686,0.575487241905326519
0.898000000000000687,0.572219985186083413
0.899000000000000687,0.568938361671996740
0.900000000000000688,0.565642770559226293
0.901000000000000689,0.562333607984072281
0.902000000000000690,0.559011267014772772
0.903000000000000691,0.555676137643970613
0.904000000000000692,0.552328606781855913
0.905000000000000693,0.548969058249937136
0.906000000000000694,0.545597872775436477
0.907000000000000695,0.542215427986324383
0.908000000000000695,0.538822098406931960
0.909000000000000696,0.535418255454182423
0.910000000000000697,0.532004267434378897
0.911000000000000698,0.528580499540579396
0.912000000000000699,0.525147313850521047
0.913000000000000700,0.521705069325077209
0.914000000000000701,0.518254121807284585
0.915000000000000702,0.514794824021842512
0.916000000000000703,0.511327525575169028
0.917000000000000703,0.507852572955920012
0.918000000000000704,0.504370309536035011
0.919000000000000705,0.500881075572218615
0.920000000000000706,0.497385208207927920
0.921000000000000707,0.493883041475793594
0.922000000000000708,0.490374906300507785
0.923000000000000709,0.486861130502120099
0.924000000000000710,0.483342038799796370
0.925000000000000711,0.479817952815967619
0.926000000000000711,0.476289191080902896
0.927000000000000712,0.472756069037663207
0.928000000000000713,0.469218899047470495
0.929000000000000714,0.465677990395428953
0.930000000000000715,0.462133649296640581
0.931000000000000716,0.458586178902667729
0.932000000000000717,0.455035879308334335
0.933000000000000718,0.451483047558929318
0.934000000000000719,0.447927977657669618
0.935000000000000719,0.444370960573540585
0.936000000000000720,0.440812284249447295
0.937000000000000721,0.437252233610662511
0.938000000000000722,0.433691090573588567
0.939000000000000723,0.430129134054820117
0.940000000000000724,0.426566639980476114
0.941000000000000725,0.423003881295827333
0.942000000000000726,0.419441127975189676
0.943000000000000727,0.415878647032081772
0.944000000000000727,0.412316702529646695
0.945000000000000728,0.408755555591306219
0.946000000000000729,0.405195464411689077
0.947000000000000730,0.401636684267760558
0.948000000000000731,0.398079467530209341
0.949000000000000732,0.394524063675037118
0.950000000000000733,0.390970719295389402
0.951000000000000734,0.387419678113554489
0.952000000000000735,0.383871180993220151
0.953000000000000735,0.380325465951880048
0.954000000000000736,0.376782768173452132
0.955000000000000737,0.373243320021093339
0.956000000000000738,0.369707351050165167
0.957000000000000739,0.366175088021385042
0.958000000000000740,0.362646754914166980
0.959000000000000741,0.359122572940079321
0.960000000000000742,0.355602760556503139
0.961000000000000743,0.352087533480410608
0.962000000000000743,0.348577104702301965
0.963000000000000744,0.345071684500284637
0.964000000000000745,0.341571480454276766
0.965000000000000746,0.338076697460352738
0.966000000000000747,0.334587537745200114
0.967000000000000748,0.331104200880716792
0.968000000000000749,0.327626883798695923
0.969000000000000750,0.324155780805650440
0.970000000000000751,0.320691083597714421
0.971000000000000751,0.317232981275672343
0.972000000000000752,0.313781660360074488
0.973000000000000753,0.310337304806425629
0.974000000000000754,0.306900096020502555
0.975000000000000755,0.303470212873716505
0.976000000000000756,0.300047831718578517
0.977000000000000757,0.296633126404231340
0.978000000000000758,0.293226268292062053
0.979000000000000759,0.289827426271358324
0.980000000000000759,0.286436766775062412
0.981000000000000760,0.283054453795569205
0.982000000000000761,0.279680648900564877
0.983000000000000762,0.276315511248944101
0.984000000000000763,0.272959197606777282
0.985000000000000764,0.269611862363284938
0.986000000000000765,0.266273657546911513
0.987000000000000766,0.262944732841393636
0.988000000000000766,0.259625235601880611
0.989000000000000767,0.256315310871089330
0.990000000000000768,0.253015101395487441
0.991000000000000769,0.249724747641501710
0.992000000000000770,0.246444387811745103
0.993000000000000771,0.243174157861274443
0.994000000000000772,0.239914191513857233
0.995000000000000773,0.236664620278255466
0.996000000000000774,0.233425573464526442
0.997000000000000774,0.230197178200324398
0.998000000000000775,0.226979559447217399
0.999000000000000776,0.223772840016996127
1.000000000000000666,0.220577140588000736
1.001000000000000778,0.217392579721432389
1.002000000000000668,0.214219273877669286
1.003000000000000780,0.211057337432574238
1.004000000000000670,0.207906882693793316
1.005000000000000782,0.204768019917042576
1.006000000000000671,0.201640857322395117
1.007000000000000783,0.198525501110527330
1.008000000000000673,0.195422055478977702
1.009000000000000785,0.192330622638365423
1.010000000000000675,0.189251302828602613
1.011000000000000787,0.186184194335066749
1.012000000000000677,0.183129393504761651
1.013000000000000789,0.180086994762452768
1.014000000000000679,0.177057090626764918
1.015000000000000790,0.174039771726253317
1.016000000000000680,0.171035126815443805
1.017000000000000792,0.168043242790838127
1.018000000000000682,0.165064204706885265
1.019000000000000794,0.162098095791914421
1.020000000000000684,0.159144997464024912
1.021000000000000796,0.156204989346944878
1.022000000000000686,0.153278149285840853
1.023000000000000798,0.150364553363084463
1.024000000000000687,0.147464275913989751
1.025000000000000799,0.144577389542465878
1.026000000000000689,0.141703965136677518
1.027000000000000801,0.138844071884601489
1.028000000000000691,0.135997777289577682
1.029000000000000803,0.133165147185775073
1.030000000000000693,0.130346245753636764
1.031000000000000805,0.127541135535233163
1.032000000000000695,0.124749877449605667
1.033000000000000806,0.121972530808015539
1.034000000000000696,0.119209153329151080
1.035000000000000808,0.116459801154290957
1.036000000000000698,0.113724528862377341
1.037000000000000810,0.111003389485056475
1.038000000000000700,0.108296434521647833
1.039000000000000812,0.105603713954051506
1.040000000000000702,0.102925276261588913
1.041000000000000814,0.100261168435785877
1.042000000000000703,0.097611435995100290
1.043000000000000815,0.094976122999558613
1.044000000000000705,0.092355272065349450
1.045000000000000817,0.089748924379344924
1.046000000000000707,0.087157119713548073
1.047000000000000819,0.084579896439474667
1.048000000000000709,0.082017291542481385
1.049000000000000821,0.079469340635988872
1.050000000000000711,0.076936077975681263
1.051000000000000822,0.074417536473588120
1.052000000000000712,0.071913747712137238
1.053000000000000824,0.069424741958101582
1.054000000000000714,0.066950548176495789
1.055000000000000826,0.064491194044389716
1.056000000000000716,0.062046705964653025
1.057000000000000828,0.059617109079620555
1.058000000000000718,0.057202427284690049
1.059000000000000830,0.054802683241843120
1.060000000000000719,0.052417898393084784
1.061000000000000831,0.050048092973817890
1.062000000000000721,0.047693286026136414
1.063000000000000833,0.045353495412031548
1.064000000000000723,0.043028737826553629
1.065000000000000835,0.040719028810854790
1.066000000000000725,0.038424382765183604
1.067000000000000837,0.036144812961802504
1.068000000000000727,0.033880331557802193
1.069000000000000838,0.031630949607872362
1.070000000000000728,0.029396677076963085
1.071000000000000840,0.027177522852890889
1.072000000000000730,0.024973494758850155
1.073000000000000842,0.022784599565858751
1.074000000000000732,0.020610843005117903
1.075000000000000844,0.018452229780288605
1.076000000000000734,0.016308763579700861
1.077000000000000846,0.014180447088474546
1.078000000000000735,0.012067282000556642
1.079000000000000847,0.009969269030702181
1.080000000000000737,0.007886407926334776
1.081000000000000849,0.005818697479376676
1.082000000000000739,0.003766135537957778
1.083000000000000851,0.001728719018066752
1.084000000000000741,-0.000293556084884221
1.085000000000000853,-0.002300694684569968
1.086000000000000743,-0.004292702592348784
1.087000000000000854,-0.006269586505937896
1.088000000000000744,-0.008231353998163885
1.089000000000000856,-0.010178013505790113
1.090000000000000746,-0.012109574318439315
1.091000000000000858,-0.014026046567582249
1.092000000000000748,-0.015927441215600625
1.093000000000000860,-0.017813770044955227
1.094000000000000750,-0.019685045647396628
1.095000000000000862,-0.021541281413289110
1.096000000000000751,-0.023382491520998406
1.097000000000000863,-0.025208690926348636
1.098000000000000753,-0.027019895352181088
1.099000000000000865,-0.028816121277981922
1.100000000000000755,-0.030597385929567306
1.101000000000000867,-0.032363707268892351
1.102000000000000757,-0.034115103983889908
1.103000000000000869,-0.035851595478429407
1.104000000000000759,-0.037573201862317135
1.105000000000000870,-0.039279943941409289
1.106000000000000760,-0.040971843207761316
1.107000000000000872,-0.042648921829908662
1.108000000000000762,-0.044311202643173182
1.109000000000000874,-0.045958709140075785
1.110000000000000764,-0.047591465460818307
1.111000000000000876,-0.049209496383837904
1.112000000000000766,-0.050812827316451578
1.113000000000000878,-0.052401484285560199
1.114000000000000767,-0.053975493928439144
1.115000000000000879,-0.055534883483600674
1.116000000000000769,-0.057079680781730112
1.117000000000000881,-0.058609914236705529
1.118000000000000771,-0.060125612836682940
1.119000000000000883,-0.061626806135260184
1.120000000000000773,-0.063113524242719404
1.121000000000000885,-0.064585797817331758
1.122000000000000774,-0.066043658056749791
1.123000000000000886,-0.067487136689465599
1.124000000000000776,-0.068916265966347506
1.125000000000000888,-0.070331078652237172
1.126000000000000778,-0.071731608017637921
1.127000000000000890,-0.073117887830467951
1.128000000000000780,-0.074489952347870925
1.129000000000000892,-0.075847836308128941
1.130000000000000782,-0.077191574922616094
1.131000000000000894,-0.078521203867844641
1.132000000000000783,-0.079836759277566879
1.133000000000000895,-0.081138277734968192
1.134000000000000785,-0.082425796264901569
1.135000000000000897,-0.083699352326222234
1.136000000000000787,-0.084958983804166055
1.137000000000000899,-0.086204729002819669
1.138000000000000789,-0.087436626637628176
1.139000000000000901,-0.088654715828026739
1.140000000000000790,-0.089859036090075103
1.141000000000000902,-0.091049627329194055
1.142000000000000792,-0.092226529832980644
1.143000000000000904,-0.093389784264070103
1.144000000000000794,-0.094539431653066802
1.145000000000000906,-0.095675513391541969
1.146000000000000796,-0.096798071225114288
1.147000000000000908,-0.097907147246572693
1.148000000000000798,-0.099002783889079252
1.149000000000000909,-0.100085023919433275
1.150000000000000799,-0.101153910431396127
1.151000000000000689,-0.102209486839093588
1.152000000000000801,-0.103251796870463597
1.153000000000000913,-0.104280884560783077
1.154000000000000803,-0.105296794246250935
1.155000000000000693,-0.106299570557632089
1.156000000000000805,-0.107289258413982069
1.157000000000000917,-0.108265903016392523
1.158000000000000806,-0.109229549841852000
1.159000000000000696,-0.110180244637126307
1.160000000000000808,-0.111118033412723374
1.161000000000000920,-0.112042962436902191
1.162000000000000810,-0.112955078229763611
1.163000000000000700,-0.113854427557374002
1.164000000000000812,-0.114741057425975998
1.165000000000000924,-0.115615015076234756
1.166000000000000814,-0.116476347977561900
1.167000000000000703,-0.117325103822487467
1.168000000000000815,-0.118161330521092484
1.169000000000000927,-0.118985076195497738
1.170000000000000817,-0.119796389174416928
1.171000000000000707,-0.120595317987753581
1.172000000000000819,-0.121381911361273936
1.173000000000000931,-0.122156218211318085
1.174000000000000821,-0.122918287639566692
1.175000000000000711,-0.123668168927888789
1.176000000000000822,-0.124405911533212427
1.177000000000000934,-0.125131565082471918
1.178000000000000824,-0.125845179367596038
1.179000000000000714,-0.126546804340555485
1.180000000000000826,-0.127236490108477790
1.181000000000000938,-0.127914286928785620
1.182000000000000828,-0.128580245204416965
1.183000000000000718,-0.129234415479079406
1.184000000000000830,-0.129876848432571024
1.185000000000000941,-0.130507594876129451
1.186000000000000831,-0.131126705747873606
1.187000000000000721,-0.131734232108245225
1.188000000000000833,-0.132330225135547208
1.189000000000000945,-0.132914736121498123
1.190000000000000835,-0.133487816466866055
1.191000000000000725,-0.134049517677114455
1.192000000000000837,-0.134599891358154838
1.193000000000000949,-0.135138989212072763
1.194000000000000838,-0.135666863032977841
1.195000000000000728,-0.136183564702846427
1.196000000000000840,-0.136689146187438715
1.197000000000000952,-0.137183659532269547
1.198000000000000842,-0.137667156858591377
1.199000000000000732,-0.138139690359472461
1.200000000000000844,-0.138601312295871026
1.201000000000000956,-0.139052074992804975
1.202000000000000846,-0.139492030835530717
1.203000000000000735,-0.139921232265776102
1.204000000000000847,-0.140339731778030608
1.205000000000000959,-0.140747581915870612
1.206000000000000849,-0.141144835268325441
1.207000000000000739,-0.141531544466295289
1.208000000000000851,-0.141907762179010188
1.209000000000000963,-0.142273541110530921
1.210000000000000853,-0.142628933996290813
1.211000000000000743,-0.142973993599690485
1.212000000000000854,-0.143308772708716642
1.213000000000000966,-0.143633324132622364
1.214000000000000856,-0.143947700698638797
1.215000000000000746,-0.144251955248723890
1.216000000000000858,-0.144546140636364479
1.217000000000000970,-0.144830309723409517
1.218000000000000860,-0.145104515376938248
1.219000000000000750,-0.145368810466195292
1.220000000000000862,-0.145623247859526267
1.221000000000000973,-0.145867880421382295
1.222000000000000863,-0.146102761009355542
1.223000000000000753,-0.146327942471243200
1.224000000000000865,-0.146543477642163689
1.225000000000000977,-0.146749419341708875
1.226000000000000867,-0.146945820371124469
1.227000000000000757,-0.147132733510535296
1.228000000000000869,-0.147310211516200551
1.229000000000000981,-0.147478307117826474
1.230000000000000870,-0.147637073015881498
1.231000000000000760,-0.147786561878974487
1.232000000000000872,-0.147926826341269663
1.233000000000000984,-0.148057918999901783
1.234000000000000874,-0.148179892412484776
1.235000000000000764,-0.148292799094595557
1.236000000000000876,-0.148396691517331453
1.237000000000000988,-0.148491622104891641
1.238000000000000878,-0.148577643232181367
1.239000000000000767,-0.148654807222470958
1.240000000000000879,-0.148723166345066715
1.241000000000000991,-0.148782772813028707
1.242000000000000881,-0.148833678780915024
1.243000000000000771,-0.148875936342563575
1.244000000000000883,-0.148909597528897153
1.245000000000000995,-0.148934714305770349
1.246000000000000885,-0.148951338571846392
1.247000000000000774,-0.148959522156494384
1.248000000000000886,-0.148959316817732168
1.249000000000000998,-0.148950774240192374
1.250000000000000888,-0.148933946033118880
1.251000000000000778,-0.148908883728391755
1.252000000000000890,-0.148875638778592001
1.253000000000001002,-0.148834262555080615
1.254000000000000892,-0.148784806346124149
1.255000000000000782,-0.148727321355025366
1.256000000000000894,-0.148661858698319410
1.257000000000001005,-0.148588469403953316
1.258000000000000895,-0.148507204409534049
1.259000000000000785,-0.148418114560578213
1.260000000000000897,-0.148321250608802524
1.261000000000001009,-0.148216663210436972
1.262000000000000899,-0.148104402924566197
1.263000000000000789,-0.147984520211494691
1.264000000000000901,-0.147857065431150625
1.265000000000001013,-0.147722088841495514
1.266000000000000902,-0.147579640596975592
1.267000000000000792,-0.147429770746998839
1.268000000000000904,-0.147272529234431043
1.269000000000001016,-0.147107965894118869
1.270000000000000906,-0.146936130451442132
1.271000000000000796,-0.146757072520886378
1.272000000000000908,-0.146570841604636681
1.273000000000001020,-0.146377487091213038
1.274000000000000909,-0.146177058254108261
1.275000000000000799,-0.145969604250457657
1.276000000000000911,-0.145755174119744535
1.277000000000001023,-0.145533816782509151
1.278000000000000913,-0.145305581039093717
1.279000000000000803,-0.145070515568407138
1.280000000000000915,-0.144828668926718779
1.281000000000001027,-0.144580089546447826
1.282000000000000917,-0.144324825735024392
1.283000000000000806,-0.144062925673720643
1.284000000000000918,-0.143794437416538218
1.285000000000001030,-0.143519408889103417
1.286000000000000920,-0.143237887887586790
1.287000000000000810,-0.142949922077638458
1.288000000000000922,-0.142655558993361464
1.289000000000001034,-0.142354846036280347
1.290000000000000924,-0.142047830474348269
1.291000000000000814,-0.141734559440977126
1.292000000000000925,-0.141415079934065852
1.293000000000001037,-0.141089438815079266
1.294000000000000927,-0.140757682808119844
1.295000000000000817,-0.140419858499029687
1.296000000000000929,-0.140076012334520744
1.297000000000001041,-0.139726190621300428
1.298000000000000931,-0.139370439525248385
1.299000000000000821,-0.139008805070581110
1.300000000000000933,-0.138641333139046530
1.301000000000001044,-0.138268069469152544
1.302000000000000934,-0.137889059655385532
1.303000000000000824,-0.137504349147470062
1.304000000000000936,-0.137113983249624705
1.305000000000001048,-0.136718007119865537
1.306000000000000938,-0.136316465769292378
1.307000000000000828,-0.135909404061417494
1.308000000000000940,-0.135496866711497077
1.309000000000001052,-0.135078898285890675
1.310000000000000941,-0.134655543201429528
1.311000000000000831,-0.134226845724795985
1.312000000000000943,-0.133792849971931721
1.313000000000001055,-0.133353599907462789
1.314000000000000945,-0.132909139344123156
1.315000000000000835,-0.132459511942200792
1.316000000000000947,-0.132004761209022992
1.317000000000001059,-0.131544930498418422
1.318000000000000949,-0.131080063010215631
1.319000000000000838,-0.130610201789763736
1.320000000000000950,-0.130135389727449702
1.321000000000001062,-0.129655669558236764
1.322000000000000952,-0.129171083861225028
1.323000000000000842,-0.128681675059213796
1.324000000000000954,-0.128187485418292224
1.325000000000001066,-0.127688557047426821
1.326000000000000956,-0.127184931898080722
1.327000000000000846,-0.126676651763829529
1.328000000000000957,-0.126163758280006144
1.329000000000001069,-0.125646292923344949
1.330000000000000959,-0.125124297011654922
1.331000000000000849,-0.124597811703487049
1.332000000000000961,-0.124066877997825759
1.333000000000001073,-0.123531536733796424
1.334000000000000963,-0.122991828590378424
1.335000000000000853,-0.122447794086125453
1.336000000000000965,-0.121899473578917950
1.337000000000001076,-0.121346907265703047
1.338000000000000966,-0.120790135182264141
1.339000000000000856,-0.120229197202996546
1.340000000000000968,-0.119664133040687307
1.341000000000001080,-0.119094982246322229
1.342000000000000970,-0.118521784208892103
1.343000000000000860,-0.117944578155212823
1.344000000000000972,-0.117363403149757239
1.345000000000001084,-0.116778298094503380
1.346000000000000973,-0.116189301728778477
1.347000000000000863,-0.115596452629135316
1.348000000000000975,-0.114999789209212638
1.349000000000001087,-0.114399349719632309
1.350000000000000977,-0.113795172247894066
1.351000000000000867,-0.113187294718275849
1.352000000000000979,-0.112575754891747454
1.353000000000001091,-0.111960590365908247
1.354000000000000981,-0.111341838574913379
1.355000000000000870,-0.110719536789412890
1.356000000000000982,-0.110093722116521686
1.357000000000001094,-0.109464431499773182
1.358000000000000984,-0.108831701719090512
1.359000000000000874,-0.108195569390776167
1.360000000000000986,-0.107556070967496017
1.361000000000001098,-0.106913242738289477
1.362000000000000988,-0.106267120828562572
1.363000000000000878,-0.105617741200122059
1.364000000000000989,-0.104965139651191988
1.365000000000001101,-0.104309351816445961
1.366000000000000991,-0.103650413167056851
1.367000000000000881,-0.102988359010749292
1.368000000000000993,-0.102323224491847137
1.369000000000001105,-0.101655044591348928
1.370000000000000995,-0.100983854127004585
1.371000000000000885,-0.100309687753393856
1.372000000000000997,-0.099632579962015244
1.373000000000001108,-0.098952565081391025
1.374000000000000998,-0.098269677277156242
1.375000000000000888,-0.097583950552197068
1.376000000000001000,-0.096895418746747730
1.377000000000001112,-0.096204115538524038
1.378000000000001002,-0.095510074442864773
1.379000000000000892,-0.094813328812862946
1.380000000000001004,-0.094113911839516937
1.381000000000001116,-0.093411856551886399
1.382000000000001005,-0.092707195817251717
1.383000000000000895,-0.091999962341278718
1.384000000000001007,-0.091290188668201822
1.385000000000001119,-0.090577907180990180
1.386000000000001009,-0.089863150101550035
1.387000000000000899,-0.089145949490900225
1.388000000000001011,-0.088426337249391057
1.389000000000001123,-0.087704345116888821
1.390000000000001013,-0.086980004673000030
1.391000000000000902,-0.086253347337280337
1.392000000000001014,-0.085524404369460655
1.393000000000001126,-0.084793206869675258
1.394000000000001016,-0.084059785778692303
1.395000000000000906,-0.083324171878152525
1.396000000000001018,-0.082586395790812644
1.397000000000001130,-0.081846487980798674
1.398000000000001020,-0.081104478753858858
1.399000000000000909,-0.080360398257616206
1.400000000000001021,-0.079614276481841703
1.401000000000001133,-0.078866143258725180
1.402000000000001023,-0.078116028263139389
1.403000000000000913,-0.077363961012922380
1.404000000000001025,-0.076609970869171595
1.405000000000001137,-0.075854087036520940
1.406000000000001027,-0.075096338563430079
1.407000000000000917,-0.074336754342504391
1.408000000000001029,-0.073575363110765429
1.409000000000001140,-0.072812193449980259
1.410000000000001030,-0.072047273786966737
1.411000000000000920,-0.071280632393902629
1.412000000000001032,-0.070512297388641093
1.413000000000001144,-0.069742296735053291
1.414000000000001034,-0.068970658243329111
1.415000000000000924,-0.068197409570323372
1.416000000000001036,-0.067422578219888896
1.417000000000001148,-0.066646191543211081
1.418000000000001037,-0.065868276739150453
1.419000000000000927,-0.065088860854585068
1.420000000000001039,-0.064307970784766064
1.421000000000001151,-0.063525633273667753
1.422000000000001041,-0.062741874914339441
1.423000000000000931,-0.061956722149267542
1.424000000000001043,-0.061170201270738168
1.425000000000001155,-0.060382338421201220
1.426000000000001044,-0.059593159593644550
1.427000000000000934,-0.058802690631957512
1.428000000000001046,-0.058010957231312096
1.429000000000001158,-0.057217984938535957
1.430000000000001048,-0.056423799152500134
1.431000000000000938,-0.055628425124494750
1.432000000000001050,-0.054831887958622684
1.433000000000001162,-0.054034212612188048
1.434000000000001052,-0.053235423896075197
1.435000000000000941,-0.052435546475167072
1.436000000000001053,-0.051634604868719028
1.437000000000001165,-0.050832623450773218
1.438000000000001055,-0.050029626450557453
1.439000000000000945,-0.049225637952883344
1.440000000000001057,-0.048420681898563862
1.441000000000001169,-0.047614782084813845
1.442000000000001059,-0.046807962165660431
1.443000000000000949,-0.046000245652372609
1.444000000000001060,-0.045191655913853206
1.445000000000001172,-0.044382216177071297
1.446000000000001062,-0.043571949527488545
1.447000000000000952,-0.042760878909460190
1.448000000000001064,-0.041949027126677974
1.449000000000001176,-0.041136416842588314
1.450000000000001066,-0.040323070580821171
1.451000000000000956,-0.039509010725615558
1.452000000000001068,-0.038694259522257260
1.453000000000001180,-0.037878839077508657
1.454000000000001069,-0.037062771360043302
1.455000000000000959,-0.036246078200881493
1.456000000000001071,-0.035428781293829703
1.457000000000001183,-0.034610902195919994
1.458000000000001073,-0.033792462327848452
1.459000000000000963,-0.032973482974418336
1.460000000000001075,-0.032153985284989958
1.461000000000001187,-0.031333990273912510
1.462000000000001076,-0.030513518820987750
1.463000000000000966,-0.029692591671897934
1.464000000000001078,-0.028871229438673412
1.465000000000001190,-0.028049452600132911
1.466000000000001080,-0.027227281502332983
1.467000000000000970,-0.026404736359026498
1.468000000000001082,-0.025581837252114669
1.469000000000001194,-0.024758604132097423
1.470000000000001084,-0.023935056818535166
1.471000000000000973,-0.023111215000497919
1.472000000000001085,-0.022287098237034141
1.473000000000001197,-0.021462725957616301
1.474000000000001087,-0.020638117462607842
1.475000000000000977,-0.019813291923719382
1.476000000000001089,-0.018988268384477185
1.477000000000001201,-0.018163065760673967
1.478000000000001091,-0.017337702840837840
1.479000000000000981,-0.016512198286694528
1.480000000000001092,-0.015686570633628542
1.481000000000001204,-0.014860838291154857
1.482000000000001094,-0.014035019543370450
1.483000000000000984,-0.013209132549436588
1.484000000000001096,-0.012383195344033130
1.485000000000001208,-0.011557225837821226
1.486000000000001098,-0.010731241817927294
1.487000000000000988,-0.009905260948396107
1.488000000000001100,-0.009079300770660022
1.489000000000001211,-0.008253378704013766
1.490000000000001101,-0.007427512046080917
1.491000000000000991,-0.006601717973273825
1.492000000000001103,-0.005776013541279115
1.493000000000001215,-0.004950415685511621
1.494000000000001105,-0.004124941221592182
1.495000000000000995,-0.003299606845815660
1.496000000000001107,-0.002474429135625417
1.497000000000001219,-0.001649424550074480
1.498000000000001108,-0.000824609430301867
1.499000000000000998,0.000000000000000000
