# Ag322_CS-55104-AC
# h[nm],U(h)[kJ/mol]
0.149999999999999994,119.310978241671207911
0.150999999999999995,114.327763279665788332
0.151999999999999996,111.116470844145439401
0.152999999999999997,108.286609498674962992
0.153999999999999998,105.368856622970000103
0.154999999999999999,102.303063219371438208
0.156000000000000000,99.172593248547158851
0.157000000000000001,96.079468548114547843
0.158000000000000002,93.095993584662181775
0.159000000000000002,90.254795949924172760
0.160000000000000003,87.555647863508426099
0.161000000000000004,84.977472525818825488
0.162000000000000005,82.489885578860352666
0.163000000000000006,80.061996149643135823
0.164000000000000007,77.667987142687621827
0.165000000000000008,75.289850230135201059
0.166000000000000009,72.917971930818524129
0.167000000000000010,70.550303347269689880
0.168000000000000010,68.190747453431328040
0.169000000000000011,65.847250371552647152
0.170000000000000012,63.529933115793163267
0.171000000000000013,61.249469973538637646
0.172000000000000014,59.015817181560635163
0.173000000000000015,56.837321301799647699
0.174000000000000016,54.720187406679180242
0.175000000000000017,52.668258072239574119
0.176000000000000018,50.683040292594199627
0.177000000000000018,48.763914289897137166
0.178000000000000019,46.908462071696959583
0.179000000000000020,45.112861566849701944
0.180000000000000021,43.372302094426387953
0.181000000000000022,41.681387278806333541
0.182000000000000023,40.034501334243842052
0.183000000000000024,38.426123322795959325
0.184000000000000025,36.851081256140943765
0.185000000000000026,35.304743687319586343
0.186000000000000026,33.783150782078458008
0.187000000000000027,32.283089912909957775
0.188000000000000028,30.802122766304091073
0.189000000000000029,29.338571994011669375
0.190000000000000030,27.891475767080088133
0.191000000000000031,26.460518386218108589
0.192000000000000032,25.045944520804688693
0.193000000000000033,23.648463824008196354
0.194000000000000034,22.269151710619901507
0.195000000000000034,20.909351071532494615
0.196000000000000035,19.570578697553475678
0.197000000000000036,18.254439240549505286
0.198000000000000037,16.962548681756310032
0.199000000000000038,15.696468523184165633
0.200000000000000039,14.457651276514507543
0.201000000000000040,13.247397295556760710
0.202000000000000041,12.066822578781458475
0.203000000000000042,10.916836849629588002
0.204000000000000042,9.798130993919816234
0.205000000000000043,8.711172784255225565
0.206000000000000044,7.656209738998926539
0.207000000000000045,6.633277936507210093
0.208000000000000046,5.642215622875662362
0.209000000000000047,4.682680503390178828
0.210000000000000048,3.754169685181960148
0.211000000000000049,2.856041333424603312
0.212000000000000050,1.987537209100307845
0.213000000000000050,1.147805367355494655
0.214000000000000051,0.335922407254624467
0.215000000000000052,-0.449085227212860816
0.216000000000000053,-1.208221291406199160
0.217000000000000054,-1.942501429890689746
0.218000000000000055,-2.652936724641297594
0.219000000000000056,-3.340519236279676285
0.220000000000000057,-4.006209604766754140
0.221000000000000058,-4.650926717499147323
0.222000000000000058,-5.275539403805124650
0.223000000000000059,-5.880860074906480328
0.224000000000000060,-6.467640196883593262
0.225000000000000061,-7.036567460318968514
0.226000000000000062,-7.588264493316228432
0.227000000000000063,-8.123288953690519065
0.228000000000000064,-8.642134830496765119
0.229000000000000065,-9.145234783927904232
0.230000000000000066,-9.632963355230403479
0.231000000000000066,-10.105640883963287635
0.232000000000000067,-10.563537978030595355
0.233000000000000068,-11.006880391876379122
0.234000000000000069,-11.435854179532530139
0.235000000000000070,-11.850611001406466727
0.236000000000000071,-12.251273476398761630
0.237000000000000072,-12.637940483822303506
0.238000000000000073,-13.010692332375750624
0.239000000000000073,-13.369595725879978687
0.240000000000000074,-13.714708467437549899
0.241000000000000075,-14.046083854978229866
0.242000000000000076,-14.363774731707099619
0.243000000000000077,-14.667837164702552499
0.244000000000000078,-14.958333733773736540
0.245000000000000079,-15.235336420659745471
0.246000000000000080,-15.498929095733080530
0.247000000000000081,-15.749209605573089021
0.248000000000000081,-15.986291470125788550
0.249000000000000082,-16.210305202704034855
0.250000000000000111,-16.421399269850869729
0.251000000000000112,-16.619740711138810241
0.252000000000000113,-16.805515441365816542
0.253000000000000114,-16.978928259387394917
0.254000000000000115,-17.140202589056926286
0.255000000000000115,-17.289579978484592715
0.256000000000000116,-17.427319384129834390
0.257000000000000117,-17.553696266165577100
0.258000000000000118,-17.669001521145840883
0.259000000000000119,-17.773540277322993575
0.260000000000000120,-17.867630577041474282
0.261000000000000121,-17.951601969522862134
0.262000000000000122,-18.025794036094715977
0.263000000000000123,-18.090554868534990618
0.264000000000000123,-18.146239519739655321
0.265000000000000124,-18.193208444400429613
0.266000000000000125,-18.231825945829264413
0.267000000000000126,-18.262458643506548128
0.268000000000000127,-18.285473974382949081
0.269000000000000128,-18.301238739444194437
0.270000000000000129,-18.310117705569687985
0.271000000000000130,-18.312472271290520354
0.272000000000000131,-18.308659203689529704
0.273000000000000131,-18.299029452392780115
0.274000000000000132,-18.283927045384199772
0.275000000000000133,-18.263688070236909766
0.276000000000000134,-18.238639743298211471
0.277000000000000135,-18.209099568391895474
0.278000000000000136,-18.175374585712312125
0.279000000000000137,-18.137760710776912987
0.280000000000000138,-18.096542162578934665
0.281000000000000139,-18.051990979434659579
0.282000000000000139,-18.004366620449832936
0.283000000000000140,-17.953915650032140405
0.284000000000000141,-17.900871502449525963
0.285000000000000142,-17.845454323072456049
0.286000000000000143,-17.787870882638447512
0.287000000000000144,-17.728314560635297426
0.288000000000000145,-17.666965393711720367
0.289000000000000146,-17.603990184885063286
0.290000000000000147,-17.539542669223070703
0.291000000000000147,-17.473763731624710971
0.292000000000000148,-17.406781672311200992
0.293000000000000149,-17.338712515657544344
0.294000000000000150,-17.269660358044383486
0.295000000000000151,-17.199717750486239964
0.296000000000000152,-17.128966111890861157
0.297000000000000153,-17.057476168924011972
0.298000000000000154,-16.985308418589987411
0.299000000000000155,-16.912513609788952351
0.300000000000000155,-16.839133240274314574
0.301000000000000156,-16.765200065605451840
0.302000000000000157,-16.690738616869801092
0.303000000000000158,-16.615765724132629089
0.304000000000000159,-16.540291042760777884
0.305000000000000160,-16.464317579955512372
0.306000000000000161,-16.387842219020008372
0.307000000000000162,-16.310856239075341989
0.308000000000000163,-16.233345828125578691
0.309000000000000163,-16.155292587555866390
0.310000000000000164,-16.076674026327090417
0.311000000000000165,-15.997464043304381320
0.312000000000000166,-15.917633396326639428
0.313000000000000167,-15.837150156786403699
0.314000000000000168,-15.755980148646145267
0.315000000000000169,-15.674087370966688582
0.316000000000000170,-15.591434403165752798
0.317000000000000171,-15.507982792359888080
0.318000000000000171,-15.423693422270684295
0.319000000000000172,-15.338526863296507941
0.320000000000000173,-15.252443703463507418
0.321000000000000174,-15.165404860074994886
0.322000000000000175,-15.077371871976051665
0.323000000000000176,-14.988307172440869408
0.324000000000000177,-14.898174342773492285
0.325000000000000178,-14.806938346789412009
0.326000000000000179,-14.714565746415019021
0.327000000000000179,-14.621024898705082151
0.328000000000000180,-14.526286134635423508
0.329000000000000181,-14.430321920079085984
0.330000000000000182,-14.333106999418749439
0.331000000000000183,-14.234618522288780440
0.332000000000000184,-14.134836153973804329
0.333000000000000185,-14.033742170020783391
0.334000000000000186,-13.931321535646157272
0.335000000000000187,-13.827561970539997915
0.336000000000000187,-13.722453999685821913
0.337000000000000188,-13.615990990826537299
0.338000000000000189,-13.508169179216640288
0.339000000000000190,-13.398987680305918246
0.340000000000000191,-13.288448491002403884
0.341000000000000192,-13.176556480162535223
0.342000000000000193,-13.063319368952875266
0.343000000000000194,-12.948747701723224424
0.344000000000000195,-12.832854808022910120
0.345000000000000195,-12.715656756383424408
0.346000000000000196,-12.597172300478835183
0.347000000000000197,-12.477422818263345761
0.348000000000000198,-12.356432244671168519
0.349000000000000199,-12.234226998448656687
0.350000000000000200,-12.110835903672777292
0.351000000000000201,-11.986290106492457852
0.352000000000000202,-11.860622987611908030
0.353000000000000203,-11.733870071016436754
0.354000000000000203,-11.606068929422278302
0.355000000000000204,-11.477259086912683372
0.356000000000000205,-11.347481919203058709
0.357000000000000206,-11.216780551958100531
0.358000000000000207,-11.085199757563815481
0.359000000000000208,-10.952785850737980056
0.360000000000000209,-10.819586583342353237
0.361000000000000210,-10.685651038740555663
0.362000000000000210,-10.551029526026102445
0.363000000000000211,-10.415773474425858325
0.364000000000000212,-10.279935328165448638
0.365000000000000213,-10.143568442064495372
0.366000000000000214,-10.006726978111627702
0.367000000000000215,-9.869465803251463498
0.368000000000000216,-9.731840388598573810
0.369000000000000217,-9.593906710276671745
0.370000000000000218,-9.455721152065200030
0.371000000000000218,-9.317340410019564700
0.372000000000000219,-9.178821399216293031
0.373000000000000220,-9.040221162759776163
0.374000000000000221,-8.901596783173136629
0.375000000000000222,-8.763005296282241119
0.376000000000000223,-8.624503607689144147
0.377000000000000224,-8.486148411918668089
0.378000000000000225,-8.347996114310207716
0.379000000000000226,-8.210102755715499967
0.380000000000000226,-8.072523940052565905
0.381000000000000227,-7.935314764755671213
0.382000000000000228,-7.798529754151866555
0.383000000000000229,-7.662222795785448071
0.384000000000000230,-7.526447079702984766
0.385000000000000231,-7.391255040704029611
0.386000000000000232,-7.256698303554547813
0.387000000000000233,-7.122827631153415773
0.388000000000000234,-6.989692875635630465
0.389000000000000234,-6.857342932389896006
0.390000000000000235,-6.725825696962301592
0.391000000000000236,-6.595188024813007921
0.392000000000000237,-6.465475693887495545
0.393000000000000238,-6.336733369960055207
0.394000000000000239,-6.209004574702666091
0.395000000000000240,-6.082331656429073696
0.396000000000000241,-5.956755763460400033
0.397000000000000242,-5.832316820055583939
0.398000000000000242,-5.709053504847490856
0.399000000000000243,-5.587003231722950325
0.400000000000000244,-5.466202133082886050
0.401000000000000245,-5.346685045417321369
0.402000000000000246,-5.228485497127972614
0.403000000000000247,-5.111635698530132110
0.404000000000000248,-4.996166533964654377
0.405000000000000249,-4.882107555949728450
0.406000000000000250,-4.769486981301723105
0.407000000000000250,-4.658331689153952127
0.408000000000000251,-4.548667220801865696
0.409000000000000252,-4.440517781303382705
0.410000000000000253,-4.333906242762840755
0.411000000000000254,-4.228854149227670334
0.412000000000000255,-4.125381723127012457
0.413000000000000256,-4.023507873182255778
0.414000000000000257,-3.923250203719894635
0.415000000000000258,-3.824625025318179272
0.416000000000000258,-3.727647366719585964
0.417000000000000259,-3.632330987942315126
0.418000000000000260,-3.538688394525023373
0.419000000000000261,-3.446730852839989812
0.420000000000000262,-3.356468406411361460
0.421000000000000263,-3.267909893176154323
0.422000000000000264,-3.181062963627102835
0.423000000000000265,-3.095934099777718718
0.424000000000000266,-3.012528634891606938
0.425000000000000266,-2.930850773919043029
0.426000000000000267,-2.850903614585752699
0.427000000000000268,-2.772689169080057248
0.428000000000000269,-2.696208386286163439
0.429000000000000270,-2.621461174512911718
0.430000000000000271,-2.548446424668791455
0.431000000000000272,-2.477162033835646149
0.432000000000000273,-2.407604929195021448
0.433000000000000274,-2.339771092262679542
0.434000000000000274,-2.273655583388316082
0.435000000000000275,-2.209252566479153135
0.436000000000000276,-2.146555333907566698
0.437000000000000277,-2.085556331564371924
0.438000000000000278,-2.026247184021094050
0.439000000000000279,-1.968618719765872438
0.440000000000000280,-1.912660996479190967
0.441000000000000281,-1.858363326317114428
0.442000000000000282,-1.805714301171178038
0.443000000000000282,-1.754701817875336634
0.444000000000000283,-1.705313103332034119
0.445000000000000284,-1.657534739530600376
0.446000000000000285,-1.611352688432527547
0.447000000000000286,-1.566752316699794090
0.448000000000000287,-1.523718420243184601
0.449000000000000288,-1.482235248569323094
0.450000000000000289,-1.442286528905975862
0.451000000000000290,-1.403855490086604041
0.452000000000000290,-1.366924886176211329
0.453000000000000291,-1.331477019821675656
0.454000000000000292,-1.297493765310915093
0.455000000000000293,-1.264956591326189983
0.456000000000000294,-1.233846583378030548
0.457000000000000295,-1.204144465907141193
0.458000000000000296,-1.175830624042733863
0.459000000000000297,-1.148885125006577024
0.460000000000000298,-1.123287739153043807
0.461000000000000298,-1.099017960636271107
0.462000000000000299,-1.076055027696428912
0.463000000000000300,-1.054377942557865655
0.464000000000000301,-1.033965490932743814
0.465000000000000302,-1.014796261124517374
0.466000000000000303,-0.996848662726318002
0.467000000000000304,-0.980100944909970018
0.468000000000000305,-0.964531214302222439
0.469000000000000306,-0.950117452445133459
0.470000000000000306,-0.936837532838427078
0.471000000000000307,-0.924669237562051327
0.472000000000000308,-0.913590273477859705
0.473000000000000309,-0.903578288009754593
0.474000000000000310,-0.894610884502224146
0.475000000000000311,-0.886665637157696862
0.476000000000000312,-0.879720105553545517
0.477000000000000313,-0.873751848740012882
0.478000000000000314,-0.868738438920826361
0.479000000000000314,-0.864657474718599217
0.480000000000000315,-0.861486594027447317
0.481000000000000316,-0.859203486455730525
0.482000000000000317,-0.857785905362029810
0.483000000000000318,-0.857211679487844713
0.484000000000000319,-0.857458724190777177
0.485000000000000320,-0.858505052282271586
0.486000000000000321,-0.860328784474150732
0.487000000000000322,-0.862908159438516842
0.488000000000000322,-0.866221543485765744
0.489000000000000323,-0.870247439865651784
0.490000000000000324,-0.874964497696583798
0.491000000000000325,-0.880351520528443565
0.492000000000000326,-0.886387474544408915
0.493000000000000327,-0.893051496407412104
0.494000000000000328,-0.900322900756999389
0.495000000000000329,-0.908181187362436915
0.496000000000000330,-0.916606047938077095
0.497000000000000330,-0.925577372627026329
0.498000000000000331,-0.935075256159314305
0.499000000000000332,-0.945080003690727644
0.500000000000000333,-0.955572136328679655
0.501000000000000334,-0.966532396351398426
0.502000000000000335,-0.977941752126831654
0.503000000000000336,-0.989781402737700988
0.504000000000000337,-1.002032782319117077
0.505000000000000338,-1.014677564115239239
0.506000000000000338,-1.027697664261425059
0.507000000000000339,-1.041075245298335172
0.508000000000000340,-1.054792719424464176
0.509000000000000341,-1.068832751493506095
0.510000000000000342,-1.083178261763026784
0.511000000000000343,-1.097812428400786855
0.512000000000000344,-1.112718689755130219
0.513000000000000345,-1.127880746395707012
0.514000000000000346,-1.143282562930892921
0.515000000000000346,-1.158908369608063760
0.516000000000000347,-1.174742663702956769
0.517000000000000348,-1.190770210704263254
0.518000000000000349,-1.206976045299477107
0.519000000000000350,-1.223345472168025250
0.520000000000000351,-1.239864066587684777
0.521000000000000352,-1.256517674860035960
0.522000000000000353,-1.273292414560863950
0.523000000000000353,-1.290174674621183959
0.524000000000000354,-1.307151115244529205
0.525000000000000355,-1.324208667666109562
0.526000000000000356,-1.341334533759270586
0.527000000000000357,-1.358516185494708539
0.528000000000000358,-1.375741364257751398
0.529000000000000359,-1.392998080028865271
0.530000000000000360,-1.410274610432647568
0.531000000000000361,-1.427559499660247644
0.532000000000000361,-1.444841557270264865
0.533000000000000362,-1.462109856872921387
0.534000000000000363,-1.479353734702360645
0.535000000000000364,-1.496562788081690076
0.536000000000000365,-1.513726873785429472
0.537000000000000366,-1.530836106303806732
0.538000000000000367,-1.547880856013357453
0.539000000000000368,-1.564851747258118042
0.540000000000000369,-1.581739656345641398
0.541000000000000369,-1.598535709461960774
0.542000000000000370,-1.615231280509549894
0.543000000000000371,-1.631817988872198644
0.544000000000000372,-1.648287697110696781
0.545000000000000373,-1.664632508593030025
0.546000000000000374,-1.680844765062811330
0.547000000000000375,-1.696917044149476750
0.548000000000000376,-1.712842156823788375
0.549000000000000377,-1.728613144801975254
0.550000000000000377,-1.744223277901882252
0.551000000000000378,-1.759666051354322081
0.552000000000000379,-1.774935183072750444
0.553000000000000380,-1.790024610884362488
0.554000000000000381,-1.804928489725509566
0.555000000000000382,-1.819641188804389076
0.556000000000000383,-1.834157288733740732
0.557000000000000384,-1.848471578636299073
0.558000000000000385,-1.862579053225646764
0.559000000000000385,-1.876474909865007090
0.560000000000000386,-1.890154545606430814
0.561000000000000387,-1.903613554212845616
0.562000000000000388,-1.916847723165224782
0.563000000000000389,-1.929853030657170176
0.564000000000000390,-1.942625642579048462
0.565000000000000391,-1.955161909493826844
0.566000000000000392,-1.967458363606616079
0.567000000000000393,-1.979511715729882493
0.568000000000000393,-1.991318852246230620
0.569000000000000394,-2.002876832070607183
0.570000000000000395,-2.014182883613641728
0.571000000000000396,-2.025234401747857405
0.572000000000000397,-2.036028944778391025
0.573000000000000398,-2.046564231419764290
0.574000000000000399,-2.056838137780235609
0.575000000000000400,-2.066848694355208682
0.576000000000000401,-2.076594083031030102
0.577000000000000401,-2.086072634100585521
0.578000000000000402,-2.095282823291936047
0.579000000000000403,-2.104223268811211689
0.580000000000000404,-2.112892728400976861
0.581000000000000405,-2.121290096415156867
0.582000000000000406,-2.129414400911608496
0.583000000000000407,-2.137264800763362782
0.584000000000000408,-2.144840582789509398
0.585000000000000409,-2.152141158906634377
0.586000000000000409,-2.159166063301730887
0.587000000000000410,-2.165914949627391284
0.588000000000000411,-2.172387588220060728
0.589000000000000412,-2.178583863342155702
0.590000000000000413,-2.184503770448695814
0.591000000000000414,-2.190147413479163863
0.592000000000000415,-2.195515002175202124
0.593000000000000416,-2.200606849424740830
0.594000000000000417,-2.205423368633135262
0.595000000000000417,-2.209965071121787084
0.596000000000000418,-2.214232563554786815
0.597000000000000419,-2.218226545393991778
0.598000000000000420,-2.221947806382980506
0.599000000000000421,-2.225397224060248647
0.600000000000000422,-2.228575761302034053
0.601000000000000423,-2.231484463895060610
0.602000000000000424,-2.234124458139523206
0.603000000000000425,-2.236496948482598057
0.604000000000000425,-2.238603215182659145
0.605000000000000426,-2.240444612004488079
0.606000000000000427,-2.242022563945645253
0.607000000000000428,-2.243338564994111550
0.608000000000000429,-2.244394175917465706
0.609000000000000430,-2.245191022083568466
0.610000000000000431,-2.245730791312996910
0.611000000000000432,-2.246015231763181408
0.612000000000000433,-2.246046149844371342
0.613000000000000433,-2.245825408167477555
0.614000000000000434,-2.245354923523736002
0.615000000000000435,-2.244636664896257017
0.616000000000000436,-2.243672651503424653
0.617000000000000437,-2.242464950874099028
0.618000000000000438,-2.241015676954568825
0.619000000000000439,-2.239326988247200667
0.620000000000000440,-2.237401085980698756
0.621000000000000441,-2.235240212311857544
0.622000000000000441,-2.232846648558736380
0.623000000000000442,-2.230222713465068729
0.624000000000000443,-2.227370761495854001
0.625000000000000444,-2.224293181163909061
0.626000000000000445,-2.220992393387237751
0.627000000000000446,-2.217470849877082539
0.628000000000000447,-2.213731031556434914
0.629000000000000448,-2.209775447008828220
0.630000000000000449,-2.205606630957199776
0.631000000000000449,-2.201227142772641532
0.632000000000000450,-2.196639565012779460
0.633000000000000451,-2.191846501989601848
0.634000000000000452,-2.186850578366454023
0.635000000000000453,-2.181654437783972611
0.636000000000000454,-2.176260741514749242
0.637000000000000455,-2.170672167146396880
0.638000000000000456,-2.164891407292827807
0.639000000000000457,-2.158921168333413299
0.640000000000000457,-2.152764169179826936
0.641000000000000458,-2.146423140070194080
0.642000000000000459,-2.139900821390376962
0.643000000000000460,-2.133199962522012161
0.644000000000000461,-2.126323320717086407
0.645000000000000462,-2.119273659998699877
0.646000000000000463,-2.112053750087743431
0.647000000000000464,-2.104666365355205571
0.648000000000000465,-2.097114283799774714
0.649000000000000465,-2.089400286050447697
0.650000000000000466,-2.081527154393847390
0.651000000000000467,-2.073497671825907496
0.652000000000000468,-2.065314621127652739
0.653000000000000469,-2.056980783964716508
0.654000000000000470,-2.048498940010341052
0.655000000000000471,-2.039871866091479635
0.656000000000000472,-2.031102335357737765
0.657000000000000473,-2.022193116472784880
0.658000000000000473,-2.013146972827986492
0.659000000000000474,-2.003966661777879743
0.660000000000000475,-1.994654933897195948
0.661000000000000476,-1.985214532259114817
0.662000000000000477,-1.975648191734446169
0.663000000000000478,-1.965958638311379847
0.664000000000000479,-1.956148588435550506
0.665000000000000480,-1.946220748370026232
0.666000000000000481,-1.936177813575002515
0.667000000000000481,-1.926022468106761920
0.668000000000000482,-1.915757384035720934
0.669000000000000483,-1.905385220883165642
0.670000000000000484,-1.894908625076382025
0.671000000000000485,-1.884330229421892877
0.672000000000000486,-1.873652652596470958
0.673000000000000487,-1.862878498655675896
0.674000000000000488,-1.852010356559504967
0.675000000000000488,-1.841050799714976094
0.676000000000000489,-1.830002385535282272
0.677000000000000490,-1.818867655015202534
0.678000000000000491,-1.807649132322532548
0.679000000000000492,-1.796349324405201786
0.680000000000000493,-1.784970720613769490
0.681000000000000494,-1.773515792339086516
0.682000000000000495,-1.761986992664735130
0.683000000000000496,-1.750386756034061575
0.684000000000000496,-1.738717497931440814
0.685000000000000497,-1.726981614577561164
0.686000000000000498,-1.715181482638395538
0.687000000000000499,-1.703319458947631704
0.688000000000000500,-1.691397880242260454
0.689000000000000501,-1.679419062911077676
0.690000000000000502,-1.667385302755829413
0.691000000000000503,-1.655298874764715267
0.692000000000000504,-1.643162032898024760
0.693000000000000504,-1.630977009885651530
0.694000000000000505,-1.618746017036171825
0.695000000000000506,-1.606471244057343650
0.696000000000000507,-1.594154858887666837
0.697000000000000508,-1.581799007538838397
0.698000000000000509,-1.569405813948843376
0.699000000000000510,-1.556977379845401854
0.700000000000000511,-1.544515784619618470
0.701000000000000512,-1.532023085209506474
0.702000000000000512,-1.519501315993242674
0.703000000000000513,-1.506952488691874148
0.704000000000000514,-1.494378592281273122
0.705000000000000515,-1.481781592913115286
0.706000000000000516,-1.469163433844673294
0.707000000000000517,-1.456526035377196049
0.708000000000000518,-1.443871294802673955
0.709000000000000519,-1.431201086358801611
0.710000000000000520,-1.418517261191865497
0.711000000000000520,-1.405821647327457624
0.712000000000000521,-1.393116049648716714
0.713000000000000522,-1.380402249881964138
0.714000000000000523,-1.367682006589530541
0.715000000000000524,-1.354957055169548008
0.716000000000000525,-1.342229107862590531
0.717000000000000526,-1.329499853764890771
0.718000000000000527,-1.316770958848038298
0.719000000000000528,-1.304044065984908629
0.720000000000000528,-1.291320794981725362
0.721000000000000529,-1.278602742615972954
0.722000000000000530,-1.265891482680131741
0.723000000000000531,-1.253188566030934092
0.724000000000000532,-1.240495520644068650
0.725000000000000533,-1.227813851674141921
0.726000000000000534,-1.215145041519716473
0.727000000000000535,-1.202490549893312721
0.728000000000000536,-1.189851813896191102
0.729000000000000536,-1.177230248097774545
0.730000000000000537,-1.164627244619581559
0.731000000000000538,-1.152044173223467194
0.732000000000000539,-1.139482381404123945
0.733000000000000540,-1.126943194485603206
0.734000000000000541,-1.114427915721799112
0.735000000000000542,-1.101937826400699816
0.736000000000000543,-1.089474185952346685
0.737000000000000544,-1.077038232060267386
0.738000000000000544,-1.064631180776393737
0.739000000000000545,-1.052254226639180557
0.740000000000000546,-1.039908542794964141
0.741000000000000547,-1.027595281122301030
0.742000000000000548,-1.015315572359295704
0.743000000000000549,-1.003070526233678317
0.744000000000000550,-0.990861231595611569
0.745000000000000551,-0.978688756553101391
0.746000000000000552,-0.966554148609850783
0.747000000000000552,-0.954458434805533940
0.748000000000000553,-0.942402621858300593
0.749000000000000554,-0.930387696309468604
0.750000000000000555,-0.918414624670309321
0.751000000000000556,-0.906484353570761625
0.752000000000000557,-0.894597809910075425
0.753000000000000558,-0.882755901009198873
0.754000000000000559,-0.870959514764897080
0.755000000000000560,-0.859209519805450350
0.756000000000000560,-0.847506765647902505
0.757000000000000561,-0.835852082856709644
0.758000000000000562,-0.824246283203759589
0.759000000000000563,-0.812690159829678627
0.760000000000000564,-0.801184487406301216
0.761000000000000565,-0.789730022300273449
0.762000000000000566,-0.778327502737682031
0.763000000000000567,-0.766977648969673464
0.764000000000000568,-0.755681163438927994
0.765000000000000568,-0.744438730947000082
0.766000000000000569,-0.733251018822375533
0.767000000000000570,-0.722118677089248040
0.768000000000000571,-0.711042338636881821
0.769000000000000572,-0.700022619389571665
0.770000000000000573,-0.689060118477072825
0.771000000000000574,-0.678155418405479105
0.772000000000000575,-0.667309085228471210
0.773000000000000576,-0.656521668718882401
0.774000000000000576,-0.645793702540538028
0.775000000000000577,-0.635125704420306469
0.776000000000000578,-0.624518176320269625
0.777000000000000579,-0.613971604610064947
0.778000000000000580,-0.603486460239208933
0.779000000000000581,-0.593063198909479228
0.780000000000000582,-0.582702261247215914
0.781000000000000583,-0.572404072975579603
0.782000000000000584,-0.562169045086619690
0.783000000000000584,-0.551997574013209147
0.784000000000000585,-0.541890041800750621
0.785000000000000586,-0.531846816278598311
0.786000000000000587,-0.521868251231213831
0.787000000000000588,-0.511954686568962480
0.788000000000000589,-0.502106448498519486
0.789000000000000590,-0.492323849692907767
0.790000000000000591,-0.482607189461026820
0.791000000000000592,-0.472956753916758621
0.792000000000000592,-0.463372816147503586
0.793000000000000593,-0.453855636382209771
0.794000000000000594,-0.444405462158794173
0.795000000000000595,-0.435022528490978000
0.796000000000000596,-0.425707058034452857
0.797000000000000597,-0.416459261252418667
0.798000000000000598,-0.407279336580393003
0.799000000000000599,-0.398167470590317762
0.800000000000000600,-0.389123838153927870
0.801000000000000600,-0.380148602605321351
0.802000000000000601,-0.371241915902772890
0.803000000000000602,-0.362403918789698909
0.804000000000000603,-0.353634740954812621
0.805000000000000604,-0.344934501191402010
0.806000000000000605,-0.336303307555724573
0.807000000000000606,-0.327741257524537866
0.808000000000000607,-0.319248438151663261
0.809000000000000608,-0.310824926223655706
0.810000000000000608,-0.302470788414517910
0.811000000000000609,-0.294186081439411606
0.812000000000000610,-0.285970852207433068
0.813000000000000611,-0.277825137973354841
0.814000000000000612,-0.269748966488368325
0.815000000000000613,-0.261742356149817001
0.816000000000000614,-0.253805316149844695
0.817000000000000615,-0.245937846623041079
0.818000000000000616,-0.238139938793003575
0.819000000000000616,-0.230411575117815376
0.820000000000000617,-0.222752729434451263
0.821000000000000618,-0.215163367102087000
0.822000000000000619,-0.207643445144312849
0.823000000000000620,-0.200192912390217387
0.824000000000000621,-0.192811709614355037
0.825000000000000622,-0.185499769675595755
0.826000000000000623,-0.178257017654831318
0.827000000000000624,-0.171083370991535727
0.828000000000000624,-0.163978739619191238
0.829000000000000625,-0.156943026099529648
0.830000000000000626,-0.149976125755653167
0.831000000000000627,-0.143077926803958505
0.832000000000000628,-0.136248310484920948
0.833000000000000629,-0.129487151192666877
0.834000000000000630,-0.122794316603409254
0.835000000000000631,-0.116169667802685742
0.836000000000000631,-0.109613059411405755
0.837000000000000632,-0.103124339710739615
0.838000000000000633,-0.096703350765781543
0.839000000000000634,-0.090349928548070751
0.840000000000000635,-0.084063903056891431
0.841000000000000636,-0.077845098439379118
0.842000000000000637,-0.071693333109474705
0.843000000000000638,-0.065608419865635453
0.844000000000000639,-0.059590166007400983
0.845000000000000639,-0.053638373450736375
0.846000000000000640,-0.047752838842198483
0.847000000000000641,-0.041933353671925112
0.848000000000000642,-0.036179704385416830
0.849000000000000643,-0.030491672494128763
0.850000000000000644,-0.024869034684928338
0.851000000000000645,-0.019311562928284877
0.852000000000000646,-0.013819024585367712
0.853000000000000647,-0.008391182513911299
0.854000000000000647,-0.003027795172921599
0.855000000000000648,0.002271383273783689
0.856000000000000649,0.007506602855201249
0.857000000000000650,0.012678117691941215
0.858000000000000651,0.017786185896189067
0.859000000000000652,0.022831069472808795
0.860000000000000653,0.027813034221609901
0.861000000000000654,0.032732349640769196
0.862000000000000655,0.037589288831369014
0.863000000000000655,0.042384128403117151
0.864000000000000656,0.047117148381156680
0.865000000000000657,0.051788632114038571
0.866000000000000658,0.056398866182805596
0.867000000000000659,0.060948140311181752
0.868000000000000660,0.065436747276908097
0.869000000000000661,0.069864982824156860
0.870000000000000662,0.074233145577061094
0.871000000000000663,0.078541536954332830
0.872000000000000663,0.082790461084986500
0.873000000000000664,0.086980224725130215
0.874000000000000665,0.091111137175846194
0.875000000000000666,0.095183510202136251
0.876000000000000667,0.099197657952941776
0.877000000000000668,0.103153896882209523
0.878000000000000669,0.107052545671020807
0.879000000000000670,0.110893925150769318
0.880000000000000671,0.114678358227356753
0.881000000000000671,0.118406169806453979
0.882000000000000672,0.122077686719752970
0.883000000000000673,0.125693237652263201
0.884000000000000674,0.129253153070603838
0.885000000000000675,0.132757765152308804
0.886000000000000676,0.136207407716120776
0.887000000000000677,0.139602416153277842
0.888000000000000678,0.142943127359796890
0.889000000000000679,0.146229879669697971
0.890000000000000679,0.149463012789234267
0.891000000000000680,0.152642867732048826
0.892000000000000681,0.155769786755309392
0.893000000000000682,0.158844113296774919
0.894000000000000683,0.161866191912807184
0.895000000000000684,0.164836368217294194
0.896000000000000685,0.167754988821521428
0.897000000000000686,0.170622401274943603
0.898000000000000687,0.173438954006846641
0.899000000000000687,0.176204996268953223
0.900000000000000688,0.178920878078872414
0.901000000000000689,0.181586950164463634
0.902000000000000690,0.184203563909054291
0.903000000000000691,0.186771071297543445
0.904000000000000692,0.189289824863360323
0.905000000000000693,0.191760177636267098
0.906000000000000694,0.194182483091013991
0.907000000000000695,0.196557095096836554
0.908000000000000695,0.198884367867755651
0.909000000000000696,0.201164655913741275
0.910000000000000697,0.203398313992644464
0.911000000000000698,0.205585697062969391
0.912000000000000699,0.207727160237425407
0.913000000000000700,0.209823058737260315
0.914000000000000701,0.211873747847415445
0.915000000000000702,0.213879582872399693
0.916000000000000703,0.215840919092974592
0.917000000000000703,0.217758111723571457
0.918000000000000704,0.219631515870480409
0.919000000000000705,0.221461486490765747
0.920000000000000706,0.223248378351917603
0.921000000000000707,0.224992545992247717
0.922000000000000708,0.226694343681995342
0.923000000000000709,0.228354125385129281
0.924000000000000710,0.229972244721893426
0.925000000000000711,0.231549054932009973
0.926000000000000711,0.233084908838603111
0.927000000000000712,0.234580158812783768
0.928000000000000713,0.236035156738922891
0.929000000000000714,0.237450253980583920
0.930000000000000715,0.238825801347125444
0.931000000000000716,0.240162149060948404
0.932000000000000717,0.241459646725378368
0.933000000000000718,0.242718643293223291
0.934000000000000719,0.243939487035911784
0.935000000000000719,0.245122525513296052
0.936000000000000720,0.246268105544047128
0.937000000000000721,0.247376573176676218
0.938000000000000722,0.248448273661136781
0.939000000000000723,0.249483551421048277
0.940000000000000724,0.250482750026482570
0.941000000000000725,0.251446212167350636
0.942000000000000726,0.252374279627348097
0.943000000000000727,0.253267293258482018
0.944000000000000727,0.254125592956145119
0.945000000000000728,0.254949517634745548
0.946000000000000729,0.255739405203898928
0.947000000000000730,0.256495592545132933
0.948000000000000731,0.257218415489150920
0.949000000000000732,0.257908208793600158
0.950000000000000733,0.258565306121382454
0.951000000000000734,0.259190040019446344
0.952000000000000735,0.259782741898124003
0.953000000000000735,0.260343742010941848
0.954000000000000736,0.260873369434928670
0.955000000000000737,0.261371952051420331
0.956000000000000738,0.261839816527333180
0.957000000000000739,0.262277288296921818
0.958000000000000740,0.262684691544005866
0.959000000000000741,0.263062349184647493
0.960000000000000742,0.263410582850293395
0.961000000000000743,0.263729712871372368
0.962000000000000743,0.264020058261322799
0.963000000000000744,0.264281936701071030
0.964000000000000745,0.264515664523926497
0.965000000000000746,0.264721556700921956
0.966000000000000747,0.264899926826559828
0.967000000000000748,0.265051087104979044
0.968000000000000749,0.265175348336521566
0.969000000000000750,0.265273019904720075
0.970000000000000751,0.265344409763657141
0.971000000000000751,0.265389824425742160
0.972000000000000752,0.265409568949863395
0.973000000000000753,0.265403946929900658
0.974000000000000754,0.265373260483656948
0.975000000000000755,0.265317810242113261
0.976000000000000756,0.265237895339082264
0.977000000000000757,0.265133813401198348
0.978000000000000758,0.265005860538282012
0.979000000000000759,0.264854331334020754
0.980000000000000759,0.264679518837034944
0.981000000000000760,0.264481714552253000
0.982000000000000761,0.264261208432613859
0.983000000000000762,0.264018288871126661
0.984000000000000763,0.263753242693235190
0.985000000000000764,0.263466355149490572
0.986000000000000765,0.263157909908560916
0.987000000000000766,0.262828189050535233
0.988000000000000766,0.262477473060530264
0.989000000000000767,0.262106040822595088
0.990000000000000768,0.261714169613923464
0.991000000000000769,0.261302135099341193
0.992000000000000770,0.260870211326084234
0.993000000000000771,0.260418670718851275
0.994000000000000772,0.259947784075148347
0.995000000000000773,0.259457820560879404
0.996000000000000774,0.258949047706232283
0.997000000000000774,0.258421731401804800
0.998000000000000775,0.257876135895002634
0.999000000000000776,0.257312523786680680
1.000000000000000666,0.256731156028048357
1.001000000000000778,0.256132291917805788
1.002000000000000668,0.255516189099530999
1.003000000000000780,0.254883103559306101
1.004000000000000670,0.254233289623564285
1.005000000000000782,0.253566999957180406
1.006000000000000671,0.252884485561779448
1.007000000000000783,0.252185995774274085
1.008000000000000673,0.251471778265607626
1.009000000000000785,0.250742079039720012
1.010000000000000675,0.249997142432727637
1.011000000000000787,0.249237211112297491
1.012000000000000677,0.248462526077230322
1.013000000000000789,0.247673326657249365
1.014000000000000679,0.246869850512975220
1.015000000000000790,0.246052333636094606
1.016000000000000680,0.245221010349717966
1.017000000000000792,0.244376113308932386
1.018000000000000682,0.243517873501510967
1.019000000000000794,0.242646520248833542
1.020000000000000684,0.241762281206950730
1.021000000000000796,0.240865382367839664
1.022000000000000686,0.239956048060825655
1.023000000000000798,0.239034500954153628
1.024000000000000687,0.238100962056749438
1.025000000000000799,0.237155650720103639
1.026000000000000689,0.236198784640350101
1.027000000000000801,0.235230579860459699
1.028000000000000691,0.234251250772612829
1.029000000000000803,0.233261010120699636
1.030000000000000693,0.232260069002978659
1.031000000000000805,0.231248636874854974
1.032000000000000695,0.230226921551826613
1.033000000000000806,0.229195129212528409
1.034000000000000696,0.228153464401938677
1.035000000000000808,0.227102130034709193
1.036000000000000698,0.226041327398604025
1.037000000000000810,0.224971256158074340
1.038000000000000700,0.223892114357970545
1.039000000000000812,0.222804098427338060
1.040000000000000702,0.221707403183357826
1.041000000000000814,0.220602221835379447
1.042000000000000703,0.219488745989096401
1.043000000000000815,0.218367165650782763
1.044000000000000705,0.217237669231678199
1.045000000000000817,0.216100443552453975
1.046000000000000707,0.214955673847783801
1.047000000000000819,0.213803543771013516
1.048000000000000709,0.212644235398943365
1.049000000000000821,0.211477929236659618
1.050000000000000711,0.210304804222520847
1.051000000000000822,0.209125037733170677
1.052000000000000712,0.207938805588685216
1.053000000000000824,0.206746282057784919
1.054000000000000714,0.205547639863122550
1.055000000000000826,0.204343050186673425
1.056000000000000716,0.203132682675179865
1.057000000000000828,0.201916705445694122
1.058000000000000718,0.200695285091181119
1.059000000000000830,0.199468586686201654
1.060000000000000719,0.198236773792654308
1.061000000000000831,0.197000008465614163
1.062000000000000721,0.195758451259196886
1.063000000000000833,0.194512261232519801
1.064000000000000723,0.193261595955722842
1.065000000000000835,0.192006611516033071
1.066000000000000725,0.190747462523898376
1.067000000000000837,0.189484302119194370
1.068000000000000727,0.188217281977451301
1.069000000000000838,0.186946552316176046
1.070000000000000728,0.185672261901193070
1.071000000000000840,0.184394558053054602
1.072000000000000730,0.183113586653494420
1.073000000000000842,0.181829492151927841
1.074000000000000732,0.180542417572004010
1.075000000000000844,0.179252504518191247
1.076000000000000734,0.177959893182416895
1.077000000000000846,0.176664722350740044
1.078000000000000735,0.175367129410065825
1.079000000000000847,0.174067250354903669
1.080000000000000737,0.172765219794148883
1.081000000000000849,0.171461170957923015
1.082000000000000739,0.170155235704416041
1.083000000000000851,0.168847544526792154
1.084000000000000741,0.167538226560102255
1.085000000000000853,0.166227409588247166
1.086000000000000743,0.164915220050950773
1.087000000000000854,0.163601783050774691
1.088000000000000744,0.162287222360142591
1.089000000000000856,0.160971660428419650
1.090000000000000746,0.159655218388970954
1.091000000000000858,0.158338016066280951
1.092000000000000748,0.157020171983078355
1.093000000000000860,0.155701803367476688
1.094000000000000750,0.154383026160140047
1.095000000000000862,0.153063955021469356
1.096000000000000751,0.151744703338792558
1.097000000000000863,0.150425383233587506
1.098000000000000753,0.149106105568700492
1.099000000000000865,0.147786979955587178
1.100000000000000755,0.146468114761581392
1.101000000000000867,0.145149617117134866
1.102000000000000757,0.143831592923111179
1.103000000000000869,0.142514146858054330
1.104000000000000759,0.141197382385494175
1.105000000000000870,0.139881401761229957
1.106000000000000760,0.138566306040651011
1.107000000000000872,0.137252195086031314
1.108000000000000762,0.135939167573850217
1.109000000000000874,0.134627321002114136
1.110000000000000764,0.133316751697671626
1.111000000000000876,0.132007554823536571
1.112000000000000766,0.130699824386213803
1.113000000000000878,0.129393653243020629
1.114000000000000767,0.128089133109405451
1.115000000000000879,0.126786354566276016
1.116000000000000769,0.125485407067315868
1.117000000000000881,0.124186378946296694
1.118000000000000771,0.122889357424393247
1.119000000000000883,0.121594428617490591
1.120000000000000773,0.120301677543482421
1.121000000000000885,0.119011188129576867
1.122000000000000774,0.117723043219575982
1.123000000000000886,0.116437324581161183
1.124000000000000776,0.115154112913169238
1.125000000000000888,0.113873487852858779
1.126000000000000778,0.112595527983163746
1.127000000000000890,0.111320310839936057
1.128000000000000780,0.110047912919194940
1.129000000000000892,0.108778409684335248
1.130000000000000782,0.107511875573355578
1.131000000000000894,0.106248384006044194
1.132000000000000783,0.104988007391183663
1.133000000000000895,0.103730817133707243
1.134000000000000785,0.102476883641878569
1.135000000000000897,0.101226276334418983
1.136000000000000787,0.099979063647654826
1.137000000000000899,0.098735313042621065
1.138000000000000789,0.097495091012176224
1.139000000000000901,0.096258463088059326
1.140000000000000790,0.095025493847983949
1.141000000000000902,0.093796246922678364
1.142000000000000792,0.092570785002908801
1.143000000000000904,0.091349169846494910
1.144000000000000794,0.090131462285311215
1.145000000000000906,0.088917722232260230
1.146000000000000796,0.087708008688218292
1.147000000000000908,0.086502379748982408
1.148000000000000798,0.085300892612180046
1.149000000000000909,0.084103603584164133
1.150000000000000799,0.082910568086887765
1.151000000000000689,0.081721840664755269
1.152000000000000801,0.080537474991448824
1.153000000000000913,0.079357523876745287
1.154000000000000803,0.078182039273292342
1.155000000000000693,0.077011072283378001
1.156000000000000805,0.075844673165661292
1.157000000000000917,0.074682891341901161
1.158000000000000806,0.073525775403638582
1.159000000000000696,0.072373373118868572
1.160000000000000808,0.071225731438684381
1.161000000000000920,0.070082896503896791
1.162000000000000810,0.068944913651625389
1.163000000000000700,0.067811827421879342
1.164000000000000812,0.066683681564080305
1.165000000000000924,0.065560519043605506
1.166000000000000814,0.064442382048265273
1.167000000000000703,0.063329311994769613
1.168000000000000815,0.062221349535175129
1.169000000000000927,0.061118534563297210
1.170000000000000817,0.060020906221088945
1.171000000000000707,0.058928502905016389
1.172000000000000819,0.057841362272374928
1.173000000000000931,0.056759521247604174
1.174000000000000821,0.055683016028571251
1.175000000000000711,0.054611882092805000
1.176000000000000822,0.053546154203733390
1.177000000000000934,0.052485866416869566
1.178000000000000824,0.051431052085985286
1.179000000000000714,0.050381743869243746
1.180000000000000826,0.049337973735306059
1.181000000000000938,0.048299772969420472
1.182000000000000828,0.047267172179469900
1.183000000000000718,0.046240201301996728
1.184000000000000830,0.045218889608192092
1.185000000000000941,0.044203265709873471
1.186000000000000831,0.043193357565402421
1.187000000000000721,0.042189192485609019
1.188000000000000833,0.041190797139657745
1.189000000000000945,0.040198197560899047
1.190000000000000835,0.039211419152684772
1.191000000000000725,0.038230486694168973
1.192000000000000837,0.037255424346038332
1.193000000000000949,0.036286255656277626
1.194000000000000838,0.035323003565834468
1.195000000000000728,0.034365690414312422
1.196000000000000840,0.033414337945597741
1.197000000000000952,0.032468967313466143
1.198000000000000842,0.031529599087171914
1.199000000000000732,0.030596253256980732
1.200000000000000844,0.029668949239707958
1.201000000000000956,0.028747705884180508
1.202000000000000846,0.027832541476719520
1.203000000000000735,0.026923473746543976
1.204000000000000847,0.026020519871187198
1.205000000000000959,0.025123696481846248
1.206000000000000849,0.024233019668728362
1.207000000000000739,0.023348504986349473
1.208000000000000851,0.022470167458812355
1.209000000000000963,0.021598021585044820
1.210000000000000853,0.020732081344020603
1.211000000000000743,0.019872360199934325
1.212000000000000854,0.019018871107361095
1.213000000000000966,0.018171626516370470
1.214000000000000856,0.017330638377621926
1.215000000000000746,0.016495918147428568
1.216000000000000858,0.015667476792773184
1.217000000000000970,0.014845324796329162
1.218000000000000860,0.014029472161412575
1.219000000000000750,0.013219928416923177
1.220000000000000862,0.012416702622258941
1.221000000000000973,0.011619803372190398
1.222000000000000863,0.010829238801704267
1.223000000000000753,0.010045016590827053
1.224000000000000865,0.009267143969407268
1.225000000000000977,0.008495627721869740
1.226000000000000867,0.007730474191948051
1.227000000000000757,0.006971689287373151
1.228000000000000869,0.006219278484550806
1.229000000000000981,0.005473246833176760
1.230000000000000870,0.004733598960865501
1.231000000000000760,0.004000339077709375
1.232000000000000872,0.003273470980827533
1.233000000000000984,0.002552998058893260
1.234000000000000874,0.001838923296595005
1.235000000000000764,0.001131249279122329
1.236000000000000876,0.000429978196566635
1.237000000000000988,-0.000264888151664847
1.238000000000000878,-0.000953348352492503
1.239000000000000767,-0.001635401374822951
1.240000000000000879,-0.002311046565242650
1.241000000000000991,-0.002980283643734263
1.242000000000000881,-0.003643112699433071
1.243000000000000771,-0.004299534186408482
1.244000000000000883,-0.004949548919462083
1.245000000000000995,-0.005593158069977286
1.246000000000000885,-0.006230363161784514
1.247000000000000774,-0.006861166067053698
1.248000000000000886,-0.007485569002219195
1.249000000000000998,-0.008103574523937215
1.250000000000000888,-0.008715185525068581
1.251000000000000778,-0.009320405230681178
1.252000000000000890,-0.009919237194102870
1.253000000000001002,-0.010511685292973727
1.254000000000000892,-0.011097753725357923
1.255000000000000782,-0.011677447005856437
1.256000000000000894,-0.012250769961767365
1.257000000000001005,-0.012817727729259815
1.258000000000000895,-0.013378325749589396
1.259000000000000785,-0.013932569765325526
1.260000000000000897,-0.014480465816626157
1.261000000000001009,-0.015022020237522291
1.262000000000000899,-0.015557239652237095
1.263000000000000789,-0.016086130971534964
1.264000000000000901,-0.016608701389100387
1.265000000000001013,-0.017124958377928382
1.266000000000000902,-0.017634909686758328
1.267000000000000792,-0.018138563336534012
1.268000000000000904,-0.018635927616876595
1.269000000000001016,-0.019127011082601862
1.270000000000000906,-0.019611822550252147
1.271000000000000796,-0.020090371094659928
1.272000000000000908,-0.020562666045533171
1.273000000000001020,-0.021028716984077957
1.274000000000000909,-0.021488533739632529
1.275000000000000799,-0.021942126386336601
1.276000000000000911,-0.022389505239833376
1.277000000000001023,-0.022830680853973814
1.278000000000000913,-0.023265664017577715
1.279000000000000803,-0.023694465751191704
1.280000000000000915,-0.024117097303899989
1.281000000000001027,-0.024533570150127835
1.282000000000000917,-0.024943895986508501
1.283000000000000806,-0.025348086728742236
1.284000000000000918,-0.025746154508502019
1.285000000000001030,-0.026138111670350052
1.286000000000000920,-0.026523970768694626
1.287000000000000810,-0.026903744564749033
1.288000000000000922,-0.027277446023545336
1.289000000000001034,-0.027645088310941302
1.290000000000000924,-0.028006684790671289
1.291000000000000814,-0.028362249021425544
1.292000000000000925,-0.028711794753925768
1.293000000000001037,-0.029055335928065251
1.294000000000000927,-0.029392886670033536
1.295000000000000817,-0.029724461289494953
1.296000000000000929,-0.030050074276771331
1.297000000000001041,-0.030369740300054217
1.298000000000000931,-0.030683474202652515
1.299000000000000821,-0.030991291000243049
1.300000000000000933,-0.031293205878153374
1.301000000000001044,-0.031589234188676006
1.302000000000000934,-0.031879391448389839
1.303000000000000824,-0.032163693335520362
1.304000000000000936,-0.032442155687303756
1.305000000000001048,-0.032714794497398246
1.306000000000000938,-0.032981625913296675
1.307000000000000828,-0.033242666233762722
1.308000000000000940,-0.033497931906305442
1.309000000000001052,-0.033747439524666210
1.310000000000000941,-0.033991205826322701
1.311000000000000831,-0.034229247690016826
1.312000000000000943,-0.034461582133307730
1.313000000000001055,-0.034688226310160761
1.314000000000000945,-0.034909197508523268
1.315000000000000835,-0.035124513147944805
1.316000000000000947,-0.035334190777225202
1.317000000000001059,-0.035538248072066472
1.318000000000000949,-0.035736702832749413
1.319000000000000838,-0.035929572981844050
1.320000000000000950,-0.036116876561925783
1.321000000000001062,-0.036298631733312346
1.322000000000000952,-0.036474856771836442
1.323000000000000842,-0.036645570066624292
1.324000000000000954,-0.036810790117898951
1.325000000000001066,-0.036970535534801362
1.326000000000000956,-0.037124825033242145
1.327000000000000846,-0.037273677433753191
1.328000000000000957,-0.037417111659382642
1.329000000000001069,-0.037555146733585384
1.330000000000000959,-0.037687801778161889
1.331000000000000849,-0.037815096011182714
1.332000000000000961,-0.037937048744959644
1.333000000000001073,-0.038053679384022113
1.334000000000000963,-0.038165007423121497
1.335000000000000853,-0.038271052445238818
1.336000000000000965,-0.038371834119637127
1.337000000000001076,-0.038467372199901796
1.338000000000000966,-0.038557686522023869
1.339000000000000856,-0.038642797002494123
1.340000000000000968,-0.038722723636403542
1.341000000000001080,-0.038797486495584010
1.342000000000000970,-0.038867105726750818
1.343000000000000860,-0.038931601549666052
1.344000000000000972,-0.038990994255324672
1.345000000000001084,-0.039045304204161121
1.346000000000000973,-0.039094551824251603
1.347000000000000863,-0.039138757609568135
1.348000000000000975,-0.039177942118217832
1.349000000000001087,-0.039212125970725042
1.350000000000000977,-0.039241329848310337
1.351000000000000867,-0.039265574491203332
1.352000000000000979,-0.039284880696954627
1.353000000000001091,-0.039299269318784788
1.354000000000000981,-0.039308761263937841
1.355000000000000870,-0.039313377492042612
1.356000000000000982,-0.039313139013515207
1.357000000000001094,-0.039308066887959889
1.358000000000000984,-0.039298182222581468
1.359000000000000874,-0.039283506170634933
1.360000000000000986,-0.039264059929871531
1.361000000000001098,-0.039239864741013195
1.362000000000000988,-0.039210941886225870
1.363000000000000878,-0.039177312687635066
1.364000000000000989,-0.039138998505838671
1.365000000000001101,-0.039096020738425760
1.366000000000000991,-0.039048400818540649
1.367000000000000881,-0.038996160213437707
1.368000000000000993,-0.038939320423058234
1.369000000000001105,-0.038877902978623612
1.370000000000000995,-0.038811929441245431
1.371000000000000885,-0.038741421400545241
1.372000000000000997,-0.038666400473292464
1.373000000000001108,-0.038586888302061605
1.374000000000000998,-0.038502906553876927
1.375000000000000888,-0.038414476918929831
1.376000000000001000,-0.038321621109238813
1.377000000000001112,-0.038224360857379569
1.378000000000001002,-0.038122717915198605
1.379000000000000892,-0.038016714052555675
1.380000000000001004,-0.037906371056069629
1.381000000000001116,-0.037791710727891906
1.382000000000001005,-0.037672754884473178
1.383000000000000895,-0.037549525355364426
1.384000000000001007,-0.037422043982022868
1.385000000000001119,-0.037290332616624081
1.386000000000001009,-0.037154413120902070
1.387000000000000899,-0.037014307364983665
1.388000000000001011,-0.036870037226268068
1.389000000000001123,-0.036721624588270121
1.390000000000001013,-0.036569091339529812
1.391000000000000902,-0.036412459372490796
1.392000000000001014,-0.036251750582424316
1.393000000000001126,-0.036086986866343491
1.394000000000001016,-0.035918190121941349
1.395000000000000906,-0.035745382246537602
1.396000000000001018,-0.035568585136034482
1.397000000000001130,-0.035387820683896197
1.398000000000001020,-0.035203110780129512
1.399000000000000909,-0.035014477310274537
1.400000000000001021,-0.034821942154418931
1.401000000000001133,-0.034625527186218447
1.402000000000001023,-0.034425254271922980
1.403000000000000913,-0.034221145269421702
1.404000000000001025,-0.034013222027299062
1.405000000000001137,-0.033801506383902724
1.406000000000001027,-0.033586020166410706
1.407000000000000917,-0.033366785189941572
1.408000000000001029,-0.033143823256624939
1.409000000000001140,-0.032917156154738496
1.410000000000001030,-0.032686805657817161
1.411000000000000920,-0.032452793523789922
1.412000000000001032,-0.032215141494115848
1.413000000000001144,-0.031973871292953898
1.414000000000001034,-0.031729004626315491
1.415000000000000924,-0.031480563181240311
1.416000000000001036,-0.031228568624991581
1.417000000000001148,-0.030973042604247221
1.418000000000001037,-0.030714006744304422
1.419000000000000927,-0.030451482648300821
1.420000000000001039,-0.030185491896436611
1.421000000000001151,-0.029916056045223439
1.422000000000001041,-0.029643196626718736
1.423000000000000931,-0.029366935147788997
1.424000000000001043,-0.029087293089374900
1.425000000000001155,-0.028804291905773171
1.426000000000001044,-0.028517953023915087
1.427000000000000934,-0.028228297842672161
1.428000000000001046,-0.027935347732151249
1.429000000000001158,-0.027639124033014838
1.430000000000001048,-0.027339648055806947
1.431000000000000938,-0.027036941080283362
1.432000000000001050,-0.026731024354756772
1.433000000000001162,-0.026421919095447333
1.434000000000001052,-0.026109646485838911
1.435000000000000941,-0.025794227676060610
1.436000000000001053,-0.025475683782253809
1.437000000000001165,-0.025154035885961046
1.438000000000001055,-0.024829305033533602
1.439000000000000945,-0.024501512235519496
1.440000000000001057,-0.024170678466089848
1.441000000000001169,-0.023836824662450812
1.442000000000001059,-0.023499971724278396
1.443000000000000949,-0.023160140513165568
1.444000000000001060,-0.022817351852053323
1.445000000000001172,-0.022471626524690307
1.446000000000001062,-0.022122985275109558
1.447000000000000952,-0.021771448807075631
1.448000000000001064,-0.021417037783585349
1.449000000000001176,-0.021059772826346471
1.450000000000001066,-0.020699674515266914
1.451000000000000956,-0.020336763387967048
1.452000000000001068,-0.019971059939284840
1.453000000000001180,-0.019602584620794783
1.454000000000001069,-0.019231357840333828
1.455000000000000959,-0.018857399961535314
1.456000000000001071,-0.018480731303361884
1.457000000000001183,-0.018101372139670623
1.458000000000001073,-0.017719342698748725
1.459000000000000963,-0.017334663162886992
1.460000000000001075,-0.016947353667947623
1.461000000000001187,-0.016557434302935735
1.462000000000001076,-0.016164925109596173
1.463000000000000966,-0.015769846081985686
1.464000000000001078,-0.015372217166082180
1.465000000000001190,-0.014972058259395241
1.466000000000001080,-0.014569389210553433
1.467000000000000970,-0.014164229818949867
1.468000000000001082,-0.013756599834350985
1.469000000000001194,-0.013346518956528362
1.470000000000001084,-0.012934006834901207
1.471000000000000973,-0.012519083068175046
1.472000000000001085,-0.012101767204000783
1.473000000000001197,-0.011682078738622622
1.474000000000001087,-0.011260037116543609
1.475000000000000977,-0.010835661730195265
1.476000000000001089,-0.010408971919618116
1.477000000000001201,-0.009979986972135566
1.478000000000001091,-0.009548726122043879
1.479000000000000981,-0.009115208550310535
1.480000000000001092,-0.008679453384263885
1.481000000000001204,-0.008241479697312384
1.482000000000001094,-0.007801306508640771
1.483000000000000984,-0.007358952782941283
1.484000000000001096,-0.006914437430127813
1.485000000000001208,-0.006467779305060452
1.486000000000001098,-0.006018997207294302
1.487000000000000988,-0.005568109880804908
1.488000000000001100,-0.005115136013736818
1.489000000000001211,-0.004660094238159497
1.490000000000001101,-0.004203003129819045
1.491000000000000991,-0.003743881207895031
1.492000000000001103,-0.003282746934779940
1.493000000000001215,-0.002819618715835433
1.494000000000001105,-0.002354514899178146
1.495000000000000995,-0.001887453775460959
1.496000000000001107,-0.001418453577660340
1.497000000000001219,-0.000947532480863627
1.498000000000001108,-0.000474708602073516
1.499000000000000998,0.000000000000000000
