# CNT15-OH-4_HUMICACID-NEUTRAL-AC
# h[nm],U(h)[kJ/mol]
0.149999999999999994,187.369700964201740589
0.150999999999999995,186.582149574478279419
0.151999999999999996,184.177438098102896902
0.152999999999999997,181.479117743363673299
0.153999999999999998,178.931121887554525074
0.154999999999999999,176.590045014967671477
0.156000000000000000,174.378629397495359399
0.157000000000000001,172.203556108338318609
0.158000000000000002,170.000115800097290730
0.159000000000000002,167.740585273181608272
0.160000000000000003,165.427086987697123277
0.161000000000000004,163.079949096676386944
0.162000000000000005,160.726838719052977922
0.163000000000000006,158.394709974519855677
0.164000000000000007,156.104912387241427041
0.165000000000000008,153.871016485588057776
0.166000000000000009,151.698636026581283431
0.167000000000000010,149.586516893367701186
0.168000000000000010,147.528276492301415601
0.169000000000000011,145.514332093067707774
0.170000000000000012,143.533708491174650135
0.171000000000000013,141.575544447690560901
0.172000000000000014,139.630216835421208543
0.173000000000000015,137.690071783898787317
0.174000000000000016,135.749797306447050005
0.175000000000000017,133.806497084264549358
0.176000000000000018,131.859535461792262367
0.177000000000000018,129.910223869118482298
0.178000000000000019,127.961412593422181772
0.179000000000000020,126.017041970988913135
0.180000000000000021,124.081695774423479861
0.181000000000000022,122.160188271201107568
0.182000000000000023,120.257206043988247757
0.183000000000000024,118.377016701555476175
0.184000000000000025,116.523249291007687134
0.185000000000000026,114.698745566394876505
0.186000000000000026,112.905477165909388759
0.187000000000000027,111.144521016022238769
0.188000000000000028,109.416083697530169161
0.189000000000000029,107.719564849686435082
0.190000000000000030,106.053649738965802385
0.191000000000000031,104.416421684384118862
0.192000000000000032,102.805485944176027147
0.193000000000000033,101.218097790070004294
0.194000000000000034,99.651288714341845321
0.195000000000000034,98.101985945981624582
0.196000000000000035,96.567121633137148251
0.197000000000000036,95.043729136380477485
0.198000000000000037,93.529024844165476793
0.199000000000000038,92.020474753793450873
0.200000000000000039,90.515845753866400969
0.201000000000000040,89.013242100510154842
0.202000000000000041,87.511128007723996802
0.203000000000000042,86.008337583610639854
0.204000000000000042,84.504073552497501964
0.205000000000000043,82.997896322519636669
0.206000000000000044,81.489705003561795138
0.207000000000000045,79.979711965488945680
0.208000000000000046,78.468412464272503826
0.209000000000000047,76.956550765663152447
0.210000000000000048,75.445084072814324827
0.211000000000000049,73.935145424641234513
0.212000000000000050,72.428006583218490277
0.213000000000000050,70.925041777365976259
0.214000000000000051,69.427693020677949676
0.215000000000000052,67.937437579457295556
0.216000000000000053,66.455758032160503035
0.217000000000000054,64.984115239039397238
0.218000000000000055,63.523924429944791825
0.219000000000000056,62.076534520407065543
0.220000000000000057,60.643210681299670739
0.221000000000000058,59.225120115420949674
0.222000000000000058,57.823320934672324256
0.223000000000000059,56.438753983454603258
0.224000000000000060,55.072237416545092969
0.225000000000000061,53.724463812088266934
0.226000000000000062,52.395999581387663113
0.227000000000000063,51.087286425884570917
0.228000000000000064,49.798644587014209151
0.229000000000000065,48.530277635546177351
0.230000000000000066,47.282278552608197231
0.231000000000000066,46.054636863980434214
0.232000000000000067,44.847246601638907748
0.233000000000000068,43.659914881194090697
0.234000000000000069,42.492370900176538839
0.235000000000000070,41.344275179499909711
0.236000000000000071,40.215228888396531204
0.237000000000000072,39.104783111254448613
0.238000000000000073,38.012447932742588819
0.239000000000000073,36.937701235104405839
0.240000000000000074,35.879997118299321812
0.241000000000000075,34.838773869601432409
0.242000000000000076,33.813461424188673732
0.243000000000000077,32.803488272079974308
0.244000000000000078,31.808287779446224874
0.245000000000000079,30.827303903798799922
0.246000000000000080,29.859996292846272326
0.247000000000000081,28.905844765916658190
0.248000000000000081,27.964353184804572550
0.249000000000000082,27.035052727764831815
0.250000000000000111,26.117504586189816962
0.251000000000000112,25.211302108344078476
0.252000000000000113,24.316072418450215054
0.253000000000000114,23.431477542503884592
0.254000000000000115,22.557215074506558494
0.255000000000000115,21.693018418425918270
0.256000000000000116,20.838656642189992141
0.257000000000000117,19.993933980467666345
0.258000000000000118,19.158689022951705283
0.259000000000000119,18.332793624403656452
0.260000000000000120,17.516151571905574258
0.261000000000000121,16.708697043648488290
0.262000000000000122,15.910392892221873140
0.263000000000000123,15.121228783803953633
0.264000000000000123,14.341219222929719734
0.265000000000000124,13.570401490674919742
0.266000000000000125,12.808833522173713959
0.267000000000000126,12.056591747417762406
0.268000000000000127,11.313768917291477933
0.269000000000000128,10.580471934810015355
0.270000000000000129,9.856819709559557552
0.271000000000000130,9.142941051414160469
0.272000000000000131,8.438972617735727155
0.273000000000000131,7.745056926462323688
0.274000000000000132,7.061340445769127783
0.275000000000000133,6.387971769350187401
0.276000000000000134,5.725099884825249674
0.277000000000000135,5.072872541329711993
0.278000000000000136,4.431434720995041765
0.279000000000000137,3.800927217778807599
0.280000000000000138,3.181485325954380272
0.281000000000000139,2.573237639518651143
0.282000000000000139,1.976304962823704159
0.283000000000000140,1.390799331878175504
0.284000000000000141,0.816823144996721262
0.285000000000000142,0.254468400795225425
0.286000000000000143,-0.296183959067326419
0.287000000000000144,-0.835064605516433689
0.288000000000000145,-1.362116279618878156
0.289000000000000146,-1.877294155999322811
0.290000000000000147,-2.380566116355867123
0.291000000000000147,-2.871912937558227963
0.292000000000000148,-3.351328399003430381
0.293000000000000149,-3.818819314040749369
0.294000000000000150,-4.274405490370055460
0.295000000000000151,-4.718119624365143316
0.296000000000000152,-5.150007134284146915
0.297000000000000153,-5.570125937303595620
0.298000000000000154,-5.978546175258045992
0.299000000000000155,-6.375349893883861085
0.300000000000000155,-6.760630680259940739
0.301000000000000156,-7.134493263010807773
0.302000000000000157,-7.497053079694152800
0.303000000000000158,-7.848435815634995372
0.304000000000000159,-8.188776918298353635
0.305000000000000160,-8.518221091111231047
0.306000000000000161,-8.836921770456735103
0.307000000000000162,-9.145040589369358486
0.308000000000000163,-9.442746831263136187
0.309000000000000163,-9.730216876824737682
0.310000000000000164,-10.007633647004048782
0.311000000000000165,-10.275186044835033172
0.312000000000000166,-10.533068398622816630
0.313000000000000167,-10.781479908838345949
0.314000000000000168,-11.020624100871495799
0.315000000000000169,-11.250708285607785797
0.316000000000000170,-11.471943029613344223
0.317000000000000171,-11.684541636537719711
0.318000000000000171,-11.888719641176091812
0.319000000000000172,-12.084694317470724201
0.320000000000000173,-12.272684201576458562
0.321000000000000174,-12.452908630967732151
0.322000000000000175,-12.625587300424431447
0.323000000000000176,-12.790939835600816821
0.324000000000000177,-12.949185384756887629
0.325000000000000178,-13.100542229112951631
0.326000000000000179,-13.245227412178630644
0.327000000000000179,-13.383456388303361706
0.328000000000000180,-13.515442690599993369
0.329000000000000181,-13.641397618304077710
0.330000000000000182,-13.761529943548628907
0.331000000000000183,-13.876045637459631266
0.332000000000000184,-13.985147615407274913
0.333000000000000185,-14.089035501185680488
0.334000000000000186,-14.187905409836721660
0.335000000000000187,-14.281949748781846310
0.336000000000000187,-14.371357036880658242
0.337000000000000188,-14.456311740993163184
0.338000000000000189,-14.536994129587991864
0.339000000000000190,-14.613580142907006021
0.340000000000000191,-14.686241279169916396
0.341000000000000192,-14.755144496280374611
0.342000000000000193,-14.820452128475746889
0.343000000000000194,-14.882321817348119097
0.344000000000000195,-14.940906456651651624
0.345000000000000195,-14.996354150303853103
0.346000000000000196,-15.048808182981428416
0.347000000000000197,-15.098407002709558711
0.348000000000000198,-15.145284214842073212
0.349000000000000199,-15.189568586832255193
0.350000000000000200,-15.231384063197833001
0.351000000000000201,-15.270849790089283005
0.352000000000000202,-15.308080148878062232
0.353000000000000203,-15.343184798190671714
0.354000000000000203,-15.376268723824551898
0.355000000000000204,-15.407432295993263693
0.356000000000000205,-15.436771333361619440
0.357000000000000206,-15.464377173344605154
0.358000000000000207,-15.490336748158373581
0.359000000000000208,-15.514732666126917593
0.360000000000000209,-15.537643297763690242
0.361000000000000210,-15.559142866163352181
0.362000000000000210,-15.579301541255706098
0.363000000000000211,-15.598185537490374841
0.364000000000000212,-15.615857214538248599
0.365000000000000213,-15.632375180612180898
0.366000000000000214,-15.647794398027432550
0.367000000000000215,-15.662166290638745991
0.368000000000000216,-15.675538852808790224
0.369000000000000217,-15.687956759578934651
0.370000000000000218,-15.699461477730903169
0.371000000000000218,-15.710091377443649918
0.372000000000000219,-15.719881844266788917
0.373000000000000220,-15.728865391147598629
0.374000000000000221,-15.737071770264396520
0.375000000000000222,-15.744528084434183057
0.376000000000000223,-15.751258897878182452
0.377000000000000224,-15.757286346142524991
0.378000000000000225,-15.762630244986112871
0.379000000000000226,-15.767308198061218860
0.380000000000000226,-15.771335703225897618
0.381000000000000227,-15.774726257339665381
0.382000000000000228,-15.777491459406892460
0.383000000000000229,-15.779641111943863763
0.384000000000000230,-15.781183320457085273
0.385000000000000231,-15.782124590931568164
0.386000000000000232,-15.782469925238075348
0.387000000000000233,-15.782222914378730039
0.388000000000000234,-15.781385829499825491
0.389000000000000234,-15.779959710610029333
0.390000000000000235,-15.777944452950674048
0.391000000000000236,-15.775338890973520378
0.392000000000000237,-15.772140879888883802
0.393000000000000238,-15.768347374754771550
0.394000000000000239,-15.763954507084537937
0.395000000000000240,-15.758957658957381653
0.396000000000000241,-15.753351534622145991
0.397000000000000242,-15.747130229590760919
0.398000000000000242,-15.740287297223423124
0.399000000000000243,-15.732815812812333434
0.400000000000000244,-15.724708435176088628
0.401000000000000245,-15.715957465781025704
0.402000000000000246,-15.706554905409834788
0.403000000000000247,-15.696492508402190680
0.404000000000000248,-15.685761834494892142
0.405000000000000249,-15.674354298292964671
0.406000000000000250,-15.662261216405687136
0.407000000000000250,-15.649473852284454978
0.408000000000000251,-15.635983458801813839
0.409000000000000252,-15.621781318613164657
0.410000000000000253,-15.606858782344678716
0.411000000000000254,-15.591207304652773047
0.412000000000000255,-15.574818478201828853
0.413000000000000256,-15.557684065608739843
0.414000000000000257,-15.539796029403211364
0.415000000000000258,-15.521146560054702945
0.416000000000000258,-15.501728102116880237
0.417000000000000259,-15.481533378541683987
0.418000000000000260,-15.460555413215359977
0.419000000000000261,-15.438787551769337369
0.420000000000000262,-15.416223480718889149
0.421000000000000263,-15.392857244982973697
0.422000000000000264,-15.368683263838144981
0.423000000000000265,-15.343696345359893130
0.424000000000000266,-15.317891699404317052
0.425000000000000266,-15.291264949182430399
0.426000000000000267,-15.263812141479695228
0.427000000000000268,-15.235529755572349231
0.428000000000000269,-15.206414710891746012
0.429000000000000270,-15.176464373487480231
0.430000000000000271,-15.145676561339040944
0.431000000000000272,-15.114049548565546388
0.432000000000000273,-15.081582068581671052
0.433000000000000274,-15.048273316247781750
0.434000000000000274,-15.014122949060782375
0.435000000000000275,-14.979131087431770908
0.436000000000000276,-14.943298314095438073
0.437000000000000277,-14.906625672695088980
0.438000000000000278,-14.869114665586533164
0.439000000000000279,-14.830767250902757937
0.440000000000000280,-14.791585838920360274
0.441000000000000281,-14.751573287767765663
0.442000000000000282,-14.710732898514251588
0.443000000000000282,-14.669068409677342046
0.444000000000000283,-14.626583991185830413
0.445000000000000284,-14.583284237833714414
0.446000000000000285,-14.539174162259962841
0.447000000000000286,-14.494259187487823937
0.448000000000000287,-14.448545139055855913
0.449000000000000288,-14.402038236772529700
0.450000000000000289,-14.354745086124655273
0.451000000000000290,-14.306672669368927231
0.452000000000000290,-14.257828336335274244
0.453000000000000291,-14.208219794968911742
0.454000000000000292,-14.157855101637768058
0.455000000000000293,-14.106742651230348429
0.456000000000000294,-14.054891167068571889
0.457000000000000295,-14.002309690658815811
0.458000000000000296,-13.949007571303576825
0.459000000000000297,-13.894994455595334415
0.460000000000000298,-13.840280276813038185
0.461000000000000298,-13.784875244240984316
0.462000000000000299,-13.728789832428791584
0.463000000000000300,-13.672034770410400384
0.464000000000000301,-13.614621030899186849
0.465000000000000302,-13.556559819475443973
0.466000000000000303,-13.497862563781586331
0.467000000000000304,-13.438540902739879002
0.468000000000000305,-13.378606675806461013
0.469000000000000306,-13.318071912274817237
0.470000000000000306,-13.256948820641346387
0.471000000000000307,-13.195249778044322753
0.472000000000000308,-13.132987319787783775
0.473000000000000309,-13.070174128960379889
0.474000000000000310,-13.006823026159059609
0.475000000000000311,-12.942946959326700807
0.476000000000000312,-12.878558993712285741
0.477000000000000313,-12.813672301961361200
0.478000000000000314,-12.748300154344352819
0.479000000000000314,-12.682455909129554783
0.480000000000000315,-12.616153003106894914
0.481000000000000316,-12.549404942268649776
0.482000000000000317,-12.482225292652033843
0.483000000000000318,-12.414627671348828386
0.484000000000000319,-12.346625737686277802
0.485000000000000320,-12.278233184583299931
0.486000000000000321,-12.209463730085525768
0.487000000000000322,-12.140331109082401539
0.488000000000000322,-12.070849065208903994
0.489000000000000323,-12.001031342934677326
0.490000000000000324,-11.930891679842250852
0.491000000000000325,-11.860443799096284323
0.492000000000000326,-11.789701402105139394
0.493000000000000327,-11.718678161376034907
0.494000000000000328,-11.647387713564322453
0.495000000000000329,-11.575843652717763277
0.496000000000000330,-11.504059523715685742
0.497000000000000330,-11.432048815903460337
0.498000000000000331,-11.359824956921595884
0.499000000000000332,-11.287401306729545780
0.500000000000000333,-11.214791151823131798
0.501000000000000334,-11.142007699644873142
0.502000000000000335,-11.069064073186272168
0.503000000000000336,-10.995973305780720963
0.504000000000000337,-10.922748336085632559
0.505000000000000338,-10.849402003252281546
0.506000000000000338,-10.775947042281661226
0.507000000000000339,-10.702396079564476139
0.508000000000000340,-10.628761628603259126
0.509000000000000341,-10.555056085914745978
0.510000000000000342,-10.481291727109963929
0.511000000000000343,-10.407480703150040924
0.512000000000000344,-10.333635036775094207
0.513000000000000345,-10.259766619103867669
0.514000000000000346,-10.185887206401556426
0.515000000000000346,-10.112008417012990691
0.516000000000000347,-10.038141728458638724
0.517000000000000348,-9.964298474690727048
0.518000000000000349,-9.890489843506305334
0.519000000000000350,-9.816726874114882762
0.520000000000000351,-9.743020454857184376
0.521000000000000352,-9.669381321072616942
0.522000000000000353,-9.595820053111989267
0.523000000000000353,-9.522347074492717667
0.524000000000000354,-9.448972650193560696
0.525000000000000355,-9.375706885085568487
0.526000000000000356,-9.302559722496383188
0.527000000000000357,-9.229540942904872480
0.528000000000000358,-9.156660162762694455
0.529000000000000359,-9.083926833440219895
0.530000000000000360,-9.011350240293191760
0.531000000000000361,-8.938939501847510627
0.532000000000000361,-8.866703569098756788
0.533000000000000362,-8.794651224923629940
0.534000000000000363,-8.722791083600112572
0.535000000000000364,-8.651131590433427831
0.536000000000000365,-8.579681021484734771
0.537000000000000366,-8.508447483399674383
0.538000000000000367,-8.437438913333641821
0.539000000000000368,-8.366663078971132705
0.540000000000000369,-8.296127578635891453
0.541000000000000369,-8.225839841489431592
0.542000000000000370,-8.155807127814659552
0.543000000000000371,-8.086036529382095495
0.544000000000000372,-8.016534969895817042
0.545000000000000373,-7.947309205516404518
0.546000000000000374,-7.878365825458111260
0.547000000000000375,-7.809711252657718816
0.548000000000000376,-7.741351744512423139
0.549000000000000377,-7.673293393684130770
0.550000000000000377,-7.605542128967611504
0.551000000000000378,-7.538103716220066808
0.552000000000000379,-7.470983759349667075
0.553000000000000380,-7.404187701360544160
0.554000000000000381,-7.337720825451913065
0.555000000000000382,-7.271588256169145836
0.556000000000000383,-7.205794960604161581
0.557000000000000384,-7.140345749643325135
0.558000000000000385,-7.075245279260251152
0.559000000000000385,-7.010498051851678625
0.560000000000000386,-6.946108417614124342
0.561000000000000387,-6.882080575959318658
0.562000000000000388,-6.818418576966363887
0.563000000000000389,-6.755126322868726163
0.564000000000000390,-6.692207569574032178
0.565000000000000391,-6.629665928214843795
0.566000000000000392,-6.567504866728543611
0.567000000000000393,-6.505727711464601271
0.568000000000000393,-6.444337648817342945
0.569000000000000394,-6.383337726882594154
0.570000000000000395,-6.322730857136611426
0.571000000000000396,-6.262519816135443840
0.572000000000000397,-6.202707247233428589
0.573000000000000398,-6.143295662319031791
0.574000000000000399,-6.084287443566756437
0.575000000000000400,-6.025684845203429063
0.576000000000000401,-5.967489995287646565
0.577000000000000401,-5.909704897500987819
0.578000000000000402,-5.852331432949473111
0.579000000000000403,-5.795371361974176239
0.580000000000000404,-5.738826325969711206
0.581000000000000405,-5.682697849209202623
0.582000000000000406,-5.626987340674824090
0.583000000000000407,-5.571696095892455070
0.584000000000000408,-5.516825298769669317
0.585000000000000409,-5.462376023435725259
0.586000000000000409,-5.408349236082637290
0.587000000000000410,-5.354745796806356317
0.588000000000000411,-5.301566461446965306
0.589000000000000412,-5.248811883427165981
0.590000000000000413,-5.196482615587873610
0.591000000000000414,-5.144579112020308820
0.592000000000000415,-5.093101729893678709
0.593000000000000416,-5.042050731277487152
0.594000000000000417,-4.991426284957894310
0.595000000000000417,-4.941228468247416572
0.596000000000000418,-4.891457268786891355
0.597000000000000419,-4.842112586339572644
0.598000000000000420,-4.793194234576150237
0.599000000000000421,-4.744701942850481302
0.600000000000000422,-4.696635357965177171
0.601000000000000423,-4.648994045926585272
0.602000000000000424,-4.601777493688575582
0.603000000000000425,-4.554985110884612887
0.604000000000000425,-4.508616231547606823
0.605000000000000426,-4.462670115817047645
0.606000000000000427,-4.417145951633107970
0.607000000000000428,-4.372042856416910261
0.608000000000000429,-4.327359878737135013
0.609000000000000430,-4.283095999961918920
0.610000000000000431,-4.239250135896287297
0.611000000000000432,-4.195821138404307149
0.612000000000000433,-4.152807797015868552
0.613000000000000433,-4.110208840517797668
0.614000000000000434,-4.068022938528913279
0.615000000000000435,-4.026248703058771028
0.616000000000000436,-3.984884690049877776
0.617000000000000437,-3.943929400903245064
0.618000000000000438,-3.903381283986841588
0.619000000000000439,-3.863238736126842099
0.620000000000000440,-3.823500104081631434
0.621000000000000441,-3.784163685998160442
0.622000000000000441,-3.745227732850666680
0.623000000000000442,-3.706690449861535619
0.624000000000000443,-3.668549997904190896
0.625000000000000444,-3.630804494887992284
0.626000000000000445,-3.593452017124844300
0.627000000000000446,-3.556490600677692182
0.628000000000000447,-3.519918242690577070
0.629000000000000448,-3.483732902700364065
0.630000000000000449,-3.447932503930034365
0.631000000000000449,-3.412514934563461111
0.632000000000000450,-3.377478049001745752
0.633000000000000451,-3.342819669101005697
0.634000000000000452,-3.308537585391609692
0.635000000000000453,-3.274629558278969288
0.636000000000000454,-3.241093319225711866
0.637000000000000455,-3.207926571915499014
0.638000000000000456,-3.175126993398238895
0.639000000000000457,-3.142692235217010577
0.640000000000000457,-3.110619924516551116
0.641000000000000458,-3.078907665133389759
0.642000000000000459,-3.047553038667846881
0.643000000000000460,-3.016553605537674265
0.644000000000000461,-2.985906906013730655
0.645000000000000462,-2.955610461237556219
0.646000000000000463,-2.925661774220984945
0.647000000000000464,-2.896058330827946392
0.648000000000000465,-2.866797600738527407
0.649000000000000465,-2.837877038395317797
0.650000000000000466,-2.809294083932321495
0.651000000000000467,-2.781046164086345307
0.652000000000000468,-2.753130693091166759
0.653000000000000469,-2.725545073554465070
0.654000000000000470,-2.698286697317766603
0.655000000000000471,-2.671352946299430098
0.656000000000000472,-2.644741193320859107
0.657000000000000473,-2.618448802916078400
0.658000000000000473,-2.592473132124844870
0.659000000000000474,-2.566811531269344915
0.660000000000000475,-2.541461344714780246
0.661000000000000476,-2.516419911613802629
0.662000000000000477,-2.491684566635154585
0.663000000000000478,-2.467252640676485420
0.664000000000000479,-2.443121461561713836
0.665000000000000480,-2.419288354722791023
0.666000000000000481,-2.395750643866433993
0.667000000000000481,-2.372505651625544054
0.668000000000000482,-2.349550700195952579
0.669000000000000483,-2.326883111958182759
0.670000000000000484,-2.304500210084796219
0.671000000000000485,-2.282399319133257443
0.672000000000000486,-2.260577765624560698
0.673000000000000487,-2.239032878607861043
0.674000000000000488,-2.217761990211116085
0.675000000000000488,-2.196762436178060884
0.676000000000000489,-2.176031556391714084
0.677000000000000490,-2.155566695384370401
0.678000000000000491,-2.135365202834544451
0.679000000000000492,-2.115424434050829916
0.680000000000000493,-2.095741750442941420
0.681000000000000494,-2.076314519980114515
0.682000000000000495,-2.057140117636995225
0.683000000000000496,-2.038215925827263408
0.684000000000000496,-2.019539334825101395
0.685000000000000497,-2.001107743174711739
0.686000000000000498,-1.982918558088089922
0.687000000000000499,-1.964969195831167692
0.688000000000000500,-1.947257082098519110
0.689000000000000501,-1.929779652376871990
0.690000000000000502,-1.912534352297494022
0.691000000000000503,-1.895518637977703147
0.692000000000000504,-1.878729976351603437
0.693000000000000504,-1.862165845490361793
0.694000000000000505,-1.845823734911945291
0.695000000000000506,-1.829701145880803903
0.696000000000000507,-1.813795591697383802
0.697000000000000508,-1.798104597977803421
0.698000000000000509,-1.782625702923836375
0.699000000000000510,-1.767356457583294072
0.700000000000000511,-1.752294426101073554
0.701000000000000512,-1.737437185960959640
0.702000000000000512,-1.722782328218367853
0.703000000000000513,-1.708327457724196918
0.704000000000000514,-1.694070193339950681
0.705000000000000515,-1.680008168144256686
0.706000000000000516,-1.666139029630985480
0.707000000000000517,-1.652460439899115840
0.708000000000000518,-1.638970075834406348
0.709000000000000519,-1.625665629283249203
0.710000000000000520,-1.612544807218570853
0.711000000000000520,-1.599605331898164673
0.712000000000000521,-1.586844941015497001
0.713000000000000522,-1.574261387843092219
0.714000000000000523,-1.561852441368828170
0.715000000000000524,-1.549615886424987599
0.716000000000000525,-1.537549523810537666
0.717000000000000526,-1.525651170406538082
0.718000000000000527,-1.513918659284870127
0.719000000000000528,-1.502349839810525722
0.720000000000000528,-1.490942577737503827
0.721000000000000529,-1.479694755298380571
0.722000000000000530,-1.468604271287911489
0.723000000000000531,-1.457669041140500665
0.724000000000000532,-1.446886997001950892
0.725000000000000533,-1.436256087795431124
0.726000000000000534,-1.425774279281818213
0.727000000000000535,-1.415439554114650056
0.728000000000000536,-1.405249911889651093
0.729000000000000536,-1.395203369189085052
0.730000000000000537,-1.385297959620992447
0.731000000000000538,-1.375531733853407212
0.732000000000000539,-1.365902759643748521
0.733000000000000540,-1.356409121863430656
0.734000000000000541,-1.347048922517835923
0.735000000000000542,-1.337820280761733427
0.736000000000000543,-1.328721332910345332
0.737000000000000544,-1.319750232446006644
0.738000000000000544,-1.310905150020714061
0.739000000000000545,-1.302184273454495722
0.740000000000000546,-1.293585807729842774
0.741000000000000547,-1.285107974982186985
0.742000000000000548,-1.276749014486703748
0.743000000000000549,-1.268507182641255504
0.744000000000000550,-1.260380752945864158
0.745000000000000551,-1.252368015978642779
0.746000000000000552,-1.244467279368328683
0.747000000000000552,-1.236676867763500498
0.748000000000000553,-1.228995122798558715
0.749000000000000554,-1.221420403056604709
0.750000000000000555,-1.213951084029268657
0.751000000000000556,-1.206585558073551612
0.752000000000000557,-1.199322234365884920
0.753000000000000558,-1.192159538853263090
0.754000000000000559,-1.185095914201826695
0.755000000000000560,-1.178129819742706363
0.756000000000000560,-1.171259731415426719
0.757000000000000561,-1.164484141708735265
0.758000000000000562,-1.157801559599135555
0.759000000000000563,-1.151210510487079564
0.760000000000000564,-1.144709536130934513
0.761000000000000565,-1.138297194578759886
0.762000000000000566,-1.131972060098030974
0.763000000000000567,-1.125732723103314070
0.764000000000000568,-1.119577790081992763
0.765000000000000568,-1.113505883518160822
0.766000000000000569,-1.107515641814609042
0.767000000000000570,-1.101605719213162748
0.768000000000000571,-1.095774785713216959
0.769000000000000572,-1.090021526988773859
0.770000000000000573,-1.084344644303811833
0.771000000000000574,-1.078742854426225639
0.772000000000000575,-1.073214889540272887
0.773000000000000576,-1.067759497157665827
0.774000000000000576,-1.062375440027317541
0.775000000000000577,-1.057061496043848026
0.776000000000000578,-1.051816458154817058
0.777000000000000579,-1.046639134266855287
0.778000000000000580,-1.041528347150630696
0.779000000000000581,-1.036482934344791218
0.780000000000000582,-1.031501748058878398
0.781000000000000583,-1.026583655075291590
0.782000000000000584,-1.021727536650333779
0.783000000000000584,-1.016932288414376329
0.784000000000000585,-1.012196820271249020
0.785000000000000586,-1.007520056296792310
0.786000000000000587,-1.002900934636741237
0.787000000000000588,-0.998338407403888461
0.788000000000000589,-0.993831440574578950
0.789000000000000590,-0.989379013884680303
0.790000000000000591,-0.984980120724905261
0.791000000000000592,-0.980633768035646169
0.792000000000000592,-0.976338976201344799
0.793000000000000593,-0.972094778944352256
0.794000000000000594,-0.967900223218451039
0.795000000000000595,-0.963754369101973984
0.796000000000000596,-0.959656289690528963
0.797000000000000597,-0.955605070989512972
0.798000000000000598,-0.951599811806283058
0.799000000000000599,-0.947639623642106299
0.800000000000000600,-0.943723630583919837
0.801000000000000600,-0.939850969195885733
0.802000000000000601,-0.936020788410802718
0.803000000000000602,-0.932232249421421466
0.804000000000000603,-0.928484525571644737
0.805000000000000604,-0.924776802247705865
0.806000000000000605,-0.921108276769225354
0.807000000000000606,-0.917478158280378819
0.808000000000000607,-0.913885667640993993
0.809000000000000608,-0.910330037317712559
0.810000000000000608,-0.906810511275270570
0.811000000000000609,-0.903326344867750430
0.812000000000000610,-0.899876804730118662
0.813000000000000611,-0.896461168669714814
0.814000000000000612,-0.893078725558050457
0.815000000000000613,-0.889728775222718093
0.816000000000000614,-0.886410628339491913
0.817000000000000615,-0.883123606324677013
0.818000000000000616,-0.879867041227710756
0.819000000000000616,-0.876640275623978171
0.820000000000000617,-0.873442662507930123
0.821000000000000618,-0.870273565186515774
0.822000000000000619,-0.867132357172909041
0.823000000000000620,-0.864018422080548354
0.824000000000000621,-0.860931153517531911
0.825000000000000622,-0.857869954981405725
0.826000000000000623,-0.854834239754295844
0.827000000000000624,-0.851823430798421599
0.828000000000000624,-0.848836960652047834
0.829000000000000625,-0.845874271325833482
0.830000000000000626,-0.842934814199611360
0.831000000000000627,-0.840018049919624810
0.832000000000000628,-0.837123448296235195
0.833000000000000629,-0.834250488202043727
0.834000000000000630,-0.831398657470555191
0.835000000000000631,-0.828567452795307302
0.836000000000000631,-0.825756379629483783
0.837000000000000632,-0.822964952086095103
0.838000000000000633,-0.820192692838616622
0.839000000000000634,-0.817439133022191955
0.840000000000000635,-0.814703812135398664
0.841000000000000636,-0.811986277942507662
0.842000000000000637,-0.809286086376362790
0.843000000000000638,-0.806602801441774431
0.844000000000000639,-0.803935995119516855
0.845000000000000639,-0.801285247270910439
0.846000000000000640,-0.798650145542946222
0.847000000000000641,-0.796030285274100025
0.848000000000000642,-0.793425269400625188
0.849000000000000643,-0.790834708363544303
0.850000000000000644,-0.788258220016240685
0.851000000000000645,-0.785695429532613288
0.852000000000000646,-0.783145969315930168
0.853000000000000647,-0.780609478908257270
0.854000000000000647,-0.778085604900529360
0.855000000000000648,-0.775574000843280875
0.856000000000000649,-0.773074327158001173
0.857000000000000650,-0.770586251049134696
0.858000000000000651,-0.768109446416725405
0.859000000000000652,-0.765643593769718578
0.860000000000000653,-0.763188380139947720
0.861000000000000654,-0.760743498996701017
0.862000000000000655,-0.758308650162041964
0.863000000000000655,-0.755883539726716291
0.864000000000000656,-0.753467879966785103
0.865000000000000657,-0.751061389260850198
0.866000000000000658,-0.748663792008039897
0.867000000000000659,-0.746274818546598828
0.868000000000000660,-0.743894205073158066
0.869000000000000661,-0.741521693562688489
0.870000000000000662,-0.739157031689138821
0.871000000000000663,-0.736799972746738918
0.872000000000000663,-0.734450275571939981
0.873000000000000664,-0.732107704466107956
0.874000000000000665,-0.729772029118804455
0.875000000000000666,-0.727443024531832072
0.876000000000000667,-0.725120470943866779
0.877000000000000668,-0.722804153755828738
0.878000000000000669,-0.720493863456916017
0.879000000000000670,-0.718189395551276810
0.880000000000000671,-0.715890550485408950
0.881000000000000671,-0.713597133576174603
0.882000000000000672,-0.711308954939552707
0.883000000000000673,-0.709025829419990705
0.884000000000000674,-0.706747576520491028
0.885000000000000675,-0.704474020333305972
0.886000000000000676,-0.702204989471356678
0.887000000000000677,-0.699940317000267931
0.888000000000000678,-0.697679840371092430
0.889000000000000679,-0.695423401353696069
0.890000000000000679,-0.693170845970797367
0.891000000000000680,-0.690922024432659709
0.892000000000000681,-0.688676791072451722
0.893000000000000682,-0.686435004282248906
0.894000000000000683,-0.684196526449687648
0.895000000000000684,-0.681961223895279689
0.896000000000000685,-0.679728966810363766
0.897000000000000686,-0.677499629195694175
0.898000000000000687,-0.675273088800685373
0.899000000000000687,-0.673049227063283517
0.900000000000000688,-0.670827929050481830
0.901000000000000689,-0.668609083399454018
0.902000000000000690,-0.666392582259345168
0.903000000000000691,-0.664178321233654390
0.904000000000000692,-0.661966199323271942
0.905000000000000693,-0.659756118870108654
0.906000000000000694,-0.657547985501387600
0.907000000000000695,-0.655341708074479667
0.908000000000000695,-0.653137198622426363
0.909000000000000696,-0.650934372300009834
0.910000000000000697,-0.648733147330475046
0.911000000000000698,-0.646533444952808845
0.912000000000000699,-0.644335189369646733
0.913000000000000700,-0.642138307695772848
0.914000000000000701,-0.639942729907174934
0.915000000000000702,-0.637748388790746579
0.916000000000000703,-0.635555219894507584
0.917000000000000703,-0.633363161478451286
0.918000000000000704,-0.631172154465953317
0.919000000000000705,-0.628982142395727362
0.920000000000000706,-0.626793071374400212
0.921000000000000707,-0.624604890029593074
0.922000000000000708,-0.622417549463607833
0.923000000000000709,-0.620231003207662335
0.924000000000000710,-0.618045207176643019
0.925000000000000711,-0.615860119624455526
0.926000000000000711,-0.613675701099887561
0.927000000000000712,-0.611491914403024417
0.928000000000000713,-0.609308724542193092
0.929000000000000714,-0.607126098691467608
0.930000000000000715,-0.604944006148653513
0.931000000000000716,-0.602762418293835589
0.932000000000000717,-0.600581308548441273
0.933000000000000718,-0.598400652334808547
0.934000000000000719,-0.596220427036274536
0.935000000000000719,-0.594040611957779463
0.936000000000000720,-0.591861188286948559
0.937000000000000721,-0.589682139055710763
0.938000000000000722,-0.587503449102393716
0.939000000000000723,-0.585325105034304793
0.940000000000000724,-0.583147095190818421
0.941000000000000725,-0.580969409606926446
0.942000000000000726,-0.578792039977306549
0.943000000000000727,-0.576614979620803325
0.944000000000000727,-0.574438223445452811
0.945000000000000728,-0.572261767913928354
0.946000000000000729,-0.570085611009448767
0.947000000000000730,-0.567909752202188978
0.948000000000000731,-0.565734192416085246
0.949000000000000732,-0.563558933996152200
0.950000000000000733,-0.561383980676193661
0.951000000000000734,-0.559209337547014185
0.952000000000000735,-0.557035011025012849
0.953000000000000735,-0.554861008821235013
0.954000000000000736,-0.552687339910878039
0.955000000000000737,-0.550514014503189264
0.956000000000000738,-0.548341044011811718
0.957000000000000739,-0.546168441025523532
0.958000000000000740,-0.543996219279434312
0.959000000000000741,-0.541824393626535006
0.960000000000000742,-0.539652980009718397
0.961000000000000743,-0.537481995434151316
0.962000000000000743,-0.535311457940068514
0.963000000000000744,-0.533141386575959109
0.964000000000000745,-0.530971801372163932
0.965000000000000746,-0.528802723314811707
0.966000000000000747,-0.526634174320192772
0.967000000000000748,-0.524466177209465978
0.968000000000000749,-0.522298755683799132
0.969000000000000750,-0.520131934299805421
0.970000000000000751,-0.517965738445432367
0.971000000000000751,-0.515800194316131888
0.972000000000000752,-0.513635328891448362
0.973000000000000753,-0.511471169911968837
0.974000000000000754,-0.509307745856569238
0.975000000000000755,-0.507145085920068239
0.976000000000000756,-0.504983219991198551
0.977000000000000757,-0.502822178630923711
0.978000000000000758,-0.500661993051091381
0.979000000000000759,-0.498502695093452020
0.980000000000000759,-0.496344317208943675
0.981000000000000760,-0.494186892437368908
0.982000000000000761,-0.492030454387378136
0.983000000000000762,-0.489875037216736253
0.984000000000000763,-0.487720675612954513
0.985000000000000764,-0.485567404774221945
0.986000000000000765,-0.483415260390629986
0.987000000000000766,-0.481264278625717079
0.988000000000000766,-0.479114496098313580
0.989000000000000767,-0.476965949864693761
0.990000000000000768,-0.474818677401025291
0.991000000000000769,-0.472672716586074404
0.992000000000000770,-0.470528105684247688
0.993000000000000771,-0.468384883328918922
0.994000000000000772,-0.466243088505981618
0.995000000000000773,-0.464102760537761949
0.996000000000000774,-0.461963939067138174
0.997000000000000774,-0.459826664041977362
0.998000000000000775,-0.457690975699821923
0.999000000000000776,-0.455556914552842307
1.000000000000000666,-0.453424521373065992
1.001000000000000778,-0.451293837177859092
1.002000000000000668,-0.449164903215657385
1.003000000000000780,-0.447037760951964736
1.004000000000000670,-0.444912452055589491
1.005000000000000782,-0.442789018385147337
1.006000000000000671,-0.440667501975797626
1.007000000000000783,-0.438547945026200536
1.008000000000000673,-0.436430389885763048
1.009000000000000785,-0.434314879042070223
1.010000000000000675,-0.432201455108587651
1.011000000000000787,-0.430090160812557243
1.012000000000000677,-0.427981038983164197
1.013000000000000789,-0.425874132539899364
1.014000000000000679,-0.423769484481120506
1.015000000000000790,-0.421667137872906106
1.016000000000000680,-0.419567135838050997
1.017000000000000792,-0.417469521545311584
1.018000000000000682,-0.415374338198844284
1.019000000000000794,-0.413281629027878683
1.020000000000000684,-0.411191437276568261
1.021000000000000796,-0.409103806194054065
1.022000000000000686,-0.407018779024727717
1.023000000000000798,-0.404936398998693936
1.024000000000000687,-0.402856709322422124
1.025000000000000799,-0.400779753169598074
1.026000000000000689,-0.398705573672161029
1.027000000000000801,-0.396634213911514433
1.028000000000000691,-0.394565716909956954
1.029000000000000803,-0.392500125622245455
1.030000000000000693,-0.390437482927381896
1.031000000000000805,-0.388377831620563274
1.032000000000000695,-0.386321214405279723
1.033000000000000806,-0.384267673885640038
1.034000000000000696,-0.382217252558809450
1.035000000000000808,-0.380169992807653234
1.036000000000000698,-0.378125936893516479
1.037000000000000810,-0.376085126949225634
1.038000000000000700,-0.374047604972158498
1.039000000000000812,-0.372013412817545075
1.040000000000000702,-0.369982592191912651
1.041000000000000814,-0.367955184646662381
1.042000000000000703,-0.365931231571806681
1.043000000000000815,-0.363910774189872499
1.044000000000000705,-0.361893853549942690
1.045000000000000817,-0.359880510521808805
1.046000000000000707,-0.357870785790342261
1.047000000000000819,-0.355864719849937783
1.048000000000000709,-0.353862352999127716
1.049000000000000821,-0.351863725335326449
1.050000000000000711,-0.349868876749706348
1.051000000000000822,-0.347877846922229894
1.052000000000000712,-0.345890675316776974
1.053000000000000824,-0.343907401176425598
1.054000000000000714,-0.341928063518858405
1.055000000000000826,-0.339952701131888690
1.056000000000000716,-0.337981352569114935
1.057000000000000828,-0.336014056145688633
1.058000000000000718,-0.334050849934214689
1.059000000000000830,-0.332091771760757770
1.060000000000000719,-0.330136859200978461
1.061000000000000831,-0.328186149576374653
1.062000000000000721,-0.326239679950623529
1.063000000000000833,-0.324297487126080752
1.064000000000000723,-0.322359607640322288
1.065000000000000835,-0.320426077762849759
1.066000000000000725,-0.318496933491885681
1.067000000000000837,-0.316572210551238076
1.068000000000000727,-0.314651944387344062
1.069000000000000838,-0.312736170166324379
1.070000000000000728,-0.310824922771213041
1.071000000000000840,-0.308918236799237911
1.072000000000000730,-0.307016146559223047
1.073000000000000842,-0.305118686069073219
1.074000000000000732,-0.303225889053342690
1.075000000000000844,-0.301337788940927442
1.076000000000000734,-0.299454418862823035
1.077000000000000846,-0.297575811649963218
1.078000000000000735,-0.295701999831180284
1.079000000000000847,-0.293833015631204120
1.080000000000000737,-0.291968890968805517
1.081000000000000849,-0.290109657454958925
1.082000000000000739,-0.288255346391126599
1.083000000000000851,-0.286405988767618636
1.084000000000000741,-0.284561615262027223
1.085000000000000853,-0.282722256237724678
1.086000000000000743,-0.280887941742460678
1.087000000000000854,-0.279058701507026996
1.088000000000000744,-0.277234564943994011
1.089000000000000856,-0.275415561146508447
1.090000000000000746,-0.273601718887173218
1.091000000000000858,-0.271793066617018741
1.092000000000000748,-0.269989632464494866
1.093000000000000860,-0.268191444234574861
1.094000000000000750,-0.266398529407885776
1.095000000000000862,-0.264610915139950942
1.096000000000000751,-0.262828628260460273
1.097000000000000863,-0.261051695272593753
1.098000000000000753,-0.259280142352461995
1.099000000000000865,-0.257513995348549130
1.100000000000000755,-0.255753279781237630
1.101000000000000867,-0.253998020842393646
1.102000000000000757,-0.252248243395014449
1.103000000000000869,-0.250503971972922623
1.104000000000000759,-0.248765230780494534
1.105000000000000870,-0.247032043692507391
1.106000000000000760,-0.245304434253953207
1.107000000000000872,-0.243582425679978842
1.108000000000000762,-0.241866040855838044
1.109000000000000874,-0.240155302336899190
1.110000000000000764,-0.238450232348707880
1.111000000000000876,-0.236750852787084881
1.112000000000000766,-0.235057185218299936
1.113000000000000878,-0.233369250879256473
1.114000000000000767,-0.231687070677748519
1.115000000000000879,-0.230010665192734554
1.116000000000000769,-0.228340054674691817
1.117000000000000881,-0.226675259045976268
1.118000000000000771,-0.225016297901245776
1.119000000000000883,-0.223363190507923637
1.120000000000000773,-0.221715955806690124
1.121000000000000885,-0.220074612412021503
1.122000000000000774,-0.218439178612759827
1.123000000000000886,-0.216809672372734796
1.124000000000000776,-0.215186111331420238
1.125000000000000888,-0.213568512804590105
1.126000000000000778,-0.211956893785060579
1.127000000000000890,-0.210351270943462371
1.128000000000000780,-0.208751660628977737
1.129000000000000892,-0.207158078870206930
1.130000000000000782,-0.205570541376005389
1.131000000000000894,-0.203989063536355653
1.132000000000000783,-0.202413660423301056
1.133000000000000895,-0.200844346791885814
1.134000000000000785,-0.199281137081102899
1.135000000000000897,-0.197724045414942401
1.136000000000000787,-0.196173085603372238
1.137000000000000899,-0.194628271143432452
1.138000000000000789,-0.193089615220288918
1.139000000000000901,-0.191557130708369744
1.140000000000000790,-0.190030830172478821
1.141000000000000902,-0.188510725868951262
1.142000000000000792,-0.186996829746857440
1.143000000000000904,-0.185489153449179434
1.144000000000000794,-0.183987708314076126
1.145000000000000906,-0.182492505376081332
1.146000000000000796,-0.181003555367432234
1.147000000000000908,-0.179520868719319326
1.148000000000000798,-0.178044455563217741
1.149000000000000909,-0.176574325732221343
1.150000000000000799,-0.175110488762374061
1.151000000000000689,-0.173652953894066320
1.152000000000000801,-0.172201730073408138
1.153000000000000913,-0.170756825953642194
1.154000000000000803,-0.169318249896561274
1.155000000000000693,-0.167886009973939265
1.156000000000000805,-0.166460113969017331
1.157000000000000917,-0.165040569377934682
1.158000000000000806,-0.163627383411249827
1.159000000000000696,-0.162220562995419759
1.160000000000000808,-0.160820114774320622
1.161000000000000920,-0.159426045110776321
1.162000000000000810,-0.158038360088110119
1.163000000000000700,-0.156657065511683541
1.164000000000000812,-0.155282166910472141
1.165000000000000924,-0.153913669538634890
1.166000000000000814,-0.152551578377128960
1.167000000000000703,-0.151195898135275147
1.168000000000000815,-0.149846633252403993
1.169000000000000927,-0.148503787899451734
1.170000000000000817,-0.147167365980609921
1.171000000000000707,-0.145837371134949656
1.172000000000000819,-0.144513806738096356
1.173000000000000931,-0.143196675903865700
1.174000000000000821,-0.141885981485937812
1.175000000000000711,-0.140581726079535535
1.176000000000000822,-0.139283912023111689
1.177000000000000934,-0.137992541400021623
1.178000000000000824,-0.136707616040244784
1.179000000000000714,-0.135429137522057597
1.180000000000000826,-0.134157107173777213
1.181000000000000938,-0.132891526075442357
1.182000000000000828,-0.131632395060556961
1.183000000000000718,-0.130379714717814676
1.184000000000000830,-0.129133485392820574
1.185000000000000941,-0.127893707189819683
1.186000000000000831,-0.126660379973460885
1.187000000000000721,-0.125433503370514038
1.188000000000000833,-0.124213076771635553
1.189000000000000945,-0.122999099333109374
1.190000000000000835,-0.121791569978606601
1.191000000000000725,-0.120590487400923069
1.192000000000000837,-0.119395850063775039
1.193000000000000949,-0.118207656203515282
1.194000000000000838,-0.117025903830935335
1.195000000000000728,-0.115850590732999151
1.196000000000000840,-0.114681714474630450
1.197000000000000952,-0.113519272400475102
1.198000000000000842,-0.112363261636655970
1.199000000000000732,-0.111213679092570447
1.200000000000000844,-0.110070521462619308
1.201000000000000956,-0.108933785228017818
1.202000000000000846,-0.107803466658540681
1.203000000000000735,-0.106679561814296914
1.204000000000000847,-0.105562066547492478
1.205000000000000959,-0.104450976504228368
1.206000000000000849,-0.103346287126228023
1.207000000000000739,-0.102247993652625227
1.208000000000000851,-0.101156091121733599
1.209000000000000963,-0.100070574372798690
1.210000000000000853,-0.098991438047773897
1.211000000000000743,-0.097918676593059778
1.212000000000000854,-0.096852284261292054
1.213000000000000966,-0.095792255113066521
1.214000000000000856,-0.094738583018730421
1.215000000000000746,-0.093691261660089023
1.216000000000000858,-0.092650284532197494
1.217000000000000970,-0.091615644945079441
1.218000000000000860,-0.090587336025479512
1.219000000000000750,-0.089565350718603540
1.220000000000000862,-0.088549681789858142
1.221000000000000973,-0.087540321826570636
1.222000000000000863,-0.086537263239740272
1.223000000000000753,-0.085540498265738951
1.224000000000000865,-0.084550018968053836
1.225000000000000977,-0.083565817238998835
1.226000000000000867,-0.082587884801418793
1.227000000000000757,-0.081616213210409488
1.228000000000000869,-0.080650793855014086
1.229000000000000981,-0.079691617959944699
1.230000000000000870,-0.078738676587236350
1.231000000000000760,-0.077791960637977942
1.232000000000000872,-0.076851460853986905
1.233000000000000984,-0.075917167819467279
1.234000000000000874,-0.074989071962718215
1.235000000000000764,-0.074067163557781243
1.236000000000000876,-0.073151432726114060
1.237000000000000988,-0.072241869438243969
1.238000000000000878,-0.071338463515436254
1.239000000000000767,-0.070441204631317672
1.240000000000000879,-0.069550082313538875
1.241000000000000991,-0.068665085945403617
1.242000000000000881,-0.067786204767493322
1.243000000000000771,-0.066913427879301809
1.244000000000000883,-0.066046744240841879
1.245000000000000995,-0.065186142674271502
1.246000000000000885,-0.064331611865483584
1.247000000000000774,-0.063483140365711177
1.248000000000000886,-0.062640716593120357
1.249000000000000998,-0.061804328834398528
1.250000000000000888,-0.060973965246329719
1.251000000000000778,-0.060149613857367598
1.252000000000000890,-0.059331262569202556
1.253000000000001002,-0.058518899158311474
1.254000000000000892,-0.057712511277533796
1.255000000000000782,-0.056912086457588787
1.256000000000000894,-0.056117612108621019
1.257000000000001005,-0.055329075521745007
1.258000000000000895,-0.054546463870555575
1.259000000000000785,-0.053769764212646884
1.260000000000000897,-0.052998963491116671
1.261000000000001009,-0.052234048536088193
1.262000000000000899,-0.051475006066172294
1.263000000000000789,-0.050721822689984798
1.264000000000000901,-0.049974484907609952
1.265000000000001013,-0.049232979112073458
1.266000000000000902,-0.048497291590815644
1.267000000000000792,-0.047767408527136693
1.268000000000000904,-0.047043316001657495
1.269000000000001016,-0.046324999993745911
1.270000000000000906,-0.045612446382978303
1.271000000000000796,-0.044905640950533517
1.272000000000000908,-0.044204569380629818
1.273000000000001020,-0.043509217261934033
1.274000000000000909,-0.042819570088964656
1.275000000000000799,-0.042135613263475535
1.276000000000000911,-0.041457332095866134
1.277000000000001023,-0.040784711806535937
1.278000000000000913,-0.040117737527269381
1.279000000000000803,-0.039456394302599646
1.280000000000000915,-0.038800667091167647
1.281000000000001027,-0.038150540767045757
1.282000000000000917,-0.037506000121110314
1.283000000000000806,-0.036867029862350922
1.284000000000000918,-0.036233614619207509
1.285000000000001030,-0.035605738940868201
1.286000000000000920,-0.034983387298594806
1.287000000000000810,-0.034366544087011841
1.288000000000000922,-0.033755193625403752
1.289000000000001034,-0.033149320158992829
1.290000000000000924,-0.032548907860208046
1.291000000000000814,-0.031953940829974131
1.292000000000000925,-0.031364403098938953
1.293000000000001037,-0.030780278628758088
1.294000000000000927,-0.030201551313310225
1.295000000000000817,-0.029628204979938150
1.296000000000000929,-0.029060223390686472
1.297000000000001041,-0.028497590243503391
1.298000000000000931,-0.027940289173462134
1.299000000000000821,-0.027388303753960924
1.300000000000000933,-0.026841617497907987
1.301000000000001044,-0.026300213858916139
1.302000000000000934,-0.025764076232473055
1.303000000000000824,-0.025233187957127236
1.304000000000000936,-0.024707532315617710
1.305000000000001048,-0.024187092536055749
1.306000000000000938,-0.023671851793062915
1.307000000000000828,-0.023161793208892664
1.308000000000000940,-0.022656899854571862
1.309000000000001052,-0.022157154751030993
1.310000000000000941,-0.021662540870190448
1.311000000000000831,-0.021173041136088040
1.312000000000000943,-0.020688638425954073
1.313000000000001055,-0.020209315571330929
1.314000000000000945,-0.019735055359114913
1.315000000000000835,-0.019265840532656082
1.316000000000000947,-0.018801653792808248
1.317000000000001059,-0.018342477798998218
1.318000000000000949,-0.017888295170249806
1.319000000000000838,-0.017439088486258240
1.320000000000000950,-0.016994840288390788
1.321000000000001062,-0.016555533080723543
1.322000000000000952,-0.016121149331064726
1.323000000000000842,-0.015691671471945477
1.324000000000000954,-0.015267081901641642
1.325000000000001066,-0.014847362985143091
1.326000000000000956,-0.014432497055160056
1.327000000000000846,-0.014022466413081944
1.328000000000000957,-0.013617253329965776
1.329000000000001069,-0.013216840047470290
1.330000000000000959,-0.012821208778840501
1.331000000000000849,-0.012430341709833551
1.332000000000000961,-0.012044220999653906
1.333000000000001073,-0.011662828781894913
1.334000000000000963,-0.011286147165464226
1.335000000000000853,-0.010914158235482113
1.336000000000000965,-0.010546844054202692
1.337000000000001076,-0.010184186661912540
1.338000000000000966,-0.009826168077813491
1.339000000000000856,-0.009472770300919095
1.340000000000000968,-0.009123975310922738
1.341000000000001080,-0.008779765069068617
1.342000000000000970,-0.008440121519019328
1.343000000000000860,-0.008105026587703953
1.344000000000000972,-0.007774462186166703
1.345000000000001084,-0.007448410210412417
1.346000000000000973,-0.007126852542231344
1.347000000000000863,-0.006809771050026714
1.348000000000000975,-0.006497147589630522
1.349000000000001087,-0.006188964005119130
1.350000000000000977,-0.005885202129614119
1.351000000000000867,-0.005585843786080725
1.352000000000000979,-0.005290870788097270
1.353000000000001091,-0.005000264940671794
1.354000000000000981,-0.004714008040991599
1.355000000000000870,-0.004432081879191164
1.356000000000000982,-0.004154468239119474
1.357000000000001094,-0.003881148899097094
1.358000000000000984,-0.003612105632652699
1.359000000000000874,-0.003347320209260959
1.360000000000000986,-0.003086774395084693
1.361000000000001098,-0.002830449953700324
1.362000000000000988,-0.002578328646801879
1.363000000000000878,-0.002330392234922055
1.364000000000000989,-0.002086622478148068
1.365000000000001101,-0.001847001136795071
1.366000000000000991,-0.001611509972115097
1.367000000000000881,-0.001380130746976685
1.368000000000000993,-0.001152845226541504
1.369000000000001105,-0.000929635178941404
1.370000000000000995,-0.000710482375930106
1.371000000000000885,-0.000495368593550265
1.372000000000000997,-0.000284275612784849
1.373000000000001108,-0.000077185220205763
1.374000000000000998,0.000125920791412464
1.375000000000000888,0.000325060622421870
1.376000000000001000,0.000520252465707794
1.377000000000001112,0.000711514506056556
1.378000000000001002,0.000898864919543482
1.379000000000000892,0.001082321872931699
1.380000000000001004,0.001261903523069051
1.381000000000001116,0.001437628016287940
1.382000000000001005,0.001609513487832073
1.383000000000000895,0.001777578061266248
1.384000000000001007,0.001941839847903722
1.385000000000001119,0.002102316946234425
1.386000000000001009,0.002259027441363919
1.387000000000000899,0.002411989404468479
1.388000000000001011,0.002561220892210803
1.389000000000001123,0.002706739946240687
1.390000000000001013,0.002848564592624902
1.391000000000000902,0.002986712841320279
1.392000000000001014,0.003121202685658361
1.393000000000001126,0.003252052101810068
1.394000000000001016,0.003379279048274492
1.395000000000000906,0.003502901465374032
1.396000000000001018,0.003622937274755397
1.397000000000001130,0.003739404378873446
1.398000000000001020,0.003852320660517157
1.399000000000000909,0.003961703982310856
1.400000000000001021,0.004067572186248968
1.401000000000001133,0.004169943093194744
1.402000000000001023,0.004268834502439878
1.403000000000000913,0.004364264191223978
1.404000000000001025,0.004456249914268161
1.405000000000001137,0.004544809403346868
1.406000000000001027,0.004629960366816001
1.407000000000000917,0.004711720489175229
1.408000000000001029,0.004790107430645544
1.409000000000001140,0.004865138826716749
1.410000000000001030,0.004936832287738968
1.411000000000000920,0.005005205398488025
1.412000000000001032,0.005070275717753419
1.413000000000001144,0.005132060777930520
1.414000000000001034,0.005190578084612741
1.415000000000000924,0.005245845116192042
1.416000000000001036,0.005297879323453504
1.417000000000001148,0.005346698129198405
1.418000000000001037,0.005392318927854140
1.419000000000000927,0.005434759085090177
1.420000000000001039,0.005474035937445458
1.421000000000001151,0.005510166791954960
1.422000000000001041,0.005543168925784865
1.423000000000000931,0.005573059585875896
1.424000000000001043,0.005599855988577422
1.425000000000001155,0.005623575319306877
1.426000000000001044,0.005644234732191652
1.427000000000000934,0.005661851349735840
1.428000000000001046,0.005676442262479396
1.429000000000001158,0.005688024528669950
1.430000000000001048,0.005696615173919839
1.431000000000000938,0.005702231190903164
1.432000000000001050,0.005704889539022269
1.433000000000001162,0.005704607144094987
1.434000000000001052,0.005701400898052020
1.435000000000000941,0.005695287658618288
1.436000000000001053,0.005686284249027307
1.437000000000001165,0.005674407457717385
1.438000000000001055,0.005659674038028555
1.439000000000000945,0.005642100707930938
1.440000000000001057,0.005621704149730350
1.441000000000001169,0.005598501009799075
1.442000000000001059,0.005572507898283972
1.443000000000000949,0.005543741388849222
1.444000000000001060,0.005512218018402704
1.445000000000001172,0.005477954286841148
1.446000000000001062,0.005440966656772990
1.447000000000000952,0.005401271553285431
1.448000000000001064,0.005358885363679249
1.449000000000001176,0.005313824437221417
1.450000000000001066,0.005266105084917603
1.451000000000000956,0.005215743579255350
1.452000000000001068,0.005162756153976591
1.453000000000001180,0.005107159003849135
1.454000000000001069,0.005048968284433969
1.455000000000000959,0.004988200111864996
1.456000000000001071,0.004924870562630745
1.457000000000001183,0.004858995673350274
1.458000000000001073,0.004790591440568489
1.459000000000000963,0.004719673820552688
1.460000000000001075,0.004646258729074765
1.461000000000001187,0.004570362041220433
1.462000000000001076,0.004491999591179682
1.463000000000000966,0.004411187172068207
1.464000000000001078,0.004327940535728519
1.465000000000001190,0.004242275392538555
1.466000000000001080,0.004154207411236960
1.467000000000000970,0.004063752218741164
1.468000000000001082,0.003970925399962903
1.469000000000001194,0.003875742497650377
1.470000000000001084,0.003778219012200966
1.471000000000000973,0.003678370401509594
1.472000000000001085,0.003576212080793045
1.473000000000001197,0.003471759422441450
1.474000000000001087,0.003365027755851115
1.475000000000000977,0.003256032367284405
1.476000000000001089,0.003144788499707189
1.477000000000001201,0.003031311352643393
1.478000000000001091,0.002915616082041306
1.479000000000000981,0.002797717800122257
1.480000000000001092,0.002677631575249007
1.481000000000001204,0.002555372431789082
1.482000000000001094,0.002430955349982393
1.483000000000000984,0.002304395265811171
1.484000000000001096,0.002175707070882260
1.485000000000001208,0.002044905612302912
1.486000000000001098,0.001912005692548570
1.487000000000000988,0.001777022069362949
1.488000000000001100,0.001639969455639664
1.489000000000001211,0.001500862519302210
1.490000000000001101,0.001359715883208018
1.491000000000000991,0.001216544125039641
1.492000000000001103,0.001071361777197012
1.493000000000001215,0.000924183326702663
1.494000000000001105,0.000775023215108997
1.495000000000000995,0.000623895838395574
1.496000000000001107,0.000470815546881804
1.497000000000001219,0.000315796645140897
1.498000000000001108,0.000158853391907088
1.499000000000000998,0.000000000000000000
