# Ag110_ASPP-AC
# h[nm],U(h)[kJ/mol]
0.149999999999999994,179.072764587665147928
0.150999999999999995,173.516985086878349875
0.151999999999999996,169.776415011525301679
0.152999999999999997,166.413336623898715061
0.153999999999999998,162.917043999474941529
0.154999999999999999,159.207342944095501025
0.156000000000000000,155.368001618826383492
0.157000000000000001,151.515123374273173340
0.158000000000000002,147.741317969985573200
0.159000000000000002,144.099810388313187559
0.160000000000000003,140.607458391539040576
0.161000000000000004,137.254918787227722987
0.162000000000000005,134.017847213268083806
0.163000000000000006,130.866337033625256936
0.164000000000000007,127.771662205842147841
0.165000000000000008,124.710352148009434359
0.166000000000000009,121.666058828172893413
0.167000000000000010,118.629808955790025493
0.168000000000000010,115.599210465950633875
0.169000000000000011,112.577088215533379412
0.170000000000000012,109.569907986439631031
0.171000000000000013,106.586236570224286879
0.172000000000000014,103.635391001142096457
0.173000000000000015,100.726355907562108882
0.174000000000000016,97.866994039048194054
0.175000000000000017,95.063538723919165818
0.176000000000000018,92.320334946817666832
0.177000000000000018,89.639784493511612595
0.178000000000000019,87.022447122136085795
0.179000000000000020,84.467251425461725489
0.180000000000000021,81.971773926949040856
0.181000000000000022,79.532551486775432181
0.182000000000000023,77.145399198705618460
0.183000000000000024,74.805712904228471416
0.184000000000000025,72.508741782310721646
0.185000000000000026,70.249821943439414440
0.186000000000000026,68.024566465489286315
0.187000000000000027,65.829010857539017820
0.188000000000000028,63.659715591716825145
0.189000000000000029,61.513829205165414749
0.190000000000000030,59.389116664168454918
0.191000000000000031,57.283958323750695740
0.192000000000000032,55.197325026504202583
0.193000000000000033,53.128734770901829165
0.194000000000000034,51.078196035058134328
0.195000000000000034,49.046142345112684779
0.196000000000000035,47.033362091920182024
0.197000000000000036,45.040926975766758744
0.198000000000000037,43.070121834519454751
0.199000000000000038,41.122378013644777184
0.200000000000000039,39.199211885833861402
0.201000000000000040,37.302169635333982001
0.202000000000000041,35.432778993654196142
0.203000000000000042,33.592508250883582832
0.204000000000000042,31.782732569019053415
0.205000000000000043,30.004707386769855049
0.206000000000000044,28.259548524104197043
0.207000000000000045,26.548218463286275437
0.208000000000000046,24.871518194857721085
0.209000000000000047,23.230083965461371776
0.210000000000000048,21.624388243316090552
0.211000000000000049,20.054744220670347232
0.212000000000000050,18.521313195338358071
0.213000000000000050,17.024114210706738248
0.214000000000000051,15.563035381226708154
0.215000000000000052,14.137846384837498448
0.216000000000000053,12.748211662024669266
0.217000000000000054,11.393703920869825197
0.218000000000000055,10.073817606552539772
0.219000000000000056,8.787982050817284119
0.220000000000000057,7.535574070784441858
0.221000000000000058,6.315929836386178664
0.222000000000000058,5.128355871105520158
0.223000000000000059,3.972139091325272542
0.224000000000000060,2.846555825335379986
0.225000000000000061,1.750879783960088698
0.226000000000000062,0.684388981010371156
0.227000000000000063,-0.353628376410506540
0.228000000000000064,-1.363868990008159088
0.229000000000000065,-2.347010513120918684
0.230000000000000066,-3.303708472028890952
0.231000000000000066,-4.234593995979751391
0.232000000000000067,-5.140272281271076160
0.233000000000000068,-6.021321712120332847
0.234000000000000069,-6.878293560378804905
0.235000000000000070,-7.711712187084525105
0.236000000000000071,-8.522075671102401273
0.237000000000000072,-9.309856793400909325
0.238000000000000073,-10.075504309617317134
0.239000000000000073,-10.819444448254218472
0.240000000000000074,-11.542082576945986716
0.241000000000000075,-12.243804984564411242
0.242000000000000076,-12.924980732367540526
0.243000000000000077,-13.585963532817146415
0.244000000000000078,-14.227093620001658891
0.245000000000000079,-14.848699580729903147
0.246000000000000080,-15.451100120243273395
0.247000000000000081,-16.034605741089947628
0.248000000000000081,-16.599520317976992345
0.249000000000000082,-17.146142555347537950
0.250000000000000111,-17.674767318008459682
0.251000000000000112,-18.185686828353674116
0.252000000000000113,-18.679191726597125012
0.253000000000000114,-19.155571992948146942
0.254000000000000115,-19.615117732853942556
0.255000000000000115,-20.058119828304540988
0.256000000000000116,-20.484870459771894247
0.257000000000000117,-20.895663504652258524
0.258000000000000118,-21.290794819122030646
0.259000000000000119,-21.670562411125395386
0.260000000000000120,-22.035266512808263428
0.261000000000000121,-22.385209561117388688
0.262000000000000122,-22.720696095521734748
0.263000000000000123,-23.042032581900066646
0.264000000000000123,-23.349527171599284259
0.265000000000000124,-23.643489404515747765
0.266000000000000125,-23.924229864808019386
0.267000000000000126,-24.192059797526031417
0.268000000000000127,-24.447290694057784322
0.269000000000000128,-24.690233853858259749
0.270000000000000129,-24.921199929453418775
0.271000000000000130,-25.140498461212203551
0.272000000000000131,-25.348437407862746795
0.273000000000000131,-25.545322678202772693
0.274000000000000132,-25.731457668926822180
0.275000000000000133,-25.907142812970516133
0.276000000000000134,-26.072675142259345904
0.277000000000000135,-26.228347868251319142
0.278000000000000136,-26.374449983183968271
0.279000000000000137,-26.511265884477825949
0.280000000000000138,-26.639075024314045947
0.281000000000000139,-26.758151585995552324
0.282000000000000139,-26.868764188318852604
0.283000000000000140,-26.971175618829050791
0.284000000000000141,-27.065642596504538631
0.285000000000000142,-27.152415564118719260
0.286000000000000143,-27.231738510255695473
0.287000000000000144,-27.303848820712460110
0.288000000000000145,-27.368977158803566851
0.289000000000000146,-27.427347373891091564
0.290000000000000147,-27.479176437296416680
0.291000000000000147,-27.524674404604759559
0.292000000000000148,-27.564044403252069060
0.293000000000000149,-27.597482644181354772
0.294000000000000150,-27.625178456273168592
0.295000000000000151,-27.647314342190991709
0.296000000000000152,-27.664066054233224179
0.297000000000000153,-27.675602688751855140
0.298000000000000154,-27.682086797677822432
0.299000000000000155,-27.683674515687563655
0.300000000000000155,-27.680515701549545327
0.301000000000000156,-27.672754092204826293
0.302000000000000157,-27.660527468159664011
0.303000000000000158,-27.643967828799674180
0.304000000000000159,-27.623201576273942237
0.305000000000000160,-27.598349706641442936
0.306000000000000161,-27.569528007021791183
0.307000000000000162,-27.536847257545428391
0.308000000000000163,-27.500413436954893598
0.309000000000000163,-27.460327930768198001
0.310000000000000164,-27.416687740976243504
0.311000000000000165,-27.369585696308092793
0.312000000000000166,-27.319110662161904202
0.313000000000000167,-27.265347749361342977
0.314000000000000168,-27.208378520961367997
0.315000000000000169,-27.148281196388836634
0.316000000000000170,-27.085130852265770329
0.317000000000000171,-27.018999619322265460
0.318000000000000171,-26.949956874865517165
0.319000000000000172,-26.878069430328103806
0.320000000000000173,-26.803401713473430590
0.321000000000000174,-26.726015944889564224
0.322000000000000175,-26.645972308452854804
0.323000000000000176,-26.563329115491683297
0.324000000000000177,-26.478142962426147733
0.325000000000000178,-26.390468881703149862
0.326000000000000179,-26.300360485887722461
0.327000000000000179,-26.207870104809540379
0.328000000000000180,-26.113048915699760499
0.329000000000000181,-26.015947066287615996
0.330000000000000182,-25.916613790856036559
0.331000000000000183,-25.815097519286041461
0.332000000000000184,-25.711445979144883722
0.333000000000000185,-25.605706290897678912
0.334000000000000186,-25.497925056344513450
0.335000000000000187,-25.388148440404428641
0.336000000000000187,-25.276422246386196946
0.337000000000000188,-25.162791984900987785
0.338000000000000189,-25.047302936587026778
0.339000000000000190,-24.930000208827920005
0.340000000000000191,-24.810928786657022727
0.341000000000000192,-24.690133578049945129
0.342000000000000193,-24.567659453813540438
0.343000000000000194,-24.443551282287362625
0.344000000000000195,-24.317853959076717985
0.345000000000000195,-24.190612432041504576
0.346000000000000196,-24.061871721766188159
0.347000000000000197,-23.931676937738348698
0.348000000000000198,-23.800073290463185316
0.349000000000000199,-23.667106099740902181
0.350000000000000200,-23.532820799332430539
0.351000000000000201,-23.397262938236838892
0.352000000000000202,-23.260478178800717330
0.353000000000000203,-23.122512291876731183
0.354000000000000203,-22.983411149243941907
0.355000000000000204,-22.843220713498421759
0.356000000000000205,-22.701987025617437865
0.357000000000000206,-22.559756190395376052
0.358000000000000207,-22.416574359943332695
0.359000000000000208,-22.272487715439076794
0.360000000000000209,-22.127542447307284590
0.361000000000000210,-21.981784734003788628
0.362000000000000210,-21.835260719570861454
0.363000000000000211,-21.688016490124084612
0.364000000000000212,-21.540098049424479143
0.365000000000000213,-21.391551293682564250
0.366000000000000214,-21.242421985734630141
0.367000000000000215,-21.092755728724032593
0.368000000000000216,-20.942597939414305586
0.369000000000000217,-20.791993821253306862
0.370000000000000218,-20.640988337301571676
0.371000000000000218,-20.489626183131125714
0.372000000000000219,-20.337951759794584916
0.373000000000000220,-20.186009146958163285
0.374000000000000221,-20.033842076285694134
0.375000000000000222,-19.881493905154933088
0.376000000000000223,-19.729007590781499459
0.377000000000000224,-19.576425664819758765
0.378000000000000225,-19.423790208504783550
0.379000000000000226,-19.271142828393674762
0.380000000000000226,-19.118524632759807957
0.381000000000000227,-18.965976208687944649
0.382000000000000228,-18.813537599913818354
0.383000000000000229,-18.661248285446884410
0.384000000000000230,-18.509147159010289840
0.385000000000000231,-18.357272509328435461
0.386000000000000232,-18.205662001287656437
0.387000000000000233,-18.054352657992222220
0.388000000000000234,-17.903380843733849304
0.389000000000000234,-17.752782247889662415
0.390000000000000235,-17.602591869759784515
0.391000000000000236,-17.452844004353206486
0.392000000000000237,-17.303572229126807258
0.393000000000000238,-17.154809391680522879
0.394000000000000239,-17.006587598408067663
0.395000000000000240,-16.858938204101043823
0.396000000000000241,-16.711891802501298798
0.397000000000000242,-16.565478217794481708
0.398000000000000242,-16.419726497036020163
0.399000000000000243,-16.274664903498411661
0.400000000000000244,-16.130320910927171241
0.401000000000000245,-15.986721198691665080
0.402000000000000246,-15.843891647814933421
0.403000000000000247,-15.701857337865543940
0.404000000000000248,-15.560642544693745748
0.405000000000000249,-15.420270738992446269
0.406000000000000250,-15.280764585663058952
0.407000000000000250,-15.142145943965237720
0.408000000000000251,-15.004435868428739553
0.409000000000000252,-14.867654610505150359
0.410000000000000253,-14.731821620936411676
0.411000000000000254,-14.596955552816947232
0.412000000000000255,-14.463074265325342793
0.413000000000000256,-14.330194828101827653
0.414000000000000257,-14.198333526246807779
0.415000000000000258,-14.067505865916340113
0.416000000000000258,-13.937726580489700368
0.417000000000000259,-13.809009637284470173
0.418000000000000260,-13.681368244794549938
0.419000000000000261,-13.554814860426446899
0.420000000000000262,-13.429361198709534264
0.421000000000000263,-13.305018239955916926
0.422000000000000264,-13.181796239345846544
0.423000000000000265,-13.059704736414872173
0.424000000000000266,-12.938752564919365540
0.425000000000000266,-12.818947863056944669
0.426000000000000267,-12.700298084019175704
0.427000000000000268,-12.582810006853970108
0.428000000000000269,-12.466489747615687733
0.429000000000000270,-12.351342770781275959
0.430000000000000271,-12.237373900911199698
0.431000000000000272,-12.124587334534616900
0.432000000000000273,-12.012986652238332397
0.433000000000000274,-11.902574830940062967
0.434000000000000274,-11.793354256326519902
0.435000000000000275,-11.685326735437790546
0.436000000000000276,-11.578493509379821802
0.437000000000000277,-11.472855266147220732
0.438000000000000278,-11.368412153539408038
0.439000000000000279,-11.265163792153616740
0.440000000000000280,-11.163109288438464617
0.441000000000000281,-11.062247247792914351
0.442000000000000282,-10.962575787695620022
0.443000000000000282,-10.864092550850125818
0.444000000000000283,-10.766794718332347358
0.445000000000000284,-10.670679022726897500
0.446000000000000285,-10.575741761239417116
0.447000000000000286,-10.481978808773035894
0.448000000000000287,-10.389385630956761375
0.449000000000000288,-10.297957297115164721
0.450000000000000289,-10.207688493168253885
0.451000000000000290,-10.118573534451643425
0.452000000000000290,-10.030606378447297189
0.453000000000000291,-9.943780637415617463
0.454000000000000292,-9.858089590920288359
0.455000000000000293,-9.773526198237533436
0.456000000000000294,-9.690083110642177644
0.457000000000000295,-9.607752683563045792
0.458000000000000296,-9.526526988600940271
0.459000000000000297,-9.446397825402748083
0.460000000000000298,-9.367356733385552303
0.461000000000000298,-9.289395003305303433
0.462000000000000299,-9.212503688664693158
0.463000000000000300,-9.136673616955444999
0.464000000000000301,-9.061895400730602290
0.465000000000000302,-8.988159448502704763
0.466000000000000303,-8.915455975464078975
0.467000000000000304,-8.843775014025862191
0.468000000000000305,-8.773106424172777196
0.469000000000000306,-8.703439903630755481
0.470000000000000306,-8.634764997845142176
0.471000000000000307,-8.567071109767162795
0.472000000000000308,-8.500347509447035321
0.473000000000000309,-8.434583343431878433
0.474000000000000310,-8.369767643967319870
0.475000000000000311,-8.305889338001621880
0.476000000000000312,-8.242937255991686030
0.477000000000000313,-8.180900140510070528
0.478000000000000314,-8.119766654652973870
0.479000000000000314,-8.059525390248897025
0.480000000000000315,-8.000164875868028602
0.481000000000000316,-7.941673584632786387
0.482000000000000317,-7.884039941829760423
0.483000000000000318,-7.827252332323865858
0.484000000000000319,-7.771299107775388570
0.485000000000000320,-7.716168593661029362
0.486000000000000321,-7.661849096099908607
0.487000000000000322,-7.608328908485914255
0.488000000000000322,-7.555596317927725458
0.489000000000000323,-7.503639611498084783
0.490000000000000324,-7.452447082293969238
0.491000000000000325,-7.402007035309424055
0.492000000000000326,-7.352307793122844437
0.493000000000000327,-7.303337701400868021
0.494000000000000328,-7.255085134220761844
0.495000000000000329,-7.207538499213581140
0.496000000000000330,-7.160686242530236889
0.497000000000000330,-7.114516853632911086
0.498000000000000331,-7.069018869914037495
0.499000000000000332,-7.024180881145454691
0.500000000000000333,-6.979991533760136591
0.501000000000000334,-6.936439534969048637
0.502000000000000335,-6.893513656715785309
0.503000000000000336,-6.851202739471636605
0.504000000000000337,-6.809495695873694743
0.505000000000000338,-6.768381514208785532
0.506000000000000338,-6.727849261745975085
0.507000000000000339,-6.687888087920356384
0.508000000000000340,-6.648487227370983632
0.509000000000000341,-6.609636002835746815
0.510000000000000342,-6.571323827905972692
0.511000000000000343,-6.533540209643648566
0.512000000000000344,-6.496274751064040842
0.513000000000000345,-6.459517153486622476
0.514000000000000346,-6.423257218757152387
0.515000000000000346,-6.387484851343669945
0.516000000000000347,-6.352190060309337305
0.517000000000000348,-6.317362961164983304
0.518000000000000349,-6.282993777604009011
0.519000000000000350,-6.249072843122679188
0.520000000000000351,-6.215590602528457076
0.521000000000000352,-6.182537613339221139
0.522000000000000353,-6.149904547076107342
0.523000000000000353,-6.117682190452693014
0.524000000000000354,-6.085861446463354696
0.525000000000000355,-6.054433335373344605
0.526000000000000356,-6.023388995613355057
0.527000000000000357,-5.992719684581237161
0.528000000000000358,-5.962416779353379326
0.529000000000000359,-5.932471777308487404
0.530000000000000360,-5.902876296666163647
0.531000000000000361,-5.873622076942983661
0.532000000000000361,-5.844700979328402823
0.533000000000000362,-5.816104986983082981
0.534000000000000363,-5.787826205261997536
0.535000000000000364,-5.759856861864729893
0.536000000000000365,-5.732189306915327798
0.537000000000000366,-5.704816012974056605
0.538000000000000367,-5.677729574983245264
0.539000000000000368,-5.650922710149655082
0.540000000000000369,-5.624388257765351895
0.541000000000000369,-5.598119178969483301
0.542000000000000370,-5.572108556452934458
0.543000000000000371,-5.546349594108010983
0.544000000000000372,-5.520835616625275222
0.545000000000000373,-5.495560069039432172
0.546000000000000374,-5.470516516226367365
0.547000000000000375,-5.445698642353159258
0.548000000000000376,-5.421100250283133803
0.549000000000000377,-5.396715260937660297
0.550000000000000377,-5.372537712616597183
0.551000000000000378,-5.348561760279187283
0.552000000000000379,-5.324781674787122832
0.553000000000000380,-5.301191842111491859
0.554000000000000381,-5.277786762505291662
0.555000000000000382,-5.254561049643171167
0.556000000000000383,-5.231509429729898741
0.557000000000000384,-5.208626740579259007
0.558000000000000385,-5.185907930664789944
0.559000000000000385,-5.163348058143895081
0.560000000000000386,-5.140942289856751835
0.561000000000000387,-5.118685900301476188
0.562000000000000388,-5.096574270586859967
0.563000000000000389,-5.074602887364081383
0.564000000000000390,-5.052767341738626072
0.565000000000000391,-5.031063328163778436
0.566000000000000392,-5.009486643316829912
0.567000000000000393,-4.988033184959287603
0.568000000000000393,-4.966698950782172162
0.569000000000000394,-4.945480037237624416
0.570000000000000395,-4.924372638357875864
0.571000000000000396,-4.903373044562630234
0.572000000000000397,-4.882477641456004491
0.573000000000000398,-4.861682908613896181
0.574000000000000399,-4.840985418362875770
0.575000000000000400,-4.820381834551476175
0.576000000000000401,-4.799868911314828956
0.577000000000000401,-4.779443491833578861
0.578000000000000402,-4.759102507087842326
0.579000000000000403,-4.738842974607114122
0.580000000000000404,-4.718661997216947235
0.581000000000000405,-4.698556761783105884
0.582000000000000406,-4.678524537954018570
0.583000000000000407,-4.658562676902215927
0.584000000000000408,-4.638668610065487030
0.585000000000000409,-4.618839847888377648
0.586000000000000409,-4.599073978564759635
0.587000000000000410,-4.579368666782031028
0.588000000000000411,-4.559721652467574771
0.589000000000000412,-4.540130749538091592
0.590000000000000413,-4.520593844652288418
0.591000000000000414,-4.501108895967542267
0.592000000000000415,-4.481673931901013930
0.593000000000000416,-4.462287049895695468
0.594000000000000417,-4.442946415191884491
0.595000000000000417,-4.423650259604577251
0.596000000000000418,-4.404396880307083428
0.597000000000000419,-4.385184638621490549
0.598000000000000420,-4.366011958816137906
0.599000000000000421,-4.346877326910675521
0.600000000000000422,-4.327779289488936421
0.601000000000000423,-4.308716452520053863
0.602000000000000424,-4.289687480188082880
0.603000000000000425,-4.270691093730492938
0.604000000000000425,-4.251726070285781311
0.605000000000000426,-4.232791241750497591
0.606000000000000427,-4.213885493646022162
0.607000000000000428,-4.195007763995119987
0.608000000000000429,-4.176157042208872738
0.609000000000000430,-4.157332367983775256
0.610000000000000431,-4.138532830209620705
0.611000000000000432,-4.119757565888046535
0.612000000000000433,-4.101005759062081424
0.613000000000000433,-4.082276639756867276
0.614000000000000434,-4.063569482931653098
0.615000000000000435,-4.044883607443191309
0.616000000000000436,-4.026218375020757634
0.617000000000000437,-4.007573189252879864
0.618000000000000438,-3.988947494585828757
0.619000000000000439,-3.970340775334032735
0.620000000000000440,-3.951752554702529174
0.621000000000000441,-3.933182393821468281
0.622000000000000441,-3.914629890792802769
0.623000000000000442,-3.896094679749167788
0.624000000000000443,-3.877576429925066126
0.625000000000000444,-3.859074844740397303
0.626000000000000445,-3.840589660896286173
0.627000000000000446,-3.822120647483382871
0.628000000000000447,-3.803667605102543980
0.629000000000000448,-3.785230364997945962
0.630000000000000449,-3.766808788202668179
0.631000000000000449,-3.748402764696679323
0.632000000000000450,-3.730012212577319186
0.633000000000000451,-3.711637077242185168
0.634000000000000452,-3.693277330584430640
0.635000000000000453,-3.674932970200471605
0.636000000000000454,-3.656604018610034590
0.637000000000000455,-3.638290522488582646
0.638000000000000456,-3.619992551911970224
0.639000000000000457,-3.601710199613404662
0.640000000000000457,-3.583443580252597460
0.641000000000000458,-3.565192829697017451
0.642000000000000459,-3.546958104315331983
0.643000000000000460,-3.528739580282761690
0.644000000000000461,-3.510537452898511823
0.645000000000000462,-3.492351935915034122
0.646000000000000463,-3.474183260879125434
0.647000000000000464,-3.456031676484786708
0.648000000000000465,-3.437897447937765971
0.649000000000000465,-3.419780856331642749
0.650000000000000466,-3.401682198035479221
0.651000000000000467,-3.383601784092829412
0.652000000000000468,-3.365539939632118838
0.653000000000000469,-3.347497003288208539
0.654000000000000470,-3.329473326635160824
0.655000000000000471,-3.311469273629986443
0.656000000000000472,-3.293485220067368768
0.657000000000000473,-3.275521553045192658
0.658000000000000473,-3.257578670440858026
0.659000000000000474,-3.239656980398183173
0.660000000000000475,-3.221756900824858771
0.661000000000000476,-3.203878858900288229
0.662000000000000477,-3.186023290593784196
0.663000000000000478,-3.168190640192903196
0.664000000000000479,-3.150381359841945450
0.665000000000000480,-3.132595909090311714
0.666000000000000481,-3.114834754450872545
0.667000000000000481,-3.097098368967911686
0.668000000000000482,-3.079387231794863400
0.669000000000000483,-3.061701827781447172
0.670000000000000484,-3.044042647070255292
0.671000000000000485,-3.026410184702606809
0.672000000000000486,-3.008804940233556824
0.673000000000000487,-2.991227417355998064
0.674000000000000488,-2.973678123533623374
0.675000000000000488,-2.956157569642729577
0.676000000000000489,-2.938666269622751237
0.677000000000000490,-2.921204740135292521
0.678000000000000491,-2.903773500231682902
0.679000000000000492,-2.886373071028839998
0.680000000000000493,-2.869003975393331185
0.681000000000000494,-2.851666737633598459
0.682000000000000495,-2.834361883200087195
0.683000000000000496,-2.817089938393317006
0.684000000000000496,-2.799851430079640213
0.685000000000000497,-2.782646885414677307
0.686000000000000498,-2.765476831574243288
0.687000000000000499,-2.748341795492684092
0.688000000000000500,-2.731242303608477862
0.689000000000000501,-2.714178881617038464
0.690000000000000502,-2.697152054230556484
0.691000000000000503,-2.680162344944773789
0.692000000000000504,-2.663210275812587291
0.693000000000000504,-2.646296367224418411
0.694000000000000505,-2.629421137695077348
0.695000000000000506,-2.612585103657254937
0.696000000000000507,-2.595788779261290813
0.697000000000000508,-2.579032676181260975
0.698000000000000509,-2.562317303427251503
0.699000000000000510,-2.545643167163621712
0.700000000000000511,-2.529010770533300700
0.701000000000000512,-2.512420613487861942
0.702000000000000512,-2.495873192623373704
0.703000000000000513,-2.479369001021872521
0.704000000000000514,-2.462908528098373573
0.705000000000000515,-2.446492259453306950
0.706000000000000516,-2.430120676730285201
0.707000000000000517,-2.413794257479103145
0.708000000000000518,-2.397513475023841600
0.709000000000000519,-2.381278798336059488
0.710000000000000520,-2.365090691912842935
0.711000000000000520,-2.348949615659761125
0.712000000000000521,-2.332856024778518833
0.713000000000000522,-2.316810369659262570
0.714000000000000523,-2.300813095777485717
0.715000000000000524,-2.284864643595310163
0.716000000000000525,-2.268965448467240797
0.717000000000000526,-2.253115940550121543
0.718000000000000527,-2.237316544717318667
0.719000000000000528,-2.221567680477000373
0.720000000000000528,-2.205869761894473591
0.721000000000000529,-2.190223197518349263
0.722000000000000530,-2.174628390310703541
0.723000000000000531,-2.159085737580865416
0.724000000000000532,-2.143595630922972894
0.725000000000000533,-2.128158456157117406
0.726000000000000534,-2.112774593273962331
0.727000000000000535,-2.097444416382867605
0.728000000000000536,-2.082168293663324121
0.729000000000000536,-2.066946587319711703
0.730000000000000537,-2.051779653539264281
0.731000000000000538,-2.036667842453134813
0.732000000000000539,-2.021611498100577720
0.733000000000000540,-2.006610958396082278
0.734000000000000541,-1.991666555099438796
0.735000000000000542,-1.976778613788635397
0.736000000000000543,-1.961947453835579669
0.737000000000000544,-1.947173388384459525
0.738000000000000544,-1.932456724332831666
0.739000000000000545,-1.917797762315192944
0.740000000000000546,-1.903196796689147874
0.741000000000000547,-1.888654115523948906
0.742000000000000548,-1.874170000591513841
0.743000000000000549,-1.859744727359653904
0.744000000000000550,-1.845378564987628423
0.745000000000000551,-1.831071776323908606
0.746000000000000552,-1.816824617906033668
0.747000000000000552,-1.802637339962603891
0.748000000000000553,-1.788510186417249015
0.749000000000000554,-1.774443394894583692
0.750000000000000555,-1.760437196728110054
0.751000000000000556,-1.746491816969908184
0.752000000000000557,-1.732607474402221737
0.753000000000000558,-1.718784381550693796
0.754000000000000559,-1.705022744699406401
0.755000000000000560,-1.691322763907489257
0.756000000000000560,-1.677684633027394012
0.757000000000000561,-1.664108539724664215
0.758000000000000562,-1.650594665499233615
0.759000000000000563,-1.637143185708201498
0.760000000000000564,-1.623754269589988697
0.761000000000000565,-1.610428080289871389
0.762000000000000566,-1.597164774886826288
0.763000000000000567,-1.583964504421678576
0.764000000000000568,-1.570827413926429772
0.765000000000000568,-1.557753642454861476
0.766000000000000569,-1.544743323114195377
0.767000000000000570,-1.531796583097954301
0.768000000000000571,-1.518913543719790038
0.769000000000000572,-1.506094320448461588
0.770000000000000573,-1.493339022943703132
0.771000000000000574,-1.480647755093123852
0.772000000000000575,-1.468020615049972166
0.773000000000000576,-1.455457695271811902
0.774000000000000576,-1.442959082560042017
0.775000000000000577,-1.430524858100248320
0.776000000000000578,-1.418155097503274398
0.777000000000000579,-1.405849870847136307
0.778000000000000580,-1.393609242719552999
0.779000000000000581,-1.381433272261236578
0.780000000000000582,-1.369322013209780753
0.781000000000000583,-1.357275513944224521
0.782000000000000584,-1.345293817530154090
0.783000000000000584,-1.333376961765400326
0.784000000000000585,-1.321524979226280871
0.785000000000000586,-1.309737897314307009
0.786000000000000587,-1.298015738303424316
0.787000000000000588,-1.286358519387677424
0.788000000000000589,-1.274766252729276239
0.789000000000000590,-1.263238945507148880
0.790000000000000591,-1.251776599965774839
0.791000000000000592,-1.240379213464444907
0.792000000000000592,-1.229046778526811767
0.793000000000000593,-1.217779282890764092
0.794000000000000594,-1.206576709558578653
0.795000000000000595,-1.195439036847359748
0.796000000000000596,-1.184366238439662045
0.797000000000000597,-1.173358283434414506
0.798000000000000598,-1.162415136397972670
0.799000000000000599,-1.151536757415393630
0.800000000000000600,-1.140723102141866452
0.801000000000000600,-1.129974121854269598
0.802000000000000601,-1.119289763502865132
0.803000000000000602,-1.108669969763093288
0.804000000000000603,-1.098114679087470069
0.805000000000000604,-1.087623825757543905
0.806000000000000605,-1.077197339935878961
0.807000000000000606,-1.066835147718160126
0.808000000000000607,-1.056537171185219837
0.809000000000000608,-1.046303328455141957
0.810000000000000608,-1.036133533735361656
0.811000000000000609,-1.026027697374666925
0.812000000000000610,-1.015985725915280469
0.813000000000000611,-1.006007522144780841
0.814000000000000612,-0.996092985148036347
0.815000000000000613,-0.986242010359056898
0.816000000000000614,-0.976454489612699206
0.817000000000000615,-0.966730311196344672
0.818000000000000616,-0.957069359901438710
0.819000000000000616,-0.947471517074889191
0.820000000000000617,-0.937936660670345090
0.821000000000000618,-0.928464665299341463
0.822000000000000619,-0.919055402282291434
0.823000000000000620,-0.909708739699281788
0.824000000000000621,-0.900424542440713571
0.825000000000000622,-0.891202672257772832
0.826000000000000623,-0.882042987812689305
0.827000000000000624,-0.872945344728793593
0.828000000000000624,-0.863909595640377503
0.829000000000000625,-0.854935590242308807
0.830000000000000626,-0.846023175339452593
0.831000000000000627,-0.837172194895827504
0.832000000000000628,-0.828382490083564127
0.833000000000000629,-0.819653899331542091
0.834000000000000630,-0.810986258373844193
0.835000000000000631,-0.802379400297908552
0.836000000000000631,-0.793833155592418849
0.837000000000000632,-0.785347352194931458
0.838000000000000633,-0.776921815539192262
0.839000000000000634,-0.768556368602204998
0.840000000000000635,-0.760250831950990080
0.841000000000000636,-0.752005023789018345
0.842000000000000637,-0.743818760002414980
0.843000000000000638,-0.735691854205769324
0.844000000000000639,-0.727624117787697311
0.845000000000000639,-0.719615359956067513
0.846000000000000640,-0.711665387782880909
0.847000000000000641,-0.703774006248896855
0.848000000000000642,-0.695941018287846047
0.849000000000000643,-0.688166224830358941
0.850000000000000644,-0.680449424847593631
0.851000000000000645,-0.672790415394420527
0.852000000000000646,-0.665188991652392536
0.853000000000000647,-0.657644946972280264
0.854000000000000647,-0.650158072916290353
0.855000000000000648,-0.642728159299948976
0.856000000000000649,-0.635354994233622294
0.857000000000000650,-0.628038364163680862
0.858000000000000651,-0.620778053913302319
0.859000000000000652,-0.613573846722936245
0.860000000000000653,-0.606425524290407081
0.861000000000000654,-0.599332866810623144
0.862000000000000655,-0.592295653014987766
0.863000000000000655,-0.585313660210371678
0.864000000000000656,-0.578386664317789068
0.865000000000000657,-0.571514439910651539
0.866000000000000658,-0.564696760252697549
0.867000000000000659,-0.557933397335545811
0.868000000000000660,-0.551224121915848686
0.869000000000000661,-0.544568703552116729
0.870000000000000662,-0.537966910641154095
0.871000000000000663,-0.531418510454141901
0.872000000000000663,-0.524923269172314022
0.873000000000000664,-0.518480951922311362
0.874000000000000665,-0.512091322811121130
0.875000000000000666,-0.505754144960689045
0.876000000000000667,-0.499469180542117475
0.877000000000000668,-0.493236190809528297
0.878000000000000669,-0.487054936133552108
0.879000000000000670,-0.480925176034413593
0.880000000000000671,-0.474846669214706030
0.881000000000000671,-0.468819173591738303
0.882000000000000672,-0.462842446329566504
0.883000000000000673,-0.456916243870618910
0.884000000000000674,-0.451040321966983737
0.885000000000000675,-0.445214435711303314
0.886000000000000676,-0.439438339567340908
0.887000000000000677,-0.433711787400151316
0.888000000000000678,-0.428034532505893572
0.889000000000000679,-0.422406327641311641
0.890000000000000679,-0.416826925052817376
0.891000000000000680,-0.411296076505248298
0.892000000000000681,-0.405813533310240504
0.893000000000000682,-0.400379046354261803
0.894000000000000683,-0.394992366126277750
0.895000000000000684,-0.389653242745093831
0.896000000000000685,-0.384361425986305183
0.897000000000000686,-0.379116665308924017
0.898000000000000687,-0.373918709881666145
0.899000000000000687,-0.368767308608850042
0.900000000000000688,-0.363662210155998422
0.901000000000000689,-0.358603162975063283
0.902000000000000690,-0.353589915329337479
0.903000000000000691,-0.348622215317998529
0.904000000000000692,-0.343699810900330416
0.905000000000000693,-0.338822449919611024
0.906000000000000694,-0.333989880126666194
0.907000000000000695,-0.329201849203065611
0.908000000000000695,-0.324458104784047907
0.909000000000000696,-0.319758394481041042
0.910000000000000697,-0.315102465903931150
0.911000000000000698,-0.310490066682948762
0.912000000000000699,-0.305920944490266522
0.913000000000000700,-0.301394847061286053
0.914000000000000701,-0.296911522215550061
0.915000000000000702,-0.292470717877425179
0.916000000000000703,-0.288072182096392959
0.917000000000000703,-0.283715663067084733
0.918000000000000704,-0.279400909148975862
0.919000000000000705,-0.275127668885780885
0.920000000000000706,-0.270895691024569008
0.921000000000000707,-0.266704724534532589
0.922000000000000708,-0.262554518625490230
0.923000000000000709,-0.258444822766104032
0.924000000000000710,-0.254375386701743589
0.925000000000000711,-0.250345960472130979
0.926000000000000711,-0.246356294428640016
0.927000000000000712,-0.242406139251335251
0.928000000000000713,-0.238495245965720082
0.929000000000000714,-0.234623365959206659
0.930000000000000715,-0.230790250997284480
0.931000000000000716,-0.226995653239432466
0.932000000000000717,-0.223239325254761145
0.933000000000000718,-0.219521020037348080
0.934000000000000719,-0.215840491021339786
0.935000000000000719,-0.212197492095764384
0.936000000000000720,-0.208591777619076962
0.937000000000000721,-0.205023102433452925
0.938000000000000722,-0.201491221878817572
0.939000000000000723,-0.197995891806602375
0.940000000000000724,-0.194536868593265966
0.941000000000000725,-0.191113909153542982
0.942000000000000726,-0.187726770953462185
0.943000000000000727,-0.184375212023082907
0.944000000000000727,-0.181058990969024503
0.945000000000000728,-0.177777866986727651
0.946000000000000729,-0.174531599872459808
0.947000000000000730,-0.171319950035128149
0.948000000000000731,-0.168142678507797044
0.949000000000000732,-0.164999546959026244
0.950000000000000733,-0.161890317703925313
0.951000000000000734,-0.158814753715037477
0.952000000000000735,-0.155772618632930487
0.953000000000000735,-0.152763676776602797
0.954000000000000736,-0.149787693153667495
0.955000000000000737,-0.146844433470297936
0.956000000000000738,-0.143933664140972528
0.957000000000000739,-0.141055152297984321
0.958000000000000740,-0.138208665800755803
0.959000000000000741,-0.135393973244933019
0.960000000000000742,-0.132610843971279896
0.961000000000000743,-0.129859048074349420
0.962000000000000743,-0.127138356410964409
0.963000000000000744,-0.124448540608491795
0.964000000000000745,-0.121789373072932722
0.965000000000000746,-0.119160626996782620
0.966000000000000747,-0.116562076366725331
0.967000000000000748,-0.113993495971116340
0.968000000000000749,-0.111454661407304048
0.969000000000000750,-0.108945349088713478
0.970000000000000751,-0.106465336251807013
0.971000000000000751,-0.104014400962796752
0.972000000000000752,-0.101592322124212722
0.973000000000000753,-0.099198879481313049
0.974000000000000754,-0.096833853628249436
0.975000000000000755,-0.094497026014125976
0.976000000000000756,-0.092188178948843430
0.977000000000000757,-0.089907095608792356
0.978000000000000758,-0.087653560042356013
0.979000000000000759,-0.085427357175295066
0.980000000000000759,-0.083228272815893886
0.981000000000000760,-0.081056093660009612
0.982000000000000761,-0.078910607295942292
0.983000000000000762,-0.076791602209123483
0.984000000000000763,-0.074698867786669607
0.985000000000000764,-0.072632194321793866
0.986000000000000765,-0.070591373018034115
0.987000000000000766,-0.068576195993348937
0.988000000000000766,-0.066586456284064122
0.989000000000000767,-0.064621947848685274
0.990000000000000768,-0.062682465571538296
0.991000000000000769,-0.060767805266282823
0.992000000000000770,-0.058877763679286856
0.993000000000000771,-0.057012138492874898
0.994000000000000772,-0.055170728328400198
0.995000000000000773,-0.053353332749236058
0.996000000000000774,-0.051559752263583156
0.997000000000000774,-0.049789788327181124
0.998000000000000775,-0.048043243345877382
0.999000000000000776,-0.046319920678069337
1.000000000000000666,-0.044619624637018976
1.001000000000000778,-0.042942160493056526
1.002000000000000668,-0.041287334475642846
1.003000000000000780,-0.039654953775322355
1.004000000000000670,-0.038044826545563556
1.005000000000000782,-0.036456761904471127
1.006000000000000671,-0.034890569936396998
1.007000000000000783,-0.033346061693407973
1.008000000000000673,-0.031823049196687721
1.009000000000000785,-0.030321345437790997
1.010000000000000675,-0.028840764379808759
1.011000000000000787,-0.027381120958408868
1.012000000000000677,-0.025942231082806688
1.013000000000000789,-0.024523911636591726
1.014000000000000679,-0.023125980478469626
1.015000000000000790,-0.021748256442918279
1.016000000000000680,-0.020390559340728705
1.017000000000000792,-0.019052709959436830
1.018000000000000682,-0.017734530063700255
1.019000000000000794,-0.016435842395531849
1.020000000000000684,-0.015156470674485435
1.021000000000000796,-0.013896239597720021
1.022000000000000686,-0.012654974839982635
1.023000000000000798,-0.011432503053514865
1.024000000000000687,-0.010228651867850547
1.025000000000000799,-0.009043249889555488
1.026000000000000689,-0.007876126701859587
1.027000000000000801,-0.006727112864216680
1.028000000000000691,-0.005596039911792250
1.029000000000000803,-0.004482740354850257
1.030000000000000693,-0.003387047678078633
1.031000000000000805,-0.002308796339841024
1.032000000000000695,-0.001247821771326998
1.033000000000000806,-0.000203960375672776
1.034000000000000696,0.000822950473038511
1.035000000000000808,0.001833072430822438
1.036000000000000698,0.002826566184913048
1.037000000000000810,0.003803591454930766
1.038000000000000700,0.004764306994179771
1.039000000000000812,0.005708870590941903
1.040000000000000702,0.006637439069871770
1.041000000000000814,0.007550168293442858
1.042000000000000703,0.008447213163489406
1.043000000000000815,0.009328727622752086
1.044000000000000705,0.010194864656527833
1.045000000000000817,0.011045776294379004
1.046000000000000707,0.011881613611869313
1.047000000000000819,0.012702526732382091
1.048000000000000709,0.013508664829004910
1.049000000000000821,0.014300176126422750
1.050000000000000711,0.015077207902931697
1.051000000000000822,0.015839906492430344
1.052000000000000712,0.016588417286527667
1.053000000000000824,0.017322884736674076
1.054000000000000714,0.018043452356326536
1.055000000000000826,0.018750262723195375
1.056000000000000716,0.019443457481506367
1.057000000000000828,0.020123177344342508
1.058000000000000718,0.020789562095999289
1.059000000000000830,0.021442750594407960
1.060000000000000719,0.022082880773579852
1.061000000000000831,0.022710089646128254
1.062000000000000721,0.023324513305790821
1.063000000000000833,0.023926286930013189
1.064000000000000723,0.024515544782588168
1.065000000000000835,0.025092420216300933
1.066000000000000725,0.025657045675624414
1.067000000000000837,0.026209552699481508
1.068000000000000727,0.026750071923981222
1.069000000000000838,0.027278733085259764
1.070000000000000728,0.027795665022300263
1.071000000000000840,0.028300995679820397
1.072000000000000730,0.028794852111173119
1.073000000000000842,0.029277360481292529
1.074000000000000732,0.029748646069670009
1.075000000000000844,0.030208833273345347
1.076000000000000734,0.030658045609945533
1.077000000000000846,0.031096405720749572
1.078000000000000735,0.031524035373765046
1.079000000000000847,0.031941055466857729
1.080000000000000737,0.032347586030877944
1.081000000000000849,0.032743746232851922
1.082000000000000739,0.033129654379153196
1.083000000000000851,0.033505427918733698
1.084000000000000741,0.033871183446354036
1.085000000000000853,0.034227036705863509
1.086000000000000743,0.034573102593472384
1.087000000000000854,0.034909495161069969
1.088000000000000744,0.035236327619538522
1.089000000000000856,0.035553712342130207
1.090000000000000746,0.035861760867810170
1.091000000000000858,0.036160583904651003
1.092000000000000748,0.036450291333250430
1.093000000000000860,0.036730992210138612
1.094000000000000750,0.037002794771233728
1.095000000000000862,0.037265806435290996
1.096000000000000751,0.037520133807375636
1.097000000000000863,0.037765882682361973
1.098000000000000753,0.038003158048421609
1.099000000000000865,0.038232064090546886
1.100000000000000755,0.038452704194094009
1.101000000000000867,0.038665180948310937
1.102000000000000757,0.038869596149900085
1.103000000000000869,0.039066050806581633
1.104000000000000759,0.039254645140693586
1.105000000000000870,0.039435478592751219
1.106000000000000760,0.039608649825078480
1.107000000000000872,0.039774256725400692
1.108000000000000762,0.039932396410464248
1.109000000000000874,0.040083165229679626
1.110000000000000764,0.040226658768745691
1.111000000000000876,0.040362971853307006
1.112000000000000766,0.040492198552594796
1.113000000000000878,0.040614432183098528
1.114000000000000767,0.040729765312217836
1.115000000000000879,0.040838289761954395
1.116000000000000769,0.040940096612574951
1.117000000000000881,0.041035276206301471
1.118000000000000771,0.041123918150997973
1.119000000000000883,0.041206111323863349
1.120000000000000773,0.041281943875121845
1.121000000000000885,0.041351503231738612
1.122000000000000774,0.041414876101109180
1.123000000000000886,0.041472148474770348
1.124000000000000776,0.041523405632102647
1.125000000000000888,0.041568732144056771
1.126000000000000778,0.041608211876851632
1.127000000000000890,0.041641927995679742
1.128000000000000780,0.041669962968449201
1.129000000000000892,0.041692398569471434
1.130000000000000782,0.041709315883190601
1.131000000000000894,0.041720795307890919
1.132000000000000783,0.041726916559420346
1.133000000000000895,0.041727758674884374
1.134000000000000785,0.041723400016392673
1.135000000000000897,0.041713918274725904
1.136000000000000787,0.041699390473085698
1.137000000000000899,0.041679892970770946
1.138000000000000789,0.041655501466909529
1.139000000000000901,0.041626291004125425
1.140000000000000790,0.041592335972269259
1.141000000000000902,0.041553710112109121
1.142000000000000792,0.041510486519004283
1.143000000000000904,0.041462737646607906
1.144000000000000794,0.041410535310545275
1.145000000000000906,0.041353950692111105
1.146000000000000796,0.041293054341909927
1.147000000000000908,0.041227916183559435
1.148000000000000798,0.041158605517338666
1.149000000000000909,0.041085191023850762
1.150000000000000799,0.041007740767684431
1.151000000000000689,0.040926322201050983
1.152000000000000801,0.040841002167431785
1.153000000000000913,0.040751846905216514
1.154000000000000803,0.040658922051328684
1.155000000000000693,0.040562292644856633
1.156000000000000805,0.040462023130650775
1.157000000000000917,0.040358177362956459
1.158000000000000806,0.040250818608994987
1.159000000000000696,0.040140009552569453
1.160000000000000808,0.040025812297647234
1.161000000000000920,0.039908288371936607
1.162000000000000810,0.039787498730452467
1.163000000000000700,0.039663503759094457
1.164000000000000812,0.039536363278172296
1.165000000000000924,0.039406136545982545
1.166000000000000814,0.039272882262316795
1.167000000000000703,0.039136658572003609
1.168000000000000815,0.038997523068417750
1.169000000000000927,0.038855532796998396
1.170000000000000817,0.038710744258728717
1.171000000000000707,0.038563213413652729
1.172000000000000819,0.038412995684323402
1.173000000000000931,0.038260145959291336
1.174000000000000821,0.038104718596566431
1.175000000000000711,0.037946767427048500
1.176000000000000822,0.037786345757979269
1.177000000000000934,0.037623506376368146
1.178000000000000824,0.037458301552407765
1.179000000000000714,0.037290783042883822
1.180000000000000826,0.037121002094558819
1.181000000000000938,0.036949009447574933
1.182000000000000828,0.036774855338813986
1.183000000000000718,0.036598589505261479
1.184000000000000830,0.036420261187360380
1.185000000000000941,0.036239919132357100
1.186000000000000831,0.036057611597609521
1.187000000000000721,0.035873386353926583
1.188000000000000833,0.035687290688854720
1.189000000000000945,0.035499371409980995
1.190000000000000835,0.035309674848203687
1.191000000000000725,0.035118246861025403
1.192000000000000837,0.034925132835764816
1.193000000000000949,0.034730377692854079
1.194000000000000838,0.034534025889024753
1.195000000000000728,0.034336121420561715
1.196000000000000840,0.034136707826489511
1.197000000000000952,0.033935828191770254
1.198000000000000842,0.033733525150498635
1.199000000000000732,0.033529840889045967
1.200000000000000844,0.033324817149256294
1.201000000000000956,0.033118495231542575
1.202000000000000846,0.032910915998060619
1.203000000000000735,0.032702119875793703
1.204000000000000847,0.032492146859687987
1.205000000000000959,0.032281036515713346
1.206000000000000849,0.032068827983969275
1.207000000000000739,0.031855559981739182
1.208000000000000851,0.031641270806541569
1.209000000000000963,0.031425998339169467
1.210000000000000853,0.031209780046723500
1.211000000000000743,0.030992652985619762
1.212000000000000854,0.030774653804589002
1.213000000000000966,0.030555818747667596
1.214000000000000856,0.030336183657155808
1.215000000000000746,0.030115783976607496
1.216000000000000858,0.029894654753731285
1.217000000000000970,0.029672830643369331
1.218000000000000860,0.029450345910386033
1.219000000000000750,0.029227234432577263
1.220000000000000862,0.029003529703571933
1.221000000000000973,0.028779264835703124
1.222000000000000863,0.028554472562869127
1.223000000000000753,0.028329185243393850
1.224000000000000865,0.028103434862852252
1.225000000000000977,0.027877253036896681
1.226000000000000867,0.027650671014073681
1.227000000000000757,0.027423719678606840
1.228000000000000869,0.027196429553197298
1.229000000000000981,0.026968830801759193
1.230000000000000870,0.026740953232213333
1.231000000000000760,0.026512826299200071
1.232000000000000872,0.026284479106807413
1.233000000000000984,0.026055940411307217
1.234000000000000874,0.025827238623815408
1.235000000000000764,0.025598401813017358
1.236000000000000876,0.025369457707807758
1.237000000000000988,0.025140433699969135
1.238000000000000878,0.024911356846797326
1.239000000000000767,0.024682253873747024
1.240000000000000879,0.024453151177036749
1.241000000000000991,0.024224074826257141
1.242000000000000881,0.023995050566958536
1.243000000000000771,0.023766103823215715
1.244000000000000883,0.023537259700210440
1.245000000000000995,0.023308542986750377
1.246000000000000885,0.023079978157822353
1.247000000000000774,0.022851589377103593
1.248000000000000886,0.022623400499470543
1.249000000000000998,0.022395435073487218
1.250000000000000888,0.022167716343880282
1.251000000000000778,0.021940267254013952
1.252000000000000890,0.021713110448328344
1.253000000000001002,0.021486268274792240
1.254000000000000892,0.021259762787301538
1.255000000000000782,0.021033615748112734
1.256000000000000894,0.020807848630227520
1.257000000000001005,0.020582482619774516
1.258000000000000895,0.020357538618378336
1.259000000000000785,0.020133037245524482
1.260000000000000897,0.019908998840883582
1.261000000000001009,0.019685443466651451
1.262000000000000899,0.019462390909863923
1.263000000000000789,0.019239860684693487
1.264000000000000901,0.019017872034731941
1.265000000000001013,0.018796443935278840
1.266000000000000902,0.018575595095590897
1.267000000000000792,0.018355343961130682
1.268000000000000904,0.018135708715805509
1.269000000000001016,0.017916707284185880
1.270000000000000906,0.017698357333707303
1.271000000000000796,0.017480676276873049
1.272000000000000908,0.017263681273433633
1.273000000000001020,0.017047389232550024
1.274000000000000909,0.016831816814951536
1.275000000000000799,0.016616980435082793
1.276000000000000911,0.016402896263214659
1.277000000000001023,0.016189580227585210
1.278000000000000913,0.015977048016479152
1.279000000000000803,0.015765315080334175
1.280000000000000915,0.015554396633798309
1.281000000000001027,0.015344307657823825
1.282000000000000917,0.015135062901685356
1.283000000000000806,0.014926676885039306
1.284000000000000918,0.014719163899938220
1.285000000000001030,0.014512538012854978
1.286000000000000920,0.014306813066664485
1.287000000000000810,0.014102002682653228
1.288000000000000922,0.013898120262469189
1.289000000000001034,0.013695178990105661
1.290000000000000924,0.013493191833844611
1.291000000000000814,0.013292171548177139
1.292000000000000925,0.013092130675758758
1.293000000000001037,0.012893081549289098
1.294000000000000927,0.012695036293436246
1.295000000000000817,0.012498006826707871
1.296000000000000929,0.012302004863337582
1.297000000000001041,0.012107041915146652
1.298000000000000931,0.011913129293382016
1.299000000000000821,0.011720278110567143
1.300000000000000933,0.011528499282328800
1.301000000000001044,0.011337803529204462
1.302000000000000934,0.011148201378451156
1.303000000000000824,0.010959703165825268
1.304000000000000936,0.010772319037379787
1.305000000000001048,0.010586058951210398
1.306000000000000938,0.010400932679216452
1.307000000000000828,0.010216949808856970
1.308000000000000940,0.010034119744870496
1.309000000000001052,0.009852451710983829
1.310000000000000941,0.009671954751638142
1.311000000000000831,0.009492637733683645
1.312000000000000943,0.009314509348061273
1.313000000000001055,0.009137578111458464
1.314000000000000945,0.008961852367997887
1.315000000000000835,0.008787340290878475
1.316000000000000947,0.008614049884009430
1.317000000000001059,0.008441988983635015
1.318000000000000949,0.008271165259968783
1.319000000000000838,0.008101586218775318
1.320000000000000950,0.007933259202979470
1.321000000000001062,0.007766191394251418
1.322000000000000952,0.007600389814567505
1.323000000000000842,0.007435861327778376
1.324000000000000954,0.007272612641153739
1.325000000000001066,0.007110650306933057
1.326000000000000956,0.006949980723834114
1.327000000000000846,0.006790610138594400
1.328000000000000957,0.006632544647451871
1.329000000000001069,0.006475790197668763
1.330000000000000959,0.006320352588987568
1.331000000000000849,0.006166237475126767
1.332000000000000961,0.006013450365242085
1.333000000000001073,0.005861996625372840
1.334000000000000963,0.005711881479884528
1.335000000000000853,0.005563110012915620
1.336000000000000965,0.005415687169779344
1.337000000000001076,0.005269617758391033
1.338000000000000966,0.005124906450667613
1.339000000000000856,0.004981557783907678
1.340000000000000968,0.004839576162190960
1.341000000000001080,0.004698965857738535
1.342000000000000970,0.004559731012272085
1.343000000000000860,0.004421875638375065
1.344000000000000972,0.004285403620824911
1.345000000000001084,0.004150318717921325
1.346000000000000973,0.004016624562824649
1.347000000000000863,0.003884324664848649
1.348000000000000975,0.003753422410780356
1.349000000000001087,0.003623921066150823
1.350000000000000977,0.003495823776539973
1.351000000000000867,0.003369133568829458
1.352000000000000979,0.003243853352488531
1.353000000000001091,0.003119985920807079
1.354000000000000981,0.002997533952143946
1.355000000000000870,0.002876500011180810
1.356000000000000982,0.002756886550124574
1.357000000000001094,0.002638695909931188
1.358000000000000984,0.002521930321522264
1.359000000000000874,0.002406591906972492
1.360000000000000986,0.002292682680700628
1.361000000000001098,0.002180204550648708
1.362000000000000988,0.002069159319462119
1.363000000000000878,0.001959548685641128
1.364000000000000989,0.001851374244685565
1.365000000000001101,0.001744637490265219
1.366000000000000991,0.001639339815333062
1.367000000000000881,0.001535482513255893
1.368000000000000993,0.001433066778935800
1.369000000000001105,0.001332093709915398
1.370000000000000995,0.001232564307483335
1.371000000000000885,0.001134479477759114
1.372000000000000997,0.001037840032779662
1.373000000000001108,0.000942646691564916
1.374000000000000998,0.000848900081217098
1.375000000000000888,0.000756600737923498
1.376000000000001000,0.000665749108055942
1.377000000000001112,0.000576345549180808
1.378000000000001002,0.000488390331110855
1.379000000000000892,0.000401883636915484
1.380000000000001004,0.000316825563948443
1.381000000000001116,0.000233216124841998
1.382000000000001005,0.000151055248526324
1.383000000000000895,0.000070342781206703
1.384000000000001007,-0.000008921512649077
1.385000000000001119,-0.000086737949331465
1.386000000000001009,-0.000163106924925373
1.387000000000000899,-0.000238028914335088
1.388000000000001011,-0.000311504470365924
1.389000000000001123,-0.000383534222732614
1.390000000000001013,-0.000454118877159815
1.391000000000000902,-0.000523259214429625
1.392000000000001014,-0.000590956089475257
1.393000000000001126,-0.000657210430454209
1.394000000000001016,-0.000722023237851485
1.395000000000000906,-0.000785395583571066
1.396000000000001018,-0.000847328610044520
1.397000000000001130,-0.000907823529355230
1.398000000000001020,-0.000966881622353379
1.399000000000000909,-0.001024504237784422
1.400000000000001021,-0.001080692791429065
1.401000000000001133,-0.001135448765251339
1.402000000000001023,-0.001188773706540852
1.403000000000000913,-0.001240669227076877
1.404000000000001025,-0.001291137002294494
1.405000000000001137,-0.001340178770454972
1.406000000000001027,-0.001387796331821253
1.407000000000000917,-0.001433991547860894
1.408000000000001029,-0.001478766340411628
1.409000000000001140,-0.001522122690908777
1.410000000000001030,-0.001564062639573981
1.411000000000000920,-0.001604588284638328
1.412000000000001032,-0.001643701781555068
1.413000000000001144,-0.001681405342234662
1.414000000000001034,-0.001717701234274596
1.415000000000000924,-0.001752591780191705
1.416000000000001036,-0.001786079356684223
1.417000000000001148,-0.001818166393876790
1.418000000000001037,-0.001848855374576994
1.419000000000000927,-0.001878148833543833
1.420000000000001039,-0.001906049356757912
1.421000000000001151,-0.001932559580711442
1.422000000000001041,-0.001957682191678448
1.423000000000000931,-0.001981419925010168
1.424000000000001043,-0.002003775564435040
1.425000000000001155,-0.002024751941363287
1.426000000000001044,-0.002044351934190798
1.427000000000000934,-0.002062578467623068
1.428000000000001046,-0.002079434511986793
1.429000000000001158,-0.002094923082561692
1.430000000000001048,-0.002109047238919028
1.431000000000000938,-0.002121810084254069
1.432000000000001050,-0.002133214764735056
1.433000000000001162,-0.002143264468854454
1.434000000000001052,-0.002151962426780191
1.435000000000000941,-0.002159311909731028
1.436000000000001053,-0.002165316229331350
1.437000000000001165,-0.002169978736985835
1.438000000000001055,-0.002173302823277550
1.439000000000000945,-0.002175291917329290
1.440000000000001057,-0.002175949486211276
1.441000000000001169,-0.002175279034321203
1.442000000000001059,-0.002173284102802374
1.443000000000000949,-0.002169968268949761
1.444000000000001060,-0.002165335145609283
1.445000000000001172,-0.002159388380602058
1.446000000000001062,-0.002152131656161466
1.447000000000000952,-0.002143568688334806
1.448000000000001064,-0.002133703226441956
1.449000000000001176,-0.002122539052506843
1.450000000000001066,-0.002110079980689078
1.451000000000000956,-0.002096329856750313
1.452000000000001068,-0.002081292557505042
1.453000000000001180,-0.002064971990270165
1.454000000000001069,-0.002047372092341722
1.455000000000000959,-0.002028496830458328
1.456000000000001071,-0.002008350200272401
1.457000000000001183,-0.001986936225843465
1.458000000000001073,-0.001964258959108552
1.459000000000000963,-0.001940322479371137
1.460000000000001075,-0.001915130892808329
1.461000000000001187,-0.001888688331950942
1.462000000000001076,-0.001860998955213477
1.463000000000000966,-0.001832066946372864
1.464000000000001078,-0.001801896514095339
1.465000000000001190,-0.001770491891469136
1.466000000000001080,-0.001737857335488820
1.467000000000000970,-0.001703997126621896
1.468000000000001082,-0.001668915568318210
1.469000000000001194,-0.001632616986547813
1.470000000000001084,-0.001595105729346834
1.471000000000000973,-0.001556386166355260
1.472000000000001085,-0.001516462688378230
1.473000000000001197,-0.001475339706928234
1.474000000000001087,-0.001433021653785647
1.475000000000000977,-0.001389512980559145
1.476000000000001089,-0.001344818158262276
1.477000000000001201,-0.001298941676876047
1.478000000000001091,-0.001251888044919314
1.479000000000000981,-0.001203661789042003
1.480000000000001092,-0.001154267453591029
1.481000000000001204,-0.001103709600216250
1.482000000000001094,-0.001051992807446227
1.483000000000000984,-0.000999121670296919
1.484000000000001096,-0.000945100799866512
1.485000000000001208,-0.000889934822923275
1.486000000000001098,-0.000833628381548315
1.487000000000000988,-0.000776186132714312
1.488000000000001100,-0.000717612747914046
1.489000000000001211,-0.000657912912785162
1.490000000000001101,-0.000597091326725916
1.491000000000000991,-0.000535152702518306
1.492000000000001103,-0.000472101765977252
1.493000000000001215,-0.000407943255564359
1.494000000000001105,-0.000342681922034951
1.495000000000000995,-0.000276322528084768
1.496000000000001107,-0.000208869847991161
1.497000000000001219,-0.000140328667259569
1.498000000000001108,-0.000070703782286586
1.499000000000000998,0.000000000000000000
