# ZnO1m210BOND_ASPSCA-AC
# h[nm],U(h)[kJ/mol]
0.149999999999999994,93.956657619976255091
0.150999999999999995,91.573692381315794364
0.151999999999999996,89.307005770043673465
0.152999999999999997,87.039461384227820417
0.153999999999999998,84.739555896741279639
0.154999999999999999,82.415067613560751170
0.156000000000000000,80.087399138558637901
0.157000000000000001,77.778570043832630176
0.158000000000000002,75.505631655760907961
0.159000000000000002,73.279182740538587382
0.160000000000000003,71.103937886648992617
0.161000000000000004,68.980135943691408329
0.162000000000000005,66.905112663684121799
0.163000000000000006,64.874697017325814841
0.164000000000000007,62.884292250243312594
0.165000000000000008,60.929617282056980798
0.166000000000000009,59.007143337468825450
0.167000000000000010,57.114286100697860604
0.168000000000000010,55.249419311170335334
0.169000000000000011,53.411770681111065073
0.170000000000000012,51.601251028050455716
0.171000000000000013,49.818256014322983560
0.172000000000000014,48.063468812146581399
0.173000000000000015,46.337682348029062496
0.174000000000000016,44.641651910282256210
0.175000000000000017,42.975982863348299645
0.176000000000000018,41.341053845892304253
0.177000000000000018,39.736972889879169202
0.178000000000000019,38.163562111588717585
0.179000000000000020,36.620365728246071058
0.180000000000000021,35.106675909386254375
0.181000000000000022,33.621571180410562363
0.182000000000000023,32.163962595279471657
0.183000000000000024,30.732643560038194863
0.184000000000000025,29.326339924720336683
0.185000000000000026,27.943757700759192630
0.186000000000000026,26.583626458799727743
0.187000000000000027,25.244737089377949246
0.188000000000000028,23.925973151027278618
0.189000000000000029,22.626335481329878263
0.190000000000000030,21.344960107375452907
0.191000000000000031,20.081129768669160995
0.192000000000000032,18.834279566157473340
0.193000000000000033,17.603997385571567236
0.194000000000000034,16.390019822068470745
0.195000000000000034,15.192224366325868701
0.196000000000000035,14.010618609334120066
0.197000000000000036,12.845327192730852772
0.198000000000000037,11.696577181192221673
0.199000000000000038,10.564682469586761826
0.200000000000000039,9.450027765693423731
0.201000000000000040,8.353052613648422664
0.202000000000000041,7.274235847361464558
0.203000000000000042,6.214080789558707352
0.204000000000000042,5.173101442784701298
0.205000000000000043,4.151809854955056167
0.206000000000000044,3.150704784717040852
0.207000000000000045,2.170261741377657039
0.208000000000000046,1.210924430602700053
0.209000000000000047,0.273097600343864655
0.210000000000000048,-0.642858748801439228
0.211000000000000049,-1.536633848789669132
0.212000000000000050,-2.407969423550825105
0.213000000000000050,-3.256661814992977355
0.214000000000000051,-4.082563077291862186
0.215000000000000052,-4.885581146712541845
0.216000000000000053,-5.665679196537198870
0.217000000000000054,-6.422874286314159242
0.218000000000000055,-7.157235412094062887
0.219000000000000056,-7.868881060028374286
0.220000000000000057,-8.557976360083282330
0.221000000000000058,-9.224729930015076462
0.222000000000000058,-9.869390492485251798
0.223000000000000059,-10.492243340517497074
0.224000000000000060,-11.093606718648747034
0.225000000000000061,-11.673828179283606943
0.226000000000000062,-12.233280966077350271
0.227000000000000063,-12.772360468768127362
0.228000000000000064,-13.291480786843294482
0.229000000000000065,-13.791071432829204113
0.230000000000000066,-14.271574199879371037
0.231000000000000066,-14.733440212737491493
0.232000000000000067,-15.177127176077458870
0.233000000000000068,-15.603096829677847168
0.234000000000000069,-16.011812615862073272
0.235000000000000070,-16.403737561112414767
0.236000000000000071,-16.779332370721981249
0.237000000000000072,-17.139053732759514048
0.238000000000000073,-17.483352825453163604
0.239000000000000073,-17.812674020321026092
0.240000000000000074,-18.127453771956204776
0.241000000000000075,-18.428119684274843593
0.242000000000000076,-18.715089742227121405
0.243000000000000077,-18.988771697420173012
0.244000000000000078,-19.249562595776680496
0.245000000000000079,-19.497848435224391039
0.246000000000000080,-19.734003941452350261
0.247000000000000081,-19.958392449954160952
0.248000000000000081,-20.171365882881669762
0.249000000000000082,-20.373264809634019201
0.250000000000000111,-20.564418580587240371
0.251000000000000112,-20.745145523909339857
0.252000000000000113,-20.915753195992529356
0.253000000000000114,-21.076538676649221316
0.254000000000000115,-21.227788900855678378
0.255000000000000115,-21.369781019469719752
0.256000000000000116,-21.502782781993573735
0.257000000000000117,-21.627052935087636598
0.258000000000000118,-21.742841631161688554
0.259000000000000119,-21.850390841971329081
0.260000000000000120,-21.949934772724589038
0.261000000000000121,-22.041700272753125489
0.262000000000000122,-22.125907239323417741
0.263000000000000123,-22.202769011651447784
0.264000000000000123,-22.272492752641788627
0.265000000000000124,-22.335279816294633548
0.266000000000000125,-22.391326099115552495
0.267000000000000126,-22.440822374219596469
0.268000000000000127,-22.483954607147762061
0.269000000000000128,-22.520904252707296678
0.270000000000000129,-22.551848532412080317
0.271000000000000130,-22.576960692334328229
0.272000000000000131,-22.596410241387154372
0.273000000000000131,-22.610363170239246244
0.274000000000000132,-22.618982151220944132
0.275000000000000133,-22.622426719716138166
0.276000000000000134,-22.620853437648381856
0.277000000000000135,-22.614416039764073219
0.278000000000000136,-22.603265563492755064
0.279000000000000137,-22.587550463224559394
0.280000000000000138,-22.567416709890942172
0.281000000000000139,-22.543007876766864683
0.282000000000000139,-22.514465212433183439
0.283000000000000140,-22.481927701847688184
0.284000000000000141,-22.445532116473533080
0.285000000000000142,-22.405413054405904916
0.286000000000000143,-22.361702971422761976
0.287000000000000144,-22.314532203864082760
0.288000000000000145,-22.264028984217919316
0.289000000000000146,-22.210319450260364249
0.290000000000000147,-22.153527648562526764
0.291000000000000147,-22.093775533140100009
0.292000000000000148,-22.031182959981990166
0.293000000000000149,-21.965867678153042419
0.294000000000000150,-21.897945318124136804
0.295000000000000151,-21.827529377939992372
0.296000000000000152,-21.754731207791930814
0.297000000000000153,-21.679659993520523642
0.298000000000000154,-21.602422739530076967
0.299000000000000155,-21.523124251555859843
0.300000000000000155,-21.441867119684264509
0.301000000000000156,-21.358751701986506077
0.302000000000000157,-21.273876109088664776
0.303000000000000158,-21.187336189964270261
0.304000000000000159,-21.099225519200572876
0.305000000000000160,-21.009635385956425324
0.306000000000000161,-20.918654784798189183
0.307000000000000162,-20.826370408570177517
0.308000000000000163,-20.732866643428263131
0.309000000000000163,-20.638225566139023925
0.310000000000000164,-20.542526943722425159
0.311000000000000165,-20.445848235493272682
0.312000000000000166,-20.348264597536097398
0.313000000000000167,-20.249848889628406567
0.314000000000000168,-20.150671684610184542
0.315000000000000169,-20.050801280181218544
0.316000000000000170,-19.950303713093525459
0.317000000000000171,-19.849242775693294760
0.318000000000000171,-19.747680034754843348
0.319000000000000172,-19.645674852539478650
0.320000000000000173,-19.543284410002581097
0.321000000000000174,-19.440563732064969571
0.322000000000000175,-19.337565714857696264
0.323000000000000176,-19.234341154844067034
0.324000000000000177,-19.130938779718132281
0.325000000000000178,-19.027405280974939217
0.326000000000000179,-18.923785348045662147
0.327000000000000179,-18.820121703888140985
0.328000000000000180,-18.716455141922430983
0.329000000000000181,-18.612824564200533217
0.330000000000000182,-18.509267020698899842
0.331000000000000183,-18.405817749623729185
0.332000000000000184,-18.302510218619453042
0.333000000000000185,-18.199376166772601948
0.334000000000000186,-18.096445647305433369
0.335000000000000187,-17.993747070855448555
0.336000000000000187,-17.891307249240075095
0.337000000000000188,-17.789151439608279048
0.338000000000000189,-17.687303388884245692
0.339000000000000190,-17.585785378411447510
0.340000000000000191,-17.484618268708750577
0.341000000000000192,-17.383821544254363545
0.342000000000000193,-17.283413358216318301
0.343000000000000194,-17.183410577052846691
0.344000000000000195,-17.083828824909080168
0.345000000000000195,-16.984682527741064462
0.346000000000000196,-16.885984957101488391
0.347000000000000197,-16.787748273525615161
0.348000000000000198,-16.689983569459847956
0.349000000000000199,-16.592700911678996079
0.350000000000000200,-16.495909383142304705
0.351000000000000201,-16.399617124241881783
0.352000000000000202,-16.303831373400793581
0.353000000000000203,-16.208558506981894709
0.354000000000000203,-16.113804078471552828
0.355000000000000204,-16.019572856906201253
0.356000000000000205,-15.925868864512546352
0.357000000000000206,-15.832695413535924800
0.358000000000000207,-15.740055142233618568
0.359000000000000208,-15.647950050013729850
0.360000000000000209,-15.556381531702360377
0.361000000000000210,-15.465350410924902036
0.362000000000000210,-15.374856972589668658
0.363000000000000211,-15.284900994464672763
0.364000000000000212,-15.195481777840630144
0.365000000000000213,-15.106598177275392558
0.366000000000000214,-15.018248629417433548
0.367000000000000215,-14.930431180907513422
0.368000000000000216,-14.843143515360059936
0.369000000000000217,-14.756382979427016267
0.370000000000000218,-14.670146607949083872
0.371000000000000218,-14.584431148200323491
0.372000000000000219,-14.499233083233841413
0.373000000000000220,-14.414548654337565381
0.374000000000000221,-14.330373882610198066
0.375000000000000222,-14.246704589668627960
0.376000000000000223,-14.163536417499281939
0.377000000000000224,-14.080864847466553869
0.378000000000000225,-13.998685218492536109
0.379000000000000226,-13.916992744422907791
0.380000000000000226,-13.835782530594709527
0.381000000000000227,-13.755049589622093009
0.382000000000000228,-13.674788856416927985
0.383000000000000229,-13.594995202461515049
0.384000000000000230,-13.515663449350947545
0.385000000000000231,-13.436788381623349764
0.386000000000000232,-13.358364758896101421
0.387000000000000233,-13.280387327326673486
0.388000000000000234,-13.202850830416727135
0.389000000000000234,-13.125750019178449080
0.390000000000000235,-13.049079661681812325
0.391000000000000236,-12.972834552001975439
0.392000000000000237,-12.897009518585543120
0.393000000000000238,-12.821599432054814116
0.394000000000000239,-12.746599212468606055
0.395000000000000240,-12.672003836058603810
0.396000000000000241,-12.597808341459691306
0.397000000000000242,-12.524007835452591664
0.398000000000000242,-12.450597498237231164
0.399000000000000243,-12.377572588254620811
0.400000000000000244,-12.304928446575010170
0.401000000000000245,-12.232660500869936726
0.402000000000000246,-12.160764268985204239
0.403000000000000247,-12.089235362131672602
0.404000000000000248,-12.018069487710581811
0.405000000000000249,-11.947262451789539384
0.406000000000000250,-11.876810161245121122
0.407000000000000250,-11.806708625587642558
0.408000000000000251,-11.736953958483303140
0.409000000000000252,-11.667542378988638774
0.410000000000000253,-11.598470212511587718
0.411000000000000254,-11.529733891513433974
0.412000000000000255,-11.461329955965283034
0.413000000000000256,-11.393255053572467261
0.414000000000000257,-11.325505939779715092
0.415000000000000258,-11.258079477569880922
0.416000000000000258,-11.190972637068240303
0.417000000000000259,-11.124182494964282242
0.418000000000000260,-11.057706233762424120
0.419000000000000261,-10.991541140872662652
0.420000000000000262,-10.925684607551911398
0.421000000000000263,-10.860134127706361440
0.422000000000000264,-10.794887296564690260
0.423000000000000265,-10.729941809231842598
0.424000000000000266,-10.665295459132622113
0.425000000000000266,-10.600946136353822880
0.426000000000000267,-10.536891825893601293
0.427000000000000268,-10.473130605826199258
0.428000000000000269,-10.409660645389873679
0.429000000000000270,-10.346480203005620879
0.430000000000000271,-10.283587624233827995
0.431000000000000272,-10.220981339675818234
0.432000000000000273,-10.158659862826805664
0.433000000000000274,-10.096621787886661537
0.434000000000000274,-10.034865787534315018
0.435000000000000275,-9.973390610671689416
0.436000000000000276,-9.912195080142474524
0.437000000000000277,-9.851278090430930945
0.438000000000000278,-9.790638605345618473
0.439000000000000279,-9.730275655692780745
0.440000000000000280,-9.670188336943589036
0.441000000000000281,-9.610375806899586593
0.442000000000000282,-9.550837283360200658
0.443000000000000282,-9.491572041795917514
0.444000000000000283,-9.432579413030749649
0.445000000000000284,-9.373858780937183610
0.446000000000000285,-9.315409580146596369
0.447000000000000286,-9.257231293778238168
0.448000000000000287,-9.199323451189124867
0.449000000000000288,-9.141685625747660637
0.450000000000000289,-9.084317432633076450
0.451000000000000290,-9.027218526662926124
0.452000000000000290,-8.970388600150617009
0.453000000000000291,-8.913827380794803190
0.454000000000000292,-8.857534629602287879
0.455000000000000293,-8.801510138845994646
0.456000000000000294,-8.745753730059400155
0.457000000000000295,-8.690265252068689605
0.458000000000000296,-8.635044579063739789
0.459000000000000297,-8.580091608709020434
0.460000000000000298,-8.525406260295183003
0.461000000000000298,-8.470988472932313940
0.462000000000000299,-8.416838203785321326
0.463000000000000300,-8.362955426352217003
0.464000000000000301,-8.309340128785663637
0.465000000000000302,-8.255992312258292998
0.466000000000000303,-8.202911989371990842
0.467000000000000304,-8.150099182611446835
0.468000000000000305,-8.097553922842156027
0.469000000000000306,-8.045276247852843454
0.470000000000000306,-7.993266200942490407
0.471000000000000307,-7.941523829551684344
0.472000000000000308,-7.890049183938435462
0.473000000000000309,-7.838842315898078894
0.474000000000000310,-7.787903277527158608
0.475000000000000311,-7.737232120030929750
0.476000000000000312,-7.686828892574321337
0.477000000000000313,-7.636693641175734015
0.478000000000000314,-7.586826407643505021
0.479000000000000314,-7.537227228554482572
0.480000000000000315,-7.487896134274201643
0.481000000000000316,-7.438833148018264119
0.482000000000000317,-7.390038284954229653
0.483000000000000318,-7.341511551343562481
0.484000000000000319,-7.293252943722974280
0.485000000000000320,-7.245262448124561772
0.486000000000000321,-7.197540039334128892
0.487000000000000322,-7.150085680186945680
0.488000000000000322,-7.102899320900339042
0.489000000000000323,-7.055980898442419047
0.490000000000000324,-7.009330335936203582
0.491000000000000325,-6.962947542098457454
0.492000000000000326,-6.916832410712437706
0.493000000000000327,-6.870984820133946513
0.494000000000000328,-6.825404632829814133
0.495000000000000329,-6.780091694948149339
0.496000000000000330,-6.735045835919535762
0.497000000000000330,-6.690266868088519558
0.498000000000000331,-6.645754586374465589
0.499000000000000332,-6.601508767961229651
0.500000000000000333,-6.557529172014699093
0.501000000000000334,-6.513815539427566748
0.502000000000000335,-6.470367592590501538
0.503000000000000336,-6.427185035189054929
0.504000000000000337,-6.384267552025455039
0.505000000000000338,-6.341614808864609820
0.506000000000000338,-6.299226452303562596
0.507000000000000339,-6.257102109663651213
0.508000000000000340,-6.215241388904665598
0.509000000000000341,-6.173643878560300280
0.510000000000000342,-6.132309147694138929
0.511000000000000343,-6.091236745875509229
0.512000000000000344,-6.050426203174504636
0.513000000000000345,-6.009877030175474921
0.514000000000000346,-5.969588718008349559
0.515000000000000346,-5.929560738397079867
0.516000000000000347,-5.889792543724533758
0.517000000000000348,-5.850283567113326200
0.518000000000000349,-5.811033222521729158
0.519000000000000350,-5.772040904854257803
0.520000000000000351,-5.733305990086190462
0.521000000000000352,-5.694827835401453875
0.522000000000000353,-5.656605779343308882
0.523000000000000353,-5.618639141977192608
0.524000000000000354,-5.580927225065268615
0.525000000000000355,-5.543469312251990466
0.526000000000000356,-5.506264669260233724
0.527000000000000357,-5.469312544097457263
0.528000000000000358,-5.432612167271305026
0.529000000000000359,-5.396162752014245889
0.530000000000000360,-5.359963494516655658
0.531000000000000361,-5.324013574167951290
0.532000000000000361,-5.288312153805226679
0.533000000000000362,-5.252858379968972535
0.534000000000000363,-5.217651383165461176
0.535000000000000364,-5.182690278135262396
0.536000000000000365,-5.147974164127587571
0.537000000000000366,-5.113502125179987701
0.538000000000000367,-5.079273230402952422
0.539000000000000368,-5.045286534269175505
0.540000000000000369,-5.011541076906913084
0.541000000000000369,-4.978035884397245425
0.542000000000000370,-4.944769969074761740
0.543000000000000371,-4.911742329831379372
0.544000000000000372,-4.878951952422966087
0.545000000000000373,-4.846397809778418164
0.546000000000000374,-4.814078862310884332
0.547000000000000375,-4.781994058230833566
0.548000000000000376,-4.750142333860726040
0.549000000000000377,-4.718522613950909772
0.550000000000000377,-4.687133811996520016
0.551000000000000378,-4.655974830555135391
0.552000000000000379,-4.625044561564923384
0.553000000000000380,-4.594341886662998142
0.554000000000000381,-4.563865677503780915
0.555000000000000382,-4.533614796077187314
0.556000000000000383,-4.503588095026286098
0.557000000000000384,-4.473784417964388638
0.558000000000000385,-4.444202599791228003
0.559000000000000385,-4.414841467008126408
0.560000000000000386,-4.385699838031911213
0.561000000000000387,-4.356776523507436494
0.562000000000000388,-4.328070326618515651
0.563000000000000389,-4.299580043397136286
0.564000000000000390,-4.271304463030745069
0.565000000000000391,-4.243242368167537748
0.566000000000000392,-4.215392535219519843
0.567000000000000393,-4.187753734663314908
0.568000000000000393,-4.160324731338453930
0.569000000000000394,-4.133104284743170709
0.570000000000000395,-4.106091149327498968
0.571000000000000396,-4.079284074783554814
0.572000000000000397,-4.052681806333000125
0.573000000000000398,-4.026283085011455931
0.574000000000000399,-4.000086647949900431
0.575000000000000400,-3.974091228652861130
0.576000000000000401,-3.948295557273405532
0.577000000000000401,-3.922698360884820712
0.578000000000000402,-3.897298363748885830
0.579000000000000403,-3.872094287580715388
0.580000000000000404,-3.847084851810110617
0.581000000000000405,-3.822268773839337719
0.582000000000000406,-3.797644769297286782
0.583000000000000407,-3.773211552289994497
0.584000000000000408,-3.748967835647451174
0.585000000000000409,-3.724912331166682744
0.586000000000000409,-3.701043749851041120
0.587000000000000410,-3.677360802145726471
0.588000000000000411,-3.653862198169435693
0.589000000000000412,-3.630546647942202387
0.590000000000000413,-3.607412861609331056
0.591000000000000414,-3.584459549661447308
0.592000000000000415,-3.561685423150675156
0.593000000000000416,-3.539089193902847708
0.594000000000000417,-3.516669574725831637
0.595000000000000417,-3.494425279613942337
0.596000000000000418,-3.472355023948360042
0.597000000000000419,-3.450457524693714362
0.598000000000000420,-3.428731500590648018
0.599000000000000421,-3.407175672344539663
0.600000000000000422,-3.385788762810255204
0.601000000000000423,-3.364569497173035550
0.602000000000000424,-3.343516603125473274
0.603000000000000425,-3.322628811040623020
0.604000000000000425,-3.301904854141243018
0.605000000000000426,-3.281343468665190333
0.606000000000000427,-3.260943394027032927
0.607000000000000428,-3.240703372975767049
0.608000000000000429,-3.220622151748882889
0.609000000000000430,-3.200698480222543107
0.610000000000000431,-3.180931112058138943
0.611000000000000432,-3.161318804845085317
0.612000000000000433,-3.141860320239939330
0.613000000000000433,-3.122554424101914972
0.614000000000000434,-3.103399886624759851
0.615000000000000435,-3.084395482465025928
0.616000000000000436,-3.065539990866828823
0.617000000000000437,-3.046832195783087727
0.618000000000000438,-3.028270885993269879
0.619000000000000439,-3.009854855217681369
0.620000000000000440,-2.991582902228384189
0.621000000000000441,-2.973453830956711563
0.622000000000000441,-2.955466450597466821
0.623000000000000442,-2.937619575709816466
0.624000000000000443,-2.919912026314930298
0.625000000000000444,-2.902342627990420532
0.626000000000000445,-2.884910211961571491
0.627000000000000446,-2.867613615189474885
0.628000000000000447,-2.850451680456040471
0.629000000000000448,-2.833423256445963823
0.630000000000000449,-2.816527197825694273
0.631000000000000449,-2.799762365319399482
0.632000000000000450,-2.783127625782047865
0.633000000000000451,-2.766621852269574244
0.634000000000000452,-2.750243924106218874
0.635000000000000453,-2.733992726949055374
0.636000000000000454,-2.717867152849774648
0.637000000000000455,-2.701866100313751851
0.638000000000000456,-2.685988474356433731
0.639000000000000457,-2.670233186557109839
0.640000000000000457,-2.654599155110108022
0.641000000000000458,-2.639085304873411975
0.642000000000000459,-2.623690567414837638
0.643000000000000460,-2.608413881055689831
0.644000000000000461,-2.593254190912067880
0.645000000000000462,-2.578210448933762500
0.646000000000000463,-2.563281613940828318
0.647000000000000464,-2.548466651657888882
0.648000000000000465,-2.533764534746197672
0.649000000000000465,-2.519174242833471133
0.650000000000000466,-2.504694762541606501
0.651000000000000467,-2.490325087512244018
0.652000000000000468,-2.476064218430279684
0.653000000000000469,-2.461911163045316542
0.654000000000000470,-2.447864936191163299
0.655000000000000471,-2.433924559803334997
0.656000000000000472,-2.420089062934676072
0.657000000000000473,-2.406357481769076934
0.658000000000000473,-2.392728859633394212
0.659000000000000474,-2.379202247007544901
0.660000000000000475,-2.365776701532868564
0.661000000000000476,-2.352451288018750031
0.662000000000000477,-2.339225078447586093
0.663000000000000478,-2.326097151978091748
0.664000000000000479,-2.313066594947024601
0.665000000000000480,-2.300132500869307428
0.666000000000000481,-2.287293970436677704
0.667000000000000481,-2.274550111514768158
0.668000000000000482,-2.261900039138806218
0.669000000000000483,-2.249342875507839068
0.670000000000000484,-2.236877749977585594
0.671000000000000485,-2.224503799051947173
0.672000000000000486,-2.212220166373180419
0.673000000000000487,-2.200026002710807838
0.674000000000000488,-2.187920465949258375
0.675000000000000488,-2.175902721074280510
0.676000000000000489,-2.163971940158214924
0.677000000000000490,-2.152127302344051696
0.678000000000000491,-2.140367993828412807
0.679000000000000492,-2.128693207843425306
0.680000000000000493,-2.117102144637520666
0.681000000000000494,-2.105594011455229175
0.682000000000000495,-2.094168022515950689
0.683000000000000496,-2.082823398991777708
0.684000000000000496,-2.071559368984345006
0.685000000000000497,-2.060375167500798632
0.686000000000000498,-2.049270036428850084
0.687000000000000499,-2.038243224510996487
0.688000000000000500,-2.027293987317884127
0.689000000000000501,-2.016421587220891709
0.690000000000000502,-2.005625293363920925
0.691000000000000503,-1.994904381634438506
0.692000000000000504,-1.984258134633785087
0.693000000000000504,-1.973685841646807493
0.694000000000000505,-1.963186798610766060
0.695000000000000506,-1.952760308083638652
0.696000000000000507,-1.942405679211766101
0.697000000000000508,-1.932122227696895234
0.698000000000000509,-1.921909275762649916
0.699000000000000510,-1.911766152120420781
0.700000000000000511,-1.901692191934742926
0.701000000000000512,-1.891686736788127821
0.702000000000000512,-1.881749134645423593
0.703000000000000513,-1.871878739817682158
0.704000000000000514,-1.862074912925584469
0.705000000000000515,-1.852337020862421024
0.706000000000000516,-1.842664436756665580
0.707000000000000517,-1.833056539934150964
0.708000000000000518,-1.823512715879853419
0.709000000000000519,-1.814032356199354101
0.710000000000000520,-1.804614858579915548
0.711000000000000520,-1.795259626751272153
0.712000000000000521,-1.785966070446098453
0.713000000000000522,-1.776733605360178769
0.714000000000000523,-1.767561653112345699
0.715000000000000524,-1.758449641204103076
0.716000000000000525,-1.749397002979073745
0.717000000000000526,-1.740403177582174665
0.718000000000000527,-1.731467609918606154
0.719000000000000528,-1.722589750612639303
0.720000000000000528,-1.713769055966249510
0.721000000000000529,-1.705004987917527970
0.722000000000000530,-1.696297013999016556
0.723000000000000531,-1.687644607295845089
0.724000000000000532,-1.679047246403773785
0.725000000000000533,-1.670504415387130903
0.726000000000000534,-1.662015603736621827
0.727000000000000535,-1.653580306327090410
0.728000000000000536,-1.645198023375168406
0.729000000000000536,-1.636868260396900254
0.730000000000000537,-1.628590528165295037
0.731000000000000538,-1.620364342667834467
0.732000000000000539,-1.612189225063975773
0.733000000000000540,-1.604064701642618385
0.734000000000000541,-1.595990303779568187
0.735000000000000542,-1.587965567894999097
0.736000000000000543,-1.579990035410949512
0.737000000000000544,-1.572063252708803205
0.738000000000000544,-1.564184771086850168
0.739000000000000545,-1.556354146717833231
0.740000000000000546,-1.548570940606593949
0.741000000000000547,-1.540834718547735571
0.742000000000000548,-1.533145051083398824
0.743000000000000549,-1.525501513461059444
0.744000000000000550,-1.517903685591439622
0.745000000000000551,-1.510351152006514930
0.746000000000000552,-1.502843501817590077
0.747000000000000552,-1.495380328673511894
0.748000000000000553,-1.487961230718969130
0.749000000000000554,-1.480585810552913717
0.750000000000000555,-1.473253675187128575
0.751000000000000556,-1.465964436004889793
0.752000000000000557,-1.458717708719809547
0.753000000000000558,-1.451513113334772509
0.754000000000000559,-1.444350274101071196
0.755000000000000560,-1.437228819477656572
0.756000000000000560,-1.430148382090576931
0.757000000000000561,-1.423108598692560012
0.758000000000000562,-1.416109110122768744
0.759000000000000563,-1.409149561266751949
0.760000000000000564,-1.402229601016549809
0.761000000000000565,-1.395348882230993848
0.762000000000000566,-1.388507061696200306
0.763000000000000567,-1.381703800086244938
0.764000000000000568,-1.374938761924032971
0.765000000000000568,-1.368211615542393789
0.766000000000000569,-1.361522033045345026
0.767000000000000570,-1.354869690269595139
0.768000000000000571,-1.348254266746218510
0.769000000000000572,-1.341675445662601440
0.770000000000000573,-1.335132913824543133
0.771000000000000574,-1.328626361618628238
0.772000000000000575,-1.322155482974785912
0.773000000000000576,-1.315719975329098235
0.774000000000000576,-1.309319539586817127
0.775000000000000577,-1.302953880085643945
0.776000000000000578,-1.296622704559192929
0.777000000000000579,-1.290325724100743754
0.778000000000000580,-1.284062653127190812
0.779000000000000581,-1.277833209343253618
0.780000000000000582,-1.271637113705915034
0.781000000000000583,-1.265474090389119954
0.782000000000000584,-1.259343866748700691
0.783000000000000584,-1.253246173287552612
0.784000000000000585,-1.247180743621073118
0.785000000000000586,-1.241147314442821781
0.786000000000000587,-1.235145625490455812
0.787000000000000588,-1.229175419511911116
0.788000000000000589,-1.223236442231811605
0.789000000000000590,-1.217328442318176718
0.790000000000000591,-1.211451171349339884
0.791000000000000592,-1.205604383781150757
0.792000000000000592,-1.199787836914419703
0.793000000000000593,-1.194001290862616749
0.794000000000000594,-1.188244508519839204
0.795000000000000595,-1.182517255529034195
0.796000000000000596,-1.176819300250453448
0.797000000000000597,-1.171150413730414508
0.798000000000000598,-1.165510369670272661
0.799000000000000599,-1.159898944395680198
0.800000000000000600,-1.154315916826096355
0.801000000000000600,-1.148761068444551281
0.802000000000000601,-1.143234183267673787
0.803000000000000602,-1.137735047815974232
0.804000000000000603,-1.132263451084395633
0.805000000000000604,-1.126819184513110805
0.806000000000000605,-1.121402041958570628
0.807000000000000606,-1.116011819664843419
0.808000000000000607,-1.110648316235168354
0.809000000000000608,-1.105311332603795105
0.810000000000000608,-1.100000672008079494
0.811000000000000609,-1.094716139960806078
0.812000000000000610,-1.089457544222810492
0.813000000000000611,-1.084224694775811404
0.814000000000000612,-1.079017403795526242
0.815000000000000613,-1.073835485625043606
0.816000000000000614,-1.068678756748409286
0.817000000000000615,-1.063547035764510484
0.818000000000000616,-1.058440143361191632
0.819000000000000616,-1.053357902289611348
0.820000000000000617,-1.048300137338854299
0.821000000000000618,-1.043266675310801528
0.822000000000000619,-1.038257344995246134
0.823000000000000620,-1.033271977145235665
0.824000000000000621,-1.028310404452677407
0.825000000000000622,-1.023372461524190591
0.826000000000000623,-1.018457984857188192
0.827000000000000624,-1.013566812816212526
0.828000000000000624,-1.008698785609503989
0.829000000000000625,-1.003853745265808506
0.830000000000000626,-0.999031535611432653
0.831000000000000627,-0.994232002247525393
0.832000000000000628,-0.989454992527612043
0.833000000000000629,-0.984700355535332528
0.834000000000000630,-0.979967942062446640
0.835000000000000631,-0.975257604587051019
0.836000000000000631,-0.970569197252034166
0.837000000000000632,-0.965902575843761602
0.838000000000000633,-0.961257597770977634
0.839000000000000634,-0.956634122043950597
0.840000000000000635,-0.952032009253840128
0.841000000000000636,-0.947451121552264852
0.842000000000000637,-0.942891322631138840
0.843000000000000638,-0.938352477702675047
0.844000000000000639,-0.933834453479651549
0.845000000000000639,-0.929337118155873609
0.846000000000000640,-0.924860341386851692
0.847000000000000641,-0.920403994270715620
0.848000000000000642,-0.915967949329314024
0.849000000000000643,-0.911552080489537508
0.850000000000000644,-0.907156263064873181
0.851000000000000645,-0.902780373737119390
0.852000000000000646,-0.898424290538366366
0.853000000000000647,-0.894087892833136832
0.854000000000000647,-0.889771061300749566
0.855000000000000648,-0.885473677917888224
0.856000000000000649,-0.881195625941369798
0.857000000000000650,-0.876936789891107238
0.858000000000000651,-0.872697055533269483
0.859000000000000652,-0.868476309863649654
0.860000000000000653,-0.864274441091219314
0.861000000000000654,-0.860091338621871371
0.862000000000000655,-0.855926893042373238
0.863000000000000655,-0.851780996104482546
0.864000000000000656,-0.847653540709284004
0.865000000000000657,-0.843544420891682245
0.866000000000000658,-0.839453531805101738
0.867000000000000659,-0.835380769706367765
0.868000000000000660,-0.831326031940754051
0.869000000000000661,-0.827289216927230564
0.870000000000000662,-0.823270224143880291
0.871000000000000663,-0.819268954113499648
0.872000000000000663,-0.815285308389365304
0.873000000000000664,-0.811319189541187091
0.874000000000000665,-0.807370501141221220
0.875000000000000666,-0.803439147750570681
0.876000000000000667,-0.799525034905638199
0.877000000000000668,-0.795628069104762026
0.878000000000000669,-0.791748157795010066
0.879000000000000670,-0.787885209359136973
0.880000000000000671,-0.784039133102717334
0.881000000000000671,-0.780209839241422509
0.882000000000000672,-0.776397238888477892
0.883000000000000673,-0.772601244042258939
0.884000000000000674,-0.768821767574066728
0.885000000000000675,-0.765058723216032410
0.886000000000000676,-0.761312025549206517
0.887000000000000677,-0.757581589991776161
0.888000000000000678,-0.753867332787438338
0.889000000000000679,-0.750169170993940870
0.890000000000000679,-0.746487022471746364
0.891000000000000680,-0.742820805872864587
0.892000000000000681,-0.739170440629812853
0.893000000000000682,-0.735535846944731619
0.894000000000000683,-0.731916945778636086
0.895000000000000684,-0.728313658840815892
0.896000000000000685,-0.724725908578365718
0.897000000000000686,-0.721153618165856103
0.898000000000000687,-0.717596711495156248
0.899000000000000687,-0.714055113165358302
0.900000000000000688,-0.710528748472868954
0.901000000000000689,-0.707017543401615045
0.902000000000000690,-0.703521424613388291
0.903000000000000691,-0.700040319438316239
0.904000000000000692,-0.696574155865453903
0.905000000000000693,-0.693122862533517958
0.906000000000000694,-0.689686368721738940
0.907000000000000695,-0.686264604340821927
0.908000000000000695,-0.682857499924064859
0.909000000000000696,-0.679464986618561029
0.910000000000000697,-0.676086996176548216
0.911000000000000698,-0.672723460946860641
0.912000000000000699,-0.669374313866503257
0.913000000000000700,-0.666039488452354056
0.914000000000000701,-0.662718918792949863
0.915000000000000702,-0.659412539540423781
0.916000000000000703,-0.656120285902526357
0.917000000000000703,-0.652842093634772858
0.918000000000000704,-0.649577899032690365
0.919000000000000705,-0.646327638924178660
0.920000000000000706,-0.643091250661984359
0.921000000000000707,-0.639868672116261861
0.922000000000000708,-0.636659841667256421
0.923000000000000709,-0.633464698198095033
0.924000000000000710,-0.630283181087648914
0.925000000000000711,-0.627115230203538099
0.926000000000000711,-0.623960785895201320
0.927000000000000712,-0.620819788987085674
0.928000000000000713,-0.617692180771924226
0.929000000000000714,-0.614577903004118409
0.930000000000000715,-0.611476897893197480
0.931000000000000716,-0.608389108097394660
0.932000000000000717,-0.605314476717304761
0.933000000000000718,-0.602252947289628193
0.934000000000000719,-0.599204463781016883
0.935000000000000719,-0.596168970582007351
0.936000000000000720,-0.593146412501033948
0.937000000000000721,-0.590136734758537562
0.938000000000000722,-0.587139882981162264
0.939000000000000723,-0.584155803196026890
0.940000000000000724,-0.581184441825093101
0.941000000000000725,-0.578225745679605052
0.942000000000000726,-0.575279661954626098
0.943000000000000727,-0.572346138223635448
0.944000000000000727,-0.569425122433228070
0.945000000000000728,-0.566516562897879217
0.946000000000000729,-0.563620408294786324
0.947000000000000730,-0.560736607658797737
0.948000000000000731,-0.557865110377406936
0.949000000000000732,-0.555005866185834362
0.950000000000000733,-0.552158825162164524
0.951000000000000734,-0.549323937722584921
0.952000000000000735,-0.546501154616666818
0.953000000000000735,-0.543690426922731951
0.954000000000000736,-0.540891706043294285
0.955000000000000737,-0.538104943700562388
0.956000000000000738,-0.535330091932018193
0.957000000000000739,-0.532567103086051929
0.958000000000000740,-0.529815929817678222
0.959000000000000741,-0.527076525084304470
0.960000000000000742,-0.524348842141582283
0.961000000000000743,-0.521632834539299206
0.962000000000000743,-0.518928456117351944
0.963000000000000744,-0.516235661001777535
0.964000000000000745,-0.513554403600850806
0.965000000000000746,-0.510884638601228569
0.966000000000000747,-0.508226320964166201
0.967000000000000748,-0.505579405921791292
0.968000000000000749,-0.502943848973439689
0.969000000000000750,-0.500319605882033391
0.970000000000000751,-0.497706632670541382
0.971000000000000751,-0.495104885618467105
0.972000000000000752,-0.492514321258409382
0.973000000000000753,-0.489934896372689166
0.974000000000000754,-0.487366567989994504
0.975000000000000755,-0.484809293382114592
0.976000000000000756,-0.482263030060707976
0.977000000000000757,-0.479727735774123420
0.978000000000000758,-0.477203368504273029
0.979000000000000759,-0.474689886463569466
0.980000000000000759,-0.472187248091882616
0.981000000000000760,-0.469695412053573791
0.982000000000000761,-0.467214337234571342
0.983000000000000762,-0.464743982739479367
0.984000000000000763,-0.462284307888746415
0.985000000000000764,-0.459835272215886104
0.986000000000000765,-0.457396835464727147
0.987000000000000766,-0.454968957586715017
0.988000000000000766,-0.452551598738261340
0.989000000000000767,-0.450144719278143313
0.990000000000000768,-0.447748279764924983
0.991000000000000769,-0.445362240954437438
0.992000000000000770,-0.442986563797297783
0.993000000000000771,-0.440621209436473316
0.994000000000000772,-0.438266139204870064
0.995000000000000773,-0.435921314622986167
0.996000000000000774,-0.433586697396580845
0.997000000000000774,-0.431262249414397503
0.998000000000000775,-0.428947932745919247
0.999000000000000776,-0.426643709639164648
1.000000000000000666,-0.424349542518514089
1.001000000000000778,-0.422065393982587800
1.002000000000000668,-0.419791226802141426
1.003000000000000780,-0.417527003918006012
1.004000000000000670,-0.415272688439069504
1.005000000000000782,-0.413028243640280568
1.006000000000000671,-0.410793632960698485
1.007000000000000783,-0.408568820001558808
1.008000000000000673,-0.406353768524394088
1.009000000000000785,-0.404148442449172141
1.010000000000000675,-0.401952805852472672
1.011000000000000787,-0.399766822965685054
1.012000000000000677,-0.397590458173258665
1.013000000000000789,-0.395423676010962066
1.014000000000000679,-0.393266441164179470
1.015000000000000790,-0.391118718466242965
1.016000000000000680,-0.388980472896792384
1.017000000000000792,-0.386851669580145330
1.018000000000000682,-0.384732273783731149
1.019000000000000794,-0.382622250916516138
1.020000000000000684,-0.380521566527482813
1.021000000000000796,-0.378430186304121619
1.022000000000000686,-0.376348076070952831
1.023000000000000798,-0.374275201788077827
1.024000000000000687,-0.372211529549752340
1.025000000000000799,-0.370157025582985910
1.026000000000000689,-0.368111656246169316
1.027000000000000801,-0.366075388027720550
1.028000000000000691,-0.364048187544761870
1.029000000000000803,-0.362030021541816016
1.030000000000000693,-0.360020856889524621
1.031000000000000805,-0.358020660583396988
1.032000000000000695,-0.356029399742570474
1.033000000000000806,-0.354047041608607671
1.034000000000000696,-0.352073553544302198
1.035000000000000808,-0.350108903032508134
1.036000000000000698,-0.348153057674996269
1.037000000000000810,-0.346205985191340160
1.038000000000000700,-0.344267653417790975
1.039000000000000812,-0.342338030306205354
1.040000000000000702,-0.340417083922980701
1.041000000000000814,-0.338504782448010133
1.042000000000000703,-0.336601094173647586
1.043000000000000815,-0.334705987503712055
1.044000000000000705,-0.332819430952497886
1.045000000000000817,-0.330941393143795781
1.046000000000000707,-0.329071842809951165
1.047000000000000819,-0.327210748790929262
1.048000000000000709,-0.325358080033385622
1.049000000000000821,-0.323513805589786152
1.050000000000000711,-0.321677894617503846
1.051000000000000822,-0.319850316377970623
1.052000000000000712,-0.318031040235817408
1.053000000000000824,-0.316220035658035803
1.054000000000000714,-0.314417272213171339
1.055000000000000826,-0.312622719570511576
1.056000000000000716,-0.310836347499305554
1.057000000000000828,-0.309058125867981814
1.058000000000000718,-0.307288024643396107
1.059000000000000830,-0.305526013890087322
1.060000000000000719,-0.303772063769549905
1.061000000000000831,-0.302026144539507546
1.062000000000000721,-0.300288226553224402
1.063000000000000833,-0.298558280258811926
1.064000000000000723,-0.296836276198546523
1.065000000000000835,-0.295122185008214744
1.066000000000000725,-0.293415977416466689
1.067000000000000837,-0.291717624244161977
1.068000000000000727,-0.290027096403766949
1.069000000000000838,-0.288344364898722449
1.070000000000000728,-0.286669400822853970
1.071000000000000840,-0.285002175359778009
1.072000000000000730,-0.283342659782325867
1.073000000000000842,-0.281690825451974880
1.074000000000000732,-0.280046643818289920
1.075000000000000844,-0.278410086418384606
1.076000000000000734,-0.276781124876383622
1.077000000000000846,-0.275159730902893140
1.078000000000000735,-0.273545876294497670
1.079000000000000847,-0.271939532933245021
1.080000000000000737,-0.270340672786164804
1.081000000000000849,-0.268749267904766886
1.082000000000000739,-0.267165290424582480
1.083000000000000851,-0.265588712564688523
1.084000000000000741,-0.264019506627257594
1.085000000000000853,-0.262457644997103612
1.086000000000000743,-0.260903100141248123
1.087000000000000854,-0.259355844608485375
1.088000000000000744,-0.257815851028970588
1.089000000000000856,-0.256283092113787636
1.090000000000000746,-0.254757540654562020
1.091000000000000858,-0.253239169523056640
1.092000000000000748,-0.251727951670776384
1.093000000000000860,-0.250223860128596265
1.094000000000000750,-0.248726868006377083
1.095000000000000862,-0.247236948492604525
1.096000000000000751,-0.245754074854028920
1.097000000000000863,-0.244278220435305282
1.098000000000000753,-0.242809358658657271
1.099000000000000865,-0.241347463023533215
1.100000000000000755,-0.239892507106268305
1.101000000000000867,-0.238444464559764480
1.102000000000000757,-0.237003309113173438
1.103000000000000869,-0.235569014571576807
1.104000000000000759,-0.234141554815676611
1.105000000000000870,-0.232720903801504259
1.106000000000000760,-0.231307035560113172
1.107000000000000872,-0.229899924197295491
1.108000000000000762,-0.228499543893300572
1.109000000000000874,-0.227105868902547414
1.110000000000000764,-0.225718873553359650
1.111000000000000876,-0.224338532247689681
1.112000000000000766,-0.222964819460862801
1.113000000000000878,-0.221597709741314486
1.114000000000000767,-0.220237177710342735
1.115000000000000879,-0.218883198061851830
1.116000000000000769,-0.217535745562115468
1.117000000000000881,-0.216194795049534955
1.118000000000000771,-0.214860321434405976
1.119000000000000883,-0.213532299698689865
1.120000000000000773,-0.212210704895786945
1.121000000000000885,-0.210895512150311243
1.122000000000000774,-0.209586696657879934
1.123000000000000886,-0.208284233684895514
1.124000000000000776,-0.206988098568341522
1.125000000000000888,-0.205698266715568179
1.126000000000000778,-0.204414713604097381
1.127000000000000890,-0.203137414781430353
1.128000000000000780,-0.201866345864836039
1.129000000000000892,-0.200601482541177489
1.130000000000000782,-0.199342800566714912
1.131000000000000894,-0.198090275766925145
1.132000000000000783,-0.196843884036317446
1.133000000000000895,-0.195603601338263711
1.134000000000000785,-0.194369403704806931
1.135000000000000897,-0.193141267236513814
1.136000000000000787,-0.191919168102284127
1.137000000000000899,-0.190703082539197127
1.138000000000000789,-0.189492986852341450
1.139000000000000901,-0.188288857414666111
1.140000000000000790,-0.187090670666812564
1.141000000000000902,-0.185898403116955657
1.142000000000000792,-0.184712031340666105
1.143000000000000904,-0.183531531980750590
1.144000000000000794,-0.182356881747108762
1.145000000000000906,-0.181188057416575371
1.146000000000000796,-0.180025035832798885
1.147000000000000908,-0.178867793906081429
1.148000000000000798,-0.177716308613252272
1.149000000000000909,-0.176570556997524192
1.150000000000000799,-0.175430516168360751
1.151000000000000689,-0.174296163301344731
1.152000000000000801,-0.173167475638049712
1.153000000000000913,-0.172044430485906896
1.154000000000000803,-0.170927005218079020
1.155000000000000693,-0.169815177273335671
1.156000000000000805,-0.168708924155936024
1.157000000000000917,-0.167608223435492476
1.158000000000000806,-0.166513052746867174
1.159000000000000696,-0.165423389790039843
1.160000000000000808,-0.164339212329998624
1.161000000000000920,-0.163260498196620057
1.162000000000000810,-0.162187225284561531
1.163000000000000700,-0.161119371553135576
1.164000000000000812,-0.160056915026215330
1.165000000000000924,-0.158999833792105638
1.166000000000000814,-0.157948106003451327
1.167000000000000703,-0.156901709877115908
1.168000000000000815,-0.155860623694085237
1.169000000000000927,-0.154824825799351418
1.170000000000000817,-0.153794294601823006
1.171000000000000707,-0.152769008574200726
1.172000000000000819,-0.151748946252896727
1.173000000000000931,-0.150734086237919673
1.174000000000000821,-0.149724407192776465
1.175000000000000711,-0.148719887844377174
1.176000000000000822,-0.147720506982931155
1.177000000000000934,-0.146726243461850203
1.178000000000000824,-0.145737076197654719
1.179000000000000714,-0.144752984169870647
1.180000000000000826,-0.143773946420943599
1.181000000000000938,-0.142799942056134249
1.182000000000000828,-0.141830950243428233
1.183000000000000718,-0.140866950213445363
1.184000000000000830,-0.139907921259341206
1.185000000000000941,-0.138953842736715044
1.186000000000000831,-0.138004694063525502
1.187000000000000721,-0.137060454719987207
1.188000000000000833,-0.136121104248492025
1.189000000000000945,-0.135186622253509664
1.190000000000000835,-0.134256988401505351
1.191000000000000725,-0.133332182420835915
1.192000000000000837,-0.132412184101685565
1.193000000000000949,-0.131496973295949615
1.194000000000000838,-0.130586529917167710
1.195000000000000728,-0.129680833940421014
1.196000000000000840,-0.128779865402252780
1.197000000000000952,-0.127883604400581607
1.198000000000000842,-0.126992031094606050
1.199000000000000732,-0.126105125704730370
1.200000000000000844,-0.125222868512460950
1.201000000000000956,-0.124345239860338075
1.202000000000000846,-0.123472220151833831
1.203000000000000735,-0.122603789851281328
1.204000000000000847,-0.121739929483771214
1.205000000000000959,-0.120880619635083758
1.206000000000000849,-0.120025840951590260
1.207000000000000739,-0.119175574140170965
1.208000000000000851,-0.118329799968131449
1.209000000000000963,-0.117488499263118190
1.210000000000000853,-0.116651652913029119
1.211000000000000743,-0.115819241865930372
1.212000000000000854,-0.114991247129971177
1.213000000000000966,-0.114167649773296229
1.214000000000000856,-0.113348430923969290
1.215000000000000746,-0.112533571769869029
1.216000000000000858,-0.111723053558629326
1.217000000000000970,-0.110916857597529714
1.218000000000000860,-0.110114965253424041
1.219000000000000750,-0.109317357952653960
1.220000000000000862,-0.108524017180955695
1.221000000000000973,-0.107734924483381705
1.222000000000000863,-0.106950061464214680
1.223000000000000753,-0.106169409786873808
1.224000000000000865,-0.105392951173841037
1.225000000000000977,-0.104620667406563950
1.226000000000000867,-0.103852540325375470
1.227000000000000757,-0.103088551829407488
1.228000000000000869,-0.102328683876495005
1.229000000000000981,-0.101572918483109606
1.230000000000000870,-0.100821237724249294
1.231000000000000760,-0.100073623733365522
1.232000000000000872,-0.099330058702275445
1.233000000000000984,-0.098590524881063651
1.234000000000000874,-0.097855004578012800
1.235000000000000764,-0.097123480159495165
1.236000000000000876,-0.096395934049899434
1.237000000000000988,-0.095672348731534351
1.238000000000000878,-0.094952706744547394
1.239000000000000767,-0.094236990686827574
1.240000000000000879,-0.093525183213922586
1.241000000000000991,-0.092817267038946369
1.242000000000000881,-0.092113224932488857
1.243000000000000771,-0.091413039722532632
1.244000000000000883,-0.090716694294348504
1.245000000000000995,-0.090024171590424654
1.246000000000000885,-0.089335454610359785
1.247000000000000774,-0.088650526410780070
1.248000000000000886,-0.087969370105244554
1.249000000000000998,-0.087291968864155439
1.250000000000000888,-0.086618305914669499
1.251000000000000778,-0.085948364540596831
1.252000000000000890,-0.085282128082318401
1.253000000000001002,-0.084619579936684675
1.254000000000000892,-0.083960703556931013
1.255000000000000782,-0.083305482452579294
1.256000000000000894,-0.082653900189342419
1.257000000000001005,-0.082005940389037135
1.258000000000000895,-0.081361586729486651
1.259000000000000785,-0.080720822944418652
1.260000000000000897,-0.080083632823385043
1.261000000000001009,-0.079450000211654770
1.262000000000000899,-0.078819909010124561
1.263000000000000789,-0.078193343175216090
1.264000000000000901,-0.077570286718792403
1.265000000000001013,-0.076950723708048577
1.266000000000000902,-0.076334638265421167
1.267000000000000792,-0.075722014568490592
1.268000000000000904,-0.075112836849883319
1.269000000000001016,-0.074507089397172654
1.270000000000000906,-0.073904756552785028
1.271000000000000796,-0.073305822713896518
1.272000000000000908,-0.072710272332335651
1.273000000000001020,-0.072118089914485678
1.274000000000000909,-0.071529260021185342
1.275000000000000799,-0.070943767267624233
1.276000000000000911,-0.070361596323253187
1.277000000000001023,-0.069782731911669990
1.278000000000000913,-0.069207158810533062
1.279000000000000803,-0.068634861851446322
1.280000000000000915,-0.068065825919874826
1.281000000000001027,-0.067500035955021284
1.282000000000000917,-0.066937476949745583
1.283000000000000806,-0.066378133950447074
1.284000000000000918,-0.065821992056971756
1.285000000000001030,-0.065269036422501855
1.286000000000000920,-0.064719252253460466
1.287000000000000810,-0.064172624809396783
1.288000000000000922,-0.063629139402897952
1.289000000000001034,-0.063088781399468621
1.290000000000000924,-0.062551536217434006
1.291000000000000814,-0.062017389327840601
1.292000000000000925,-0.061486326254336955
1.293000000000001037,-0.060958332573083716
1.294000000000000927,-0.060433393912635323
1.295000000000000817,-0.059911495953843860
1.296000000000000929,-0.059392624429743544
1.297000000000001041,-0.058876765125448295
1.298000000000000931,-0.058363903878049864
1.299000000000000821,-0.057854026576502238
1.300000000000000933,-0.057347119161517260
1.301000000000001044,-0.056843167625458657
1.302000000000000934,-0.056342158012230859
1.303000000000000824,-0.055844076417173927
1.304000000000000936,-0.055348908986949122
1.305000000000001048,-0.054856641919437787
1.306000000000000938,-0.054367261463629524
1.307000000000000828,-0.053880753919506107
1.308000000000000940,-0.053397105637936947
1.309000000000001052,-0.052916303020574706
1.310000000000000941,-0.052438332519736973
1.311000000000000831,-0.051963180638293992
1.312000000000000943,-0.051490833929560512
1.313000000000001055,-0.051021278997195441
1.314000000000000945,-0.050554502495074163
1.315000000000000835,-0.050090491127182182
1.316000000000000947,-0.049629231647505948
1.317000000000001059,-0.049170710859923188
1.318000000000000949,-0.048714915618081167
1.319000000000000838,-0.048261832825294372
1.320000000000000950,-0.047811449434425363
1.321000000000001062,-0.047363752447770351
1.322000000000000952,-0.046918728916953319
1.323000000000000842,-0.046476365942804340
1.324000000000000954,-0.046036650675254670
1.325000000000001066,-0.045599570313209589
1.326000000000000956,-0.045165112104450511
1.327000000000000846,-0.044733263345505564
1.328000000000000957,-0.044304011381547256
1.329000000000001069,-0.043877343606265426
1.330000000000000959,-0.043453247461766410
1.331000000000000849,-0.043031710438445704
1.332000000000000961,-0.042612720074875918
1.333000000000001073,-0.042196263957693894
1.334000000000000963,-0.041782329721485524
1.335000000000000853,-0.041370905048661366
1.336000000000000965,-0.040961977669351980
1.337000000000001076,-0.040555535361284034
1.338000000000000966,-0.040151565949663792
1.339000000000000856,-0.039750057307068210
1.340000000000000968,-0.039350997353314231
1.341000000000001080,-0.038954374055354582
1.342000000000000970,-0.038560175427154827
1.343000000000000860,-0.038168389529574284
1.344000000000000972,-0.037779004470251343
1.345000000000001084,-0.037392008403490981
1.346000000000000973,-0.037007389530133064
1.347000000000000863,-0.036625136097447789
1.348000000000000975,-0.036245236399007882
1.349000000000001087,-0.035867678774578762
1.350000000000000977,-0.035492451609991982
1.351000000000000867,-0.035119543337035944
1.352000000000000979,-0.034748942433324104
1.353000000000001091,-0.034380637422189664
1.354000000000000981,-0.034014616872561715
1.355000000000000870,-0.033650869398838865
1.356000000000000982,-0.033289383660782254
1.357000000000001094,-0.032930148363388888
1.358000000000000984,-0.032573152256773055
1.359000000000000874,-0.032218384136047162
1.360000000000000986,-0.031865832841203132
1.361000000000001098,-0.031515487256995336
1.362000000000000988,-0.031167336312810566
1.363000000000000878,-0.030821368982558394
1.364000000000000989,-0.030477574284553194
1.365000000000001101,-0.030135941281380002
1.366000000000000991,-0.029796459079788080
1.367000000000000881,-0.029459116830564590
1.368000000000000993,-0.029123903728416278
1.369000000000001105,-0.028790809011847197
1.370000000000000995,-0.028459821963038767
1.371000000000000885,-0.028130931907730805
1.372000000000000997,-0.027804128215100133
1.373000000000001108,-0.027479400297643907
1.374000000000000998,-0.027156737611040573
1.375000000000000888,-0.026836129654062114
1.376000000000001000,-0.026517565968420326
1.377000000000001112,-0.026201036138668483
1.378000000000001002,-0.025886529792067736
1.379000000000000892,-0.025574036598472582
1.380000000000001004,-0.025263546270205866
1.381000000000001116,-0.024955048561944606
1.382000000000001005,-0.024648533270588573
1.383000000000000895,-0.024343990235147966
1.384000000000001007,-0.024041409336619628
1.385000000000001119,-0.023740780497864936
1.386000000000001009,-0.023442093683492038
1.387000000000000899,-0.023145338899724865
1.388000000000001011,-0.022850506194302022
1.389000000000001123,-0.022557585656331109
1.390000000000001013,-0.022266567416186659
1.391000000000000902,-0.021977441645377297
1.392000000000001014,-0.021690198556433594
1.393000000000001126,-0.021404828402779252
1.394000000000001016,-0.021121321478617727
1.395000000000000906,-0.020839668118803834
1.396000000000001018,-0.020559858698723663
1.397000000000001130,-0.020281883634179449
1.398000000000001020,-0.020005733381265788
1.399000000000000909,-0.019731398436242952
1.400000000000001021,-0.019458869335423002
1.401000000000001133,-0.019188136655048170
1.402000000000001023,-0.018919191011165577
1.403000000000000913,-0.018652023059509089
1.404000000000001025,-0.018386623495379333
1.405000000000001137,-0.018122983053522834
1.406000000000001027,-0.017861092508007104
1.407000000000000917,-0.017600942672109231
1.408000000000001029,-0.017342524398181219
1.409000000000001140,-0.017085828577545419
1.410000000000001030,-0.016830846140360761
1.411000000000000920,-0.016577568055510479
1.412000000000001032,-0.016325985330476189
1.413000000000001144,-0.016076089011221838
1.414000000000001034,-0.015827870182073094
1.415000000000000924,-0.015581319965590545
1.416000000000001036,-0.015336429522460273
1.417000000000001148,-0.015093190051367084
1.418000000000001037,-0.014851592788874152
1.419000000000000927,-0.014611629009305798
1.420000000000001039,-0.014373290024623994
1.421000000000001151,-0.014136567184316339
1.422000000000001041,-0.013901451875267465
1.423000000000000931,-0.013667935521643280
1.424000000000001043,-0.013436009584772906
1.425000000000001155,-0.013205665563026409
1.426000000000001044,-0.012976894991697486
1.427000000000000934,-0.012749689442886536
1.428000000000001046,-0.012524040525376012
1.429000000000001158,-0.012299939884512690
1.430000000000001048,-0.012077379202093534
1.431000000000000938,-0.011856350196243259
1.432000000000001050,-0.011636844621295515
1.433000000000001162,-0.011418854267675745
1.434000000000001052,-0.011202370961780138
1.435000000000000941,-0.010987386565863018
1.436000000000001053,-0.010773892977913556
1.437000000000001165,-0.010561882131533163
1.438000000000001055,-0.010351345995835093
1.439000000000000945,-0.010142276575306369
1.440000000000001057,-0.009934665909703608
1.441000000000001169,-0.009728506073924600
1.442000000000001059,-0.009523789177902977
1.443000000000000949,-0.009320507366483793
1.444000000000001060,-0.009118652819306359
1.445000000000001172,-0.008918217750687307
1.446000000000001062,-0.008719194409510517
1.447000000000000952,-0.008521575079097014
1.448000000000001064,-0.008325352077101869
1.449000000000001176,-0.008130517755393880
1.450000000000001066,-0.007937064499930639
1.451000000000000956,-0.007744984730653439
1.452000000000001068,-0.007554270901369587
1.453000000000001180,-0.007364915499630312
1.454000000000001069,-0.007176911046621372
1.455000000000000959,-0.006990250097044973
1.456000000000001071,-0.006804925239001977
1.457000000000001183,-0.006620929093885371
1.458000000000001073,-0.006438254316257499
1.459000000000000963,-0.006256893593732385
1.460000000000001075,-0.006076839646873392
1.461000000000001187,-0.005898085229063370
1.462000000000001076,-0.005720623126408313
1.463000000000000966,-0.005544446157605147
1.464000000000001078,-0.005369547173836251
1.465000000000001190,-0.005195919058663309
1.466000000000001080,-0.005023554727893370
1.467000000000000970,-0.004852447129487404
1.468000000000001082,-0.004682589243434811
1.469000000000001194,-0.004513974081640964
1.470000000000001084,-0.004346594687819122
1.471000000000000973,-0.004180444137369742
1.472000000000001085,-0.004015515537280333
1.473000000000001197,-0.003851802026002275
1.474000000000001087,-0.003689296773343051
1.475000000000000977,-0.003527992980350529
1.476000000000001089,-0.003367883879209944
1.477000000000001201,-0.003208962733124717
1.478000000000001091,-0.003051222836203909
1.479000000000000981,-0.002894657513361035
1.480000000000001092,-0.002739260120188687
1.481000000000001204,-0.002585024042861520
1.482000000000001094,-0.002431942698016117
1.483000000000000984,-0.002280009532647416
1.484000000000001096,-0.002129218023996403
1.485000000000001208,-0.001979561679431697
1.486000000000001098,-0.001831034036357192
1.487000000000000988,-0.001683628662087330
1.488000000000001100,-0.001537339153741873
1.489000000000001211,-0.001392159138142493
1.490000000000001101,-0.001248082271698696
1.491000000000000991,-0.001105102240294802
1.492000000000001103,-0.000963212759195959
1.493000000000001215,-0.000822407572924239
1.494000000000001105,-0.000682680455157978
1.495000000000000995,-0.000544025208624000
1.496000000000001107,-0.000406435664989825
1.497000000000001219,-0.000269905684754469
1.498000000000001108,-0.000134429157144847
1.499000000000000998,0.000000000000000000
