# ZnO1m210BOND_CS-234-AC
# h[nm],U(h)[kJ/mol]
0.149999999999999994,150.732301046823067736
0.150999999999999995,148.741824691428575989
0.151999999999999996,146.502325042440929792
0.152999999999999997,144.259910708916720523
0.153999999999999998,142.096647852271871670
0.154999999999999999,140.019542689258685186
0.156000000000000000,138.008016491595327579
0.157000000000000001,136.037114458347105028
0.158000000000000002,134.087150352196886161
0.159000000000000002,132.146257952530788771
0.160000000000000003,130.209628074817885590
0.161000000000000004,128.277531698144741767
0.162000000000000005,126.353211185908349989
0.163000000000000006,124.441125237271577930
0.164000000000000007,122.545701667795171375
0.165000000000000008,120.670582351904300822
0.166000000000000009,118.818270255022937931
0.167000000000000010,116.990067454633845045
0.168000000000000010,115.186199514922947174
0.169000000000000011,113.406040118784474657
0.170000000000000012,111.648371728891333987
0.171000000000000013,109.911638662114157228
0.172000000000000014,108.194166247606787579
0.173000000000000015,106.494333078061274023
0.174000000000000016,104.810692916423064958
0.175000000000000017,103.142049116910158091
0.176000000000000018,101.487488117036122048
0.177000000000000018,99.846380306953136596
0.178000000000000019,98.218356959936372164
0.179000000000000020,96.603271388270314901
0.180000000000000021,95.001151442624703236
0.181000000000000022,93.412149174757999504
0.182000000000000023,91.836492125914190865
0.183000000000000024,90.274439413470275895
0.184000000000000025,88.726244642198963675
0.185000000000000026,87.192126702218004652
0.186000000000000026,85.672248744968129586
0.187000000000000027,84.166705045291166698
0.188000000000000028,82.675515044789307240
0.189000000000000029,81.198623606151983267
0.190000000000000030,79.735906364733835971
0.191000000000000031,78.287179017208401888
0.192000000000000032,76.852209414163297652
0.193000000000000033,75.430731403214750230
0.194000000000000034,74.022459483815978842
0.195000000000000034,72.627103469747609665
0.196000000000000035,71.244382498648377577
0.197000000000000036,69.874037870945784334
0.198000000000000037,68.515844336650999935
0.199000000000000038,67.169619573216152730
0.200000000000000039,65.835231708211907176
0.201000000000000040,64.512604835522751046
0.202000000000000041,63.201722552669117761
0.203000000000000042,61.902629610122517079
0.204000000000000042,60.615431812008431223
0.205000000000000043,59.340294342689972495
0.206000000000000044,58.077438716901248483
0.207000000000000045,56.827138563973832674
0.208000000000000046,55.589714460893368653
0.209000000000000047,54.365528026009279472
0.210000000000000048,53.154975476669143575
0.211000000000000049,51.958480841202273837
0.212000000000000050,50.776488999726126394
0.213000000000000050,49.609458710238477863
0.214000000000000051,48.457855757271360631
0.215000000000000052,47.322146340760141925
0.216000000000000053,46.202790803326720948
0.217000000000000054,45.100237775361094350
0.218000000000000055,44.014918799478394362
0.219000000000000056,42.947243479391104870
0.220000000000000057,41.897595183144730413
0.221000000000000058,40.866327317136239117
0.222000000000000058,39.853760175402037191
0.223000000000000059,38.860178358338600901
0.224000000000000060,37.885828746254084365
0.225000000000000061,36.930919005880646466
0.226000000000000062,35.995616602110345639
0.227000000000000063,35.080048282648306213
0.228000000000000064,34.184299999889297794
0.229000000000000065,33.308417231996443775
0.230000000000000066,32.452405663774506195
0.231000000000000066,31.616232187361553940
0.232000000000000067,30.799826182901597349
0.233000000000000068,30.003081040090911813
0.234000000000000069,29.225855882716405887
0.235000000000000070,28.467977459926096628
0.236000000000000071,27.729242169906495263
0.237000000000000072,27.009418183810840475
0.238000000000000073,26.308247640116444899
0.239000000000000073,25.625448882031854225
0.240000000000000074,24.960718713065716656
0.241000000000000075,24.313734648373618086
0.242000000000000076,23.684157141970672455
0.243000000000000077,23.071631772309832087
0.244000000000000078,22.475791371052064704
0.245000000000000079,21.896258082074094631
0.246000000000000080,21.332645339858501643
0.247000000000000081,20.784559758376488503
0.248000000000000081,20.251602923400238154
0.249000000000000082,19.733373082864169135
0.250000000000000111,19.229466731430903792
0.251000000000000112,18.739480086809692239
0.252000000000000113,18.263010456624201083
0.253000000000000114,17.799657495739207747
0.254000000000000115,17.349024354933487047
0.255000000000000115,16.910718722659908053
0.256000000000000116,16.484353762366584562
0.257000000000000117,16.069548948474654537
0.258000000000000118,15.665930804626833961
0.259000000000000119,15.273133548242203261
0.260000000000000120,14.890799645747128110
0.261000000000000121,14.518580283106567563
0.262000000000000122,14.156135756461683428
0.263000000000000123,13.803135787797248923
0.264000000000000123,13.459259770621514463
0.265000000000000124,13.124196950650386384
0.266000000000000125,12.797646546451762362
0.267000000000000126,12.479317814932240793
0.268000000000000127,12.168930066441033588
0.269000000000000128,11.866212634132043746
0.270000000000000129,11.570904802067362382
0.271000000000000130,11.282755696369395793
0.272000000000000131,11.001524143538643941
0.273000000000000131,10.726978499852155124
0.274000000000000132,10.458896455548520876
0.275000000000000133,10.197064817290284466
0.276000000000000134,9.941279272177714788
0.277000000000000135,9.691344136370464213
0.278000000000000136,9.447072091157256324
0.279000000000000137,9.208283909101014686
0.280000000000000138,8.974808172678759632
0.281000000000000139,8.746480987632498483
0.282000000000000139,8.523145693051715099
0.283000000000000140,8.304652570019317892
0.284000000000000141,8.090858550472583843
0.285000000000000142,7.881626927758413004
0.286000000000000143,7.676827070199126801
0.287000000000000144,7.476334138831082221
0.288000000000000145,7.280028810332796141
0.289000000000000146,7.087797006024179503
0.290000000000000147,6.899529627690841771
0.291000000000000147,6.715122300870334016
0.292000000000000148,6.534475126127349043
0.293000000000000149,6.357492438745077301
0.294000000000000150,6.184082577166911676
0.295000000000000151,6.014157660438764985
0.296000000000000152,5.847633374825269570
0.297000000000000153,5.684428769703695039
0.298000000000000154,5.524466062776818731
0.299000000000000155,5.367670454589921647
0.300000000000000155,5.213969952287136778
0.301000000000000156,5.063295202498504288
0.302000000000000157,4.915579333210050805
0.303000000000000158,4.770757804436023264
0.304000000000000159,4.628768267483132526
0.305000000000000160,4.489550432572470662
0.306000000000000161,4.353045944563982417
0.307000000000000162,4.219198266511670070
0.308000000000000163,4.087952570764313620
0.309000000000000163,3.959255637316111631
0.310000000000000164,3.833055759104074589
0.311000000000000165,3.709302653944143380
0.312000000000000166,3.587947382795154905
0.313000000000000167,3.468942274039183982
0.314000000000000168,3.352240853468052340
0.315000000000000169,3.237797779668407205
0.316000000000000170,3.125568784502042341
0.317000000000000171,3.015510618383606456
0.318000000000000171,2.907581000064351606
0.319000000000000172,2.801738570637813730
0.320000000000000173,2.697942851491700544
0.321000000000000174,2.596154205939023463
0.322000000000000175,2.496333804270701062
0.323000000000000176,2.398443591981762602
0.324000000000000177,2.302446260933188604
0.325000000000000178,2.208305223221820768
0.326000000000000179,2.115984587540922668
0.327000000000000179,2.025449137824655743
0.328000000000000180,1.936664313980110297
0.329000000000000181,1.849596194520722436
0.330000000000000182,1.764211480925556241
0.331000000000000183,1.680477483558588059
0.332000000000000184,1.598362108992444686
0.333000000000000185,1.517833848590535606
0.334000000000000186,1.438861768210942582
0.335000000000000187,1.361415498904742005
0.336000000000000187,1.285465228490027645
0.337000000000000188,1.210981693891871158
0.338000000000000189,1.137936174146207957
0.339000000000000190,1.066300483973787738
0.340000000000000191,0.996046967838010944
0.341000000000000192,0.927148494407276091
0.342000000000000193,0.859578451349753081
0.343000000000000194,0.793310740394621461
0.344000000000000195,0.728319772600524606
0.345000000000000195,0.664580463777094121
0.346000000000000196,0.602068230011683747
0.347000000000000197,0.540758983258063042
0.348000000000000198,0.480629126948986574
0.349000000000000199,0.421655551599043332
0.350000000000000200,0.363815630368394705
0.351000000000000201,0.307087214562051625
0.352000000000000202,0.251448629043047323
0.353000000000000203,0.196878667541197233
0.354000000000000203,0.143356587842314642
0.355000000000000204,0.090862106845836357
0.356000000000000205,0.039375395481249950
0.357000000000000206,-0.011122926523793009
0.358000000000000207,-0.060651796028277173
0.359000000000000208,-0.109229712018486635
0.360000000000000209,-0.156874741305462528
0.361000000000000210,-0.203604524378387858
0.362000000000000210,-0.249436281411871852
0.363000000000000211,-0.294386818423428731
0.364000000000000212,-0.338472533576579915
0.365000000000000213,-0.381709423623738497
0.366000000000000214,-0.424113090482292954
0.367000000000000215,-0.465698747936411195
0.368000000000000216,-0.506481228456635568
0.369000000000000217,-0.546474990128448468
0.370000000000000218,-0.585694123680946532
0.371000000000000218,-0.624152359605995022
0.372000000000000219,-0.661863075358309461
0.373000000000000220,-0.698839302626520609
0.374000000000000221,-0.735093734665172027
0.375000000000000222,-0.770638733677509125
0.376000000000000223,-0.805486338239148614
0.377000000000000224,-0.839648270752400450
0.378000000000000225,-0.873135944921414997
0.379000000000000226,-0.905960473238270780
0.380000000000000226,-0.938132674470541161
0.381000000000000227,-0.969663081140719307
0.382000000000000228,-1.000561946988549611
0.383000000000000229,-1.030839254407275529
0.384000000000000230,-1.060504721845170639
0.385000000000000231,-1.089567811164235733
0.386000000000000232,-1.118037734947899597
0.387000000000000233,-1.145923463750309512
0.388000000000000234,-1.173233733279769542
0.389000000000000234,-1.199977051509607762
0.390000000000000235,-1.226161705709785554
0.391000000000000236,-1.251795769393183821
0.392000000000000237,-1.276887109170718793
0.393000000000000238,-1.301443391509926162
0.394000000000000239,-1.325472089391869446
0.395000000000000240,-1.348980488861795335
0.396000000000000241,-1.371975695469149326
0.397000000000000242,-1.394464640592989468
0.398000000000000242,-1.416454087649264171
0.399000000000000243,-1.437950638176556550
0.400000000000000244,-1.458960737797486473
0.401000000000000245,-1.479490682053171913
0.402000000000000246,-1.499546622108327121
0.403000000000000247,-1.519134570325215705
0.404000000000000248,-1.538260405704661604
0.405000000000000249,-1.556929879192793020
0.406000000000000250,-1.575148618852382443
0.407000000000000250,-1.592922134897980735
0.408000000000000251,-1.610255824594243323
0.409000000000000252,-1.627154977017127635
0.410000000000000253,-1.643624777677866522
0.411000000000000254,-1.659670313009831144
0.412000000000000255,-1.675296574718593945
0.413000000000000256,-1.690508463995835653
0.414000000000000257,-1.705310795597642981
0.415000000000000258,-1.719708301788312355
0.416000000000000258,-1.733705636150540741
0.417000000000000259,-1.747307377263386696
0.418000000000000260,-1.760518032249282161
0.419000000000000261,-1.773342040191676405
0.420000000000000262,-1.785783775424890418
0.421000000000000263,-1.797847550698072228
0.422000000000000264,-1.809537620214928255
0.423000000000000265,-1.820858182551388982
0.424000000000000266,-1.831813383453210431
0.425000000000000266,-1.842407318515591585
0.426000000000000267,-1.852644035747134765
0.427000000000000268,-1.862527538020385176
0.428000000000000269,-1.872061785411275547
0.429000000000000270,-1.881250697429949881
0.430000000000000271,-1.890098155145316650
0.431000000000000272,-1.898608003205931594
0.432000000000000273,-1.906784051759593979
0.433000000000000274,-1.914630078274325742
0.434000000000000274,-1.922149829263225529
0.435000000000000275,-1.929347021915775784
0.436000000000000276,-1.936225345638251882
0.437000000000000277,-1.942788463505744634
0.438000000000000278,-1.949040013628465573
0.439000000000000279,-1.954983610434894548
0.440000000000000280,-1.960622845874349096
0.441000000000000281,-1.965961290541528017
0.442000000000000282,-1.971002494725694776
0.443000000000000282,-1.975749989386850869
0.444000000000000283,-1.980207287061604760
0.445000000000000284,-1.984377882701117146
0.446000000000000285,-1.988265254443571717
0.447000000000000286,-1.991872864323745773
0.448000000000000287,-1.995204158921870086
0.449000000000000288,-1.998262569954361911
0.450000000000000289,-2.001051514808586340
0.451000000000000290,-2.003574397024038944
0.452000000000000290,-2.005834606722201485
0.453000000000000291,-2.007835520987212519
0.454000000000000292,-2.009580504199598661
0.455000000000000293,-2.011072908325155062
0.456000000000000294,-2.012316073161054764
0.457000000000000295,-2.013313326541255943
0.458000000000000296,-2.014067984503141506
0.459000000000000297,-2.014583351417400081
0.460000000000000298,-2.014862720082991387
0.461000000000000298,-2.014909371789076253
0.462000000000000299,-2.014726576345710729
0.463000000000000300,-2.014317592085021591
0.464000000000000301,-2.013685665834642258
0.465000000000000302,-2.012834032864984302
0.466000000000000303,-2.011765916812010335
0.467000000000000304,-2.010484529577056367
0.468000000000000305,-2.008993071205201097
0.469000000000000306,-2.007294729743656081
0.470000000000000306,-2.005392681081654249
0.471000000000000307,-2.003290088773074906
0.472000000000000308,-2.000990103843288015
0.473000000000000309,-1.998495864581404380
0.474000000000000310,-1.995810496319182503
0.475000000000000311,-1.992937111197803146
0.476000000000000312,-1.989878807923667781
0.477000000000000313,-1.986638671514298071
0.478000000000000314,-1.983219773035391098
0.479000000000000314,-1.979625169330137435
0.480000000000000315,-1.975857902741633199
0.481000000000000316,-1.971921000829502502
0.482000000000000317,-1.967817476081464845
0.483000000000000318,-1.963550325620841530
0.484000000000000319,-1.959122530910731186
0.485000000000000320,-1.954537057455704829
0.486000000000000321,-1.949796854501751442
0.487000000000000322,-1.944904854735180821
0.488000000000000322,-1.939863973981141854
0.489000000000000323,-1.934677110902493835
0.490000000000000324,-1.929347146699545323
0.491000000000000325,-1.923876944811303336
0.492000000000000326,-1.918269350618743374
0.493000000000000327,-1.912527191150690697
0.494000000000000328,-1.906653274792716291
0.495000000000000329,-1.900650390999601758
0.496000000000000330,-1.894521310011710868
0.497000000000000330,-1.888268782575825977
0.498000000000000331,-1.881895539670616513
0.499000000000000332,-1.875404292237336179
0.500000000000000333,-1.868797730915930044
0.501000000000000334,-1.862078525786873495
0.502000000000000335,-1.855249326119109199
0.503000000000000336,-1.848312760124277032
0.504000000000000337,-1.841271434717525413
0.505000000000000338,-1.834127935285084110
0.506000000000000338,-1.826884825458855222
0.507000000000000339,-1.819544646898183515
0.508000000000000340,-1.812109919078935594
0.509000000000000341,-1.804583139090155885
0.510000000000000342,-1.796966781438268823
0.511000000000000343,-1.789263297859104984
0.512000000000000344,-1.781475117137722108
0.513000000000000345,-1.773604644936187524
0.514000000000000346,-1.765654263629404142
0.515000000000000346,-1.757626332148957360
0.516000000000000347,-1.749523185835090588
0.517000000000000348,-1.741347136296884202
0.518000000000000349,-1.733100471280525579
0.519000000000000350,-1.724785454545840535
0.520000000000000351,-1.716404325750939819
0.521000000000000352,-1.707959300345118780
0.522000000000000353,-1.699452569469827479
0.523000000000000353,-1.690886299867822684
0.524000000000000354,-1.682262633800393203
0.525000000000000355,-1.673583688972614336
0.526000000000000356,-1.664851558466582393
0.527000000000000357,-1.656068310682612621
0.528000000000000358,-1.647235989288237334
0.529000000000000359,-1.638356613175041998
0.530000000000000360,-1.629432176423141865
0.531000000000000361,-1.620464648273322039
0.532000000000000361,-1.611455973106667772
0.533000000000000362,-1.602408070431633913
0.534000000000000363,-1.593322834878411198
0.535000000000000364,-1.584202136200542732
0.536000000000000365,-1.575047819283605932
0.537000000000000366,-1.565861704160925516
0.538000000000000367,-1.556645586036092821
0.539000000000000368,-1.547401235312335199
0.540000000000000369,-1.538130397628399759
0.541000000000000369,-1.528834793901051592
0.542000000000000370,-1.519516120373848533
0.543000000000000371,-1.510176048672221771
0.544000000000000372,-1.500816225864640696
0.545000000000000373,-1.491438274529772290
0.546000000000000374,-1.482043792829466078
0.547000000000000375,-1.472634354587441408
0.548000000000000376,-1.463211509373577801
0.549000000000000377,-1.453776782593594330
0.550000000000000377,-1.444331675584058949
0.551000000000000378,-1.434877665712504635
0.552000000000000379,-1.425416206482620796
0.553000000000000380,-1.415948727644265714
0.554000000000000381,-1.406476635308230971
0.555000000000000382,-1.397001312065637046
0.556000000000000383,-1.387524117111712973
0.557000000000000384,-1.378046386373985799
0.558000000000000385,-1.368569432644568984
0.559000000000000385,-1.359094545716548419
0.560000000000000386,-1.349622992524265097
0.561000000000000387,-1.340156017287359891
0.562000000000000388,-1.330694841658461192
0.563000000000000389,-1.321240664874397952
0.564000000000000390,-1.311794663910756942
0.565000000000000391,-1.302357993639706280
0.566000000000000392,-1.292931786990914489
0.567000000000000393,-1.283517155115490471
0.568000000000000393,-1.274115187552729456
0.569000000000000394,-1.264726952399637616
0.570000000000000395,-1.255353496483063491
0.571000000000000396,-1.245995845534281665
0.572000000000000397,-1.236655004366005839
0.573000000000000398,-1.227331957051592592
0.574000000000000399,-1.218027667106437617
0.575000000000000400,-1.208743077671339705
0.576000000000000401,-1.199479111697791645
0.577000000000000401,-1.190236672135100759
0.578000000000000402,-1.181016642119142812
0.579000000000000403,-1.171819885162710184
0.580000000000000404,-1.162647245347377289
0.581000000000000405,-1.153499547516669610
0.582000000000000406,-1.144377597470565000
0.583000000000000407,-1.135282182161112763
0.584000000000000408,-1.126214069889168279
0.585000000000000409,-1.117174010502082204
0.586000000000000409,-1.108162735592265413
0.587000000000000410,-1.099180958696587940
0.588000000000000411,-1.090229375496420294
0.589000000000000412,-1.081308664018359789
0.590000000000000413,-1.072419484835421821
0.591000000000000414,-1.063562481268716109
0.592000000000000415,-1.054738279589498617
0.593000000000000416,-1.045947489221469739
0.594000000000000417,-1.037190702943296072
0.595000000000000417,-1.028468497091319378
0.596000000000000418,-1.019781431762208701
0.597000000000000419,-1.011130051015736608
0.598000000000000420,-1.002514883077354702
0.599000000000000421,-0.993936440540706512
0.600000000000000422,-0.985395220569870056
0.601000000000000423,-0.976891705101341379
0.602000000000000424,-0.968426361045677142
0.603000000000000425,-0.959999640488738648
0.604000000000000425,-0.951611980892451248
0.605000000000000426,-0.943263805295062818
0.606000000000000427,-0.934955522510860781
0.607000000000000428,-0.926687527329159599
0.608000000000000429,-0.918460200712764463
0.609000000000000430,-0.910273909995539809
0.610000000000000431,-0.902129009079341460
0.611000000000000432,-0.894025838630041259
0.612000000000000433,-0.885964726272698733
0.613000000000000433,-0.877945986785850230
0.614000000000000434,-0.869969922294824061
0.615000000000000435,-0.862036822464044783
0.616000000000000436,-0.854146964688316523
0.617000000000000437,-0.846300614283071795
0.618000000000000438,-0.838498024673468123
0.619000000000000439,-0.830739437582337259
0.620000000000000440,-0.823025083217014064
0.621000000000000441,-0.815355180454909734
0.622000000000000441,-0.807729937027884093
0.623000000000000442,-0.800149549705320373
0.624000000000000443,-0.792614204475930562
0.625000000000000444,-0.785124076728252462
0.626000000000000445,-0.777679331429763754
0.627000000000000446,-0.770280123304672770
0.628000000000000447,-0.762926597010296192
0.629000000000000448,-0.755618887312028975
0.630000000000000449,-0.748357119256877312
0.631000000000000449,-0.741141408345553532
0.632000000000000450,-0.733971860703089840
0.633000000000000451,-0.726848573247988905
0.634000000000000452,-0.719771633859829008
0.635000000000000453,-0.712741121545408696
0.636000000000000454,-0.705757106603303930
0.637000000000000455,-0.698819650786938640
0.638000000000000456,-0.691928807466048901
0.639000000000000457,-0.685084621786606784
0.640000000000000457,-0.678287130829184459
0.641000000000000458,-0.671536363765675826
0.642000000000000459,-0.664832342014504696
0.643000000000000460,-0.658175079394146323
0.644000000000000461,-0.651564582275108939
0.645000000000000462,-0.645000849730271941
0.646000000000000463,-0.638483873683588721
0.647000000000000464,-0.632013639057198096
0.648000000000000465,-0.625590123916897722
0.649000000000000465,-0.619213299615969159
0.650000000000000466,-0.612883130937405207
0.651000000000000467,-0.606599576234460591
0.652000000000000468,-0.600362587569611472
0.653000000000000469,-0.594172110851831858
0.654000000000000470,-0.588028085972287062
0.655000000000000471,-0.581930446938355828
0.656000000000000472,-0.575879122006029087
0.657000000000000473,-0.569874033810672920
0.658000000000000473,-0.563915099496186678
0.659000000000000474,-0.558002230842505886
0.660000000000000475,-0.552135334391508636
0.661000000000000476,-0.546314311571273081
0.662000000000000477,-0.540539058818765072
0.663000000000000478,-0.534809467700868124
0.664000000000000479,-0.529125425033877494
0.665000000000000480,-0.523486813001298179
0.666000000000000481,-0.517893509270175634
0.667000000000000481,-0.512345387105715866
0.668000000000000482,-0.506842315484446138
0.669000000000000483,-0.501384159205708668
0.670000000000000484,-0.495970779001656592
0.671000000000000485,-0.490602031645669290
0.672000000000000486,-0.485277770059213409
0.673000000000000487,-0.479997843417206582
0.674000000000000488,-0.474762097251803294
0.675000000000000488,-0.469570373554680842
0.676000000000000489,-0.464422510877854133
0.677000000000000490,-0.459318344432916803
0.678000000000000491,-0.454257706188856580
0.679000000000000492,-0.449240424968366470
0.680000000000000493,-0.444266326542671230
0.681000000000000494,-0.439335233724936658
0.682000000000000495,-0.434446966462180062
0.683000000000000496,-0.429601341925793467
0.684000000000000496,-0.424798174600607870
0.685000000000000497,-0.420037276372550950
0.686000000000000498,-0.415318456614920894
0.687000000000000499,-0.410641522273239468
0.688000000000000500,-0.406006277948740446
0.689000000000000501,-0.401412525980497037
0.690000000000000502,-0.396860066526193711
0.691000000000000503,-0.392348697641541289
0.692000000000000504,-0.387878215358359313
0.693000000000000504,-0.383448413761384443
0.694000000000000505,-0.379059085063691736
0.695000000000000506,-0.374710019680913331
0.696000000000000507,-0.370401006304108715
0.697000000000000508,-0.366131831971390986
0.698000000000000509,-0.361902282138309439
0.699000000000000510,-0.357712140746968110
0.700000000000000511,-0.353561190293924577
0.701000000000000512,-0.349449211896878165
0.702000000000000512,-0.345375985360137083
0.703000000000000513,-0.341341289238911494
0.704000000000000514,-0.337344900902419254
0.705000000000000515,-0.333386596595825702
0.706000000000000516,-0.329466151501036308
0.707000000000000517,-0.325583339796357008
0.708000000000000518,-0.321737934714983742
0.709000000000000519,-0.317929708602466110
0.710000000000000520,-0.314158432972970858
0.711000000000000520,-0.310423878564528910
0.712000000000000521,-0.306725815393184331
0.713000000000000522,-0.303064012806059768
0.714000000000000523,-0.299438239533421358
0.715000000000000524,-0.295848263739656558
0.716000000000000525,-0.292293853073270382
0.717000000000000526,-0.288774774715849669
0.718000000000000527,-0.285290795430019783
0.719000000000000528,-0.281841681606435857
0.720000000000000528,-0.278427199309820073
0.721000000000000529,-0.275047114323966890
0.722000000000000530,-0.271701192195895558
0.723000000000000531,-0.268389198278983721
0.724000000000000532,-0.265110897775236776
0.725000000000000533,-0.261866055776630469
0.726000000000000534,-0.258654437305527674
0.727000000000000535,-0.255475807354255402
0.728000000000000536,-0.252329930923773649
0.729000000000000536,-0.249216573061493557
0.730000000000000537,-0.246135498898263944
0.731000000000000538,-0.243086473684481275
0.732000000000000539,-0.240069262825414326
0.733000000000000540,-0.237083631915689763
0.734000000000000541,-0.234129346772991326
0.735000000000000542,-0.231206173470938914
0.736000000000000543,-0.228313878371240897
0.737000000000000544,-0.225452228155014062
0.738000000000000544,-0.222620989853417495
0.739000000000000545,-0.219819930877470121
0.740000000000000546,-0.217048819047192781
0.741000000000000547,-0.214307422619977539
0.742000000000000548,-0.211595510318318386
0.743000000000000549,-0.208912851356740037
0.744000000000000550,-0.206259215468116208
0.745000000000000551,-0.203634372929281771
0.746000000000000552,-0.201038094585972382
0.747000000000000552,-0.198470151877114170
0.748000000000000553,-0.195930316858451498
0.749000000000000554,-0.193418362225552226
0.750000000000000555,-0.190934061336181959
0.751000000000000556,-0.188477188232042764
0.752000000000000557,-0.186047517659953116
0.753000000000000558,-0.183644825092347336
0.754000000000000559,-0.181268886747281643
0.755000000000000560,-0.178919479607790505
0.756000000000000560,-0.176596381440724620
0.757000000000000561,-0.174299370814979676
0.758000000000000562,-0.172028227119211896
0.759000000000000563,-0.169782730579012886
0.760000000000000564,-0.167562662273538915
0.761000000000000565,-0.165367804151619141
0.762000000000000566,-0.163197939047360879
0.763000000000000567,-0.161052850695242528
0.764000000000000568,-0.158932323744705867
0.765000000000000568,-0.156836143774292919
0.766000000000000569,-0.154764097305251730
0.767000000000000570,-0.152715971814731677
0.768000000000000571,-0.150691555748458966
0.769000000000000572,-0.148690638533013314
0.770000000000000573,-0.146713010587618264
0.771000000000000574,-0.144758463335524334
0.772000000000000575,-0.142826789214946764
0.773000000000000576,-0.140917781689582078
0.774000000000000576,-0.139031235258720215
0.775000000000000577,-0.137166945466954487
0.776000000000000578,-0.135324708913471314
0.777000000000000579,-0.133504323260988433
0.778000000000000580,-0.131705587244267452
0.779000000000000581,-0.129928300678281011
0.780000000000000582,-0.128172264465998581
0.781000000000000583,-0.126437280605821434
0.782000000000000584,-0.124723152198653445
0.783000000000000584,-0.123029683454619551
0.784000000000000585,-0.121356679699472947
0.785000000000000586,-0.119703947380625203
0.786000000000000587,-0.118071294072892213
0.787000000000000588,-0.116458528483895193
0.788000000000000589,-0.114865460459137994
0.789000000000000590,-0.113291900986820668
0.790000000000000591,-0.111737662202300483
0.791000000000000592,-0.110202557392290568
0.792000000000000592,-0.108686400998761104
0.793000000000000593,-0.107189008622550166
0.794000000000000594,-0.105710197026708877
0.795000000000000595,-0.104249784139582552
0.796000000000000596,-0.102807589057586801
0.797000000000000597,-0.101383432047781288
0.798000000000000598,-0.099977134550147978
0.799000000000000599,-0.098588519179627007
0.800000000000000600,-0.097217409727937160
0.801000000000000600,-0.095863631165117993
0.802000000000000601,-0.094527009640867840
0.803000000000000602,-0.093207372485642606
0.804000000000000603,-0.091904548211544243
0.805000000000000604,-0.090618366512986451
0.806000000000000605,-0.089348658267122349
0.807000000000000606,-0.088095255534121925
0.808000000000000607,-0.086857991557192787
0.809000000000000608,-0.085636700762425480
0.810000000000000608,-0.084431218758468957
0.811000000000000609,-0.083241382335949077
0.812000000000000610,-0.082067029466801722
0.813000000000000611,-0.080907999303327566
0.814000000000000612,-0.079764132177137875
0.815000000000000613,-0.078635269597919263
0.816000000000000614,-0.077521254251997671
0.817000000000000615,-0.076421930000776364
0.818000000000000616,-0.075337141879007558
0.819000000000000616,-0.074266736092902616
0.820000000000000617,-0.073210560018083334
0.821000000000000618,-0.072168462197410230
0.822000000000000619,-0.071140292338664576
0.823000000000000620,-0.070125901312068320
0.824000000000000621,-0.069125141147679856
0.825000000000000622,-0.068137865032684167
0.826000000000000623,-0.067163927308518404
0.827000000000000624,-0.066203183467888504
0.828000000000000624,-0.065255490151676449
0.829000000000000625,-0.064320705145696780
0.830000000000000626,-0.063398687377381635
0.831000000000000627,-0.062489296912320580
0.832000000000000628,-0.061592394950718179
0.833000000000000629,-0.060707843823719819
0.834000000000000630,-0.059835506989658852
0.835000000000000631,-0.058975249030197775
0.836000000000000631,-0.058126935646370503
0.837000000000000632,-0.057290433654542575
0.838000000000000633,-0.056465610982260515
0.839000000000000634,-0.055652336664038883
0.840000000000000635,-0.054850480837057680
0.841000000000000636,-0.054059914736753811
0.842000000000000637,-0.053280510692379587
0.843000000000000638,-0.052512142122438620
0.844000000000000639,-0.051754683530080815
0.845000000000000639,-0.051008010498412380
0.846000000000000640,-0.050271999685730220
0.847000000000000641,-0.049546528820724911
0.848000000000000642,-0.048831476697568391
0.849000000000000643,-0.048126723170975182
0.850000000000000644,-0.047432149151219724
0.851000000000000645,-0.046747636599038744
0.852000000000000646,-0.046073068520539863
0.853000000000000647,-0.045408328962028933
0.854000000000000647,-0.044753303004780684
0.855000000000000648,-0.044107876759781360
0.856000000000000649,-0.043471937362417931
0.857000000000000650,-0.042845372967119766
0.858000000000000651,-0.042228072741951762
0.859000000000000652,-0.041619926863183811
0.860000000000000653,-0.041020826509819211
0.861000000000000654,-0.040430663858061253
0.862000000000000655,-0.039849332075792353
0.863000000000000655,-0.039276725316966063
0.864000000000000656,-0.038712738716020594
0.865000000000000657,-0.038157268382212249
0.866000000000000658,-0.037610211393964109
0.867000000000000659,-0.037071465793174288
0.868000000000000660,-0.036540930579478173
0.869000000000000661,-0.036018505704515633
0.870000000000000662,-0.035504092066164457
0.871000000000000663,-0.034997591502772187
0.872000000000000663,-0.034498906787323459
0.873000000000000664,-0.034007941621647039
0.874000000000000665,-0.033524600630562881
0.875000000000000666,-0.033048789356046236
0.876000000000000667,-0.032580414251355549
0.877000000000000668,-0.032119382675156266
0.878000000000000669,-0.031665602885651588
0.879000000000000670,-0.031218984034665869
0.880000000000000671,-0.030779436161765206
0.881000000000000671,-0.030346870188325437
0.882000000000000672,-0.029921197911640978
0.883000000000000673,-0.029502331998988600
0.884000000000000674,-0.029090185981717937
0.885000000000000675,-0.028684674249314590
0.886000000000000676,-0.028285712043486066
0.887000000000000677,-0.027893215452231040
0.888000000000000678,-0.027507101403904621
0.889000000000000679,-0.027127287661314437
0.890000000000000679,-0.026753692815782059
0.891000000000000680,-0.026386236281238373
0.892000000000000681,-0.026024838288307251
0.893000000000000682,-0.025669419878394394
0.894000000000000683,-0.025319902897786673
0.895000000000000684,-0.024976209991766720
0.896000000000000685,-0.024638264598722266
0.897000000000000686,-0.024305990944264083
0.898000000000000687,-0.023979314035370271
0.899000000000000687,-0.023658159654519631
0.900000000000000688,-0.023342454353848525
0.901000000000000689,-0.023032125449316328
0.902000000000000690,-0.022727101014887102
0.903000000000000691,-0.022427309876718142
0.904000000000000692,-0.022132681607363609
0.905000000000000693,-0.021843146519994694
0.906000000000000694,-0.021558635662642250
0.907000000000000695,-0.021279080812430348
0.908000000000000695,-0.021004414469862717
0.909000000000000696,-0.020734569853085454
0.910000000000000697,-0.020469480892209166
0.911000000000000698,-0.020209082223609086
0.912000000000000699,-0.019953309184269484
0.913000000000000700,-0.019702097806151696
0.914000000000000701,-0.019455384810540460
0.915000000000000702,-0.019213107602469040
0.916000000000000703,-0.018975204265116789
0.917000000000000703,-0.018741613554253241
0.918000000000000704,-0.018512274892694736
0.919000000000000705,-0.018287128364777121
0.920000000000000706,-0.018066114710869802
0.921000000000000707,-0.017849175321887546
0.922000000000000708,-0.017636252233837302
0.923000000000000709,-0.017427288122405998
0.924000000000000710,-0.017222226297526334
0.925000000000000711,-0.017021010698014802
0.926000000000000711,-0.016823585886202676
0.927000000000000712,-0.016629897042607054
0.928000000000000713,-0.016439889960613054
0.929000000000000714,-0.016253511041207418
0.930000000000000715,-0.016070707287698126
0.931000000000000716,-0.015891426300489588
0.932000000000000717,-0.015715616271882459
0.933000000000000718,-0.015543225980879339
0.934000000000000719,-0.015374204788038335
0.935000000000000719,-0.015208502630346357
0.936000000000000720,-0.015046070016106411
0.937000000000000721,-0.014886858019871847
0.938000000000000722,-0.014730818277400998
0.939000000000000723,-0.014577902980628077
0.940000000000000724,-0.014428064872675417
0.941000000000000725,-0.014281257242888539
0.942000000000000726,-0.014137433921904526
0.943000000000000727,-0.013996549276727796
0.944000000000000727,-0.013858558205865895
0.945000000000000728,-0.013723416134472111
0.946000000000000729,-0.013591079009510832
0.947000000000000730,-0.013461503294980822
0.948000000000000731,-0.013334645967126657
0.949000000000000732,-0.013210464509723352
0.950000000000000733,-0.013088916909340992
0.951000000000000734,-0.012969961650696782
0.952000000000000735,-0.012853557711976115
0.953000000000000735,-0.012739664560217459
0.954000000000000736,-0.012628242146727243
0.955000000000000737,-0.012519250902505871
0.956000000000000738,-0.012412651733721159
0.957000000000000739,-0.012308406017197855
0.958000000000000740,-0.012206475595944960
0.959000000000000741,-0.012106822774700850
0.960000000000000742,-0.012009410315532232
0.961000000000000743,-0.011914201433429816
0.962000000000000743,-0.011821159791956509
0.963000000000000744,-0.011730249498919605
0.964000000000000745,-0.011641435102074705
0.965000000000000746,-0.011554681584845312
0.966000000000000747,-0.011469954362093124
0.967000000000000748,-0.011387219275895713
0.968000000000000749,-0.011306442591382183
0.969000000000000750,-0.011227590992558923
0.970000000000000751,-0.011150631578210793
0.971000000000000751,-0.011075531857788220
0.972000000000000752,-0.011002259747344275
0.973000000000000753,-0.010930783565519939
0.974000000000000754,-0.010861072029516408
0.975000000000000755,-0.010793094251129415
0.976000000000000756,-0.010726819732802605
0.977000000000000757,-0.010662218363703086
0.978000000000000758,-0.010599260415835740
0.979000000000000759,-0.010537916540195256
0.980000000000000759,-0.010478157762911812
0.981000000000000760,-0.010419955481467149
0.982000000000000761,-0.010363281460921239
0.983000000000000762,-0.010308107830158397
0.984000000000000763,-0.010254407078173234
0.985000000000000764,-0.010202152050396027
0.986000000000000765,-0.010151315945018577
0.987000000000000766,-0.010101872309370877
0.988000000000000766,-0.010053795036318383
0.989000000000000767,-0.010007058360690983
0.990000000000000768,-0.009961636855741401
0.991000000000000769,-0.009917505429613855
0.992000000000000770,-0.009874639321862624
0.993000000000000771,-0.009833014100003859
0.994000000000000772,-0.009792605656053893
0.995000000000000773,-0.009753390203152671
0.996000000000000774,-0.009715344272163627
0.997000000000000774,-0.009678444708335334
0.998000000000000775,-0.009642668667972219
0.999000000000000776,-0.009607993615141074
1.000000000000000666,-0.009574397318397853
1.001000000000000778,-0.009541857847553284
1.002000000000000668,-0.009510353570449813
1.003000000000000780,-0.009479863149776703
1.004000000000000670,-0.009450365539905636
1.005000000000000782,-0.009421839983761336
1.006000000000000671,-0.009394266009711447
1.007000000000000783,-0.009367623428474799
1.008000000000000673,-0.009341892330076726
1.009000000000000785,-0.009317053080814413
1.010000000000000675,-0.009293086320249838
1.011000000000000787,-0.009269972958232470
1.012000000000000677,-0.009247694171951801
1.013000000000000789,-0.009226231403005398
1.014000000000000679,-0.009205566354488246
1.015000000000000790,-0.009185680988135051
1.016000000000000680,-0.009166557521455431
1.017000000000000792,-0.009148178424909262
1.018000000000000682,-0.009130526419103101
1.019000000000000794,-0.009113584472017794
1.020000000000000684,-0.009097335796256930
1.021000000000000796,-0.009081763846311864
1.022000000000000686,-0.009066852315862172
1.023000000000000798,-0.009052585135097912
1.024000000000000687,-0.009038946468056546
1.025000000000000799,-0.009025920710000806
1.026000000000000689,-0.009013492484805504
1.027000000000000801,-0.009001646642372088
1.028000000000000691,-0.008990368256070108
1.029000000000000803,-0.008979642620201053
1.030000000000000693,-0.008969455247473630
1.031000000000000805,-0.008959791866532349
1.032000000000000695,-0.008950638419464181
1.033000000000000806,-0.008941981059373334
1.034000000000000696,-0.008933806147949913
1.035000000000000808,-0.008926100253063280
1.036000000000000698,-0.008918850146388654
1.037000000000000810,-0.008912042801061880
1.038000000000000700,-0.008905665389324784
1.039000000000000812,-0.008899705280219923
1.040000000000000702,-0.008894150037310556
1.041000000000000814,-0.008888987416400273
1.042000000000000703,-0.008884205363281101
1.043000000000000815,-0.008879792011519078
1.044000000000000705,-0.008875735680246580
1.045000000000000817,-0.008872024871963239
1.046000000000000707,-0.008868648270393360
1.047000000000000819,-0.008865594738330840
1.048000000000000709,-0.008862853315516681
1.049000000000000821,-0.008860413216543428
1.050000000000000711,-0.008858263828762855
1.051000000000000822,-0.008856394710238701
1.052000000000000712,-0.008854795587692886
1.053000000000000824,-0.008853456354487763
1.054000000000000714,-0.008852367068626275
1.055000000000000826,-0.008851517950766479
1.056000000000000716,-0.008850899382260916
1.057000000000000828,-0.008850501903210467
1.058000000000000718,-0.008850316210539439
1.059000000000000830,-0.008850333156090275
1.060000000000000719,-0.008850543744738657
1.061000000000000831,-0.008850939132522358
1.062000000000000721,-0.008851510624788254
1.063000000000000833,-0.008852249674376320
1.064000000000000723,-0.008853147879782485
1.065000000000000835,-0.008854196983383203
1.066000000000000725,-0.008855388869656025
1.067000000000000837,-0.008856715563401679
1.068000000000000727,-0.008858169228033636
1.069000000000000838,-0.008859742163825549
1.070000000000000728,-0.008861426806221274
1.071000000000000840,-0.008863215724140557
1.072000000000000730,-0.008865101618309900
1.073000000000000842,-0.008867077319604417
1.074000000000000732,-0.008869135787404401
1.075000000000000844,-0.008871270107986953
1.076000000000000734,-0.008873473492914331
1.077000000000000846,-0.008875739277439764
1.078000000000000735,-0.008878060918946898
1.079000000000000847,-0.008880431995381671
1.080000000000000737,-0.008882846203729233
1.081000000000000849,-0.008885297358472492
1.082000000000000739,-0.008887779390091622
1.083000000000000851,-0.008890286343575336
1.084000000000000741,-0.008892812376941900
1.085000000000000853,-0.008895351759773613
1.086000000000000743,-0.008897898871772480
1.087000000000000854,-0.008900448201335251
1.088000000000000744,-0.008902994344135478
1.089000000000000856,-0.008905532001713002
1.090000000000000746,-0.008908055980097460
1.091000000000000858,-0.008910561188440327
1.092000000000000748,-0.008913042637644319
1.093000000000000860,-0.008915495439037753
1.094000000000000750,-0.008917914803026889
1.095000000000000862,-0.008920296037802013
1.096000000000000751,-0.008922634548025356
1.097000000000000863,-0.008924925833540744
1.098000000000000753,-0.008927165488117153
1.099000000000000865,-0.008929349198179970
1.100000000000000755,-0.008931472741560540
1.101000000000000867,-0.008933531986276270
1.102000000000000757,-0.008935522889304322
1.103000000000000869,-0.008937441495385372
1.104000000000000759,-0.008939283935814713
1.105000000000000870,-0.008941046427285382
1.106000000000000760,-0.008942725270697898
1.107000000000000872,-0.008944316850029421
1.108000000000000762,-0.008945817631179305
1.109000000000000874,-0.008947224160846482
1.110000000000000764,-0.008948533065408531
1.111000000000000876,-0.008949741049818627
1.112000000000000766,-0.008950844896520814
1.113000000000000878,-0.008951841464363699
1.114000000000000767,-0.008952727687537937
1.115000000000000879,-0.008953500574514228
1.116000000000000769,-0.008954157207004970
1.117000000000000881,-0.008954694738928886
1.118000000000000771,-0.008955110395391373
1.119000000000000883,-0.008955401471678679
1.120000000000000773,-0.008955565332254476
1.121000000000000885,-0.008955599409776433
1.122000000000000774,-0.008955501204115458
1.123000000000000886,-0.008955268281396016
1.124000000000000776,-0.008954898273048992
1.125000000000000888,-0.008954388874847851
1.126000000000000778,-0.008953737845993780
1.127000000000000890,-0.008952943008199090
1.128000000000000780,-0.008952002244750729
1.129000000000000892,-0.008950913499635615
1.130000000000000782,-0.008949674776637752
1.131000000000000894,-0.008948284138454703
1.132000000000000783,-0.008946739705835547
1.133000000000000895,-0.008945039656722140
1.134000000000000785,-0.008943182225380273
1.135000000000000897,-0.008941165701588769
1.136000000000000787,-0.008938988429779578
1.137000000000000899,-0.008936648808238601
1.138000000000000789,-0.008934145288274100
1.139000000000000901,-0.008931476373438968
1.140000000000000790,-0.008928640618718007
1.141000000000000902,-0.008925636629743595
1.142000000000000792,-0.008922463062037511
1.143000000000000904,-0.008919118620229439
1.144000000000000794,-0.008915602057316580
1.145000000000000906,-0.008911912173891739
1.146000000000000796,-0.008908047817433807
1.147000000000000908,-0.008904007881556235
1.148000000000000798,-0.008899791305294847
1.149000000000000909,-0.008895397072395053
1.150000000000000799,-0.008890824210599824
1.151000000000000689,-0.008886071790964362
1.152000000000000801,-0.008881138927162862
1.153000000000000913,-0.008876024774811529
1.154000000000000803,-0.008870728530794143
1.155000000000000693,-0.008865249432597231
1.156000000000000805,-0.008859586757667574
1.157000000000000917,-0.008853739822742495
1.158000000000000806,-0.008847707983234320
1.159000000000000696,-0.008841490632582827
1.160000000000000808,-0.008835087201634203
1.161000000000000920,-0.008828497158026872
1.162000000000000810,-0.008821720005586679
1.163000000000000700,-0.008814755283713328
1.164000000000000812,-0.008807602566798953
1.165000000000000924,-0.008800261463627444
1.166000000000000814,-0.008792731616812089
1.167000000000000703,-0.008785012702204378
1.168000000000000815,-0.008777104428346120
1.169000000000000927,-0.008769006535893102
1.170000000000000817,-0.008760718797079882
1.171000000000000707,-0.008752241015159761
1.172000000000000819,-0.008743573023883086
1.173000000000000931,-0.008734714686952140
1.174000000000000821,-0.008725665897498522
1.175000000000000711,-0.008716426577573103
1.176000000000000822,-0.008706996677627431
1.177000000000000934,-0.008697376176009197
1.178000000000000824,-0.008687565078465867
1.179000000000000714,-0.008677563417645782
1.180000000000000826,-0.008667371252624328
1.181000000000000938,-0.008656988668406891
1.182000000000000828,-0.008646415775467948
1.183000000000000718,-0.008635652709281435
1.184000000000000830,-0.008624699629852833
1.185000000000000941,-0.008613556721261467
1.186000000000000831,-0.008602224191224162
1.187000000000000721,-0.008590702270631006
1.188000000000000833,-0.008578991213123237
1.189000000000000945,-0.008567091294649743
1.190000000000000835,-0.008555002813049072
1.191000000000000725,-0.008542726087608218
1.192000000000000837,-0.008530261458676858
1.193000000000000949,-0.008517609287220618
1.194000000000000838,-0.008504769954446217
1.195000000000000728,-0.008491743861379450
1.196000000000000840,-0.008478531428480315
1.197000000000000952,-0.008465133095255227
1.198000000000000842,-0.008451549319858975
1.199000000000000732,-0.008437780578736568
1.200000000000000844,-0.008423827366217947
1.201000000000000956,-0.008409690194179986
1.202000000000000846,-0.008395369591660280
1.203000000000000735,-0.008380866104506595
1.204000000000000847,-0.008366180295011572
1.205000000000000959,-0.008351312741582110
1.206000000000000849,-0.008336264038370865
1.207000000000000739,-0.008321034794946098
1.208000000000000851,-0.008305625635958269
1.209000000000000963,-0.008290037200798444
1.210000000000000853,-0.008274270143281661
1.211000000000000743,-0.008258325131313011
1.212000000000000854,-0.008242202846578280
1.213000000000000966,-0.008225903984219419
1.214000000000000856,-0.008209429252540871
1.215000000000000746,-0.008192779372681690
1.216000000000000858,-0.008175955078336374
1.217000000000000970,-0.008158957115440164
1.218000000000000860,-0.008141786241883209
1.219000000000000750,-0.008124443227223725
1.220000000000000862,-0.008106928852398321
1.221000000000000973,-0.008089243909439851
1.222000000000000863,-0.008071389201207878
1.223000000000000753,-0.008053365541102715
1.224000000000000865,-0.008035173752809158
1.225000000000000977,-0.008016814670022316
1.226000000000000867,-0.007998289136188120
1.227000000000000757,-0.007979598004245152
1.228000000000000869,-0.007960742136366040
1.229000000000000981,-0.007941722403720670
1.230000000000000870,-0.007922539686205090
1.231000000000000760,-0.007903194872216773
1.232000000000000872,-0.007883688858416293
1.233000000000000984,-0.007864022549466013
1.234000000000000874,-0.007844196857829314
1.235000000000000764,-0.007824212703515082
1.236000000000000876,-0.007804071013864279
1.237000000000000988,-0.007783772723319285
1.238000000000000878,-0.007763318773213135
1.239000000000000767,-0.007742710111541165
1.240000000000000879,-0.007721947692756448
1.241000000000000991,-0.007701032477555088
1.242000000000000881,-0.007679965432667661
1.243000000000000771,-0.007658747530660201
1.244000000000000883,-0.007637379749724424
1.245000000000000995,-0.007615863073491052
1.246000000000000885,-0.007594198490824694
1.247000000000000774,-0.007572386995634337
1.248000000000000886,-0.007550429586685820
1.249000000000000998,-0.007528327267412338
1.250000000000000888,-0.007506081045737603
1.251000000000000778,-0.007483691933883119
1.252000000000000890,-0.007461160948203449
1.253000000000001002,-0.007438489108995835
1.254000000000000892,-0.007415677440346149
1.255000000000000782,-0.007392726969941347
1.256000000000000894,-0.007369638728910661
1.257000000000001005,-0.007346413751662005
1.258000000000000895,-0.007323053075717761
1.259000000000000785,-0.007299557741551844
1.260000000000000897,-0.007275928792438024
1.261000000000001009,-0.007252167274294410
1.262000000000000899,-0.007228274235527692
1.263000000000000789,-0.007204250726885800
1.264000000000000901,-0.007180097801314697
1.265000000000001013,-0.007155816513803932
1.266000000000000902,-0.007131407921254095
1.267000000000000792,-0.007106873082328155
1.268000000000000904,-0.007082213057320877
1.269000000000001016,-0.007057428908016935
1.270000000000000906,-0.007032521697564869
1.271000000000000796,-0.007007492490336829
1.272000000000000908,-0.006982342351803966
1.273000000000001020,-0.006957072348411126
1.274000000000000909,-0.006931683547451628
1.275000000000000799,-0.006906177016936100
1.276000000000000911,-0.006880553825489627
1.277000000000001023,-0.006854815042213494
1.278000000000000913,-0.006828961736580727
1.279000000000000803,-0.006802994978317154
1.280000000000000915,-0.006776915837297867
1.281000000000001027,-0.006750725383414351
1.282000000000000917,-0.006724424686492467
1.283000000000000806,-0.006698014816164916
1.284000000000000918,-0.006671496841781343
1.285000000000001030,-0.006644871832293012
1.286000000000000920,-0.006618140856160292
1.287000000000000810,-0.006591304981244746
1.288000000000000922,-0.006564365274725823
1.289000000000001034,-0.006537322802987339
1.290000000000000924,-0.006510178631530875
1.291000000000000814,-0.006482933824892007
1.292000000000000925,-0.006455589446528881
1.293000000000001037,-0.006428146558758353
1.294000000000000927,-0.006400606222649130
1.295000000000000817,-0.006372969497940068
1.296000000000000929,-0.006345237442964067
1.297000000000001041,-0.006317411114553702
1.298000000000000931,-0.006289491567969673
1.299000000000000821,-0.006261479856819298
1.300000000000000933,-0.006233377032970916
1.301000000000001044,-0.006205184146486684
1.302000000000000934,-0.006176902245542714
1.303000000000000824,-0.006148532376361283
1.304000000000000936,-0.006120075583125234
1.305000000000001048,-0.006091532907923208
1.306000000000000938,-0.006062905390672660
1.307000000000000828,-0.006034194069050628
1.308000000000000940,-0.006005399978425916
1.309000000000001052,-0.005976524151806889
1.310000000000000941,-0.005947567619758724
1.311000000000000831,-0.005918531410355495
1.312000000000000943,-0.005889416549105837
1.313000000000001055,-0.005860224058913397
1.314000000000000945,-0.005830954959994953
1.315000000000000835,-0.005801610269835070
1.316000000000000947,-0.005772191003131517
1.317000000000001059,-0.005742698171738544
1.318000000000000949,-0.005713132784601215
1.319000000000000838,-0.005683495847727572
1.320000000000000950,-0.005653788364114972
1.321000000000001062,-0.005624011333706144
1.322000000000000952,-0.005594165753347749
1.323000000000000842,-0.005564252616729858
1.324000000000000954,-0.005534272914351409
1.325000000000001066,-0.005504227633461760
1.326000000000000956,-0.005474117758030297
1.327000000000000846,-0.005443944268688242
1.328000000000000957,-0.005413708142699329
1.329000000000001069,-0.005383410353903190
1.330000000000000959,-0.005353051872693249
1.331000000000000849,-0.005322633665963196
1.332000000000000961,-0.005292156697068337
1.333000000000001073,-0.005261621925794871
1.334000000000000963,-0.005231030308323658
1.335000000000000853,-0.005200382797186936
1.336000000000000965,-0.005169680341239142
1.337000000000001076,-0.005138923885623736
1.338000000000000966,-0.005108114371734316
1.339000000000000856,-0.005077252737191838
1.340000000000000968,-0.005046339915804550
1.341000000000001080,-0.005015376837540789
1.342000000000000970,-0.004984364428502186
1.343000000000000860,-0.004953303610892179
1.344000000000000972,-0.004922195302987395
1.345000000000001084,-0.004891040419116882
1.346000000000000973,-0.004859839869627144
1.347000000000000863,-0.004828594560864338
1.348000000000000975,-0.004797305395142231
1.349000000000001087,-0.004765973270724718
1.350000000000000977,-0.004734599081803220
1.351000000000000867,-0.004703183718473154
1.352000000000000979,-0.004671728066701139
1.353000000000001091,-0.004640233008326037
1.354000000000000981,-0.004608699421022776
1.355000000000000870,-0.004577128178285267
1.356000000000000982,-0.004545520149412499
1.357000000000001094,-0.004513876199488687
1.358000000000000984,-0.004482197189363496
1.359000000000000874,-0.004450483975636864
1.360000000000000986,-0.004418737410641733
1.361000000000001098,-0.004386958342438460
1.362000000000000988,-0.004355147614781682
1.363000000000000878,-0.004323306067119314
1.364000000000000989,-0.004291434534584695
1.365000000000001101,-0.004259533847963348
1.366000000000000991,-0.004227604833698236
1.367000000000000881,-0.004195648313874678
1.368000000000000993,-0.004163665106203990
1.369000000000001105,-0.004131656024018051
1.370000000000000995,-0.004099621876256479
1.371000000000000885,-0.004067563467459137
1.372000000000000997,-0.004035481597754820
1.373000000000001108,-0.004003377062861231
1.374000000000000998,-0.003971250654056555
1.375000000000000888,-0.003939103158201597
1.376000000000001000,-0.003906935357710519
1.377000000000001112,-0.003874748030550455
1.378000000000001002,-0.003842541950240799
1.379000000000000892,-0.003810317885841759
1.380000000000001004,-0.003778076601951604
1.381000000000001116,-0.003745818858707489
1.382000000000001005,-0.003713545411770909
1.383000000000000895,-0.003681257012333205
1.384000000000001007,-0.003648954407110007
1.385000000000001119,-0.003616638338336538
1.386000000000001009,-0.003584309543772582
1.387000000000000899,-0.003551968756684158
1.388000000000001011,-0.003519616705871303
1.389000000000001123,-0.003487254115634822
1.390000000000001013,-0.003454881705798259
1.391000000000000902,-0.003422500191696645
1.392000000000001014,-0.003390110284182811
1.393000000000001126,-0.003357712689625472
1.394000000000001016,-0.003325308109913877
1.395000000000000906,-0.003292897242453100
1.396000000000001018,-0.003260480780168221
1.397000000000001130,-0.003228059411510646
1.398000000000001020,-0.003195633820457182
1.399000000000000909,-0.003163204686511761
1.400000000000001021,-0.003130772684710801
1.401000000000001133,-0.003098338485629620
1.402000000000001023,-0.003065902755379639
1.403000000000000913,-0.003033466155613157
1.404000000000001025,-0.003001029343539920
1.405000000000001137,-0.002968592971914603
1.406000000000001027,-0.002936157689052516
1.407000000000000917,-0.002903724138839105
1.408000000000001029,-0.002871292960719660
1.409000000000001140,-0.002838864789722438
1.410000000000001030,-0.002806440256456329
1.411000000000000920,-0.002774019987117393
1.412000000000001032,-0.002741604603497919
1.413000000000001144,-0.002709194722995947
1.414000000000001034,-0.002676790958615942
1.415000000000000924,-0.002644393918979540
1.416000000000001036,-0.002612004208340171
1.417000000000001148,-0.002579622426582882
1.418000000000001037,-0.002547249169232877
1.419000000000000927,-0.002514885027467884
1.420000000000001039,-0.002482530588124604
1.421000000000001151,-0.002450186433714201
1.422000000000001041,-0.002417853142418830
1.423000000000000931,-0.002385531288113870
1.424000000000001043,-0.002353221440372352
1.425000000000001155,-0.002320924164471557
1.426000000000001044,-0.002288640021411091
1.427000000000000934,-0.002256369567916879
1.428000000000001046,-0.002224113356456524
1.429000000000001158,-0.002191871935240636
1.430000000000001048,-0.002159645848249958
1.431000000000000938,-0.002127435635228997
1.432000000000001050,-0.002095241831710140
1.433000000000001162,-0.002063064969021532
1.434000000000001052,-0.002030905574291720
1.435000000000000941,-0.001998764170476336
1.436000000000001053,-0.001966641276353311
1.437000000000001165,-0.001934537406544851
1.438000000000001055,-0.001902453071533328
1.439000000000000945,-0.001870388777662609
1.440000000000001057,-0.001838345027160790
1.441000000000001169,-0.001806322318142767
1.442000000000001059,-0.001774321144633462
1.443000000000000949,-0.001742341996577406
1.444000000000001060,-0.001710385359848335
1.445000000000001172,-0.001678451716263653
1.446000000000001062,-0.001646541543606096
1.447000000000000952,-0.001614655315622950
1.448000000000001064,-0.001582793502051683
1.449000000000001176,-0.001550956568631555
1.450000000000001066,-0.001519144977110648
1.451000000000000956,-0.001487359185265728
1.452000000000001068,-0.001455599646918716
1.453000000000001180,-0.001423866811945699
1.454000000000001069,-0.001392161126291302
1.455000000000000959,-0.001360483031989196
1.456000000000001071,-0.001328832967168279
1.457000000000001183,-0.001297211366077043
1.458000000000001073,-0.001265618659089742
1.459000000000000963,-0.001234055272722673
1.460000000000001075,-0.001202521629655639
1.461000000000001187,-0.001171018148736130
1.462000000000001076,-0.001139545245008666
1.463000000000000966,-0.001108103329715154
1.464000000000001078,-0.001076692810318852
1.465000000000001190,-0.001045314090520180
1.466000000000001080,-0.001013967570265477
1.467000000000000970,-0.000982653645769431
1.468000000000001082,-0.000951372709529205
1.469000000000001194,-0.000920125150334250
1.470000000000001084,-0.000888911353289870
1.471000000000000973,-0.000857731699826494
1.472000000000001085,-0.000826586567724807
1.473000000000001197,-0.000795476331117456
1.474000000000001087,-0.000764401360519939
1.475000000000000977,-0.000733362022831009
1.476000000000001089,-0.000702358681364304
1.477000000000001201,-0.000671391695855698
1.478000000000001091,-0.000640461422477516
1.479000000000000981,-0.000609568213861279
1.480000000000001092,-0.000578712419108084
1.481000000000001204,-0.000547894383808317
1.482000000000001094,-0.000517114450056926
1.483000000000000984,-0.000486372956471928
1.484000000000001096,-0.000455670238203996
1.485000000000001208,-0.000425006626957320
1.486000000000001098,-0.000394382451011502
1.487000000000000988,-0.000363798035226399
1.488000000000001100,-0.000333253701064431
1.489000000000001211,-0.000302749766611828
1.490000000000001101,-0.000272286546587748
1.491000000000000991,-0.000241864352359816
1.492000000000001103,-0.000211483491969499
1.493000000000001215,-0.000181144270142573
1.494000000000001105,-0.000150846988301962
1.495000000000000995,-0.000120591944591390
1.496000000000001107,-0.000090379433890759
1.497000000000001219,-0.000060209747830440
1.498000000000001108,-0.000030083174807030
1.499000000000000998,0.000000000000000000
