# Pt001_AFUC-JS
# h[nm],U(h)[kJ/mol]
0.149999999999999994,155.861161487110450707
0.150999999999999995,149.320941912790345896
0.151999999999999996,144.990748587092696198
0.152999999999999997,141.045968637585360739
0.153999999999999998,136.887323229365250654
0.154999999999999999,132.461339758727717708
0.156000000000000000,127.905424993699654124
0.157000000000000001,123.379619253565323334
0.158000000000000002,119.000535537662472052
0.159000000000000002,114.827178633449648260
0.160000000000000003,110.869831473125756816
0.161000000000000004,107.106402854287964033
0.162000000000000005,103.498508992156573072
0.163000000000000006,100.004073263977488750
0.164000000000000007,96.585660986596920452
0.165000000000000008,93.214951757752572803
0.166000000000000009,89.874220256564171905
0.167000000000000010,86.555776849286914398
0.168000000000000010,83.260210998604961219
0.169000000000000011,79.994098953637475802
0.170000000000000012,76.767645721320192820
0.171000000000000013,73.592561091241265103
0.172000000000000014,70.480332872425748292
0.173000000000000015,67.440959388079264158
0.174000000000000016,64.482134235264524591
0.175000000000000017,61.608833697974503707
0.176000000000000018,58.823234882309137106
0.177000000000000018,56.124884952593241394
0.178000000000000019,53.511043985506695719
0.179000000000000020,50.977132109527474313
0.180000000000000021,48.517222886473476251
0.181000000000000022,46.124537271180599873
0.182000000000000023,43.791904580111477685
0.183000000000000024,41.512167862825137377
0.184000000000000025,39.278520448181723168
0.185000000000000026,37.084768056897942756
0.186000000000000026,34.925516750063962945
0.187000000000000027,32.796291254861912989
0.188000000000000028,30.693591075714472538
0.189000000000000029,28.614893491838863326
0.190000000000000030,26.558613294013817097
0.191000000000000031,24.524029144001257663
0.192000000000000032,22.511185945936379227
0.193000000000000033,20.520781768572085468
0.194000000000000034,18.554046789779793158
0.195000000000000034,16.612620561183657486
0.196000000000000035,14.698432696461788183
0.197000000000000036,12.813590934221597450
0.198000000000000037,10.960279458751177373
0.199000000000000038,9.140669406838100031
0.200000000000000039,7.356842661083719648
0.201000000000000040,5.610729334828370440
0.202000000000000041,3.904058788809058989
0.203000000000000042,2.238323577735910508
0.204000000000000042,0.614755395442824204
0.205000000000000043,-0.965688142502121649
0.206000000000000044,-2.502327183426520829
0.207000000000000045,-3.994755165187449109
0.208000000000000046,-5.442827574307012917
0.209000000000000047,-6.846645286802141683
0.210000000000000048,-8.206533772706142926
0.211000000000000049,-9.523019348051779076
0.212000000000000050,-10.796803543356848110
0.213000000000000050,-12.028736532616107979
0.214000000000000051,-13.219790437414639328
0.215000000000000052,-14.371033191809200247
0.216000000000000053,-15.483603528807467598
0.217000000000000054,-16.558687531407521476
0.218000000000000055,-17.597497082232006704
0.219000000000000056,-18.601250447106309593
0.220000000000000057,-19.571155140230558800
0.221000000000000058,-20.508393142136448262
0.222000000000000058,-21.414108476320862451
0.223000000000000059,-22.289397095903602519
0.224000000000000060,-23.135298987283128724
0.225000000000000061,-23.952792362807855397
0.226000000000000062,-24.742789788097713455
0.227000000000000063,-25.506136070947171390
0.228000000000000064,-26.243607726796994939
0.229000000000000065,-26.955913829678365801
0.230000000000000066,-27.643698056427126630
0.231000000000000066,-28.307541735018769913
0.232000000000000067,-28.947967714309118747
0.233000000000000068,-29.565444881581775860
0.234000000000000069,-30.160393165462686227
0.235000000000000070,-30.733188874400685364
0.236000000000000071,-31.284170234532400201
0.237000000000000072,-31.813643004926746016
0.238000000000000073,-32.321886062568047748
0.239000000000000073,-32.809156863686510519
0.240000000000000074,-33.275696701932488963
0.241000000000000075,-33.721735697212068317
0.242000000000000076,-34.147497461605908597
0.243000000000000077,-34.553203400565351444
0.244000000000000078,-34.939076618438392074
0.245000000000000079,-35.305345407274195679
0.246000000000000080,-35.652246306764865835
0.247000000000000081,-35.980026731104580051
0.248000000000000081,-36.288947165492643876
0.249000000000000082,-36.579282941010006880
0.250000000000000111,-36.851325601699315371
0.251000000000000112,-37.105383881923046374
0.252000000000000113,-37.341784315525522686
0.253000000000000114,-37.560871501031648734
0.254000000000000115,-37.763008049154237256
0.255000000000000115,-37.948574240303912575
0.256000000000000116,-38.117967420671845957
0.257000000000000117,-38.271601165847023651
0.258000000000000118,-38.409904240891350469
0.259000000000000119,-38.533319385393816958
0.260000000000000120,-38.642301951305704222
0.261000000000000121,-38.737318420376666950
0.262000000000000122,-38.818844826815372073
0.263000000000000123,-38.887365109426575316
0.264000000000000123,-38.943369415974785852
0.265000000000000124,-38.987352380923049111
0.266000000000000125,-39.019811396030128492
0.267000000000000126,-39.041244891586096344
0.268000000000000127,-39.052150644351655728
0.269000000000000128,-39.053024126560679008
0.270000000000000129,-39.044356908668177653
0.271000000000000130,-39.026635126892038841
0.272000000000000131,-39.000338025020070631
0.273000000000000131,-38.965936578443788108
0.274000000000000132,-38.923892206946710814
0.275000000000000133,-38.874655581423027684
0.276000000000000134,-38.818665528437527712
0.277000000000000135,-38.756348035362023552
0.278000000000000136,-38.688115357740528566
0.279000000000000137,-38.614365229542556790
0.280000000000000138,-38.535480176064432101
0.281000000000000139,-38.451826928426768859
0.282000000000000139,-38.363755937893856185
0.283000000000000140,-38.271600987601324562
0.284000000000000141,-38.175678898722097188
0.285000000000000142,-38.076289327619981862
0.286000000000000143,-37.973714650134255066
0.287000000000000144,-37.868219928801167384
0.288000000000000145,-37.760052958545735180
0.289000000000000146,-37.649444386164240939
0.290000000000000147,-37.536607898761033653
0.291000000000000147,-37.421740476197086878
0.292000000000000148,-37.305022702548171765
0.293000000000000149,-37.186619131553321438
0.294000000000000150,-37.066678701054577516
0.295000000000000151,-36.945335191484019788
0.296000000000000152,-36.822707723537959623
0.297000000000000153,-36.698901290289782651
0.298000000000000154,-36.574007319125954041
0.299000000000000155,-36.448104259043155650
0.300000000000000155,-36.321258189014287154
0.301000000000000156,-36.193523443313651455
0.302000000000000157,-36.064943249886582066
0.303000000000000158,-35.935550378050344023
0.304000000000000159,-35.805367792022707363
0.305000000000000160,-35.674409306986973434
0.306000000000000161,-35.542680244617280039
0.307000000000000162,-35.410178085204712772
0.308000000000000163,-35.276893113738267971
0.309000000000000163,-35.142809057508827664
0.310000000000000164,-35.007903713013000413
0.311000000000000165,-34.872149560138332447
0.312000000000000166,-34.735514361811901551
0.313000000000000167,-34.597961747487559592
0.314000000000000168,-34.459451779033493324
0.315000000000000169,-34.319941497762748384
0.316000000000000170,-34.179385451520587935
0.317000000000000171,-34.037736200906941519
0.318000000000000171,-33.894944803868739314
0.319000000000000172,-33.750961278043881464
0.320000000000000173,-33.605735040378696965
0.321000000000000174,-33.459215323670562725
0.322000000000000175,-33.311351569810618400
0.323000000000000176,-33.162093799614936529
0.324000000000000177,-33.011392959238349931
0.325000000000000178,-32.859201243262766923
0.326000000000000179,-32.705472394641773803
0.327000000000000179,-32.550161981764773600
0.328000000000000180,-32.393227652979149411
0.329000000000000181,-32.234629368976058572
0.330000000000000182,-32.074329613505703662
0.331000000000000183,-31.912293582942538706
0.332000000000000184,-31.748489355267373924
0.333000000000000185,-31.582888039076067344
0.334000000000000186,-31.415463903259347234
0.335000000000000187,-31.246194488029210845
0.336000000000000187,-31.075060697992917369
0.337000000000000188,-30.902046877995417162
0.338000000000000189,-30.727140872467931132
0.339000000000000190,-30.550334069032164308
0.340000000000000191,-30.371621427116792802
0.341000000000000192,-30.191001492349073487
0.342000000000000193,-30.008476397483484277
0.343000000000000194,-29.824051850629054172
0.344000000000000195,-29.637737111531045286
0.345000000000000195,-29.449544956656474426
0.346000000000000196,-29.259491633822261036
0.347000000000000197,-29.067596807093867284
0.348000000000000198,-28.873883492668618089
0.349000000000000199,-28.678377986442125547
0.350000000000000200,-28.481109783940564029
0.351000000000000201,-28.282111493282449999
0.352000000000000202,-28.081418741815372897
0.353000000000000203,-27.879070077052780618
0.354000000000000203,-27.675106862515058026
0.355000000000000204,-27.469573169057802886
0.356000000000000205,-27.262515662248183901
0.357000000000000206,-27.053983486328270658
0.358000000000000207,-26.844028145280685038
0.359000000000000208,-26.632703381490454575
0.360000000000000209,-26.420065052472942568
0.361000000000000210,-26.206171006115603461
0.362000000000000210,-25.991080954858233554
0.363000000000000211,-25.774856349214037010
0.364000000000000212,-25.557560251011555152
0.365000000000000213,-25.339257206715245729
0.366000000000000214,-25.120013121161242964
0.367000000000000215,-24.899895132023296185
0.368000000000000216,-24.678971485303414113
0.369000000000000217,-24.457311412121114813
0.370000000000000218,-24.234985007055900752
0.371000000000000218,-24.012063108277811097
0.372000000000000219,-23.788617179682823632
0.373000000000000220,-23.564719195231408122
0.374000000000000221,-23.340441525671618450
0.375000000000000222,-23.115856827810528529
0.376000000000000223,-22.891037936482526050
0.377000000000000224,-22.666057759346845302
0.378000000000000225,-22.440989174632015590
0.379000000000000226,-22.215904931930605670
0.380000000000000226,-21.990877556134204696
0.381000000000000227,-21.765979254585111846
0.382000000000000228,-21.541281827509525471
0.383000000000000229,-21.316856581784755065
0.384000000000000230,-21.092774248081802568
0.385000000000000231,-20.869104901414832653
0.386000000000000232,-20.645917885118070245
0.387000000000000233,-20.423281738262335949
0.388000000000000234,-20.201264126513613917
0.389000000000000234,-19.979931776428916379
0.390000000000000235,-19.759350413175798877
0.391000000000000236,-19.539584701655787313
0.392000000000000237,-19.320698191004300526
0.393000000000000238,-19.102753262434369219
0.394000000000000239,-18.885811080384804939
0.395000000000000240,-18.669931546928964394
0.396000000000000241,-18.455173259394936025
0.397000000000000242,-18.241593471143552563
0.398000000000000242,-18.029248055447023802
0.399000000000000243,-17.818191472406734732
0.400000000000000244,-17.608476738845887155
0.401000000000000245,-17.400155401109756781
0.402000000000000246,-17.193277510703502742
0.403000000000000247,-16.987891602695196269
0.404000000000000248,-16.784044676810207619
0.405000000000000249,-16.581782181140873433
0.406000000000000250,-16.381147998394219201
0.407000000000000250,-16.182184434599516720
0.408000000000000251,-15.984932210196038938
0.409000000000000252,-15.789430453421470446
0.410000000000000253,-15.595716695920220474
0.411000000000000254,-15.403826870491167611
0.412000000000000255,-15.213795310894010271
0.413000000000000256,-15.025654753633730820
0.414000000000000257,-14.839436341642647577
0.415000000000000258,-14.655169629780450791
0.416000000000000258,-14.472882592072640051
0.417000000000000259,-14.292601630608993801
0.418000000000000260,-14.114351586024184826
0.419000000000000261,-13.938155749483779999
0.420000000000000262,-13.764035876099857347
0.421000000000000263,-13.592012199701702713
0.422000000000000264,-13.422103448888099919
0.423000000000000265,-13.254326864289087240
0.424000000000000266,-13.088698216966808019
0.425000000000000266,-12.925231827885756530
0.426000000000000267,-12.763940588384928176
0.427000000000000268,-12.604835981585583937
0.428000000000000269,-12.447928104669943039
0.429000000000000270,-12.293225691967807123
0.430000000000000271,-12.140736138789673504
0.431000000000000272,-11.990465525946692793
0.432000000000000273,-11.842418644899339597
0.433000000000000274,-11.696599023478643886
0.434000000000000274,-11.553008952125086495
0.435000000000000275,-11.411649510592543066
0.436000000000000276,-11.272520595066028548
0.437000000000000277,-11.135620945643582402
0.438000000000000278,-11.000948174134869362
0.439000000000000279,-10.868498792130274921
0.440000000000000280,-10.738268239296164808
0.441000000000000281,-10.610250911853691846
0.442000000000000282,-10.484440191200187442
0.443000000000000282,-10.360828472633700770
0.444000000000000283,-10.239407194143044677
0.445000000000000284,-10.120166865227256281
0.446000000000000285,-10.003097095709735598
0.447000000000000286,-9.888186624514441192
0.448000000000000287,-9.775423348372244803
0.449000000000000288,-9.664794350427936109
0.450000000000000289,-9.556285928718981637
0.451000000000000290,-9.449883624499255674
0.452000000000000290,-9.345572250382014445
0.453000000000000291,-9.243335918277740149
0.454000000000000292,-9.143158067104151243
0.455000000000000293,-9.045021490246465845
0.456000000000000294,-8.948908362747834744
0.457000000000000295,-8.854800268210649250
0.458000000000000296,-8.762678225390926556
0.459000000000000297,-8.672522714469007354
0.460000000000000298,-8.584313702980944427
0.461000000000000298,-8.498030671396161750
0.462000000000000299,-8.413652638327921096
0.463000000000000300,-8.331158185364186508
0.464000000000000301,-8.250525481507592573
0.465000000000000302,-8.171732307214030655
0.466000000000000303,-8.094756078020401091
0.467000000000000304,-8.019573867752892937
0.468000000000000305,-7.946162431308240848
0.469000000000000306,-7.874498227000891859
0.470000000000000306,-7.804557438470176578
0.471000000000000307,-7.736315996142050899
0.472000000000000308,-7.669749598241023314
0.473000000000000309,-7.604833731348248804
0.474000000000000310,-7.541543690502779285
0.475000000000000311,-7.479854598843346025
0.476000000000000312,-7.419741426789014049
0.477000000000000313,-7.361179010757078700
0.478000000000000314,-7.304142071417840221
0.479000000000000314,-7.248605231485933942
0.480000000000000315,-7.194543033048498515
0.481000000000000316,-7.141929954431240901
0.482000000000000317,-7.090740426603465707
0.483000000000000318,-7.040948849124011311
0.484000000000000319,-6.992529605630124934
0.485000000000000320,-6.945457078871998036
0.486000000000000321,-6.899705665295779333
0.487000000000000322,-6.855249789178397002
0.488000000000000322,-6.812063916317837808
0.489000000000000323,-6.770122567282859549
0.490000000000000324,-6.729400330226281035
0.491000000000000325,-6.689871873266459268
0.492000000000000326,-6.651511956441629181
0.493000000000000327,-6.614295443242158790
0.494000000000000328,-6.578197311725956453
0.495000000000000329,-6.543192665222375304
0.496000000000000330,-6.509256742630347148
0.497000000000000330,-6.476364928316418634
0.498000000000000331,-6.444492761618699106
0.499000000000000332,-6.413615945962790832
0.500000000000000333,-6.383710357595919760
0.501000000000000334,-6.354752053945602164
0.502000000000000335,-6.326717281609271382
0.503000000000000336,-6.299582483981438941
0.504000000000000337,-6.273324308524924398
0.505000000000000338,-6.247919613692936025
0.506000000000000338,-6.223345475508647695
0.507000000000000339,-6.199579193809108268
0.508000000000000340,-6.176598298160326017
0.509000000000000341,-6.154380553450337743
0.510000000000000342,-6.132903965167197491
0.511000000000000343,-6.112146784368723829
0.512000000000000344,-6.092087512350930822
0.513000000000000345,-6.072704905022041189
0.514000000000000346,-6.053977976988967669
0.515000000000000346,-6.035886005363098050
0.516000000000000347,-6.018408533292237905
0.517000000000000348,-6.001525373225620186
0.518000000000000349,-5.985216609918567521
0.519000000000000350,-5.969462603183721683
0.520000000000000351,-5.954243990395497121
0.521000000000000352,-5.939541688754327531
0.522000000000000353,-5.925336897317373896
0.523000000000000353,-5.911611098802184827
0.524000000000000354,-5.898346061169803534
0.525000000000000355,-5.885523838993711010
0.526000000000000356,-5.873126774620904378
0.527000000000000357,-5.861137499131443107
0.528000000000000358,-5.849538933102571114
0.529000000000000359,-5.838314287183562712
0.530000000000000360,-5.827447062487292051
0.531000000000000361,-5.816921050804481297
0.532000000000000361,-5.806720334646483295
0.533000000000000362,-5.796829287122339025
0.534000000000000363,-5.787232571655836821
0.535000000000000364,-5.777915141548097822
0.536000000000000365,-5.768862239391221003
0.537000000000000366,-5.760059396338427895
0.538000000000000367,-5.751492431235908143
0.539000000000000368,-5.743147449621713641
0.540000000000000369,-5.735010842596699021
0.541000000000000369,-5.727069285572616408
0.542000000000000370,-5.719309736902260077
0.543000000000000371,-5.711719436396471394
0.544000000000000372,-5.704285903732790430
0.545000000000000373,-5.696996936760325703
0.546000000000000374,-5.689840609705429486
0.547000000000000375,-5.682805271282577841
0.548000000000000376,-5.675879542714890036
0.549000000000000377,-5.669052315668405839
0.550000000000000377,-5.662312750104357306
0.551000000000000378,-5.655650272053507344
0.552000000000000379,-5.649054571316439066
0.553000000000000380,-5.642515599093763434
0.554000000000000381,-5.636023565549900027
0.555000000000000382,-5.629568937314260779
0.556000000000000383,-5.623142434923258826
0.557000000000000384,-5.616735030206785773
0.558000000000000385,-5.610337943622471180
0.559000000000000385,-5.603942641541106440
0.560000000000000386,-5.597540833486370104
0.561000000000000387,-5.591124469332116043
0.562000000000000388,-5.584685736460182071
0.563000000000000389,-5.578217056881750402
0.564000000000000390,-5.571711084325068342
0.565000000000000391,-5.565160701292450440
0.566000000000000392,-5.558559016089146709
0.567000000000000393,-5.551899359826842684
0.568000000000000393,-5.545175283404221389
0.569000000000000394,-5.538380554467201122
0.570000000000000395,-5.531509154351155644
0.571000000000000396,-5.524555275007466904
0.572000000000000397,-5.517513315916713346
0.573000000000000398,-5.510377880990596111
0.574000000000000399,-5.503143775464779175
0.575000000000000400,-5.495806002784640043
0.576000000000000401,-5.488359761485898325
0.577000000000000401,-5.480800442072082390
0.578000000000000402,-5.473123623890570499
0.579000000000000403,-5.465325072009048490
0.580000000000000404,-5.457400734094072448
0.581000000000000405,-5.449346737293359944
0.582000000000000406,-5.441159385123399694
0.583000000000000407,-5.432835154363905517
0.584000000000000408,-5.424370691960568536
0.585000000000000409,-5.415762811937494980
0.586000000000000409,-5.407008492320716897
0.587000000000000410,-5.398104872074028115
0.588000000000000411,-5.389049248048392471
0.589000000000000412,-5.379839071946130424
0.590000000000000413,-5.370471947300972992
0.591000000000000414,-5.360945626475129622
0.592000000000000415,-5.351258007674335460
0.593000000000000416,-5.341407131981918965
0.594000000000000417,-5.331391180412794029
0.595000000000000417,-5.321208470988315398
0.596000000000000418,-5.310857455832765694
0.597000000000000419,-5.300336718292401272
0.598000000000000420,-5.289644970077696406
0.599000000000000421,-5.278781048429606493
0.600000000000000422,-5.267743913310487969
0.601000000000000423,-5.256532644620328654
0.602000000000000424,-5.245146439438899577
0.603000000000000425,-5.233584609294417156
0.604000000000000425,-5.221846577459218430
0.605000000000000426,-5.209931876272969831
0.606000000000000427,-5.197840144493918402
0.607000000000000428,-5.185571124678501675
0.608000000000000429,-5.173124660589899726
0.609000000000000430,-5.160500694635708818
0.610000000000000431,-5.147699265335271335
0.611000000000000432,-5.134720504816809417
0.612000000000000433,-5.121564636344746013
0.613000000000000433,-5.108231971877491340
0.614000000000000434,-5.094722909655852838
0.615000000000000435,-5.081037931822302234
0.616000000000000436,-5.067177602071351039
0.617000000000000437,-5.053142563331126880
0.618000000000000438,-5.038933535476281200
0.619000000000000439,-5.024551313072405101
0.620000000000000440,-5.009996763152007482
0.621000000000000441,-4.995270823022126550
0.622000000000000441,-4.980374498103683933
0.623000000000000442,-4.965308859802514796
0.624000000000000443,-4.950075043412208053
0.625000000000000444,-4.934674246048696311
0.626000000000000445,-4.919107724616539556
0.627000000000000446,-4.903376793806988765
0.628000000000000447,-4.887482824127656222
0.629000000000000448,-4.871427239963806777
0.630000000000000449,-4.855211517671143895
0.631000000000000449,-4.838837183700038125
0.632000000000000450,-4.822305812751070953
0.633000000000000451,-4.805619025961784807
0.634000000000000452,-4.788778489124493554
0.635000000000000453,-4.771785910935022024
0.636000000000000454,-4.754643041272227144
0.637000000000000455,-4.737351669508135465
0.638000000000000456,-4.719913622848497248
0.639000000000000457,-4.702330764703609667
0.640000000000000457,-4.684604993089216407
0.641000000000000458,-4.666738239057206528
0.642000000000000459,-4.648732465156045990
0.643000000000000460,-4.630589663920558152
0.644000000000000461,-4.612311856390973297
0.645000000000000462,-4.593901090660910569
0.646000000000000463,-4.575359440454098703
0.647000000000000464,-4.556689003729600174
0.648000000000000465,-4.537891901315266985
0.649000000000000465,-4.518970275569147432
0.650000000000000466,-4.499926289068661767
0.651000000000000467,-4.480762123327175495
0.652000000000000468,-4.461479977537792685
0.653000000000000469,-4.442082067343998020
0.654000000000000470,-4.422570623636996601
0.655000000000000471,-4.402947891379320744
0.656000000000000472,-4.383216128454532345
0.657000000000000473,-4.363377604542663768
0.658000000000000473,-4.343434600021140568
0.659000000000000474,-4.323389404890876975
0.660000000000000475,-4.303244317727253687
0.661000000000000476,-4.283001644655644924
0.662000000000000477,-4.262663698351262909
0.663000000000000478,-4.242232797062934324
0.664000000000000479,-4.221711263660596458
0.665000000000000480,-4.201101424706079612
0.666000000000000481,-4.180405609547052315
0.667000000000000481,-4.159626149433591991
0.668000000000000482,-4.138765376657313588
0.669000000000000483,-4.117825623712565886
0.670000000000000484,-4.096809222479465440
0.671000000000000485,-4.075718503428463535
0.672000000000000486,-4.054555794846093519
0.673000000000000487,-4.033323422081688037
0.674000000000000488,-4.012023706814596302
0.675000000000000488,-3.990658966341745106
0.676000000000000489,-3.969231512885216695
0.677000000000000490,-3.947743652919405211
0.678000000000000491,-3.926197686517643781
0.679000000000000492,-3.904595906717856391
0.680000000000000493,-3.882940598906960528
0.681000000000000494,-3.861234040223791908
0.682000000000000495,-3.839478498980136045
0.683000000000000496,-3.817676234099688592
0.684000000000000496,-3.795829494574537222
0.685000000000000497,-3.773940518938977196
0.686000000000000498,-3.752011534760266720
0.687000000000000499,-3.730044758146117800
0.688000000000000500,-3.708042393268572656
0.689000000000000501,-3.686006631904008568
0.690000000000000502,-3.663939652989000706
0.691000000000000503,-3.641843622191707652
0.692000000000000504,-3.619720691498549137
0.693000000000000504,-3.597572998815916634
0.694000000000000505,-3.575402667586522032
0.695000000000000506,-3.553211806420299101
0.696000000000000507,-3.531002508739403911
0.697000000000000508,-3.508776852437161864
0.698000000000000509,-3.486536899550690016
0.699000000000000510,-3.464284695946810100
0.700000000000000511,-3.442022271021210056
0.701000000000000512,-3.419751637410362921
0.702000000000000512,-3.397474790716115134
0.703000000000000513,-3.375193709242626738
0.704000000000000514,-3.352910353745401473
0.705000000000000515,-3.330626667192193135
0.706000000000000516,-3.308344574535541316
0.707000000000000517,-3.286065982496654048
0.708000000000000518,-3.263792779360451757
0.709000000000000519,-3.241526834781529143
0.710000000000000520,-3.219269999600740562
0.711000000000000520,-3.197024105672283678
0.712000000000000521,-3.174790965700953205
0.713000000000000522,-3.152572373089395530
0.714000000000000523,-3.130370101795171500
0.715000000000000524,-3.108185906197291182
0.716000000000000525,-3.086021520972177079
0.717000000000000526,-3.063878660978669011
0.718000000000000527,-3.041759021151996922
0.719000000000000528,-3.019664276406423653
0.720000000000000528,-2.997596081546443081
0.721000000000000529,-2.975556071186184148
0.722000000000000530,-2.953545859677046082
0.723000000000000531,-2.931567041043123378
0.724000000000000532,-2.909621188924420565
0.725000000000000533,-2.887709856527577390
0.726000000000000534,-2.865834576583907722
0.727000000000000535,-2.843996861314624702
0.728000000000000536,-2.822198202403019884
0.729000000000000536,-2.800440070973450268
0.730000000000000537,-2.778723917576955138
0.731000000000000538,-2.757051172183276222
0.732000000000000539,-2.735423244179213675
0.733000000000000540,-2.713841522373053650
0.734000000000000541,-2.692307375004949765
0.735000000000000542,-2.670822149763078190
0.736000000000000543,-2.649387173805457518
0.737000000000000544,-2.628003753787164332
0.738000000000000544,-2.606673175892948002
0.739000000000000545,-2.585396705874914325
0.740000000000000546,-2.564175589095303742
0.741000000000000547,-2.543011050574070175
0.742000000000000548,-2.521904295041256017
0.743000000000000549,-2.500856506993865302
0.744000000000000550,-2.479868850757217746
0.745000000000000551,-2.458942470550642412
0.746000000000000552,-2.438078490557271660
0.747000000000000552,-2.417278014997951807
0.748000000000000553,-2.396542128209000033
0.749000000000000554,-2.375871894723773359
0.750000000000000555,-2.355268359357925778
0.751000000000000556,-2.334732547298140837
0.752000000000000557,-2.314265464194352084
0.753000000000000558,-2.293868096255202271
0.754000000000000559,-2.273541410346741731
0.755000000000000560,-2.253286354094157673
0.756000000000000560,-2.233103855986509956
0.757000000000000561,-2.212994825484266848
0.758000000000000562,-2.192960153129623002
0.759000000000000563,-2.173000710659467760
0.760000000000000564,-2.153117351120872325
0.761000000000000565,-2.133310908989020760
0.762000000000000566,-2.113582200287488444
0.763000000000000567,-2.093932022710785379
0.764000000000000568,-2.074361155748990715
0.765000000000000568,-2.054870360814538000
0.766000000000000569,-2.035460381370886473
0.767000000000000570,-2.016131943063133924
0.768000000000000571,-1.996885753850361267
0.769000000000000572,-1.977722504139765247
0.770000000000000573,-1.958642866922353010
0.771000000000000574,-1.939647497910221619
0.772000000000000575,-1.920737035675286197
0.773000000000000576,-1.901912101789394072
0.774000000000000576,-1.883173300965771402
0.775000000000000577,-1.864521221201716816
0.776000000000000578,-1.845956433922398388
0.777000000000000579,-1.827479494125857640
0.778000000000000580,-1.809090940528928382
0.779000000000000581,-1.790791295714198927
0.780000000000000582,-1.772581066277813422
0.781000000000000583,-1.754460742978159349
0.782000000000000584,-1.736430800885257586
0.783000000000000584,-1.718491699530910521
0.784000000000000585,-1.700643883059485217
0.785000000000000586,-1.682887780379250575
0.786000000000000587,-1.665223805314303362
0.787000000000000588,-1.647652356756933445
0.788000000000000589,-1.630173818820386700
0.789000000000000590,-1.612788560992079123
0.790000000000000591,-1.595496938287026989
0.791000000000000592,-1.578299291401635163
0.792000000000000592,-1.561195946867633300
0.793000000000000593,-1.544187217206226981
0.794000000000000594,-1.527273401082355875
0.795000000000000595,-1.510454783459048267
0.796000000000000596,-1.493731635751770259
0.797000000000000597,-1.477104215982834035
0.798000000000000598,-1.460572768935691768
0.799000000000000599,-1.444137526309186459
0.800000000000000600,-1.427798706871659995
0.801000000000000600,-1.411556516614890233
0.802000000000000601,-1.395411148907833798
0.803000000000000602,-1.379362784650124407
0.804000000000000603,-1.363411592425311403
0.805000000000000604,-1.347557728653778764
0.806000000000000605,-1.331801337745305513
0.807000000000000606,-1.316142552251314823
0.808000000000000607,-1.300581493016643275
0.809000000000000608,-1.285118269330931984
0.810000000000000608,-1.269752979079556754
0.811000000000000609,-1.254485708894015561
0.812000000000000610,-1.239316534301870165
0.813000000000000611,-1.224245519876081989
0.814000000000000612,-1.209272719383819972
0.815000000000000613,-1.194398175934684003
0.816000000000000614,-1.179621922128242684
0.817000000000000615,-1.164943980201021079
0.818000000000000616,-1.150364362172776600
0.819000000000000616,-1.135883069992086547
0.820000000000000617,-1.121500095681248865
0.821000000000000618,-1.107215421480459483
0.822000000000000619,-1.093029019991258677
0.823000000000000620,-1.078940854319178966
0.824000000000000621,-1.064950878215640051
0.825000000000000622,-1.051059036219049503
0.826000000000000623,-1.037265263795091874
0.827000000000000624,-1.023569487476170714
0.828000000000000624,-1.009971625000040563
0.829000000000000625,-0.996471585447538666
0.830000000000000626,-0.983069269379491240
0.831000000000000627,-0.969764568972694696
0.832000000000000628,-0.956557368155056764
0.833000000000000629,-0.943447542739743406
0.834000000000000630,-0.930434960558489399
0.835000000000000631,-0.917519481593938258
0.836000000000000631,-0.904700958111030906
0.837000000000000632,-0.891979234787486974
0.838000000000000633,-0.879354148843258798
0.839000000000000634,-0.866825530169090142
0.840000000000000635,-0.854393201454054063
0.841000000000000636,-0.842056978312087367
0.842000000000000637,-0.829816669407609453
0.843000000000000638,-0.817672076580043816
0.844000000000000639,-0.805622994967410300
0.845000000000000639,-0.793669213128869067
0.846000000000000640,-0.781810513166240728
0.847000000000000641,-0.770046670844548919
0.848000000000000642,-0.758377455711480408
0.849000000000000643,-0.746802631215829904
0.850000000000000644,-0.735321954824965651
0.851000000000000645,-0.723935178141134617
0.852000000000000646,-0.712642047016863955
0.853000000000000647,-0.701442301669217505
0.854000000000000647,-0.690335676793038533
0.855000000000000648,-0.679321901673147766
0.856000000000000649,-0.668400700295490147
0.857000000000000650,-0.657571791457213228
0.858000000000000651,-0.646834888875694847
0.859000000000000652,-0.636189701296527188
0.860000000000000653,-0.625635932600438927
0.861000000000000654,-0.615173281909141889
0.862000000000000655,-0.604801443690165530
0.863000000000000655,-0.594520107860578739
0.864000000000000656,-0.584328959889703459
0.865000000000000657,-0.574227680900741944
0.866000000000000658,-0.564215947771364190
0.867000000000000659,-0.554293433233250754
0.868000000000000660,-0.544459805970550326
0.869000000000000661,-0.534714730717326558
0.870000000000000662,-0.525057868353932866
0.871000000000000663,-0.515488876002353713
0.872000000000000663,-0.506007407120489305
0.873000000000000664,-0.496613111595413603
0.874000000000000665,-0.487305635835578232
0.875000000000000666,-0.478084622862002928
0.876000000000000667,-0.468949712398403551
0.877000000000000668,-0.459900540960321014
0.878000000000000669,-0.450936741943211872
0.879000000000000670,-0.442057945709500355
0.880000000000000671,-0.433263779674651350
0.881000000000000671,-0.424553868392181954
0.882000000000000672,-0.415927833637707856
0.883000000000000673,-0.407385294491947492
0.884000000000000674,-0.398925867422750158
0.885000000000000675,-0.390549166366099321
0.886000000000000676,-0.382254802806165361
0.887000000000000677,-0.374042385854329029
0.888000000000000678,-0.365911522327228234
0.889000000000000679,-0.357861816823863588
0.890000000000000679,-0.349892871801676830
0.891000000000000680,-0.342004287651716088
0.892000000000000681,-0.334195662772789059
0.893000000000000682,-0.326466593644692549
0.894000000000000683,-0.318816674900471275
0.895000000000000684,-0.311245499397752701
0.896000000000000685,-0.303752658289116018
0.897000000000000686,-0.296337741091537155
0.898000000000000687,-0.289000335754929449
0.899000000000000687,-0.281740028729703884
0.900000000000000688,-0.274556405033471118
0.901000000000000689,-0.267449048316797111
0.902000000000000690,-0.260417540928078728
0.903000000000000691,-0.253461463977499080
0.904000000000000692,-0.246580397400094270
0.905000000000000693,-0.239773920017949560
0.906000000000000694,-0.233041609601504940
0.907000000000000695,-0.226383042929971884
0.908000000000000695,-0.219797795850931232
0.909000000000000696,-0.213285443339003733
0.910000000000000697,-0.206845559553728187
0.911000000000000698,-0.200477717896549834
0.912000000000000699,-0.194181491066988510
0.913000000000000700,-0.187956451117986201
0.914000000000000701,-0.181802169510368067
0.915000000000000702,-0.175718217166566160
0.916000000000000703,-0.169704164523462681
0.917000000000000703,-0.163759581584461245
0.918000000000000704,-0.157884037970736191
0.919000000000000705,-0.152077102971698463
0.920000000000000706,-0.146338345594690694
0.921000000000000707,-0.140667334613859996
0.922000000000000708,-0.135063638618289794
0.923000000000000709,-0.129526826059378791
0.924000000000000710,-0.124056465297399221
0.925000000000000711,-0.118652124647378288
0.926000000000000711,-0.113313372424168529
0.927000000000000712,-0.108039776986819325
0.928000000000000713,-0.102830906782201012
0.929000000000000714,-0.097686330387907888
0.930000000000000715,-0.092605616554425479
0.931000000000000716,-0.087588334246607780
0.932000000000000717,-0.082634052684450857
0.933000000000000718,-0.077742341383129548
0.934000000000000719,-0.072912770192397197
0.935000000000000719,-0.068144909335257436
0.936000000000000720,-0.063438329445979796
0.937000000000000721,-0.058792601607427865
0.938000000000000722,-0.054207297387747211
0.939000000000000723,-0.049681988876363672
0.940000000000000724,-0.045216248719357262
0.941000000000000725,-0.040809650154171692
0.942000000000000726,-0.036461767043706197
0.943000000000000727,-0.032172173909748240
0.944000000000000727,-0.027940445965812289
0.945000000000000728,-0.023766159149344192
0.946000000000000729,-0.019648890153299979
0.947000000000000730,-0.015588216457156212
0.948000000000000731,-0.011583716357280749
0.949000000000000732,-0.007634968996748781
0.950000000000000733,-0.003741554394539143
0.951000000000000734,0.000096946525809960
0.952000000000000735,0.003880951908160229
0.953000000000000735,0.007610878936272963
0.954000000000000736,0.011287143806870226
0.955000000000000737,0.014910161703253506
0.956000000000000738,0.018480346769468404
0.957000000000000739,0.021998112085017431
0.958000000000000740,0.025463869640099314
0.959000000000000741,0.028878030311377357
0.960000000000000742,0.032241003838265989
0.961000000000000743,0.035553198799755985
0.962000000000000743,0.038815022591721246
0.963000000000000744,0.042026881404749292
0.964000000000000745,0.045189180202450184
0.965000000000000746,0.048302322700283201
0.966000000000000747,0.051366711344856285
0.967000000000000748,0.054382747293702308
0.968000000000000749,0.057350830395526485
0.969000000000000750,0.060271359170947482
0.970000000000000751,0.063144730793660730
0.971000000000000751,0.065971341072102549
0.972000000000000752,0.068751584431542140
0.973000000000000753,0.071485853896596924
0.974000000000000754,0.074174541074249437
0.975000000000000755,0.076818036137230997
0.976000000000000756,0.079416727807882198
0.977000000000000757,0.081971003342411544
0.978000000000000758,0.084481248515593257
0.979000000000000759,0.086947847605835654
0.980000000000000759,0.089371183380719116
0.981000000000000760,0.091751637082885334
0.982000000000000761,0.094089588416328057
0.983000000000000762,0.096385415533105839
0.984000000000000763,0.098639495020417023
0.985000000000000764,0.100852201888045417
0.986000000000000765,0.103023909556210547
0.987000000000000766,0.105154989843770030
0.988000000000000766,0.107245812956790282
0.989000000000000767,0.109296747477465317
0.990000000000000768,0.111308160353421878
0.991000000000000769,0.113280416887349661
0.992000000000000770,0.115213880726983714
0.993000000000000771,0.117108913855420882
0.994000000000000772,0.118965876581793667
0.995000000000000773,0.120785127532243866
0.996000000000000774,0.122567023641253825
0.997000000000000774,0.124311920143276702
0.998000000000000775,0.126020170564696554
0.999000000000000776,0.127692126716090815
1.000000000000000666,0.129328138684814825
1.001000000000000778,0.130928554827871552
1.002000000000000668,0.132493721765096245
1.003000000000000780,0.134023984372635463
1.004000000000000670,0.135519685776693932
1.005000000000000782,0.136981167347597604
1.006000000000000671,0.138408768694112727
1.007000000000000783,0.139802827658071449
1.008000000000000673,0.141163680309233625
1.009000000000000785,0.142491660940443354
1.010000000000000675,0.143787102063047317
1.011000000000000787,0.145050334402570702
1.012000000000000677,0.146281686894634777
1.013000000000000789,0.147481486681157653
1.014000000000000679,0.148650059106781363
1.015000000000000790,0.149787727715545188
1.016000000000000680,0.150894814247801490
1.017000000000000792,0.151971638637390050
1.018000000000000682,0.153018519008994242
1.019000000000000794,0.154035771675791189
1.020000000000000684,0.155023711137269815
1.021000000000000796,0.155982650077306051
1.022000000000000686,0.156912899362450758
1.023000000000000798,0.157814768040413667
1.024000000000000687,0.158688563338788446
1.025000000000000799,0.159534590663951675
1.026000000000000689,0.160353153600200526
1.027000000000000801,0.161144553909058630
1.028000000000000691,0.161909091528799065
1.029000000000000803,0.162647064574158395
1.030000000000000693,0.163358769336238552
1.031000000000000805,0.164044500282589267
1.032000000000000695,0.164704550057495153
1.033000000000000806,0.165339209482404603
1.034000000000000696,0.165948767556581528
1.035000000000000808,0.166533511457908512
1.036000000000000698,0.167093726543855847
1.037000000000000810,0.167629696352612656
1.038000000000000700,0.168141702604430038
1.039000000000000812,0.168630025203059530
1.040000000000000702,0.169094942237396795
1.041000000000000814,0.169536729983256473
1.042000000000000703,0.169955662905335592
1.043000000000000815,0.170352013659269275
1.044000000000000705,0.170726053093886859
1.045000000000000817,0.171078050253590297
1.046000000000000707,0.171408272380868087
1.047000000000000819,0.171716984918955429
1.048000000000000709,0.172004451514655404
1.049000000000000821,0.172270934021227035
1.050000000000000711,0.172516692501492014
1.051000000000000822,0.172741985230986467
1.052000000000000712,0.172947068701297946
1.053000000000000824,0.173132197623506290
1.054000000000000714,0.173297624931723182
1.055000000000000826,0.173443601786794077
1.056000000000000716,0.173570377580066465
1.057000000000000828,0.173678199937317507
1.058000000000000718,0.173767314722760219
1.059000000000000830,0.173837966043171893
1.060000000000000719,0.173890396252115942
1.061000000000000831,0.173924845954305740
1.062000000000000721,0.173941554010006910
1.063000000000000833,0.173940757539590679
1.064000000000000723,0.173922691928175221
1.065000000000000835,0.173887590830341721
1.066000000000000725,0.173835686174951903
1.067000000000000837,0.173767208170083259
1.068000000000000727,0.173682385307997345
1.069000000000000838,0.173581444370256410
1.070000000000000728,0.173464610432875116
1.071000000000000840,0.173332106871584207
1.072000000000000730,0.173184155367157921
1.073000000000000842,0.173020975910830682
1.074000000000000732,0.172842786809789123
1.075000000000000844,0.172649804692727837
1.076000000000000734,0.172442244515492282
1.077000000000000846,0.172220319566785462
1.078000000000000735,0.171984241473937566
1.079000000000000847,0.171734220208759031
1.080000000000000737,0.171470464093436969
1.081000000000000849,0.171193179806527818
1.082000000000000739,0.170902572388965723
1.083000000000000851,0.170598845250180292
1.084000000000000741,0.170282200174230264
1.085000000000000853,0.169952837326031087
1.086000000000000743,0.169610955257606499
1.087000000000000854,0.169256750914418136
1.088000000000000744,0.168890419641716860
1.089000000000000856,0.168512155190996993
1.090000000000000746,0.168122149726433912
1.091000000000000858,0.167720593831414577
1.092000000000000748,0.167307676515106529
1.093000000000000860,0.166883585219057051
1.094000000000000750,0.166448505823843379
1.095000000000000862,0.166002622655774534
1.096000000000000751,0.165546118493609812
1.097000000000000863,0.165079174575342824
1.098000000000000753,0.164601970605001008
1.099000000000000865,0.164114684759485263
1.100000000000000755,0.163617493695470850
1.101000000000000867,0.163110572556292743
1.102000000000000757,0.162594094978906201
1.103000000000000869,0.162068233100851555
1.104000000000000759,0.161533157567274932
1.105000000000000870,0.160989037537937668
1.106000000000000760,0.160436040694299759
1.107000000000000872,0.159874333246589562
1.108000000000000762,0.159304079940914389
1.109000000000000874,0.158725444066407123
1.110000000000000764,0.158138587462368724
1.111000000000000876,0.157543670525455093
1.112000000000000766,0.156940852216870902
1.113000000000000878,0.156330290069588068
1.114000000000000767,0.155712140195574306
1.115000000000000879,0.155086557293055677
1.116000000000000769,0.154453694653781420
1.117000000000000881,0.153813704170299770
1.118000000000000771,0.153166736343263388
1.119000000000000883,0.152512940288734661
1.120000000000000773,0.151852463745502320
1.121000000000000885,0.151185453082432558
1.122000000000000774,0.150512053305792870
1.123000000000000886,0.149832408066610023
1.124000000000000776,0.149146659668032644
1.125000000000000888,0.148454949072702236
1.126000000000000778,0.147757415910122508
1.127000000000000890,0.147054198484031534
1.128000000000000780,0.146345433779810602
1.129000000000000892,0.145631257471847159
1.130000000000000782,0.144911803930946576
1.131000000000000894,0.144187206231710108
1.132000000000000783,0.143457596159948714
1.133000000000000895,0.142723104220061237
1.134000000000000785,0.141983859642454385
1.135000000000000897,0.141239990390912007
1.136000000000000787,0.140491623170017371
1.137000000000000899,0.139738883432524469
1.138000000000000789,0.138981895386772081
1.139000000000000901,0.138220782004034676
1.140000000000000790,0.137455665025941365
1.141000000000000902,0.136686664971844396
1.142000000000000792,0.135913901146177907
1.143000000000000904,0.135137491645831970
1.144000000000000794,0.134357553367517063
1.145000000000000906,0.133574202015120352
1.146000000000000796,0.132787552107030166
1.147000000000000908,0.131997716983493746
1.148000000000000798,0.131204808813932150
1.149000000000000909,0.130408938604259894
1.150000000000000799,0.129610216204195244
1.151000000000000689,0.128808750314553550
1.152000000000000801,0.128004648494525641
1.153000000000000913,0.127198017168968114
1.154000000000000803,0.126388961635645086
1.155000000000000693,0.125577586072491032
1.156000000000000805,0.124763993544830809
1.157000000000000917,0.123948286012615788
1.158000000000000806,0.123130564337618958
1.159000000000000696,0.122310928290631393
1.160000000000000808,0.121489476558639092
1.161000000000000920,0.120666306751981270
1.162000000000000810,0.119841515411494640
1.163000000000000700,0.119015198015653273
1.164000000000000812,0.118187448987652127
1.165000000000000924,0.117358361702538133
1.166000000000000814,0.116528028494259500
1.167000000000000703,0.115696540662729747
1.168000000000000815,0.114863988480875201
1.169000000000000927,0.114030461201650987
1.170000000000000817,0.113196047065034652
1.171000000000000707,0.112360833305029412
1.172000000000000819,0.111524906156603182
1.173000000000000931,0.110688350862642615
1.174000000000000821,0.109851251680882347
1.175000000000000711,0.109013691890783873
1.176000000000000822,0.108175753800435676
1.177000000000000934,0.107337518753399919
1.178000000000000824,0.106499067135556708
1.179000000000000714,0.105660478381912476
1.180000000000000826,0.104821830983387668
1.181000000000000938,0.103983202493597909
1.182000000000000828,0.103144669535592176
1.183000000000000718,0.102306307808578897
1.184000000000000830,0.101468192094621393
1.185000000000000941,0.100630396265326522
1.186000000000000831,0.099792993288476156
1.187000000000000721,0.098956055234677570
1.188000000000000833,0.098119653283951697
1.189000000000000945,0.097283857732318471
1.190000000000000835,0.096448737998349882
1.191000000000000725,0.095614362629712721
1.192000000000000837,0.094780799309638092
1.193000000000000949,0.093948114863448520
1.194000000000000838,0.093116375264967063
1.195000000000000728,0.092285645642978031
1.196000000000000840,0.091455990287610048
1.197000000000000952,0.090627472656715585
1.198000000000000842,0.089800155382230434
1.199000000000000732,0.088974100276475607
1.200000000000000844,0.088149368338487660
1.201000000000000956,0.087326019760247564
1.202000000000000846,0.086504113932967266
1.203000000000000735,0.085683709453261120
1.204000000000000847,0.084864864129378409
1.205000000000000959,0.084047634987331366
1.206000000000000849,0.083232078277050148
1.207000000000000739,0.082418249478482711
1.208000000000000851,0.081606203307675873
1.209000000000000963,0.080795993722820827
1.210000000000000853,0.079987673930290187
1.211000000000000743,0.079181296390622768
1.212000000000000854,0.078376912824500419
1.213000000000000966,0.077574574218680720
1.214000000000000856,0.076774330831910903
1.215000000000000746,0.075976232200824168
1.216000000000000858,0.075180327145765571
1.217000000000000970,0.074386663776659631
1.218000000000000860,0.073595289498776958
1.219000000000000750,0.072806251018513873
1.220000000000000862,0.072019594349140473
1.221000000000000973,0.071235364816511049
1.222000000000000863,0.070453607064742657
1.223000000000000753,0.069674365061878671
1.224000000000000865,0.068897682105512489
1.225000000000000977,0.068123600828381606
1.226000000000000867,0.067352163203947282
1.227000000000000757,0.066583410551923447
1.228000000000000869,0.065817383543807145
1.229000000000000981,0.065054122208328596
1.230000000000000870,0.064293665936943675
1.231000000000000760,0.063536053489229458
1.232000000000000872,0.062781322998291950
1.233000000000000984,0.062029511976143106
1.234000000000000874,0.061280657319009002
1.235000000000000764,0.060534795312677338
1.236000000000000876,0.059791961637742475
1.237000000000000988,0.059052191374884919
1.238000000000000878,0.058315519010069303
1.239000000000000767,0.057581978439753899
1.240000000000000879,0.056851602976045267
1.241000000000000991,0.056124425351842810
1.242000000000000881,0.055400477725935059
1.243000000000000771,0.054679791688075949
1.244000000000000883,0.053962398264051248
1.245000000000000995,0.053248327920673397
1.246000000000000885,0.052537610570783731
1.247000000000000774,0.051830275578213771
1.248000000000000886,0.051126351762721442
1.249000000000000998,0.050425867404884639
1.250000000000000888,0.049728850250981067
1.251000000000000778,0.049035327517842300
1.252000000000000890,0.048345325897655431
1.253000000000001002,0.047658871562774659
1.254000000000000892,0.046975990170454410
1.255000000000000782,0.046296706867602039
1.256000000000000894,0.045621046295471201
1.257000000000001005,0.044949032594339758
1.258000000000000895,0.044280689408151511
1.259000000000000785,0.043616039889147570
1.260000000000000897,0.042955106702434138
1.261000000000001009,0.042297912030561727
1.262000000000000899,0.041644477578053375
1.263000000000000789,0.040994824575907710
1.264000000000000901,0.040348973786069497
1.265000000000001013,0.039706945505892544
1.266000000000000902,0.039068759572552132
1.267000000000000792,0.038434435367431387
1.268000000000000904,0.037803991820502474
1.269000000000001016,0.037177447414647041
1.270000000000000906,0.036554820189977175
1.271000000000000796,0.035936127748108303
1.272000000000000908,0.035321387256423295
1.273000000000001020,0.034710615452289761
1.274000000000000909,0.034103828647265896
1.275000000000000799,0.033501042731270553
1.276000000000000911,0.032902273176719656
1.277000000000001023,0.032307535042661178
1.278000000000000913,0.031716842978845999
1.279000000000000803,0.031130211229810030
1.280000000000000915,0.030547653638887014
1.281000000000001027,0.029969183652247107
1.282000000000000917,0.029394814322853548
1.283000000000000806,0.028824558314433823
1.284000000000000918,0.028258427905401944
1.285000000000001030,0.027696434992768987
1.286000000000000920,0.027138591096004520
1.287000000000000810,0.026584907360906639
1.288000000000000922,0.026035394563405222
1.289000000000001034,0.025490063113376517
1.290000000000000924,0.024948923058410094
1.291000000000000814,0.024411984087540584
1.292000000000000925,0.023879255534992753
1.293000000000001037,0.023350746383849603
1.294000000000000927,0.022826465269741351
1.295000000000000817,0.022306420484468202
1.296000000000000929,0.021790619979637819
1.297000000000001041,0.021279071370248037
1.298000000000000931,0.020771781938243229
1.299000000000000821,0.020268758636068300
1.300000000000000933,0.019770008090184383
1.301000000000001044,0.019275536604551131
1.302000000000000934,0.018785350164103393
1.303000000000000824,0.018299454438180450
1.304000000000000936,0.017817854783958458
1.305000000000001048,0.017340556249823974
1.306000000000000938,0.016867563578749439
1.307000000000000828,0.016398881211648165
1.308000000000000940,0.015934513290677899
1.309000000000001052,0.015474463662532783
1.310000000000000941,0.015018735881723011
1.311000000000000831,0.014567333213826278
1.312000000000000943,0.014120258638705968
1.313000000000001055,0.013677514853690675
1.314000000000000945,0.013239104276775975
1.315000000000000835,0.012805029049770943
1.316000000000000947,0.012375291041416646
1.317000000000001059,0.011949891850491725
1.318000000000000949,0.011528832808907603
1.319000000000000838,0.011112114984750277
1.320000000000000950,0.010699739185321983
1.321000000000001062,0.010291705960164019
1.322000000000000952,0.009888015604031691
1.323000000000000842,0.009488668159865914
1.324000000000000954,0.009093663421740261
1.325000000000001066,0.008703000937786845
1.326000000000000956,0.008316680013080419
1.327000000000000846,0.007934699712538403
1.328000000000000957,0.007557058863754140
1.329000000000001069,0.007183756059851045
1.330000000000000959,0.006814789662269419
1.331000000000000849,0.006450157803580270
1.332000000000000961,0.006089858390238792
1.333000000000001073,0.005733889105337206
1.334000000000000963,0.005382247411320290
1.335000000000000853,0.005034930552706598
1.336000000000000965,0.004691935558745511
1.337000000000001076,0.004353259246102831
1.338000000000000966,0.004018898221486799
1.339000000000000856,0.003688848884263734
1.340000000000000968,0.003363107429073703
1.341000000000001080,0.003041669848391698
1.342000000000000970,0.002724531935087723
1.343000000000000860,0.002411689284973375
1.344000000000000972,0.002103137299304289
1.345000000000001084,0.001798871187276607
1.346000000000000973,0.001498885968519878
1.347000000000000863,0.001203176475531434
1.348000000000000975,0.000911737356128467
1.349000000000001087,0.000624563075847959
1.350000000000000977,0.000341647920362012
1.351000000000000867,0.000062985997833234
1.352000000000000979,-0.000211428758706553
1.353000000000001091,-0.000481602589034644
1.354000000000000981,-0.000747541903420273
1.355000000000000870,-0.001009253280304193
1.356000000000000982,-0.001266743464042674
1.357000000000001094,-0.001520019362638356
1.358000000000000984,-0.001769088045486708
1.359000000000000874,-0.002013956741168463
1.360000000000000986,-0.002254632835236461
1.361000000000001098,-0.002491123868033224
1.362000000000000988,-0.002723437532508003
1.363000000000000878,-0.002951581672087805
1.364000000000000989,-0.003175564278541468
1.365000000000001101,-0.003395393489846779
1.366000000000000991,-0.003611077588117107
1.367000000000000881,-0.003822624997513327
1.368000000000000993,-0.004030044282186893
1.369000000000001105,-0.004233344144233079
1.370000000000000995,-0.004432533421668735
1.371000000000000885,-0.004627621086427775
1.372000000000000997,-0.004818616242364951
1.373000000000001108,-0.005005528123296585
1.374000000000000998,-0.005188366091007280
1.375000000000000888,-0.005367139633369966
1.376000000000001000,-0.005541858362369420
1.377000000000001112,-0.005712532012231594
1.378000000000001002,-0.005879170437514758
1.379000000000000892,-0.006041783611252710
1.380000000000001004,-0.006200381623084445
1.381000000000001116,-0.006354974677434125
1.382000000000001005,-0.006505573091666009
1.383000000000000895,-0.006652187294293452
1.384000000000001007,-0.006794827823187374
1.385000000000001119,-0.006933505323794359
1.386000000000001009,-0.007068230547385618
1.387000000000000899,-0.007199014349299815
1.388000000000001011,-0.007325867687248263
1.389000000000001123,-0.007448801619557193
1.390000000000001013,-0.007567827303512575
1.391000000000000902,-0.007682955993650311
1.392000000000001014,-0.007794199040112487
1.393000000000001126,-0.007901567886980560
1.394000000000001016,-0.008005074070650967
1.395000000000000906,-0.008104729218208642
1.396000000000001018,-0.008200545045818308
1.397000000000001130,-0.008292533357145101
1.398000000000001020,-0.008380706041770773
1.399000000000000909,-0.008465075073628195
1.400000000000001021,-0.008545652509461165
1.401000000000001133,-0.008622450487293317
1.402000000000001023,-0.008695481224901516
1.403000000000000913,-0.008764757018316419
1.404000000000001025,-0.008830290240330732
1.405000000000001137,-0.008892093339029097
1.406000000000001027,-0.008950178836310038
1.407000000000000917,-0.009004559326465609
1.408000000000001029,-0.009055247474708688
1.409000000000001140,-0.009102256015786878
1.410000000000001030,-0.009145597752554243
1.411000000000000920,-0.009185285554585426
1.412000000000001032,-0.009221332356786965
1.413000000000001144,-0.009253751158040955
1.414000000000001034,-0.009282555019843755
1.415000000000000924,-0.009307757064957779
1.416000000000001036,-0.009329370476098157
1.417000000000001148,-0.009347408494608753
1.418000000000001037,-0.009361884419157602
1.419000000000000927,-0.009372811604450040
1.420000000000001039,-0.009380203459943236
1.421000000000001151,-0.009384073448600653
1.422000000000001041,-0.009384435085621071
1.423000000000000931,-0.009381301937200628
1.424000000000001043,-0.009374687619308309
1.425000000000001155,-0.009364605796476634
1.426000000000001044,-0.009351070180583811
1.427000000000000934,-0.009334094529677754
1.428000000000001046,-0.009313692646780673
1.429000000000001158,-0.009289878378727872
1.430000000000001048,-0.009262665615015904
1.431000000000000938,-0.009232068286651782
1.432000000000001050,-0.009198100365021947
1.433000000000001162,-0.009160775860771199
1.434000000000001052,-0.009120108822686712
1.435000000000000941,-0.009076113336612294
1.436000000000001053,-0.009028803524348376
1.437000000000001165,-0.008978193542571246
1.438000000000001055,-0.008924297581793288
1.439000000000000945,-0.008867129865277192
1.440000000000001057,-0.008806704648013471
1.441000000000001169,-0.008743036215670668
1.442000000000001059,-0.008676138883587519
1.443000000000000949,-0.008606026995765277
1.444000000000001060,-0.008532714923849802
1.445000000000001172,-0.008456217066145509
1.446000000000001062,-0.008376547846654205
1.447000000000000952,-0.008293721714075067
1.448000000000001064,-0.008207753140871191
1.449000000000001176,-0.008118656622313137
1.450000000000001066,-0.008026446675527240
1.451000000000000956,-0.007931137838583291
1.452000000000001068,-0.007832744669570070
1.453000000000001180,-0.007731281745681799
1.454000000000001069,-0.007626763662324154
1.455000000000000959,-0.007519205032224398
1.456000000000001071,-0.007408620484539717
1.457000000000001183,-0.007295024664013254
1.458000000000001073,-0.007178432230085911
1.459000000000000963,-0.007058857856056350
1.460000000000001075,-0.006936316228242432
1.461000000000001187,-0.006810822045137043
1.462000000000001076,-0.006682390016605535
1.463000000000000966,-0.006551034863045452
1.464000000000001078,-0.006416771314593096
1.465000000000001190,-0.006279614110343916
1.466000000000001080,-0.006139577997522563
1.467000000000000970,-0.005996677730751712
1.468000000000001082,-0.005850928071254098
1.469000000000001194,-0.005702343786097857
1.470000000000001084,-0.005550939647443206
1.471000000000000973,-0.005396730431799278
1.472000000000001085,-0.005239730919296521
1.473000000000001197,-0.005079955892948793
1.474000000000001087,-0.004917420137937252
1.475000000000000977,-0.004752138440900847
1.476000000000001089,-0.004584125589241787
1.477000000000001201,-0.004413396370423780
1.478000000000001091,-0.004239965571281516
1.479000000000000981,-0.004063847977361887
1.480000000000001092,-0.003885058372227276
1.481000000000001204,-0.003703611536823147
1.482000000000001094,-0.003519522248798718
1.483000000000000984,-0.003332805281881343
1.484000000000001096,-0.003143475405229215
1.485000000000001208,-0.002951547382786979
1.486000000000001098,-0.002757035972694132
1.487000000000000988,-0.002559955926642105
1.488000000000001100,-0.002360321989275283
1.489000000000001211,-0.002158148897594803
1.490000000000001101,-0.001953451380362477
1.491000000000000991,-0.001746244157505034
1.492000000000001103,-0.001536541939560643
1.493000000000001215,-0.001324359427076539
1.494000000000001105,-0.001109711310064590
1.495000000000000995,-0.000892612267437724
1.496000000000001107,-0.000673076966463093
1.497000000000001219,-0.000451120062210966
1.498000000000001108,-0.000226756197029845
1.499000000000000998,0.000000000000000000
