# Pt001_CS-271-AC
# h[nm],U(h)[kJ/mol]
0.149999999999999994,115.427103957953789859
0.150999999999999995,114.554167020763927098
0.151999999999999996,111.218172485665903082
0.152999999999999997,107.348546243099306707
0.153999999999999998,103.709573184691592473
0.154999999999999999,100.487020269231194902
0.156000000000000000,97.618399171471693876
0.157000000000000001,94.967106644480651312
0.158000000000000002,92.404773483079509333
0.159000000000000002,89.842252089405917559
0.160000000000000003,87.233974709611288745
0.161000000000000004,84.570271138207857575
0.162000000000000005,81.865813337806031313
0.163000000000000006,79.148395624357860356
0.164000000000000007,76.449904574460376239
0.165000000000000008,73.800003430357151046
0.166000000000000009,71.222365195247832048
0.167000000000000010,68.732982816929819592
0.168000000000000010,66.339999790944801816
0.169000000000000011,64.044536617880353901
0.170000000000000012,61.842074438969902417
0.171000000000000013,59.724059714216025441
0.172000000000000014,57.679492665540614382
0.173000000000000015,55.696347520249403829
0.174000000000000016,53.762740774652094444
0.175000000000000017,51.867814732725754823
0.176000000000000018,50.002339275061700619
0.177000000000000018,48.159057769478280875
0.178000000000000019,46.332815990085585156
0.179000000000000020,44.520518422768574851
0.180000000000000021,42.720956609412823468
0.181000000000000022,40.934551024638267336
0.182000000000000023,39.163042795294984444
0.183000000000000024,37.409165416410282035
0.184000000000000025,35.676320237394911317
0.185000000000000026,33.968273393511694280
0.186000000000000026,32.288886352559522663
0.187000000000000027,30.641887503689321903
0.188000000000000028,29.030688297900788086
0.189000000000000029,27.458244349428014175
0.190000000000000030,25.926959568306642723
0.191000000000000031,24.438629733673224109
0.192000000000000032,22.994420838067544111
0.193000000000000033,21.594876935099392767
0.194000000000000034,20.239952009643133124
0.195000000000000034,18.929060472284863437
0.196000000000000035,17.661141179271776736
0.197000000000000036,16.434730328086963880
0.198000000000000037,15.248039120687025161
0.199000000000000038,14.099032675857179342
0.200000000000000039,12.985507273372572712
0.201000000000000040,11.905163598742301900
0.202000000000000041,10.855674208800705216
0.203000000000000042,9.834743942147387230
0.204000000000000042,8.840162446423985187
0.205000000000000043,7.869848382774864426
0.206000000000000044,6.921885195868062723
0.207000000000000045,5.994548607247539351
0.208000000000000046,5.086326203940908286
0.209000000000000047,4.195929657706289007
0.210000000000000048,3.322300228303107339
0.211000000000000049,2.464608282289290742
0.212000000000000050,1.622247602705474634
0.213000000000000050,0.794825280090859621
0.214000000000000051,-0.017852033239325316
0.215000000000000052,-0.815794751048692035
0.216000000000000053,-1.598849150367951388
0.217000000000000054,-2.366717677668615405
0.218000000000000055,-3.118980163422130580
0.219000000000000056,-3.855115408625942930
0.220000000000000057,-4.574522673093812664
0.221000000000000058,-5.276542661573419224
0.222000000000000058,-5.960477668494668535
0.223000000000000059,-6.625610604118646663
0.224000000000000060,-7.271222683129211717
0.225000000000000061,-7.896609610621181830
0.226000000000000062,-8.501096149559291604
0.227000000000000063,-9.084048997871263964
0.228000000000000064,-9.644887942313548734
0.229000000000000065,-10.183095290160505186
0.230000000000000066,-10.698223608762290837
0.231000000000000066,-11.189901827326043104
0.232000000000000067,-11.657839775179962061
0.233000000000000068,-12.101831246609595638
0.234000000000000069,-12.521755694457558761
0.235000000000000070,-12.917578663416946938
0.236000000000000071,-13.289351079688923818
0.237000000000000072,-13.637207516778715899
0.238000000000000073,-13.961363558017689357
0.239000000000000073,-14.262112375254670127
0.240000000000000074,-14.539820640371322824
0.241000000000000075,-14.794923882129314308
0.242000000000000076,-15.027921395620186473
0.243000000000000077,-15.239370805501511796
0.244000000000000078,-15.429882377481751732
0.245000000000000079,-15.600113165352805566
0.246000000000000080,-15.750761073432901327
0.247000000000000081,-15.882558906719719261
0.248000000000000081,-15.996268473489209327
0.249000000000000082,-16.092674797616172810
0.250000000000000111,-16.172580490626970118
0.251000000000000112,-16.236800326492851099
0.252000000000000113,-16.286156055494078743
0.253000000000000114,-16.321471487170267523
0.254000000000000115,-16.343567866458243998
0.255000000000000115,-16.353259561621477758
0.256000000000000116,-16.351350077512883274
0.257000000000000117,-16.338628403086623564
0.258000000000000118,-16.315865697884969876
0.259000000000000119,-16.283812318466701186
0.260000000000000120,-16.243195182400942400
0.261000000000000121,-16.194715464511141079
0.262000000000000122,-16.139046617499499092
0.263000000000000123,-16.076832706892030700
0.264000000000000123,-16.008687048397877817
0.265000000000000124,-15.935191134249185652
0.266000000000000125,-15.856893833858327625
0.267000000000000126,-15.774310853171224167
0.268000000000000127,-15.687924436388517080
0.269000000000000128,-15.598183293244485270
0.270000000000000129,-15.505502734756131389
0.271000000000000130,-15.410265000258998924
0.272000000000000131,-15.312819758612164378
0.273000000000000131,-15.213484766661434122
0.274000000000000132,-15.112546668379616577
0.275000000000000133,-15.010261918537860737
0.276000000000000134,-14.906857815285622593
0.277000000000000135,-14.802533626615041129
0.278000000000000136,-14.697461796343063156
0.279000000000000137,-14.591789215949848568
0.280000000000000138,-14.485638549353094362
0.281000000000000139,-14.379109598463935882
0.282000000000000139,-14.272280698152593814
0.283000000000000140,-14.165210130041776537
0.284000000000000141,-14.057937545336050889
0.285000000000000142,-13.950485387679592009
0.286000000000000143,-13.842860307806933662
0.287000000000000144,-13.735054562506835651
0.288000000000000145,-13.627047391154723854
0.289000000000000146,-13.518806363779471980
0.290000000000000147,-13.410288695314548590
0.291000000000000147,-13.301442521337847325
0.292000000000000148,-13.192208131228545298
0.293000000000000149,-13.082519155260545318
0.294000000000000150,-12.972303702710428652
0.295000000000000151,-12.861485448582907765
0.296000000000000152,-12.749984667047147724
0.297000000000000153,-12.637719210135353265
0.298000000000000154,-12.524605430678109386
0.299000000000000155,-12.410559048842747742
0.300000000000000155,-12.295495961999739265
0.301000000000000156,-12.179332997970055530
0.302000000000000157,-12.061988612004270749
0.303000000000000158,-11.943383528112899938
0.304000000000000159,-11.823441325608509800
0.305000000000000160,-11.702088971934196948
0.306000000000000161,-11.579257303042655991
0.307000000000000162,-11.454881452754964499
0.308000000000000163,-11.328901232670997246
0.309000000000000163,-11.201261464325082073
0.310000000000000164,-11.071912265382101381
0.311000000000000165,-10.940809291752326970
0.312000000000000166,-10.807913937569706420
0.313000000000000167,-10.673193495028106881
0.314000000000000168,-10.536621276105728739
0.315000000000000169,-10.398176698229852022
0.316000000000000170,-10.257845335944107745
0.317000000000000171,-10.115618940638817946
0.318000000000000171,-9.971495430393666481
0.319000000000000172,-9.825478851961428006
0.320000000000000173,-9.677579316892849448
0.321000000000000174,-9.527812913766830150
0.322000000000000175,-9.376201598448032470
0.323000000000000176,-9.222773064246366559
0.324000000000000177,-9.067560593800127577
0.325000000000000178,-8.910602894448199862
0.326000000000000179,-8.751943918796936117
0.327000000000000179,-8.591632672124298153
0.328000000000000180,-8.429723008198985568
0.329000000000000181,-8.266273415026098803
0.330000000000000182,-8.101346791962047433
0.331000000000000183,-7.935010219573823242
0.332000000000000184,-7.767334723547837605
0.333000000000000185,-7.598395033884962402
0.334000000000000186,-7.428269340549386257
0.335000000000000187,-7.257039046670671567
0.336000000000000187,-7.084788520331178674
0.337000000000000188,-6.911604845904532723
0.338000000000000189,-6.737577575846010802
0.339000000000000190,-6.562798483771990377
0.340000000000000191,-6.387361319603646947
0.341000000000000192,-6.211361567490287783
0.342000000000000193,-6.034896207168526594
0.343000000000000194,-5.858063479358171399
0.344000000000000195,-5.680962655740257716
0.345000000000000195,-5.503693814011175078
0.346000000000000196,-5.326357618456098564
0.347000000000000197,-5.149055106437078422
0.348000000000000198,-4.971887481145327747
0.349000000000000199,-4.794955910923196285
0.350000000000000200,-4.618361335420217983
0.351000000000000201,-4.442204278807616369
0.352000000000000202,-4.266584670238807497
0.353000000000000203,-4.091601671708049892
0.354000000000000203,-3.917353513426028222
0.355000000000000204,-3.743937336800368776
0.356000000000000205,-3.571449045079636342
0.357000000000000206,-3.399983161692170519
0.358000000000000207,-3.229632696285695381
0.359000000000000208,-3.060489018450124998
0.360000000000000209,-2.892641739084027996
0.361000000000000210,-2.726178599345135289
0.362000000000000210,-2.561185367106677102
0.363000000000000211,-2.397745740824435590
0.364000000000000212,-2.235941260703911748
0.365000000000000213,-2.075851227042883718
0.366000000000000214,-1.917552625612109152
0.367000000000000215,-1.761120059925438186
0.368000000000000216,-1.606625690240579774
0.369000000000000217,-1.454139179122786674
0.370000000000000218,-1.303727643395897307
0.371000000000000218,-1.155455612298454060
0.372000000000000219,-1.009384991656852915
0.373000000000000220,-0.865575033882612255
0.374000000000000221,-0.724082313597077643
0.375000000000000222,-0.584960708683556097
0.376000000000000223,-0.448261386564752229
0.377000000000000224,-0.314032795501660356
0.378000000000000225,-0.182320660709272386
0.379000000000000226,-0.053167985084038562
0.380000000000000226,0.073384945661566101
0.381000000000000227,0.197300553661256706
0.382000000000000228,0.318543955556476355
0.383000000000000229,0.437082945357884944
0.384000000000000230,0.552887973705559643
0.385000000000000231,0.665932123723585456
0.386000000000000232,0.776191083662251202
0.387000000000000233,0.883643116517578542
0.388000000000000234,0.988269026814450613
0.389000000000000234,1.090052124735773065
0.390000000000000235,1.188978187776378093
0.391000000000000236,1.285035420095708592
0.392000000000000237,1.378214409739601631
0.393000000000000238,1.468508083896407967
0.394000000000000239,1.555911662348478997
0.395000000000000240,1.640422609275184795
0.396000000000000241,1.722040583558811067
0.397000000000000242,1.800767387739917069
0.398000000000000242,1.876606915763773697
0.399000000000000243,1.949565099654558820
0.400000000000000244,2.019649855249286752
0.401000000000000245,2.086871027117970900
0.402000000000000246,2.151240332792240029
0.403000000000000247,2.212771306419315742
0.404000000000000248,2.271479241953468176
0.405000000000000249,2.327381135992314221
0.406000000000000250,2.380495630360525805
0.407000000000000250,2.430842954538790845
0.408000000000000251,2.478444868031299375
0.409000000000000252,2.523324602760296465
0.410000000000000253,2.565506805572084659
0.411000000000000254,2.605017480934066487
0.412000000000000255,2.641883933898505621
0.413000000000000256,2.676134713404147547
0.414000000000000257,2.707799555983050332
0.415000000000000258,2.736909329935659052
0.416000000000000258,2.763495980033575439
0.417000000000000259,2.787592472805390464
0.418000000000000260,2.809232742457493437
0.419000000000000261,2.828451637478107017
0.420000000000000262,2.845284867969276377
0.421000000000000263,2.859768953748292653
0.422000000000000264,2.871941173256762347
0.423000000000000265,2.881839513312394629
0.424000000000000266,2.889502619735476507
0.425000000000000266,2.894969748879282712
0.426000000000000267,2.898280720090716578
0.427000000000000268,2.899475869124797711
0.428000000000000269,2.898596002534113314
0.429000000000000270,2.895682353051813429
0.430000000000000271,2.890776535984292295
0.431000000000000272,2.883920506627583258
0.432000000000000273,2.875156518719172549
0.433000000000000274,2.864527083934940599
0.434000000000000274,2.852074932438900312
0.435000000000000275,2.837842974491648906
0.436000000000000276,2.821874263121470161
0.437000000000000277,2.804211957860485604
0.438000000000000278,2.784899289546557632
0.439000000000000279,2.763979526190149638
0.440000000000000280,2.741495939903858758
0.441000000000000281,2.717491774891105827
0.442000000000000282,2.692010216488937679
0.443000000000000282,2.665094361259030542
0.444000000000000283,2.636787188119466219
0.445000000000000284,2.607131530509132933
0.446000000000000285,2.576170049575398302
0.447000000000000286,2.543945208374834177
0.448000000000000287,2.510499247075932860
0.449000000000000288,2.475874159151963294
0.450000000000000289,2.440111668551278257
0.451000000000000290,2.403253207831867133
0.452000000000000290,2.365339897246176992
0.453000000000000291,2.326412524761713119
0.454000000000000292,2.286511527002433652
0.455000000000000293,2.245676971095398322
0.456000000000000294,2.203948537406803521
0.457000000000000295,2.161365503151128742
0.458000000000000296,2.117966726856653104
0.459000000000000297,2.073790633670598460
0.460000000000000298,2.028875201486485924
0.461000000000000298,1.983257947876570171
0.462000000000000299,1.936975917811498249
0.463000000000000300,1.890065672149655596
0.464000000000000301,1.842563276878230738
0.465000000000000302,1.794504293088150515
0.466000000000000303,1.745923767664735449
0.467000000000000304,1.696856224676251301
0.468000000000000305,1.647335657442116741
0.469000000000000306,1.597395521262872764
0.470000000000000306,1.547068726793930704
0.471000000000000307,1.496387634045107884
0.472000000000000308,1.445384046988211768
0.473000000000000309,1.394089208754881071
0.474000000000000310,1.342533797407172491
0.475000000000000311,1.290747922263229430
0.476000000000000312,1.238761120761035617
0.477000000000000313,1.186602355842749201
0.478000000000000314,1.134300013842943100
0.479000000000000314,1.081881902863810252
0.480000000000000315,1.029375251620840981
0.481000000000000316,0.976806708742582019
0.482000000000000317,0.924202342508394836
0.483000000000000318,0.871587641008269132
0.484000000000000319,0.818987512709088761
0.485000000000000320,0.766426287411909324
0.486000000000000321,0.713927717585122301
0.487000000000000322,0.661514980058625301
0.488000000000000322,0.609210678064330713
0.489000000000000323,0.557036843608770260
0.490000000000000324,0.505014940163583281
0.491000000000000325,0.453165865660206557
0.492000000000000326,0.401509955775177729
0.493000000000000327,0.350066987492875292
0.494000000000000328,0.298856182932694281
0.495000000000000329,0.247896213428028395
0.496000000000000330,0.197205203844674853
0.497000000000000330,0.146800737126558445
0.498000000000000331,0.096699859056962323
0.499000000000000332,0.046919083223842709
0.500000000000000333,-0.002525603822166800
0.501000000000000334,-0.051618737227883751
0.502000000000000335,-0.100345368326535511
0.503000000000000336,-0.148691058965925327
0.504000000000000337,-0.196641875685953316
0.505000000000000338,-0.244184383755237489
0.506000000000000338,-0.291305641076446353
0.507000000000000339,-0.337993191969618079
0.508000000000000340,-0.384235060842446186
0.509000000000000341,-0.430019745756269611
0.510000000000000342,-0.475336211896290717
0.511000000000000343,-0.520173884954194365
0.512000000000000344,-0.564522644431161291
0.513000000000000345,-0.608372816868927080
0.514000000000000346,-0.651715169016463536
0.515000000000000346,-0.694540900939341066
0.516000000000000347,-0.736841639078869459
0.517000000000000348,-0.778609429267692166
0.518000000000000349,-0.819836729708363521
0.519000000000000350,-0.860516403921118389
0.520000000000000351,-0.900641713667001964
0.521000000000000352,-0.940206311852047394
0.522000000000000353,-0.979204235418182689
0.523000000000000353,-1.017629898226298346
0.524000000000000354,-1.055478083936551403
0.525000000000000355,-1.092743938891020949
0.526000000000000356,-1.129422965003389123
0.527000000000000357,-1.165511012660290335
0.528000000000000358,-1.201004273638790254
0.529000000000000359,-1.235899274044018892
0.530000000000000360,-1.270192867271218606
0.531000000000000361,-1.303882226995883187
0.532000000000000361,-1.336964840195787430
0.533000000000000362,-1.369438500208310261
0.534000000000000363,-1.401301299826495317
0.535000000000000364,-1.432551624436978699
0.536000000000000365,-1.463188145202817925
0.537000000000000366,-1.493209812294113092
0.538000000000000367,-1.522615848169132757
0.539000000000000368,-1.551405740908542441
0.540000000000000369,-1.579579237605170716
0.541000000000000369,-1.607136337811616800
0.542000000000000370,-1.634077287047878357
0.543000000000000371,-1.660402570371049880
0.544000000000000372,-1.686112906009005430
0.545000000000000373,-1.711209239059858334
0.546000000000000374,-1.735692735258914654
0.547000000000000375,-1.759564774814630805
0.548000000000000376,-1.782826946315109184
0.549000000000000377,-1.805481040706395479
0.550000000000000377,-1.827529045343916803
0.551000000000000378,-1.848973138118136905
0.552000000000000379,-1.869815681655519146
0.553000000000000380,-1.890059217595749796
0.554000000000000381,-1.909706460946069217
0.555000000000000382,-1.928760294513539808
0.556000000000000383,-1.947223763415880438
0.557000000000000384,-1.965100069671549932
0.558000000000000385,-1.982392566869567885
0.559000000000000385,-1.999104754919577287
0.560000000000000386,-2.015240274882490468
0.561000000000000387,-2.030802903882090060
0.562000000000000388,-2.045796550097797262
0.563000000000000389,-2.060225247838842755
0.564000000000000390,-2.074093152699890474
0.565000000000000391,-2.087404536798278976
0.566000000000000392,-2.100163784092818453
0.567000000000000393,-2.112375385784129200
0.568000000000000393,-2.124043935796408711
0.569000000000000394,-2.135174126340513290
0.570000000000000395,-2.145770743558133908
0.571000000000000396,-2.155838663246806952
0.572000000000000397,-2.165382846665536931
0.573000000000000398,-2.174408336420656784
0.574000000000000399,-2.182920252431558072
0.575000000000000400,-2.190923787975933124
0.576000000000000401,-2.198424205814033527
0.577000000000000401,-2.205426834391523538
0.578000000000000402,-2.211937064120388818
0.579000000000000403,-2.217960343737372941
0.580000000000000404,-2.223502176739389657
0.581000000000000405,-2.228568117895298517
0.582000000000000406,-2.233163769833447443
0.583000000000000407,-2.237294779704297909
0.584000000000000408,-2.240966835917547417
0.585000000000000409,-2.244185664952951687
0.586000000000000409,-2.246957028244231935
0.587000000000000410,-2.249286719135318524
0.588000000000000411,-2.251180559908121381
0.589000000000000412,-2.252644398881193055
0.590000000000000413,-2.253684107578367346
0.591000000000000414,-2.254305577966688734
0.592000000000000415,-2.254514719762796826
0.593000000000000416,-2.254317457806924718
0.594000000000000417,-2.253719729503721236
0.595000000000000417,-2.252727482329058173
0.596000000000000418,-2.251346671401941446
0.597000000000000419,-2.249583257120739255
0.598000000000000420,-2.247443202862803080
0.599000000000000421,-2.244932472746656860
0.600000000000000422,-2.242057029455865713
0.601000000000000423,-2.238822832123716466
0.602000000000000424,-2.235235834277820466
0.603000000000000425,-2.231301981843802018
0.604000000000000425,-2.227027211207085688
0.605000000000000426,-2.222417447332021290
0.606000000000000427,-2.217478601937375338
0.607000000000000428,-2.212216571727315007
0.608000000000000429,-2.206637236677036817
0.609000000000000430,-2.200746458372084824
0.610000000000000431,-2.194550078400562931
0.611000000000000432,-2.188053916797252807
0.612000000000000433,-2.181263770538843350
0.613000000000000433,-2.174185412089362224
0.614000000000000434,-2.166824587994917728
0.615000000000000435,-2.159187017526879693
0.616000000000000436,-2.151278391372680954
0.617000000000000437,-2.143104370373322354
0.618000000000000438,-2.134670584306731289
0.619000000000000439,-2.125982630716136690
0.620000000000000440,-2.117046073782614890
0.621000000000000441,-2.107866443240938636
0.622000000000000441,-2.098449233337935205
0.623000000000000442,-2.088799901832451678
0.624000000000000443,-2.078923869036206629
0.625000000000000444,-2.068826516894628931
0.626000000000000445,-2.058513188106881664
0.627000000000000446,-2.047989185284332603
0.628000000000000447,-2.037259770146610638
0.629000000000000448,-2.026330162754492736
0.630000000000000449,-2.015205540778816307
0.631000000000000449,-2.003891038804693103
0.632000000000000450,-1.992391747670221092
0.633000000000000451,-1.980712713838959527
0.634000000000000452,-1.968858938805417180
0.635000000000000453,-1.956835378532794989
0.636000000000000454,-1.944646942922315658
0.637000000000000455,-1.932298495313349518
0.638000000000000456,-1.919794852013668063
0.639000000000000457,-1.907140781859114842
0.640000000000000457,-1.894341005802007816
0.641000000000000458,-1.881400196527550195
0.642000000000000459,-1.868322978097657572
0.643000000000000460,-1.855113925621435955
0.644000000000000461,-1.841777564951740498
0.645000000000000462,-1.828318372407119696
0.646000000000000463,-1.814740774518500022
0.647000000000000464,-1.801049147800042105
0.648000000000000465,-1.787247818543482580
0.649000000000000465,-1.773341062635386267
0.650000000000000466,-1.759333105396710950
0.651000000000000467,-1.745228121444068803
0.652000000000000468,-1.731030234572144888
0.653000000000000469,-1.716743517656625029
0.654000000000000470,-1.702371992577190962
0.655000000000000471,-1.687919630159887330
0.656000000000000472,-1.673390350138431515
0.657000000000000473,-1.658788021133852597
0.658000000000000473,-1.644116460651982692
0.659000000000000474,-1.629379435098266438
0.660000000000000475,-1.614580659809356389
0.661000000000000476,-1.599723799101029353
0.662000000000000477,-1.584812466331924519
0.663000000000000478,-1.569850223982593773
0.664000000000000479,-1.554840583749435012
0.665000000000000480,-1.539787006652992174
0.666000000000000481,-1.524692903160236535
0.667000000000000481,-1.509561633320277263
0.668000000000000482,-1.494396506913175049
0.669000000000000483,-1.479200783611362757
0.670000000000000484,-1.463977673153238346
0.671000000000000485,-1.448730335528572777
0.672000000000000486,-1.433461881175258412
0.673000000000000487,-1.418175371187091249
0.674000000000000488,-1.402873817532066303
0.675000000000000488,-1.387560183280931003
0.676000000000000489,-1.372237382845557629
0.677000000000000490,-1.356908282226755968
0.678000000000000491,-1.341575699271220667
0.679000000000000492,-1.326242403937210934
0.680000000000000493,-1.310911118568627520
0.681000000000000494,-1.295584518177191891
0.682000000000000495,-1.280265230732318349
0.683000000000000496,-1.264955837458453303
0.684000000000000496,-1.249658873139470661
0.685000000000000497,-1.234376826429895990
0.686000000000000498,-1.219112140172588399
0.687000000000000499,-1.203867211722644104
0.688000000000000500,-1.188644393277187961
0.689000000000000501,-1.173445992210795596
0.690000000000000502,-1.158274271416281476
0.691000000000000503,-1.143131449650532705
0.692000000000000504,-1.128019701885189408
0.693000000000000504,-1.112941159661888779
0.694000000000000505,-1.097897911451786612
0.695000000000000506,-1.082892003019195082
0.696000000000000507,-1.067925437789002618
0.697000000000000508,-1.053000177217716438
0.698000000000000509,-1.038118141167882591
0.699000000000000510,-1.023281208285617749
0.700000000000000511,-1.008491216381123268
0.701000000000000512,-0.993749962811868115
0.702000000000000512,-0.979059204868345190
0.703000000000000513,-0.964420660162106147
0.704000000000000514,-0.949836007015935957
0.705000000000000515,-0.935306884855968024
0.706000000000000516,-0.920834894605547127
0.707000000000000517,-0.906421599080655560
0.708000000000000518,-0.892068523386753798
0.709000000000000519,-0.877777155316851854
0.710000000000000520,-0.863548945750617691
0.711000000000000520,-0.849385309054434545
0.712000000000000521,-0.835287623482160235
0.713000000000000522,-0.821257231576520752
0.714000000000000523,-0.807295440570939049
0.715000000000000524,-0.793403522791666260
0.716000000000000525,-0.779582716060106207
0.717000000000000526,-0.765834224095140792
0.718000000000000527,-0.752159216915400441
0.719000000000000528,-0.738558831241271974
0.720000000000000528,-0.725034170896613706
0.721000000000000529,-0.711586307209945867
0.722000000000000530,-0.698216279415126650
0.723000000000000531,-0.684925095051298172
0.724000000000000532,-0.671713730362050621
0.725000000000000533,-0.658583130693697782
0.726000000000000534,-0.645534210892528604
0.727000000000000535,-0.632567855700980175
0.728000000000000536,-0.619684920152608232
0.729000000000000536,-0.606886229965773127
0.730000000000000537,-0.594172581935982214
0.731000000000000538,-0.581544744326722207
0.732000000000000539,-0.569003457258819068
0.733000000000000540,-0.556549433098126989
0.734000000000000541,-0.544183356841569044
0.735000000000000542,-0.531905886501372160
0.736000000000000543,-0.519717653487521414
0.737000000000000544,-0.507619262988241893
0.738000000000000544,-0.495611294348598019
0.739000000000000545,-0.483694301446974617
0.740000000000000546,-0.471868813069552195
0.741000000000000547,-0.460135333282561731
0.742000000000000548,-0.448494341802415986
0.743000000000000549,-0.436946294363517118
0.744000000000000550,-0.425491623083792181
0.745000000000000551,-0.414130736827894697
0.746000000000000552,-0.402864021567967856
0.747000000000000552,-0.391691840742010300
0.748000000000000553,-0.380614535609731963
0.749000000000000554,-0.369632425605879888
0.750000000000000555,-0.358745808691054213
0.751000000000000556,-0.347954961699862675
0.752000000000000557,-0.337260140686506893
0.753000000000000558,-0.326661581267659984
0.754000000000000559,-0.316159498962695684
0.755000000000000560,-0.305754089531169337
0.756000000000000560,-0.295445529307575505
0.757000000000000561,-0.285233975533314255
0.758000000000000562,-0.275119566685876227
0.759000000000000563,-0.265102422805223170
0.760000000000000564,-0.255182645817315534
0.761000000000000565,-0.245360319854799058
0.762000000000000566,-0.235635511574809053
0.763000000000000567,-0.226008270473909173
0.764000000000000568,-0.216478629200103884
0.765000000000000568,-0.207046603861957002
0.766000000000000569,-0.197712194334775548
0.767000000000000570,-0.188475384563861925
0.768000000000000571,-0.179336142864813974
0.769000000000000572,-0.170294422220879260
0.770000000000000573,-0.161350160577352242
0.771000000000000574,-0.152503281132992108
0.772000000000000575,-0.143753692628488750
0.773000000000000576,-0.135101289631929966
0.774000000000000576,-0.126545952821314478
0.775000000000000577,-0.118087549264089528
0.776000000000000578,-0.109725932693670855
0.777000000000000579,-0.101460943783047083
0.778000000000000580,-0.093292410415345611
0.779000000000000581,-0.085220147951465097
0.780000000000000582,-0.077243959494705944
0.781000000000000583,-0.069363636152471125
0.782000000000000584,-0.061578957294957104
0.783000000000000584,-0.053889690810918434
0.784000000000000585,-0.046295593360480863
0.785000000000000586,-0.038796410624981612
0.786000000000000587,-0.031391877553904358
0.787000000000000588,-0.024081718608872014
0.788000000000000589,-0.016865648004703093
0.789000000000000590,-0.009743369947593325
0.790000000000000591,-0.002714578870353490
0.791000000000000592,0.004221040335196680
0.792000000000000592,0.011063812088761069
0.793000000000000593,0.017814069894920580
0.794000000000000594,0.024472156119381146
0.795000000000000595,0.031038421768029158
0.796000000000000596,0.037513226268854005
0.797000000000000597,0.043896937256634252
0.798000000000000598,0.050189930360471105
0.799000000000000599,0.056392588994089055
0.800000000000000600,0.062505304148887372
0.801000000000000600,0.068528474189796004
0.802000000000000601,0.074462504653810060
0.803000000000000602,0.080307808051299737
0.804000000000000603,0.086064803669989698
0.805000000000000604,0.091733917381648725
0.806000000000000605,0.097315581451452193
0.807000000000000606,0.102810234349971413
0.808000000000000607,0.108218320567849483
0.809000000000000608,0.113540290433048960
0.810000000000000608,0.118776599930715696
0.811000000000000609,0.123927710525644177
0.812000000000000610,0.128994088987279709
0.813000000000000611,0.133976207217275989
0.814000000000000612,0.138874542079586188
0.815000000000000613,0.143689575233031080
0.816000000000000614,0.148421792966397931
0.817000000000000615,0.153071686035965715
0.818000000000000616,0.157639749505494225
0.819000000000000616,0.162126482588642706
0.820000000000000617,0.166532388493790651
0.821000000000000618,0.170857974271244745
0.822000000000000619,0.175103750662809254
0.823000000000000620,0.179270231953701786
0.824000000000000621,0.183357935826802654
0.825000000000000622,0.187367383219201045
0.826000000000000623,0.191299098181021365
0.827000000000000624,0.195153607736522572
0.828000000000000624,0.198931441747417809
0.829000000000000625,0.202633132778456820
0.830000000000000626,0.206259215965154480
0.831000000000000627,0.209810228883736682
0.832000000000000628,0.213286711423229663
0.833000000000000629,0.216689205659688799
0.834000000000000630,0.220018255732543411
0.835000000000000631,0.223274407723028506
0.836000000000000631,0.226458209534701804
0.837000000000000632,0.229570210776001454
0.838000000000000633,0.232610962644855312
0.839000000000000634,0.235581017815262639
0.840000000000000635,0.238480930325904950
0.841000000000000636,0.241311255470707531
0.842000000000000637,0.244072549691337182
0.843000000000000638,0.246765370471650758
0.844000000000000639,0.249390276234022101
0.845000000000000639,0.251947826237582162
0.846000000000000640,0.254438580478298815
0.847000000000000641,0.256863099590909971
0.848000000000000642,0.259221944752673794
0.849000000000000643,0.261515677588943063
0.850000000000000644,0.263744860080469157
0.851000000000000645,0.265910054472535906
0.852000000000000646,0.268011823185774711
0.853000000000000647,0.270050728728734035
0.854000000000000647,0.272027333612130551
0.855000000000000648,0.273942200264800539
0.856000000000000649,0.275795890951279765
0.857000000000000650,0.277588967691057065
0.858000000000000651,0.279321992179431933
0.859000000000000652,0.280995525709962779
0.860000000000000653,0.282610129098519569
0.861000000000000654,0.284166362608881506
0.862000000000000655,0.285664785879869432
0.863000000000000655,0.287105957854031868
0.864000000000000656,0.288490436707798392
0.865000000000000657,0.289818779783136415
0.866000000000000658,0.291091543520683449
0.867000000000000659,0.292309283394291686
0.868000000000000660,0.293472553847040740
0.869000000000000661,0.294581908228636224
0.870000000000000662,0.295637898734203375
0.871000000000000663,0.296641076344453358
0.872000000000000663,0.297591990767205217
0.873000000000000664,0.298491190380255844
0.874000000000000665,0.299339222175541486
0.875000000000000666,0.300136631704630230
0.876000000000000667,0.300883963025475709
0.877000000000000668,0.301581758650443843
0.878000000000000669,0.302230559495596851
0.879000000000000670,0.302830904831197456
0.880000000000000671,0.303383332233419623
0.881000000000000671,0.303888377537283538
0.882000000000000672,0.304346574790743396
0.883000000000000673,0.304758456209953454
0.884000000000000674,0.305124552135675242
0.885000000000000675,0.305445390990815802
0.886000000000000676,0.305721499239091032
0.887000000000000677,0.305953401344761511
0.888000000000000678,0.306141619733490078
0.889000000000000679,0.306286674754223054
0.890000000000000679,0.306389084642156362
0.891000000000000680,0.306449365482712399
0.892000000000000681,0.306468031176553857
0.893000000000000682,0.306445593405598404
0.894000000000000683,0.306382561600017922
0.895000000000000684,0.306279442906210564
0.896000000000000685,0.306136742155745378
0.897000000000000686,0.305954961835245509
0.898000000000000687,0.305734602057176563
0.899000000000000687,0.305476160531614360
0.900000000000000688,0.305180132538843907
0.901000000000000689,0.304847010902893789
0.902000000000000690,0.304477285965925160
0.903000000000000691,0.304071445563476150
0.904000000000000692,0.303629975000575092
0.905000000000000693,0.303153357028664971
0.906000000000000694,0.302642071823354286
0.907000000000000695,0.302096596962983965
0.908000000000000695,0.301517407407964733
0.909000000000000696,0.300904975480925430
0.910000000000000697,0.300259770847600360
0.911000000000000698,0.299582260498490571
0.912000000000000699,0.298872908731259879
0.913000000000000700,0.298132177133851539
0.914000000000000701,0.297360524568354823
0.915000000000000702,0.296558407155532833
0.916000000000000703,0.295726278260081410
0.917000000000000703,0.294864588476541234
0.918000000000000704,0.293973785615912364
0.919000000000000705,0.293054314692887674
0.920000000000000706,0.292106617913766853
0.921000000000000707,0.291131134664986635
0.922000000000000708,0.290128301502294517
0.923000000000000709,0.289098552140502674
0.924000000000000710,0.288042317443886142
0.925000000000000711,0.286960025417139442
0.926000000000000711,0.285852101196936048
0.927000000000000712,0.284718967044038040
0.928000000000000713,0.283561042335988778
0.929000000000000714,0.282378743560337875
0.930000000000000715,0.281172484308419679
0.931000000000000716,0.279942675269649444
0.932000000000000717,0.278689724226331259
0.933000000000000718,0.277414036049023704
0.934000000000000719,0.276116012692338209
0.935000000000000719,0.274796053191276923
0.936000000000000720,0.273454553658037114
0.937000000000000721,0.272091907279284728
0.938000000000000722,0.270708504313895537
0.939000000000000723,0.269304732091152466
0.940000000000000724,0.267880975009380018
0.941000000000000725,0.266437614535023626
0.942000000000000726,0.264975029202152379
0.943000000000000727,0.263493594612380533
0.944000000000000727,0.261993683435204905
0.945000000000000728,0.260475665408732016
0.946000000000000729,0.258939907340819730
0.947000000000000730,0.257386773110584000
0.948000000000000731,0.255816623670295562
0.949000000000000732,0.254229817047641193
0.950000000000000733,0.252626708348359375
0.951000000000000734,0.251007649759201201
0.952000000000000735,0.249372990551280649
0.953000000000000735,0.247723077083723681
0.954000000000000736,0.246058252807674183
0.955000000000000737,0.244378858270622557
0.956000000000000738,0.242685231121036654
0.957000000000000739,0.240977706113313733
0.958000000000000740,0.239256615113052101
0.959000000000000741,0.237522287102578528
0.960000000000000742,0.235775048186809277
0.961000000000000743,0.234015221599368717
0.962000000000000743,0.232243127708986558
0.963000000000000744,0.230459084026178929
0.964000000000000745,0.228663405210173643
0.965000000000000746,0.226856403076110824
0.966000000000000747,0.225038386602482043
0.967000000000000748,0.223209661938825743
0.968000000000000749,0.221370532413647098
0.969000000000000750,0.219521298542590004
0.970000000000000751,0.217662258036812994
0.971000000000000751,0.215793705811609865
0.972000000000000752,0.213915933995238949
0.973000000000000753,0.212029231937941015
0.974000000000000754,0.210133886221204241
0.975000000000000755,0.208230180667186404
0.976000000000000756,0.206318396348359745
0.977000000000000757,0.204398811597327507
0.978000000000000758,0.202471702016844446
0.979000000000000759,0.200537340489981120
0.980000000000000759,0.198595997190497253
0.981000000000000760,0.196647939593375842
0.982000000000000761,0.194693432485493478
0.983000000000000762,0.192732737976484214
0.984000000000000763,0.190766115509751644
0.985000000000000764,0.188793821873598305
0.986000000000000765,0.186816111212550762
0.987000000000000766,0.184833235038787125
0.988000000000000766,0.182845442243710465
0.989000000000000767,0.180852979109658307
0.990000000000000768,0.178856089321745404
0.991000000000000769,0.176855013979814346
0.992000000000000770,0.174849991610512984
0.993000000000000771,0.172841258179492974
0.994000000000000772,0.170829047103709220
0.995000000000000773,0.168813589263831332
0.996000000000000774,0.166795113016762808
0.997000000000000774,0.164773844208251641
0.998000000000000775,0.162750006185605672
0.999000000000000776,0.160723819810483504
1.000000000000000666,0.158695503471801558
1.001000000000000778,0.156665273098698987
1.002000000000000668,0.154633342173600086
1.003000000000000780,0.152599921745353445
1.004000000000000670,0.150565220442433867
1.005000000000000782,0.148529444486232731
1.006000000000000671,0.146492797704410094
1.007000000000000783,0.144455481544301656
1.008000000000000673,0.142417695086407697
1.009000000000000785,0.140379635057921337
1.010000000000000675,0.138341495846331541
1.011000000000000787,0.136303469513057107
1.012000000000000677,0.134265745807148340
1.013000000000000789,0.132228512179033697
1.014000000000000679,0.130191953794300902
1.015000000000000790,0.128156253547532489
1.016000000000000680,0.126121592076166522
1.017000000000000792,0.124088147774410129
1.018000000000000682,0.122056096807167599
1.019000000000000794,0.120025613124019853
1.020000000000000684,0.117996868473215624
1.021000000000000796,0.115970032415697588
1.022000000000000686,0.113945272339152012
1.023000000000000798,0.111922753472073172
1.024000000000000687,0.109902638897865529
1.025000000000000799,0.107885089568925216
1.026000000000000689,0.105870264320790677
1.027000000000000801,0.103858319886246192
1.028000000000000691,0.101849410909486487
1.029000000000000803,0.099843689960252835
1.030000000000000693,0.097841307548005352
1.031000000000000805,0.095842412136067284
1.032000000000000695,0.093847150155807024
1.033000000000000806,0.091855666020788804
1.034000000000000696,0.089868102140936240
1.035000000000000808,0.087884598936704889
1.036000000000000698,0.085905294853216865
1.037000000000000810,0.083930326374419342
1.038000000000000700,0.081959828037223292
1.039000000000000812,0.079993932445625276
1.040000000000000702,0.078032770284825401
1.041000000000000814,0.076076470335325108
1.042000000000000703,0.074125159487027692
1.043000000000000815,0.072178962753288958
1.044000000000000705,0.070238003284979367
1.045000000000000817,0.068302402384513378
1.046000000000000707,0.066372279519856997
1.047000000000000819,0.064447752338511646
1.048000000000000709,0.062528936681496686
1.049000000000000821,0.060615946597253376
1.050000000000000711,0.058708894355586683
1.051000000000000822,0.056807890461525637
1.052000000000000712,0.054913043669191162
1.053000000000000824,0.053024460995610000
1.054000000000000714,0.051142247734507019
1.055000000000000826,0.049266507470065113
1.056000000000000716,0.047397342090643689
1.057000000000000828,0.045534851802472243
1.058000000000000718,0.043679135143297028
1.059000000000000830,0.041830288996001518
1.060000000000000719,0.039988408602171802
1.061000000000000831,0.038153587575648830
1.062000000000000721,0.036325917916007547
1.063000000000000833,0.034505490022016957
1.064000000000000723,0.032692392705062578
1.065000000000000835,0.030886713202500728
1.066000000000000725,0.029088537190987040
1.067000000000000837,0.027297948799765520
1.068000000000000727,0.025515030623888685
1.069000000000000838,0.023739863737417165
1.070000000000000728,0.021972527706550532
1.071000000000000840,0.020213100602723775
1.072000000000000730,0.018461659015646791
1.073000000000000842,0.016718278066301776
1.074000000000000732,0.014983031419882827
1.075000000000000844,0.013255991298687039
1.076000000000000734,0.011537228494958845
1.077000000000000846,0.009826812383674102
1.078000000000000735,0.008124810935271360
1.079000000000000847,0.006431290728344532
1.080000000000000737,0.004746316962252578
1.081000000000000849,0.003069953469714518
1.082000000000000739,0.001402262729302592
1.083000000000000851,-0.000256694122077894
1.084000000000000741,-0.001906857276794668
1.085000000000000853,-0.003548168244132754
1.086000000000000743,-0.005180569838008714
1.087000000000000854,-0.006804006164733478
1.088000000000000744,-0.008418422610842483
1.089000000000000856,-0.010023765830966567
1.090000000000000746,-0.011619983735789641
1.091000000000000858,-0.013207025480042026
1.092000000000000748,-0.014784841450556427
1.093000000000000860,-0.016353383254401613
1.094000000000000750,-0.017912603707053325
1.095000000000000862,-0.019462456820638064
1.096000000000000751,-0.021002897792243732
1.097000000000000863,-0.022533882992273612
1.098000000000000753,-0.024055369952878089
1.099000000000000865,-0.025567317356450559
1.100000000000000755,-0.027069685024153377
1.101000000000000867,-0.028562433904560515
1.102000000000000757,-0.030045526062307325
1.103000000000000869,-0.031518924666847692
1.104000000000000759,-0.032982593981239670
1.105000000000000870,-0.034436499351021797
1.106000000000000760,-0.035880607193124400
1.107000000000000872,-0.037314884984883091
1.108000000000000762,-0.038739301253075231
1.109000000000000874,-0.040153825563044934
1.110000000000000764,-0.041558428507886692
1.111000000000000876,-0.042953081697686621
1.112000000000000766,-0.044337757748840065
1.113000000000000878,-0.045712430273422623
1.114000000000000767,-0.047077073868631594
1.115000000000000879,-0.048431664106290441
1.116000000000000769,-0.049776177522409648
1.117000000000000881,-0.051110591606831457
1.118000000000000771,-0.052434884792922000
1.119000000000000883,-0.053749036447330978
1.120000000000000773,-0.055053026859828144
1.121000000000000885,-0.056346837233181804
1.122000000000000774,-0.057630449673127318
1.123000000000000886,-0.058903847178383428
1.124000000000000776,-0.060167013630741298
1.125000000000000888,-0.061419933785209178
1.126000000000000778,-0.062662593260236141
1.127000000000000890,-0.063894978527991281
1.128000000000000780,-0.065117076904701809
1.129000000000000892,-0.066328876541073278
1.130000000000000782,-0.067530366412754728
1.131000000000000894,-0.068721536310886192
1.132000000000000783,-0.069902376832690377
1.133000000000000895,-0.071072879372157310
1.134000000000000785,-0.072233036110759402
1.135000000000000897,-0.073382840008260605
1.136000000000000787,-0.074522284793570343
1.137000000000000899,-0.075651364955671416
1.138000000000000789,-0.076770075734596682
1.139000000000000901,-0.077878413112509537
1.140000000000000790,-0.078976373804792985
1.141000000000000902,-0.080063955251230751
1.142000000000000792,-0.081141155607267035
1.143000000000000904,-0.082207973735308151
1.144000000000000794,-0.083264409196080844
1.145000000000000906,-0.084310462240071896
1.146000000000000796,-0.085346133799030083
1.147000000000000908,-0.086371425477515043
1.148000000000000798,-0.087386339544523448
1.149000000000000909,-0.088390878925172070
1.150000000000000799,-0.089385047192439865
1.151000000000000689,-0.090368848558982404
1.152000000000000801,-0.091342287868997049
1.153000000000000913,-0.092305370590153230
1.154000000000000803,-0.093258102805589271
1.155000000000000693,-0.094200491205964229
1.156000000000000805,-0.095132543081580687
1.157000000000000917,-0.096054266314545375
1.158000000000000806,-0.096965669371022120
1.159000000000000696,-0.097866761293523619
1.160000000000000808,-0.098757551693270509
1.161000000000000920,-0.099638050742607565
1.162000000000000810,-0.100508269167489561
1.163000000000000700,-0.101368218240005262
1.164000000000000812,-0.102217909770994722
1.165000000000000924,-0.103057356102687403
1.166000000000000814,-0.103886570101428141
1.167000000000000703,-0.104705565150453525
1.168000000000000815,-0.105514355142719451
1.169000000000000927,-0.106312954473794560
1.170000000000000817,-0.107101378034816702
1.171000000000000707,-0.107879641205488250
1.172000000000000819,-0.108647759847154135
1.173000000000000931,-0.109405750295920395
1.174000000000000821,-0.110153629355824914
1.175000000000000711,-0.110891414292092955
1.176000000000000822,-0.111619122824414913
1.177000000000000934,-0.112336773120307168
1.178000000000000824,-0.113044383788507299
1.179000000000000714,-0.113741973872443489
1.180000000000000826,-0.114429562843756688
1.181000000000000938,-0.115107170595862437
1.182000000000000828,-0.115774817437588065
1.183000000000000718,-0.116432524086849523
1.184000000000000830,-0.117080311664397183
1.185000000000000941,-0.117718201687594143
1.186000000000000831,-0.118346216064282778
1.187000000000000721,-0.118964377086662937
1.188000000000000833,-0.119572707425262201
1.189000000000000945,-0.120171230122930031
1.190000000000000835,-0.120759968588910277
1.191000000000000725,-0.121338946592932873
1.192000000000000837,-0.121908188259411923
1.193000000000000949,-0.122467718061622571
1.194000000000000838,-0.123017560816003485
1.195000000000000728,-0.123557741676457569
1.196000000000000840,-0.124088286128727049
1.197000000000000952,-0.124609219984829184
1.198000000000000842,-0.125120569377507013
1.199000000000000732,-0.125622360754776674
1.200000000000000844,-0.126114620874478417
1.201000000000000956,-0.126597376798924244
1.202000000000000846,-0.127070655889553713
1.203000000000000735,-0.127534485801666042
1.204000000000000847,-0.127988894479187348
1.205000000000000959,-0.128433910149495900
1.206000000000000849,-0.128869561318288167
1.207000000000000739,-0.129295876764498385
1.208000000000000851,-0.129712885535262251
1.209000000000000963,-0.130120616940934769
1.210000000000000853,-0.130519100550141709
1.211000000000000743,-0.130908366184900093
1.212000000000000854,-0.131288443915757752
1.213000000000000966,-0.131659364057008121
1.214000000000000856,-0.132021157161928804
1.215000000000000746,-0.132373854018076331
1.216000000000000858,-0.132717485642629446
1.217000000000000970,-0.133052083277766298
1.218000000000000860,-0.133377678386094489
1.219000000000000750,-0.133694302646136493
1.220000000000000862,-0.134001987947831219
1.221000000000000973,-0.134300766388107423
1.222000000000000863,-0.134590670266490242
1.223000000000000753,-0.134871732080746182
1.224000000000000865,-0.135143984522578309
1.225000000000000977,-0.135407460473370572
1.226000000000000867,-0.135662192999958492
1.227000000000000757,-0.135908215350456996
1.228000000000000869,-0.136145560950114930
1.229000000000000981,-0.136374263397239986
1.230000000000000870,-0.136594356459128430
1.231000000000000760,-0.136805874068063715
1.232000000000000872,-0.137008850317350550
1.233000000000000984,-0.137203319457369882
1.234000000000000874,-0.137389315891718655
1.235000000000000764,-0.137566874173333187
1.236000000000000876,-0.137736029000700061
1.237000000000000988,-0.137896815214082397
1.238000000000000878,-0.138049267791789276
1.239000000000000767,-0.138193421846493969
1.240000000000000879,-0.138329312621576744
1.241000000000000991,-0.138456975487512929
1.242000000000000881,-0.138576445938305232
1.243000000000000771,-0.138687759587946491
1.244000000000000883,-0.138790952166914977
1.245000000000000995,-0.138886059518724875
1.246000000000000885,-0.138973117596502160
1.247000000000000774,-0.139052162459592732
1.248000000000000886,-0.139123230270218168
1.249000000000000998,-0.139186357290163959
1.250000000000000888,-0.139241579877503463
1.251000000000000778,-0.139288934483351640
1.252000000000000890,-0.139328457648670911
1.253000000000001002,-0.139360186001091846
1.254000000000000892,-0.139384156251788210
1.255000000000000782,-0.139400405192367655
1.256000000000000894,-0.139408969691822648
1.257000000000001005,-0.139409886693482366
1.258000000000000895,-0.139403193212031290
1.259000000000000785,-0.139388926330536178
1.260000000000000897,-0.139367123197528753
1.261000000000001009,-0.139337821024099029
1.262000000000000899,-0.139301057081042012
1.263000000000000789,-0.139256868696021663
1.264000000000000901,-0.139205293250784234
1.265000000000001013,-0.139146368178381913
1.266000000000000902,-0.139080130960444498
1.267000000000000792,-0.139006619124484615
1.268000000000000904,-0.138925870241222077
1.269000000000001016,-0.138837921921948937
1.270000000000000906,-0.138742811815923489
1.271000000000000796,-0.138640577607794885
1.272000000000000908,-0.138531257015051285
1.273000000000001020,-0.138414887785517415
1.274000000000000909,-0.138291507694860039
1.275000000000000799,-0.138161154544133136
1.276000000000000911,-0.138023866157362313
1.277000000000001023,-0.137879680379136643
1.278000000000000913,-0.137728635072251332
1.279000000000000803,-0.137570768115361813
1.280000000000000915,-0.137406117400688532
1.281000000000001027,-0.137234720831712176
1.282000000000000917,-0.137056616320949287
1.283000000000000806,-0.136871841787706450
1.284000000000000918,-0.136680435155892871
1.285000000000001030,-0.136482434351850340
1.286000000000000920,-0.136277877302212053
1.287000000000000810,-0.136066801931779224
1.288000000000000922,-0.135849246161448278
1.289000000000001034,-0.135625247906135671
1.290000000000000924,-0.135394845072745740
1.291000000000000814,-0.135158075558170498
1.292000000000000925,-0.134914977247290596
1.293000000000001037,-0.134665588011036230
1.294000000000000927,-0.134409945704439232
1.295000000000000817,-0.134148088164737611
1.296000000000000929,-0.133880053209489036
1.297000000000001041,-0.133605878634707742
1.298000000000000931,-0.133325602213052508
1.299000000000000821,-0.133039261691997757
1.300000000000000933,-0.132746894792056980
1.301000000000001044,-0.132448539205030580
1.302000000000000934,-0.132144232592261102
1.303000000000000824,-0.131834012582925514
1.304000000000000936,-0.131517916772340870
1.305000000000001048,-0.131195982720312354
1.306000000000000938,-0.130868247949475408
1.307000000000000828,-0.130534749943683248
1.308000000000000940,-0.130195526146407337
1.309000000000001052,-0.129850613959166389
1.310000000000000941,-0.129500050739973838
1.311000000000000831,-0.129143873801796177
1.312000000000000943,-0.128782120411053386
1.313000000000001055,-0.128414827786138108
1.314000000000000945,-0.128042033095938146
1.315000000000000835,-0.127663773458386587
1.316000000000000947,-0.127280085939056736
1.317000000000001059,-0.126891007549745832
1.318000000000000949,-0.126496575247090737
1.319000000000000838,-0.126096825931215628
1.320000000000000950,-0.125691796444385800
1.321000000000001062,-0.125281523569679892
1.322000000000000952,-0.124866044029695034
1.323000000000000842,-0.124445394485264108
1.324000000000000954,-0.124019611534191609
1.325000000000001066,-0.123588731710006644
1.326000000000000956,-0.123152791480746690
1.327000000000000846,-0.122711827247743169
1.328000000000000957,-0.122265875344441804
1.329000000000001069,-0.121814972035229591
1.330000000000000959,-0.121359153514292981
1.331000000000000849,-0.120898455904476315
1.332000000000000961,-0.120432915256173792
1.333000000000001073,-0.119962567546235882
1.334000000000000963,-0.119487448676889985
1.335000000000000853,-0.119007594474674600
1.336000000000000965,-0.118523040689410664
1.337000000000001076,-0.118033822993161050
1.338000000000000966,-0.117539976979231575
1.339000000000000856,-0.117041538161179570
1.340000000000000968,-0.116538541971829404
1.341000000000001080,-0.116031023762325741
1.342000000000000970,-0.115519018801188006
1.343000000000000860,-0.115002562273381945
1.344000000000000972,-0.114481689279411977
1.345000000000001084,-0.113956434834435141
1.346000000000000973,-0.113426833867367252
1.347000000000000863,-0.112892921220038439
1.348000000000000975,-0.112354731646331293
1.349000000000001087,-0.111812299811360788
1.350000000000000977,-0.111265660290653295
1.351000000000000867,-0.110714847569347061
1.352000000000000979,-0.110159896041402416
1.353000000000001091,-0.109600840008834549
1.354000000000000981,-0.109037713680959492
1.355000000000000870,-0.108470551173636839
1.356000000000000982,-0.107899386508560208
1.357000000000001094,-0.107324253612533241
1.358000000000000984,-0.106745186316765633
1.359000000000000874,-0.106162218356196922
1.360000000000000986,-0.105575383368815640
1.361000000000001098,-0.104984714895008741
1.362000000000000988,-0.104390246376900669
1.363000000000000878,-0.103792011157740283
1.364000000000000989,-0.103190042481269811
1.365000000000001101,-0.102584373491115460
1.366000000000000991,-0.101975037230204152
1.367000000000000881,-0.101362066640180409
1.368000000000000993,-0.100745494560830998
1.369000000000001105,-0.100125353729533989
1.370000000000000995,-0.099501676780720125
1.371000000000000885,-0.098874496245336327
1.372000000000000997,-0.098243844550326281
1.373000000000001108,-0.097609754018129880
1.374000000000000998,-0.096972256866169962
1.375000000000000888,-0.096331385206400416
1.376000000000001000,-0.095687171044803371
1.377000000000001112,-0.095039646280944440
1.378000000000001002,-0.094388842707521570
1.379000000000000892,-0.093734792009926404
1.380000000000001004,-0.093077525765813449
1.381000000000001116,-0.092417075444691174
1.382000000000001005,-0.091753472407511777
1.383000000000000895,-0.091086747906276022
1.384000000000001007,-0.090416933083658932
1.385000000000001119,-0.089744058972621207
1.386000000000001009,-0.089068156496061646
1.387000000000000899,-0.088389256466450100
1.388000000000001011,-0.087707389585502477
1.389000000000001123,-0.087022586443828223
1.390000000000001013,-0.086334877520624215
1.391000000000000902,-0.085644293183350206
1.392000000000001014,-0.084950863687435804
1.393000000000001126,-0.084254619175980802
1.394000000000001016,-0.083555589679473269
1.395000000000000906,-0.082853805115513851
1.396000000000001018,-0.082149295288548613
1.397000000000001130,-0.081442089889619540
1.398000000000001020,-0.080732218496113617
1.399000000000000909,-0.080019710571518826
1.400000000000001021,-0.079304595465203173
1.401000000000001133,-0.078586902412195361
1.402000000000001023,-0.077866660532964205
1.403000000000000913,-0.077143898833217747
1.404000000000001025,-0.076418646203714830
1.405000000000001137,-0.075690931420074964
1.406000000000001027,-0.074960783142589998
1.407000000000000917,-0.074228229916078359
1.408000000000001029,-0.073493300169691883
1.409000000000001140,-0.072756022216786287
1.410000000000001030,-0.072016424254766342
1.411000000000000920,-0.071274534364945352
1.412000000000001032,-0.070530380512409174
1.413000000000001144,-0.069783990545912222
1.414000000000001034,-0.069035392197741394
1.415000000000000924,-0.068284613083613957
1.416000000000001036,-0.067531680702582281
1.417000000000001148,-0.066776622436935426
1.418000000000001037,-0.066019465552112286
1.419000000000000927,-0.065260237196620080
1.420000000000001039,-0.064498964401964703
1.421000000000001151,-0.063735674082588067
1.422000000000001041,-0.062970393035802166
1.423000000000000931,-0.062203147941739069
1.424000000000001043,-0.061433965363306274
1.425000000000001155,-0.060662871746148463
1.426000000000001044,-0.059889893418614157
1.427000000000000934,-0.059115056591728554
1.428000000000001046,-0.058338387359173974
1.429000000000001158,-0.057559911697273522
1.430000000000001048,-0.056779655464987491
1.431000000000000938,-0.055997644403911404
1.432000000000001050,-0.055213904138277405
1.433000000000001162,-0.054428460174970064
1.434000000000001052,-0.053641337903528777
1.435000000000000941,-0.052852562596191713
1.436000000000001053,-0.052062159407902785
1.437000000000001165,-0.051270153376354433
1.438000000000001055,-0.050476569422029480
1.439000000000000945,-0.049681432348234481
1.440000000000001057,-0.048884766841159936
1.441000000000001169,-0.048086597469927661
1.442000000000001059,-0.047286948686650787
1.443000000000000949,-0.046485844826512121
1.444000000000001060,-0.045683310107813638
1.445000000000001172,-0.044879368632063890
1.446000000000001062,-0.044074044384063968
1.447000000000000952,-0.043267361231974832
1.448000000000001064,-0.042459342927424301
1.449000000000001176,-0.041650013105595851
1.450000000000001066,-0.040839395285323897
1.451000000000000956,-0.040027512869201996
1.452000000000001068,-0.039214389143692706
1.453000000000001180,-0.038400047279236849
1.454000000000001069,-0.037584510330375201
1.455000000000000959,-0.036767801235866072
1.456000000000001071,-0.035949942818812662
1.457000000000001183,-0.035130957786799512
1.458000000000001073,-0.034310868732016636
1.459000000000000963,-0.033489698131404566
1.460000000000001075,-0.032667468346802175
1.461000000000001187,-0.031844201625078027
1.462000000000001076,-0.031019920098301856
1.463000000000000966,-0.030194645783878031
1.464000000000001078,-0.029368400584719827
1.465000000000001190,-0.028541206289409659
1.466000000000001080,-0.027713084572350239
1.467000000000000970,-0.026884056993955723
1.468000000000001082,-0.026054145000811692
1.469000000000001194,-0.025223369925852938
1.470000000000001084,-0.024391752988548444
1.471000000000000973,-0.023559315295078480
1.472000000000001085,-0.022726077838531020
1.473000000000001197,-0.021892061499084698
1.474000000000001087,-0.021057287044202323
1.475000000000000977,-0.020221775128830687
1.476000000000001089,-0.019385546295604791
1.477000000000001201,-0.018548620975041417
1.478000000000001091,-0.017711019485750861
1.479000000000000981,-0.016872762034649692
1.480000000000001092,-0.016033868717161819
1.481000000000001204,-0.015194359517451558
1.482000000000001094,-0.014354254308620629
1.483000000000000984,-0.013513572852947950
1.484000000000001096,-0.012672334802105389
1.485000000000001208,-0.011830559697373868
1.486000000000001098,-0.010988266969895853
1.487000000000000988,-0.010145475940887655
1.488000000000001100,-0.009302205821879485
1.489000000000001211,-0.008458475714954877
1.490000000000001101,-0.007614304612992448
1.491000000000000991,-0.006769711399894698
1.492000000000001103,-0.005924714850852998
1.493000000000001215,-0.005079333632573955
1.494000000000001105,-0.004233586303541422
1.495000000000000995,-0.003387491314262622
1.496000000000001107,-0.002541067007527487
1.497000000000001219,-0.001694331618654601
1.498000000000001108,-0.000847303275758323
1.499000000000000998,0.000000000000000000
