# redgrapheneoxide_CS-61686-AC
# h[nm],U(h)[kJ/mol]
0.149999999999999994,83.618960358843153813
0.150999999999999995,81.562197205760327279
0.151999999999999996,79.464994304984202245
0.152999999999999997,77.372478541310030664
0.153999999999999998,75.297019810970638787
0.154999999999999999,73.240333568495699978
0.156000000000000000,71.202747937780600296
0.157000000000000001,69.186062019165660786
0.158000000000000002,67.193581190829959837
0.159000000000000002,65.229210710172864651
0.160000000000000003,63.296500739812771030
0.161000000000000004,61.397989941223578114
0.162000000000000005,59.534914514348102443
0.163000000000000006,57.707223258895950835
0.164000000000000007,55.913797588263605576
0.165000000000000008,54.152776614495564900
0.166000000000000009,52.421907119728565760
0.167000000000000010,50.718863037775236080
0.168000000000000010,49.041502230314094390
0.169000000000000011,47.388046988507539936
0.170000000000000012,45.757188118234388696
0.171000000000000013,44.148121072681078658
0.172000000000000014,42.560527249864506416
0.173000000000000015,40.994515263103487257
0.174000000000000016,39.450536641656256620
0.175000000000000017,37.929288800390906999
0.176000000000000018,36.431615833197746213
0.177000000000000018,34.958415172651413627
0.178000000000000019,33.510555714686617534
0.179000000000000020,32.088810814708992325
0.180000000000000021,30.693807717355774400
0.181000000000000022,29.325993520766388656
0.182000000000000023,27.985616690528267725
0.183000000000000024,26.672722395119471628
0.184000000000000025,25.387159486125817409
0.185000000000000026,24.128596739515256075
0.186000000000000026,22.896545955642647385
0.187000000000000027,21.690389636058704070
0.188000000000000028,20.509411171099593219
0.189000000000000029,19.352825746963937092
0.190000000000000030,18.219810484844721543
0.191000000000000031,17.109532634619377234
0.192000000000000032,16.021174944532148743
0.193000000000000033,14.953957604318830477
0.194000000000000034,13.907156404734601907
0.195000000000000034,12.880116967327452926
0.196000000000000035,11.872265073145273462
0.197000000000000036,10.883113258482866925
0.198000000000000037,9.912263951814130891
0.199000000000000038,8.959409501718212709
0.200000000000000039,8.024329494459419010
0.201000000000000040,7.106885785737567574
0.202000000000000041,6.207015677832773193
0.203000000000000042,5.324723664625672370
0.204000000000000042,4.460072146219484779
0.205000000000000043,3.613171485235110225
0.206000000000000044,2.784169741027491263
0.207000000000000045,1.973242378436393718
0.208000000000000046,1.180582206206969298
0.209000000000000047,0.406389758507624932
0.210000000000000048,-0.349135707687825203
0.211000000000000049,-1.085804465219831094
0.212000000000000050,-1.803443721125939092
0.213000000000000050,-2.501904107213413830
0.214000000000000051,-3.181065220396179338
0.215000000000000052,-3.840840201861370762
0.216000000000000053,-4.481179365960853644
0.217000000000000054,-5.102072907986319628
0.218000000000000055,-5.703552734854689277
0.219000000000000056,-6.285693474428503791
0.220000000000000057,-6.848612727992761329
0.221000000000000058,-7.392470636584080879
0.222000000000000058,-7.917468835727904164
0.223000000000000059,-8.423848874971888279
0.224000000000000060,-8.911890178706828536
0.225000000000000061,-9.381907623414218023
0.226000000000000062,-9.834248803932590377
0.227000000000000063,-10.269291057834177394
0.228000000000000064,-10.687438312765653592
0.229000000000000065,-11.089117816830253105
0.230000000000000066,-11.474776806942220020
0.231000000000000066,-11.844879164723529641
0.232000000000000067,-12.199902104062083197
0.233000000000000068,-12.540332929022707020
0.234000000000000069,-12.866665895485354554
0.235000000000000070,-13.179399204753508457
0.236000000000000071,-13.479032152486766449
0.237000000000000072,-13.766062451710496362
0.238000000000000073,-14.040983744372288911
0.239000000000000073,-14.304283311971010662
0.240000000000000074,-14.556439992194247779
0.241000000000000075,-14.797922305263465859
0.242000000000000076,-15.029186790804676122
0.243000000000000077,-15.250676553526853141
0.244000000000000078,-15.462820013788402207
0.245000000000000079,-15.666029857248869206
0.246000000000000080,-15.860702176220645043
0.247000000000000081,-16.047215794034741521
0.248000000000000081,-16.225931762693722504
0.249000000000000082,-16.397193023282667923
0.250000000000000111,-16.561324218024800814
0.251000000000000112,-16.718631642478261057
0.252000000000000113,-16.869403326156948708
0.253000000000000114,-17.013909229796027489
0.254000000000000115,-17.152401547558085326
0.255000000000000115,-17.285115102664864395
0.256000000000000116,-17.412267825229115203
0.257000000000000117,-17.534061301432899427
0.258000000000000118,-17.650681383637714106
0.259000000000000119,-17.762298851506812980
0.260000000000000120,-17.869070114755693623
0.261000000000000121,-17.971137948713810317
0.262000000000000122,-18.068632254468802500
0.263000000000000123,-18.161670835964422110
0.264000000000000123,-18.250360187028029202
0.265000000000000124,-18.334796281905688886
0.266000000000000125,-18.415065363476937677
0.267000000000000126,-18.491244723902386937
0.268000000000000127,-18.563403473021235612
0.269000000000000128,-18.631603290358818015
0.270000000000000129,-18.695899157124674872
0.271000000000000130,-18.756340065076244628
0.272000000000000131,-18.812969699590915695
0.273000000000000131,-18.865827094729112900
0.274000000000000132,-18.914947258481912939
0.275000000000000133,-18.960361766779023185
0.276000000000000134,-19.002099325186016188
0.277000000000000135,-19.040186297543844063
0.278000000000000136,-19.074647201100667360
0.279000000000000137,-19.105505167954511592
0.280000000000000138,-19.132782372867911391
0.281000000000000139,-19.156500427732972014
0.282000000000000139,-19.176680743157760389
0.283000000000000140,-19.193344857814786053
0.284000000000000141,-19.206514736339961757
0.285000000000000142,-19.216213036697809002
0.286000000000000143,-19.222463348036608721
0.287000000000000144,-19.225290400147063252
0.288000000000000145,-19.224720245711964139
0.289000000000000146,-19.220780416591871642
0.290000000000000147,-19.213500055436284697
0.291000000000000147,-19.202910023940852113
0.292000000000000148,-19.189042989090495439
0.293000000000000149,-19.171933488737600726
0.294000000000000150,-19.151617977863672593
0.295000000000000151,-19.128134856863997726
0.296000000000000152,-19.101524483178454972
0.297000000000000153,-19.071829167568573382
0.298000000000000154,-19.039093156312336674
0.299000000000000155,-19.003362600554588369
0.300000000000000155,-18.964685514013087442
0.301000000000000156,-18.923111720199123909
0.302000000000000157,-18.878692790267368906
0.303000000000000158,-18.831481972563498317
0.304000000000000159,-18.781534114889804954
0.305000000000000160,-18.728905580459677793
0.306000000000000161,-18.673654158461925334
0.307000000000000162,-18.615838970104924499
0.308000000000000163,-18.555520370960252308
0.309000000000000163,-18.492759850374703490
0.310000000000000164,-18.427619928670061711
0.311000000000000165,-18.360164052800339363
0.312000000000000166,-18.290456491088498581
0.313000000000000167,-18.218562227617262295
0.314000000000000168,-18.144546856803028589
0.315000000000000169,-18.068476478637546023
0.316000000000000170,-17.990417595039335907
0.317000000000000171,-17.910437007715497515
0.318000000000000171,-17.828601717895246281
0.319000000000000172,-17.744978828258830106
0.320000000000000173,-17.659635447349348425
0.321000000000000174,-17.572638596721041893
0.322000000000000175,-17.484055121045138037
0.323000000000000176,-17.393951601363855985
0.324000000000000177,-17.302394271654414126
0.325000000000000178,-17.209448938837656584
0.326000000000000179,-17.115180906341034728
0.327000000000000179,-17.019654901301663585
0.328000000000000180,-16.922935005473295433
0.329000000000000181,-16.825084589881182495
0.330000000000000182,-16.726166253249065363
0.331000000000000183,-16.626241764206223905
0.332000000000000184,-16.525372007265907826
0.333000000000000185,-16.423616932552349112
0.334000000000000186,-16.321035509240367389
0.335000000000000187,-16.217685682659357838
0.336000000000000187,-16.113624335003414956
0.337000000000000188,-16.008907249578779641
0.338000000000000189,-15.903589078512434085
0.339000000000000190,-15.797723313837272130
0.340000000000000191,-15.691362261863153194
0.341000000000000192,-15.584557020737715760
0.342000000000000193,-15.477357461095550661
0.343000000000000194,-15.369812209690909555
0.344000000000000195,-15.261968635905338587
0.345000000000000195,-15.153872841019628837
0.346000000000000196,-15.045569650137011308
0.347000000000000197,-14.937102606643572145
0.348000000000000198,-14.828513969090888480
0.349000000000000199,-14.719844710385592279
0.350000000000000200,-14.611134519170741797
0.351000000000000201,-14.502421803284482493
0.352000000000000202,-14.393743695182260822
0.353000000000000203,-14.285136059210383763
0.354000000000000203,-14.176633500620036799
0.355000000000000204,-14.068269376212830579
0.356000000000000205,-13.960075806511117236
0.357000000000000206,-13.852083689348509310
0.358000000000000207,-13.744322714778499872
0.359000000000000208,-13.636821381201889025
0.360000000000000209,-13.529607012616338579
0.361000000000000210,-13.422705776894364504
0.362000000000000210,-13.316142704999071711
0.363000000000000211,-13.209941711049969726
0.364000000000000212,-13.104125613154360863
0.365000000000000213,-12.998716154922956179
0.366000000000000214,-12.893734027591580826
0.367000000000000215,-12.789198892673990571
0.368000000000000216,-12.685129405074160758
0.369000000000000217,-12.581543236589373791
0.370000000000000218,-12.478457099738967884
0.371000000000000218,-12.375886771856308144
0.372000000000000219,-12.273847119385058235
0.373000000000000220,-12.172352122323690793
0.374000000000000221,-12.071414898765223001
0.375000000000000222,-11.971047729482043209
0.376000000000000223,-11.871262082508831526
0.377000000000000224,-11.772068637679055314
0.378000000000000225,-11.673477311073579443
0.379000000000000226,-11.575497279342348733
0.380000000000000226,-11.478137003863038146
0.381000000000000227,-11.381404254702555789
0.382000000000000228,-11.285306134350356899
0.383000000000000229,-11.189849101194409897
0.384000000000000230,-11.095038992713018189
0.385000000000000231,-11.000881048358142067
0.386000000000000232,-10.907379932107620135
0.387000000000000233,-10.814539754665942084
0.388000000000000234,-10.722364095295020547
0.389000000000000234,-10.630856023258498766
0.390000000000000235,-10.540018118864434626
0.391000000000000236,-10.449852494093567756
0.392000000000000237,-10.360360812801207686
0.393000000000000238,-10.271544310483081475
0.394000000000000239,-10.183403813596223486
0.395000000000000240,-10.095939758428025712
0.396000000000000241,-10.009152209507302445
0.397000000000000242,-9.923040877552804062
0.398000000000000242,-9.837605136955756890
0.399000000000000243,-9.752844042793896051
0.400000000000000244,-9.668756347375650151
0.401000000000000245,-9.585340516314172277
0.402000000000000246,-9.502594744131616977
0.403000000000000247,-9.420516969394956419
0.404000000000000248,-9.339104889385627217
0.405000000000000249,-9.258355974305745306
0.406000000000000250,-9.178267481024432684
0.407000000000000250,-9.098836466368512177
0.408000000000000251,-9.020059799962165670
0.409000000000000252,-8.941934176621032293
0.410000000000000253,-8.864456128306272831
0.411000000000000254,-8.787622035645018315
0.412000000000000255,-8.711428139023666972
0.413000000000000256,-8.635870549261101203
0.414000000000000257,-8.560945257868983305
0.415000000000000258,-8.486648146906890844
0.416000000000000258,-8.412974998439961993
0.417000000000000259,-8.339921503607246933
0.418000000000000260,-8.267483271308956105
0.419000000000000261,-8.195655836521002158
0.420000000000000262,-8.124434668245484659
0.421000000000000263,-8.053815177105770218
0.422000000000000264,-7.983792722594844626
0.423000000000000265,-7.914362619985844560
0.424000000000000266,-7.845520146913720794
0.425000000000000266,-7.777260549636733522
0.426000000000000267,-7.709579048986894279
0.427000000000000268,-7.642470846018122543
0.428000000000000269,-7.575931127361047679
0.429000000000000270,-7.509955070293292678
0.430000000000000271,-7.444537847533974073
0.431000000000000272,-7.379674631771186100
0.432000000000000273,-7.315360599931045371
0.433000000000000274,-7.251590937196897180
0.434000000000000274,-7.188360840787058059
0.435000000000000275,-7.125665523499463916
0.436000000000000276,-7.063500217031505990
0.437000000000000277,-7.001860175082948778
0.438000000000000278,-6.940740676250126917
0.439000000000000279,-6.880137026719097548
0.440000000000000280,-6.820044562765437135
0.441000000000000281,-6.760458653068276647
0.442000000000000282,-6.701374700845917687
0.443000000000000282,-6.642788145820238910
0.444000000000000283,-6.584694466017000813
0.445000000000000284,-6.527089179408967823
0.446000000000000285,-6.469967845408473472
0.447000000000000286,-6.413326066216244570
0.448000000000000287,-6.357159488032627870
0.449000000000000288,-6.301463802137722503
0.450000000000000289,-6.246234745846308556
0.451000000000000290,-6.191468103343618523
0.452000000000000290,-6.137159706407662618
0.453000000000000291,-6.083305435023683039
0.454000000000000292,-6.029901217896209253
0.455000000000000293,-5.976943032863908378
0.456000000000000294,-5.924426907222418492
0.457000000000000295,-5.872348917960028558
0.458000000000000296,-5.820705191911011767
0.459000000000000297,-5.769491905831293010
0.460000000000000298,-5.718705286400799892
0.461000000000000298,-5.668341610156941712
0.462000000000000299,-5.618397203363318937
0.463000000000000300,-5.568868441817655501
0.464000000000000301,-5.519751750602914342
0.465000000000000302,-5.471043603785261666
0.466000000000000303,-5.422740524062489520
0.467000000000000304,-5.374839082366324128
0.468000000000000305,-5.327335897422019961
0.469000000000000306,-5.280227635268332165
0.470000000000000306,-5.233511008741010606
0.471000000000000307,-5.187182776922655947
0.472000000000000308,-5.141239744561884706
0.473000000000000309,-5.095678761464347062
0.474000000000000310,-5.050496721858285021
0.475000000000000311,-5.005690563737021037
0.476000000000000312,-4.961257268180832014
0.477000000000000313,-4.917193858660306560
0.478000000000000314,-4.873497400323431705
0.479000000000000314,-4.830164999268458992
0.480000000000000315,-4.787193801804389359
0.481000000000000316,-4.744580993701054794
0.482000000000000317,-4.702323799430428330
0.483000000000000318,-4.660419481400909447
0.484000000000000319,-4.618865339186113417
0.485000000000000320,-4.577658708749703820
0.486000000000000321,-4.536796961667620032
0.487000000000000322,-4.496277504349086129
0.488000000000000322,-4.456097777257605586
0.489000000000000323,-4.416255254133195862
0.490000000000000324,-4.376747441216902068
0.491000000000000325,-4.337571876478700794
0.492000000000000326,-4.298726128849683192
0.493000000000000327,-4.260207797459565349
0.494000000000000328,-4.222014510880235605
0.495000000000000329,-4.184143926376270528
0.496000000000000330,-4.146593729163043918
0.497000000000000330,-4.109361631673206006
0.498000000000000331,-4.072445372832097732
0.499000000000000332,-4.035842717342761787
0.500000000000000333,-3.999551454981005172
0.501000000000000334,-3.963569399901067491
0.502000000000000335,-3.927894389952306220
0.503000000000000336,-3.892524286007355450
0.504000000000000337,-3.857456971302051674
0.505000000000000338,-3.822690350787524949
0.506000000000000338,-3.788222350494718338
0.507000000000000339,-3.754050916911581659
0.508000000000000340,-3.720174016373179793
0.509000000000000341,-3.686589634464952248
0.510000000000000342,-3.653295775439187487
0.511000000000000343,-3.620290461644953606
0.512000000000000344,-3.587571732971516436
0.513000000000000345,-3.555137646305375654
0.514000000000000346,-3.522986275000986378
0.515000000000000346,-3.491115708365138293
0.516000000000000347,-3.459524051155065116
0.517000000000000348,-3.428209423090314178
0.518000000000000349,-3.397169958378216226
0.519000000000000350,-3.366403805253071368
0.520000000000000351,-3.335909125528895292
0.521000000000000352,-3.305684094165679543
0.522000000000000353,-3.275726898849080637
0.523000000000000353,-3.246035739583400304
0.524000000000000354,-3.216608828297826683
0.525000000000000355,-3.187444388465685119
0.526000000000000356,-3.158540654736655462
0.527000000000000357,-3.129895872581794247
0.528000000000000358,-3.101508297951120152
0.529000000000000359,-3.073376196943722327
0.530000000000000360,-3.045497845490101607
0.531000000000000361,-3.017871529046630918
0.532000000000000361,-2.990495542301907950
0.533000000000000362,-2.963368188894818012
0.534000000000000363,-2.936487781144111686
0.535000000000000364,-2.909852639789255235
0.536000000000000365,-2.883461093742398340
0.537000000000000366,-2.857311479851191827
0.538000000000000367,-2.831402142672239552
0.539000000000000368,-2.805731434255034351
0.540000000000000369,-2.780297713936027204
0.541000000000000369,-2.755099348142734605
0.542000000000000370,-2.730134710207563042
0.543000000000000371,-2.705402180191154748
0.544000000000000372,-2.680900144715042011
0.545000000000000373,-2.656626996803353347
0.546000000000000374,-2.632581135733334410
0.547000000000000375,-2.608760966894478450
0.548000000000000376,-2.585164901656040737
0.549000000000000377,-2.561791357242674927
0.550000000000000377,-2.538638756617965342
0.551000000000000378,-2.515705528375679734
0.552000000000000379,-2.492990106638444114
0.553000000000000380,-2.470490930963673115
0.554000000000000381,-2.448206446256491198
0.555000000000000382,-2.426135102689475964
0.556000000000000383,-2.404275355628916255
0.557000000000000384,-2.382625665567499329
0.558000000000000385,-2.361184498063065185
0.559000000000000385,-2.339950323683357425
0.560000000000000386,-2.318921617956442471
0.561000000000000387,-2.298096861326686113
0.562000000000000388,-2.277474539116025376
0.563000000000000389,-2.257053141490362957
0.564000000000000390,-2.236831163430872849
0.565000000000000391,-2.216807104710048382
0.566000000000000392,-2.196979469872268886
0.567000000000000393,-2.177346768218742845
0.568000000000000393,-2.157907513796588184
0.569000000000000394,-2.138660225391924907
0.570000000000000395,-2.119603426526774026
0.571000000000000396,-2.100735645459590906
0.572000000000000397,-2.082055415189283831
0.573000000000000398,-2.063561273462519718
0.574000000000000399,-2.045251762784202842
0.575000000000000400,-2.027125430430904540
0.576000000000000401,-2.009180828467152846
0.577000000000000401,-1.991416513764401319
0.578000000000000402,-1.973831048022515633
0.579000000000000403,-1.956422997793660912
0.580000000000000404,-1.939190934508442599
0.581000000000000405,-1.922133434504159410
0.582000000000000406,-1.905249079055032713
0.583000000000000407,-1.888536454404285525
0.584000000000000408,-1.871994151797963468
0.585000000000000409,-1.855620767520331116
0.586000000000000409,-1.839414902930778251
0.587000000000000410,-1.823375164502081702
0.588000000000000411,-1.807500163859922848
0.589000000000000412,-1.791788517823560412
0.590000000000000413,-1.776238848447534213
0.591000000000000414,-1.760849783064310614
0.592000000000000415,-1.745619954327783940
0.593000000000000416,-1.730548000257496444
0.594000000000000417,-1.715632564283518180
0.595000000000000417,-1.700872295291915748
0.596000000000000418,-1.686265847670641138
0.597000000000000419,-1.671811881355874219
0.598000000000000420,-1.657509061878622791
0.599000000000000421,-1.643356060411589992
0.600000000000000422,-1.629351553816179798
0.601000000000000423,-1.615494224689604463
0.602000000000000424,-1.601782761411989942
0.603000000000000425,-1.588215858193444907
0.604000000000000425,-1.574792215121009642
0.605000000000000426,-1.561510538205419074
0.606000000000000427,-1.548369539427665087
0.607000000000000428,-1.535367936785202003
0.608000000000000429,-1.522504454337890056
0.609000000000000430,-1.509777822253449475
0.610000000000000431,-1.497186776852554191
0.611000000000000432,-1.484730060653369543
0.612000000000000433,-1.472406422415565741
0.613000000000000433,-1.460214617183773766
0.614000000000000434,-1.448153406330391801
0.615000000000000435,-1.436221557597721743
0.616000000000000436,-1.424417845139441585
0.617000000000000437,-1.412741049561318629
0.618000000000000438,-1.401189957961170407
0.619000000000000439,-1.389763363968008480
0.620000000000000440,-1.378460067780385989
0.621000000000000441,-1.367278876203870119
0.622000000000000441,-1.356218602687646158
0.623000000000000442,-1.345278067360212715
0.624000000000000443,-1.334456097064154800
0.625000000000000444,-1.323751525389977868
0.626000000000000445,-1.313163192708959981
0.627000000000000446,-1.302689946205041860
0.628000000000000447,-1.292330639905703515
0.629000000000000448,-1.282084134711833912
0.630000000000000449,-1.271949298426571895
0.631000000000000449,-1.261925005783095965
0.632000000000000450,-1.252010138471386202
0.633000000000000451,-1.242203585163908608
0.634000000000000452,-1.232504241540235412
0.635000000000000453,-1.222911010310584690
0.636000000000000454,-1.213422801238283277
0.637000000000000455,-1.204038531161142789
0.638000000000000456,-1.194757124011729177
0.639000000000000457,-1.185577510836554715
0.640000000000000457,-1.176498629814163310
0.641000000000000458,-1.167519426272107363
0.642000000000000459,-1.158638852702853272
0.643000000000000460,-1.149855868778540735
0.644000000000000461,-1.141169441364699111
0.645000000000000462,-1.132578544532824028
0.646000000000000463,-1.124082159571875739
0.647000000000000464,-1.115679274998690573
0.648000000000000465,-1.107368886567304811
0.649000000000000465,-1.099149997277189206
0.650000000000000466,-1.091021617380421915
0.651000000000000467,-1.082982764387776964
0.652000000000000468,-1.075032463073761324
0.653000000000000469,-1.067169745480584631
0.654000000000000470,-1.059393650921093055
0.655000000000000471,-1.051703225980656686
0.656000000000000472,-1.044097524518026177
0.657000000000000473,-1.036575607665159993
0.658000000000000473,-1.029136543826058015
0.659000000000000474,-1.021779408674577061
0.660000000000000475,-1.014503285151257206
0.661000000000000476,-1.007307263459166213
0.662000000000000477,-1.000190441058782520
0.663000000000000478,-0.993151922661904996
0.664000000000000479,-0.986190820224635223
0.665000000000000480,-0.979306252939394328
0.666000000000000481,-0.972497347226059405
0.667000000000000481,-0.965763236722141594
0.668000000000000482,-0.959103062272112838
0.669000000000000483,-0.952515971915814830
0.670000000000000484,-0.946001120876012180
0.671000000000000485,-0.939557671545083517
0.672000000000000486,-0.933184793470865692
0.673000000000000487,-0.926881663341683870
0.674000000000000488,-0.920647464970537399
0.675000000000000488,-0.914481389278497758
0.676000000000000489,-0.908382634277329570
0.677000000000000490,-0.902350405051311255
0.678000000000000491,-0.896383913738314830
0.679000000000000492,-0.890482379510136424
0.680000000000000493,-0.884645028552079937
0.681000000000000494,-0.878871094041848933
0.682000000000000495,-0.873159816127711208
0.683000000000000496,-0.867510441905995577
0.684000000000000496,-0.861922225397893094
0.685000000000000497,-0.856394427525621338
0.686000000000000498,-0.850926316087927903
0.687000000000000499,-0.845517165734971266
0.688000000000000500,-0.840166257942577155
0.689000000000000501,-0.834872880985905397
0.690000000000000502,-0.829636329912523784
0.691000000000000503,-0.824455906514902970
0.692000000000000504,-0.819330919302362792
0.693000000000000504,-0.814260683472476821
0.694000000000000505,-0.809244520881924778
0.695000000000000506,-0.804281760016861802
0.696000000000000507,-0.799371735962760344
0.697000000000000508,-0.794513790373770568
0.698000000000000509,-0.789707271441618675
0.699000000000000510,-0.784951533864026496
0.700000000000000511,-0.780245938812698325
0.701000000000000512,-0.775589853900868542
0.702000000000000512,-0.770982653150429575
0.703000000000000513,-0.766423716958658963
0.704000000000000514,-0.761912432064548173
0.705000000000000515,-0.757448191514753622
0.706000000000000516,-0.753030394629177646
0.707000000000000517,-0.748658446966206981
0.708000000000000518,-0.744331760287590294
0.709000000000000519,-0.740049752523011639
0.710000000000000520,-0.735811847734320956
0.711000000000000520,-0.731617476079486906
0.712000000000000521,-0.727466073776240618
0.713000000000000522,-0.723357083065441775
0.714000000000000523,-0.719289952174191449
0.715000000000000524,-0.715264135278658841
0.716000000000000525,-0.711279092466710727
0.717000000000000526,-0.707334289700255581
0.718000000000000527,-0.703429198777406173
0.719000000000000528,-0.699563297294404807
0.720000000000000528,-0.695736068607382019
0.721000000000000529,-0.691947001793876360
0.722000000000000530,-0.688195591614234492
0.723000000000000531,-0.684481338472800682
0.724000000000000532,-0.680803748378961071
0.725000000000000533,-0.677162332908062048
0.726000000000000534,-0.673556609162155429
0.727000000000000535,-0.669986099730650930
0.728000000000000536,-0.666450332650821653
0.729000000000000536,-0.662948841368231623
0.730000000000000537,-0.659481164697045208
0.731000000000000538,-0.656046846780250825
0.732000000000000539,-0.652645437049811816
0.733000000000000540,-0.649276490186744271
0.734000000000000541,-0.645939566081125016
0.735000000000000542,-0.642634229792055645
0.736000000000000543,-0.639360051507582905
0.737000000000000544,-0.636116606504569360
0.738000000000000544,-0.632903475108556934
0.739000000000000545,-0.629720242653584505
0.740000000000000546,-0.626566499442017699
0.741000000000000547,-0.623441840704348271
0.742000000000000548,-0.620345866559033787
0.743000000000000549,-0.617278181972301221
0.744000000000000550,-0.614238396717997959
0.745000000000000551,-0.611226125337468118
0.746000000000000552,-0.608240987099436192
0.747000000000000552,-0.605282605959964082
0.748000000000000553,-0.602350610522415897
0.749000000000000554,-0.599444633997500254
0.750000000000000555,-0.596564314163362530
0.751000000000000556,-0.593709293325731080
0.752000000000000557,-0.590879218278156260
0.753000000000000558,-0.588073740262293643
0.754000000000000559,-0.585292514928299701
0.755000000000000560,-0.582535202295294985
0.756000000000000560,-0.579801466711929225
0.757000000000000561,-0.577090976817039247
0.758000000000000562,-0.574403405500405917
0.759000000000000563,-0.571738429863638653
0.760000000000000564,-0.569095731181147535
0.761000000000000565,-0.566474994861256520
0.762000000000000566,-0.563875910407422465
0.763000000000000567,-0.561298171379592148
0.764000000000000568,-0.558741475355681638
0.765000000000000568,-0.556205523893207099
0.766000000000000569,-0.553690022491038158
0.767000000000000570,-0.551194680551315042
0.768000000000000571,-0.548719211341481938
0.769000000000000572,-0.546263331956524989
0.770000000000000573,-0.543826763281308301
0.771000000000000574,-0.541409229953115800
0.772000000000000575,-0.539010460324326202
0.773000000000000576,-0.536630186425273825
0.774000000000000576,-0.534268143927264072
0.775000000000000577,-0.531924072105782075
0.776000000000000578,-0.529597713803846348
0.777000000000000579,-0.527288815395584143
0.778000000000000580,-0.524997126749942811
0.779000000000000581,-0.522722401194625652
0.780000000000000582,-0.520464395480183750
0.781000000000000583,-0.518222869744324965
0.782000000000000584,-0.515997587476397568
0.783000000000000584,-0.513788315482068603
0.784000000000000585,-0.511594823848216085
0.785000000000000586,-0.509416885907998163
0.786000000000000587,-0.507254278206143994
0.787000000000000588,-0.505106780464437244
0.788000000000000589,-0.502974175547398650
0.789000000000000590,-0.500856249428198064
0.790000000000000591,-0.498752791154751685
0.791000000000000592,-0.496663592816045107
0.792000000000000592,-0.494588449508662986
0.793000000000000593,-0.492527159303532358
0.794000000000000594,-0.490479523212878799
0.795000000000000595,-0.488445345157420108
0.796000000000000596,-0.486424431933730084
0.797000000000000597,-0.484416593181883737
0.798000000000000598,-0.482421641353269759
0.799000000000000599,-0.480439391678655070
0.800000000000000600,-0.478469662136460805
0.801000000000000600,-0.476512273421263011
0.802000000000000601,-0.474567048912516776
0.803000000000000602,-0.472633814643504124
0.804000000000000603,-0.470712399270516557
0.805000000000000604,-0.468802634042254973
0.806000000000000605,-0.466904352769446973
0.807000000000000606,-0.465017391794724400
0.808000000000000607,-0.463141589962689892
0.809000000000000608,-0.461276788590233966
0.810000000000000608,-0.459422831437088175
0.811000000000000609,-0.457579564676578676
0.812000000000000610,-0.455746836866641192
0.813000000000000611,-0.453924498921037867
0.814000000000000612,-0.452112404080825647
0.815000000000000613,-0.450310407886050368
0.816000000000000614,-0.448518368147648061
0.817000000000000615,-0.446736144919611111
0.818000000000000616,-0.444963600471364351
0.819000000000000616,-0.443200599260370698
0.820000000000000617,-0.441447007904966049
0.821000000000000618,-0.439702695157434431
0.822000000000000619,-0.437967531877308303
0.823000000000000620,-0.436241391004887125
0.824000000000000621,-0.434524147534994409
0.825000000000000622,-0.432815678490965638
0.826000000000000623,-0.431115862898856839
0.827000000000000624,-0.429424581761888136
0.828000000000000624,-0.427741718035106300
0.829000000000000625,-0.426067156600277996
0.830000000000000626,-0.424400784241012907
0.831000000000000627,-0.422742489618104400
0.832000000000000628,-0.421092163245112228
0.833000000000000629,-0.419449697464139404
0.834000000000000630,-0.417814986421863210
0.835000000000000631,-0.416187926045775369
0.836000000000000631,-0.414568414020644482
0.837000000000000632,-0.412956349765205566
0.838000000000000633,-0.411351634409059919
0.839000000000000634,-0.409754170769808912
0.840000000000000635,-0.408163863330403498
0.841000000000000636,-0.406580618216696277
0.842000000000000637,-0.405004343175243364
0.843000000000000638,-0.403434947551285727
0.844000000000000639,-0.401872342266977156
0.845000000000000639,-0.400316439799809576
0.846000000000000640,-0.398767154161255299
0.847000000000000641,-0.397224400875633932
0.848000000000000642,-0.395688096959172508
0.849000000000000643,-0.394158160899287235
0.850000000000000644,-0.392634512634085664
0.851000000000000645,-0.391117073532044612
0.852000000000000646,-0.389605766371942219
0.853000000000000647,-0.388100515322956863
0.854000000000000647,-0.386601245924988124
0.855000000000000648,-0.385107885069188305
0.856000000000000649,-0.383620360978687236
0.857000000000000650,-0.382138603189525916
0.858000000000000651,-0.380662542531781001
0.859000000000000652,-0.379192111110904784
0.860000000000000653,-0.377727242289254250
0.861000000000000654,-0.376267870667816251
0.862000000000000655,-0.374813932068141620
0.863000000000000655,-0.373365363514451765
0.864000000000000656,-0.371922103215969191
0.865000000000000657,-0.370484090549412448
0.866000000000000658,-0.369051266041701020
0.867000000000000659,-0.367623571352848899
0.868000000000000660,-0.366200949259034680
0.869000000000000661,-0.364783343635872725
0.870000000000000662,-0.363370699441866896
0.871000000000000663,-0.361962962702050639
0.872000000000000663,-0.360560080491806711
0.873000000000000664,-0.359162000920874414
0.874000000000000665,-0.357768673117535629
0.875000000000000666,-0.356380047212983331
0.876000000000000667,-0.354996074325867994
0.877000000000000668,-0.353616706547018989
0.878000000000000669,-0.352241896924352038
0.879000000000000670,-0.350871599447930893
0.880000000000000671,-0.349505769035232672
0.881000000000000671,-0.348144361516554257
0.882000000000000672,-0.346787333620614091
0.883000000000000673,-0.345434642960310956
0.884000000000000674,-0.344086248018655005
0.885000000000000675,-0.342742108134863332
0.886000000000000676,-0.341402183490627564
0.887000000000000677,-0.340066435096539110
0.888000000000000678,-0.338734824778674226
0.889000000000000679,-0.337407315165357879
0.890000000000000679,-0.336083869674066893
0.891000000000000680,-0.334764452498510945
0.892000000000000681,-0.333449028595855679
0.893000000000000682,-0.332137563674112402
0.894000000000000683,-0.330830024179675830
0.895000000000000684,-0.329526377285027927
0.896000000000000685,-0.328226590876576352
0.897000000000000686,-0.326930633542658999
0.898000000000000687,-0.325638474561697422
0.899000000000000687,-0.324350083890484642
0.900000000000000688,-0.323065432152636334
0.901000000000000689,-0.321784490627179121
0.902000000000000690,-0.320507231237292134
0.903000000000000691,-0.319233626539179638
0.904000000000000692,-0.317963649711094809
0.905000000000000693,-0.316697274542501073
0.906000000000000694,-0.315434475423376770
0.907000000000000695,-0.314175227333645002
0.908000000000000695,-0.312919505832766398
0.909000000000000696,-0.311667287049434083
0.910000000000000697,-0.310418547671434730
0.911000000000000698,-0.309173264935617254
0.912000000000000699,-0.307931416618008935
0.913000000000000700,-0.306692981024065503
0.914000000000000701,-0.305457936979021683
0.915000000000000702,-0.304226263818415055
0.916000000000000703,-0.302997941378694902
0.917000000000000703,-0.301772949987985262
0.918000000000000704,-0.300551270456953679
0.919000000000000705,-0.299332884069812788
0.920000000000000706,-0.298117772575447471
0.921000000000000707,-0.296905918178647421
0.922000000000000708,-0.295697303531475053
0.923000000000000709,-0.294491911724747812
0.924000000000000710,-0.293289726279626073
0.925000000000000711,-0.292090731139336757
0.926000000000000711,-0.290894910660993267
0.927000000000000712,-0.289702249607541096
0.928000000000000713,-0.288512733139808741
0.929000000000000714,-0.287326346808677857
0.930000000000000715,-0.286143076547350605
0.931000000000000716,-0.284962908663737524
0.932000000000000717,-0.283785829832954362
0.933000000000000718,-0.282611827089908840
0.934000000000000719,-0.281440887822013486
0.935000000000000719,-0.280272999761993491
0.936000000000000720,-0.279108150980793668
0.937000000000000721,-0.277946329880594367
0.938000000000000722,-0.276787525187929428
0.939000000000000723,-0.275631725946894224
0.940000000000000724,-0.274478921512466001
0.941000000000000725,-0.273329101543908826
0.942000000000000726,-0.272182255998288714
0.943000000000000727,-0.271038375124069142
0.944000000000000727,-0.269897449454817306
0.945000000000000728,-0.268759469802995143
0.946000000000000729,-0.267624427253835673
0.947000000000000730,-0.266492313159328642
0.948000000000000731,-0.265363119132279279
0.949000000000000732,-0.264236837040472183
0.950000000000000733,-0.263113459000904604
0.951000000000000734,-0.261992977374132463
0.952000000000000735,-0.260875384758677165
0.953000000000000735,-0.259760673985528601
0.954000000000000736,-0.258648838112740365
0.955000000000000737,-0.257539870420096739
0.956000000000000738,-0.256433764403868392
0.957000000000000739,-0.255330513771645840
0.958000000000000740,-0.254230112437255962
0.959000000000000741,-0.253132554515757668
0.960000000000000742,-0.252037834318520448
0.961000000000000743,-0.250945946348368754
0.962000000000000743,-0.249856885294815978
0.963000000000000744,-0.248770646029366160
0.964000000000000745,-0.247687223600901840
0.965000000000000746,-0.246606613231129396
0.966000000000000747,-0.245528810310108619
0.967000000000000748,-0.244453810391851878
0.968000000000000749,-0.243381609190003484
0.969000000000000750,-0.242312202573567254
0.970000000000000751,-0.241245586562734260
0.971000000000000751,-0.240181757324748613
0.972000000000000752,-0.239120711169859362
0.973000000000000753,-0.238062444547349678
0.974000000000000754,-0.237006954041599494
0.975000000000000755,-0.235954236368246362
0.976000000000000756,-0.234904288370394954
0.977000000000000757,-0.233857107014892124
0.978000000000000758,-0.232812689388661509
0.979000000000000759,-0.231771032695122559
0.980000000000000759,-0.230732134250631299
0.981000000000000760,-0.229695991481019102
0.982000000000000761,-0.228662601918178776
0.983000000000000762,-0.227631963196698761
0.984000000000000763,-0.226604073050567623
0.985000000000000764,-0.225578929309941362
0.986000000000000765,-0.224556529897952772
0.987000000000000766,-0.223536872827583499
0.988000000000000766,-0.222519956198595020
0.989000000000000767,-0.221505778194519498
0.990000000000000768,-0.220494337079685632
0.991000000000000769,-0.219485631196313452
0.992000000000000770,-0.218479658961658801
0.993000000000000771,-0.217476418865211907
0.994000000000000772,-0.216475909465936478
0.995000000000000773,-0.215478129389577472
0.996000000000000774,-0.214483077325998750
0.997000000000000774,-0.213490752026584879
0.998000000000000775,-0.212501152301686952
0.999000000000000776,-0.211514277018113178
1.000000000000000666,-0.210530125096670240
1.001000000000000778,-0.209548695509754218
1.002000000000000668,-0.208569987278978936
1.003000000000000780,-0.207593999472855062
1.004000000000000670,-0.206620731204517988
1.005000000000000782,-0.205650181629492723
1.006000000000000671,-0.204682349943508063
1.007000000000000783,-0.203717235380344086
1.008000000000000673,-0.202754837209735500
1.009000000000000785,-0.201795154735310067
1.010000000000000675,-0.200838187292564724
1.011000000000000787,-0.199883934246884526
1.012000000000000677,-0.198932394991612138
1.013000000000000789,-0.197983568946139499
1.014000000000000679,-0.197037455554046670
1.015000000000000790,-0.196094054281283570
1.016000000000000680,-0.195153364614387453
1.017000000000000792,-0.194215386058721962
1.018000000000000682,-0.193280118136785473
1.019000000000000794,-0.192347560386518901
1.020000000000000684,-0.191417712359679804
1.021000000000000796,-0.190490573620232306
1.022000000000000686,-0.189566143742778914
1.023000000000000798,-0.188644422311028237
1.024000000000000687,-0.187725408916290137
1.025000000000000799,-0.186809103156012790
1.026000000000000689,-0.185895504632344111
1.027000000000000801,-0.184984612950729516
1.028000000000000691,-0.184076427718542768
1.029000000000000803,-0.183170948543744494
1.030000000000000693,-0.182268175033571955
1.031000000000000805,-0.181368106793265121
1.032000000000000695,-0.180470743424808733
1.033000000000000806,-0.179576084525727986
1.034000000000000696,-0.178684129687884330
1.035000000000000808,-0.177794878496319031
1.036000000000000698,-0.176908330528116997
1.037000000000000810,-0.176024485351313181
1.038000000000000700,-0.175143342523794904
1.039000000000000812,-0.174264901592262517
1.040000000000000702,-0.173389162091201560
1.041000000000000814,-0.172516123541887667
1.042000000000000703,-0.171645785451399940
1.043000000000000815,-0.170778147311686807
1.044000000000000705,-0.169913208598638010
1.045000000000000817,-0.169050968771179699
1.046000000000000707,-0.168191427270407368
1.047000000000000819,-0.167334583518734120
1.048000000000000709,-0.166480436919051428
1.049000000000000821,-0.165628986853942534
1.050000000000000711,-0.164780232684879346
1.051000000000000822,-0.163934173751481921
1.052000000000000712,-0.163090809370766976
1.053000000000000824,-0.162250138836430163
1.054000000000000714,-0.161412161418160671
1.055000000000000826,-0.160576876360955495
1.056000000000000716,-0.159744282884473704
1.057000000000000828,-0.158914380182392845
1.058000000000000718,-0.158087167421800567
1.059000000000000830,-0.157262643742596298
1.060000000000000719,-0.156440808256920527
1.061000000000000831,-0.155621660048585297
1.062000000000000721,-0.154805198172548508
1.063000000000000833,-0.153991421654390226
1.064000000000000723,-0.153180329489801065
1.065000000000000835,-0.152371920644105263
1.066000000000000725,-0.151566194051796693
1.067000000000000837,-0.150763148616071596
1.068000000000000727,-0.149962783208414913
1.069000000000000838,-0.149165096668163966
1.070000000000000728,-0.148370087802118383
1.071000000000000840,-0.147577755384149800
1.072000000000000730,-0.146788098154832208
1.073000000000000842,-0.146001114821087241
1.074000000000000732,-0.145216804055839976
1.075000000000000844,-0.144435164497699497
1.076000000000000734,-0.143656194750646171
1.077000000000000846,-0.142879893383728584
1.078000000000000735,-0.142106258930791762
1.079000000000000847,-0.141335289890197668
1.080000000000000737,-0.140566984724579791
1.081000000000000849,-0.139801341860587708
1.082000000000000739,-0.139038359688669899
1.083000000000000851,-0.138278036562848705
1.084000000000000741,-0.137520370800522956
1.085000000000000853,-0.136765360682268577
1.086000000000000743,-0.136013004451663921
1.087000000000000854,-0.135263300315117352
1.088000000000000744,-0.134516246441720055
1.089000000000000856,-0.133771840963083588
1.090000000000000746,-0.133030081973221748
1.091000000000000858,-0.132290967528422565
1.092000000000000748,-0.131554495647130149
1.093000000000000860,-0.130820664309851259
1.094000000000000750,-0.130089471459056361
1.095000000000000862,-0.129360914999101212
1.096000000000000751,-0.128634992796157616
1.097000000000000863,-0.127911702678143391
1.098000000000000753,-0.127191042434679824
1.099000000000000865,-0.126473009817043153
1.100000000000000755,-0.125757602538127233
1.101000000000000867,-0.125044818272422364
1.102000000000000757,-0.124334654656001048
1.103000000000000869,-0.123627109286507331
1.104000000000000759,-0.122922179723151628
1.105000000000000870,-0.122219863486731667
1.106000000000000760,-0.121520158059636521
1.107000000000000872,-0.120823060885878908
1.108000000000000762,-0.120128569371128729
1.109000000000000874,-0.119436680882745436
1.110000000000000764,-0.118747392749831551
1.111000000000000876,-0.118060702263283829
1.112000000000000766,-0.117376606675854256
1.113000000000000878,-0.116695103202221276
1.114000000000000767,-0.116016189019064894
1.115000000000000879,-0.115339861265142313
1.116000000000000769,-0.114666117041383256
1.117000000000000881,-0.113994953410978803
1.118000000000000771,-0.113326367399485498
1.119000000000000883,-0.112660355994930003
1.120000000000000773,-0.111996916147923911
1.121000000000000885,-0.111336044771775527
1.122000000000000774,-0.110677738742619838
1.123000000000000886,-0.110021994899544590
1.124000000000000776,-0.109368810044727940
1.125000000000000888,-0.108718180943569928
1.126000000000000778,-0.108070104324844457
1.127000000000000890,-0.107424576880851053
1.128000000000000780,-0.106781595267557455
1.129000000000000892,-0.106141156104770776
1.130000000000000782,-0.105503255976293328
1.131000000000000894,-0.104867891430095783
1.132000000000000783,-0.104235058978483439
1.133000000000000895,-0.103604755098282861
1.134000000000000785,-0.102976976231005254
1.135000000000000897,-0.102351718783052353
1.136000000000000787,-0.101728979125886229
1.137000000000000899,-0.101108753596234016
1.138000000000000789,-0.100491038496272139
1.139000000000000901,-0.099875830093842710
1.140000000000000790,-0.099263124622640878
1.141000000000000902,-0.098652918282420329
1.142000000000000792,-0.098045207239217474
1.143000000000000904,-0.097439987625551047
1.144000000000000794,-0.096837255540644956
1.145000000000000906,-0.096237007050635343
1.146000000000000796,-0.095639238188810288
1.147000000000000908,-0.095043944955816945
1.148000000000000798,-0.094451123319899882
1.149000000000000909,-0.093860769217123968
1.150000000000000799,-0.093272878551606986
1.151000000000000689,-0.092687447195757375
1.152000000000000801,-0.092104470990510473
1.153000000000000913,-0.091523945745562649
1.154000000000000803,-0.090945867239618686
1.155000000000000693,-0.090370231220628067
1.156000000000000805,-0.089797033406040797
1.157000000000000917,-0.089226269483041021
1.158000000000000806,-0.088657935108808678
1.159000000000000696,-0.088092025910760638
1.160000000000000808,-0.087528537486808763
1.161000000000000920,-0.086967465405611719
1.162000000000000810,-0.086408805206834055
1.163000000000000700,-0.085852552401396193
1.164000000000000812,-0.085298702471742732
1.165000000000000924,-0.084747250872091742
1.166000000000000814,-0.084198193028706153
1.167000000000000703,-0.083651524340148539
1.168000000000000815,-0.083107240177550668
1.169000000000000927,-0.082565335884871388
1.170000000000000817,-0.082025806779172955
1.171000000000000707,-0.081488648150872478
1.172000000000000819,-0.080953855264025751
1.173000000000000931,-0.080421423356586433
1.174000000000000821,-0.079891347640674445
1.175000000000000711,-0.079363623302853029
1.176000000000000822,-0.078838245504394083
1.177000000000000934,-0.078315209381550011
1.178000000000000824,-0.077794510045828144
1.179000000000000714,-0.077276142584259189
1.180000000000000826,-0.076760102059677371
1.181000000000000938,-0.076246383510986171
1.182000000000000828,-0.075734981953435879
1.183000000000000718,-0.075225892378898138
1.184000000000000830,-0.074719109756140753
1.185000000000000941,-0.074214629031095936
1.186000000000000831,-0.073712445127147364
1.187000000000000721,-0.073212552945392265
1.188000000000000833,-0.072714947364927757
1.189000000000000945,-0.072219623243117953
1.190000000000000835,-0.071726575415875127
1.191000000000000725,-0.071235798697924360
1.192000000000000837,-0.070747287883098919
1.193000000000000949,-0.070261037744589888
1.194000000000000838,-0.069777043035244041
1.195000000000000728,-0.069295298487821858
1.196000000000000840,-0.068815798815281104
1.197000000000000952,-0.068338538711051347
1.198000000000000842,-0.067863512849300520
1.199000000000000732,-0.067390715885220498
1.200000000000000844,-0.066920142455284687
1.201000000000000956,-0.066451787177537108
1.202000000000000846,-0.065985644651852776
1.203000000000000735,-0.065521709460220873
1.204000000000000847,-0.065059976167001751
1.205000000000000959,-0.064600439319215358
1.206000000000000849,-0.064143093446797653
1.207000000000000739,-0.063687933062876123
1.208000000000000851,-0.063234952664040889
1.209000000000000963,-0.062784146730611584
1.210000000000000853,-0.062335509726905512
1.211000000000000743,-0.061889036101504293
1.212000000000000854,-0.061444720287522583
1.213000000000000966,-0.061002556702871510
1.214000000000000856,-0.060562539750530463
1.215000000000000746,-0.060124663818797719
1.216000000000000858,-0.059688923281573922
1.217000000000000970,-0.059255312498606806
1.218000000000000860,-0.058823825815761822
1.219000000000000750,-0.058394457565285829
1.220000000000000862,-0.057967202066059764
1.221000000000000973,-0.057542053623862735
1.222000000000000863,-0.057119006531633064
1.223000000000000753,-0.056698055069716466
1.224000000000000865,-0.056279193506134917
1.225000000000000977,-0.055862416096832158
1.226000000000000867,-0.055447717085933546
1.227000000000000757,-0.055035090705998865
1.228000000000000869,-0.054624531178267599
1.229000000000000981,-0.054216032712928852
1.230000000000000870,-0.053809589509349179
1.231000000000000760,-0.053405195756335823
1.232000000000000872,-0.053002845632384499
1.233000000000000984,-0.052602533305916743
1.234000000000000874,-0.052204252935541019
1.235000000000000764,-0.051807998670281317
1.236000000000000876,-0.051413764649833125
1.237000000000000988,-0.051021545004797789
1.238000000000000878,-0.050631333856931880
1.239000000000000767,-0.050243125319378565
1.240000000000000879,-0.049856913496913881
1.241000000000000991,-0.049472692486178624
1.242000000000000881,-0.049090456375917961
1.243000000000000771,-0.048710199247217832
1.244000000000000883,-0.048331915173731768
1.245000000000000995,-0.047955598221925397
1.246000000000000885,-0.047581242451297037
1.247000000000000774,-0.047208841914613497
1.248000000000000886,-0.046838390658136594
1.249000000000000998,-0.046469882721851610
1.250000000000000888,-0.046103312139696255
1.251000000000000778,-0.045738672939778978
1.252000000000000890,-0.045375959144609311
1.253000000000001002,-0.045015164771312226
1.254000000000000892,-0.044656283831861251
1.255000000000000782,-0.044299310333285997
1.256000000000000894,-0.043944238277895224
1.257000000000001005,-0.043591061663496203
1.258000000000000895,-0.043239774483608370
1.259000000000000785,-0.042890370727672517
1.260000000000000897,-0.042542844381272427
1.261000000000001009,-0.042197189426340112
1.262000000000000899,-0.041853399841367565
1.263000000000000789,-0.041511469601614351
1.264000000000000901,-0.041171392679319387
1.265000000000001013,-0.040833163043900667
1.266000000000000902,-0.040496774662162373
1.267000000000000792,-0.040162221498499656
1.268000000000000904,-0.039829497515097442
1.269000000000001016,-0.039498596672131965
1.270000000000000906,-0.039169512927971703
1.271000000000000796,-0.038842240239370836
1.272000000000000908,-0.038516772561666912
1.273000000000001020,-0.038193103848977235
1.274000000000000909,-0.037871228054390423
1.275000000000000799,-0.037551139130155994
1.276000000000000911,-0.037232831027881656
1.277000000000001023,-0.036916297698712505
1.278000000000000913,-0.036601533093528947
1.279000000000000803,-0.036288531163122542
1.280000000000000915,-0.035977285858393639
1.281000000000001027,-0.035667791130515845
1.282000000000000917,-0.035360040931138412
1.283000000000000806,-0.035054029212551671
1.284000000000000918,-0.034749749927874433
1.285000000000001030,-0.034447197031225799
1.286000000000000920,-0.034146364477907962
1.287000000000000810,-0.033847246224571484
1.288000000000000922,-0.033549836229401435
1.289000000000001034,-0.033254128452276821
1.290000000000000924,-0.032960116854945237
1.291000000000000814,-0.032667795401199261
1.292000000000000925,-0.032377158057030321
1.293000000000001037,-0.032088198790808306
1.294000000000000927,-0.031800911573437118
1.295000000000000817,-0.031515290378525074
1.296000000000000929,-0.031231329182538764
1.297000000000001041,-0.030949021964969049
1.298000000000000931,-0.030668362708493546
1.299000000000000821,-0.030389345399126733
1.300000000000000933,-0.030111964026380243
1.301000000000001044,-0.029836212583418599
1.302000000000000934,-0.029562085067209996
1.303000000000000824,-0.029289575478683917
1.304000000000000936,-0.029018677822872662
1.305000000000001048,-0.028749386109070817
1.306000000000000938,-0.028481694350981291
1.307000000000000828,-0.028215596566853351
1.308000000000000940,-0.027951086779635492
1.309000000000001052,-0.027688159017124014
1.310000000000000941,-0.027426807312096811
1.311000000000000831,-0.027167025702454307
1.312000000000000943,-0.026908808231362269
1.313000000000001055,-0.026652148947399278
1.314000000000000945,-0.026397041904678363
1.315000000000000835,-0.026143481162989878
1.316000000000000947,-0.025891460787935926
1.317000000000001059,-0.025640974851068248
1.318000000000000949,-0.025392017430008674
1.319000000000000838,-0.025144582608591239
1.320000000000000950,-0.024898664476985341
1.321000000000001062,-0.024654257131821438
1.322000000000000952,-0.024411354676324253
1.323000000000000842,-0.024169951220432435
1.324000000000000954,-0.023930040880927744
1.325000000000001066,-0.023691617781548366
1.326000000000000956,-0.023454676053123572
1.327000000000000846,-0.023219209833680046
1.328000000000000957,-0.022985213268572745
1.329000000000001069,-0.022752680510590546
1.330000000000000959,-0.022521605720085693
1.331000000000000849,-0.022291983065077368
1.332000000000000961,-0.022063806721369407
1.333000000000001073,-0.021837070872663993
1.334000000000000963,-0.021611769710674016
1.335000000000000853,-0.021387897435225095
1.336000000000000965,-0.021165448254376037
1.337000000000001076,-0.020944416384517085
1.338000000000000966,-0.020724796050478646
1.339000000000000856,-0.020506581485641041
1.340000000000000968,-0.020289766932028896
1.341000000000001080,-0.020074346640421199
1.342000000000000970,-0.019860314870451024
1.343000000000000860,-0.019647665890703311
1.344000000000000972,-0.019436393978814970
1.345000000000001084,-0.019226493421579113
1.346000000000000973,-0.019017958515028566
1.347000000000000863,-0.018810783564542542
1.348000000000000975,-0.018604962884933580
1.349000000000001087,-0.018400490800547460
1.350000000000000977,-0.018197361645348714
1.351000000000000867,-0.017995569763017298
1.352000000000000979,-0.017795109507029949
1.353000000000001091,-0.017595975240757823
1.354000000000000981,-0.017398161337551381
1.355000000000000870,-0.017201662180818943
1.356000000000000982,-0.017006472164122190
1.357000000000001094,-0.016812585691256720
1.358000000000000984,-0.016619997176330430
1.359000000000000874,-0.016428701043850392
1.360000000000000986,-0.016238691728802514
1.361000000000001098,-0.016049963676732091
1.362000000000000988,-0.015862511343816173
1.363000000000000878,-0.015676329196947846
1.364000000000000989,-0.015491411713814268
1.365000000000001101,-0.015307753382962050
1.366000000000000991,-0.015125348703879660
1.367000000000000881,-0.014944192187068805
1.368000000000000993,-0.014764278354116455
1.369000000000001105,-0.014585601737764747
1.370000000000000995,-0.014408156881981059
1.371000000000000885,-0.014231938342028539
1.372000000000000997,-0.014056940684534383
1.373000000000001108,-0.013883158487558524
1.374000000000000998,-0.013710586340645262
1.375000000000000888,-0.013539218844915222
1.376000000000001000,-0.013369050613102887
1.377000000000001112,-0.013200076269636801
1.378000000000001002,-0.013032290450692669
1.379000000000000892,-0.012865687804257685
1.380000000000001004,-0.012700262990189521
1.381000000000001116,-0.012536010680279297
1.382000000000001005,-0.012372925558302170
1.383000000000000895,-0.012211002320080416
1.384000000000001007,-0.012050235673539127
1.385000000000001119,-0.011890620338760321
1.386000000000001009,-0.011732151048037437
1.387000000000000899,-0.011574822545924564
1.388000000000001011,-0.011418629589304563
1.389000000000001123,-0.011263566947416533
1.390000000000001013,-0.011109629401928283
1.391000000000000902,-0.010956811746971553
1.392000000000001014,-0.010805108789201155
1.393000000000001126,-0.010654515347835859
1.394000000000001016,-0.010505026254711045
1.395000000000000906,-0.010356636354320891
1.396000000000001018,-0.010209340503862702
1.397000000000001130,-0.010063133573287104
1.398000000000001020,-0.009918010445339845
1.399000000000000909,-0.009773966015600186
1.400000000000001021,-0.009630995192526696
1.401000000000001133,-0.009489092897500972
1.402000000000001023,-0.009348254064861953
1.403000000000000913,-0.009208473641949417
1.404000000000001025,-0.009069746589141576
1.405000000000001137,-0.008932067879894442
1.406000000000001027,-0.008795432500774266
1.407000000000000917,-0.008659835451504351
1.408000000000001029,-0.008525271744984218
1.409000000000001140,-0.008391736407341987
1.410000000000001030,-0.008259224477954828
1.411000000000000920,-0.008127731009489641
1.412000000000001032,-0.007997251067931137
1.413000000000001144,-0.007867779732617758
1.414000000000001034,-0.007739312096269696
1.415000000000000924,-0.007611843265016927
1.416000000000001036,-0.007485368358434242
1.417000000000001148,-0.007359882509567548
1.418000000000001037,-0.007235380864959440
1.419000000000000927,-0.007111858584677766
1.420000000000001039,-0.006989310842341924
1.421000000000001151,-0.006867732825152954
1.422000000000001041,-0.006747119733912138
1.423000000000000931,-0.006627466783047329
1.424000000000001043,-0.006508769200638182
1.425000000000001155,-0.006391022228439002
1.426000000000001044,-0.006274221121898396
1.427000000000000934,-0.006158361150186870
1.428000000000001046,-0.006043437596209968
1.429000000000001158,-0.005929445756631467
1.430000000000001048,-0.005816380941896926
1.431000000000000938,-0.005704238476247414
1.432000000000001050,-0.005593013697741353
1.433000000000001162,-0.005482701958269620
1.434000000000001052,-0.005373298623571965
1.435000000000000941,-0.005264799073259085
1.436000000000001053,-0.005157198700821989
1.437000000000001165,-0.005050492913645489
1.438000000000001055,-0.004944677133035019
1.439000000000000945,-0.004839746794215818
1.440000000000001057,-0.004735697346356529
1.441000000000001169,-0.004632524252571874
1.442000000000001059,-0.004530222989945311
1.443000000000000949,-0.004428789049537962
1.444000000000001060,-0.004328217936393193
1.445000000000001172,-0.004228505169551424
1.446000000000001062,-0.004129646282064754
1.447000000000000952,-0.004031636820994023
1.448000000000001064,-0.003934472347429301
1.449000000000001176,-0.003838148436495000
1.450000000000001066,-0.003742660677349493
1.451000000000000956,-0.003648004673201810
1.452000000000001068,-0.003554176041315528
1.453000000000001180,-0.003461170413011280
1.454000000000001069,-0.003368983433675601
1.455000000000000959,-0.003277610762764582
1.456000000000001071,-0.003187048073805020
1.457000000000001183,-0.003097291054406749
1.458000000000001073,-0.003008335406259158
1.459000000000000963,-0.002920176845130526
1.460000000000001075,-0.002832811100880531
1.461000000000001187,-0.002746233917451277
1.462000000000001076,-0.002660441052881989
1.463000000000000966,-0.002575428279293561
1.464000000000001078,-0.002491191382898350
1.465000000000001190,-0.002407726164005217
1.466000000000001080,-0.002325028437001666
1.467000000000000970,-0.002243094030371228
1.468000000000001082,-0.002161918786681926
1.469000000000001194,-0.002081498562584538
1.470000000000001084,-0.002001829228813444
1.471000000000000973,-0.001922906670179303
1.472000000000001085,-0.001844726785572318
1.473000000000001197,-0.001767285487952821
1.474000000000001087,-0.001690578704348207
1.475000000000000977,-0.001614602375846186
1.476000000000001089,-0.001539352457597213
1.477000000000001201,-0.001464824918801183
1.478000000000001091,-0.001391015742702056
1.479000000000000981,-0.001317920926588745
1.480000000000001092,-0.001245536481775568
1.481000000000001204,-0.001173858433609486
1.482000000000001094,-0.001102882821450645
1.483000000000000984,-0.001032605698672919
1.484000000000001096,-0.000963023132652509
1.485000000000001208,-0.000894131204751151
1.486000000000001098,-0.000825926010323421
1.487000000000000988,-0.000758403658693581
1.488000000000001100,-0.000691560273148558
1.489000000000001211,-0.000625391990932903
1.490000000000001101,-0.000559894963233355
1.491000000000000991,-0.000495065355165568
1.492000000000001103,-0.000430899345772698
1.493000000000001215,-0.000367393128002125
1.494000000000001105,-0.000304542908698986
1.495000000000000995,-0.000242344908593757
1.496000000000001107,-0.000180795362289233
1.497000000000001219,-0.000119890518245689
1.498000000000001108,-0.000059626638771243
1.499000000000000998,0.000000000000000000
