# Gypsum-011_CS-13835336-AC
# h[nm],U(h)[kJ/mol]
0.149999999999999994,118.678621048920078351
0.150999999999999995,116.869112532420970751
0.151999999999999996,115.120093987423913973
0.152999999999999997,113.396922057092155001
0.153999999999999998,111.686529141788057018
0.154999999999999999,109.987342219383819497
0.156000000000000000,108.302913045660218927
0.157000000000000001,106.638148096853456082
0.158000000000000002,104.997294996386472121
0.159000000000000002,103.383063979787692688
0.160000000000000003,101.796439815032584875
0.161000000000000004,100.236876401954901894
0.162000000000000005,98.702669190153216050
0.163000000000000006,97.191375872636058375
0.164000000000000007,95.700209341907068961
0.165000000000000008,94.226363684686674560
0.166000000000000009,92.767258246737213767
0.167000000000000010,91.320699911776642921
0.168000000000000010,89.884972369436169970
0.169000000000000011,88.458865333952275023
0.170000000000000012,87.041657940730942755
0.171000000000000013,85.633070002785572683
0.172000000000000014,84.233193241664110928
0.173000000000000015,82.842412559630247415
0.174000000000000016,81.461325248913666996
0.175000000000000017,80.090663962345729487
0.176000000000000018,78.731227424099216705
0.177000000000000018,77.383821299573980923
0.178000000000000019,76.049210385519529609
0.179000000000000020,74.728082313171540818
0.180000000000000021,73.421022250229810879
0.181000000000000022,72.128497605623806521
0.182000000000000023,70.850851445375568005
0.183000000000000024,69.588303180671829296
0.184000000000000025,68.340955055807143026
0.185000000000000026,67.108803013507085211
0.186000000000000026,65.891750622494981826
0.187000000000000027,64.689624895874075605
0.188000000000000028,63.502192992153638329
0.189000000000000029,62.329178960629334938
0.190000000000000030,61.170279859778041498
0.191000000000000031,60.025180734613591937
0.192000000000000032,58.893568082154686749
0.193000000000000033,57.775141560694656562
0.194000000000000034,56.669623807286356509
0.195000000000000034,55.576768318670033864
0.196000000000000035,54.496365424461352234
0.197000000000000036,53.428246438986761291
0.198000000000000037,52.372286121231752531
0.199000000000000038,51.328403602668274175
0.200000000000000039,50.296561962014607161
0.201000000000000040,49.276766635998150434
0.202000000000000041,48.269062857593873161
0.203000000000000042,47.273532309529841200
0.204000000000000042,46.290289172466899004
0.205000000000000043,45.319475735390952309
0.206000000000000044,44.361257721459821823
0.207000000000000045,43.415819466718225783
0.208000000000000046,42.483359072480347152
0.209000000000000047,41.564083635384704962
0.210000000000000048,40.658204642634935055
0.211000000000000049,39.765933604121379119
0.212000000000000050,38.887477978245968302
0.213000000000000050,38.023037434541606672
0.214000000000000051,37.172800483704769192
0.215000000000000052,36.336941494515009765
0.216000000000000053,35.515618107313777330
0.217000000000000054,34.708969045239072670
0.218000000000000055,33.917112317215362793
0.219000000000000056,33.140143800712451139
0.220000000000000057,32.378136187426505899
0.221000000000000058,31.631138271214403801
0.222000000000000058,30.899174554723618513
0.223000000000000059,30.182245149110407567
0.224000000000000060,29.480325939925400291
0.225000000000000061,28.793368991573835558
0.226000000000000062,28.121303162633957129
0.227000000000000063,27.464034904656834613
0.228000000000000064,26.821449217792814324
0.229000000000000065,26.193410737620808959
0.230000000000000066,25.579764928832190662
0.231000000000000066,24.980339362879199427
0.232000000000000067,24.394945058289501105
0.233000000000000068,23.823377864025424344
0.234000000000000069,23.265419867991010250
0.235000000000000070,22.720840814527594631
0.236000000000000071,22.189399516462181339
0.237000000000000072,21.670845248957547824
0.238000000000000073,21.164919114041413906
0.239000000000000073,20.671355366249912322
0.240000000000000074,20.189882691293050243
0.241000000000000075,19.720225431034247521
0.242000000000000076,19.262104749361885325
0.243000000000000077,18.815239734717607689
0.244000000000000078,18.379348436131952127
0.245000000000000079,17.954148830602772335
0.246000000000000080,17.539359720538776344
0.247000000000000081,17.134701560779980412
0.248000000000000081,16.739897215405491693
0.249000000000000082,16.354672645149037180
0.250000000000000111,15.978757526769607367
0.251000000000000112,15.611885806174257141
0.252000000000000113,15.253796187466473810
0.253000000000000114,14.904232560404674146
0.254000000000000115,14.562944369003380629
0.255000000000000115,14.229686924203468479
0.256000000000000116,13.904221663680123910
0.257000000000000117,13.586316361954615672
0.258000000000000118,13.275745294033365340
0.259000000000000119,12.972289355818821477
0.260000000000000120,12.675736144526883464
0.261000000000000121,12.385880002308928383
0.262000000000000122,12.102522026215980944
0.263000000000000123,11.825470047563213072
0.264000000000000123,11.554538583656235318
0.265000000000000124,11.289548764731458519
0.266000000000000125,11.030328238842228572
0.267000000000000126,10.776711057294086515
0.268000000000000127,10.528537543097559848
0.269000000000000128,10.285654144768674456
0.270000000000000129,10.047913277666015830
0.271000000000000130,9.815173154911223108
0.272000000000000131,9.587297609798589804
0.273000000000000131,9.364155911459492998
0.274000000000000132,9.145622575410239818
0.275000000000000133,8.931577170477979166
0.276000000000000134,8.721904123469675696
0.277000000000000135,8.516492522824202993
0.278000000000000136,8.315235922367284260
0.279000000000000137,8.118032146174622099
0.280000000000000138,7.924783095439633662
0.281000000000000139,7.735394558138915855
0.282000000000000139,7.549776022191570846
0.283000000000000140,7.367840492717022016
0.284000000000000141,7.189504313910900279
0.285000000000000142,7.014686995978843598
0.286000000000000143,6.843311047494447408
0.287000000000000144,6.675301813479611823
0.288000000000000145,6.510587319442509902
0.289000000000000146,6.349098121551466356
0.290000000000000147,6.190767163070235668
0.291000000000000147,6.035529637132992953
0.292000000000000148,5.883322855894059344
0.293000000000000149,5.734086126049229293
0.294000000000000150,5.587760630690781660
0.295000000000000151,5.444289317427893238
0.296000000000000152,5.303616792677217084
0.297000000000000153,5.165689222004895775
0.298000000000000154,5.030454236380978550
0.299000000000000155,4.897860844189821705
0.300000000000000155,4.767859348825394861
0.301000000000000156,4.640401271688451956
0.302000000000000157,4.515439280392432586
0.303000000000000158,4.392927121977598048
0.304000000000000159,4.272819560926852667
0.305000000000000160,4.155072321772946609
0.306000000000000161,4.039642036084126531
0.307000000000000162,3.926486193614385112
0.308000000000000163,3.815563097404766957
0.309000000000000163,3.706831822623489980
0.310000000000000164,3.600252178935131830
0.311000000000000165,3.495784676192350560
0.312000000000000166,3.393390493247660622
0.313000000000000167,3.293031449687515710
0.314000000000000168,3.194669980296190204
0.315000000000000169,3.098269112062692621
0.316000000000000170,3.003792443549988089
0.317000000000000171,2.911204126452391794
0.318000000000000171,2.820468849173566550
0.319000000000000172,2.731551822264369989
0.320000000000000173,2.644418765566901808
0.321000000000000174,2.559035896918122166
0.322000000000000175,2.475369922273399581
0.323000000000000176,2.393388027117576033
0.324000000000000177,2.313057869038004366
0.325000000000000178,2.234347571341160243
0.326000000000000179,2.157225717600979920
0.327000000000000179,2.081661347034088116
0.328000000000000180,2.007623950603452556
0.329000000000000181,1.935083467758362374
0.330000000000000182,1.864010283725007655
0.331000000000000183,1.794375227267683170
0.332000000000000184,1.726149568846657045
0.333000000000000185,1.659305019104213130
0.334000000000000186,1.593813727615717157
0.335000000000000187,1.529648281847777236
0.336000000000000187,1.466781706270319230
0.337000000000000188,1.405187461574338936
0.338000000000000189,1.344839443951221236
0.339000000000000190,1.285711984393947516
0.340000000000000191,1.227779847984552974
0.341000000000000192,1.171018233135757480
0.342000000000000193,1.115402770758499695
0.343000000000000194,1.060909523330214599
0.344000000000000195,1.007514983842203060
0.345000000000000195,0.955196074606880385
0.346000000000000196,0.903930145908965366
0.347000000000000197,0.853694974486863933
0.348000000000000198,0.804468761833061707
0.349000000000000199,0.756230132304533398
0.350000000000000200,0.708958131036151018
0.351000000000000201,0.662632221652015740
0.352000000000000202,0.617232283771401713
0.353000000000000203,0.572738610307467422
0.354000000000000203,0.529131904558423516
0.355000000000000204,0.486393277092202148
0.356000000000000205,0.444504242426739082
0.357000000000000206,0.403446715509059750
0.358000000000000207,0.363203007997527361
0.359000000000000208,0.323755824352164656
0.360000000000000209,0.285088257738861484
0.361000000000000210,0.247183785754044427
0.362000000000000210,0.210026265976701959
0.363000000000000211,0.173599931355414155
0.364000000000000212,0.137889385438234896
0.365000000000000213,0.102879597453786470
0.366000000000000214,0.068555897252087106
0.367000000000000215,0.034903970113955206
0.368000000000000216,0.001909851437827981
0.369000000000000217,-0.030440078686806649
0.370000000000000218,-0.062159101010375230
0.371000000000000218,-0.093260162749325318
0.372000000000000219,-0.123755883298345332
0.373000000000000220,-0.153658560019606094
0.374000000000000221,-0.182980174100042164
0.375000000000000222,-0.211732396467760153
0.376000000000000223,-0.239926593759025225
0.377000000000000224,-0.267573834327110738
0.378000000000000225,-0.294684894284762577
0.379000000000000226,-0.321270263572062731
0.380000000000000226,-0.347340152041886452
0.381000000000000227,-0.372904495555100413
0.382000000000000228,-0.397972962078235626
0.383000000000000229,-0.422554957776352047
0.384000000000000230,-0.446659633094192876
0.385000000000000231,-0.470295888819081243
0.386000000000000232,-0.493472382119065522
0.387000000000000233,-0.516197532550381144
0.388000000000000234,-0.538479528028285026
0.389000000000000234,-0.560326330755915869
0.390000000000000235,-0.581745683105806766
0.391000000000000236,-0.602745113449223768
0.392000000000000237,-0.623331941928594868
0.393000000000000238,-0.643513286168713061
0.394000000000000239,-0.663296066922541394
0.395000000000000240,-0.682687013647844898
0.396000000000000241,-0.701692670011056618
0.397000000000000242,-0.720319399315051068
0.398000000000000242,-0.738573389847837269
0.399000000000000243,-0.756460660149274822
0.400000000000000244,-0.773987064193331520
0.401000000000000245,-0.791158296483562173
0.402000000000000246,-0.807979897059613372
0.403000000000000247,-0.824457256413018036
0.404000000000000248,-0.840595620310511493
0.405000000000000249,-0.856400094523498412
0.406000000000000250,-0.871875649462334201
0.407000000000000250,-0.887027124714454218
0.408000000000000251,-0.901859233485387768
0.409000000000000252,-0.916376566942022519
0.410000000000000253,-0.930583598457554340
0.411000000000000254,-0.944484687757761066
0.412000000000000255,-0.958084084968368943
0.413000000000000256,-0.971385934563510522
0.414000000000000257,-0.984394279215208279
0.415000000000000258,-0.997113063544270206
0.416000000000000258,-1.009546137772736829
0.417000000000000259,-1.021697261278475377
0.418000000000000260,-1.033570106052377202
0.419000000000000261,-1.045168260058889853
0.420000000000000262,-1.056495230500566596
0.421000000000000263,-1.067554446987606820
0.422000000000000264,-1.078349264613152947
0.423000000000000265,-1.088882966935516228
0.424000000000000266,-1.099158768868363723
0.425000000000000266,-1.109179819479981566
0.426000000000000267,-1.118949204702919475
0.427000000000000268,-1.128469949955235752
0.428000000000000269,-1.137745022674703455
0.429000000000000270,-1.146777334767353995
0.430000000000000271,-1.155569744971775448
0.431000000000000272,-1.164125061140651729
0.432000000000000273,-1.172446042441000369
0.433000000000000274,-1.180535401474691382
0.434000000000000274,-1.188395806320762693
0.435000000000000275,-1.196029882501118413
0.436000000000000276,-1.203440214871234648
0.437000000000000277,-1.210629349437446489
0.438000000000000278,-1.217599795102475957
0.439000000000000279,-1.224354025340828711
0.440000000000000280,-1.230894479805702657
0.441000000000000281,-1.237223565869032926
0.442000000000000282,-1.243343660096400516
0.443000000000000282,-1.249257109658330922
0.444000000000000283,-1.254966233679756682
0.445000000000000284,-1.260473324529193251
0.446000000000000285,-1.265780649049273787
0.447000000000000286,-1.270890449730348148
0.448000000000000287,-1.275804945828614700
0.449000000000000288,-1.280526334430530433
0.450000000000000289,-1.285056791464973980
0.451000000000000290,-1.289398472664784245
0.452000000000000290,-1.293553514479242050
0.453000000000000291,-1.297524034938955406
0.454000000000000292,-1.301312134474752469
0.455000000000000293,-1.304919896692005699
0.456000000000000294,-1.308349389101890470
0.457000000000000295,-1.311602663811039182
0.458000000000000296,-1.314681758170967552
0.459000000000000297,-1.317588695388741238
0.460000000000000298,-1.320325485100204199
0.461000000000000298,-1.322894123907155439
0.462000000000000299,-1.325296595879798867
0.463000000000000300,-1.327534873025735251
0.464000000000000301,-1.329610915726818998
0.465000000000000302,-1.331526673145100537
0.466000000000000303,-1.333284083599072911
0.467000000000000304,-1.334885074911440483
0.468000000000000305,-1.336331564729546617
0.469000000000000306,-1.337625460819617418
0.470000000000000306,-1.338768661335974608
0.471000000000000307,-1.339763055066193642
0.472000000000000308,-1.340610521653401888
0.473000000000000309,-1.341312931796652119
0.474000000000000310,-1.341872147430408058
0.475000000000000311,-1.342290021884129603
0.476000000000000312,-1.342568400022897679
0.477000000000000313,-1.342709118370008614
0.478000000000000314,-1.342714005212414019
0.479000000000000314,-1.342584880689937421
0.480000000000000315,-1.342323556869032153
0.481000000000000316,-1.341931837801991545
0.482000000000000317,-1.341411519572322630
0.483000000000000318,-1.340764390327126243
0.484000000000000319,-1.339992230297180953
0.485000000000000320,-1.339096811805483345
0.486000000000000321,-1.338079899264938755
0.487000000000000322,-1.336943249165875702
0.488000000000000322,-1.335688610054009073
0.489000000000000323,-1.334317722499554604
0.490000000000000324,-1.332832319058035342
0.491000000000000325,-1.331234124223399373
0.492000000000000326,-1.329524854373992593
0.493000000000000327,-1.327706217711976500
0.494000000000000328,-1.325779914196654419
0.495000000000000329,-1.323747635472275475
0.496000000000000330,-1.321611064790725765
0.497000000000000330,-1.319371876929684051
0.498000000000000331,-1.317031738106532623
0.499000000000000332,-1.314592305888622414
0.500000000000000333,-1.312055229100192566
0.501000000000000334,-1.309422147726352126
0.502000000000000335,-1.306694692814550640
0.503000000000000336,-1.303874486373847841
0.504000000000000337,-1.300963141272361900
0.505000000000000338,-1.297962261133194461
0.506000000000000338,-1.294873440229175499
0.507000000000000339,-1.291698263376716449
0.508000000000000340,-1.288438305829030517
0.509000000000000341,-1.285095133169066983
0.510000000000000342,-1.281670301202307849
0.511000000000000343,-1.278165355849781637
0.512000000000000344,-1.274581833041436685
0.513000000000000345,-1.270921258610138826
0.514000000000000346,-1.267185148186529275
0.515000000000000346,-1.263375007094853508
0.516000000000000347,-1.259492330250009395
0.517000000000000348,-1.255538602056011754
0.518000000000000349,-1.251515296305937719
0.519000000000000350,-1.247423876083624261
0.520000000000000351,-1.243265793667157393
0.521000000000000352,-1.239042490434386190
0.522000000000000353,-1.234755396770481406
0.523000000000000353,-1.230405931977739176
0.524000000000000354,-1.225995504187714857
0.525000000000000355,-1.221525510275750070
0.526000000000000356,-1.216997335778024381
0.527000000000000357,-1.212412354811219339
0.528000000000000358,-1.207771929994826632
0.529000000000000359,-1.203077412376230892
0.530000000000000360,-1.198330141358564749
0.531000000000000361,-1.193531444631457772
0.532000000000000361,-1.188682638104675560
0.533000000000000362,-1.183785025844731553
0.534000000000000363,-1.178839900014475583
0.535000000000000364,-1.173848540815739305
0.536000000000000365,-1.168812216435004325
0.537000000000000366,-1.163732182992185615
0.538000000000000367,-1.158609684492468261
0.539000000000000368,-1.153445952781313455
0.540000000000000369,-1.148242207502522039
0.541000000000000369,-1.142999656059487057
0.542000000000000370,-1.137719493579517849
0.543000000000000371,-1.132402902881319617
0.544000000000000372,-1.127051054445588507
0.545000000000000373,-1.121665106388712863
0.546000000000000374,-1.116246204439568235
0.547000000000000375,-1.110795481919385264
0.548000000000000376,-1.105314059724709308
0.549000000000000377,-1.099803046313361454
0.550000000000000377,-1.094263537693456856
0.551000000000000378,-1.088696617415370937
0.552000000000000379,-1.083103356566711195
0.553000000000000380,-1.077484813770192895
0.554000000000000381,-1.071842035184404907
0.555000000000000382,-1.066176054507492088
0.556000000000000383,-1.060487892983589031
0.557000000000000384,-1.054778559412124173
0.558000000000000385,-1.049049050159807317
0.559000000000000385,-1.043300349175368735
0.560000000000000386,-1.037533428006959468
0.561000000000000387,-1.031749245822165539
0.562000000000000388,-1.025948749430604323
0.563000000000000389,-1.020132873309079091
0.564000000000000390,-1.014302539629186040
0.565000000000000391,-1.008458658287400445
0.566000000000000392,-1.002602126937521820
0.567000000000000393,-0.996733831025505390
0.568000000000000393,-0.990854643826554082
0.569000000000000394,-0.984965426484474604
0.570000000000000395,-0.979067028053245858
0.571000000000000396,-0.973160285540693004
0.572000000000000397,-0.967246023954316470
0.573000000000000398,-0.961325056349113694
0.574000000000000399,-0.955398183877440355
0.575000000000000400,-0.949466195840782179
0.576000000000000401,-0.943529869743428784
0.577000000000000401,-0.937589971348023021
0.578000000000000402,-0.931647254732853036
0.579000000000000403,-0.925702462350904254
0.580000000000000404,-0.919756325090626548
0.581000000000000405,-0.913809562338294357
0.582000000000000406,-0.907862882042002495
0.583000000000000407,-0.901916980777157429
0.584000000000000408,-0.895972543813494782
0.585000000000000409,-0.890030245183512703
0.586000000000000409,-0.884090747752298234
0.587000000000000410,-0.878154703288716143
0.588000000000000411,-0.872222752537848978
0.589000000000000412,-0.866295525294736635
0.590000000000000413,-0.860373640479263679
0.591000000000000414,-0.854457706212218504
0.592000000000000415,-0.848548319892475478
0.593000000000000416,-0.842646068275196058
0.594000000000000417,-0.836751527551058416
0.595000000000000417,-0.830865263426491807
0.596000000000000418,-0.824987831204755606
0.597000000000000419,-0.819119775867986677
0.598000000000000420,-0.813261632160005687
0.599000000000000421,-0.807413924669980076
0.600000000000000422,-0.801577167916797229
0.601000000000000423,-0.795751866434162514
0.602000000000000424,-0.789938514856373342
0.603000000000000425,-0.784137598004727487
0.604000000000000425,-0.778349590974497185
0.605000000000000426,-0.772574959222477764
0.606000000000000427,-0.766814158655075184
0.607000000000000428,-0.761067635716783375
0.608000000000000429,-0.755335827479234001
0.609000000000000430,-0.749619161730513683
0.610000000000000431,-0.743918057064965277
0.611000000000000432,-0.738232922973253269
0.612000000000000433,-0.732564159932751036
0.613000000000000433,-0.726912159498212862
0.614000000000000434,-0.721277304392669683
0.615000000000000435,-0.715659968598514995
0.616000000000000436,-0.710060517448774520
0.617000000000000437,-0.704479307718545500
0.618000000000000438,-0.698916687716511831
0.619000000000000439,-0.693372997376544342
0.620000000000000440,-0.687848568349388900
0.621000000000000441,-0.682343724094352844
0.622000000000000441,-0.676858779971014735
0.623000000000000442,-0.671394043330878487
0.624000000000000443,-0.665949813609006180
0.625000000000000444,-0.660526382415571378
0.626000000000000445,-0.655124033627286440
0.627000000000000446,-0.649743043478740012
0.628000000000000447,-0.644383680653567548
0.629000000000000448,-0.639046206375454395
0.630000000000000449,-0.633730874498946828
0.631000000000000449,-0.628437931600053901
0.632000000000000450,-0.623167617066614943
0.633000000000000451,-0.617920163188419247
0.634000000000000452,-0.612695795247031327
0.635000000000000453,-0.607494731605357385
0.636000000000000454,-0.602317183796865052
0.637000000000000455,-0.597163356614514251
0.638000000000000456,-0.592033448199304035
0.639000000000000457,-0.586927650128483025
0.640000000000000457,-0.581846147503386923
0.641000000000000458,-0.576789119036844933
0.642000000000000459,-0.571756737140236893
0.643000000000000460,-0.566749168010067250
0.644000000000000461,-0.561766571714145568
0.645000000000000462,-0.556809102277303625
0.646000000000000463,-0.551876907766634117
0.647000000000000464,-0.546970130376275621
0.648000000000000465,-0.542088906511705160
0.649000000000000465,-0.537233366873517748
0.650000000000000466,-0.532403636540722980
0.651000000000000467,-0.527599835053483179
0.652000000000000468,-0.522822076495363830
0.653000000000000469,-0.518070469574997916
0.654000000000000470,-0.513345117707244336
0.655000000000000471,-0.508646119093760118
0.656000000000000472,-0.503973566803012529
0.657000000000000473,-0.499327548849708980
0.658000000000000473,-0.494708148273664050
0.659000000000000474,-0.490115443218056168
0.660000000000000475,-0.485549507007101311
0.661000000000000476,-0.481010408223103592
0.662000000000000477,-0.476498210782925979
0.663000000000000478,-0.472012974013811815
0.664000000000000479,-0.467554752728628842
0.665000000000000480,-0.463123597300423295
0.666000000000000481,-0.458719553736425201
0.667000000000000481,-0.454342663751329479
0.668000000000000482,-0.449992964840026322
0.669000000000000483,-0.445670490349612536
0.670000000000000484,-0.441375269550806693
0.671000000000000485,-0.437107327708692428
0.672000000000000486,-0.432866686152804658
0.673000000000000487,-0.428653362346591904
0.674000000000000488,-0.424467369956175067
0.675000000000000488,-0.420308718918473545
0.676000000000000489,-0.416177415508688031
0.677000000000000490,-0.412073462407066604
0.678000000000000491,-0.407996858765060977
0.679000000000000492,-0.403947600270786189
0.680000000000000493,-0.399925679213817109
0.681000000000000494,-0.395931084549333123
0.682000000000000495,-0.391963801961570601
0.683000000000000496,-0.388023813926635097
0.684000000000000496,-0.384111099774626097
0.685000000000000497,-0.380225635751098523
0.686000000000000498,-0.376367395077866429
0.687000000000000499,-0.372536348013129293
0.688000000000000500,-0.368732461910930065
0.689000000000000501,-0.364955701279962130
0.690000000000000502,-0.361206027841708299
0.691000000000000503,-0.357483400587910338
0.692000000000000504,-0.353787775837372531
0.693000000000000504,-0.350119107292143961
0.694000000000000505,-0.346477346092975425
0.695000000000000506,-0.342862440874197649
0.696000000000000507,-0.339274337817890737
0.697000000000000508,-0.335712980707417674
0.698000000000000509,-0.332178310980327018
0.699000000000000510,-0.328670267780583170
0.700000000000000511,-0.325188788010167595
0.701000000000000512,-0.321733806380040788
0.702000000000000512,-0.318305255460454350
0.703000000000000513,-0.314903065730638310
0.704000000000000514,-0.311527165627856928
0.705000000000000515,-0.308177481595824754
0.706000000000000516,-0.304853938132508773
0.707000000000000517,-0.301556457837310110
0.708000000000000518,-0.298284961457594533
0.709000000000000519,-0.295039367934675334
0.710000000000000520,-0.291819594449102826
0.711000000000000520,-0.288625556465410937
0.712000000000000521,-0.285457167776227094
0.713000000000000522,-0.282314340545779197
0.714000000000000523,-0.279196985352836990
0.715000000000000524,-0.276105011233018005
0.716000000000000525,-0.273038325720543651
0.717000000000000526,-0.269996834889391857
0.718000000000000527,-0.266980443393861289
0.719000000000000528,-0.263989054508575405
0.720000000000000528,-0.261022570167928403
0.721000000000000529,-0.258080891004911384
0.722000000000000530,-0.255163916389442746
0.723000000000000531,-0.252271544466079634
0.724000000000000532,-0.249403672191220144
0.725000000000000533,-0.246560195369738638
0.726000000000000534,-0.243741008691061273
0.727000000000000535,-0.240946005764728965
0.728000000000000536,-0.238175079155402314
0.729000000000000536,-0.235428120417342512
0.730000000000000537,-0.232705020128378459
0.731000000000000538,-0.230005667923320445
0.732000000000000539,-0.227329952526891477
0.733000000000000540,-0.224677761786121172
0.734000000000000541,-0.222048982702248210
0.735000000000000542,-0.219443501462092488
0.736000000000000543,-0.216861203468974612
0.737000000000000544,-0.214301973373085819
0.738000000000000544,-0.211765695101425233
0.739000000000000545,-0.209252251887201174
0.740000000000000546,-0.206761526298790355
0.741000000000000547,-0.204293400268191372
0.742000000000000548,-0.201847755119062056
0.743000000000000549,-0.199424471594208785
0.744000000000000550,-0.197023429882688117
0.745000000000000551,-0.194644509646416469
0.746000000000000552,-0.192287590046344048
0.747000000000000552,-0.189952549768173384
0.748000000000000553,-0.187639267047636144
0.749000000000000554,-0.185347619695336197
0.750000000000000555,-0.183077485121168115
0.751000000000000556,-0.180828740358287610
0.752000000000000557,-0.178601262086696855
0.753000000000000558,-0.176394926656351508
0.754000000000000559,-0.174209610109925833
0.755000000000000560,-0.172045188205112221
0.756000000000000560,-0.169901536436558281
0.757000000000000561,-0.167778530057365427
0.758000000000000562,-0.165676044100218550
0.759000000000000563,-0.163593953398129571
0.760000000000000564,-0.161532132604780110
0.761000000000000565,-0.159490456214486293
0.762000000000000566,-0.157468798581795744
0.763000000000000567,-0.155467033940705490
0.764000000000000568,-0.153485036423507554
0.765000000000000568,-0.151522680079295868
0.766000000000000569,-0.149579838892078876
0.767000000000000570,-0.147656386798576900
0.768000000000000571,-0.145752197705626502
0.769000000000000572,-0.143867145507284938
0.770000000000000573,-0.142001104101560333
0.771000000000000574,-0.140153947406824603
0.772000000000000575,-0.138325549377885743
0.773000000000000576,-0.136515784021730119
0.774000000000000576,-0.134724525412945051
0.775000000000000577,-0.132951647708832110
0.776000000000000578,-0.131197025164177722
0.777000000000000579,-0.129460532145751345
0.778000000000000580,-0.127742043146455292
0.779000000000000581,-0.126041432799205322
0.780000000000000582,-0.124358575890489889
0.781000000000000583,-0.122693347373655115
0.782000000000000584,-0.121045622381878853
0.783000000000000584,-0.119415276240866702
0.784000000000000585,-0.117802184481276287
0.785000000000000586,-0.116206222850836371
0.786000000000000587,-0.114627267326220569
0.787000000000000588,-0.113065194124631493
0.788000000000000589,-0.111519879715112707
0.789000000000000590,-0.109991200829624769
0.790000000000000591,-0.108479034473828312
0.791000000000000592,-0.106983257937632081
0.792000000000000592,-0.105503748805483272
0.793000000000000593,-0.104040384966402596
0.794000000000000594,-0.102593044623786295
0.795000000000000595,-0.101161606304963736
0.796000000000000596,-0.099745948870498147
0.797000000000000597,-0.098345951523283348
0.798000000000000598,-0.096961493817391747
0.799000000000000599,-0.095592455666685922
0.800000000000000600,-0.094238717353239215
0.801000000000000600,-0.092900159535493881
0.802000000000000601,-0.091576663256230567
0.803000000000000602,-0.090268109950312148
0.804000000000000603,-0.088974381452225498
0.805000000000000604,-0.087695360003410938
0.806000000000000605,-0.086430928259368892
0.807000000000000606,-0.085180969296607692
0.808000000000000607,-0.083945366619350231
0.809000000000000608,-0.082724004166067899
0.810000000000000608,-0.081516766315835015
0.811000000000000609,-0.080323537894443381
0.812000000000000610,-0.079144204180409683
0.813000000000000611,-0.077978650910717359
0.814000000000000612,-0.076826764286437893
0.815000000000000613,-0.075688430978160290
0.816000000000000614,-0.074563538131225238
0.817000000000000615,-0.073451973370810608
0.818000000000000616,-0.072353624806848940
0.819000000000000616,-0.071268381038766940
0.820000000000000617,-0.070196131160061764
0.821000000000000618,-0.069136764762732478
0.822000000000000619,-0.068090171941547678
0.823000000000000620,-0.067056243298148799
0.824000000000000621,-0.066034869945002087
0.825000000000000622,-0.065025943509223014
0.826000000000000623,-0.064029356136230703
0.827000000000000624,-0.063045000493260936
0.828000000000000624,-0.062072769772752126
0.829000000000000625,-0.061112557695566859
0.830000000000000626,-0.060164258514104049
0.831000000000000627,-0.059227767015257893
0.832000000000000628,-0.058302978523254813
0.833000000000000629,-0.057389788902350206
0.834000000000000630,-0.056488094559405989
0.835000000000000631,-0.055597792446341644
0.836000000000000631,-0.054718780062460191
0.837000000000000632,-0.053850955456660632
0.838000000000000633,-0.052994217229513821
0.839000000000000634,-0.052148464535242842
0.840000000000000635,-0.051313597083584725
0.841000000000000636,-0.050489515141521356
0.842000000000000637,-0.049676119534933165
0.843000000000000638,-0.048873311650114201
0.844000000000000639,-0.048080993435199768
0.845000000000000639,-0.047299067401485297
0.846000000000000640,-0.046527436624633524
0.847000000000000641,-0.045766004745812772
0.848000000000000642,-0.045014675972692486
0.849000000000000643,-0.044273355080374305
0.850000000000000644,-0.043541947412235028
0.851000000000000645,-0.042820358880640084
0.852000000000000646,-0.042108495967604492
0.853000000000000647,-0.041406265725352484
0.854000000000000647,-0.040713575776774612
0.855000000000000648,-0.040030334315826054
0.856000000000000649,-0.039356450107825444
0.857000000000000650,-0.038691832489679528
0.858000000000000651,-0.038036391370014411
0.859000000000000652,-0.037390037229245734
0.860000000000000653,-0.036752681119570467
0.861000000000000654,-0.036124234664860977
0.862000000000000655,-0.035504610060523981
0.863000000000000655,-0.034893720073247134
0.864000000000000656,-0.034291478040711344
0.865000000000000657,-0.033697797871201418
0.866000000000000658,-0.033112594043177491
0.867000000000000659,-0.032535781604772558
0.868000000000000660,-0.031967276173205730
0.869000000000000661,-0.031406993934159314
0.870000000000000662,-0.030854851641080948
0.871000000000000663,-0.030310766614440980
0.872000000000000663,-0.029774656740893184
0.873000000000000664,-0.029246440472428376
0.874000000000000665,-0.028726036825431390
0.875000000000000666,-0.028213365379708588
0.876000000000000667,-0.027708346277446866
0.877000000000000668,-0.027210900222125710
0.878000000000000669,-0.026720948477388345
0.879000000000000670,-0.026238412865836364
0.880000000000000671,-0.025763215767812570
0.881000000000000671,-0.025295280120096249
0.882000000000000672,-0.024834529414593617
0.883000000000000673,-0.024380887696946633
0.884000000000000674,-0.023934279565126407
0.885000000000000675,-0.023494630167960100
0.886000000000000676,-0.023061865203637351
0.887000000000000677,-0.022635910918162739
0.888000000000000678,-0.022216694103767476
0.889000000000000679,-0.021804142097297054
0.890000000000000679,-0.021398182778546649
0.891000000000000680,-0.020998744568567422
0.892000000000000681,-0.020605756427937577
0.893000000000000682,-0.020219147854993520
0.894000000000000683,-0.019838848884030487
0.895000000000000684,-0.019464790083477769
0.896000000000000685,-0.019096902554033245
0.897000000000000686,-0.018735117926766569
0.898000000000000687,-0.018379368361203872
0.899000000000000687,-0.018029586543369797
0.900000000000000688,-0.017685705683810456
0.901000000000000689,-0.017347659515585860
0.902000000000000690,-0.017015382292241088
0.903000000000000691,-0.016688808785742668
0.904000000000000692,-0.016367874284399547
0.905000000000000693,-0.016052514590753221
0.906000000000000694,-0.015742666019454725
0.907000000000000695,-0.015438265395101985
0.908000000000000695,-0.015139250050080155
0.909000000000000696,-0.014845557822351984
0.910000000000000697,-0.014557127053260821
0.911000000000000698,-0.014273896585283385
0.912000000000000699,-0.013995805759782678
0.913000000000000700,-0.013722794414748857
0.914000000000000701,-0.013454802882489353
0.915000000000000702,-0.013191771987348656
0.916000000000000703,-0.012933643043376117
0.917000000000000703,-0.012680357851995862
0.918000000000000704,-0.012431858699658755
0.919000000000000705,-0.012188088355473869
0.920000000000000706,-0.011948990068841758
0.921000000000000707,-0.011714507567057346
0.922000000000000708,-0.011484585052908568
0.923000000000000709,-0.011259167202276597
0.924000000000000710,-0.011038199161693619
0.925000000000000711,-0.010821626545922721
0.926000000000000711,-0.010609395435507925
0.927000000000000712,-0.010401452374322068
0.928000000000000713,-0.010197744367102008
0.929000000000000714,-0.009998218876990251
0.930000000000000715,-0.009802823823039470
0.931000000000000716,-0.009611507577734043
0.932000000000000717,-0.009424218964505491
0.933000000000000718,-0.009240907255220459
0.934000000000000719,-0.009061522167685786
0.935000000000000719,-0.008886013863136821
0.936000000000000720,-0.008714332943717502
0.937000000000000721,-0.008546430449963605
0.938000000000000722,-0.008382257858284984
0.939000000000000723,-0.008221767078427339
0.940000000000000724,-0.008064910450948643
0.941000000000000725,-0.007911640744682754
0.942000000000000726,-0.007761911154209470
0.943000000000000727,-0.007615675297303776
0.944000000000000727,-0.007472887212409638
0.945000000000000728,-0.007333501356094116
0.946000000000000729,-0.007197472600496614
0.947000000000000730,-0.007064756230803240
0.948000000000000731,-0.006935307942685012
0.949000000000000732,-0.006809083839771138
0.950000000000000733,-0.006686040431090277
0.951000000000000734,-0.006566134628550357
0.952000000000000735,-0.006449323744378288
0.953000000000000735,-0.006335565488584632
0.954000000000000736,-0.006224817966434312
0.955000000000000737,-0.006117039675900394
0.956000000000000738,-0.006012189505138512
0.957000000000000739,-0.005910226729951893
0.958000000000000740,-0.005811111011264746
0.959000000000000741,-0.005714802392591836
0.960000000000000742,-0.005621261297528512
0.961000000000000743,-0.005530448527221130
0.962000000000000743,-0.005442325257856215
0.963000000000000744,-0.005356853038150476
0.964000000000000745,-0.005273993786850612
0.965000000000000746,-0.005193709790221957
0.966000000000000747,-0.005115963699560510
0.967000000000000748,-0.005040718528693389
0.968000000000000749,-0.004967937651504229
0.969000000000000750,-0.004897584799439895
0.970000000000000751,-0.004829624059048941
0.971000000000000751,-0.004764019869499455
0.972000000000000752,-0.004700737020118669
0.973000000000000753,-0.004639740647949823
0.974000000000000754,-0.004580996235284147
0.975000000000000755,-0.004524469607227094
0.976000000000000756,-0.004470126929260678
0.977000000000000757,-0.004417934704809871
0.978000000000000758,-0.004367859772820153
0.979000000000000759,-0.004319869305353835
0.980000000000000759,-0.004273930805162447
0.981000000000000760,-0.004230012103301348
0.982000000000000761,-0.004188081356737454
0.983000000000000762,-0.004148107045955802
0.984000000000000763,-0.004110057972585392
0.985000000000000764,-0.004073903257040943
0.986000000000000765,-0.004039612336151189
0.987000000000000766,-0.004007154960812001
0.988000000000000766,-0.003976501193642507
0.989000000000000767,-0.003947621406655165
0.990000000000000768,-0.003920486278929924
0.991000000000000769,-0.003895066794290743
0.992000000000000770,-0.003871334239002194
0.993000000000000771,-0.003849260199481241
0.994000000000000772,-0.003828816559989853
0.995000000000000773,-0.003809975500374524
0.996000000000000774,-0.003792709493782080
0.997000000000000774,-0.003776991304407282
0.998000000000000775,-0.003762793985239410
0.999000000000000776,-0.003750090875821946
1.000000000000000666,-0.003738855600018640
1.001000000000000778,-0.003729062063799356
1.002000000000000668,-0.003720684453021306
1.003000000000000780,-0.003713697231230777
1.004000000000000670,-0.003708075137470806
1.005000000000000782,-0.003703793184104265
1.006000000000000671,-0.003700826654640203
1.007000000000000783,-0.003699151101571337
1.008000000000000673,-0.003698742344227844
1.009000000000000785,-0.003699576466636446
1.010000000000000675,-0.003701629815390401
1.011000000000000787,-0.003704878997530695
1.012000000000000677,-0.003709300878441250
1.013000000000000789,-0.003714872579750938
1.014000000000000679,-0.003721571477237943
1.015000000000000790,-0.003729375198768231
1.016000000000000680,-0.003738261622222802
1.017000000000000792,-0.003748208873442155
1.018000000000000682,-0.003759195324182904
1.019000000000000794,-0.003771199590088296
1.020000000000000684,-0.003784200528665867
1.021000000000000796,-0.003798177237274495
1.022000000000000686,-0.003813109051123491
1.023000000000000798,-0.003828975541289048
1.024000000000000687,-0.003845756512727901
1.025000000000000799,-0.003863432002317240
1.026000000000000689,-0.003881982276898547
1.027000000000000801,-0.003901387831328081
1.028000000000000691,-0.003921629386546452
1.029000000000000803,-0.003942687887656135
1.030000000000000693,-0.003964544502004145
1.031000000000000805,-0.003987180617294041
1.032000000000000695,-0.004010577839680373
1.033000000000000806,-0.004034717991902755
1.034000000000000696,-0.004059583111415620
1.035000000000000808,-0.004085155448526726
1.036000000000000698,-0.004111417464554528
1.037000000000000810,-0.004138351830005781
1.038000000000000700,-0.004165941422734186
1.039000000000000812,-0.004194169326136686
1.040000000000000702,-0.004223018827360585
1.041000000000000814,-0.004252473415505163
1.042000000000000703,-0.004282516779840382
1.043000000000000815,-0.004313132808049123
1.044000000000000705,-0.004344305584470260
1.045000000000000817,-0.004376019388340221
1.046000000000000707,-0.004408258692077284
1.047000000000000819,-0.004441008159548497
1.048000000000000709,-0.004474252644357538
1.049000000000000821,-0.004507977188147850
1.050000000000000711,-0.004542167018907540
1.051000000000000822,-0.004576807549297607
1.052000000000000712,-0.004611884374977270
1.053000000000000824,-0.004647383272949932
1.054000000000000714,-0.004683290199917318
1.055000000000000826,-0.004719591290644127
1.056000000000000716,-0.004756272856333267
1.057000000000000828,-0.004793321383013796
1.058000000000000718,-0.004830723529934512
1.059000000000000830,-0.004868466127976214
1.060000000000000719,-0.004906536178069973
1.061000000000000831,-0.004944920849626035
1.062000000000000721,-0.004983607478971129
1.063000000000000833,-0.005022583567810318
1.064000000000000723,-0.005061836781674890
1.065000000000000835,-0.005101354948403153
1.066000000000000725,-0.005141126056627039
1.067000000000000837,-0.005181138254249840
1.068000000000000727,-0.005221379846973356
1.069000000000000838,-0.005261839296791714
1.070000000000000728,-0.005302505220529314
1.071000000000000840,-0.005343366388370343
1.072000000000000730,-0.005384411722410933
1.073000000000000842,-0.005425630295210858
1.074000000000000732,-0.005467011328354940
1.075000000000000844,-0.005508544191043257
1.076000000000000734,-0.005550218398671586
1.077000000000000846,-0.005592023611423455
1.078000000000000735,-0.005633949632890011
1.079000000000000847,-0.005675986408673605
1.080000000000000737,-0.005718124025034075
1.081000000000000849,-0.005760352707507568
1.082000000000000739,-0.005802662819565691
1.083000000000000851,-0.005845044861272298
1.084000000000000741,-0.005887489467952517
1.085000000000000853,-0.005929987408864999
1.086000000000000743,-0.005972529585893268
1.087000000000000854,-0.006015107032248062
1.088000000000000744,-0.006057710911169431
1.089000000000000856,-0.006100332514642062
1.090000000000000746,-0.006142963262124872
1.091000000000000858,-0.006185594699292470
1.092000000000000748,-0.006228218496769878
1.093000000000000860,-0.006270826448903170
1.094000000000000750,-0.006313410472506237
1.095000000000000862,-0.006355962605654459
1.096000000000000751,-0.006398475006457874
1.097000000000000863,-0.006440939951851241
1.098000000000000753,-0.006483349836410321
1.099000000000000865,-0.006525697171153835
1.100000000000000755,-0.006567974582364270
1.101000000000000867,-0.006610174810424941
1.102000000000000757,-0.006652290708654718
1.103000000000000869,-0.006694315242162266
1.104000000000000759,-0.006736241486693113
1.105000000000000870,-0.006778062627512985
1.106000000000000760,-0.006819771958264486
1.107000000000000872,-0.006861362879869509
1.108000000000000762,-0.006902828899413881
1.109000000000000874,-0.006944163629052498
1.110000000000000764,-0.006985360784919295
1.111000000000000876,-0.007026414186044582
1.112000000000000766,-0.007067317753291174
1.113000000000000878,-0.007108065508286713
1.114000000000000767,-0.007148651572373393
1.115000000000000879,-0.007189070165555278
1.116000000000000769,-0.007229315605469298
1.117000000000000881,-0.007269382306351688
1.118000000000000771,-0.007309264778020698
1.119000000000000883,-0.007348957624865310
1.120000000000000773,-0.007388455544840139
1.121000000000000885,-0.007427753328470336
1.122000000000000774,-0.007466845857863311
1.123000000000000886,-0.007505728105732382
1.124000000000000776,-0.007544395134430987
1.125000000000000888,-0.007582842094975809
1.126000000000000778,-0.007621064226103769
1.127000000000000890,-0.007659056853328843
1.128000000000000780,-0.007696815387988049
1.129000000000000892,-0.007734335326325685
1.130000000000000782,-0.007771612248563367
1.131000000000000894,-0.007808641817984532
1.132000000000000783,-0.007845419780028052
1.133000000000000895,-0.007881941961394367
1.134000000000000785,-0.007918204269137067
1.135000000000000897,-0.007954202689801456
1.136000000000000787,-0.007989933288525351
1.137000000000000899,-0.008025392208186405
1.138000000000000789,-0.008060575668524538
1.139000000000000901,-0.008095479965306764
1.140000000000000790,-0.008130101469463146
1.141000000000000902,-0.008164436626249525
1.142000000000000792,-0.008198481954422234
1.143000000000000904,-0.008232234045405388
1.144000000000000794,-0.008265689562481807
1.145000000000000906,-0.008298845239963160
1.146000000000000796,-0.008331697882409474
1.147000000000000908,-0.008364244363814038
1.148000000000000798,-0.008396481626821290
1.149000000000000909,-0.008428406681943033
1.150000000000000799,-0.008460016606776088
1.151000000000000689,-0.008491308545241350
1.152000000000000801,-0.008522279706816727
1.153000000000000913,-0.008552927365781865
1.154000000000000803,-0.008583248860467371
1.155000000000000693,-0.008613241592511348
1.156000000000000805,-0.008642903026132191
1.157000000000000917,-0.008672230687382765
1.158000000000000806,-0.008701222163444194
1.159000000000000696,-0.008729875101900115
1.160000000000000808,-0.008758187210026556
1.161000000000000920,-0.008786156254090474
1.162000000000000810,-0.008813780058656550
1.163000000000000700,-0.008841056505887809
1.164000000000000812,-0.008867983534866203
1.165000000000000924,-0.008894559140909822
1.166000000000000814,-0.008920781374908648
1.167000000000000703,-0.008946648342647570
1.168000000000000815,-0.008972158204156654
1.169000000000000927,-0.008997309173046603
1.170000000000000817,-0.009022099515869703
1.171000000000000707,-0.009046527551469025
1.172000000000000819,-0.009070591650353409
1.173000000000000931,-0.009094290234054624
1.174000000000000821,-0.009117621774508458
1.175000000000000711,-0.009140584793437042
1.176000000000000822,-0.009163177861735464
1.177000000000000934,-0.009185399598859204
1.178000000000000824,-0.009207248672230568
1.179000000000000714,-0.009228723796631982
1.180000000000000826,-0.009249823733627621
1.181000000000000938,-0.009270547290966342
1.182000000000000828,-0.009290893322009750
1.183000000000000718,-0.009310860725158099
1.184000000000000830,-0.009330448443276271
1.185000000000000941,-0.009349655463130876
1.186000000000000831,-0.009368480814840274
1.187000000000000721,-0.009386923571308797
1.188000000000000833,-0.009404982847691363
1.189000000000000945,-0.009422657800842556
1.190000000000000835,-0.009439947628786596
1.191000000000000725,-0.009456851570172542
1.192000000000000837,-0.009473368903768136
1.193000000000000949,-0.009489498947912451
1.194000000000000838,-0.009505241060021308
1.195000000000000728,-0.009520594636059507
1.196000000000000840,-0.009535559110041298
1.197000000000000952,-0.009550133953530705
1.198000000000000842,-0.009564318675132851
1.199000000000000732,-0.009578112820018778
1.200000000000000844,-0.009591515969413697
1.201000000000000956,-0.009604527740138858
1.202000000000000846,-0.009617147784118133
1.203000000000000735,-0.009629375787907332
1.204000000000000847,-0.009641211472223552
1.205000000000000959,-0.009652654591490322
1.206000000000000849,-0.009663704933363753
1.207000000000000739,-0.009674362318284734
1.208000000000000851,-0.009684626599028768
1.209000000000000963,-0.009694497660255957
1.210000000000000853,-0.009703975418072480
1.211000000000000743,-0.009713059819588688
1.212000000000000854,-0.009721750842490523
1.213000000000000966,-0.009730048494601903
1.214000000000000856,-0.009737952813475916
1.215000000000000746,-0.009745463865954337
1.216000000000000858,-0.009752581747769015
1.217000000000000970,-0.009759306583117184
1.218000000000000860,-0.009765638524257558
1.219000000000000750,-0.009771577751110405
1.220000000000000862,-0.009777124470852518
1.221000000000000973,-0.009782278917521675
1.222000000000000863,-0.009787041351628608
1.223000000000000753,-0.009791412059763341
1.224000000000000865,-0.009795391354217000
1.225000000000000977,-0.009798979572598759
1.226000000000000867,-0.009802177077460500
1.227000000000000757,-0.009804984255923322
1.228000000000000869,-0.009807401519306608
1.229000000000000981,-0.009809429302775721
1.230000000000000870,-0.009811068064960151
1.231000000000000760,-0.009812318287613742
1.232000000000000872,-0.009813180475259451
1.233000000000000984,-0.009813655154823058
1.234000000000000874,-0.009813742875310592
1.235000000000000764,-0.009813444207446485
1.236000000000000876,-0.009812759743344768
1.237000000000000988,-0.009811690096166892
1.238000000000000878,-0.009810235899797733
1.239000000000000767,-0.009808397808507152
1.240000000000000879,-0.009806176496632504
1.241000000000000991,-0.009803572658253537
1.242000000000000881,-0.009800587006871628
1.243000000000000771,-0.009797220275101137
1.244000000000000883,-0.009793473214348434
1.245000000000000995,-0.009789346594513606
1.246000000000000885,-0.009784841203678790
1.247000000000000774,-0.009779957847805465
1.248000000000000886,-0.009774697350439347
1.249000000000000998,-0.009769060552412057
1.250000000000000888,-0.009763048311552896
1.251000000000000778,-0.009756661502392561
1.252000000000000890,-0.009749901015884081
1.253000000000001002,-0.009742767759111060
1.254000000000000892,-0.009735262655020321
1.255000000000000782,-0.009727386642131408
1.256000000000000894,-0.009719140674270163
1.257000000000001005,-0.009710525720296181
1.258000000000000895,-0.009701542763835311
1.259000000000000785,-0.009692192803010891
1.260000000000000897,-0.009682476850184769
1.261000000000001009,-0.009672395931699978
1.262000000000000899,-0.009661951087616480
1.263000000000000789,-0.009651143371462615
1.264000000000000901,-0.009639973849987382
1.265000000000001013,-0.009628443602902433
1.266000000000000902,-0.009616553722645860
1.267000000000000792,-0.009604305314133246
1.268000000000000904,-0.009591699494521275
1.269000000000001016,-0.009578737392967482
1.270000000000000906,-0.009565420150400166
1.271000000000000796,-0.009551748919279471
1.272000000000000908,-0.009537724863370687
1.273000000000001020,-0.009523349157519853
1.274000000000000909,-0.009508622987426951
1.275000000000000799,-0.009493547549419926
1.276000000000000911,-0.009478124050245632
1.277000000000001023,-0.009462353706841422
1.278000000000000913,-0.009446237746127312
1.279000000000000803,-0.009429777404791673
1.280000000000000915,-0.009412973929087728
1.281000000000001027,-0.009395828574610054
1.282000000000000917,-0.009378342606109809
1.283000000000000806,-0.009360517297276752
1.284000000000000918,-0.009342353930550218
1.285000000000001030,-0.009323853796910761
1.286000000000000920,-0.009305018195693484
1.287000000000000810,-0.009285848434387895
1.288000000000000922,-0.009266345828454182
1.289000000000001034,-0.009246511701126442
1.290000000000000924,-0.009226347383227475
1.291000000000000814,-0.009205854212993502
1.292000000000000925,-0.009185033535874011
1.293000000000001037,-0.009163886704373259
1.294000000000000927,-0.009142415077855130
1.295000000000000817,-0.009120620022371300
1.296000000000000929,-0.009098502910494329
1.297000000000001041,-0.009076065121135058
1.298000000000000931,-0.009053308039382282
1.299000000000000821,-0.009030233056330651
1.300000000000000933,-0.009006841568912613
1.301000000000001044,-0.008983134979739396
1.302000000000000934,-0.008959114696935389
1.303000000000000824,-0.008934782133984763
1.304000000000000936,-0.008910138709559751
1.305000000000001048,-0.008885185847382144
1.306000000000000938,-0.008859924976057382
1.307000000000000828,-0.008834357528924659
1.308000000000000940,-0.008808484943906155
1.309000000000001052,-0.008782308663365285
1.310000000000000941,-0.008755830133948723
1.311000000000000831,-0.008729050806450981
1.312000000000000943,-0.008701972135661800
1.313000000000001055,-0.008674595580239036
1.314000000000000945,-0.008646922602554685
1.315000000000000835,-0.008618954668561735
1.316000000000000947,-0.008590693247663327
1.317000000000001059,-0.008562139812573217
1.318000000000000949,-0.008533295839178274
1.319000000000000838,-0.008504162806422222
1.320000000000000950,-0.008474742196161740
1.321000000000001062,-0.008445035493042461
1.322000000000000952,-0.008415044184378943
1.323000000000000842,-0.008384769760020828
1.324000000000000954,-0.008354213712238715
1.325000000000001066,-0.008323377535594303
1.326000000000000956,-0.008292262726829324
1.327000000000000846,-0.008260870784739189
1.328000000000000957,-0.008229203210063530
1.329000000000001069,-0.008197261505361706
1.330000000000000959,-0.008165047174911835
1.331000000000000849,-0.008132561724588566
1.332000000000000961,-0.008099806661751831
1.333000000000001073,-0.008066783495143245
1.334000000000000963,-0.008033493734778255
1.335000000000000853,-0.007999938891833902
1.336000000000000965,-0.007966120478549051
1.337000000000001076,-0.007932040008119071
1.338000000000000966,-0.007897698994591727
1.339000000000000856,-0.007863098952771333
1.340000000000000968,-0.007828241398113433
1.341000000000001080,-0.007793127846628833
1.342000000000000970,-0.007757759814788387
1.343000000000000860,-0.007722138819427108
1.344000000000000972,-0.007686266377645193
1.345000000000001084,-0.007650144006725595
1.346000000000000973,-0.007613773224030462
1.347000000000000863,-0.007577155546919058
1.348000000000000975,-0.007540292492653197
1.349000000000001087,-0.007503185578312322
1.350000000000000977,-0.007465836320709357
1.351000000000000867,-0.007428246236303121
1.352000000000000979,-0.007390416841104683
1.353000000000001091,-0.007352349650613389
1.354000000000000981,-0.007314046179721072
1.355000000000000870,-0.007275507942632297
1.356000000000000982,-0.007236736452790120
1.357000000000001094,-0.007197733222796538
1.358000000000000984,-0.007158499764330540
1.359000000000000874,-0.007119037588077468
1.360000000000000986,-0.007079348203648114
1.361000000000001098,-0.007039433119516586
1.362000000000000988,-0.006999293842930021
1.363000000000000878,-0.006958931879850344
1.364000000000000989,-0.006918348734883425
1.365000000000001101,-0.006877545911196809
1.366000000000000991,-0.006836524910465183
1.367000000000000881,-0.006795287232796929
1.368000000000000993,-0.006753834376666749
1.369000000000001105,-0.006712167838852592
1.370000000000000995,-0.006670289114367756
1.371000000000000885,-0.006628199696401449
1.372000000000000997,-0.006585901076251957
1.373000000000001108,-0.006543394743272828
1.374000000000000998,-0.006500682184795050
1.375000000000000888,-0.006457764886091638
1.376000000000001000,-0.006414644330300065
1.377000000000001112,-0.006371321998368767
1.378000000000001002,-0.006327799369006163
1.379000000000000892,-0.006284077918617357
1.380000000000001004,-0.006240159121251596
1.381000000000001116,-0.006196044448553388
1.382000000000001005,-0.006151735369698407
1.383000000000000895,-0.006107233351348742
1.384000000000001007,-0.006062539857600678
1.385000000000001119,-0.006017656349930410
1.386000000000001009,-0.005972584287150574
1.387000000000000899,-0.005927325125347379
1.388000000000001011,-0.005881880317855839
1.389000000000001123,-0.005836251315186341
1.390000000000001013,-0.005790439564995272
1.391000000000000902,-0.005744446512032333
1.392000000000001014,-0.005698273598096720
1.393000000000001126,-0.005651922261993618
1.394000000000001016,-0.005605393939491801
1.395000000000000906,-0.005558690063277466
1.396000000000001018,-0.005511812062911894
1.397000000000001130,-0.005464761364795927
1.398000000000001020,-0.005417539392124150
1.399000000000000909,-0.005370147564846942
1.400000000000001021,-0.005322587299629760
1.401000000000001133,-0.005274860009820128
1.402000000000001023,-0.005226967105402520
1.403000000000000913,-0.005178909992963643
1.404000000000001025,-0.005130690075663125
1.405000000000001137,-0.005082308753186711
1.406000000000001027,-0.005033767421718215
1.407000000000000917,-0.004985067473909548
1.408000000000001029,-0.004936210298832911
1.409000000000001140,-0.004887197281962888
1.410000000000001030,-0.004838029805135825
1.411000000000000920,-0.004788709246520424
1.412000000000001032,-0.004739236980585185
1.413000000000001144,-0.004689614378072855
1.414000000000001034,-0.004639842805964334
1.415000000000000924,-0.004589923627450468
1.416000000000001036,-0.004539858201911535
1.417000000000001148,-0.004489647884880008
1.418000000000001037,-0.004439294028015101
1.419000000000000927,-0.004388797979078009
1.420000000000001039,-0.004338161081904818
1.421000000000001151,-0.004287384676383945
1.422000000000001041,-0.004236470098423211
1.423000000000000931,-0.004185418679933288
1.424000000000001043,-0.004134231748801097
1.425000000000001155,-0.004082910628863139
1.426000000000001044,-0.004031456639887671
1.427000000000000934,-0.003979871097550324
1.428000000000001046,-0.003928155313412018
1.429000000000001158,-0.003876310594893803
1.430000000000001048,-0.003824338245266269
1.431000000000000938,-0.003772239563616757
1.432000000000001050,-0.003720015844839472
1.433000000000001162,-0.003667668379612715
1.434000000000001052,-0.003615198454375713
1.435000000000000941,-0.003562607351320269
1.436000000000001053,-0.003509896348360743
1.437000000000001165,-0.003457066719125350
1.438000000000001055,-0.003404119732939483
1.439000000000000945,-0.003351056654802458
1.440000000000001057,-0.003297878745378994
1.441000000000001169,-0.003244587260975742
1.442000000000001059,-0.003191183453533887
1.443000000000000949,-0.003137668570612208
1.444000000000001060,-0.003084043855368993
1.445000000000001172,-0.003030310546550202
1.446000000000001062,-0.002976469878483168
1.447000000000000952,-0.002922523081049382
1.448000000000001064,-0.002868471379685281
1.449000000000001176,-0.002814315995364945
1.450000000000001066,-0.002760058144584296
1.451000000000000956,-0.002705699039355571
1.452000000000001068,-0.002651239887195915
1.453000000000001180,-0.002596681891113433
1.454000000000001069,-0.002542026249597738
1.455000000000000959,-0.002487274156614263
1.456000000000001071,-0.002432426801588557
1.457000000000001183,-0.002377485369403906
1.458000000000001073,-0.002322451040387036
1.459000000000000963,-0.002267324990300432
1.460000000000001075,-0.002212108390338536
1.461000000000001187,-0.002156802407114060
1.462000000000001076,-0.002101408202659206
1.463000000000000966,-0.002045926934407441
1.464000000000001078,-0.001990359755196089
1.465000000000001190,-0.001934707813257324
1.466000000000001080,-0.001878972252209492
1.467000000000000970,-0.001823154211054848
1.468000000000001082,-0.001767254824174385
1.469000000000001194,-0.001711275221317504
1.470000000000001084,-0.001655216527605349
1.471000000000000973,-0.001599079863519066
1.472000000000001085,-0.001542866344903442
1.473000000000001197,-0.001486577082953014
1.474000000000001087,-0.001430213184220544
1.475000000000000977,-0.001373775750600918
1.476000000000001089,-0.001317265879339171
1.477000000000001201,-0.001260684663023726
1.478000000000001091,-0.001204033189581624
1.479000000000000981,-0.001147312542279815
1.480000000000001092,-0.001090523799721444
1.481000000000001204,-0.001033668035845615
1.482000000000001094,-0.000976746319925858
1.483000000000000984,-0.000919759716570734
1.484000000000001096,-0.000862709285717962
1.485000000000001208,-0.000805596082637164
1.486000000000001098,-0.000748421157933512
1.487000000000000988,-0.000691185557540614
1.488000000000001100,-0.000633890322723177
1.489000000000001211,-0.000576536490082020
1.490000000000001101,-0.000519125091549523
1.491000000000000991,-0.000461657154390133
1.492000000000001103,-0.000404133701206918
1.493000000000001215,-0.000346555749940199
1.494000000000001105,-0.000288924313863924
1.495000000000000995,-0.000231240401596123
1.496000000000001107,-0.000173505017097450
1.497000000000001219,-0.000115719159672813
1.498000000000001108,-0.000057883823973399
1.499000000000000998,0.000000000000000000
