# C-amorph-1_BSAIV2
# h[nm],U(h)[kJ/mol]
0.149999999999999994,101.080209245939244056
0.150999999999999995,97.956270829624898511
0.151999999999999996,95.281968626567973502
0.152999999999999997,92.769199916139356787
0.153999999999999998,90.291344705286320504
0.154999999999999999,87.808482255829318319
0.156000000000000000,85.322114000638649145
0.157000000000000001,82.849198332572342451
0.158000000000000002,80.408454691445285789
0.159000000000000002,78.014160777429893301
0.160000000000000003,75.674275512184479453
0.161000000000000004,73.390845800502972907
0.162000000000000005,71.161429151144858452
0.163000000000000006,68.980785743513649777
0.164000000000000007,66.842436065637500064
0.165000000000000008,64.739897825559310718
0.166000000000000009,62.667547740773045462
0.167000000000000010,60.621128267371929610
0.168000000000000010,58.597956351065988656
0.169000000000000011,56.596904826937191046
0.170000000000000012,54.618226721905706711
0.171000000000000013,52.663284814975142467
0.172000000000000014,50.734237530195699151
0.173000000000000015,48.833720151695885647
0.174000000000000016,46.964548960066103689
0.175000000000000017,45.129465977206976390
0.176000000000000018,43.330933889473470799
0.177000000000000018,41.570984425463763046
0.178000000000000019,39.851118857640514648
0.179000000000000020,38.172256153851947147
0.180000000000000021,36.534722371636568994
0.181000000000000022,34.938273911835480590
0.182000000000000023,33.382146995399921252
0.183000000000000024,31.865125994899603512
0.184000000000000025,30.385623869837218081
0.185000000000000026,28.941768785122160779
0.186000000000000026,27.531491928065825903
0.187000000000000027,26.152612500979024901
0.188000000000000028,24.802916796574269398
0.189000000000000029,23.480229123295195848
0.190000000000000030,22.182473113706514312
0.191000000000000031,20.907722609000437330
0.192000000000000032,19.654241862954382469
0.193000000000000033,18.420515251946877555
0.194000000000000034,17.205267020771664477
0.195000000000000034,16.007471846498997792
0.196000000000000035,14.826357175488928064
0.197000000000000036,13.661398393366473769
0.198000000000000037,12.512307935707795536
0.199000000000000038,11.379019449165181044
0.200000000000000039,10.261668078712542496
0.201000000000000040,9.160567895507455205
0.202000000000000041,8.076187399307869441
0.203000000000000042,7.009123936085943640
0.204000000000000042,5.960077770986716317
0.205000000000000043,4.929826453612339954
0.206000000000000044,3.919200010361060915
0.207000000000000045,2.929057399989045685
0.208000000000000046,1.960264575736398784
0.209000000000000047,1.013674411703451739
0.210000000000000048,0.090108673594433239
0.211000000000000049,-0.809657855041773344
0.212000000000000050,-1.684911040204497779
0.213000000000000050,-2.535008859243898183
0.214000000000000051,-3.359390701210725805
0.215000000000000052,-4.157584585436073787
0.216000000000000053,-4.929212406333340013
0.217000000000000054,-5.673993334131158583
0.218000000000000055,-6.391745517046073743
0.219000000000000056,-7.082386240972800451
0.220000000000000057,-7.745930708788719699
0.221000000000000058,-8.382489603480181017
0.222000000000000058,-8.992265598128387438
0.223000000000000059,-9.575548971902538398
0.224000000000000060,-10.132712485130856095
0.225000000000000061,-10.664205658725517623
0.226000000000000062,-11.170548594150121247
0.227000000000000063,-11.652325460111274680
0.228000000000000064,-12.110177761552666453
0.229000000000000065,-12.544797495611806681
0.230000000000000066,-12.956920288198327640
0.231000000000000066,-13.347318593969109912
0.232000000000000067,-13.716795031865895993
0.233000000000000068,-14.066175918176629267
0.234000000000000069,-14.396305049379197527
0.235000000000000070,-14.708037777901594723
0.236000000000000071,-15.002235415434864052
0.237000000000000072,-15.279759990601212039
0.238000000000000073,-15.541469380621375507
0.239000000000000073,-15.788212830149010557
0.240000000000000074,-16.020826864637268017
0.241000000000000075,-16.240131600454162708
0.242000000000000076,-16.446927449447240832
0.243000000000000077,-16.641992211743040997
0.244000000000000078,-16.826078547219161408
0.245000000000000079,-16.999911813269299898
0.246000000000000080,-17.164188254156382385
0.247000000000000081,-17.319573525375908218
0.248000000000000081,-17.466701534991027955
0.249000000000000082,-17.606173582813823941
0.250000000000000111,-17.738557777555822526
0.251000000000000112,-17.864388711616900451
0.252000000000000113,-17.984167372992949652
0.253000000000000114,-18.098361273820966488
0.254000000000000115,-18.207404775320902957
0.255000000000000115,-18.311699589300999946
0.256000000000000116,-18.411615436945432123
0.257000000000000117,-18.507490846273146445
0.258000000000000118,-18.599634070421604548
0.259000000000000119,-18.688324109750645619
0.260000000000000120,-18.773811821659599275
0.261000000000000121,-18.856321102949166857
0.262000000000000122,-18.936050130524741064
0.263000000000000123,-19.013172647215807132
0.264000000000000123,-19.087839280467029823
0.265000000000000124,-19.160178882629455899
0.266000000000000125,-19.230299882538595568
0.267000000000000126,-19.298291639000989761
0.268000000000000127,-19.364225787718716276
0.269000000000000128,-19.428157574055269663
0.270000000000000129,-19.490127164884398780
0.271000000000000130,-19.550160933561965493
0.272000000000000131,-19.608272712817978345
0.273000000000000131,-19.664465011079943935
0.274000000000000132,-19.718730188408937209
0.275000000000000133,-19.771051588856522585
0.276000000000000134,-19.821404626632340040
0.277000000000000135,-19.869757824011646363
0.278000000000000136,-19.916073799408000156
0.279000000000000137,-19.960310204491374719
0.280000000000000138,-20.002420609646293315
0.281000000000000139,-20.042355337440792340
0.282000000000000139,-20.080062244115644887
0.283000000000000140,-20.115487449406906251
0.284000000000000141,-20.148576015285016183
0.285000000000000142,-20.179272574431728060
0.286000000000000143,-20.207521909485215872
0.287000000000000144,-20.233269484263932014
0.288000000000000145,-20.256461928335149025
0.289000000000000146,-20.277047476423909700
0.290000000000000147,-20.294976364267178326
0.291000000000000147,-20.310201182604625814
0.292000000000000148,-20.322677191067292313
0.293000000000000149,-20.332362593775663129
0.294000000000000150,-20.339218778495300910
0.295000000000000151,-20.343210521219109665
0.296000000000000152,-20.344306158054173750
0.297000000000000153,-20.342477726288535678
0.298000000000000154,-20.337701076499758557
0.299000000000000155,-20.329955957545582379
0.300000000000000155,-20.319226076246870605
0.301000000000000156,-20.305499133535967360
0.302000000000000157,-20.288766838801169712
0.303000000000000158,-20.269024904109919305
0.304000000000000159,-20.246273019941352089
0.305000000000000160,-20.220514814003209381
0.306000000000000161,-20.191757794649802804
0.307000000000000162,-20.160013280357325982
0.308000000000000163,-20.125296316650270967
0.309000000000000163,-20.087625581809955833
0.310000000000000164,-20.047023282632032704
0.311000000000000165,-20.003515041435754540
0.312000000000000166,-19.957129775464075294
0.313000000000000167,-19.907899569750050262
0.314000000000000168,-19.855859544462408195
0.315000000000000169,-19.801047717681463212
0.316000000000000170,-19.743504864496422613
0.317000000000000171,-19.683274373255823519
0.318000000000000171,-19.620402099745565039
0.319000000000000172,-19.554936220013708237
0.320000000000000173,-19.486927082506785069
0.321000000000000174,-19.416427060130985183
0.322000000000000175,-19.343490402801357675
0.323000000000000176,-19.268173090994412888
0.324000000000000177,-19.190532690773657976
0.325000000000000178,-19.110628210713652919
0.326000000000000179,-19.028519961106958647
0.327000000000000179,-18.944269415798199674
0.328000000000000180,-18.857939076952298763
0.329000000000000181,-18.769592343028485004
0.330000000000000182,-18.679293380197712793
0.331000000000000183,-18.587106997410380416
0.332000000000000184,-18.493098525290736944
0.333000000000000185,-18.397333699007344165
0.334000000000000186,-18.299878545242687977
0.335000000000000187,-18.200799273360729558
0.336000000000000187,-18.100162170849138477
0.337000000000000188,-17.998033503091541263
0.338000000000000189,-17.894479417506314434
0.339000000000000190,-17.789565852070406748
0.340000000000000191,-17.683358448230187321
0.341000000000000192,-17.575922468186924164
0.342000000000000193,-17.467322716529931625
0.343000000000000194,-17.357623466179028071
0.344000000000000195,-17.246888388585610130
0.345000000000000195,-17.135180488132650822
0.346000000000000196,-17.022562040663764549
0.347000000000000197,-16.909094536064319669
0.348000000000000198,-16.794838624809834471
0.349000000000000199,-16.679854068390792321
0.350000000000000200,-16.564199693517895895
0.351000000000000201,-16.447933350006490372
0.352000000000000202,-16.331111872235570814
0.353000000000000203,-16.213791044073122549
0.354000000000000203,-16.096025567157077774
0.355000000000000204,-15.977869032418931639
0.356000000000000205,-15.859373894735805166
0.357000000000000206,-15.740591450595530887
0.358000000000000207,-15.621571818658571473
0.359000000000000208,-15.502363923100910270
0.360000000000000209,-15.383015479621750643
0.361000000000000210,-15.263572984000802535
0.362000000000000210,-15.144081703090545687
0.363000000000000211,-15.024585668130219673
0.364000000000000212,-14.905127670269649798
0.365000000000000213,-14.785749258192604216
0.366000000000000214,-14.666490737731304961
0.367000000000000215,-14.547391173365799233
0.368000000000000216,-14.428488391503965005
0.369000000000000217,-14.309818985440369232
0.370000000000000218,-14.191418321894678556
0.371000000000000218,-14.073320549032706239
0.372000000000000219,-13.955558605876010603
0.373000000000000220,-13.838164233008640736
0.374000000000000221,-13.721167984492291581
0.375000000000000222,-13.604599240904008184
0.376000000000000223,-13.488486223413421072
0.377000000000000224,-13.372856008819368867
0.378000000000000225,-13.257734545468574439
0.379000000000000226,-13.143146669981842223
0.380000000000000226,-13.029116124716448866
0.381000000000000227,-12.915665575895559414
0.382000000000000228,-12.802816632339135694
0.383000000000000229,-12.690589864732906733
0.384000000000000230,-12.579004825375003307
0.385000000000000231,-12.468080068342658251
0.386000000000000232,-12.357833170023749148
0.387000000000000233,-12.248280749960814617
0.388000000000000234,-12.139438491957509569
0.389000000000000234,-12.031321165400269635
0.390000000000000235,-11.923942646749933871
0.391000000000000236,-11.817315941160956072
0.392000000000000237,-11.711453204187662891
0.393000000000000238,-11.606365763539725933
0.394000000000000239,-11.502064140850761120
0.395000000000000240,-11.398558073426364956
0.396000000000000241,-11.295856535939943655
0.397000000000000242,-11.193967762046378667
0.398000000000000242,-11.092899265885952431
0.399000000000000243,-10.992657863452350853
0.400000000000000244,-10.893249693800530764
0.401000000000000245,-10.794680240072132449
0.402000000000000246,-10.696954350317435356
0.403000000000000247,-10.600076258094507153
0.404000000000000248,-10.504049602828025911
0.405000000000000249,-10.408877449911276614
0.406000000000000250,-10.314562310536455669
0.407000000000000250,-10.221106161239802645
0.408000000000000251,-10.128510463149059007
0.409000000000000252,-10.036776180922382551
0.410000000000000253,-9.945903801368581654
0.411000000000000254,-9.855893351739988262
0.412000000000000255,-9.766744417690052416
0.413000000000000256,-9.678456160889012949
0.414000000000000257,-9.591027336291597649
0.415000000000000258,-9.504456309052015328
0.416000000000000258,-9.418741071081964122
0.417000000000000259,-9.333879257248421268
0.418000000000000260,-9.249868161208686601
0.419000000000000261,-9.166704750880752428
0.420000000000000262,-9.084385683547898438
0.421000000000000263,-9.002907320597012486
0.422000000000000264,-8.922265741890537782
0.423000000000000265,-8.842456759772787223
0.424000000000000266,-8.763475932711731531
0.425000000000000266,-8.685318578577783555
0.426000000000000267,-8.607979787561726326
0.427000000000000268,-8.531454434734168757
0.428000000000000269,-8.455737192249497269
0.429000000000000270,-8.380822541197449738
0.430000000000000271,-8.306704783105869794
0.431000000000000272,-8.233378051098560135
0.432000000000000273,-8.160836320712281378
0.433000000000000274,-8.089073420377365764
0.434000000000000274,-8.018083041566468339
0.435000000000000275,-7.947858748616360103
0.436000000000000276,-7.878393988227772482
0.437000000000000277,-7.809682098648390358
0.438000000000000278,-7.741716318544433761
0.439000000000000279,-7.674489795566249661
0.440000000000000280,-7.607995594613464974
0.441000000000000281,-7.542226705805400222
0.442000000000000282,-7.477176052162566755
0.443000000000000282,-7.412836497004937186
0.444000000000000283,-7.349200851073030449
0.445000000000000284,-7.286261879377676109
0.446000000000000285,-7.224012307784350995
0.447000000000000286,-7.162444829338237007
0.448000000000000287,-7.101552110335831003
0.449000000000000288,-7.041326796149218303
0.450000000000000289,-6.981761516808921542
0.451000000000000290,-6.922848892351337824
0.452000000000000290,-6.864581537936691902
0.453000000000000291,-6.806952068743401085
0.454000000000000292,-6.749953104644790258
0.455000000000000293,-6.693577274673863542
0.456000000000000294,-6.637817221282058533
0.457000000000000295,-6.582665604397547554
0.458000000000000296,-6.528115105288868847
0.459000000000000297,-6.474158430239417505
0.460000000000000298,-6.420788314038297528
0.461000000000000298,-6.367997523293037254
0.462000000000000299,-6.315778859569514125
0.463000000000000300,-6.264125162364310384
0.464000000000000301,-6.213029311914835873
0.465000000000000302,-6.162484231852226380
0.466000000000000303,-6.112482891702098797
0.467000000000000304,-6.063018309238058734
0.468000000000000305,-6.014083552692904178
0.469000000000000306,-5.965671742832149071
0.470000000000000306,-5.917776054894701154
0.471000000000000307,-5.870389720405050582
0.472000000000000308,-5.823506028861684669
0.473000000000000309,-5.777118329305890754
0.474000000000000310,-5.731220031775381862
0.475000000000000311,-5.685804608646821912
0.476000000000000312,-5.640865595871507487
0.477000000000000313,-5.596396594107948097
0.478000000000000314,-5.552391269755483805
0.479000000000000314,-5.508843355892646620
0.480000000000000315,-5.465746653123927601
0.481000000000000316,-5.423095030338672906
0.482000000000000317,-5.380882425385548729
0.483000000000000318,-5.339102845666047870
0.484000000000000319,-5.297750368650334885
0.485000000000000320,-5.256819142318758686
0.486000000000000321,-5.216303385532104819
0.487000000000000322,-5.176197388333710236
0.488000000000000322,-5.136495512186377788
0.489000000000000323,-5.097192190147068480
0.490000000000000324,-5.058281926982102661
0.491000000000000325,-5.019759299225653670
0.492000000000000326,-4.981618955184131892
0.493000000000000327,-4.943855614889085537
0.494000000000000328,-4.906464070001065991
0.495000000000000329,-4.869439183666882442
0.496000000000000330,-4.832775890332574598
0.497000000000000330,-4.796469195514367456
0.498000000000000331,-4.760514175529782399
0.499000000000000332,-4.724905977191053985
0.500000000000000333,-4.689639817462850857
0.501000000000000334,-4.654710983086302711
0.502000000000000335,-4.620114830171231368
0.503000000000000336,-4.585846783758450229
0.504000000000000337,-4.551902337353870287
0.505000000000000338,-4.518277052436163288
0.506000000000000338,-4.484966557939634058
0.507000000000000339,-4.451966549713858967
0.508000000000000340,-4.419272789961661729
0.509000000000000341,-4.386881106656922213
0.510000000000000342,-4.354787392943591406
0.511000000000000343,-4.322987606517317616
0.512000000000000344,-4.291477768990986874
0.513000000000000345,-4.260253965245443197
0.514000000000000346,-4.229312342766646360
0.515000000000000346,-4.198649110970356091
0.516000000000000347,-4.168260540515512425
0.517000000000000348,-4.138142962607447295
0.518000000000000349,-4.108292768291785357
0.519000000000000350,-4.078706407740220641
0.520000000000000351,-4.049380389528998592
0.521000000000000352,-4.020311279911019220
0.522000000000000353,-3.991495702082474395
0.523000000000000353,-3.962930335444775132
0.524000000000000354,-3.934611914862667703
0.525000000000000355,-3.906537229919158083
0.526000000000000356,-3.878703124168070282
0.527000000000000357,-3.851106494384916257
0.528000000000000358,-3.823744289816649378
0.529000000000000359,-3.796613511431020438
0.530000000000000360,-3.769711211166085540
0.531000000000000361,-3.743034491180424084
0.532000000000000361,-3.716580503104607747
0.533000000000000362,-3.690346447294450716
0.534000000000000363,-3.664329572086474140
0.535000000000000364,-3.638527173056088859
0.536000000000000365,-3.612936592278889414
0.537000000000000366,-3.587555217595495893
0.538000000000000367,-3.562380481880285998
0.539000000000000368,-3.537409862314449871
0.540000000000000369,-3.512640879663603499
0.541000000000000369,-3.488071097560388800
0.542000000000000370,-3.463698121792289975
0.543000000000000371,-3.439519599594949462
0.544000000000000372,-3.415533218951299688
0.545000000000000373,-3.391736707896688241
0.546000000000000374,-3.368127833830258488
0.547000000000000375,-3.344704402832784584
0.548000000000000376,-3.321464258991191798
0.549000000000000377,-3.298405283729891835
0.550000000000000377,-3.275525395149106345
0.551000000000000378,-3.252822547370375794
0.552000000000000379,-3.230294729889346517
0.553000000000000380,-3.207939966935980713
0.554000000000000381,-3.185756316842288438
0.555000000000000382,-3.163741871417736995
0.556000000000000383,-3.141894755332317324
0.557000000000000384,-3.120213125507495189
0.558000000000000385,-3.098695170514983666
0.559000000000000385,-3.077339109983492804
0.560000000000000386,-3.056143194013436037
0.561000000000000387,-3.035105702599702582
0.562000000000000388,-3.014224945062475847
0.563000000000000389,-2.993499259486150699
0.564000000000000390,-2.972927012166366012
0.565000000000000391,-2.952506597065151617
0.566000000000000392,-2.932236435274209629
0.567000000000000393,-2.912114974486324392
0.568000000000000393,-2.892140688474874821
0.569000000000000394,-2.872312076581446050
0.570000000000000395,-2.852627663211556364
0.571000000000000396,-2.833085997338387507
0.572000000000000397,-2.813685652014583205
0.573000000000000398,-2.794425223892015531
0.574000000000000399,-2.775303332749510687
0.575000000000000400,-2.756318621028477800
0.576000000000000401,-2.737469753376384318
0.577000000000000401,-2.718755416198072261
0.578000000000000402,-2.700174317214790953
0.579000000000000403,-2.681725185030928049
0.580000000000000404,-2.663406768708401096
0.581000000000000405,-2.645217837348587508
0.582000000000000406,-2.627157179681764543
0.583000000000000407,-2.609223603663987312
0.584000000000000408,-2.591415936081317817
0.585000000000000409,-2.573733022161349027
0.586000000000000409,-2.556173725191932089
0.587000000000000410,-2.538736926147042272
0.588000000000000411,-2.521421523319699709
0.589000000000000412,-2.504226431961864119
0.590000000000000413,-2.487150583931215131
0.591000000000000414,-2.470192927344746270
0.592000000000000415,-2.453352426239093997
0.593000000000000416,-2.436628060237483684
0.594000000000000417,-2.420018824223245879
0.595000000000000417,-2.403523728019813177
0.596000000000000418,-2.387141796077045353
0.597000000000000419,-2.370872067163921848
0.598000000000000420,-2.354713594067365356
0.599000000000000421,-2.338665443297230695
0.600000000000000422,-2.322726694797296432
0.601000000000000423,-2.306896441662201092
0.602000000000000424,-2.291173789860225352
0.603000000000000425,-2.275557857961837183
0.604000000000000425,-2.260047776873903125
0.605000000000000426,-2.244642689579474659
0.606000000000000427,-2.229341750883105711
0.607000000000000428,-2.214144127161494779
0.608000000000000429,-2.199048996119544519
0.609000000000000430,-2.184055546551549654
0.610000000000000431,-2.169162978107617157
0.611000000000000432,-2.154370501065071331
0.612000000000000433,-2.139677336104850447
0.613000000000000433,-2.125082714092806135
0.614000000000000434,-2.110585875865778505
0.615000000000000435,-2.096186072022361735
0.616000000000000436,-2.081882562718348595
0.617000000000000437,-2.067674617466684239
0.618000000000000438,-2.053561514941895094
0.619000000000000439,-2.039542542788884472
0.620000000000000440,-2.025616997436050060
0.621000000000000441,-2.011784183912602053
0.622000000000000441,-1.998043415670036183
0.623000000000000442,-1.984394014407649065
0.624000000000000443,-1.970835309902054133
0.625000000000000444,-1.957366639840608658
0.626000000000000445,-1.943987349658642172
0.627000000000000446,-1.930696792380478755
0.628000000000000447,-1.917494328464118158
0.629000000000000448,-1.904379325649532717
0.630000000000000449,-1.891351158810503419
0.631000000000000449,-1.878409209809906333
0.632000000000000450,-1.865552867358416744
0.633000000000000451,-1.852781526876529750
0.634000000000000452,-1.840094590359833138
0.635000000000000453,-1.827491466247475271
0.636000000000000454,-1.814971569293754694
0.637000000000000455,-1.802534320442774840
0.638000000000000456,-1.790179146706079250
0.639000000000000457,-1.777905481043231317
0.640000000000000457,-1.765712762245257750
0.641000000000000458,-1.753600434820882459
0.642000000000000459,-1.741567948885541117
0.643000000000000460,-1.729614760053039380
0.644000000000000461,-1.717740329329877635
0.645000000000000462,-1.705944123012120173
0.646000000000000463,-1.694225612584782326
0.647000000000000464,-1.682584274623682319
0.648000000000000465,-1.671019590699694746
0.649000000000000465,-1.659531047285341954
0.650000000000000466,-1.648118135663698025
0.651000000000000467,-1.636780351839523195
0.652000000000000468,-1.625517196452596735
0.653000000000000469,-1.614328174693187679
0.654000000000000470,-1.603212796219631642
0.655000000000000471,-1.592170575077939798
0.656000000000000472,-1.581201029623412024
0.657000000000000473,-1.570303682444191384
0.658000000000000473,-1.559478060286743739
0.659000000000000474,-1.548723693983181438
0.660000000000000475,-1.538040118380410881
0.661000000000000476,-1.527426872271043790
0.662000000000000477,-1.516883498326059510
0.663000000000000478,-1.506409543029133546
0.664000000000000479,-1.496004556612642755
0.665000000000000480,-1.485668092995239942
0.666000000000000481,-1.475399709721056052
0.667000000000000481,-1.465198967900364302
0.668000000000000482,-1.455065432151809279
0.669000000000000483,-1.444998670546040254
0.670000000000000484,-1.434998254550796659
0.671000000000000485,-1.425063758977365369
0.672000000000000486,-1.415194761928393552
0.673000000000000487,-1.405390844747036461
0.674000000000000488,-1.395651591967359328
0.675000000000000488,-1.385976591266008917
0.676000000000000489,-1.376365433415124961
0.677000000000000490,-1.366817712236401583
0.678000000000000491,-1.357333024556343304
0.679000000000000492,-1.347910970162641275
0.680000000000000493,-1.338551151761633751
0.681000000000000494,-1.329253174936872117
0.682000000000000495,-1.320016648108697455
0.683000000000000496,-1.310841182494869361
0.684000000000000496,-1.301726392072151350
0.685000000000000497,-1.292671893538892336
0.686000000000000498,-1.283677306278530938
0.687000000000000499,-1.274742252324024161
0.688000000000000500,-1.265866356323150699
0.689000000000000501,-1.257049245504707313
0.690000000000000502,-1.248290549645533876
0.691000000000000503,-1.239589901038356201
0.692000000000000504,-1.230946934460439568
0.693000000000000504,-1.222361287143026942
0.694000000000000505,-1.213832598741497737
0.695000000000000506,-1.205360511306318161
0.696000000000000507,-1.196944669254663252
0.697000000000000508,-1.188584719342750784
0.698000000000000509,-1.180280310638868624
0.699000000000000510,-1.172031094497029802
0.700000000000000511,-1.163836724531299271
0.701000000000000512,-1.155696856590721744
0.702000000000000512,-1.147611148734871467
0.703000000000000513,-1.139579261209978878
0.704000000000000514,-1.131600856425638790
0.705000000000000515,-1.123675598932068365
0.706000000000000516,-1.115803155397911084
0.707000000000000517,-1.107983194588563425
0.708000000000000518,-1.100215387345008233
0.709000000000000519,-1.092499406563160136
0.710000000000000520,-1.084834927173665475
0.711000000000000520,-1.077221626122199849
0.712000000000000521,-1.069659182350200854
0.713000000000000522,-1.062147276776041149
0.714000000000000523,-1.054685592276654926
0.715000000000000524,-1.047273813669535869
0.716000000000000525,-1.039911627695198071
0.717000000000000526,-1.032598722999968910
0.718000000000000527,-1.025334790119209361
0.719000000000000528,-1.018119521460870702
0.720000000000000528,-1.010952611289446912
0.721000000000000529,-1.003833755710219267
0.722000000000000530,-0.996762652653909065
0.723000000000000531,-0.989739001861594025
0.724000000000000532,-0.982762504869977405
0.725000000000000533,-0.975832864996971971
0.726000000000000534,-0.968949787327543555
0.727000000000000535,-0.962112978699893207
0.728000000000000536,-0.955322147691877399
0.729000000000000536,-0.948577004607734642
0.730000000000000537,-0.941877261465062454
0.731000000000000538,-0.935222631982039032
0.732000000000000539,-0.928612831564919361
0.733000000000000540,-0.922047577295751486
0.734000000000000541,-0.915526587920331592
0.735000000000000542,-0.909049583836387898
0.736000000000000543,-0.902616287081987378
0.737000000000000544,-0.896226421324140654
0.738000000000000544,-0.889879711847634702
0.739000000000000545,-0.883575885544039652
0.740000000000000546,-0.877314670900933513
0.741000000000000547,-0.871095797991283449
0.742000000000000548,-0.864918998463057753
0.743000000000000549,-0.858784005528955618
0.744000000000000550,-0.852690553956338859
0.745000000000000551,-0.846638380057335604
0.746000000000000552,-0.840627221679074332
0.747000000000000552,-0.834656818194107641
0.748000000000000553,-0.828726910490950486
0.749000000000000554,-0.822837240964783723
0.750000000000000555,-0.816987553508302100
0.751000000000000556,-0.811177593502672933
0.752000000000000557,-0.805407107808661871
0.753000000000000558,-0.799675844757843368
0.754000000000000559,-0.793983554143975812
0.755000000000000560,-0.788329987214465344
0.756000000000000560,-0.782714896661962811
0.757000000000000561,-0.777138036616058625
0.758000000000000562,-0.771599162635089764
0.759000000000000563,-0.766098031698063897
0.760000000000000564,-0.760634402196661896
0.761000000000000565,-0.755208033927358802
0.762000000000000566,-0.749818688083622731
0.763000000000000567,-0.744466127248218923
0.764000000000000568,-0.739150115385586060
0.765000000000000568,-0.733870417834322275
0.766000000000000569,-0.728626801299726345
0.767000000000000570,-0.723419033846446013
0.768000000000000571,-0.718246884891165616
0.769000000000000572,-0.713110125195427158
0.770000000000000573,-0.708008526858460163
0.771000000000000574,-0.702941863310128645
0.772000000000000575,-0.697909909303925602
0.773000000000000576,-0.692912440910030236
0.774000000000000576,-0.687949235508441781
0.775000000000000577,-0.683020071782173610
0.776000000000000578,-0.678124729710481544
0.777000000000000579,-0.673262990562199515
0.778000000000000580,-0.668434636889075673
0.779000000000000581,-0.663639452519205753
0.780000000000000582,-0.658877222550489861
0.781000000000000583,-0.654147733344165649
0.782000000000000584,-0.649450772518367470
0.783000000000000584,-0.644786128941743253
0.784000000000000585,-0.640153592727126020
0.785000000000000586,-0.635552955225229255
0.786000000000000587,-0.630984009018409231
0.787000000000000588,-0.626446547914458418
0.788000000000000589,-0.621940366940422651
0.789000000000000590,-0.617465262336499676
0.790000000000000591,-0.613021031549933149
0.791000000000000592,-0.608607473228972573
0.792000000000000592,-0.604224387216853676
0.793000000000000593,-0.599871574545822517
0.794000000000000594,-0.595548837431186473
0.795000000000000595,-0.591255979265418619
0.796000000000000596,-0.586992804612249452
0.797000000000000597,-0.582759119200852105
0.798000000000000598,-0.578554729920003008
0.799000000000000599,-0.574379444812303630
0.800000000000000600,-0.570233073068423968
0.801000000000000600,-0.566115425021370244
0.802000000000000601,-0.562026312140781026
0.803000000000000602,-0.557965547027254316
0.804000000000000603,-0.553932943406702183
0.805000000000000604,-0.549928316124727146
0.806000000000000605,-0.545951481141010220
0.807000000000000606,-0.542002255523761356
0.808000000000000607,-0.538080457444147675
0.809000000000000608,-0.534185906170776992
0.810000000000000608,-0.530318422064201545
0.811000000000000609,-0.526477826571419394
0.812000000000000610,-0.522663942220434330
0.813000000000000611,-0.518876592614800902
0.814000000000000612,-0.515115602428217967
0.815000000000000613,-0.511380797399142550
0.816000000000000614,-0.507672004325389059
0.817000000000000615,-0.503989051058797766
0.818000000000000616,-0.500331766499892749
0.819000000000000616,-0.496699980592564372
0.820000000000000617,-0.493093524318766907
0.821000000000000618,-0.489512229693247591
0.822000000000000619,-0.485955929758295824
0.823000000000000620,-0.482424458578486370
0.824000000000000621,-0.478917651235461428
0.825000000000000622,-0.475435343822730172
0.826000000000000623,-0.471977373440479409
0.827000000000000624,-0.468543578190404042
0.828000000000000624,-0.465133797170555752
0.829000000000000625,-0.461747870470202659
0.830000000000000626,-0.458385639164715475
0.831000000000000627,-0.455046945310463524
0.832000000000000628,-0.451731631939741418
0.833000000000000629,-0.448439543055681455
0.834000000000000630,-0.445170523627215264
0.835000000000000631,-0.441924419584037054
0.836000000000000631,-0.438701077811580742
0.837000000000000632,-0.435500346146024397
0.838000000000000633,-0.432322073369291016
0.839000000000000634,-0.429166109204088209
0.840000000000000635,-0.426032304308955834
0.841000000000000636,-0.422920510273310679
0.842000000000000637,-0.419830579612547272
0.843000000000000638,-0.416762365763108267
0.844000000000000639,-0.413715723077607567
0.845000000000000639,-0.410690506819948287
0.846000000000000640,-0.407686573160459254
0.847000000000000641,-0.404703779171063538
0.848000000000000642,-0.401741982820435439
0.849000000000000643,-0.398801042969190445
0.850000000000000644,-0.395880819365100500
0.851000000000000645,-0.392981172638287579
0.852000000000000646,-0.390101964296482140
0.853000000000000647,-0.387243056720258272
0.854000000000000647,-0.384404313158299094
0.855000000000000648,-0.381585597722679915
0.856000000000000649,-0.378786775384166108
0.857000000000000650,-0.376007711967524028
0.858000000000000651,-0.373248274146841641
0.859000000000000652,-0.370508329440877415
0.860000000000000653,-0.367787746208423694
0.861000000000000654,-0.365086393643666240
0.862000000000000655,-0.362404141771594801
0.863000000000000655,-0.359740861443385851
0.864000000000000656,-0.357096424331845186
0.865000000000000657,-0.354470702926830417
0.866000000000000658,-0.351863570530710712
0.867000000000000659,-0.349274901253839698
0.868000000000000660,-0.346704570010032131
0.869000000000000661,-0.344152452512067830
0.870000000000000662,-0.341618425267210091
0.871000000000000663,-0.339102365572741760
0.872000000000000663,-0.336604151511508021
0.873000000000000664,-0.334123661947485107
0.874000000000000665,-0.331660776521359890
0.875000000000000666,-0.329215375646130071
0.876000000000000667,-0.326787340502715185
0.877000000000000668,-0.324376553035586712
0.878000000000000669,-0.321982895948419334
0.879000000000000670,-0.319606252699742577
0.880000000000000671,-0.317246507498633590
0.881000000000000671,-0.314903545300398657
0.882000000000000672,-0.312577251802296452
0.883000000000000673,-0.310267513439259124
0.884000000000000674,-0.307974217379641702
0.885000000000000675,-0.305697251520976043
0.886000000000000676,-0.303436504485759262
0.887000000000000677,-0.301191865617243759
0.888000000000000678,-0.298963224975238917
0.889000000000000679,-0.296750473331953368
0.890000000000000679,-0.294553502167831383
0.891000000000000680,-0.292372203667419228
0.892000000000000681,-0.290206470715238862
0.893000000000000682,-0.288056196891684435
0.894000000000000683,-0.285921276468931396
0.895000000000000684,-0.283801604406871744
0.896000000000000685,-0.281697076349053832
0.897000000000000686,-0.279607588618644987
0.898000000000000687,-0.277533038214418659
0.899000000000000687,-0.275473322806740251
0.900000000000000688,-0.273428340733585851
0.901000000000000689,-0.271397990996571636
0.902000000000000690,-0.269382173257005253
0.903000000000000691,-0.267380787831946021
0.904000000000000692,-0.265393735690288790
0.905000000000000693,-0.263420918448860619
0.906000000000000694,-0.261462238368543542
0.907000000000000695,-0.259517598350394119
0.908000000000000695,-0.257586901931812828
0.909000000000000696,-0.255670053282694543
0.910000000000000697,-0.253766957201624455
0.911000000000000698,-0.251877519112073567
0.912000000000000699,-0.250001645058619215
0.913000000000000700,-0.248139241703192154
0.914000000000000701,-0.246290216321307154
0.915000000000000702,-0.244454476798358966
0.916000000000000703,-0.242631931625894748
0.917000000000000703,-0.240822489897928399
0.918000000000000704,-0.239026061307256871
0.919000000000000705,-0.237242556141802730
0.920000000000000706,-0.235471885280976373
0.921000000000000707,-0.233713960192042658
0.922000000000000708,-0.231968692926514730
0.923000000000000709,-0.230235996116573555
0.924000000000000710,-0.228515782971477177
0.925000000000000711,-0.226807967274021138
0.926000000000000711,-0.225112463376986816
0.927000000000000712,-0.223429186199627511
0.928000000000000713,-0.221758051224159480
0.929000000000000714,-0.220098974492283050
0.930000000000000715,-0.218451872601700181
0.931000000000000716,-0.216816662702669527
0.932000000000000717,-0.215193262494574183
0.933000000000000718,-0.213581590222492068
0.934000000000000719,-0.211981564673806300
0.935000000000000719,-0.210393105174816381
0.936000000000000720,-0.208816131587371473
0.937000000000000721,-0.207250564305518331
0.938000000000000722,-0.205696324252176405
0.939000000000000723,-0.204153332875813526
0.940000000000000724,-0.202621512147153432
0.941000000000000725,-0.201100784555890144
0.942000000000000726,-0.199591073107429545
0.943000000000000727,-0.198092301319634012
0.944000000000000727,-0.196604393219599410
0.945000000000000728,-0.195127273340441748
0.946000000000000729,-0.193660866718091962
0.947000000000000730,-0.192205098888126008
0.948000000000000731,-0.190759895882594899
0.949000000000000732,-0.189325184226887266
0.950000000000000733,-0.187900890936587933
0.951000000000000734,-0.186486943514381220
0.952000000000000735,-0.185083269946945073
0.953000000000000735,-0.183689798701868245
0.954000000000000736,-0.182306458724598885
0.955000000000000737,-0.180933179435393277
0.956000000000000738,-0.179569890726287790
0.957000000000000739,-0.178216522958086016
0.958000000000000740,-0.176873006957362910
0.959000000000000741,-0.175539274013483571
0.960000000000000742,-0.174215255875647901
0.961000000000000743,-0.172900884749932676
0.962000000000000743,-0.171596093296368574
0.963000000000000744,-0.170300814626021063
0.964000000000000745,-0.169014982298104188
0.965000000000000746,-0.167738530317085216
0.966000000000000747,-0.166471393129825479
0.967000000000000748,-0.165213505622728851
0.968000000000000749,-0.163964803118917896
0.969000000000000750,-0.162725221375401519
0.970000000000000751,-0.161494696580290614
0.971000000000000751,-0.160273165349999303
0.972000000000000752,-0.159060564726475284
0.973000000000000753,-0.157856832174465500
0.974000000000000754,-0.156661905578754895
0.975000000000000755,-0.155475723241459141
0.976000000000000756,-0.154298223879315161
0.977000000000000757,-0.153129346620989704
0.978000000000000758,-0.151969031004399568
0.979000000000000759,-0.150817216974068413
0.980000000000000759,-0.149673844878462414
0.981000000000000760,-0.148538855467373471
0.982000000000000761,-0.147412189889310485
0.983000000000000762,-0.146293789688890979
0.984000000000000763,-0.145183596804260795
0.985000000000000764,-0.144081553564537002
0.986000000000000765,-0.142987602687245197
0.987000000000000766,-0.141901687275783200
0.988000000000000766,-0.140823750816902404
0.989000000000000767,-0.139753737178206217
0.990000000000000768,-0.138691590605650034
0.991000000000000769,-0.137637255721063362
0.992000000000000770,-0.136590677519692894
0.993000000000000771,-0.135551801367755909
0.994000000000000772,-0.134520573000000337
0.995000000000000773,-0.133496938517296437
0.996000000000000774,-0.132480844384224083
0.997000000000000774,-0.131472237426690036
0.998000000000000775,-0.130471064829549843
0.999000000000000776,-0.129477274134250836
1.000000000000000666,-0.128490813236481205
1.001000000000000778,-0.127511630383847968
1.002000000000000668,-0.126539674173549110
1.003000000000000780,-0.125574893550073924
1.004000000000000670,-0.124617237802919029
1.005000000000000782,-0.123666656564307670
1.006000000000000671,-0.122723099806935160
1.007000000000000783,-0.121786517841709532
1.008000000000000673,-0.120856861315532221
1.009000000000000785,-0.119934081209071411
1.010000000000000675,-0.119018128834557910
1.011000000000000787,-0.118108955833589088
1.012000000000000677,-0.117206514174959864
1.013000000000000789,-0.116310756152489911
1.014000000000000679,-0.115421634382872007
1.015000000000000790,-0.114539101803537852
1.016000000000000680,-0.113663111670538039
1.017000000000000792,-0.112793617556413928
1.018000000000000682,-0.111930573348119733
1.019000000000000794,-0.111073933244922013
1.020000000000000684,-0.110223651756338012
1.021000000000000796,-0.109379683700071409
1.022000000000000686,-0.108541984199966218
1.023000000000000798,-0.107710508683978731
1.024000000000000687,-0.106885212882148778
1.025000000000000799,-0.106066052824602491
1.026000000000000689,-0.105252984839549299
1.027000000000000801,-0.104445965551305364
1.028000000000000691,-0.103644951878321498
1.029000000000000803,-0.102849901031226487
1.030000000000000693,-0.102060770510881943
1.031000000000000805,-0.101277518106453773
1.032000000000000695,-0.100500101893484642
1.033000000000000806,-0.099728480231998831
1.034000000000000696,-0.098962611764595684
1.035000000000000808,-0.098202455414570095
1.036000000000000698,-0.097447970384038601
1.037000000000000810,-0.096699116152095199
1.038000000000000700,-0.095955852472940334
1.039000000000000812,-0.095218139374061636
1.040000000000000702,-0.094485937154408464
1.041000000000000814,-0.093759206382580743
1.042000000000000703,-0.093037907895018521
1.043000000000000815,-0.092322002794227170
1.044000000000000705,-0.091611452446996394
1.045000000000000817,-0.090906218482628365
1.046000000000000707,-0.090206262791192260
1.047000000000000819,-0.089511547521782392
1.048000000000000709,-0.088822035080772174
1.049000000000000821,-0.088137688130117603
1.050000000000000711,-0.087458469585624518
1.051000000000000822,-0.086784342615271348
1.052000000000000712,-0.086115270637510510
1.053000000000000824,-0.085451217319591447
1.054000000000000714,-0.084792146575906321
1.055000000000000826,-0.084138022566325021
1.056000000000000716,-0.083488809694563140
1.057000000000000828,-0.082844472606538933
1.058000000000000718,-0.082204976188757439
1.059000000000000830,-0.081570285566699180
1.060000000000000719,-0.080940366103222527
1.061000000000000831,-0.080315183396962822
1.062000000000000721,-0.079694703280766846
1.063000000000000833,-0.079078891820119179
1.064000000000000723,-0.078467715311576217
1.065000000000000835,-0.077861140281224275
1.066000000000000725,-0.077259133483147613
1.067000000000000837,-0.076661661897881442
1.068000000000000727,-0.076068692730916626
1.069000000000000838,-0.075480193411171667
1.070000000000000728,-0.074896131589508946
1.071000000000000840,-0.074316475137238408
1.072000000000000730,-0.073741192144642587
1.073000000000000842,-0.073170250919509197
1.074000000000000732,-0.072603619985665446
1.075000000000000844,-0.072041268081538906
1.076000000000000734,-0.071483164158710560
1.077000000000000846,-0.070929277380484296
1.078000000000000735,-0.070379577120475129
1.079000000000000847,-0.069834032961185649
1.080000000000000737,-0.069292614692618174
1.081000000000000849,-0.068755292310866328
1.082000000000000739,-0.068222036016746646
1.083000000000000851,-0.067692816214413948
1.084000000000000741,-0.067167603510007307
1.085000000000000853,-0.066646368710281123
1.086000000000000743,-0.066129082821269211
1.087000000000000854,-0.065615717046940719
1.088000000000000744,-0.065106242787880964
1.089000000000000856,-0.064600631639954137
1.090000000000000746,-0.064098855393008150
1.091000000000000858,-0.063600886029568329
1.092000000000000748,-0.063106695723538789
1.093000000000000860,-0.062616256838922607
1.094000000000000750,-0.062129541928543329
1.095000000000000862,-0.061646523732776536
1.096000000000000751,-0.061167175178294807
1.097000000000000863,-0.060691469376807437
1.098000000000000753,-0.060219379623829693
1.099000000000000865,-0.059750879397442745
1.100000000000000755,-0.059285942357062728
1.101000000000000867,-0.058824542342231001
1.102000000000000757,-0.058366653371403357
1.103000000000000869,-0.057912249640747794
1.104000000000000759,-0.057461305522943304
1.105000000000000870,-0.057013795566010730
1.106000000000000760,-0.056569694492117940
1.107000000000000872,-0.056128977196422312
1.108000000000000762,-0.055691618745909201
1.109000000000000874,-0.055257594378228123
1.110000000000000764,-0.054826879500556501
1.111000000000000876,-0.054399449688456961
1.112000000000000766,-0.053975280684745622
1.113000000000000878,-0.053554348398372031
1.114000000000000767,-0.053136628903306317
1.115000000000000879,-0.052722098437421594
1.116000000000000769,-0.052310733401401396
1.117000000000000881,-0.051902510357645384
1.118000000000000771,-0.051497406029180473
1.119000000000000883,-0.051095397298585976
1.120000000000000773,-0.050696461206923706
1.121000000000000885,-0.050300574952665621
1.122000000000000774,-0.049907715890645750
1.123000000000000886,-0.049517861531007491
1.124000000000000776,-0.049130989538163548
1.125000000000000888,-0.048747077729752751
1.126000000000000778,-0.048366104075618796
1.127000000000000890,-0.047988046696791423
1.128000000000000780,-0.047612883864459429
1.129000000000000892,-0.047240593998975344
1.130000000000000782,-0.046871155668846462
1.131000000000000894,-0.046504547589746960
1.132000000000000783,-0.046140748623522743
1.133000000000000895,-0.045779737777221399
1.134000000000000785,-0.045421494202100718
1.135000000000000897,-0.045065997192682693
1.136000000000000787,-0.044713226185773468
1.137000000000000899,-0.044363160759521458
1.138000000000000789,-0.044015780632457306
1.139000000000000901,-0.043671065662569494
1.140000000000000790,-0.043328995846353240
1.141000000000000902,-0.042989551317880473
1.142000000000000792,-0.042652712347892377
1.143000000000000904,-0.042318459342869610
1.144000000000000794,-0.041986772844129980
1.145000000000000906,-0.041657633526911084
1.146000000000000796,-0.041331022199491654
1.147000000000000908,-0.041006919802282757
1.148000000000000798,-0.040685307406952365
1.149000000000000909,-0.040366166215539893
1.150000000000000799,-0.040049477559581353
1.151000000000000689,-0.039735222899245644
1.152000000000000801,-0.039423383822472721
1.153000000000000913,-0.039113942044110596
1.154000000000000803,-0.038806879405070438
1.155000000000000693,-0.038502177871478159
1.156000000000000805,-0.038199819533842980
1.157000000000000917,-0.037899786606210448
1.158000000000000806,-0.037602061425348624
1.159000000000000696,-0.037306626449915725
1.160000000000000808,-0.037013464259649340
1.161000000000000920,-0.036722557554550998
1.162000000000000810,-0.036433889154086851
1.163000000000000700,-0.036147441996377726
1.164000000000000812,-0.035863199137416986
1.165000000000000924,-0.035581143750266622
1.166000000000000814,-0.035301259124286229
1.167000000000000703,-0.035023528664345042
1.168000000000000815,-0.034747935890056342
1.169000000000000927,-0.034474464434999498
1.170000000000000817,-0.034203098045969597
1.171000000000000707,-0.033933820582202734
1.172000000000000819,-0.033666616014641111
1.173000000000000931,-0.033401468425174184
1.174000000000000821,-0.033138362005896552
1.175000000000000711,-0.032877281058375854
1.176000000000000822,-0.032618209992916133
1.177000000000000934,-0.032361133327830235
1.178000000000000824,-0.032106035688718115
1.179000000000000714,-0.031852901807746019
1.180000000000000826,-0.031601716522942025
1.181000000000000938,-0.031352464777476975
1.182000000000000828,-0.031105131618966837
1.183000000000000718,-0.030859702198774978
1.184000000000000830,-0.030616161771315438
1.185000000000000941,-0.030374495693361592
1.186000000000000831,-0.030134689423370671
1.187000000000000721,-0.029896728520790998
1.188000000000000833,-0.029660598645398856
1.189000000000000945,-0.029426285556619934
1.190000000000000835,-0.029193775112867276
1.191000000000000725,-0.028963053270869066
1.192000000000000837,-0.028734106085034926
1.193000000000000949,-0.028506919706771237
1.194000000000000838,-0.028281480383862450
1.195000000000000728,-0.028057774459805333
1.196000000000000840,-0.027835788373179914
1.197000000000000952,-0.027615508657015675
1.198000000000000842,-0.027396921938149365
1.199000000000000732,-0.027180014936614628
1.200000000000000844,-0.026964774464997909
1.201000000000000956,-0.026751187427843000
1.202000000000000846,-0.026539240821017485
1.203000000000000735,-0.026328921731118799
1.204000000000000847,-0.026120217334851370
1.205000000000000959,-0.025913114898442002
1.206000000000000849,-0.025707601777027394
1.207000000000000739,-0.025503665414068132
1.208000000000000851,-0.025301293340756714
1.209000000000000963,-0.025100473175433756
1.210000000000000853,-0.024901192623002937
1.211000000000000743,-0.024703439474352436
1.212000000000000854,-0.024507201605785275
1.213000000000000966,-0.024312466978443671
1.214000000000000856,-0.024119223637749605
1.215000000000000746,-0.023927459712829842
1.216000000000000858,-0.023737163415975145
1.217000000000000970,-0.023548323042067585
1.218000000000000860,-0.023360926968037453
1.219000000000000750,-0.023174963652318838
1.220000000000000862,-0.022990421634297667
1.221000000000000973,-0.022807289533775844
1.222000000000000863,-0.022625556050436427
1.223000000000000753,-0.022445209963304083
1.224000000000000865,-0.022266240130223634
1.225000000000000977,-0.022088635487328187
1.226000000000000867,-0.021912385048518994
1.227000000000000757,-0.021737477904947608
1.228000000000000869,-0.021563903224491653
1.229000000000000981,-0.021391650251264084
1.230000000000000870,-0.021220708305077857
1.231000000000000760,-0.021051066780959009
1.232000000000000872,-0.020882715148642796
1.233000000000000984,-0.020715642952063934
1.234000000000000874,-0.020549839808879859
1.235000000000000764,-0.020385295409960608
1.236000000000000876,-0.020221999518913399
1.237000000000000988,-0.020059941971589484
1.238000000000000878,-0.019899112675610880
1.239000000000000767,-0.019739501609881385
1.240000000000000879,-0.019581098824120589
1.241000000000000991,-0.019423894438383243
1.242000000000000881,-0.019267878642595861
1.243000000000000771,-0.019113041696091716
1.244000000000000883,-0.018959373927138555
1.245000000000000995,-0.018806865732492420
1.246000000000000885,-0.018655507576931490
1.247000000000000774,-0.018505289992804968
1.248000000000000886,-0.018356203579581572
1.249000000000000998,-0.018208239003405173
1.250000000000000888,-0.018061386996648238
1.251000000000000778,-0.017915638357467862
1.252000000000000890,-0.017770983949372106
1.253000000000001002,-0.017627414700775331
1.254000000000000892,-0.017484921604579554
1.255000000000000782,-0.017343495717731409
1.256000000000000894,-0.017203128160799872
1.257000000000001005,-0.017063810117554184
1.258000000000000895,-0.016925532834541922
1.259000000000000785,-0.016788287620663526
1.260000000000000897,-0.016652065846767365
1.261000000000001009,-0.016516858945229036
1.262000000000000899,-0.016382658409542755
1.263000000000000789,-0.016249455793914007
1.264000000000000901,-0.016117242712859463
1.265000000000001013,-0.015986010840795196
1.266000000000000902,-0.015855751911644379
1.267000000000000792,-0.015726457718440577
1.268000000000000904,-0.015598120112929345
1.269000000000001016,-0.015470731005179325
1.270000000000000906,-0.015344282363195174
1.271000000000000796,-0.015218766212528234
1.272000000000000908,-0.015094174635891758
1.273000000000001020,-0.014970499772784343
1.274000000000000909,-0.014847733819106895
1.275000000000000799,-0.014725869026787370
1.276000000000000911,-0.014604897703412004
1.277000000000001023,-0.014484812211844746
1.278000000000000913,-0.014365604969867649
1.279000000000000803,-0.014247268449807209
1.280000000000000915,-0.014129795178182039
1.281000000000001027,-0.014013177735321649
1.282000000000000917,-0.013897408755029225
1.283000000000000806,-0.013782480924209925
1.284000000000000918,-0.013668386982524549
1.285000000000001030,-0.013555119722031475
1.286000000000000920,-0.013442671986846072
1.287000000000000810,-0.013331036672780230
1.288000000000000922,-0.013220206727013781
1.289000000000001034,-0.013110175147737152
1.290000000000000924,-0.013000934983815091
1.291000000000000814,-0.012892479334458778
1.292000000000000925,-0.012784801348870426
1.293000000000001037,-0.012677894225929905
1.294000000000000927,-0.012571751213848575
1.295000000000000817,-0.012466365609849392
1.296000000000000929,-0.012361730759831397
1.297000000000001041,-0.012257840058049325
1.298000000000000931,-0.012154686946794922
1.299000000000000821,-0.012052264916070008
1.300000000000000933,-0.011950567503267390
1.301000000000001044,-0.011849588292861169
1.302000000000000934,-0.011749320916083118
1.303000000000000824,-0.011649759050621725
1.304000000000000936,-0.011550896420297949
1.305000000000001048,-0.011452726794771637
1.306000000000000938,-0.011355243989229149
1.307000000000000828,-0.011258441864071610
1.308000000000000940,-0.011162314324623453
1.309000000000001052,-0.011066855320832125
1.310000000000000941,-0.010972058846965426
1.311000000000000831,-0.010877918941312447
1.312000000000000943,-0.010784429685892532
1.313000000000001055,-0.010691585206173452
1.314000000000000945,-0.010599379670764519
1.315000000000000835,-0.010507807291134513
1.316000000000000947,-0.010416862321326608
1.317000000000001059,-0.010326539057677530
1.318000000000000949,-0.010236831838522807
1.319000000000000838,-0.010147735043930028
1.320000000000000950,-0.010059243095411296
1.321000000000001062,-0.009971350455643362
1.322000000000000952,-0.009884051628201636
1.323000000000000842,-0.009797341157279500
1.324000000000000954,-0.009711213627421861
1.325000000000001066,-0.009625663663244976
1.326000000000000956,-0.009540685929183477
1.327000000000000846,-0.009456275129208682
1.328000000000000957,-0.009372426006576571
1.329000000000001069,-0.009289133343552879
1.330000000000000959,-0.009206391961165999
1.331000000000000849,-0.009124196718933679
1.332000000000000961,-0.009042542514612298
1.333000000000001073,-0.008961424283939581
1.334000000000000963,-0.008880837000382513
1.335000000000000853,-0.008800775674876719
1.336000000000000965,-0.008721235355586891
1.337000000000001076,-0.008642211127648108
1.338000000000000966,-0.008563698112920163
1.339000000000000856,-0.008485691469747371
1.340000000000000968,-0.008408186392702520
1.341000000000001080,-0.008331178112354128
1.342000000000000970,-0.008254661895020218
1.343000000000000860,-0.008178633042528929
1.344000000000000972,-0.008103086891980195
1.345000000000001084,-0.008028018815515641
1.346000000000000973,-0.007953424220069796
1.347000000000000863,-0.007879298547149159
1.348000000000000975,-0.007805637272591740
1.349000000000001087,-0.007732435906343526
1.350000000000000977,-0.007659689992223158
1.351000000000000867,-0.007587395107701640
1.352000000000000979,-0.007515546863664388
1.353000000000001091,-0.007444140904199729
1.354000000000000981,-0.007373172906372542
1.355000000000000870,-0.007302638579992304
1.356000000000000982,-0.007232533667406307
1.357000000000001094,-0.007162853943277307
1.358000000000000984,-0.007093595214358673
1.359000000000000874,-0.007024753319287843
1.360000000000000986,-0.006956324128367668
1.361000000000001098,-0.006888303543356990
1.362000000000000988,-0.006820687497248042
1.363000000000000878,-0.006753471954069246
1.364000000000000989,-0.006686652908674623
1.365000000000001101,-0.006620226386524745
1.366000000000000991,-0.006554188443492580
1.367000000000000881,-0.006488535165653700
1.368000000000000993,-0.006423262669084316
1.369000000000001105,-0.006358367099658124
1.370000000000000995,-0.006293844632842547
1.371000000000000885,-0.006229691473505246
1.372000000000000997,-0.006165903855711983
1.373000000000001108,-0.006102478042535128
1.374000000000000998,-0.006039410325838540
1.375000000000000888,-0.005976697026115934
1.376000000000001000,-0.005914334492267164
1.377000000000001112,-0.005852319101425734
1.378000000000001002,-0.005790647258756334
1.379000000000000892,-0.005729315397273775
1.380000000000001004,-0.005668319977647946
1.381000000000001116,-0.005607657488025950
1.382000000000001005,-0.005547324443834311
1.383000000000000895,-0.005487317387603685
1.384000000000001007,-0.005427632888783770
1.385000000000001119,-0.005368267543558822
1.386000000000001009,-0.005309217974669542
1.387000000000000899,-0.005250480831226023
1.388000000000001011,-0.005192052788547502
1.389000000000001123,-0.005133930547958388
1.390000000000001013,-0.005076110836635507
1.391000000000000902,-0.005018590407417400
1.392000000000001014,-0.004961366038640513
1.393000000000001126,-0.004904434533959874
1.394000000000001016,-0.004847792722183128
1.395000000000000906,-0.004791437457093987
1.396000000000001018,-0.004735365617282656
1.397000000000001130,-0.004679574105984743
1.398000000000001020,-0.004624059850909022
1.399000000000000909,-0.004568819804068932
1.400000000000001021,-0.004513850941619542
1.401000000000001133,-0.004459150263698418
1.402000000000001023,-0.004404714794254241
1.403000000000000913,-0.004350541580888974
1.404000000000001025,-0.004296627694698250
1.405000000000001137,-0.004242970230109696
1.406000000000001027,-0.004189566304721678
1.407000000000000917,-0.004136413059156048
1.408000000000001029,-0.004083507656883338
1.409000000000001140,-0.004030847284086298
1.410000000000001030,-0.003978429149491459
1.411000000000000920,-0.003926250484221998
1.412000000000001032,-0.003874308541641689
1.413000000000001144,-0.003822600597206776
1.414000000000001034,-0.003771123948313397
1.415000000000000924,-0.003719875914143271
1.416000000000001036,-0.003668853835524768
1.417000000000001148,-0.003618055074778358
1.418000000000001037,-0.003567477015569131
1.419000000000000927,-0.003517117062764442
1.420000000000001039,-0.003466972642283784
1.421000000000001151,-0.003417041200964532
1.422000000000001041,-0.003367320206408757
1.423000000000000931,-0.003317807146843404
1.424000000000001043,-0.003268499530983383
1.425000000000001155,-0.003219394887886723
1.426000000000001044,-0.003170490766816971
1.427000000000000934,-0.003121784737107747
1.428000000000001046,-0.003073274388018601
1.429000000000001158,-0.003024957328599794
1.430000000000001048,-0.002976831187562916
1.431000000000000938,-0.002928893613138588
1.432000000000001050,-0.002881142272946059
1.433000000000001162,-0.002833574853859281
1.434000000000001052,-0.002786189061872330
1.435000000000000941,-0.002738982621973517
1.436000000000001053,-0.002691953278008869
1.437000000000001165,-0.002645098792551267
1.438000000000001055,-0.002598416946783317
1.439000000000000945,-0.002551905540354654
1.440000000000001057,-0.002505562391263683
1.441000000000001169,-0.002459385335723285
1.442000000000001059,-0.002413372228043776
1.443000000000000949,-0.002367520940508206
1.444000000000001060,-0.002321829363238559
1.445000000000001172,-0.002276295404079281
1.446000000000001062,-0.002230916988479363
1.447000000000000952,-0.002185692059358418
1.448000000000001064,-0.002140618576997261
1.449000000000001176,-0.002095694518916500
1.450000000000001066,-0.002050917879746225
1.451000000000000956,-0.002006286671122079
1.452000000000001068,-0.001961798921559249
1.453000000000001180,-0.001917452676337027
1.454000000000001069,-0.001873245997383522
1.455000000000000959,-0.001829176963159385
1.456000000000001071,-0.001785243668540099
1.457000000000001183,-0.001741444224711986
1.458000000000001073,-0.001697776759049412
1.459000000000000963,-0.001654239415000729
1.460000000000001075,-0.001610830351986960
1.461000000000001187,-0.001567547745278448
1.462000000000001076,-0.001524389785900375
1.463000000000000966,-0.001481354680504760
1.464000000000001078,-0.001438440651270729
1.465000000000001190,-0.001395645935805752
1.466000000000001080,-0.001352968787013606
1.467000000000000970,-0.001310407473014218
1.468000000000001082,-0.001267960277021797
1.469000000000001194,-0.001225625497241557
1.470000000000001084,-0.001183401446769208
1.471000000000000973,-0.001141286453481017
1.472000000000001085,-0.001099278859938843
1.473000000000001197,-0.001057377023280014
1.474000000000001087,-0.001015579315117435
1.475000000000000977,-0.000973884121436478
1.476000000000001089,-0.000932289842500994
1.477000000000001201,-0.000890794892746403
1.478000000000001091,-0.000849397700679616
1.479000000000000981,-0.000808096708789385
1.480000000000001092,-0.000766890373433344
1.481000000000001204,-0.000725777164755894
1.482000000000001094,-0.000684755566580408
1.483000000000000984,-0.000643824076320517
1.484000000000001096,-0.000602981204880747
1.485000000000001208,-0.000562225476555094
1.486000000000001098,-0.000521555428948432
1.487000000000000988,-0.000480969612868604
1.488000000000001100,-0.000440466592237260
1.489000000000001211,-0.000400044944000865
1.490000000000001101,-0.000359703258037226
1.491000000000000991,-0.000319440137056853
1.492000000000001103,-0.000279254196527205
1.493000000000001215,-0.000239144064568019
1.494000000000001105,-0.000199108381867705
1.495000000000000995,-0.000159145801594970
1.496000000000001107,-0.000119254989310742
1.497000000000001219,-0.000079434622875806
1.498000000000001108,-0.000039683392371198
1.499000000000000998,0.000000000000000000
