# Cu001_CS-693-AC
# h[nm],U(h)[kJ/mol]
0.149999999999999994,96.275685637581389642
0.150999999999999995,95.843108669932689736
0.151999999999999996,92.912156367364289622
0.152999999999999997,89.462734862042594841
0.153999999999999998,86.265352172276294596
0.154999999999999999,83.496003084565785457
0.156000000000000000,81.080024471754242654
0.157000000000000001,78.871721389363443677
0.158000000000000002,76.738029265302515114
0.159000000000000002,74.588916102246116679
0.160000000000000003,72.380503737804303910
0.161000000000000004,70.106126348175592966
0.162000000000000005,67.783765526609656149
0.163000000000000006,65.444146736857987889
0.164000000000000007,63.121329584493764742
0.165000000000000008,60.846254101341855858
0.166000000000000009,58.643005170100209966
0.167000000000000010,56.527257686962151695
0.168000000000000010,54.506292813074182391
0.169000000000000011,52.580022016932026929
0.170000000000000012,50.742554558192374259
0.171000000000000013,48.983957352943242824
0.172000000000000014,47.291963187480504871
0.173000000000000015,45.653474322164512955
0.174000000000000016,44.055780440553959920
0.175000000000000017,42.487463063570231725
0.176000000000000018,40.938995193969951458
0.177000000000000018,39.403068033985796603
0.178000000000000019,37.874689165118994083
0.179000000000000020,36.351101375920464420
0.180000000000000021,34.831570743916998367
0.181000000000000022,33.317088540312909117
0.182000000000000023,31.810025513201782843
0.183000000000000024,30.313770212442364027
0.184000000000000025,28.832376018157674480
0.185000000000000026,27.370234935051275471
0.186000000000000026,25.931790324412723692
0.187000000000000027,24.521295722141456253
0.188000000000000028,23.142622783822979216
0.189000000000000029,21.799118182843404412
0.190000000000000030,20.493506894013126640
0.191000000000000031,19.227837625943170252
0.192000000000000032,18.003465111392465303
0.193000000000000033,16.821063415345079761
0.194000000000000034,15.680664270338118271
0.195000000000000034,14.581714601671436071
0.196000000000000035,13.523147777466089536
0.197000000000000036,12.503463638552393178
0.198000000000000037,11.520812971795288959
0.199000000000000038,10.573082740375374655
0.200000000000000039,9.657979039032856150
0.201000000000000040,8.773105373961929132
0.202000000000000041,7.916034456484098314
0.203000000000000042,7.084372234019878256
0.204000000000000042,6.275813353777617287
0.205000000000000043,5.488187660795150968
0.206000000000000044,4.719497672557379175
0.207000000000000045,3.967947249836403678
0.208000000000000046,3.231961901806997162
0.209000000000000047,2.510201328134910703
0.210000000000000048,1.801564917503478913
0.211000000000000049,1.105190997089427363
0.212000000000000050,0.420450666952650043
0.213000000000000050,-0.253062936915379511
0.214000000000000051,-0.915549121494540707
0.215000000000000052,-1.567017061604117023
0.216000000000000053,-2.207305422639280756
0.217000000000000054,-2.836103491431557266
0.218000000000000055,-3.452973190820261440
0.219000000000000056,-4.057371422872261491
0.220000000000000057,-4.648672256593735064
0.221000000000000058,-5.226188546421513870
0.222000000000000058,-5.789192636173335238
0.223000000000000059,-6.336935868233993574
0.224000000000000060,-6.868666678654721913
0.225000000000000061,-7.383647114909694942
0.226000000000000062,-7.881167663889833364
0.227000000000000063,-8.360560323120944659
0.228000000000000064,-8.821209888129676102
0.229000000000000065,-9.262563463441054523
0.230000000000000066,-9.684138234062903194
0.231000000000000066,-10.085527558768321299
0.232000000000000067,-10.466405466347497466
0.233000000000000068,-10.826529651628428397
0.234000000000000069,-11.165743079842902929
0.235000000000000070,-11.483974316233636515
0.236000000000000071,-11.781236703050502967
0.237000000000000072,-12.057626508653209285
0.238000000000000073,-12.313320173690508241
0.239000000000000073,-12.548570777610823512
0.240000000000000074,-12.763703845403355785
0.241000000000000075,-12.959112609769601221
0.242000000000000076,-13.135252838159583888
0.243000000000000077,-13.292637327521745760
0.244000000000000078,-13.431830162431641185
0.245000000000000079,-13.553440824677604581
0.246000000000000080,-13.658118234562866888
0.247000000000000081,-13.746544796280037559
0.248000000000000081,-13.819430511851299670
0.249000000000000082,-13.877507220410823408
0.250000000000000111,-13.921523012122481333
0.251000000000000112,-13.952236858844816680
0.252000000000000113,-13.970413496832259526
0.253000000000000114,-13.976818590336019810
0.254000000000000115,-13.972214198972926269
0.255000000000000115,-13.957354566179958510
0.256000000000000116,-13.932982240981029776
0.257000000000000117,-13.899824540659647454
0.258000000000000118,-13.858590357753655553
0.259000000000000119,-13.809967311057022243
0.260000000000000120,-13.754619237014139799
0.261000000000000121,-13.693184015006568899
0.262000000000000122,-13.626271717541655448
0.263000000000000123,-13.554463074233282782
0.264000000000000123,-13.478308236694985567
0.265000000000000124,-13.398325830018928073
0.266000000000000125,-13.315002275367429974
0.267000000000000126,-13.228791367330163808
0.268000000000000127,-13.140114089076638137
0.269000000000000128,-13.049358647935118682
0.270000000000000129,-12.956880713832486407
0.271000000000000130,-12.863003843012412730
0.272000000000000131,-12.768020069590248156
0.273000000000000131,-12.672190647781240713
0.274000000000000132,-12.575746928036512173
0.275000000000000133,-12.478891350819141692
0.276000000000000134,-12.381798542335605617
0.277000000000000135,-12.284616497189976059
0.278000000000000136,-12.187467833635553305
0.279000000000000137,-12.090451107848645407
0.280000000000000138,-11.993642174430783953
0.281000000000000139,-11.897095581147318910
0.282000000000000139,-11.800845986724592507
0.283000000000000140,-11.704909591344806685
0.284000000000000141,-11.609285570291341116
0.285000000000000142,-11.513957502000872424
0.286000000000000143,-11.418894782566786361
0.287000000000000144,-11.324054019506412772
0.288000000000000145,-11.229380398349317005
0.289000000000000146,-11.134809016320780017
0.290000000000000147,-11.040266178082593029
0.291000000000000147,-10.945670649149167986
0.292000000000000148,-10.850934863220004445
0.293000000000000149,-10.755966080258245299
0.294000000000000150,-10.660667492698674863
0.295000000000000151,-10.564939277687624752
0.296000000000000152,-10.468679593740205291
0.297000000000000153,-10.371785520649385859
0.298000000000000154,-10.274153941895416864
0.299000000000000155,-10.175682369184794851
0.300000000000000155,-10.076269709095884153
0.301000000000000156,-9.975816972124452064
0.302000000000000157,-9.874227924707984272
0.303000000000000158,-9.771409685063847661
0.304000000000000159,-9.667273263905011405
0.305000000000000160,-9.561734051298042658
0.306000000000000161,-9.454712251105204857
0.307000000000000162,-9.346133264604613800
0.308000000000000163,-9.235928025012714926
0.309000000000000163,-9.124033284742704808
0.310000000000000164,-9.010391857322085585
0.311000000000000165,-8.894952815963907966
0.312000000000000166,-8.777671650841318396
0.313000000000000167,-8.658510387153736332
0.314000000000000168,-8.537437666098266931
0.315000000000000169,-8.414428790871697927
0.316000000000000170,-8.289465739828660418
0.317000000000000171,-8.162537148910942619
0.318000000000000171,-8.033638265442686333
0.319000000000000172,-7.902770875357470359
0.320000000000000173,-7.769943205886969295
0.321000000000000174,-7.635169805697519685
0.322000000000000175,-7.498471404412201835
0.323000000000000176,-7.359874753401845382
0.324000000000000177,-7.219412449670056908
0.325000000000000178,-7.077122744595362391
0.326000000000000179,-6.933049339228818830
0.327000000000000179,-6.787241167777930961
0.328000000000000180,-6.639752170838543854
0.329000000000000181,-6.490641059866574025
0.330000000000000182,-6.339971074309096011
0.331000000000000183,-6.187809732743782654
0.332000000000000184,-6.034228579303013262
0.333000000000000185,-5.879302926588094280
0.334000000000000186,-5.723111596207955287
0.335000000000000187,-5.565736658006681381
0.336000000000000187,-5.407263168975575240
0.337000000000000188,-5.247778912777726568
0.338000000000000189,-5.087374140747256135
0.339000000000000190,-4.926141315161009615
0.340000000000000191,-4.764174855517859797
0.341000000000000192,-4.601570888500703838
0.342000000000000193,-4.438427002236960739
0.343000000000000194,-4.274842005417835544
0.344000000000000195,-4.110915691781589665
0.345000000000000195,-3.946748610414650305
0.346000000000000196,-3.782441842274211208
0.347000000000000197,-3.618096783288554441
0.348000000000000198,-3.453814934346208787
0.349000000000000199,-3.289697698441707452
0.350000000000000200,-3.125846185205381822
0.351000000000000201,-2.962361023005530836
0.352000000000000202,-2.799342178775421353
0.353000000000000203,-2.636888785683074055
0.354000000000000203,-2.475098978729579180
0.355000000000000204,-2.314069738331871129
0.356000000000000205,-2.153896741917605162
0.357000000000000206,-1.994674223533630109
0.358000000000000207,-1.836494841445386994
0.359000000000000208,-1.679449553682060614
0.360000000000000209,-1.523627501461604528
0.361000000000000210,-1.369115900410815545
0.362000000000000210,-1.215999939478153546
0.363000000000000211,-1.064362687421298359
0.364000000000000212,-0.914285006737052486
0.365000000000000213,-0.765845474888204536
0.366000000000000214,-0.619120312670563999
0.367000000000000215,-0.474183319552964722
0.368000000000000216,-0.331105815814067506
0.369000000000000217,-0.189956591291873728
0.370000000000000218,-0.050801860555064103
0.371000000000000218,0.086294775700509918
0.372000000000000219,0.221272363231571179
0.373000000000000220,0.354072621008821531
0.374000000000000221,0.484639962368200394
0.375000000000000222,0.612921510762706512
0.376000000000000223,0.738867110326763998
0.377000000000000224,0.862429331465982107
0.378000000000000225,0.983563471685230617
0.379000000000000226,1.102227551867586364
0.380000000000000226,1.218382308215593568
0.381000000000000227,1.331991180064838298
0.382000000000000228,1.443020293777826923
0.383000000000000229,1.551438442923650296
0.384000000000000230,1.657217064946399976
0.385000000000000231,1.760330214521763192
0.386000000000000232,1.860754533798095078
0.387000000000000233,1.958469219714396914
0.388000000000000234,2.053455988583604785
0.389000000000000234,2.145699038125404634
0.390000000000000235,2.235185007128512868
0.391000000000000236,2.321902932917457196
0.392000000000000237,2.405844206794667706
0.393000000000000238,2.487002527623345394
0.394000000000000239,2.565373853712004770
0.395000000000000240,2.640956353156441505
0.396000000000000241,2.713750352789796594
0.397000000000000242,2.783758285886322348
0.398000000000000242,2.850984638759320067
0.399000000000000243,2.915435896388499870
0.400000000000000244,2.977120487207166377
0.401000000000000245,3.036048727173957129
0.402000000000000246,3.092232763249419314
0.403000000000000247,3.145686516392234733
0.404000000000000248,3.196425624185036174
0.405000000000000249,3.244467383194839183
0.406000000000000250,3.289830691168232679
0.407000000000000250,3.332535989156652168
0.408000000000000251,3.372605203662439433
0.409000000000000252,3.410061688891573795
0.410000000000000253,3.444930169194736269
0.411000000000000254,3.477236681773576699
0.412000000000000255,3.507008519725062001
0.413000000000000256,3.534274175492282843
0.414000000000000257,3.559063284786187609
0.415000000000000258,3.581406571038537212
0.416000000000000258,3.601335790442637297
0.417000000000000259,3.618883677634464391
0.418000000000000260,3.634083892063254329
0.419000000000000261,3.646970965097046324
0.420000000000000262,3.657580247905161563
0.421000000000000263,3.665947860156367533
0.422000000000000264,3.672110639568255230
0.423000000000000265,3.676106092340256648
0.424000000000000266,3.677972344499669255
0.425000000000000266,3.677748094187383465
0.426000000000000267,3.675472564907106054
0.427000000000000268,3.671185459759218617
0.428000000000000269,3.664926916678025837
0.429000000000000270,3.656737464688617045
0.430000000000000271,3.646657981197191312
0.431000000000000272,3.634729650326683270
0.432000000000000273,3.620993922307201185
0.433000000000000274,3.605492473928924024
0.434000000000000274,3.588267170063079270
0.435000000000000275,3.569360026254943197
0.436000000000000276,3.548813172390936188
0.437000000000000277,3.526668817440332671
0.438000000000000278,3.502969215270554937
0.439000000000000279,3.477756631533525766
0.440000000000000280,3.451073311619181627
0.441000000000000281,3.422961449671033218
0.442000000000000282,3.393463158657251455
0.443000000000000282,3.362620441489885703
0.444000000000000283,3.330475163183443499
0.445000000000000284,3.297069024043336238
0.446000000000000285,3.262443533873592205
0.447000000000000286,3.226639987192434944
0.448000000000000287,3.189699439443513640
0.449000000000000288,3.151662684189859842
0.450000000000000289,3.112570231276873489
0.451000000000000290,3.072462285950158467
0.452000000000000290,3.031378728913341369
0.453000000000000291,2.989359097310506197
0.454000000000000292,2.946442566617485603
0.455000000000000293,2.902667933425703062
0.456000000000000294,2.858073599102015194
0.457000000000000295,2.812697554307605152
0.458000000000000296,2.766577364358621782
0.459000000000000297,2.719750155411220227
0.460000000000000298,2.672252601453123155
0.461000000000000298,2.624120912084067392
0.462000000000000299,2.575390821066867897
0.463000000000000300,2.526097575631180092
0.464000000000000301,2.476275926511633863
0.465000000000000302,2.425960118702195523
0.466000000000000303,2.375183882908326716
0.467000000000000304,2.323980427678872029
0.468000000000000305,2.272382432199248292
0.469000000000000306,2.220422039727846020
0.470000000000000306,2.168130851657545488
0.471000000000000307,2.115539922184216604
0.472000000000000308,2.062679753564405694
0.473000000000000309,2.009580291944336405
0.474000000000000310,1.956270923742715384
0.475000000000000311,1.902780472569627346
0.476000000000000312,1.849137196664595306
0.477000000000000313,1.795368786836295971
0.478000000000000314,1.741502364887340892
0.479000000000000314,1.687564482507252661
0.480000000000000315,1.633581120617260130
0.481000000000000316,1.579577689150623687
0.482000000000000317,1.525579027252543129
0.483000000000000318,1.471609403883876954
0.484000000000000319,1.417692518813208347
0.485000000000000320,1.363851503982026481
0.486000000000000321,1.310108925228066434
0.487000000000000322,1.256486784352150554
0.488000000000000322,1.203006521514074612
0.489000000000000323,1.149689017943524183
0.490000000000000324,1.096554598952057535
0.491000000000000325,1.043623037232700446
0.492000000000000326,0.990913556433841158
0.493000000000000327,0.938444834994502708
0.494000000000000328,0.886235010228257236
0.495000000000000329,0.834301682643444176
0.496000000000000330,0.782661920487576879
0.497000000000000330,0.731332264504128693
0.498000000000000331,0.680328732890178478
0.499000000000000332,0.629666826443784133
0.500000000000000333,0.579361533889994673
0.501000000000000334,0.529427337374978935
0.502000000000000335,0.479878218117869904
0.503000000000000336,0.430727662210272200
0.504000000000000337,0.381988666553573053
0.505000000000000338,0.333673744924634752
0.506000000000000338,0.285794934160556902
0.507000000000000339,0.238363800453551405
0.508000000000000340,0.191391445747254169
0.509000000000000341,0.144888514226046733
0.510000000000000342,0.098865198889173375
0.511000000000000343,0.053331248201784545
0.512000000000000344,0.008295972815224983
0.513000000000000345,-0.036231747650793511
0.514000000000000346,-0.080243457771383794
0.515000000000000346,-0.123731119431836678
0.516000000000000347,-0.166687104901896171
0.517000000000000348,-0.209104189875365221
0.518000000000000349,-0.250975546481266742
0.519000000000000350,-0.292294736272489253
0.520000000000000351,-0.333055703197781328
0.521000000000000352,-0.373252766562528149
0.522000000000000353,-0.412880613983691636
0.523000000000000353,-0.451934294344074339
0.524000000000000354,-0.490409210750721303
0.525000000000000355,-0.528301113502301800
0.526000000000000356,-0.565606093069876081
0.527000000000000357,-0.602320573095441514
0.528000000000000358,-0.638441303412463634
0.529000000000000359,-0.673965353092157327
0.530000000000000360,-0.708890103519544179
0.531000000000000361,-0.743213241502715727
0.532000000000000361,-0.776932752418859840
0.533000000000000362,-0.810046913400236379
0.534000000000000363,-0.842554286563300225
0.535000000000000364,-0.874453712283891127
0.536000000000000365,-0.905744302521300448
0.537000000000000366,-0.936425434193889350
0.538000000000000367,-0.966496742608776715
0.539000000000000368,-0.995958114947963935
0.540000000000000369,-1.024809683813158845
0.541000000000000369,-1.053051820831390817
0.542000000000000370,-1.080685130323407739
0.543000000000000371,-1.107710443036727499
0.544000000000000372,-1.134128809945067484
0.545000000000000373,-1.159941496115769244
0.546000000000000374,-1.185149974646769966
0.547000000000000375,-1.209755920674457030
0.548000000000000376,-1.233761205453773213
0.549000000000000377,-1.257167890511694530
0.550000000000000377,-1.279978221875242683
0.551000000000000378,-1.302194624374974463
0.552000000000000379,-1.323819696024890247
0.553000000000000380,-1.344856202479569385
0.554000000000000381,-1.365307071569250130
0.555000000000000382,-1.385175387913540224
0.556000000000000383,-1.404464387614265952
0.557000000000000384,-1.423177453028022565
0.558000000000000385,-1.441318107618781097
0.559000000000000385,-1.458890010890951938
0.560000000000000386,-1.475896953403125211
0.561000000000000387,-1.492342851862759279
0.562000000000000388,-1.508231744301916644
0.563000000000000389,-1.523567785334181579
0.564000000000000390,-1.538355241492727732
0.565000000000000391,-1.552598486649582110
0.566000000000000392,-1.566301997515951339
0.567000000000000393,-1.579470349223498049
0.568000000000000393,-1.592108210986385330
0.569000000000000394,-1.604220341843878739
0.570000000000000395,-1.615811586483209883
0.571000000000000396,-1.626886871142390500
0.572000000000000397,-1.637451199592650397
0.573000000000000398,-1.647509649200082915
0.574000000000000399,-1.657067367066052954
0.575000000000000400,-1.666129566245954319
0.576000000000000401,-1.674701522045755953
0.577000000000000401,-1.682788568395867213
0.578000000000000402,-1.690396094301716889
0.579000000000000403,-1.697529540370487311
0.580000000000000404,-1.704194395413382024
0.581000000000000405,-1.710396193122781794
0.582000000000000406,-1.716140508823650546
0.583000000000000407,-1.721432956298460493
0.584000000000000408,-1.726279184685010737
0.585000000000000409,-1.730684875446315107
0.586000000000000409,-1.734655739411910202
0.587000000000000410,-1.738197513889780721
0.588000000000000411,-1.741315959848109163
0.589000000000000412,-1.744016859166130029
0.590000000000000413,-1.746306011953201232
0.591000000000000414,-1.748189233935347531
0.592000000000000415,-1.749672353908430456
0.593000000000000416,-1.750761211257085392
0.594000000000000417,-1.751461653538624930
0.595000000000000417,-1.751779534131025384
0.596000000000000418,-1.751720709944141863
0.597000000000000419,-1.751291039193315857
0.598000000000000420,-1.750496379234454336
0.599000000000000421,-1.749342584459753880
0.600000000000000422,-1.747835504253156813
0.601000000000000423,-1.745980981004672472
0.602000000000000424,-1.743784848182671210
0.603000000000000425,-1.741252928463297378
0.604000000000000425,-1.738391031916034946
0.605000000000000426,-1.735204954244630615
0.606000000000000427,-1.731700475082433854
0.607000000000000428,-1.727883356341254339
0.608000000000000429,-1.723759340612912583
0.609000000000000430,-1.719334149622511632
0.610000000000000431,-1.714613482732649574
0.611000000000000432,-1.709603015497590750
0.612000000000000433,-1.704308398266594082
0.613000000000000433,-1.698735254835504360
0.614000000000000434,-1.692889181145729172
0.615000000000000435,-1.686775744029716861
0.616000000000000436,-1.680400480002153696
0.617000000000000437,-1.673768894095939430
0.618000000000000438,-1.666886458742134591
0.619000000000000439,-1.659758612693033708
0.620000000000000440,-1.652390759987531821
0.621000000000000441,-1.644788268957934507
0.622000000000000441,-1.636956471277425607
0.623000000000000442,-1.628900661047314458
0.624000000000000443,-1.620626093923328570
0.625000000000000444,-1.612137986280105295
0.626000000000000445,-1.603441514413065594
0.627000000000000446,-1.594541813776954253
0.628000000000000447,-1.585443978260210329
0.629000000000000448,-1.576153059494416420
0.630000000000000449,-1.566674066198045390
0.631000000000000449,-1.557011963553800449
0.632000000000000450,-1.547171672618749660
0.633000000000000451,-1.537158069766548341
0.634000000000000452,-1.526975986161016818
0.635000000000000453,-1.516630207260327712
0.636000000000000454,-1.506125472351155903
0.637000000000000455,-1.495466474112019384
0.638000000000000456,-1.484657858205164604
0.639000000000000457,-1.473704222896290217
0.640000000000000457,-1.462610118701468398
0.641000000000000458,-1.451380048060535000
0.642000000000000459,-1.440018465036382533
0.643000000000000460,-1.428529775039430350
0.644000000000000461,-1.416918334576680039
0.645000000000000462,-1.405188451024722784
0.646000000000000463,-1.393344382426054517
0.647000000000000464,-1.381390337308137539
0.648000000000000465,-1.369330474524570906
0.649000000000000465,-1.357168903117789593
0.650000000000000466,-1.344909682202725332
0.651000000000000467,-1.332556820870840042
0.652000000000000468,-1.320114278113988959
0.653000000000000469,-1.307585962767520815
0.654000000000000470,-1.294975733472149004
0.655000000000000471,-1.282287398653967347
0.656000000000000472,-1.269524716522155483
0.657000000000000473,-1.256691395083813445
0.658000000000000473,-1.243791092175453139
0.659000000000000474,-1.230827415510627354
0.660000000000000475,-1.217803922743204037
0.661000000000000476,-1.204724121545817095
0.662000000000000477,-1.191591469703026096
0.663000000000000478,-1.178409375218701260
0.664000000000000479,-1.165181196437200972
0.665000000000000480,-1.151910242177876187
0.666000000000000481,-1.138599771882501610
0.667000000000000481,-1.125252995775132048
0.668000000000000482,-1.111873075034051306
0.669000000000000483,-1.098463121975351120
0.670000000000000484,-1.085026200247719785
0.671000000000000485,-1.071565325038100758
0.672000000000000486,-1.058083463287764481
0.673000000000000487,-1.044583533918505891
0.674000000000000488,-1.031068408068465114
0.675000000000000488,-1.017540909337337318
0.676000000000000489,-1.004003814040538733
0.677000000000000490,-0.990459851471981900
0.678000000000000491,-0.976911704175162598
0.679000000000000492,-0.963362008222175881
0.680000000000000493,-0.949813353500345570
0.681000000000000494,-0.936268284006182450
0.682000000000000495,-0.922729298146285237
0.683000000000000496,-0.909198849044969060
0.684000000000000496,-0.895679344858234527
0.685000000000000497,-0.882173149093856468
0.686000000000000498,-0.868682580937240489
0.687000000000000499,-0.855209915582836211
0.688000000000000500,-0.841757384570769984
0.689000000000000501,-0.828327176128475506
0.690000000000000502,-0.814921435517054649
0.691000000000000503,-0.801542265382077401
0.692000000000000504,-0.788191726108629198
0.693000000000000504,-0.774871836180333617
0.694000000000000505,-0.761584572542094107
0.695000000000000506,-0.748331870966382873
0.696000000000000507,-0.735115626422783608
0.697000000000000508,-0.721937693450619977
0.698000000000000509,-0.708799886534453583
0.699000000000000510,-0.695703980482189177
0.700000000000000511,-0.682651710805675216
0.701000000000000512,-0.669644774103503426
0.702000000000000512,-0.656684828445909030
0.703000000000000513,-0.643773493761511051
0.704000000000000514,-0.630912352225750039
0.705000000000000515,-0.618102948650840145
0.706000000000000516,-0.605346790877058227
0.707000000000000517,-0.592645350165193374
0.708000000000000518,-0.580000061590025484
0.709000000000000519,-0.567412324434647397
0.710000000000000520,-0.554883502585465704
0.711000000000000520,-0.542414924927788089
0.712000000000000521,-0.530007885741771156
0.713000000000000522,-0.517663645098667691
0.714000000000000523,-0.505383429257179495
0.715000000000000524,-0.493168431059806678
0.716000000000000525,-0.481019810329078923
0.717000000000000526,-0.468938694263498157
0.718000000000000527,-0.456926177833141434
0.719000000000000528,-0.444983324174724415
0.720000000000000528,-0.433111164986106634
0.721000000000000529,-0.421310700920022374
0.722000000000000530,-0.409582901977038616
0.723000000000000531,-0.397928707897554745
0.724000000000000532,-0.386349028552787466
0.725000000000000533,-0.374844744334641544
0.726000000000000534,-0.363416706544354817
0.727000000000000535,-0.352065737779845844
0.728000000000000536,-0.340792632321677946
0.729000000000000536,-0.329598156517539764
0.730000000000000537,-0.318483049165199261
0.731000000000000538,-0.307448021893789281
0.732000000000000539,-0.296493759543439039
0.733000000000000540,-0.285620920543082468
0.734000000000000541,-0.274830137286470433
0.735000000000000542,-0.264122016506226243
0.736000000000000543,-0.253497139645987524
0.737000000000000544,-0.242956063230444219
0.738000000000000544,-0.232499319233365004
0.739000000000000545,-0.222127415443396675
0.740000000000000546,-0.211840835827735330
0.741000000000000547,-0.201640040893483252
0.742000000000000548,-0.191525468046768677
0.743000000000000549,-0.181497531949460750
0.744000000000000550,-0.171556624873519470
0.745000000000000551,-0.161703117052926976
0.746000000000000552,-0.151937357033107345
0.747000000000000552,-0.142259672017873484
0.748000000000000553,-0.132670368213801793
0.749000000000000554,-0.123169731172013755
0.750000000000000555,-0.113758026127387835
0.751000000000000556,-0.104435498335065380
0.752000000000000557,-0.095202373404333879
0.753000000000000558,-0.086058857629766450
0.754000000000000559,-0.077005138319669389
0.755000000000000560,-0.068041384121751092
0.756000000000000560,-0.059167745346035347
0.757000000000000561,-0.050384354284965530
0.758000000000000562,-0.041691325530700249
0.759000000000000563,-0.033088756289587219
0.760000000000000564,-0.024576726693775787
0.761000000000000565,-0.016155300109975235
0.762000000000000566,-0.007824523445327625
0.763000000000000567,0.000415572549589638
0.764000000000000568,0.008564972980682262
0.765000000000000568,0.016623678513152530
0.766000000000000569,0.024591705077233239
0.767000000000000570,0.032469083576848169
0.768000000000000571,0.040255859601203939
0.769000000000000572,0.047952093139317600
0.770000000000000573,0.055557858297473860
0.771000000000000574,0.063073243019647757
0.772000000000000575,0.070498348810844186
0.773000000000000576,0.077833290463413585
0.774000000000000576,0.085078195786288030
0.775000000000000577,0.092233205337166210
0.776000000000000578,0.099298472157666268
0.777000000000000579,0.106274161511373547
0.778000000000000580,0.113160450624872608
0.779000000000000581,0.119957528431677216
0.780000000000000582,0.126665595319113644
0.781000000000000583,0.133284862878094212
0.782000000000000584,0.139815553655840474
0.783000000000000584,0.146257900911492100
0.784000000000000585,0.152612148374612872
0.785000000000000586,0.158878550006610053
0.786000000000000587,0.165057369765009371
0.787000000000000588,0.171148881370612738
0.788000000000000589,0.177153368077529627
0.789000000000000590,0.183071122446029966
0.790000000000000591,0.188902446118270256
0.791000000000000592,0.194647649596807110
0.792000000000000592,0.200307052025969462
0.793000000000000593,0.205880980975982453
0.794000000000000594,0.211369772229924952
0.795000000000000595,0.216773769573421926
0.796000000000000596,0.222093324587131768
0.797000000000000597,0.227328796441933351
0.798000000000000598,0.232480551696882559
0.799000000000000599,0.237548964099864340
0.800000000000000600,0.242534414390925074
0.801000000000000600,0.247437290108328961
0.802000000000000601,0.252257985397223106
0.803000000000000602,0.256996900820997520
0.804000000000000603,0.261654443175241724
0.805000000000000604,0.266231025304328628
0.806000000000000605,0.270727065920594978
0.807000000000000606,0.275142989426073459
0.808000000000000607,0.279479225736824322
0.809000000000000608,0.283736210109762355
0.810000000000000608,0.287914382972023097
0.811000000000000609,0.292014189752838882
0.812000000000000610,0.296036080717882122
0.813000000000000611,0.299980510806072076
0.814000000000000612,0.303847939468835981
0.815000000000000613,0.307638830511769934
0.816000000000000614,0.311353651938735765
0.817000000000000615,0.314992875798308869
0.818000000000000616,0.318556978032607963
0.819000000000000616,0.322046438328462581
0.820000000000000617,0.325461739970902886
0.821000000000000618,0.328803369698953130
0.822000000000000619,0.332071817563701022
0.823000000000000620,0.335267576788628952
0.824000000000000621,0.338391143632193248
0.825000000000000622,0.341443017252617220
0.826000000000000623,0.344423699574879116
0.827000000000000624,0.347333695159884492
0.828000000000000624,0.350173511075782984
0.829000000000000625,0.352943656771451009
0.830000000000000626,0.355644643952046924
0.831000000000000627,0.358276986456692981
0.832000000000000628,0.360841200138217133
0.833000000000000629,0.363337802744950367
0.834000000000000630,0.365767313804555350
0.835000000000000631,0.368130254509858701
0.836000000000000631,0.370427147606684770
0.837000000000000632,0.372658517283644242
0.838000000000000633,0.374824889063891886
0.839000000000000634,0.376926789698777021
0.840000000000000635,0.378964747063431306
0.841000000000000636,0.380939290054234381
0.842000000000000637,0.382850948488127951
0.843000000000000638,0.384700253003796289
0.844000000000000639,0.386487734964648944
0.845000000000000639,0.388213926363630446
0.846000000000000640,0.389879359729789488
0.847000000000000641,0.391484568036623848
0.848000000000000642,0.393030084612155162
0.849000000000000643,0.394516443050751842
0.850000000000000644,0.395944177126604568
0.851000000000000645,0.397313820708945165
0.852000000000000646,0.398625907678871350
0.853000000000000647,0.399880971847849487
0.854000000000000647,0.401079546877816828
0.855000000000000648,0.402222166202906461
0.856000000000000649,0.403309362952727402
0.857000000000000650,0.404341669877235799
0.858000000000000651,0.405319619273138809
0.859000000000000652,0.406243742911807426
0.860000000000000653,0.407114571968726247
0.861000000000000654,0.407932636954403072
0.862000000000000655,0.408698467646748054
0.863000000000000655,0.409412593024925275
0.864000000000000656,0.410075541204603877
0.865000000000000657,0.410687839374633323
0.866000000000000658,0.411250013735127318
0.867000000000000659,0.411762589436884874
0.868000000000000660,0.412226090522207322
0.869000000000000661,0.412641039867032267
0.870000000000000662,0.413007959124390311
0.871000000000000663,0.413327368669167250
0.872000000000000663,0.413599787544147612
0.873000000000000664,0.413825733407342800
0.874000000000000665,0.414005722480536242
0.875000000000000666,0.414140269499098657
0.876000000000000667,0.414229887662991902
0.877000000000000668,0.414275088588981100
0.878000000000000669,0.414276382264037513
0.879000000000000670,0.414234276999897510
0.880000000000000671,0.414149279388759894
0.881000000000000671,0.414021894260144852
0.882000000000000672,0.413852624638843536
0.883000000000000673,0.413641971703978040
0.884000000000000674,0.413390434749145164
0.885000000000000675,0.413098511143622449
0.886000000000000676,0.412766696294645741
0.887000000000000677,0.412395483610689895
0.888000000000000678,0.411985364465815906
0.889000000000000679,0.411536828164980661
0.890000000000000679,0.411050361910371476
0.891000000000000680,0.410526450768691542
0.892000000000000681,0.409965577639429479
0.893000000000000682,0.409368223224062189
0.894000000000000683,0.408734865996194241
0.895000000000000684,0.408065982172611696
0.896000000000000685,0.407362045685246532
0.897000000000000686,0.406623528154031966
0.898000000000000687,0.405850898860604825
0.899000000000000687,0.405044624722930791
0.900000000000000688,0.404205170270711123
0.901000000000000689,0.403332997621668521
0.902000000000000690,0.402428566458637504
0.903000000000000691,0.401492334007456431
0.904000000000000692,0.400524755015676803
0.905000000000000693,0.399526281732034083
0.906000000000000694,0.398497363886693712
0.907000000000000695,0.397438448672262024
0.908000000000000695,0.396349980725523632
0.909000000000000696,0.395232402109931491
0.910000000000000697,0.394086152298800230
0.911000000000000698,0.392911668159212357
0.912000000000000699,0.391709383936623801
0.913000000000000700,0.390479731240137184
0.914000000000000701,0.389223139028478715
0.915000000000000702,0.387940033596595124
0.916000000000000703,0.386630838562931456
0.917000000000000703,0.385295974857323753
0.918000000000000704,0.383935860709543220
0.919000000000000705,0.382550911638421587
0.920000000000000706,0.381141540441613025
0.921000000000000707,0.379708157185926987
0.922000000000000708,0.378251169198264736
0.923000000000000709,0.376770981057098830
0.924000000000000710,0.375267994584546627
0.925000000000000711,0.373742608838971535
0.926000000000000711,0.372195220108142044
0.927000000000000712,0.370626221902902564
0.928000000000000713,0.369036004951390106
0.929000000000000714,0.367424957193741741
0.930000000000000715,0.365793463777321803
0.931000000000000716,0.364141907052425995
0.932000000000000717,0.362470666568463329
0.933000000000000718,0.360780119070656657
0.934000000000000719,0.359070638497142380
0.935000000000000719,0.357342595976573474
0.936000000000000720,0.355596359826152952
0.937000000000000721,0.353832295550104203
0.938000000000000722,0.352050765838573532
0.939000000000000723,0.350252130566955588
0.940000000000000724,0.348436746795622476
0.941000000000000725,0.346604968770065969
0.942000000000000726,0.344757147921432028
0.943000000000000727,0.342893632867437681
0.944000000000000727,0.341014769413679197
0.945000000000000728,0.339120900555294535
0.946000000000000729,0.337212366479008430
0.947000000000000730,0.335289504565521090
0.948000000000000731,0.333352649392245459
0.949000000000000732,0.331402132736391075
0.950000000000000733,0.329438283578384117
0.951000000000000734,0.327461428105592867
0.952000000000000735,0.325471889716407614
0.953000000000000735,0.323469989024597004
0.954000000000000736,0.321456043863991181
0.955000000000000737,0.319430369293461580
0.956000000000000738,0.317393277602178725
0.957000000000000739,0.315345078315162453
0.958000000000000740,0.313286078199127072
0.959000000000000741,0.311216581268559667
0.960000000000000742,0.309136888792103326
0.961000000000000743,0.307047299299177123
0.962000000000000743,0.304948108586848343
0.963000000000000744,0.302839609726965553
0.964000000000000745,0.300722093073516938
0.965000000000000746,0.298595846270231446
0.966000000000000747,0.296461154258407134
0.967000000000000748,0.294318299284964169
0.968000000000000749,0.292167560910708834
0.969000000000000750,0.290009216018821459
0.970000000000000751,0.287843538823531975
0.971000000000000751,0.285670800879015530
0.972000000000000752,0.283491271088479102
0.973000000000000753,0.281305215713417600
0.974000000000000754,0.279112898383093555
0.975000000000000755,0.276914580104158425
0.976000000000000756,0.274710519270474407
0.977000000000000757,0.272500971673093451
0.978000000000000758,0.270286190510415081
0.979000000000000759,0.268066426398478608
0.980000000000000759,0.265841927381438858
0.981000000000000760,0.263612938942189012
0.982000000000000761,0.261379704013103009
0.983000000000000762,0.259142462986953204
0.984000000000000763,0.256901453727958584
0.985000000000000764,0.254656911582937573
0.986000000000000765,0.252409069392637020
0.987000000000000766,0.250158157503149514
0.988000000000000766,0.247904403777462090
0.989000000000000767,0.245648033607124283
0.990000000000000768,0.243389269924035923
0.991000000000000769,0.241128333212325241
0.992000000000000770,0.238865441520344668
0.993000000000000771,0.236600810472770318
0.994000000000000772,0.234334653282787742
0.995000000000000773,0.232067180764379488
0.996000000000000774,0.229798601344704923
0.997000000000000774,0.227529121076557844
0.998000000000000775,0.225258943650918975
0.999000000000000776,0.222988270409569367
1.000000000000000666,0.220717300357806512
1.001000000000000778,0.218446230177210682
1.002000000000000668,0.216175254238493875
1.003000000000000780,0.213904564614412707
1.004000000000000670,0.211634351092736622
1.005000000000000782,0.209364801189291072
1.006000000000000671,0.207096100161052010
1.007000000000000783,0.204828431019285245
1.008000000000000673,0.202561974542755957
1.009000000000000785,0.200296909290971131
1.010000000000000675,0.198033411617479976
1.011000000000000787,0.195771655683204038
1.012000000000000677,0.193511813469819105
1.013000000000000789,0.191254054793175948
1.014000000000000679,0.188998547316745369
1.015000000000000790,0.186745456565107937
1.016000000000000680,0.184494945937463933
1.017000000000000792,0.182247176721183790
1.018000000000000682,0.180002308105365078
1.019000000000000794,0.177760497194435818
1.020000000000000684,0.175521899021758743
1.021000000000000796,0.173286666563263636
1.022000000000000686,0.171054950751096668
1.023000000000000798,0.168826900487275833
1.024000000000000687,0.166602662657377443
1.025000000000000799,0.164382382144196176
1.026000000000000689,0.162166201841464408
1.027000000000000801,0.159954262667522856
1.028000000000000691,0.157746703579039582
1.029000000000000803,0.155543661584700232
1.030000000000000693,0.153345271758923679
1.031000000000000805,0.151151667255548072
1.032000000000000695,0.148962979321543398
1.033000000000000806,0.146779337310692648
1.034000000000000696,0.144600868697278173
1.035000000000000808,0.142427699089768267
1.036000000000000698,0.140259952244467828
1.037000000000000810,0.138097750079182180
1.038000000000000700,0.135941212686857715
1.039000000000000812,0.133790458349201696
1.040000000000000702,0.131645603550294338
1.041000000000000814,0.129506762990173413
1.042000000000000703,0.127374049598419525
1.043000000000000815,0.125247574547687202
1.044000000000000705,0.123127447267244866
1.045000000000000817,0.121013775456472114
1.046000000000000707,0.118906665098341177
1.047000000000000819,0.116806220472862377
1.048000000000000709,0.114712544170527092
1.049000000000000821,0.112625737105673876
1.050000000000000711,0.110545898529881587
1.051000000000000822,0.108473126045282614
1.052000000000000712,0.106407515617879825
1.053000000000000824,0.104349161590805692
1.054000000000000714,0.102298156697557749
1.055000000000000826,0.100254592075199225
1.056000000000000716,0.098218557277516438
1.057000000000000828,0.096190140288144557
1.058000000000000718,0.094169427533651942
1.059000000000000830,0.092156503896586320
1.060000000000000719,0.090151452728474607
1.061000000000000831,0.088154355862796990
1.062000000000000721,0.086165293627894421
1.063000000000000833,0.084184344859850005
1.064000000000000723,0.082211586915333396
1.065000000000000835,0.080247095684374339
1.066000000000000725,0.078290945603110645
1.067000000000000837,0.076343209666491982
1.068000000000000727,0.074403959440919071
1.069000000000000838,0.072473265076852547
1.070000000000000728,0.070551195321361448
1.071000000000000840,0.068637817530629280
1.072000000000000730,0.066733197682405987
1.073000000000000842,0.064837400388413929
1.074000000000000732,0.062950488906697757
1.075000000000000844,0.061072525153924098
1.076000000000000734,0.059203569717634338
1.077000000000000846,0.057343681868434304
1.078000000000000735,0.055492919572135202
1.079000000000000847,0.053651339501849457
1.080000000000000737,0.051818997050011008
1.081000000000000849,0.049995946340369371
1.082000000000000739,0.048182240239897138
1.083000000000000851,0.046377930370667002
1.084000000000000741,0.044583067121656744
1.085000000000000853,0.042797699660507782
1.086000000000000743,0.041021875945217626
1.087000000000000854,0.039255642735781617
1.088000000000000744,0.037499045605770456
1.089000000000000856,0.035752128953862101
1.090000000000000746,0.034014936015293915
1.091000000000000858,0.032287508873275216
1.092000000000000748,0.030569888470337515
1.093000000000000860,0.028862114619609004
1.094000000000000750,0.027164226016052635
1.095000000000000862,0.025476260247630566
1.096000000000000751,0.023798253806402915
1.097000000000000863,0.022130242099585154
1.098000000000000753,0.020472259460525798
1.099000000000000865,0.018824339159624694
1.100000000000000755,0.017186513415216501
1.101000000000000867,0.015558813404344628
1.102000000000000757,0.013941269273525103
1.103000000000000869,0.012333910149405247
1.104000000000000759,0.010736764149394196
1.105000000000000870,0.009149858392204200
1.106000000000000760,0.007573219008359272
1.107000000000000872,0.006006871150601697
1.108000000000000762,0.004450839004276066
1.109000000000000874,0.002905145797627601
1.110000000000000764,0.001369813812043352
1.111000000000000876,-0.000155135607766368
1.112000000000000766,-0.001669682043656282
1.113000000000000878,-0.003173805993989991
1.114000000000000767,-0.004667488863651534
1.115000000000000879,-0.006150712954118388
1.116000000000000769,-0.007623461453591681
1.117000000000000881,-0.009085718427204483
1.118000000000000771,-0.010537468807278370
1.119000000000000883,-0.011978698383646914
1.120000000000000773,-0.013409393794050756
1.121000000000000885,-0.014829542514577784
1.122000000000000774,-0.016239132850187792
1.123000000000000886,-0.017638153925284936
1.124000000000000776,-0.019026595674358819
1.125000000000000888,-0.020404448832684600
1.126000000000000778,-0.021771704927094276
1.127000000000000890,-0.023128356266803929
1.128000000000000780,-0.024474395934300348
1.129000000000000892,-0.025809817776305598
1.130000000000000782,-0.027134616394781375
1.131000000000000894,-0.028448787138021764
1.132000000000000783,-0.029752326091780738
1.133000000000000895,-0.031045230070493778
1.134000000000000785,-0.032327496608527795
1.135000000000000897,-0.033599123951523126
1.136000000000000787,-0.034860111047776643
1.137000000000000899,-0.036110457539699513
1.138000000000000789,-0.037350163755320673
1.139000000000000901,-0.038579230699886599
1.140000000000000790,-0.039797660047478575
1.141000000000000902,-0.041005454132711061
1.142000000000000792,-0.042202615942508070
1.143000000000000904,-0.043389149107919384
1.144000000000000794,-0.044565057895995665
1.145000000000000906,-0.045730347201735411
1.146000000000000796,-0.046885022540097673
1.147000000000000908,-0.048029090038056492
1.148000000000000798,-0.049162556426730737
1.149000000000000909,-0.050285429033569827
1.150000000000000799,-0.051397715774595357
1.151000000000000689,-0.052499425146712020
1.152000000000000801,-0.053590566220067505
1.153000000000000913,-0.054671148630476965
1.154000000000000803,-0.055741182571908375
1.155000000000000693,-0.056800678789022639
1.156000000000000805,-0.057849648569781739
1.157000000000000917,-0.058888103738093556
1.158000000000000806,-0.059916056646543800
1.159000000000000696,-0.060933520169166644
1.160000000000000808,-0.061940507694281298
1.161000000000000920,-0.062937033117379165
1.162000000000000810,-0.063923110834081684
1.163000000000000700,-0.064898755733134639
1.164000000000000812,-0.065863983189488606
1.165000000000000924,-0.066818809057404255
1.166000000000000814,-0.067763249663636296
1.167000000000000703,-0.068697321800671757
1.168000000000000815,-0.069621042720011239
1.169000000000000927,-0.070534430125519160
1.170000000000000817,-0.071437502166828148
1.171000000000000707,-0.072330277432787971
1.172000000000000819,-0.073212774944985848
1.173000000000000931,-0.074085014151311371
1.174000000000000821,-0.074947014919569260
1.175000000000000711,-0.075798797531172288
1.176000000000000822,-0.076640382674856802
1.177000000000000934,-0.077471791440477861
1.178000000000000824,-0.078293045312836013
1.179000000000000714,-0.079104166165575626
1.180000000000000826,-0.079905176255133881
1.181000000000000938,-0.080696098214727632
1.182000000000000828,-0.081476955048410668
1.183000000000000718,-0.082247770125172412
1.184000000000000830,-0.083008567173096681
1.185000000000000941,-0.083759370273559647
1.186000000000000831,-0.084500203855502429
1.187000000000000721,-0.085231092689723328
1.188000000000000833,-0.085952061883251663
1.189000000000000945,-0.086663136873748908
1.190000000000000835,-0.087364343423980390
1.191000000000000725,-0.088055707616309875
1.192000000000000837,-0.088737255847290128
1.193000000000000949,-0.089409014822239299
1.194000000000000838,-0.090071011549930982
1.195000000000000728,-0.090723273337286886
1.196000000000000840,-0.091365827784139569
1.197000000000000952,-0.091998702778049224
1.198000000000000842,-0.092621926489141762
1.199000000000000732,-0.093235527365030421
1.200000000000000844,-0.093839534125749621
1.201000000000000956,-0.094433975758771910
1.202000000000000846,-0.095018881514040324
1.203000000000000735,-0.095594280899067699
1.204000000000000847,-0.096160203674073699
1.205000000000000959,-0.096716679847172984
1.206000000000000849,-0.097263739669605290
1.207000000000000739,-0.097801413631015105
1.208000000000000851,-0.098329732454772750
1.209000000000000963,-0.098848727093347064
1.210000000000000853,-0.099358428723711811
1.211000000000000743,-0.099858868742814799
1.212000000000000854,-0.100350078763066564
1.213000000000000966,-0.100832090607901520
1.214000000000000856,-0.101304936307358512
1.215000000000000746,-0.101768648093717856
1.216000000000000858,-0.102223258397182867
1.217000000000000970,-0.102668799841594688
1.218000000000000860,-0.103105305240193637
1.219000000000000750,-0.103532807591438833
1.220000000000000862,-0.103951340074838375
1.221000000000000973,-0.104360936046849373
1.222000000000000863,-0.104761629036808898
1.223000000000000753,-0.105153452742902692
1.224000000000000865,-0.105536441028179870
1.225000000000000977,-0.105910627916613626
1.226000000000000867,-0.106276047589189432
1.227000000000000757,-0.106632734380044142
1.228000000000000869,-0.106980722772634332
1.229000000000000981,-0.107320047395966206
1.230000000000000870,-0.107650743020834966
1.231000000000000760,-0.107972844556124548
1.232000000000000872,-0.108286387045145954
1.233000000000000984,-0.108591405661992241
1.234000000000000874,-0.108887935707972422
1.235000000000000764,-0.109176012608034029
1.236000000000000876,-0.109455671907264421
1.237000000000000988,-0.109726949267408752
1.238000000000000878,-0.109989880463428016
1.239000000000000767,-0.110244501380103180
1.240000000000000879,-0.110490848008663156
1.241000000000000991,-0.110728956443454457
1.242000000000000881,-0.110958862878653086
1.243000000000000771,-0.111180603605005701
1.244000000000000883,-0.111394215006600655
1.245000000000000995,-0.111599733557691372
1.246000000000000885,-0.111797195819542908
1.247000000000000774,-0.111986638437312352
1.248000000000000886,-0.112168098136968292
1.249000000000000998,-0.112341611722246437
1.250000000000000888,-0.112507216071634650
1.251000000000000778,-0.112664948135389881
1.252000000000000890,-0.112814844932601993
1.253000000000001002,-0.112956943548269795
1.254000000000000892,-0.113091281130433208
1.255000000000000782,-0.113217894887315290
1.256000000000000894,-0.113336822084524252
1.257000000000001005,-0.113448100042253724
1.258000000000000895,-0.113551766132548651
1.259000000000000785,-0.113647857776577196
1.260000000000000897,-0.113736412441953802
1.261000000000001009,-0.113817467640077302
1.262000000000000899,-0.113891060923512935
1.263000000000000789,-0.113957229883394670
1.264000000000000901,-0.114016012146872597
1.265000000000001013,-0.114067445374571003
1.266000000000000902,-0.114111567258088908
1.267000000000000792,-0.114148415517536822
1.268000000000000904,-0.114178027899085863
1.269000000000001016,-0.114200442172560201
1.270000000000000906,-0.114215696129053107
1.271000000000000796,-0.114223827578572121
1.272000000000000908,-0.114224874347711336
1.273000000000001020,-0.114218874277361285
1.274000000000000909,-0.114205865220432898
1.275000000000000799,-0.114185885039618101
1.276000000000000911,-0.114158971605183665
1.277000000000001023,-0.114125162792775514
1.278000000000000913,-0.114084496481269865
1.279000000000000803,-0.114037010550634088
1.280000000000000915,-0.113982742879834190
1.281000000000001027,-0.113921731344739111
1.282000000000000917,-0.113854013816091365
1.283000000000000806,-0.113779628157465409
1.284000000000000918,-0.113698612223276513
1.285000000000001030,-0.113611003856807377
1.286000000000000920,-0.113516840888261555
1.287000000000000810,-0.113416161132833662
1.288000000000000922,-0.113309002388826574
1.289000000000001034,-0.113195402435764841
1.290000000000000924,-0.113075399032554397
1.291000000000000814,-0.112949029915663843
1.292000000000000925,-0.112816332797313179
1.293000000000001037,-0.112677345363714279
1.294000000000000927,-0.112532105273307842
1.295000000000000817,-0.112380650155045239
1.296000000000000929,-0.112223017606679340
1.297000000000001041,-0.112059245193080859
1.298000000000000931,-0.111889370444596306
1.299000000000000821,-0.111713430855396340
1.300000000000000933,-0.111531463881868548
1.301000000000001044,-0.111343506941035925
1.302000000000000934,-0.111149597408979825
1.303000000000000824,-0.110949772619300543
1.304000000000000936,-0.110744069861587288
1.305000000000001048,-0.110532526379928123
1.306000000000000938,-0.110315179371417688
1.307000000000000828,-0.110092065984703599
1.308000000000000940,-0.109863223318546505
1.309000000000001052,-0.109628688420405740
1.310000000000000941,-0.109388498285044336
1.311000000000000831,-0.109142689853141864
1.312000000000000943,-0.108891300009948691
1.313000000000001055,-0.108634365583953979
1.314000000000000945,-0.108371923345562046
1.315000000000000835,-0.108104010005790507
1.316000000000000947,-0.107830662215011433
1.317000000000001059,-0.107551916561682545
1.318000000000000949,-0.107267809571106668
1.319000000000000838,-0.106978377704223068
1.320000000000000950,-0.106683657356402548
1.321000000000001062,-0.106383684856262109
1.322000000000000952,-0.106078496464506983
1.323000000000000842,-0.105768128372785861
1.324000000000000954,-0.105452616702564422
1.325000000000001066,-0.105131997504013364
1.326000000000000956,-0.104806306754923972
1.327000000000000846,-0.104475580359628298
1.328000000000000957,-0.104139854147949684
1.329000000000001069,-0.103799163874158856
1.330000000000000959,-0.103453545215961992
1.331000000000000849,-0.103103033773485370
1.332000000000000961,-0.102747665068293401
1.333000000000001073,-0.102387474542420073
1.334000000000000963,-0.102022497557412065
1.335000000000000853,-0.101652769393386702
1.336000000000000965,-0.101278325248122705
1.337000000000001076,-0.100899200236139477
1.338000000000000966,-0.100515429387817462
1.339000000000000856,-0.100127047648522455
1.340000000000000968,-0.099734089877739074
1.341000000000001080,-0.099336590848237788
1.342000000000000970,-0.098934585245242096
1.343000000000000860,-0.098528107665613415
1.344000000000000972,-0.098117192617056453
1.345000000000001084,-0.097701874517338874
1.346000000000000973,-0.097282187693510713
1.347000000000000863,-0.096858166381165484
1.348000000000000975,-0.096429844723685681
1.349000000000001087,-0.095997256771527900
1.350000000000000977,-0.095560436481507055
1.351000000000000867,-0.095119417716097970
1.352000000000000979,-0.094674234242750704
1.353000000000001091,-0.094224919733222376
1.354000000000000981,-0.093771507762923520
1.355000000000000870,-0.093314031810260642
1.356000000000000982,-0.092852525256023846
1.357000000000001094,-0.092387021382758810
1.358000000000000984,-0.091917553374159924
1.359000000000000874,-0.091444154314488518
1.360000000000000986,-0.090966857187984806
1.361000000000001098,-0.090485694878310124
1.362000000000000988,-0.090000700167978856
1.363000000000000878,-0.089511905737834324
1.364000000000000989,-0.089019344166507502
1.365000000000001101,-0.088523047929898041
1.366000000000000991,-0.088023049400676290
1.367000000000000881,-0.087519380847787140
1.368000000000000993,-0.087012074435961193
1.369000000000001105,-0.086501162225249062
1.370000000000000995,-0.085986676170563825
1.371000000000000885,-0.085468648121229784
1.372000000000000997,-0.084947109820543140
1.373000000000001108,-0.084422092905353588
1.374000000000000998,-0.083893628905630901
1.375000000000000888,-0.083361749244089817
1.376000000000001000,-0.082826485235768521
1.377000000000001112,-0.082287868087658991
1.378000000000001002,-0.081745928898332237
1.379000000000000892,-0.081200698657575815
1.380000000000001004,-0.080652208246037138
1.381000000000001116,-0.080100488434887249
1.382000000000001005,-0.079545569885485654
1.383000000000000895,-0.078987483149054211
1.384000000000001007,-0.078426258666375523
1.385000000000001119,-0.077861926767474166
1.386000000000001009,-0.077294517671337992
1.387000000000000899,-0.076724061485621026
1.388000000000001011,-0.076150588206383166
1.389000000000001123,-0.075574127717807513
1.390000000000001013,-0.074994709791958811
1.391000000000000902,-0.074412364088524446
1.392000000000001014,-0.073827120154585146
1.393000000000001126,-0.073239007424379790
1.394000000000001016,-0.072648055219085975
1.395000000000000906,-0.072054292746605478
1.396000000000001018,-0.071457749101360685
1.397000000000001130,-0.070858453264102325
1.398000000000001020,-0.070256434101720638
1.399000000000000909,-0.069651720367059577
1.400000000000001021,-0.069044340698754425
1.401000000000001133,-0.068434323621068160
1.402000000000001023,-0.067821697543730339
1.403000000000000913,-0.067206490761790499
1.404000000000001025,-0.066588731455485120
1.405000000000001137,-0.065968447690101781
1.406000000000001027,-0.065345667415846215
1.407000000000000917,-0.064720418467746996
1.408000000000001029,-0.064092728565517565
1.409000000000001140,-0.063462625313476628
1.410000000000001030,-0.062830136200444434
1.411000000000000920,-0.062195288599654133
1.412000000000001032,-0.061558109768663674
1.413000000000001144,-0.060918626849302181
1.414000000000001034,-0.060276866867580124
1.415000000000000924,-0.059632856733638606
1.416000000000001036,-0.058986623241697164
1.417000000000001148,-0.058338193070003541
1.418000000000001037,-0.057687592780793037
1.419000000000000927,-0.057034848820251435
1.420000000000001039,-0.056379987518490229
1.421000000000001151,-0.055723035089526439
1.422000000000001041,-0.055064017631262042
1.423000000000000931,-0.054402961125475879
1.424000000000001043,-0.053739891437819022
1.425000000000001155,-0.053074834317821104
1.426000000000001044,-0.052407815398896142
1.427000000000000934,-0.051738860198354997
1.428000000000001046,-0.051067994117426421
1.429000000000001158,-0.050395242441279797
1.430000000000001048,-0.049720630339060518
1.431000000000000938,-0.049044182863923765
1.432000000000001050,-0.048365924953075658
1.433000000000001162,-0.047685881427824220
1.434000000000001052,-0.047004076993620060
1.435000000000000941,-0.046320536240132847
1.436000000000001053,-0.045635283641296320
1.437000000000001165,-0.044948343555384782
1.438000000000001055,-0.044259740225087899
1.439000000000000945,-0.043569497777578813
1.440000000000001057,-0.042877640224607452
1.441000000000001169,-0.042184191462579838
1.442000000000001059,-0.041489175272650537
1.443000000000000949,-0.040792615320831484
1.444000000000001060,-0.040094535158073555
1.445000000000001172,-0.039394958220384566
1.446000000000001062,-0.038693907828943996
1.447000000000000952,-0.037991407190200902
1.448000000000001064,-0.037287479396009751
1.449000000000001176,-0.036582147423746672
1.450000000000001066,-0.035875434136434813
1.451000000000000956,-0.035167362282877992
1.452000000000001068,-0.034457954497798905
1.453000000000001180,-0.033747233301975453
1.454000000000001069,-0.033035221102386846
1.455000000000000959,-0.032321940192358727
1.456000000000001071,-0.031607412751714969
1.457000000000001183,-0.030891660846938552
1.458000000000001073,-0.030174706431321190
1.459000000000000963,-0.029456571345132364
1.460000000000001075,-0.028737277315788144
1.461000000000001187,-0.028016845958010028
1.462000000000001076,-0.027295298774014674
1.463000000000000966,-0.026572657153672696
1.464000000000001078,-0.025848942374703331
1.465000000000001190,-0.025124175602856513
1.466000000000001080,-0.024398377892085630
1.467000000000000970,-0.023671570184757816
1.468000000000001082,-0.022943773311835388
1.469000000000001194,-0.022215007993073688
1.470000000000001084,-0.021485294837223924
1.471000000000000973,-0.020754654342231671
1.472000000000001085,-0.020023106895449484
1.473000000000001197,-0.019290672773839935
1.474000000000001087,-0.018557372144186277
1.475000000000000977,-0.017823225063310098
1.476000000000001089,-0.017088251478292526
1.477000000000001201,-0.016352471226684619
1.478000000000001091,-0.015615904036736152
1.479000000000000981,-0.014878569527622551
1.480000000000001092,-0.014140487209665755
1.481000000000001204,-0.013401676484577556
1.482000000000001094,-0.012662156645675254
1.483000000000000984,-0.011921946878135388
1.484000000000001096,-0.011181066259222393
1.485000000000001208,-0.010439533758521861
1.486000000000001098,-0.009697368238203132
1.487000000000000988,-0.008954588453247014
1.488000000000001100,-0.008211213051699431
1.489000000000001211,-0.007467260574922275
1.490000000000001101,-0.006722749457847246
1.491000000000000991,-0.005977698029219138
1.492000000000001103,-0.005232124511869709
1.493000000000001215,-0.004486047022957526
1.494000000000001105,-0.003739483574240481
1.495000000000000995,-0.002992452072333608
1.496000000000001107,-0.002244970318976425
1.497000000000001219,-0.001497056011292900
1.498000000000001108,-0.000748726742066199
1.499000000000000998,0.000000000000000000
