# Cu001_TANNIC-ARM-NEUTRAL-AC
# h[nm],U(h)[kJ/mol]
0.149999999999999994,87.271756559885830029
0.150999999999999995,81.577466258719439907
0.151999999999999996,76.820174302880587902
0.152999999999999997,72.360355321379287830
0.153999999999999998,67.951131929908683560
0.154999999999999999,63.536952828463384435
0.156000000000000000,59.141840013220665639
0.157000000000000001,54.811527765935636580
0.158000000000000002,50.586849124245112819
0.159000000000000002,46.494309426441830624
0.160000000000000003,42.545361773045975440
0.161000000000000004,38.739458795693096249
0.162000000000000005,35.068179044181754023
0.163000000000000006,31.519076936094556629
0.164000000000000007,28.078694152200732503
0.165000000000000008,24.734605438944491596
0.166000000000000009,21.476589904817590337
0.167000000000000010,18.297108883914209088
0.168000000000000010,15.191289798141090372
0.169000000000000011,12.156597241113063390
0.170000000000000012,9.192338750118825175
0.171000000000000013,6.299115412032845640
0.172000000000000014,3.478292868207676580
0.173000000000000015,0.731539281330577107
0.174000000000000016,-1.939545779094910660
0.175000000000000017,-4.533704072159563836
0.176000000000000018,-7.050196784480533552
0.177000000000000018,-9.488898652244952103
0.178000000000000019,-11.850322400272645496
0.179000000000000020,-14.135589044282363957
0.180000000000000021,-16.346359228395197505
0.181000000000000022,-18.484739371598497115
0.182000000000000023,-20.553174433269550292
0.183000000000000024,-22.554336913110613949
0.184000000000000025,-24.491019506227146962
0.185000000000000026,-26.366036789308502364
0.186000000000000026,-28.182139506470527124
0.187000000000000027,-29.941943495140616704
0.188000000000000028,-31.647874053128635552
0.189000000000000029,-33.302125586015996817
0.190000000000000030,-34.906635664287207987
0.191000000000000031,-36.463072130159929429
0.192000000000000032,-37.972831590014536118
0.193000000000000033,-39.437047475070109215
0.194000000000000034,-40.856605818025535370
0.195000000000000034,-42.232166947607012730
0.196000000000000035,-43.564191420985096670
0.197000000000000036,-44.852968674508474578
0.198000000000000037,-46.098647058684250055
0.199000000000000038,-47.301264119949095743
0.200000000000000039,-48.460776188864734593
0.201000000000000040,-49.577086524064512219
0.202000000000000041,-50.650071438050659367
0.203000000000000042,-51.679603991209717151
0.204000000000000042,-52.665574982147617789
0.205000000000000043,-53.607911084831037840
0.206000000000000044,-54.506590086170490395
0.207000000000000045,-55.361653262373273776
0.208000000000000046,-56.173214999881722065
0.209000000000000047,-56.941469818541634140
0.210000000000000048,-57.666696992530319221
0.211000000000000049,-58.349262990285943431
0.212000000000000050,-58.989621969983218719
0.213000000000000050,-59.588314573673457630
0.214000000000000051,-60.145965262634945248
0.215000000000000052,-60.663278430193130930
0.216000000000000053,-61.141033517567777267
0.217000000000000054,-61.580079344316992263
0.218000000000000055,-61.981327848665749514
0.219000000000000056,-62.345747415259850754
0.220000000000000057,-62.674355949385869735
0.221000000000000058,-62.968213838003222804
0.222000000000000058,-63.228416919523873219
0.223000000000000059,-63.456089566491392873
0.224000000000000060,-63.652377968436283595
0.225000000000000061,-63.818443686410589066
0.226000000000000062,-63.955457536159940446
0.227000000000000063,-64.064593843655970318
0.228000000000000064,-64.147025104816123076
0.229000000000000065,-64.203917070680262214
0.230000000000000066,-64.236424270059018227
0.231000000000000066,-64.245685973669040436
0.232000000000000067,-64.232822596953582206
0.233000000000000068,-64.198932533072508022
0.234000000000000069,-64.145089402850672400
0.235000000000000070,-64.072339704702969243
0.236000000000000071,-63.981700844617286350
0.237000000000000072,-63.874159524086806528
0.238000000000000073,-63.750670462344523060
0.239000000000000073,-63.612155428289540282
0.240000000000000074,-63.459502557023299119
0.241000000000000075,-63.293565925860960419
0.242000000000000076,-63.115165364982132701
0.243000000000000077,-62.925086478474348439
0.244000000000000078,-62.724080852344613390
0.245000000000000079,-62.512866427081291931
0.246000000000000080,-62.292128013494064476
0.247000000000000081,-62.062517931807903437
0.248000000000000081,-61.824656755301226951
0.249000000000000082,-61.579134141130012381
0.250000000000000111,-61.326509732348618797
0.251000000000000112,-61.067314116494991083
0.252000000000000113,-60.802049827445799224
0.253000000000000114,-60.531192378542698407
0.254000000000000115,-60.255191316241862864
0.255000000000000115,-59.974471284728579690
0.256000000000000116,-59.689433093068281266
0.257000000000000117,-59.400454777525034444
0.258000000000000118,-59.107892652667750610
0.259000000000000119,-58.812082345803389671
0.260000000000000120,-58.513339810121422602
0.261000000000000121,-58.211962312708919853
0.262000000000000122,-57.908229394301656612
0.263000000000000123,-57.602403798274032454
0.264000000000000123,-57.294732366945098079
0.265000000000000124,-56.985446903790581530
0.266000000000000125,-56.674765000605603404
0.267000000000000126,-56.362890829063175602
0.268000000000000127,-56.050015896463797560
0.269000000000000128,-55.736319765774659629
0.270000000000000129,-55.421970740316382376
0.271000000000000130,-55.107126513676064405
0.272000000000000131,-54.791934785609612391
0.273000000000000131,-54.476533844847473631
0.274000000000000132,-54.161053119840481429
0.275000000000000133,-53.845613698578176809
0.276000000000000134,-53.530328818683884151
0.277000000000000135,-53.215304329042986353
0.278000000000000136,-52.900639124253373780
0.279000000000000137,-52.586425553204641403
0.280000000000000138,-52.272749803096395738
0.281000000000000139,-51.959692260197286373
0.282000000000000139,-51.647327848628528102
0.283000000000000140,-51.335726348428877941
0.284000000000000141,-51.024952694124550590
0.285000000000000142,-50.715067254988603906
0.286000000000000143,-50.406126098130698665
0.287000000000000144,-50.098181235511169973
0.288000000000000145,-49.791280855924938464
0.289000000000000146,-49.485469542948806065
0.290000000000000147,-49.180788479794848911
0.291000000000000147,-48.877275641960316932
0.292000000000000148,-48.574965978512508968
0.293000000000000149,-48.273891582796416344
0.294000000000000150,-47.974081853302209311
0.295000000000000151,-47.675563645382126765
0.296000000000000152,-47.378361414457181411
0.297000000000000153,-47.082497351311495493
0.298000000000000154,-46.787991510025975117
0.299000000000000155,-46.494861929063766581
0.300000000000000155,-46.203124745979586407
0.301000000000000156,-45.912794306188139615
0.302000000000000157,-45.623883266192493124
0.303000000000000158,-45.336402691639818840
0.304000000000000159,-45.050362150541822359
0.305000000000000160,-44.765769801968644970
0.306000000000000161,-44.482632480498281780
0.307000000000000162,-44.200955776679755616
0.308000000000000163,-43.920744113744781600
0.309000000000000163,-43.642000820783096060
0.310000000000000164,-43.364728202576337424
0.311000000000000165,-43.088927606269223247
0.312000000000000166,-42.814599485039941840
0.313000000000000167,-42.541743458918247711
0.314000000000000168,-42.270358372885787901
0.315000000000000169,-42.000442352382329148
0.316000000000000170,-41.731992856330535346
0.317000000000000171,-41.465006727782721896
0.318000000000000171,-41.199480242284423070
0.319000000000000172,-40.935409154042211810
0.320000000000000173,-40.672788739976766692
0.321000000000000174,-40.411613841735842811
0.322000000000000175,-40.151878905737120817
0.323000000000000176,-39.893578021306055348
0.324000000000000177,-39.636704956970319813
0.325000000000000178,-39.381253194968216746
0.326000000000000179,-39.127215964026760275
0.327000000000000179,-38.874586270461023219
0.328000000000000180,-38.623356927645474457
0.329000000000000181,-38.373520583905573744
0.330000000000000182,-38.125069748876128983
0.331000000000000183,-37.877996818372196230
0.332000000000000184,-37.632294097816384237
0.333000000000000185,-37.387953824266197955
0.334000000000000186,-37.144968187083890143
0.335000000000000187,-36.903329347290323881
0.336000000000000187,-36.663029455644526422
0.337000000000000188,-36.424060669489207953
0.338000000000000189,-36.186415168402916720
0.339000000000000190,-35.950085168698407756
0.340000000000000191,-35.715062936806795335
0.341000000000000192,-35.481340801586966904
0.342000000000000193,-35.248911165598535433
0.343000000000000194,-35.017766515377374503
0.344000000000000195,-34.787899430751451746
0.345000000000000195,-34.559302593235294410
0.346000000000000196,-34.331968793539843432
0.347000000000000197,-34.105890938235503995
0.348000000000000198,-33.881062055604317607
0.349000000000000199,-33.657475300718004974
0.350000000000000200,-33.435123959777143909
0.351000000000000201,-33.214001453747059145
0.352000000000000202,-32.994101341324729049
0.353000000000000203,-32.775417321271071103
0.354000000000000203,-32.557943234141980327
0.355000000000000204,-32.341673063450897985
0.356000000000000205,-32.126600936295162114
0.357000000000000206,-31.912721123477901131
0.358000000000000207,-31.700028039155633053
0.359000000000000208,-31.488516240042351058
0.360000000000000209,-31.278180424198826159
0.361000000000000210,-31.069015429435999920
0.362000000000000210,-30.861016231359997164
0.363000000000000211,-30.654177941085670511
0.364000000000000212,-30.448495802644892194
0.365000000000000213,-30.243965190114749930
0.366000000000000214,-30.040581604490036227
0.367000000000000215,-29.838340670323553638
0.368000000000000216,-29.637238132157158077
0.369000000000000217,-29.437269850765051871
0.370000000000000218,-29.238431799230632180
0.371000000000000218,-29.040720058876775767
0.372000000000000219,-28.844130815069053853
0.373000000000000220,-28.648660352910166438
0.374000000000000221,-28.454305052843302803
0.375000000000000222,-28.261061386181143718
0.376000000000000223,-28.068925910576478344
0.377000000000000224,-27.877895265449673445
0.378000000000000225,-27.687966167387099148
0.379000000000000226,-27.499135405524480547
0.380000000000000226,-27.311399836927694906
0.381000000000000227,-27.124756381983029740
0.382000000000000228,-26.939202019808618616
0.383000000000000229,-26.754733783697254523
0.384000000000000230,-26.571348756600674079
0.385000000000000231,-26.389044066664688160
0.386000000000000232,-26.207816882823539828
0.387000000000000233,-26.027664410461522237
0.388000000000000234,-25.848583887149210625
0.389000000000000234,-25.670572578461104740
0.390000000000000235,-25.493627773880653820
0.391000000000000236,-25.317746782798518979
0.392000000000000237,-25.142926930608869185
0.393000000000000238,-24.969165554908602900
0.394000000000000239,-24.796460001803168893
0.395000000000000240,-24.624807622322897771
0.396000000000000241,-24.454205768952824940
0.397000000000000242,-24.284651792278719284
0.398000000000000242,-24.116143037751641032
0.399000000000000243,-23.948676842572957923
0.400000000000000244,-23.782250532701151968
0.401000000000000245,-23.616861419981869830
0.402000000000000246,-23.452506799401941606
0.403000000000000247,-23.289183946467638009
0.404000000000000248,-23.126890114707762791
0.405000000000000249,-22.965622533301353059
0.406000000000000250,-22.805378404829518502
0.407000000000000250,-22.646154903151106907
0.408000000000000251,-22.487949171401048432
0.409000000000000252,-22.330758320110788873
0.410000000000000253,-22.174579425449035597
0.411000000000000254,-22.019409527581917274
0.412000000000000255,-21.865245629150553697
0.413000000000000256,-21.712084693864628804
0.414000000000000257,-21.559923645209664755
0.415000000000000258,-21.408759365266355701
0.416000000000000258,-21.258588693639602241
0.417000000000000259,-21.109408426494930211
0.418000000000000260,-20.961215315700108874
0.419000000000000261,-20.814006068069282662
0.420000000000000262,-20.667777344707310760
0.421000000000000263,-20.522525760451610921
0.422000000000000264,-20.378247883408736385
0.423000000000000265,-20.234940234583149277
0.424000000000000266,-20.092599287595383828
0.425000000000000266,-19.951221468486785682
0.426000000000000267,-19.810803155607917603
0.427000000000000268,-19.671340679588062983
0.428000000000000269,-19.532830323382682991
0.429000000000000270,-19.395268322396141514
0.430000000000000271,-19.258650864676837955
0.431000000000000272,-19.122974091181831113
0.432000000000000273,-18.988234096108136839
0.433000000000000274,-18.854426927287953220
0.434000000000000274,-18.721548586644850332
0.435000000000000275,-18.589595030708331080
0.436000000000000276,-18.458562171183885425
0.437000000000000277,-18.328445875575791746
0.438000000000000278,-18.199241967860139368
0.439000000000000279,-18.070946229205269162
0.440000000000000280,-17.943554398737084909
0.441000000000000281,-17.817062174346656178
0.442000000000000282,-17.691465213537664880
0.443000000000000282,-17.566759134311073609
0.444000000000000283,-17.442939516084791762
0.445000000000000284,-17.320001900645820569
0.446000000000000285,-17.197941793132553556
0.447000000000000286,-17.076754663045175420
0.448000000000000287,-16.956435945281619126
0.449000000000000288,-16.836981041197297770
0.450000000000000289,-16.718385319686198898
0.451000000000000290,-16.600644118281500994
0.452000000000000290,-16.483752744273679980
0.453000000000000291,-16.367706475844158831
0.454000000000000292,-16.252500563212699092
0.455000000000000293,-16.138130229796640691
0.456000000000000294,-16.024590673380330941
0.457000000000000295,-15.911877067293042742
0.458000000000000296,-15.799984561593683807
0.459000000000000297,-15.688908284260866921
0.460000000000000298,-15.578643342386644832
0.461000000000000298,-15.469184823372614801
0.462000000000000299,-15.360527796126936195
0.463000000000000300,-15.252667312260888011
0.464000000000000301,-15.145598407283694442
0.465000000000000302,-15.039316101794446112
0.466000000000000303,-14.933815402669875283
0.467000000000000304,-14.829091304246807326
0.468000000000000305,-14.725138789498370073
0.469000000000000306,-14.621952831202756684
0.470000000000000306,-14.519528393103765751
0.471000000000000307,-14.417860431061924942
0.472000000000000308,-14.316943894195656384
0.473000000000000309,-14.216773726011343371
0.474000000000000310,-14.117344865521712194
0.475000000000000311,-14.018652248351653355
0.476000000000000312,-13.920690807831032743
0.477000000000000313,-13.823455476073425174
0.478000000000000314,-13.726941185040567817
0.479000000000000314,-13.631142867591753642
0.480000000000000315,-13.536055458517632033
0.481000000000000316,-13.441673895558031049
0.482000000000000317,-13.347993120403231160
0.483000000000000318,-13.255008079678319177
0.484000000000000319,-13.162713725910226259
0.485000000000000320,-13.071105018477183535
0.486000000000000321,-12.980176924540094419
0.487000000000000322,-12.889924419955695711
0.488000000000000322,-12.800342490171180643
0.489000000000000323,-12.711426131100084902
0.490000000000000324,-12.623170349979197624
0.491000000000000325,-12.535570166206415621
0.492000000000000326,-12.448620612159201571
0.493000000000000327,-12.362316733993806039
0.494000000000000328,-12.276653592424876749
0.495000000000000329,-12.191626263485611403
0.496000000000000330,-12.107229839268223159
0.497000000000000330,-12.023459428644837743
0.498000000000000331,-11.940310157968681892
0.499000000000000332,-11.857777171755703449
0.500000000000000333,-11.775855633346546725
0.501000000000000334,-11.694540725548991489
0.502000000000000335,-11.613827651260869800
0.503000000000000336,-11.533711634073650742
0.504000000000000337,-11.454187918856623796
0.505000000000000338,-11.375251772321949062
0.506000000000000338,-11.296898483570606331
0.507000000000000339,-11.219123364619401073
0.508000000000000340,-11.141921750909187239
0.509000000000000341,-11.065289001794498702
0.510000000000000342,-10.989220501014695941
0.511000000000000343,-10.913711657146848211
0.512000000000000344,-10.838757904040569713
0.513000000000000345,-10.764354701234939427
0.514000000000000346,-10.690497534357829679
0.515000000000000346,-10.617181915507730494
0.516000000000000347,-10.544403383618369929
0.517000000000000348,-10.472157504806432371
0.518000000000000349,-10.400439872702390787
0.519000000000000350,-10.329246108764966294
0.520000000000000351,-10.258571862579298539
0.521000000000000352,-10.188412812139107544
0.522000000000000353,-10.118764664113161444
0.523000000000000353,-10.049623154096183342
0.524000000000000354,-9.980984046844726620
0.525000000000000355,-9.912843136497913932
0.526000000000000356,-9.845196246783654459
0.527000000000000357,-9.778039231210437165
0.528000000000000358,-9.711367973244984242
0.529000000000000359,-9.645178386476093380
0.530000000000000360,-9.579466414764928217
0.531000000000000361,-9.514228032382035849
0.532000000000000361,-9.449459244131345415
0.533000000000000362,-9.385156085461471065
0.534000000000000363,-9.321314622564603525
0.535000000000000364,-9.257930952463182095
0.536000000000000365,-9.195001203084782304
0.537000000000000366,-9.132521533325334673
0.538000000000000367,-9.070488133101051176
0.539000000000000368,-9.008897223389359610
0.540000000000000369,-8.947745056258991525
0.541000000000000369,-8.887027914889648272
0.542000000000000370,-8.826742113581435234
0.543000000000000371,-8.766883997754316482
0.544000000000000372,-8.707449943937950465
0.545000000000000373,-8.648436359752093239
0.546000000000000374,-8.589839683877809051
0.547000000000000375,-8.531656386019838223
0.548000000000000376,-8.473882966860363908
0.549000000000000377,-8.416515958004378462
0.550000000000000377,-8.359551921916885675
0.551000000000000378,-8.302987451852308354
0.552000000000000379,-8.246819171776262891
0.553000000000000380,-8.191043736279908671
0.554000000000000381,-8.135657830487200926
0.555000000000000382,-8.080658169955267311
0.556000000000000383,-8.026041500568034337
0.557000000000000384,-7.971804598423517518
0.558000000000000385,-7.917944269714842775
0.559000000000000385,-7.864457350605309038
0.560000000000000386,-7.811340707097658154
0.561000000000000387,-7.758591234897842526
0.562000000000000388,-7.706205859273436154
0.563000000000000389,-7.654181534906896900
0.564000000000000390,-7.602515245743940220
0.565000000000000391,-7.551204004837186901
0.566000000000000392,-7.500244854185281085
0.567000000000000393,-7.449634864567704184
0.568000000000000393,-7.399371135375426789
0.569000000000000394,-7.349450794437598411
0.570000000000000395,-7.299870997844548626
0.571000000000000396,-7.250628929767112041
0.572000000000000397,-7.201721802272584405
0.573000000000000398,-7.153146855137445748
0.574000000000000399,-7.104901355657001538
0.575000000000000400,-7.056982598452114175
0.576000000000000401,-7.009387905273189112
0.577000000000000401,-6.962114624801604812
0.578000000000000402,-6.915160132448656682
0.579000000000000403,-6.868521830152248597
0.580000000000000404,-6.822197146171449234
0.581000000000000405,-6.776183534879052672
0.582000000000000406,-6.730478476552269385
0.583000000000000407,-6.685079477161693262
0.584000000000000408,-6.639984068158730324
0.585000000000000409,-6.595189806261506860
0.586000000000000409,-6.550694273239488830
0.587000000000000410,-6.506495075696873798
0.588000000000000411,-6.462589844854908172
0.589000000000000412,-6.418976236333213237
0.590000000000000413,-6.375651929930260309
0.591000000000000414,-6.332614629403090944
0.592000000000000415,-6.289862062246412755
0.593000000000000416,-6.247391979471105472
0.594000000000000417,-6.205202155382328222
0.595000000000000417,-6.163290387357305278
0.596000000000000418,-6.121654495622763648
0.597000000000000419,-6.080292323032349344
0.598000000000000420,-6.039201734843850922
0.599000000000000421,-5.998380618496534034
0.600000000000000422,-5.957826883388500860
0.601000000000000423,-5.917538460654306220
0.602000000000000424,-5.877513302942769080
0.603000000000000425,-5.837749384195148217
0.604000000000000425,-5.798244699423720228
0.605000000000000426,-5.758997264490831824
0.606000000000000427,-5.720005115888527669
0.607000000000000428,-5.681266310518710227
0.608000000000000429,-5.642778925474070562
0.609000000000000430,-5.604541057819672822
0.610000000000000431,-5.566550824375393169
0.611000000000000432,-5.528806361499151834
0.612000000000000433,-5.491305824871082208
0.613000000000000433,-5.454047389278649405
0.614000000000000434,-5.417029248402778663
0.615000000000000435,-5.380249614604990960
0.616000000000000436,-5.343706718715695025
0.617000000000000437,-5.307398809823587804
0.618000000000000438,-5.271324155066245964
0.619000000000000439,-5.235481039421925331
0.620000000000000440,-5.199867765502641070
0.621000000000000441,-5.164482653348533958
0.622000000000000441,-5.129324040223560033
0.623000000000000442,-5.094390280412574690
0.624000000000000443,-5.059679745019762365
0.625000000000000444,-5.025190821768532601
0.626000000000000445,-4.990921914802854076
0.627000000000000446,-4.956871444490063894
0.628000000000000447,-4.923037847225185004
0.629000000000000448,-4.889419575236773952
0.630000000000000449,-4.856015096394324715
0.631000000000000449,-4.822822894017194884
0.632000000000000450,-4.789841466685204274
0.633000000000000451,-4.757069328050767432
0.634000000000000452,-4.724505006652699457
0.635000000000000453,-4.692147045731617894
0.636000000000000454,-4.659994003047036593
0.637000000000000455,-4.628044450696114254
0.638000000000000456,-4.596296974934064750
0.639000000000000457,-4.564750175996300285
0.640000000000000457,-4.533402667922215024
0.641000000000000458,-4.502253078380723750
0.642000000000000459,-4.471300048497520940
0.643000000000000460,-4.440542232684012269
0.644000000000000461,-4.409978298468034019
0.645000000000000462,-4.379606926326275129
0.646000000000000463,-4.349426809518433856
0.647000000000000464,-4.319436653923142799
0.648000000000000465,-4.289635177875608107
0.649000000000000465,-4.260021112007016164
0.650000000000000466,-4.230593199085673106
0.651000000000000467,-4.201350193859903825
0.652000000000000468,-4.172290862902679365
0.653000000000000469,-4.143413984457997579
0.654000000000000470,-4.114718348289023275
0.655000000000000471,-4.086202755527935437
0.656000000000000472,-4.057866018527539254
0.657000000000000473,-4.029706960714591446
0.658000000000000473,-4.001724416444868204
0.659000000000000474,-3.973917230859945082
0.660000000000000475,-3.946284259745710621
0.661000000000000476,-3.918824369392562623
0.662000000000000477,-3.891536436457346149
0.663000000000000478,-3.864419347826962170
0.664000000000000479,-3.837472000483675316
0.665000000000000480,-3.810693301372102493
0.666000000000000481,-3.784082167267894814
0.667000000000000481,-3.757637524648033356
0.668000000000000482,-3.731358309562854636
0.669000000000000483,-3.705243467509664157
0.670000000000000484,-3.679291953308007290
0.671000000000000485,-3.653502730976571744
0.672000000000000486,-3.627874773611697634
0.673000000000000487,-3.602407063267508480
0.674000000000000488,-3.577098590837620939
0.675000000000000488,-3.551948355938422175
0.676000000000000489,-3.526955366793978808
0.677000000000000490,-3.502118640122434012
0.678000000000000491,-3.477437201023996671
0.679000000000000492,-3.452910082870467967
0.680000000000000493,-3.428536327196254341
0.681000000000000494,-3.404314983590931654
0.682000000000000495,-3.380245109593279729
0.683000000000000496,-3.356325770586827240
0.684000000000000496,-3.332556039696828343
0.685000000000000497,-3.308934997688750546
0.686000000000000498,-3.285461732868157902
0.687000000000000499,-3.262135340982065479
0.688000000000000500,-3.238954925121675821
0.689000000000000501,-3.215919595626549388
0.690000000000000502,-3.193028469990148555
0.691000000000000503,-3.170280672766761398
0.692000000000000504,-3.147675335479783953
0.693000000000000504,-3.125211596531381808
0.694000000000000505,-3.102888601113419131
0.695000000000000506,-3.080705501119779477
0.696000000000000507,-3.058661455059954459
0.697000000000000508,-3.036755627973918514
0.698000000000000509,-3.014987191348323492
0.699000000000000510,-2.993355323033878967
0.700000000000000511,-2.971859207164082584
0.701000000000000512,-2.950498034075094811
0.702000000000000512,-2.929271000226884247
0.703000000000000513,-2.908177308125563965
0.704000000000000514,-2.887216166246921567
0.705000000000000515,-2.866386788961126975
0.706000000000000516,-2.845688396458603719
0.707000000000000517,-2.825120214677045105
0.708000000000000518,-2.804681475229571674
0.709000000000000519,-2.784371415334013555
0.710000000000000520,-2.764189277743280382
0.711000000000000520,-2.744134310676844990
0.712000000000000521,-2.724205767753301810
0.713000000000000522,-2.704402907923967980
0.714000000000000523,-2.684724995407585801
0.715000000000000524,-2.665171299625987977
0.716000000000000525,-2.645741095140876187
0.717000000000000526,-2.626433661591524249
0.718000000000000527,-2.607248283633534225
0.719000000000000528,-2.588184250878552639
0.720000000000000528,-2.569240857834968583
0.721000000000000529,-2.550417403849537745
0.722000000000000530,-2.531713193050001198
0.723000000000000531,-2.513127534288584819
0.724000000000000532,-2.494659741086435290
0.725000000000000533,-2.476309131578974476
0.726000000000000534,-2.458075028462109568
0.727000000000000535,-2.439956758939363368
0.728000000000000536,-2.421953654669816380
0.729000000000000536,-2.404065051716971713
0.730000000000000537,-2.386290290498397137
0.731000000000000538,-2.368628715736219359
0.732000000000000539,-2.351079676408450503
0.733000000000000540,-2.333642525701090875
0.734000000000000541,-2.316316620961030637
0.735000000000000542,-2.299101323649743733
0.736000000000000543,-2.281995999297742106
0.737000000000000544,-2.265000017459772419
0.738000000000000544,-2.248112751670786391
0.739000000000000545,-2.231333579402610123
0.740000000000000546,-2.214661882021365269
0.741000000000000547,-2.198097044745574102
0.742000000000000548,-2.181638456604988896
0.743000000000000549,-2.165285510400099867
0.744000000000000550,-2.149037602662293711
0.745000000000000551,-2.132894133614735566
0.746000000000000552,-2.116854507133842489
0.747000000000000552,-2.100918130711459941
0.748000000000000553,-2.085084415417633785
0.749000000000000554,-2.069352775864011118
0.750000000000000555,-2.053722630167883700
0.751000000000000556,-2.038193399916797599
0.752000000000000557,-2.022764510133782334
0.753000000000000558,-2.007435389243154678
0.754000000000000559,-1.992205469036903098
0.755000000000000560,-1.977074184641627763
0.756000000000000560,-1.962040974486046085
0.757000000000000561,-1.947105280269034067
0.758000000000000562,-1.932266546928213868
0.759000000000000563,-1.917524222609066298
0.760000000000000564,-1.902877758634553995
0.761000000000000565,-1.888326609475270645
0.762000000000000566,-1.873870232720070250
0.763000000000000567,-1.859508089047219315
0.764000000000000568,-1.845239642195980467
0.765000000000000568,-1.831064358938739645
0.766000000000000569,-1.816981709053542504
0.767000000000000570,-1.802991165297125331
0.768000000000000571,-1.789092203378357393
0.769000000000000572,-1.775284301932190001
0.770000000000000573,-1.761566942493964616
0.771000000000000574,-1.747939609474206346
0.772000000000000575,-1.734401790133812016
0.773000000000000576,-1.720952974559639248
0.774000000000000576,-1.707592655640524537
0.775000000000000577,-1.694320329043698337
0.776000000000000578,-1.681135493191536101
0.777000000000000579,-1.668037649238787168
0.778000000000000580,-1.655026301050083859
0.779000000000000581,-1.642100955177879573
0.780000000000000582,-1.629261120840720833
0.781000000000000583,-1.616506309901893035
0.782000000000000584,-1.603836036848391489
0.783000000000000584,-1.591249818770252400
0.784000000000000585,-1.578747175340217801
0.785000000000000586,-1.566327628793711124
0.786000000000000587,-1.553990703909164939
0.787000000000000588,-1.541735927988646448
0.788000000000000589,-1.529562830838780307
0.789000000000000590,-1.517470944752015605
0.790000000000000591,-1.505459804488151088
0.791000000000000592,-1.493528947256182349
0.792000000000000592,-1.481677912696415467
0.793000000000000593,-1.469906242862873302
0.794000000000000594,-1.458213482205984679
0.795000000000000595,-1.446599177555528248
0.796000000000000596,-1.435062878103841255
0.797000000000000597,-1.423604135389322067
0.798000000000000598,-1.412222503280135877
0.799000000000000599,-1.400917537958215497
0.800000000000000600,-1.389688797903477102
0.801000000000000600,-1.378535843878305078
0.802000000000000601,-1.367458238912233393
0.803000000000000602,-1.356455548286900070
0.804000000000000603,-1.345527339521200627
0.805000000000000604,-1.334673182356671317
0.806000000000000605,-1.323892648743078437
0.807000000000000606,-1.313185312824257212
0.808000000000000607,-1.302550750924097223
0.809000000000000608,-1.291988541532794299
0.810000000000000608,-1.281498265293268046
0.811000000000000609,-1.271079504987777664
0.812000000000000610,-1.260731845524742933
0.813000000000000611,-1.250454873925732180
0.814000000000000612,-1.240248179312654742
0.815000000000000613,-1.230111352895138399
0.816000000000000614,-1.220043987958036480
0.817000000000000615,-1.210045679849172107
0.818000000000000616,-1.200116025967217670
0.819000000000000616,-1.190254625749729733
0.820000000000000617,-1.180461080661366013
0.821000000000000618,-1.170734994182251798
0.822000000000000619,-1.161075971796521777
0.823000000000000620,-1.151483620980971789
0.824000000000000621,-1.141957551193900189
0.825000000000000622,-1.132497373864073342
0.826000000000000623,-1.123102702379837670
0.827000000000000624,-1.113773152078385564
0.828000000000000624,-1.104508340235125452
0.829000000000000625,-1.095307886053221935
0.830000000000000626,-1.086171410653236968
0.831000000000000627,-1.077098537062917138
0.832000000000000628,-1.068088890207112396
0.833000000000000629,-1.059142096897778940
0.834000000000000630,-1.050257785824152412
0.835000000000000631,-1.041435587543001029
0.836000000000000631,-1.032675134469009270
0.837000000000000632,-1.023976060865278592
0.838000000000000633,-1.015338002833910291
0.839000000000000634,-1.006760598306734256
0.840000000000000635,-0.998243487036117982
0.841000000000000636,-0.989786310585871631
0.842000000000000637,-0.981388712322289414
0.843000000000000638,-0.973050337405236165
0.844000000000000639,-0.964770832779377807
0.845000000000000639,-0.956549847165482747
0.846000000000000640,-0.948387031051809104
0.847000000000000641,-0.940282036685601286
0.848000000000000642,-0.932234518064660400
0.849000000000000643,-0.924244130928996377
0.850000000000000644,-0.916310532752587670
0.851000000000000645,-0.908433382735177708
0.852000000000000646,-0.900612341794211346
0.853000000000000647,-0.892847072556799071
0.854000000000000647,-0.885137239351777794
0.855000000000000648,-0.877482508201848033
0.856000000000000649,-0.869882546815783919
0.857000000000000650,-0.862337024580707601
0.858000000000000651,-0.854845612554433365
0.859000000000000652,-0.847407983457897473
0.860000000000000653,-0.840023811667626297
0.861000000000000654,-0.832692773208295045
0.862000000000000655,-0.825414545745339567
0.863000000000000655,-0.818188808577621218
0.864000000000000656,-0.811015242630174882
0.865000000000000657,-0.803893530446995741
0.866000000000000658,-0.796823356183893550
0.867000000000000659,-0.789804405601405413
0.868000000000000660,-0.782836366057753974
0.869000000000000661,-0.775918926501877326
0.870000000000000662,-0.769051777466491338
0.871000000000000663,-0.762234611061220813
0.872000000000000663,-0.755467120965772176
0.873000000000000664,-0.748749002423160559
0.874000000000000665,-0.742079952232978513
0.875000000000000666,-0.735459668744715467
0.876000000000000667,-0.728887851851133806
0.877000000000000668,-0.722364202981671477
0.878000000000000669,-0.715888425095903558
0.879000000000000670,-0.709460222677034347
0.880000000000000671,-0.703079301725449191
0.881000000000000671,-0.696745369752290511
0.882000000000000672,-0.690458135773083126
0.883000000000000673,-0.684217310301394877
0.884000000000000674,-0.678022605342545548
0.885000000000000675,-0.671873734387333332
0.886000000000000676,-0.665770412405826684
0.887000000000000677,-0.659712355841166609
0.888000000000000678,-0.653699282603410592
0.889000000000000679,-0.647730912063426589
0.890000000000000679,-0.641806965046801348
0.891000000000000680,-0.635927163827794573
0.892000000000000681,-0.630091232123315304
0.893000000000000682,-0.624298895086939476
0.894000000000000683,-0.618549879302951466
0.895000000000000684,-0.612843912780419942
0.896000000000000685,-0.607180724947304906
0.897000000000000686,-0.601560046644583624
0.898000000000000687,-0.595981610120427607
0.899000000000000687,-0.590445149024378835
0.900000000000000688,-0.584950398401565819
0.901000000000000689,-0.579497094686959202
0.902000000000000690,-0.574084975699635347
0.903000000000000691,-0.568713780637078004
0.904000000000000692,-0.563383250069487085
0.905000000000000693,-0.558093125934139733
0.906000000000000694,-0.552843151529753607
0.907000000000000695,-0.547633071510871816
0.908000000000000695,-0.542462631882301372
0.909000000000000696,-0.537331579993536090
0.910000000000000697,-0.532239664533224688
0.911000000000000698,-0.527186635523655633
0.912000000000000699,-0.522172244315259659
0.913000000000000700,-0.517196243581149351
0.914000000000000701,-0.512258387311647079
0.915000000000000702,-0.507358430808870775
0.916000000000000703,-0.502496130681316377
0.917000000000000703,-0.497671244838467142
0.918000000000000704,-0.492883532485421216
0.919000000000000705,-0.488132754117534318
0.920000000000000706,-0.483418671515095155
0.921000000000000707,-0.478741047738000858
0.922000000000000708,-0.474099647120460321
0.923000000000000709,-0.469494235265723758
0.924000000000000710,-0.464924579040802477
0.925000000000000711,-0.460390446571246226
0.926000000000000711,-0.455891607235894392
0.927000000000000712,-0.451427831661679047
0.928000000000000713,-0.446998891718423219
0.929000000000000714,-0.442604560513671086
0.930000000000000715,-0.438244612387512333
0.931000000000000716,-0.433918822907448043
0.932000000000000717,-0.429626968863259073
0.933000000000000718,-0.425368828261883269
0.934000000000000719,-0.421144180322320427
0.935000000000000719,-0.416952805470550636
0.936000000000000720,-0.412794485334462447
0.937000000000000721,-0.408669002738795917
0.938000000000000722,-0.404576141700103420
0.939000000000000723,-0.400515687421724664
0.940000000000000724,-0.396487426288774758
0.941000000000000725,-0.392491145863146040
0.942000000000000726,-0.388526634878522514
0.943000000000000727,-0.384593683235414097
0.944000000000000727,-0.380692081996197584
0.945000000000000728,-0.376821623380176107
0.946000000000000729,-0.372982100758649571
0.947000000000000730,-0.369173308649991594
0.948000000000000731,-0.365395042714760476
0.949000000000000732,-0.361647099750800893
0.950000000000000733,-0.357929277688365022
0.951000000000000734,-0.354241375585256812
0.952000000000000735,-0.350583193621979594
0.953000000000000735,-0.346954533096889395
0.954000000000000736,-0.343355196421378461
0.955000000000000737,-0.339784987115058779
0.956000000000000738,-0.336243709800967738
0.957000000000000739,-0.332731170200770254
0.958000000000000740,-0.329247175129988467
0.959000000000000741,-0.325791532493236446
0.960000000000000742,-0.322364051279480868
0.961000000000000743,-0.318964541557278936
0.962000000000000743,-0.315592814470069982
0.963000000000000744,-0.312248682231453745
0.964000000000000745,-0.308931958120493400
0.965000000000000746,-0.305642456477019819
0.966000000000000747,-0.302379992696946709
0.967000000000000748,-0.299144383227617383
0.968000000000000749,-0.295935445563142052
0.969000000000000750,-0.292752998239753093
0.970000000000000751,-0.289596860831177860
0.971000000000000751,-0.286466853944019106
0.972000000000000752,-0.283362799213135397
0.973000000000000753,-0.280284519297066770
0.974000000000000754,-0.277231837873428366
0.975000000000000755,-0.274204579634352241
0.976000000000000756,-0.271202570281919020
0.977000000000000757,-0.268225636523613253
0.978000000000000758,-0.265273606067775503
0.979000000000000759,-0.262346307619090058
0.980000000000000759,-0.259443570874060780
0.981000000000000760,-0.256565226516507594
0.982000000000000761,-0.253711106213081627
0.983000000000000762,-0.250881042608781246
0.984000000000000763,-0.248074869322479546
0.985000000000000764,-0.245292420942477885
0.986000000000000765,-0.242533533022053854
0.987000000000000766,-0.239798042075023476
0.988000000000000766,-0.237085785571326202
0.989000000000000767,-0.234396601932623128
0.990000000000000768,-0.231730330527872258
0.991000000000000769,-0.229086811668967799
0.992000000000000770,-0.226465886606350641
0.993000000000000771,-0.223867397524645156
0.994000000000000772,-0.221291187538312478
0.995000000000000773,-0.218737100687310171
0.996000000000000774,-0.216204981932752643
0.997000000000000774,-0.213694677152606760
0.998000000000000775,-0.211206033137377208
0.999000000000000776,-0.208738897585819844
1.000000000000000666,-0.206293119100649264
1.001000000000000778,-0.203868547184282545
1.002000000000000668,-0.201465032234569380
1.003000000000000780,-0.199082425540539842
1.004000000000000670,-0.196720579278193475
1.005000000000000782,-0.194379346506245054
1.006000000000000671,-0.192058581161941133
1.007000000000000783,-0.189758138056835807
1.008000000000000673,-0.187477872872617746
1.009000000000000785,-0.185217642156933010
1.010000000000000675,-0.182977303319214468
1.011000000000000787,-0.180756714626531922
1.012000000000000677,-0.178555735199457249
1.013000000000000789,-0.176374225007925184
1.014000000000000679,-0.174212044867129323
1.015000000000000790,-0.172069056433402728
1.016000000000000680,-0.169945122200147958
1.017000000000000792,-0.167840105493720221
1.018000000000000682,-0.165753870469402709
1.019000000000000794,-0.163686282107315229
1.020000000000000684,-0.161637206208387951
1.021000000000000796,-0.159606509390322449
1.022000000000000686,-0.157594059083572630
1.023000000000000798,-0.155599723527337419
1.024000000000000687,-0.153623371765564121
1.025000000000000799,-0.151664873642968517
1.026000000000000689,-0.149724099801052613
1.027000000000000801,-0.147800921674159619
1.028000000000000691,-0.145895211485517623
1.029000000000000803,-0.144006842243306510
1.030000000000000693,-0.142135687736739458
1.031000000000000805,-0.140281622532142991
1.032000000000000695,-0.138444521969068202
1.033000000000000806,-0.136624262156404136
1.034000000000000696,-0.134820719968504976
1.035000000000000808,-0.133033773041320302
1.036000000000000698,-0.131263299768554914
1.037000000000000810,-0.129509179297837507
1.038000000000000700,-0.127771291526884823
1.039000000000000812,-0.126049517099696556
1.040000000000000702,-0.124343737402759877
1.041000000000000814,-0.122653834561260972
1.042000000000000703,-0.120979691435302822
1.043000000000000815,-0.119321191616157174
1.044000000000000705,-0.117678219422509264
1.045000000000000817,-0.116050659896721878
1.046000000000000707,-0.114438398801111091
1.047000000000000819,-0.112841322614246217
1.048000000000000709,-0.111259318527220374
1.049000000000000821,-0.109692274440008689
1.050000000000000711,-0.108140078957755903
1.051000000000000822,-0.106602621387142896
1.052000000000000712,-0.105079791732724928
1.053000000000000824,-0.103571480693293874
1.054000000000000714,-0.102077579658268802
1.055000000000000826,-0.100597980704071596
1.056000000000000716,-0.099132576590545057
1.057000000000000828,-0.097681260757351979
1.058000000000000718,-0.096243927320411551
1.059000000000000830,-0.094820471068343876
1.060000000000000719,-0.093410787458919911
1.061000000000000831,-0.092014772615516355
1.062000000000000721,-0.090632323323618563
1.063000000000000833,-0.089263337027294859
1.064000000000000723,-0.087907711825703477
1.065000000000000835,-0.086565346469610185
1.066000000000000725,-0.085236140357928009
1.067000000000000837,-0.083919993534242593
1.068000000000000727,-0.082616806683385544
1.069000000000000838,-0.081326481127990971
1.070000000000000728,-0.080048918825078544
1.071000000000000840,-0.078784022362653389
1.072000000000000730,-0.077531694956305866
1.073000000000000842,-0.076291840445837769
1.074000000000000732,-0.075064363291886024
1.075000000000000844,-0.073849168572580615
1.076000000000000734,-0.072646161980188695
1.077000000000000846,-0.071455249817793470
1.078000000000000735,-0.070276338995978072
1.079000000000000847,-0.069109337029519866
1.080000000000000737,-0.067954152034101697
1.081000000000000849,-0.066810692723025686
1.082000000000000739,-0.065678868403963309
1.083000000000000851,-0.064558588975688599
1.084000000000000741,-0.063449764924849661
1.085000000000000853,-0.062352307322731781
1.086000000000000743,-0.061266127822054608
1.087000000000000854,-0.060191138653758268
1.088000000000000744,-0.059127252623830541
1.089000000000000856,-0.058074383110112038
1.090000000000000746,-0.057032444059152330
1.091000000000000858,-0.056001349983052021
1.092000000000000748,-0.054981015956320135
1.093000000000000860,-0.053971357612755400
1.094000000000000750,-0.052972291142341435
1.095000000000000862,-0.051983733288129254
1.096000000000000751,-0.051005601343168158
1.097000000000000863,-0.050037813147424171
1.098000000000000753,-0.049080287084724797
1.099000000000000865,-0.048132942079704789
1.100000000000000755,-0.047195697594769451
1.101000000000000867,-0.046268473627078442
1.102000000000000757,-0.045351190705538190
1.103000000000000869,-0.044443769887793756
1.104000000000000759,-0.043546132757248598
1.105000000000000870,-0.042658201420095590
1.106000000000000760,-0.041779898502357485
1.107000000000000872,-0.040911147146933460
1.108000000000000762,-0.040051871010675907
1.109000000000000874,-0.039201994261456534
1.110000000000000764,-0.038361441575267538
1.111000000000000876,-0.037530138133321830
1.112000000000000766,-0.036708009619160258
1.113000000000000878,-0.035894982215793854
1.114000000000000767,-0.035090982602841790
1.115000000000000879,-0.034295937953677857
1.116000000000000769,-0.033509775932600856
1.117000000000000881,-0.032732424692013526
1.118000000000000771,-0.031963812869615055
1.119000000000000883,-0.031203869585600296
1.120000000000000773,-0.030452524439882521
1.121000000000000885,-0.029709707509308892
1.122000000000000774,-0.028975349344913331
1.123000000000000886,-0.028249380969167869
1.124000000000000776,-0.027531733873241100
1.125000000000000888,-0.026822340014280265
1.126000000000000778,-0.026121131812701918
1.127000000000000890,-0.025428042149492881
1.128000000000000780,-0.024743004363522871
1.129000000000000892,-0.024065952248873330
1.130000000000000782,-0.023396820052172008
1.131000000000000894,-0.022735542469955784
1.132000000000000783,-0.022082054646015831
1.133000000000000895,-0.021436292168792746
1.134000000000000785,-0.020798191068740157
1.135000000000000897,-0.020167687815750006
1.136000000000000787,-0.019544719316546184
1.137000000000000899,-0.018929222912112187
1.138000000000000789,-0.018321136375128111
1.139000000000000901,-0.017720397907423035
1.140000000000000790,-0.017126946137429083
1.141000000000000902,-0.016540720117643633
1.142000000000000792,-0.015961659322130412
1.143000000000000904,-0.015389703644011904
1.144000000000000794,-0.014824793392963349
1.145000000000000906,-0.014266869292738165
1.146000000000000796,-0.013715872478708157
1.147000000000000908,-0.013171744495390741
1.148000000000000798,-0.012634427294017503
1.149000000000000909,-0.012103863230088751
1.150000000000000799,-0.011579995060957348
1.151000000000000689,-0.011062765943414531
1.152000000000000801,-0.010552119431300326
1.153000000000000913,-0.010047999473101654
1.154000000000000803,-0.009550350409584313
1.155000000000000693,-0.009059116971431476
1.156000000000000805,-0.008574244276887686
1.157000000000000917,-0.008095677829414763
1.158000000000000806,-0.007623363515370471
1.159000000000000696,-0.007157247601678625
1.160000000000000808,-0.006697276733533622
1.161000000000000920,-0.006243397932095465
1.162000000000000810,-0.005795558592216109
1.163000000000000700,-0.005353706480150161
1.164000000000000812,-0.004917789731317014
1.165000000000000924,-0.004487756848025310
1.166000000000000814,-0.004063556697249911
1.167000000000000703,-0.003645138508400150
1.168000000000000815,-0.003232451871102077
1.169000000000000927,-0.002825446732990949
1.170000000000000817,-0.002424073397527092
1.171000000000000707,-0.002028282521791978
1.172000000000000819,-0.001638025114334807
1.173000000000000931,-0.001253252533004652
1.174000000000000821,-0.000873916482797127
1.175000000000000711,-0.000499969013719726
1.176000000000000822,-0.000131362518658035
1.177000000000000934,0.000231950268737695
1.178000000000000824,0.000590016276167397
1.179000000000000714,0.000942882094764302
1.180000000000000826,0.001290593981190430
1.181000000000000938,0.001633197859709523
1.182000000000000828,0.001970739324250111
1.183000000000000718,0.002303263640456662
1.184000000000000830,0.002630815747741632
1.185000000000000941,0.002953440261304007
1.186000000000000831,0.003271181474160574
1.187000000000000721,0.003584083359155468
1.188000000000000833,0.003892189570956904
1.189000000000000945,0.004195543448052267
1.190000000000000835,0.004494188014723874
1.191000000000000725,0.004788165983028511
1.192000000000000837,0.005077519754735015
1.193000000000000949,0.005362291423298610
1.194000000000000838,0.005642522775780756
1.195000000000000728,0.005918255294787002
1.196000000000000840,0.006189530160381073
1.197000000000000952,0.006456388251992654
1.198000000000000842,0.006718870150321021
1.199000000000000732,0.006977016139209711
1.200000000000000844,0.007230866207544459
1.201000000000000956,0.007480460051095232
1.202000000000000846,0.007725837074404535
1.203000000000000735,0.007967036392599663
1.204000000000000847,0.008204096833262824
1.205000000000000959,0.008437056938237953
1.206000000000000849,0.008665954965461221
1.207000000000000739,0.008890828890761265
1.208000000000000851,0.009111716409664400
1.209000000000000963,0.009328654939172332
1.210000000000000853,0.009541681619555103
1.211000000000000743,0.009750833316113729
1.212000000000000854,0.009956146620938596
1.213000000000000966,0.010157657854663060
1.214000000000000856,0.010355403068199156
1.215000000000000746,0.010549418044482362
1.216000000000000858,0.010739738300166484
1.217000000000000970,0.010926399087369162
1.218000000000000860,0.011109435395351553
1.219000000000000750,0.011288881952215233
1.220000000000000862,0.011464773226597141
1.221000000000000973,0.011637143429333030
1.222000000000000863,0.011806026515127698
1.223000000000000753,0.011971456184214913
1.224000000000000865,0.012133465883994093
1.225000000000000977,0.012292088810682394
1.226000000000000867,0.012447357910933127
1.227000000000000757,0.012599305883456442
1.228000000000000869,0.012747965180644267
1.229000000000000981,0.012893368010148723
1.230000000000000870,0.013035546336494059
1.231000000000000760,0.013174531882651880
1.232000000000000872,0.013310356131622023
1.233000000000000984,0.013443050327996428
1.234000000000000874,0.013572645479508084
1.235000000000000764,0.013699172358599899
1.236000000000000876,0.013822661503943229
1.237000000000000988,0.013943143221986861
1.238000000000000878,0.014060647588463288
1.239000000000000767,0.014175204449916623
1.240000000000000879,0.014286843425199822
1.241000000000000991,0.014395593906979953
1.242000000000000881,0.014501485063216610
1.243000000000000771,0.014604545838642891
1.244000000000000883,0.014704804956255219
1.245000000000000995,0.014802290918746380
1.246000000000000885,0.014897032009985062
1.247000000000000774,0.014989056296447973
1.248000000000000886,0.015078391628667883
1.249000000000000998,0.015165065642658604
1.250000000000000888,0.015249105761331589
1.251000000000000778,0.015330539195921833
1.252000000000000890,0.015409392947379133
1.253000000000001002,0.015485693807783262
1.254000000000000892,0.015559468361715154
1.255000000000000782,0.015630742987644407
1.256000000000000894,0.015699543859309873
1.257000000000001005,0.015765896947072876
1.258000000000000895,0.015829828019277948
1.259000000000000785,0.015891362643618113
1.260000000000000897,0.015950526188443823
1.261000000000001009,0.016007343824132669
1.262000000000000899,0.016061840524386795
1.263000000000000789,0.016114041067572159
1.264000000000000901,0.016163970038010823
1.265000000000001013,0.016211651827296371
1.266000000000000902,0.016257110635588538
1.267000000000000792,0.016300370472890936
1.268000000000000904,0.016341455160343063
1.269000000000001016,0.016380388331484353
1.270000000000000906,0.016417193433524522
1.271000000000000796,0.016451893728596432
1.272000000000000908,0.016484512295009409
1.273000000000001020,0.016515072028490615
1.274000000000000909,0.016543595643423760
1.275000000000000799,0.016570105674072515
1.276000000000000911,0.016594624475798705
1.277000000000001023,0.016617174226288361
1.278000000000000913,0.016637776926739123
1.279000000000000803,0.016656454403084733
1.280000000000000915,0.016673228307155240
1.281000000000001027,0.016688120117890625
1.282000000000000917,0.016701151142503288
1.283000000000000806,0.016712342517652256
1.284000000000000918,0.016721715210605604
1.285000000000001030,0.016729290020402587
1.286000000000000920,0.016735087578990643
1.287000000000000810,0.016739128352388978
1.288000000000000922,0.016741432641800551
1.289000000000001034,0.016742020584761742
1.290000000000000924,0.016740912156254943
1.291000000000000814,0.016738127169819317
1.292000000000000925,0.016733685278674474
1.293000000000001037,0.016727605976806920
1.294000000000000927,0.016719908600080879
1.295000000000000817,0.016710612327303184
1.296000000000000929,0.016699736181339998
1.297000000000001041,0.016687299030166209
1.298000000000000931,0.016673319587936539
1.299000000000000821,0.016657816416060678
1.300000000000000933,0.016640807924250496
1.301000000000001044,0.016622312371569643
1.302000000000000934,0.016602347867481725
1.303000000000000824,0.016580932372885975
1.304000000000000936,0.016558083701145022
1.305000000000001048,0.016533819519109687
1.306000000000000938,0.016508157348132969
1.307000000000000828,0.016481114565098071
1.308000000000000940,0.016452708403407800
1.309000000000001052,0.016422955953985248
1.310000000000000941,0.016391874166270061
1.311000000000000831,0.016359479849215427
1.312000000000000943,0.016325789672257753
1.313000000000001055,0.016290820166284616
1.314000000000000945,0.016254587724617856
1.315000000000000835,0.016217108603975010
1.316000000000000947,0.016178398925424414
1.317000000000001059,0.016138474675325643
1.318000000000000949,0.016097351706292173
1.319000000000000838,0.016055045738119795
1.320000000000000950,0.016011572358721117
1.321000000000001062,0.015966947025060282
1.322000000000000952,0.015921185064066722
1.323000000000000842,0.015874301673552450
1.324000000000000954,0.015826311923124035
1.325000000000001066,0.015777230755093914
1.326000000000000956,0.015727072985365520
1.327000000000000846,0.015675853304339602
1.328000000000000957,0.015623586277795762
1.329000000000001069,0.015570286347780040
1.330000000000000959,0.015515967833467681
1.331000000000000849,0.015460644932056200
1.332000000000000961,0.015404331719613853
1.333000000000001073,0.015347042151948093
1.334000000000000963,0.015288790065455637
1.335000000000000853,0.015229589177979952
1.336000000000000965,0.015169453089647131
1.337000000000001076,0.015108395283709280
1.338000000000000966,0.015046429127379052
1.339000000000000856,0.014983567872646852
1.340000000000000968,0.014919824657128961
1.341000000000001080,0.014855212504856236
1.342000000000000970,0.014789744327108218
1.343000000000000860,0.014723432923210544
1.344000000000000972,0.014656290981343417
1.345000000000001084,0.014588331079323691
1.346000000000000973,0.014519565685422856
1.347000000000000863,0.014450007159132550
1.348000000000000975,0.014379667751959074
1.349000000000001087,0.014308559608189286
1.350000000000000977,0.014236694765680910
1.351000000000000867,0.014164085156605655
1.352000000000000979,0.014090742608234902
1.353000000000001091,0.014016678843686315
1.354000000000000981,0.013941905482668843
1.355000000000000870,0.013866434042252022
1.356000000000000982,0.013790275937586804
1.357000000000001094,0.013713442482656674
1.358000000000000984,0.013635944891011775
1.359000000000000874,0.013557794276487584
1.360000000000000986,0.013479001653940604
1.361000000000001098,0.013399577939956480
1.362000000000000988,0.013319533953585802
1.363000000000000878,0.013238880417026555
1.364000000000000989,0.013157627956344004
1.365000000000001101,0.013075787102180264
1.366000000000000991,0.012993368290434196
1.367000000000000881,0.012910381862965123
1.368000000000000993,0.012826838068273436
1.369000000000001105,0.012742747062189561
1.370000000000000995,0.012658118908553600
1.371000000000000885,0.012572963579878119
1.372000000000000997,0.012487290958032339
1.373000000000001108,0.012401110834892334
1.374000000000000998,0.012314432913033508
1.375000000000000888,0.012227266806338313
1.376000000000001000,0.012139622040699325
1.377000000000001112,0.012051508054626764
1.378000000000001002,0.011962934199925208
1.379000000000000892,0.011873909742307995
1.380000000000001004,0.011784443862055738
1.381000000000001116,0.011694545654622210
1.382000000000001005,0.011604224131289618
1.383000000000000895,0.011513488219773207
1.384000000000001007,0.011422346764843782
1.385000000000001119,0.011330808528947245
1.386000000000001009,0.011238882192813035
1.387000000000000899,0.011146576356067753
1.388000000000001011,0.011053899537819170
1.389000000000001123,0.010960860177285493
1.390000000000001013,0.010867466634360962
1.391000000000000902,0.010773727190232724
1.392000000000001014,0.010679650047944834
1.393000000000001126,0.010585243332999084
1.394000000000001016,0.010490515093928208
1.395000000000000906,0.010395473302871300
1.396000000000001018,0.010300125856150671
1.397000000000001130,0.010204480574832945
1.398000000000001020,0.010108545205295806
1.399000000000000909,0.010012327419796952
1.400000000000001021,0.009915834817019357
1.401000000000001133,0.009819074922631111
1.402000000000001023,0.009722055189833826
1.403000000000000913,0.009624782999908607
1.404000000000001025,0.009527265662764416
1.405000000000001137,0.009429510417460820
1.406000000000001027,0.009331524432764670
1.407000000000000917,0.009233314807659959
1.408000000000001029,0.009134888571898491
1.409000000000001140,0.009036252686501437
1.410000000000001030,0.008937414044299785
1.411000000000000920,0.008838379470440260
1.412000000000001032,0.008739155722905062
1.413000000000001144,0.008639749493021088
1.414000000000001034,0.008540167405960319
1.415000000000000924,0.008440416021262307
1.416000000000001036,0.008340501833313706
1.417000000000001148,0.008240431271854209
1.418000000000001037,0.008140210702474808
1.419000000000000927,0.008039846427098561
1.420000000000001039,0.007939344684482961
1.421000000000001151,0.007838711650681236
1.422000000000001041,0.007737953439542209
1.423000000000000931,0.007637076103182745
1.424000000000001043,0.007536085632459885
1.425000000000001155,0.007434987957438759
1.426000000000001044,0.007333788947869853
1.427000000000000934,0.007232494413638509
1.428000000000001046,0.007131110105242300
1.429000000000001158,0.007029641714243549
1.430000000000001048,0.006928094873724801
1.431000000000000938,0.006826475158731249
1.432000000000001050,0.006724788086736250
1.433000000000001162,0.006623039118078591
1.434000000000001052,0.006521233656405742
1.435000000000000941,0.006419377049114178
1.436000000000001053,0.006317474587784107
1.437000000000001165,0.006215531508627662
1.438000000000001055,0.006113552992892513
1.439000000000000945,0.006011544167315155
1.440000000000001057,0.005909510104535190
1.441000000000001169,0.005807455823525515
1.442000000000001059,0.005705386289996716
1.443000000000000949,0.005603306416825887
1.444000000000001060,0.005501221064468551
1.445000000000001172,0.005399135041366246
1.446000000000001062,0.005297053104355952
1.447000000000000952,0.005194979959080576
1.448000000000001064,0.005092920260381929
1.449000000000001176,0.004990878612700351
1.450000000000001066,0.004888859570491495
1.451000000000000956,0.004786867638592600
1.452000000000001068,0.004684907272629789
1.453000000000001180,0.004582982879406746
1.454000000000001069,0.004481098817285404
1.455000000000000959,0.004379259396574030
1.456000000000001071,0.004277468879911074
1.457000000000001183,0.004175731482627114
1.458000000000001073,0.004074051373139573
1.459000000000000963,0.003972432673320109
1.460000000000001075,0.003870879458857807
1.461000000000001187,0.003769395759637831
1.462000000000001076,0.003667985560093216
1.463000000000000966,0.003566652799581489
1.464000000000001078,0.003465401372744723
1.465000000000001190,0.003364235129842135
1.466000000000001080,0.003263157877151622
1.467000000000000970,0.003162173377275877
1.468000000000001082,0.003061285349518207
1.469000000000001194,0.002960497470227544
1.470000000000001084,0.002859813373139604
1.471000000000000973,0.002759236649725444
1.472000000000001085,0.002658770849524110
1.473000000000001197,0.002558419480483917
1.474000000000001087,0.002458186009304316
1.475000000000000977,0.002358073861766791
1.476000000000001089,0.002258086423057642
1.477000000000001201,0.002158227038107104
1.478000000000001091,0.002058499011917265
1.479000000000000981,0.001958905609870910
1.480000000000001092,0.001859450058078590
1.481000000000001204,0.001760135543673355
1.482000000000001094,0.001660965215146232
1.483000000000000984,0.001561942182651169
1.484000000000001096,0.001463069518318444
1.485000000000001208,0.001364350256580531
1.486000000000001098,0.001265787394456871
1.487000000000000988,0.001167383891880192
1.488000000000001100,0.001069142671991955
1.489000000000001211,0.000971066621448410
1.490000000000001101,0.000873158590712445
1.491000000000000991,0.000775421394368313
1.492000000000001103,0.000677857811393961
1.493000000000001215,0.000580470585479158
1.494000000000001105,0.000483262425301041
1.495000000000000995,0.000386236004820580
1.496000000000001107,0.000289393963566444
1.497000000000001219,0.000192738906926523
1.498000000000001108,0.000096273406419815
1.499000000000000998,0.000000000000000000
