# Cu001_BSAI24
# h[nm],U(h)[kJ/mol]
0.149999999999999994,68.457987008064108636
0.150999999999999995,63.051544671755017646
0.151999999999999996,59.401412367029067241
0.152999999999999997,56.155680715012849191
0.153999999999999998,52.828273982800467934
0.154999999999999999,49.336201237627193450
0.156000000000000000,45.751284649308459507
0.157000000000000001,42.177524277690039867
0.158000000000000002,38.698928156401002809
0.159000000000000002,35.364412600312491008
0.160000000000000003,32.190234330672311103
0.161000000000000004,29.169056279724365766
0.162000000000000005,26.279997697005097024
0.163000000000000006,23.497097713211942960
0.164000000000000007,20.795338721438881180
0.165000000000000008,18.154260944560668634
0.166000000000000009,15.559593272136492459
0.167000000000000010,13.003443347572920530
0.168000000000000010,10.483564843458507809
0.169000000000000011,8.002131130295493833
0.170000000000000012,5.564337171675181715
0.171000000000000013,3.177049203168079483
0.172000000000000014,0.847635429290627629
0.173000000000000015,-1.416955988211340056
0.174000000000000016,-3.610853589977353728
0.175000000000000017,-5.729667863932336402
0.176000000000000018,-7.770678013312108945
0.177000000000000018,-9.732842398126983596
0.178000000000000019,-11.616677081505006441
0.179000000000000020,-13.424044625756627269
0.180000000000000021,-15.157890277591167916
0.181000000000000022,-16.821956332846202287
0.182000000000000023,-18.420498748905409059
0.183000000000000024,-19.958023620889978389
0.184000000000000025,-21.439055345716766965
0.185000000000000026,-22.867943368485349254
0.186000000000000026,-24.248710407576751891
0.187000000000000027,-25.584941968160372028
0.188000000000000028,-26.879714702702358409
0.189000000000000029,-28.135559655113489441
0.190000000000000030,-29.354455513209103401
0.191000000000000031,-30.537846572506772702
0.192000000000000032,-31.686680070718985291
0.193000000000000033,-32.801457786164959884
0.194000000000000034,-33.882297218385161841
0.195000000000000034,-34.928998213836578657
0.196000000000000035,-35.941111506161576017
0.197000000000000036,-36.918006264632182933
0.198000000000000037,-37.858934352882421592
0.199000000000000038,-38.763089569615047481
0.200000000000000039,-39.629660658348171864
0.201000000000000040,-40.457877325686894210
0.202000000000000041,-41.247048893373360556
0.203000000000000042,-41.996595528605858760
0.204000000000000042,-42.706072252712232284
0.205000000000000043,-43.375186124972678670
0.206000000000000044,-44.003807142148602338
0.207000000000000045,-44.591973491624521841
0.208000000000000046,-45.139891853738873806
0.209000000000000047,-45.647933473456582476
0.210000000000000048,-46.116626719260281675
0.211000000000000049,-46.546646823742847232
0.212000000000000050,-46.938803461020086161
0.213000000000000050,-47.294026765258990963
0.214000000000000051,-47.613352336218838445
0.215000000000000052,-47.897905714987928150
0.216000000000000053,-48.148886748748637388
0.217000000000000054,-48.367554199569795514
0.218000000000000055,-48.555210890578010208
0.219000000000000056,-48.713189624649515963
0.220000000000000057,-48.842840056885286515
0.221000000000000058,-48.945516653157810083
0.222000000000000058,-49.022567823285065458
0.223000000000000059,-49.075326279001629359
0.224000000000000060,-49.105100633818878464
0.225000000000000061,-49.113168233915246219
0.226000000000000062,-49.100769186100230002
0.227000000000000063,-49.069101530314448212
0.228000000000000064,-49.019317489675700017
0.229000000000000065,-48.952520720349255612
0.230000000000000066,-48.869764476088576544
0.231000000000000066,-48.772050597746954281
0.232000000000000067,-48.660329235994858266
0.233000000000000068,-48.535499215511109128
0.234000000000000069,-48.398408950688597940
0.235000000000000070,-48.249857826077715117
0.236000000000000071,-48.090597959082408863
0.237000000000000072,-47.921336267558352517
0.238000000000000073,-47.742736770700012983
0.239000000000000073,-47.555423057737129966
0.240000000000000074,-47.359980865314945220
0.241000000000000075,-47.156960710850647445
0.242000000000000076,-46.946880535519014188
0.243000000000000077,-46.730228316717536075
0.244000000000000078,-46.507464615814313902
0.245000000000000079,-46.279025032624687697
0.246000000000000080,-46.045322543351147715
0.247000000000000081,-45.806749703619068725
0.248000000000000081,-45.563680702728824201
0.249000000000000082,-45.316473259313767130
0.250000000000000111,-45.065470352239955787
0.251000000000000112,-44.811001783814930377
0.252000000000000113,-44.553385575201204460
0.253000000000000114,-44.292929196370408818
0.254000000000000115,-44.029930635008426520
0.255000000000000115,-43.764679310511986898
0.256000000000000116,-43.497456840627258146
0.257000000000000117,-43.228537669398164667
0.258000000000000118,-42.958189565940628540
0.259000000000000119,-42.686674004166206942
0.260000000000000120,-42.414246433970525629
0.261000000000000121,-42.141156454600903203
0.262000000000000122,-41.867647900951880047
0.263000000000000123,-41.593958853425171185
0.264000000000000123,-41.320321581756083162
0.265000000000000124,-41.046962432870401472
0.266000000000000125,-40.774101672413074482
0.267000000000000126,-40.501953289098580058
0.268000000000000127,-40.230724770488869524
0.269000000000000128,-39.960616858221669645
0.270000000000000129,-39.691823290101901023
0.271000000000000130,-39.424530535842656320
0.272000000000000131,-39.158917532610239221
0.273000000000000131,-38.895155425896760448
0.274000000000000132,-38.633407320622382031
0.275000000000000133,-38.373828046763037491
0.276000000000000134,-38.116563943212582899
0.277000000000000135,-37.861752663025953325
0.278000000000000136,-37.609523002655649293
0.279000000000000137,-37.359994757287466882
0.280000000000000138,-37.113278603909492404
0.281000000000000139,-36.869476013306673678
0.282000000000000139,-36.628679191767481882
0.283000000000000140,-36.390971052915823236
0.284000000000000141,-36.156425219742132526
0.285000000000000142,-35.925106056602288618
0.286000000000000143,-35.697068730679092141
0.287000000000000144,-35.472359302159141237
0.288000000000000145,-35.251014842166782159
0.289000000000000146,-35.033063577313271253
0.290000000000000147,-34.818525059564528590
0.291000000000000147,-34.607410360000983474
0.292000000000000148,-34.399722284937553241
0.293000000000000149,-34.195455612789345423
0.294000000000000150,-33.994597350006237946
0.295000000000000151,-33.797127004357157887
0.296000000000000152,-33.603016873819157695
0.297000000000000153,-33.412232349317541491
0.298000000000000154,-33.224732229568147091
0.299000000000000155,-33.040469046290681376
0.300000000000000155,-32.859389398091437329
0.301000000000000156,-32.681434291353333776
0.302000000000000157,-32.506539486518683191
0.303000000000000158,-32.334635848206083608
0.304000000000000159,-32.165649697664775886
0.305000000000000160,-31.999503166136435084
0.306000000000000161,-31.836114547766221961
0.307000000000000162,-31.675398650779378329
0.308000000000000163,-31.517267145716878929
0.309000000000000163,-31.361628909602330850
0.310000000000000164,-31.208390364992528276
0.311000000000000165,-31.057455812943839391
0.312000000000000166,-30.908727759006886515
0.313000000000000167,-30.762107231441085275
0.314000000000000168,-30.617494090918636829
0.315000000000000169,-30.474787331064213447
0.316000000000000170,-30.333885369250992881
0.317000000000000171,-30.194686327145991100
0.318000000000000171,-30.057088300567841088
0.319000000000000172,-29.920989618286974121
0.320000000000000173,-29.786289089462758994
0.321000000000000174,-29.652886239473634333
0.322000000000000175,-29.520681533954292064
0.323000000000000176,-29.389576590909467058
0.324000000000000177,-29.259474380825793105
0.325000000000000178,-29.130279414751782951
0.326000000000000179,-29.001897920361944472
0.327000000000000179,-28.874238006063148276
0.328000000000000180,-28.747209813240694132
0.329000000000000181,-28.620725656778017054
0.330000000000000182,-28.494700154016506133
0.331000000000000183,-28.369050342352824856
0.332000000000000184,-28.243695785698008649
0.333000000000000185,-28.118558670047384851
0.334000000000000186,-27.993563888432412057
0.335000000000000187,-27.868639115544691975
0.336000000000000187,-27.743714872339609201
0.337000000000000188,-27.618724580941563573
0.338000000000000189,-27.493604610185133907
0.339000000000000190,-27.368294312137209090
0.340000000000000191,-27.242736049952632982
0.341000000000000192,-27.116875217423775268
0.342000000000000193,-26.990660250587630742
0.343000000000000194,-26.864042631758611179
0.344000000000000195,-26.736976886355581229
0.345000000000000195,-26.609420572893093038
0.346000000000000196,-26.481334266504546804
0.347000000000000197,-26.352681536363622428
0.348000000000000198,-26.223428917366391033
0.349000000000000199,-26.093545876432386876
0.350000000000000200,-25.963004773777630163
0.351000000000000201,-25.831780819506310110
0.352000000000000202,-25.699852025861208205
0.353000000000000203,-25.567199155465367255
0.354000000000000203,-25.433805665879440028
0.355000000000000204,-25.299657650790500441
0.356000000000000205,-25.164743778139268215
0.357000000000000206,-25.029055225483389790
0.358000000000000207,-24.892585612884133184
0.359000000000000208,-24.755330933594969167
0.360000000000000209,-24.617289482819384006
0.361000000000000210,-24.478461784795616296
0.362000000000000210,-24.338850518455309668
0.363000000000000211,-24.198460441892866157
0.364000000000000212,-24.057298315871740613
0.365000000000000213,-23.915372826583361388
0.366000000000000214,-23.772694507864201796
0.367000000000000215,-23.629275663066096058
0.368000000000000216,-23.485130286764764662
0.369000000000000217,-23.340273986481303581
0.370000000000000218,-23.194723904581788787
0.371000000000000218,-23.048498640510167945
0.372000000000000219,-22.901618173500082776
0.373000000000000220,-22.754103785902280777
0.374000000000000221,-22.605977987254721739
0.375000000000000222,-22.457264439213972196
0.376000000000000223,-22.307987881457709278
0.377000000000000224,-22.158174058659991346
0.378000000000000225,-22.007849648632543449
0.379000000000000226,-21.857042191717805935
0.380000000000000226,-21.705780021511849043
0.381000000000000227,-21.554092196987731711
0.382000000000000228,-21.402008436083555409
0.383000000000000229,-21.249559050811761551
0.384000000000000230,-21.096774883940646816
0.385000000000000231,-20.943687247292622544
0.386000000000000232,-20.790327861697601719
0.387000000000000233,-20.636728798634543125
0.388000000000000234,-20.482922423588874494
0.389000000000000234,-20.328941341148251354
0.390000000000000235,-20.174818341854297898
0.391000000000000236,-20.020586350823585065
0.392000000000000237,-19.866278378146567718
0.393000000000000238,-19.711927471069255802
0.394000000000000239,-19.557566667958433015
0.395000000000000240,-19.403228954047836652
0.396000000000000241,-19.248947218959109762
0.397000000000000242,-19.094754215988167800
0.398000000000000242,-18.940682523145106586
0.399000000000000243,-18.786764505932275426
0.400000000000000244,-18.633032281843210143
0.401000000000000245,-18.479517686562640932
0.402000000000000246,-18.326252241845473634
0.403000000000000247,-18.173267125050536208
0.404000000000000248,-18.020593140303585500
0.405000000000000249,-17.868260691261816930
0.406000000000000250,-17.716299755450929609
0.407000000000000250,-17.564739860144484851
0.408000000000000251,-17.413610059753747095
0.409000000000000252,-17.262938914695741488
0.410000000000000253,-17.112754471705486026
0.411000000000000254,-16.963084245558455621
0.412000000000000255,-16.813955202167765179
0.413000000000000256,-16.665393743020764816
0.414000000000000257,-16.517425690918493331
0.415000000000000258,-16.370076276981713193
0.416000000000000258,-16.223370128886624997
0.417000000000000259,-16.077331260293014736
0.418000000000000260,-15.931983061428033110
0.419000000000000261,-15.787348290787923233
0.420000000000000262,-15.643449067921064710
0.421000000000000263,-15.500306867254797893
0.422000000000000264,-15.357942512929430023
0.423000000000000265,-15.216376174602498139
0.424000000000000266,-15.075627364187230484
0.425000000000000266,-14.935714933488776879
0.426000000000000267,-14.796657072702803504
0.427000000000000268,-14.658471309741013755
0.428000000000000269,-14.521174510348938469
0.429000000000000270,-14.384782878981585696
0.430000000000000271,-14.249311960403298727
0.431000000000000272,-14.114776641978503235
0.432000000000000273,-13.981191156620804250
0.433000000000000274,-13.848569086368518910
0.434000000000000274,-13.716923366554999220
0.435000000000000275,-13.586266290543395741
0.436000000000000276,-13.456609514995628629
0.437000000000000277,-13.327964065646122904
0.438000000000000278,-13.200340343551857814
0.439000000000000279,-13.073748131790718929
0.440000000000000280,-12.948196602580718917
0.441000000000000281,-12.823694324793851962
0.442000000000000282,-12.700249271838604415
0.443000000000000282,-12.577868829886082125
0.444000000000000283,-12.456559806415416602
0.445000000000000284,-12.336328439054870643
0.446000000000000285,-12.217180404695623608
0.447000000000000286,-12.099120828856289478
0.448000000000000287,-11.982154295276426836
0.449000000000000288,-11.866284855718564728
0.450000000000000289,-11.751516039958545434
0.451000000000000290,-11.637850865944896483
0.452000000000000290,-11.525291850108656533
0.453000000000000291,-11.413841017805541611
0.454000000000000292,-11.303499913873412908
0.455000000000000293,-11.194269613288126308
0.456000000000000294,-11.086150731902119304
0.457000000000000295,-10.979143437250154847
0.458000000000000296,-10.873247459407693327
0.459000000000000297,-10.768462101887811500
0.460000000000000298,-10.664786252563109414
0.461000000000000298,-10.562218394599906190
0.462000000000000299,-10.460756617392316770
0.463000000000000300,-10.360398627484579848
0.464000000000000301,-10.261141759470429946
0.465000000000000302,-10.162982986859031342
0.466000000000000303,-10.065918932897227833
0.467000000000000304,-9.969945881338686533
0.468000000000000305,-9.875059787150878066
0.469000000000000306,-9.781256287151226303
0.470000000000000306,-9.688530710564545956
0.471000000000000307,-9.596878089493856123
0.472000000000000308,-9.506293169297785894
0.473000000000000309,-9.416770418867434600
0.474000000000000310,-9.328304040796700392
0.475000000000000311,-9.240887981439950494
0.476000000000000312,-9.154515940851799982
0.477000000000000313,-9.069181382603527908
0.478000000000000314,-8.984877543471672112
0.479000000000000314,-8.901597442994374276
0.480000000000000315,-8.819333892891254578
0.481000000000000316,-8.738079506343364500
0.482000000000000317,-8.657826707129629540
0.483000000000000318,-8.578567738616850846
0.484000000000000319,-8.500294672600336554
0.485000000000000320,-8.422999417992912186
0.486000000000000321,-8.346673729359826766
0.487000000000000322,-8.271309215297817374
0.488000000000000322,-8.196897346656491834
0.489000000000000323,-8.123429464600722127
0.490000000000000324,-8.050896788512696745
0.491000000000000325,-7.979290423732774862
0.492000000000000326,-7.908601369138169801
0.493000000000000327,-7.838820524559136693
0.494000000000000328,-7.769938698032045288
0.495000000000000329,-7.701946612889345900
0.496000000000000330,-7.634834914686209117
0.497000000000000330,-7.568594177964174108
0.498000000000000331,-7.503214912851960960
0.499000000000000332,-7.438687571504049245
0.500000000000000333,-7.375002554377462438
0.501000000000000334,-7.312150216347680143
0.502000000000000335,-7.250120872664316707
0.503000000000000336,-7.188904804747856758
0.504000000000000337,-7.128492265828218599
0.505000000000000338,-7.068873486426609176
0.506000000000000338,-7.010038679681862561
0.507000000000000339,-6.951978046522659938
0.508000000000000340,-6.894681780687207606
0.509000000000000341,-6.838140073591840284
0.510000000000000342,-6.782343119050308289
0.511000000000000343,-6.727281117845381075
0.512000000000000344,-6.672944282154610107
0.513000000000000345,-6.619322839832099348
0.514000000000000346,-6.566407038548177866
0.515000000000000346,-6.514187149788918774
0.516000000000000347,-6.462653472717539316
0.517000000000000348,-6.411796337899761333
0.518000000000000349,-6.361606110895079880
0.519000000000000350,-6.312073195716243035
0.520000000000000351,-6.263188038158986615
0.521000000000000352,-6.214941129004206033
0.522000000000000353,-6.167323007094814180
0.523000000000000353,-6.120324262289441819
0.524000000000000354,-6.073935538295314629
0.525000000000000355,-6.028147535382436750
0.526000000000000356,-5.982951012981461147
0.527000000000000357,-5.938336792167448586
0.528000000000000358,-5.894295758031807608
0.529000000000000359,-5.850818861944690141
0.530000000000000360,-5.807897123710159093
0.531000000000000361,-5.765521633616359054
0.532000000000000361,-5.723683554382984262
0.533000000000000362,-5.682374123008306022
0.534000000000000363,-5.641584652518064402
0.535000000000000364,-5.601306533618377159
0.536000000000000365,-5.561531236255015997
0.537000000000000366,-5.522250311081200458
0.538000000000000367,-5.483455390836148524
0.539000000000000368,-5.445138191636591074
0.540000000000000369,-5.407290514183380914
0.541000000000000369,-5.369904244885415956
0.542000000000000370,-5.332971356903000171
0.543000000000000371,-5.296483911112689569
0.544000000000000372,-5.260434056995845431
0.545000000000000373,-5.224814033452863882
0.546000000000000374,-5.189616169545169910
0.547000000000000375,-5.154832885166982237
0.548000000000000376,-5.120456691648925585
0.549000000000000377,-5.086480192295335989
0.550000000000000377,-5.052896082857276205
0.551000000000000378,-5.019697151943230296
0.552000000000000379,-4.986876281369251096
0.553000000000000380,-4.954426446450518107
0.554000000000000381,-4.922340716236099034
0.555000000000000382,-4.890612253688748190
0.556000000000000383,-4.859234315811447935
0.557000000000000384,-4.828200253722563673
0.558000000000000385,-4.797503512681181803
0.559000000000000385,-4.767137632064459396
0.560000000000000386,-4.737096245298507924
0.561000000000000387,-4.707373079744549216
0.562000000000000388,-4.677961956541905053
0.563000000000000389,-4.648856790409297446
0.564000000000000390,-4.620051589406171999
0.565000000000000391,-4.591540454655368642
0.566000000000000392,-4.563317580028741993
0.567000000000000393,-4.535377251797114262
0.568000000000000393,-4.507713848245976429
0.569000000000000394,-4.480321839258349925
0.570000000000000395,-4.453195785866153500
0.571000000000000396,-4.426330339771364919
0.572000000000000397,-4.399720242838341733
0.573000000000000398,-4.373360326558488609
0.574000000000000399,-4.347245511488578629
0.575000000000000400,-4.321370806663892061
0.576000000000000401,-4.295731308987349450
0.577000000000000401,-4.270322202595840722
0.578000000000000402,-4.245138758204809903
0.579000000000000403,-4.220176332432228783
0.580000000000000404,-4.195430367103018199
0.581000000000000405,-4.170896388534979238
0.582000000000000406,-4.146570006807175801
0.583000000000000407,-4.122446915011873436
0.584000000000000408,-4.098522888490881755
0.585000000000000409,-4.074793784057318291
0.586000000000000409,-4.051255539203643785
0.587000000000000410,-4.027904171296914804
0.588000000000000411,-4.004735776762061938
0.589000000000000412,-3.981746530254059557
0.590000000000000413,-3.958932683819783360
0.591000000000000414,-3.936290566050382633
0.592000000000000415,-3.913816581224863089
0.593000000000000416,-3.891507208445697419
0.594000000000000417,-3.869359000767146561
0.595000000000000417,-3.847368584316997353
0.596000000000000418,-3.825532657412376469
0.597000000000000419,-3.803847989670357865
0.598000000000000420,-3.782311421113905059
0.599000000000000421,-3.760919861273861020
0.600000000000000422,-3.739670288287499922
0.601000000000000423,-3.718559747994280684
0.602000000000000424,-3.697585353029308575
0.603000000000000425,-3.676744281915074630
0.604000000000000425,-3.656033778151970726
0.605000000000000426,-3.635451149308108310
0.606000000000000427,-3.614993766108904882
0.607000000000000428,-3.594659061526876975
0.608000000000000429,-3.574444529872157883
0.609000000000000430,-3.554347725884109188
0.610000000000000431,-3.534366263824478160
0.611000000000000432,-3.514497816572476729
0.612000000000000433,-3.494740114722185265
0.613000000000000433,-3.475090945682648425
0.614000000000000434,-3.455548152781015681
0.615000000000000435,-3.436109634369040489
0.616000000000000436,-3.416773342933331570
0.617000000000000437,-3.397537284209584563
0.618000000000000438,-3.378399516301163086
0.619000000000000439,-3.359358148802275679
0.620000000000000440,-3.340411341926032840
0.621000000000000441,-3.321557305637649726
0.622000000000000441,-3.302794298793029437
0.623000000000000442,-3.284120628282996002
0.624000000000000443,-3.265534648183348931
0.625000000000000444,-3.247034758910997798
0.626000000000000445,-3.228619406386378898
0.627000000000000446,-3.210287081202307657
0.628000000000000447,-3.192036317799509249
0.629000000000000448,-3.173865693648927788
0.630000000000000449,-3.155773828441054363
0.631000000000000449,-3.137759383282348047
0.632000000000000450,-3.119821059898963522
0.633000000000000451,-3.101957599847882552
0.634000000000000452,-3.084167783735578539
0.635000000000000453,-3.066450430444336295
0.636000000000000454,-3.048804396366341152
0.637000000000000455,-3.031228574645633778
0.638000000000000456,-3.013721894428031511
0.639000000000000457,-2.996283320119087712
0.640000000000000457,-2.978911850650182380
0.641000000000000458,-2.961606518752817330
0.642000000000000459,-2.944366390241175857
0.643000000000000460,-2.927190563302997095
0.644000000000000461,-2.910078167798844540
0.645000000000000462,-2.893028364569783406
0.646000000000000463,-2.876040344753537426
0.647000000000000464,-2.859113329109131296
0.648000000000000465,-2.842246567350073860
0.649000000000000465,-2.825439337486089553
0.650000000000000466,-2.808690945173430098
0.651000000000000467,-2.792000723073762902
0.652000000000000468,-2.775368030221665006
0.653000000000000469,-2.758792251400710605
0.654000000000000470,-2.742272796528173018
0.655000000000000471,-2.725809100048309119
0.656000000000000472,-2.709400620334240894
0.657000000000000473,-2.693046839098417689
0.658000000000000473,-2.676747260811632945
0.659000000000000474,-2.660501412130588328
0.660000000000000475,-2.644308841333975924
0.661000000000000476,-2.628169117767052310
0.662000000000000477,-2.612081831294673862
0.663000000000000478,-2.596046591762774192
0.664000000000000479,-2.580063028468223330
0.665000000000000480,-2.564130789637037111
0.666000000000000481,-2.548249541910942551
0.667000000000000481,-2.532418969842148648
0.668000000000000482,-2.516638775396414562
0.669000000000000483,-2.500908677464239283
0.670000000000000484,-2.485228411380213664
0.671000000000000485,-2.469597728450419361
0.672000000000000486,-2.454016395487863988
0.673000000000000487,-2.438484194355885926
0.674000000000000488,-2.423000921519435469
0.675000000000000488,-2.407566387604214153
0.676000000000000489,-2.392180416963611833
0.677000000000000490,-2.376842847253329616
0.678000000000000491,-2.361553529013676656
0.679000000000000492,-2.346312325259458209
0.680000000000000493,-2.331119111077361694
0.681000000000000494,-2.315973773230811439
0.682000000000000495,-2.300876209772197090
0.683000000000000496,-2.285826329662423273
0.684000000000000496,-2.270824052397665049
0.685000000000000497,-2.255869307643343813
0.686000000000000498,-2.240962034875136233
0.687000000000000499,-2.226102183027049541
0.688000000000000500,-2.211289710146398857
0.689000000000000501,-2.196524583055694535
0.690000000000000502,-2.181806777021279675
0.691000000000000503,-2.167136275428712455
0.692000000000000504,-2.152513069464767170
0.693000000000000504,-2.137937157806018451
0.694000000000000505,-2.123408546313874989
0.695000000000000506,-2.108927247736048116
0.696000000000000507,-2.094493281414331332
0.697000000000000508,-2.080106672998625505
0.698000000000000509,-2.065767454167155126
0.699000000000000510,-2.051475662352726825
0.700000000000000511,-2.037231340475067043
0.701000000000000512,-2.023034536679026552
0.702000000000000512,-2.008885304078682488
0.703000000000000513,-1.994783700507196000
0.704000000000000514,-1.980729788272369563
0.705000000000000515,-1.966723633917828895
0.706000000000000516,-1.952765307989732690
0.707000000000000517,-1.938854884808949963
0.708000000000000518,-1.924992442248620872
0.709000000000000519,-1.911178061517028626
0.710000000000000520,-1.897411826945682112
0.711000000000000520,-1.883693825782563946
0.712000000000000521,-1.870024147990459129
0.713000000000000522,-1.856402886050248613
0.714000000000000523,-1.842830134769176009
0.715000000000000524,-1.829305991093901795
0.716000000000000525,-1.815830553928388102
0.717000000000000526,-1.802403923956422016
0.718000000000000527,-1.789026203468804921
0.719000000000000528,-1.775697496195061564
0.720000000000000528,-1.762417907139651962
0.721000000000000529,-1.749187542422537378
0.722000000000000530,-1.736006509124138120
0.723000000000000531,-1.722874915134497087
0.724000000000000532,-1.709792869006649507
0.725000000000000533,-1.696760479814123146
0.726000000000000534,-1.683777857012447310
0.727000000000000535,-1.670845110304681969
0.728000000000000536,-1.657962349510811562
0.729000000000000536,-1.645129684441017037
0.730000000000000537,-1.632347224772694450
0.731000000000000538,-1.619615079931182366
0.732000000000000539,-1.606933358974136805
0.733000000000000540,-1.594302170479477088
0.734000000000000541,-1.581721622436819796
0.735000000000000542,-1.569191822142388393
0.736000000000000543,-1.556712876097286369
0.737000000000000544,-1.544284889909077307
0.738000000000000544,-1.531907968196640768
0.739000000000000545,-1.519582214498205408
0.740000000000000546,-1.507307731182522037
0.741000000000000547,-1.495084619363103329
0.742000000000000548,-1.482912978815484673
0.743000000000000549,-1.470792907897430224
0.744000000000000550,-1.458724503472032641
0.745000000000000551,-1.446707860833667647
0.746000000000000552,-1.434743073636698174
0.747000000000000552,-1.422830233826949842
0.748000000000000553,-1.410969431575805455
0.749000000000000554,-1.399160755216952268
0.750000000000000555,-1.387404291185676986
0.751000000000000556,-1.375700123960666321
0.752000000000000557,-1.364048336008266249
0.753000000000000558,-1.352449007729150665
0.754000000000000559,-1.340902217407333286
0.755000000000000560,-1.329408041161487475
0.756000000000000560,-1.317966552898518717
0.757000000000000561,-1.306577824269338883
0.758000000000000562,-1.295241924626788999
0.759000000000000563,-1.283958920985691643
0.760000000000000564,-1.272728877984932838
0.761000000000000565,-1.261551857851586522
0.762000000000000566,-1.250427920366980583
0.763000000000000567,-1.239357122834725100
0.764000000000000568,-1.228339520050562017
0.765000000000000568,-1.217375164274115740
0.766000000000000569,-1.206464105202387227
0.767000000000000570,-1.195606389945025549
0.768000000000000571,-1.184802063001281436
0.769000000000000572,-1.174051166238671229
0.770000000000000573,-1.163353738873219578
0.771000000000000574,-1.152709817451328167
0.772000000000000575,-1.142119435833172547
0.773000000000000576,-1.131582625177606882
0.774000000000000576,-1.121099413928556832
0.775000000000000577,-1.110669827802845067
0.776000000000000578,-1.100293889779379697
0.777000000000000579,-1.089971620089772886
0.778000000000000580,-1.079703036210212685
0.779000000000000581,-1.069488152854685570
0.780000000000000582,-1.059326981969411996
0.781000000000000583,-1.049219532728548288
0.782000000000000584,-1.039165811531037820
0.783000000000000584,-1.029165821998652586
0.784000000000000585,-1.019219564975148984
0.785000000000000586,-1.009327038526506737
0.786000000000000587,-0.999488237942265378
0.787000000000000588,-0.989703155737861828
0.788000000000000589,-0.979971781657980046
0.789000000000000590,-0.970294102680893333
0.790000000000000591,-0.960670103023730126
0.791000000000000592,-0.951099764148679916
0.792000000000000592,-0.941583064770066813
0.793000000000000593,-0.932119980862302300
0.794000000000000594,-0.922710485668679636
0.795000000000000595,-0.913354549710961527
0.796000000000000596,-0.904052140799762372
0.797000000000000597,-0.894803224045704781
0.798000000000000598,-0.885607761871278543
0.799000000000000599,-0.876465714023446529
0.800000000000000600,-0.867377037586911648
0.801000000000000600,-0.858341686998073783
0.802000000000000601,-0.849359614059591927
0.803000000000000602,-0.840430767955610336
0.804000000000000603,-0.831555095267546784
0.805000000000000604,-0.822732539990473355
0.806000000000000605,-0.813963043550046783
0.807000000000000606,-0.805246544819983812
0.808000000000000607,-0.796582980140027153
0.809000000000000608,-0.787972283334437917
0.810000000000000608,-0.779414385730939130
0.811000000000000609,-0.770909216180124646
0.812000000000000610,-0.762456701075308940
0.813000000000000611,-0.754056764372783350
0.814000000000000612,-0.745709327612493089
0.815000000000000613,-0.737414309939094070
0.816000000000000614,-0.729171628123351678
0.817000000000000615,-0.720981196583933337
0.818000000000000616,-0.712842927409512939
0.819000000000000616,-0.704756730381184027
0.820000000000000617,-0.696722512995194609
0.821000000000000618,-0.688740180485958309
0.822000000000000619,-0.680809635849363048
0.823000000000000620,-0.672930779866295681
0.824000000000000621,-0.665103511126446834
0.825000000000000622,-0.657327726052334471
0.826000000000000623,-0.649603318923545059
0.827000000000000624,-0.641930181901179231
0.828000000000000624,-0.634308205052485974
0.829000000000000625,-0.626737276375679664
0.830000000000000626,-0.619217281824919086
0.831000000000000627,-0.611748105335439996
0.832000000000000628,-0.604329628848850442
0.833000000000000629,-0.596961732338511686
0.834000000000000630,-0.589644293835090094
0.835000000000000631,-0.582377189452182087
0.836000000000000631,-0.575160293412056101
0.837000000000000632,-0.567993478071480373
0.838000000000000633,-0.560876613947612013
0.839000000000000634,-0.553809569743982322
0.840000000000000635,-0.546792212376520426
0.841000000000000636,-0.539824406999625084
0.842000000000000637,-0.532906017032302892
0.843000000000000638,-0.526036904184293830
0.844000000000000639,-0.519216928482262641
0.845000000000000639,-0.512445948295984777
0.846000000000000640,-0.505723820364530008
0.847000000000000641,-0.499050399822468294
0.848000000000000642,-0.492425540226048342
0.849000000000000643,-0.485849093579359237
0.850000000000000644,-0.479320910360488184
0.851000000000000645,-0.472840839547611025
0.852000000000000646,-0.466408728645089643
0.853000000000000647,-0.460024423709490815
0.854000000000000647,-0.453687769375561989
0.855000000000000648,-0.447398608882160320
0.856000000000000649,-0.441156784098109545
0.857000000000000650,-0.434962135547990514
0.858000000000000651,-0.428814502437852851
0.859000000000000652,-0.422713722680853998
0.860000000000000653,-0.416659632922806111
0.861000000000000654,-0.410652068567632589
0.862000000000000655,-0.404690863802738332
0.863000000000000655,-0.398775851624259214
0.864000000000000656,-0.392906863862228728
0.865000000000000657,-0.387083731205620452
0.866000000000000658,-0.381306283227280274
0.867000000000000659,-0.375574348408742265
0.868000000000000660,-0.369887754164911930
0.869000000000000661,-0.364246326868644943
0.870000000000000662,-0.358649891875166549
0.871000000000000663,-0.353098273546382624
0.872000000000000663,-0.347591295275037238
0.873000000000000664,-0.342128779508738212
0.874000000000000665,-0.336710547773831470
0.875000000000000666,-0.331336420699131495
0.876000000000000667,-0.326006218039508744
0.877000000000000668,-0.320719758699308632
0.878000000000000669,-0.315476860755630972
0.879000000000000670,-0.310277341481435487
0.880000000000000671,-0.305121017368501501
0.881000000000000671,-0.300007704150211718
0.882000000000000672,-0.294937216824180559
0.883000000000000673,-0.289909369674702933
0.884000000000000674,-0.284923976295047454
0.885000000000000675,-0.279980849609559879
0.886000000000000676,-0.275079801895616816
0.887000000000000677,-0.270220644805380383
0.888000000000000678,-0.265403189387379557
0.889000000000000679,-0.260627246107933253
0.890000000000000679,-0.255892624872365027
0.891000000000000680,-0.251199135046058397
0.892000000000000681,-0.246546585475312330
0.893000000000000682,-0.241934784508019973
0.894000000000000683,-0.237363540014166124
0.895000000000000684,-0.232832659406126657
0.896000000000000685,-0.228341949658793730
0.897000000000000686,-0.223891217329497849
0.898000000000000687,-0.219480268577756321
0.899000000000000687,-0.215108909184819452
0.900000000000000688,-0.210776944573022845
0.901000000000000689,-0.206484179824964004
0.902000000000000690,-0.202230419702478237
0.903000000000000691,-0.198015468665418137
0.904000000000000692,-0.193839130890236383
0.905000000000000693,-0.189701210288396982
0.906000000000000694,-0.185601510524564056
0.907000000000000695,-0.181539835034611741
0.908000000000000695,-0.177515987043451451
0.909000000000000696,-0.173529769582633830
0.910000000000000697,-0.169580985507786108
0.911000000000000698,-0.165669437515834905
0.912000000000000699,-0.161794928162044993
0.913000000000000700,-0.157957259876868733
0.914000000000000701,-0.154156234982576773
0.915000000000000702,-0.150391655709723820
0.916000000000000703,-0.146663324213406443
0.917000000000000703,-0.142971042589326081
0.918000000000000704,-0.139314612889660377
0.919000000000000705,-0.135693837138740031
0.920000000000000706,-0.132108517348542287
0.921000000000000707,-0.128558455533978350
0.922000000000000708,-0.125043453727994108
0.923000000000000709,-0.121563313996489855
0.924000000000000710,-0.118117838453025439
0.925000000000000711,-0.114706829273368699
0.926000000000000711,-0.111330088709816130
0.927000000000000712,-0.107987419105354698
0.928000000000000713,-0.104678622907621088
0.929000000000000714,-0.101403502682682278
0.930000000000000715,-0.098161861128612582
0.931000000000000716,-0.094953501088900299
0.932000000000000717,-0.091778225565669058
0.933000000000000718,-0.088635837732700881
0.934000000000000719,-0.085526140948287255
0.935000000000000719,-0.082448938767894747
0.936000000000000720,-0.079404034956650354
0.937000000000000721,-0.076391233501634542
0.938000000000000722,-0.073410338624009835
0.939000000000000723,-0.070461154790962890
0.940000000000000724,-0.067543486727462632
0.941000000000000725,-0.064657139427852228
0.942000000000000726,-0.061801918167255651
0.943000000000000727,-0.058977628512814129
0.944000000000000727,-0.056184076334747222
0.945000000000000728,-0.053421067817238557
0.946000000000000729,-0.050688409469152096
0.947000000000000730,-0.047985908134574304
0.948000000000000731,-0.045313371003189412
0.949000000000000732,-0.042670605620489743
0.950000000000000733,-0.040057419897803273
0.951000000000000734,-0.037473622122172416
0.952000000000000735,-0.034919020966063904
0.953000000000000735,-0.032393425496895181
0.954000000000000736,-0.029896645186425319
0.955000000000000737,-0.027428489919970489
0.956000000000000738,-0.024988770005457760
0.957000000000000739,-0.022577296182322699
0.958000000000000740,-0.020193879630244986
0.959000000000000741,-0.017838331977731076
0.960000000000000742,-0.015510465310549398
0.961000000000000743,-0.013210092179983068
0.962000000000000743,-0.010937025610960957
0.963000000000000744,-0.008691079110019193
0.964000000000000745,-0.006472066673120380
0.965000000000000746,-0.004279802793316521
0.966000000000000747,-0.002114102468257541
0.967000000000000748,0.000025218792422760
0.968000000000000749,0.002138344959892049
0.969000000000000750,0.004225459479038034
0.970000000000000751,0.006286745261528446
0.971000000000000751,0.008322384679018299
0.972000000000000752,0.010332559556501714
0.973000000000000753,0.012317451165780468
0.974000000000000754,0.014277240219103222
0.975000000000000755,0.016212106862916048
0.976000000000000756,0.018122230671760286
0.977000000000000757,0.020007790642298628
0.978000000000000758,0.021868965187485639
0.979000000000000759,0.023705932130848595
0.980000000000000759,0.025518868700921953
0.981000000000000760,0.027307951525797947
0.982000000000000761,0.029073356627799606
0.983000000000000762,0.030815259418298158
0.984000000000000763,0.032533834692639665
0.985000000000000764,0.034229256625199683
0.986000000000000765,0.035901698764563637
0.987000000000000766,0.037551334028829868
0.988000000000000766,0.039178334701027162
0.989000000000000767,0.040782872424642527
0.990000000000000768,0.042365118199299105
0.991000000000000769,0.043925242376509910
0.992000000000000770,0.045463414655572777
0.993000000000000771,0.046979804079569941
0.994000000000000772,0.048474579031482203
0.995000000000000773,0.049947907230408414
0.996000000000000774,0.051399955727909438
0.997000000000000774,0.052830890904441166
0.998000000000000775,0.054240878465913564
0.999000000000000776,0.055630083440339706
1.000000000000000666,0.056998670174606178
1.001000000000000778,0.058346802331329037
1.002000000000000668,0.059674642885828702
1.003000000000000780,0.060982354123204865
1.004000000000000670,0.062270097635487021
1.005000000000000782,0.063538034318925990
1.006000000000000671,0.064786324371338716
1.007000000000000783,0.066015127289593287
1.008000000000000673,0.067224601867151484
1.009000000000000785,0.068414906191724051
1.010000000000000675,0.069586197643020847
1.011000000000000787,0.070738632890587461
1.012000000000000677,0.071872367891728337
1.013000000000000789,0.072987557889533483
1.014000000000000679,0.074084357410974896
1.015000000000000790,0.075162920265109928
1.016000000000000680,0.076223399541347894
1.017000000000000792,0.077265947607838947
1.018000000000000682,0.078290716109889774
1.019000000000000794,0.079297855968526093
1.020000000000000684,0.080287517379085876
1.021000000000000796,0.081259849809922138
1.022000000000000686,0.082215002001178650
1.023000000000000798,0.083153121963633447
1.024000000000000687,0.084074356977638084
1.025000000000000799,0.084978853592114295
1.026000000000000689,0.085866757623646733
1.027000000000000801,0.086738214155624840
1.028000000000000691,0.087593367537483452
1.029000000000000803,0.088432361383996100
1.030000000000000693,0.089255338574649928
1.031000000000000805,0.090062441253091124
1.032000000000000695,0.090853810826632284
1.033000000000000806,0.091629587965829956
1.034000000000000696,0.092389912604134469
1.035000000000000808,0.093134923937606431
1.036000000000000698,0.093864760424691038
1.037000000000000810,0.094579559786053535
1.038000000000000700,0.095279459004499412
1.039000000000000812,0.095964594324929847
1.040000000000000702,0.096635101254377326
1.041000000000000814,0.097291114562089678
1.042000000000000703,0.097932768279689664
1.043000000000000815,0.098560195701371353
1.044000000000000705,0.099173529384172149
1.045000000000000817,0.099772901148291265
1.046000000000000707,0.100358442077471285
1.047000000000000819,0.100930282519422848
1.048000000000000709,0.101488552086333519
1.049000000000000821,0.102033379655375261
1.050000000000000711,0.102564893369327642
1.051000000000000822,0.103083220637201392
1.052000000000000712,0.103588488134941176
1.053000000000000824,0.104080821806177573
1.054000000000000714,0.104560346863004000
1.055000000000000826,0.105027187786835216
1.056000000000000716,0.105481468329280251
1.057000000000000828,0.105923311513093116
1.058000000000000718,0.106352839633148455
1.059000000000000830,0.106770174257462783
1.060000000000000719,0.107175436228267751
1.061000000000000831,0.107568745663136303
1.062000000000000721,0.107950221956116116
1.063000000000000833,0.108319983778944390
1.064000000000000723,0.108678149082283015
1.065000000000000835,0.109024835097002559
1.066000000000000725,0.109360158335487886
1.067000000000000837,0.109684234593015170
1.068000000000000727,0.109997178949130164
1.069000000000000838,0.110299105769094991
1.070000000000000728,0.110590128705355076
1.071000000000000840,0.110870360699040549
1.072000000000000730,0.111139913981517166
1.073000000000000842,0.111398900075951518
1.074000000000000732,0.111647429798933315
1.075000000000000844,0.111885613262107511
1.076000000000000734,0.112113559873861110
1.077000000000000846,0.112331378341025440
1.078000000000000735,0.112539176670616831
1.079000000000000847,0.112737062171604993
1.080000000000000737,0.112925141456716463
1.081000000000000849,0.113103520444266525
1.082000000000000739,0.113272304360009318
1.083000000000000851,0.113431597739035078
1.084000000000000741,0.113581504427671939
1.085000000000000853,0.113722127585440341
1.086000000000000743,0.113853569687010742
1.087000000000000854,0.113975932524203349
1.088000000000000744,0.114089317208000265
1.089000000000000856,0.114193824170598507
1.090000000000000746,0.114289553167465655
1.091000000000000858,0.114376603279437467
1.092000000000000748,0.114455072914831257
1.093000000000000860,0.114525059811585783
1.094000000000000750,0.114586661039404292
1.095000000000000862,0.114639973001954359
1.096000000000000751,0.114685091439056031
1.097000000000000863,0.114722111428902207
1.098000000000000753,0.114751127390301980
1.099000000000000865,0.114772233084939473
1.100000000000000755,0.114785521619656966
1.101000000000000867,0.114791085448743210
1.102000000000000757,0.114789016376249789
1.103000000000000869,0.114779405558326483
1.104000000000000759,0.114762343505571879
1.105000000000000870,0.114737920085391631
1.106000000000000760,0.114706224524381173
1.107000000000000872,0.114667345410727178
1.108000000000000762,0.114621370696611297
1.109000000000000874,0.114568387700642288
1.110000000000000764,0.114508483110292936
1.111000000000000876,0.114441742984351100
1.112000000000000766,0.114368252755398331
1.113000000000000878,0.114288097232274649
1.114000000000000767,0.114201360602576726
1.115000000000000879,0.114108126435164950
1.116000000000000769,0.114008477682678452
1.117000000000000881,0.113902496684057566
1.118000000000000771,0.113790265167084945
1.119000000000000883,0.113671864250934451
1.120000000000000773,0.113547374448724203
1.121000000000000885,0.113416875670094466
1.122000000000000774,0.113280447223775060
1.123000000000000886,0.113138167820172636
1.124000000000000776,0.112990115573970318
1.125000000000000888,0.112836368006726667
1.126000000000000778,0.112677002049485428
1.127000000000000890,0.112512094045396999
1.128000000000000780,0.112341719752339753
1.129000000000000892,0.112165954345553570
1.130000000000000782,0.111984872420283099
1.131000000000000894,0.111798547994408137
1.132000000000000783,0.111607054511112219
1.133000000000000895,0.111410464841521104
1.134000000000000785,0.111208851287382268
1.135000000000000897,0.111002285583710794
1.136000000000000787,0.110790838901474703
1.137000000000000899,0.110574581850264766
1.138000000000000789,0.110353584480971351
1.139000000000000901,0.110127916288466590
1.140000000000000790,0.109897646214292918
1.141000000000000902,0.109662842649354483
1.142000000000000792,0.109423573436602112
1.143000000000000904,0.109179905873725100
1.144000000000000794,0.108931906715860422
1.145000000000000906,0.108679642178282340
1.146000000000000796,0.108423177939100918
1.147000000000000908,0.108162579141969514
1.148000000000000798,0.107897910398783464
1.149000000000000909,0.107629235792387076
1.150000000000000799,0.107356618879275501
1.151000000000000689,0.107080122692305532
1.152000000000000801,0.106799809743388679
1.153000000000000913,0.106515742026212640
1.154000000000000803,0.106227981018939113
1.155000000000000693,0.105936587686903699
1.156000000000000805,0.105641622485330530
1.157000000000000917,0.105343145362027740
1.158000000000000806,0.105041215760091178
1.159000000000000696,0.104735892620612142
1.160000000000000808,0.104427234385367634
1.161000000000000920,0.104115298999524389
1.162000000000000810,0.103800143914331261
1.163000000000000700,0.103481826089821635
1.164000000000000812,0.103160401997487064
1.165000000000000924,0.102835927622989140
1.166000000000000814,0.102508458468831054
1.167000000000000703,0.102178049557044126
1.168000000000000815,0.101844755431869743
1.169000000000000927,0.101508630162440966
1.170000000000000817,0.101169727345444119
1.171000000000000707,0.100828100107807767
1.172000000000000819,0.100483801109354468
1.173000000000000931,0.100136882545469791
1.174000000000000821,0.099787396149761037
1.175000000000000711,0.099435393196710201
1.176000000000000822,0.099080924504327816
1.177000000000000934,0.098724040436796251
1.178000000000000824,0.098364790907116001
1.179000000000000714,0.098003225379731648
1.180000000000000826,0.097639392873173025
1.181000000000000938,0.097273341962679033
1.182000000000000828,0.096905120782818127
1.183000000000000718,0.096534777030104713
1.184000000000000830,0.096162357965613524
1.185000000000000941,0.095787910417575145
1.186000000000000831,0.095411480783984565
1.187000000000000721,0.095033115035190657
1.188000000000000833,0.094652858716482963
1.189000000000000945,0.094270756950671566
1.190000000000000835,0.093886854440667869
1.191000000000000725,0.093501195472050741
1.192000000000000837,0.093113823915621202
1.193000000000000949,0.092724783229972046
1.194000000000000838,0.092334116464024188
1.195000000000000728,0.091941866259577745
1.196000000000000840,0.091548074853841213
1.197000000000000952,0.091152784081963131
1.198000000000000842,0.090756035379556482
1.199000000000000732,0.090357869785201855
1.200000000000000844,0.089958327942971997
1.201000000000000956,0.089557450104909800
1.202000000000000846,0.089155276133546221
1.203000000000000735,0.088751845504355970
1.204000000000000847,0.088347197308259448
1.205000000000000959,0.087941370254077486
1.206000000000000849,0.087534402671001349
1.207000000000000739,0.087126332511039115
1.208000000000000851,0.086717197351470182
1.209000000000000963,0.086307034397271470
1.210000000000000853,0.085895880483558215
1.211000000000000743,0.085483772078002326
1.212000000000000854,0.085070745283242585
1.213000000000000966,0.084656835839294092
1.214000000000000856,0.084242079125940714
1.215000000000000746,0.083826510165131846
1.216000000000000858,0.083410163623345884
1.217000000000000970,0.082993073813984533
1.218000000000000860,0.082575274699717399
1.219000000000000750,0.082156799894841828
1.220000000000000862,0.081737682667631859
1.221000000000000973,0.081317955942671216
1.222000000000000863,0.080897652303183409
1.223000000000000753,0.080476803993349777
1.224000000000000865,0.080055442920617018
1.225000000000000977,0.079633600658006426
1.226000000000000867,0.079211308446398593
1.227000000000000757,0.078788597196817439
1.228000000000000869,0.078365497492714972
1.229000000000000981,0.077942039592219334
1.230000000000000870,0.077518253430402778
1.231000000000000760,0.077094168621524711
1.232000000000000872,0.076669814461271996
1.233000000000000984,0.076245219928986613
1.234000000000000874,0.075820413689875632
1.235000000000000764,0.075395424097240760
1.236000000000000876,0.074970279194655806
1.237000000000000988,0.074545006718178264
1.238000000000000878,0.074119634098513770
1.239000000000000767,0.073694188463199389
1.240000000000000879,0.073268696638761482
1.241000000000000991,0.072843185152874815
1.242000000000000881,0.072417680236497750
1.243000000000000771,0.071992207826007876
1.244000000000000883,0.071566793565339848
1.245000000000000995,0.071141462808080591
1.246000000000000885,0.070716240619588505
1.247000000000000774,0.070291151779083183
1.248000000000000886,0.069866220781735960
1.249000000000000998,0.069441471840745561
1.250000000000000888,0.069016928889398074
1.251000000000000778,0.068592615583137062
1.252000000000000890,0.068168555301597628
1.253000000000001002,0.067744771150660382
1.254000000000000892,0.067321285964464656
1.255000000000000782,0.066898122307430974
1.256000000000000894,0.066475302476279224
1.257000000000001005,0.066052848502013733
1.258000000000000895,0.065630782151920308
1.259000000000000785,0.065209124931554674
1.260000000000000897,0.064787898086688001
1.261000000000001009,0.064367122605295937
1.262000000000000899,0.063946819219488096
1.263000000000000789,0.063527008407461352
1.264000000000000901,0.063107710395419889
1.265000000000001013,0.062688945159507709
1.266000000000000902,0.062270732427714061
1.267000000000000792,0.061853091681774407
1.268000000000000904,0.061436042159067138
1.269000000000001016,0.061019602854490693
1.270000000000000906,0.060603792522342645
1.271000000000000796,0.060188629678175475
1.272000000000000908,0.059774132600654992
1.273000000000001020,0.059360319333401058
1.274000000000000909,0.058947207686826750
1.275000000000000799,0.058534815239954761
1.276000000000000911,0.058123159342233534
1.277000000000001023,0.057712257115350683
1.278000000000000913,0.057302125455013578
1.279000000000000803,0.056892781032752970
1.280000000000000915,0.056484240297677159
1.281000000000001027,0.056076519478258410
1.282000000000000917,0.055669634584078420
1.283000000000000806,0.055263601407578009
1.284000000000000918,0.054858435525793781
1.285000000000001030,0.054454152302090150
1.286000000000000920,0.054050766887866232
1.287000000000000810,0.053648294224282543
1.288000000000000922,0.053246749043942485
1.289000000000001034,0.052846145872594744
1.290000000000000924,0.052446499030807413
1.291000000000000814,0.052047822635636176
1.292000000000000925,0.051650130602296861
1.293000000000001037,0.051253436645802244
1.294000000000000927,0.050857754282619648
1.295000000000000817,0.050463096832284803
1.296000000000000929,0.050069477419051364
1.297000000000001041,0.049676908973483556
1.298000000000000931,0.049285404234066979
1.299000000000000821,0.048894975748809341
1.300000000000000933,0.048505635876821593
1.301000000000001044,0.048117396789895198
1.302000000000000934,0.047730270474075034
1.303000000000000824,0.047344268731212474
1.304000000000000936,0.046959403180517847
1.305000000000001048,0.046575685260097525
1.306000000000000938,0.046193126228483393
1.307000000000000828,0.045811737166167488
1.308000000000000940,0.045431528977099754
1.309000000000001052,0.045052512390196628
1.310000000000000941,0.044674697960835862
1.311000000000000831,0.044298096072347887
1.312000000000000943,0.043922716937488157
1.313000000000001055,0.043548570599896246
1.314000000000000945,0.043175666935566820
1.315000000000000835,0.042804015654293995
1.316000000000000947,0.042433626301118223
1.317000000000001059,0.042064508257744312
1.318000000000000949,0.041696670743980244
1.319000000000000838,0.041330122819141307
1.320000000000000950,0.040964873383459312
1.321000000000001062,0.040600931179482713
1.322000000000000952,0.040238304793457705
1.323000000000000842,0.039877002656710361
1.324000000000000954,0.039517033047018368
1.325000000000001066,0.039158404089976825
1.326000000000000956,0.038801123760340617
1.327000000000000846,0.038445199883380701
1.328000000000000957,0.038090640136214438
1.329000000000001069,0.037737452049138767
1.330000000000000959,0.037385643006936323
1.331000000000000849,0.037035220250205177
1.332000000000000961,0.036686190876646110
1.333000000000001073,0.036338561842364524
1.334000000000000963,0.035992339963151397
1.335000000000000853,0.035647531915766487
1.336000000000000965,0.035304144239200384
1.337000000000001076,0.034962183335941290
1.338000000000000966,0.034621655473225377
1.339000000000000856,0.034282566784273286
1.340000000000000968,0.033944923269545610
1.341000000000001080,0.033608730797949939
1.342000000000000970,0.033273995108073801
1.343000000000000860,0.032940721809392129
1.344000000000000972,0.032608916383473720
1.345000000000001084,0.032278584185165472
1.346000000000000973,0.031949730443800360
1.347000000000000863,0.031622360264361139
1.348000000000000975,0.031296478628659641
1.349000000000001087,0.030972090396494456
1.350000000000000977,0.030649200306819214
1.351000000000000867,0.030327812978874269
1.352000000000000979,0.030007932913343034
1.353000000000001091,0.029689564493477816
1.354000000000000981,0.029372711986219650
1.355000000000000870,0.029057379543330052
1.356000000000000982,0.028743571202485996
1.357000000000001094,0.028431290888390203
1.358000000000000984,0.028120542413869500
1.359000000000000874,0.027811329480948277
1.360000000000000986,0.027503655681943490
1.361000000000001098,0.027197524500523852
1.362000000000000988,0.026892939312791429
1.363000000000000878,0.026589903388320364
1.364000000000000989,0.026288419891212021
1.365000000000001101,0.025988491881151588
1.366000000000000991,0.025690122314422581
1.367000000000000881,0.025393314044952008
1.368000000000000993,0.025098069825318113
1.369000000000001105,0.024804392307774377
1.370000000000000995,0.024512284045253342
1.371000000000000885,0.024221747492359853
1.372000000000000997,0.023932785006371117
1.373000000000001108,0.023645398848212811
1.374000000000000998,0.023359591183458307
1.375000000000000888,0.023075364083267956
1.376000000000001000,0.022792719525384354
1.377000000000001112,0.022511659395063992
1.378000000000001002,0.022232185486050077
1.379000000000000892,0.021954299501497496
1.380000000000001004,0.021678003054927130
1.381000000000001116,0.021403297671135559
1.382000000000001005,0.021130184787139676
1.383000000000000895,0.020858665753079243
1.384000000000001007,0.020588741833130010
1.385000000000001119,0.020320414206406921
1.386000000000001009,0.020053683967864524
1.387000000000000899,0.019788552129186295
1.388000000000001011,0.019525019619655803
1.389000000000001123,0.019263087287057785
1.390000000000001013,0.019002755898523998
1.391000000000000902,0.018744026141417371
1.392000000000001014,0.018486898624172958
1.393000000000001126,0.018231373877162026
1.394000000000001016,0.017977452353531161
1.395000000000000906,0.017725134430040028
1.396000000000001018,0.017474420407900725
1.397000000000001130,0.017225310513594445
1.398000000000001020,0.016977804899697014
1.399000000000000909,0.016731903645695177
1.400000000000001021,0.016487606758787431
1.401000000000001133,0.016244914174693054
1.402000000000001023,0.016003825758440150
1.403000000000000913,0.015764341305159510
1.404000000000001025,0.015526460540874806
1.405000000000001137,0.015290183123262021
1.406000000000001027,0.015055508642442494
1.407000000000000917,0.014822436621728500
1.408000000000001029,0.014590966518402897
1.409000000000001140,0.014361097724455077
1.410000000000001030,0.014132829567341635
1.411000000000000920,0.013906161310723952
1.412000000000001032,0.013681092155204928
1.413000000000001144,0.013457621239062235
1.414000000000001034,0.013235747638966507
1.415000000000000924,0.013015470370717236
1.416000000000001036,0.012796788389936860
1.417000000000001148,0.012579700592791971
1.418000000000001037,0.012364205816694659
1.419000000000000927,0.012150302840994675
1.420000000000001039,0.011937990387682279
1.421000000000001151,0.011727267122058963
1.422000000000001041,0.011518131653434177
1.423000000000000931,0.011310582535791211
1.424000000000001043,0.011104618268464244
1.425000000000001155,0.010900237296795659
1.426000000000001044,0.010697438012807082
1.427000000000000934,0.010496218755836699
1.428000000000001046,0.010296577813207655
1.429000000000001158,0.010098513420862350
1.430000000000001048,0.009902023764004966
1.431000000000000938,0.009707106977725696
1.432000000000001050,0.009513761147643154
1.433000000000001162,0.009321984310522391
1.434000000000001052,0.009131774454890992
1.435000000000000941,0.008943129521656752
1.436000000000001053,0.008756047404710546
1.437000000000001165,0.008570525951543676
1.438000000000001055,0.008386562963826127
1.439000000000000945,0.008204156198016635
1.440000000000001057,0.008023303365946506
1.441000000000001169,0.007844002135409584
1.442000000000001059,0.007666250130728794
1.443000000000000949,0.007490044933340083
1.444000000000001060,0.007315384082363786
1.445000000000001172,0.007142265075164661
1.446000000000001062,0.006970685367914177
1.447000000000000952,0.006800642376150688
1.448000000000001064,0.006632133475325224
1.449000000000001176,0.006465156001344456
1.450000000000001066,0.006299707251131349
1.451000000000000956,0.006135784483139632
1.452000000000001068,0.005973384917900421
1.453000000000001180,0.005812505738548956
1.454000000000001069,0.005653144091347232
1.455000000000000959,0.005495297086203904
1.456000000000001071,0.005338961797195900
1.457000000000001183,0.005184135263063779
1.458000000000001073,0.005030814487735237
1.459000000000000963,0.004878996440820823
1.460000000000001075,0.004728678058111852
1.461000000000001187,0.004579856242075282
1.462000000000001076,0.004432527862338304
1.463000000000000966,0.004286689756183544
1.464000000000001078,0.004142338729028376
1.465000000000001190,0.003999471554884122
1.466000000000001080,0.003858084976866054
1.467000000000000970,0.003718175707623439
1.468000000000001082,0.003579740429826448
1.469000000000001194,0.003442775796623968
1.470000000000001084,0.003307278432098310
1.471000000000000973,0.003173244931719125
1.472000000000001085,0.003040671862789703
1.473000000000001197,0.002909555764894223
1.474000000000001087,0.002779893150339788
1.475000000000000977,0.002651680504596327
1.476000000000001089,0.002524914286720435
1.477000000000001201,0.002399590929793807
1.478000000000001091,0.002275706841349308
1.479000000000000981,0.002153258403782578
1.480000000000001092,0.002032241974788740
1.481000000000001204,0.001912653887757144
1.482000000000001094,0.001794490452195715
1.483000000000000984,0.001677747954132514
1.484000000000001096,0.001562422656518494
1.485000000000001208,0.001448510799635744
1.486000000000001098,0.001336008601480736
1.487000000000000988,0.001224912258168372
1.488000000000001100,0.001115217944316241
1.489000000000001211,0.001006921813433207
1.490000000000001101,0.000900019998293271
1.491000000000000991,0.000794508611329876
1.492000000000001103,0.000690383744992644
1.493000000000001215,0.000587641472134737
1.494000000000001105,0.000486277846374298
1.495000000000000995,0.000386288902460431
1.496000000000001107,0.000287670656633832
1.497000000000001219,0.000190419106989538
1.498000000000001108,0.000094530233823891
1.499000000000000998,0.000000000000000000
