# CNT15-OH-14_CS-730-AC
# h[nm],U(h)[kJ/mol]
0.149999999999999994,122.354852113184080054
0.150999999999999995,120.208528974262804923
0.151999999999999996,118.476189600161930571
0.152999999999999997,116.810576281881509431
0.153999999999999998,115.097166959401945974
0.154999999999999999,113.325759419437559927
0.156000000000000000,111.523105312949155632
0.157000000000000001,109.720756207820770101
0.158000000000000002,107.942262295253982529
0.159000000000000002,106.200258236325723260
0.160000000000000003,104.497995971835507589
0.161000000000000004,102.832362859357431262
0.162000000000000005,101.196906079350497976
0.163000000000000006,99.584236620868949785
0.164000000000000007,97.987648453355717493
0.165000000000000008,96.402016241074008462
0.166000000000000009,94.824127208343043094
0.167000000000000010,93.252621263099172211
0.168000000000000010,91.687695660477444903
0.169000000000000011,90.130698159345698173
0.170000000000000012,88.583697801961534424
0.171000000000000013,87.049091128789854110
0.172000000000000014,85.529276275955766096
0.173000000000000015,84.026408453717436942
0.174000000000000016,82.542237214193747263
0.175000000000000017,81.078017691334650863
0.176000000000000018,79.634483536277883786
0.177000000000000018,78.211867547743509022
0.178000000000000019,76.809956131985060779
0.179000000000000020,75.428165017993094921
0.180000000000000021,74.065625569408879869
0.181000000000000022,72.721273192881355385
0.182000000000000023,71.393931484745095872
0.183000000000000024,70.082387722075736747
0.184000000000000025,68.785457001201663729
0.185000000000000026,67.502033719519857868
0.186000000000000026,66.231130183341193174
0.187000000000000027,64.971902926367093301
0.188000000000000028,63.723667874013059986
0.189000000000000029,62.485905827772775467
0.190000000000000030,61.258259911878475634
0.191000000000000031,60.040526660364733402
0.192000000000000032,58.832642361138496767
0.193000000000000033,57.634666144858954340
0.194000000000000034,56.446761135330390857
0.195000000000000034,55.269174784745828788
0.196000000000000035,54.102219316980075803
0.197000000000000036,52.946253006680670694
0.198000000000000037,51.801662839186576548
0.199000000000000038,50.668848931524031798
0.200000000000000039,49.548210950833528443
0.201000000000000040,48.440136644754510087
0.202000000000000041,47.344992498407243886
0.203000000000000042,46.263116453600879652
0.204000000000000042,45.194812566065309056
0.205000000000000043,44.140347433780490860
0.206000000000000044,43.099948201600838615
0.207000000000000045,42.073801932042741214
0.208000000000000046,41.062056127093654823
0.209000000000000047,40.064820189115657456
0.210000000000000048,39.082167618458292679
0.211000000000000049,38.114138759575851623
0.212000000000000050,37.160743924800350158
0.213000000000000050,36.221966744220402745
0.214000000000000051,35.297767610328079968
0.215000000000000052,34.388087106402565496
0.216000000000000053,33.492849327351592592
0.217000000000000054,32.611965020446085362
0.218000000000000055,31.745334490711265119
0.219000000000000056,30.892850231451415510
0.220000000000000057,30.054399254347210046
0.221000000000000058,29.229865105730606700
0.222000000000000058,28.419129566012504284
0.223000000000000059,27.622074037882441644
0.224000000000000060,26.838580635905771032
0.225000000000000061,26.068532995637490046
0.226000000000000062,25.311816824489859812
0.227000000000000063,24.568320219479012678
0.228000000000000064,23.837933778787295580
0.229000000000000065,23.120550534955743416
0.230000000000000066,22.416065737615738840
0.231000000000000066,21.724376513107728215
0.232000000000000067,21.045381427250394069
0.233000000000000068,20.378979976025490828
0.234000000000000069,19.725072027137475317
0.235000000000000070,19.083557233383018570
0.236000000000000071,18.454334436604263203
0.237000000000000072,17.837301078767115570
0.238000000000000073,17.232352634462912988
0.239000000000000073,16.639382076924455589
0.240000000000000074,16.058279387512577330
0.241000000000000075,15.488931116602348226
0.242000000000000076,14.931220001896694072
0.243000000000000077,14.385024648439113548
0.244000000000000078,13.850219272997250641
0.245000000000000079,13.326673514049616642
0.246000000000000080,12.814252307333688918
0.247000000000000081,12.312815825800068836
0.248000000000000081,11.822219481863754709
0.249000000000000082,11.342313989041297617
0.250000000000000111,10.872945479404151570
0.251000000000000112,10.413955672755438542
0.252000000000000113,9.965182093037551425
0.253000000000000114,9.526458327194417208
0.254000000000000115,9.097614321528860515
0.255000000000000115,8.678476710506519254
0.256000000000000116,8.268869172948386748
0.257000000000000117,7.868612810615997155
0.258000000000000118,7.477526544316409840
0.259000000000000119,7.095427522827490563
0.260000000000000120,6.722131540160127372
0.261000000000000121,6.357453456924544000
0.262000000000000122,6.001207621844132589
0.263000000000000123,5.653208289756822325
0.264000000000000123,5.313270032753348637
0.265000000000000124,4.981208141419576130
0.266000000000000125,4.656839013470237987
0.267000000000000126,4.339980527381035458
0.268000000000000127,4.030452398939750047
0.269000000000000128,3.728076518943795215
0.270000000000000129,3.432677270566888872
0.271000000000000130,3.144081825200071734
0.272000000000000131,2.862120415840871512
0.273000000000000131,2.586626587356522400
0.274000000000000132,2.317437423183069001
0.275000000000000133,2.054393748240204154
0.276000000000000134,1.797340308042234325
0.277000000000000135,1.546125924168627597
0.278000000000000136,1.300603626421876324
0.279000000000000137,1.060630762148213613
0.280000000000000138,0.826069083327210740
0.281000000000000139,0.596784812149744437
0.282000000000000139,0.372648685902361776
0.283000000000000140,0.153535982058722764
0.284000000000000141,-0.060673475452219496
0.285000000000000142,-0.270095327776478378
0.286000000000000143,-0.474840709396070426
0.287000000000000144,-0.675016292021779152
0.288000000000000145,-0.870724342998678735
0.289000000000000146,-1.062062797093968447
0.290000000000000147,-1.249125340535817363
0.291000000000000147,-1.432001506177455141
0.292000000000000148,-1.610776778674994913
0.293000000000000149,-1.785532708586713202
0.294000000000000150,-1.956347034327589496
0.295000000000000151,-2.123293810943076565
0.296000000000000152,-2.286443544700760278
0.297000000000000153,-2.445863332536692969
0.298000000000000154,-2.601617005434316621
0.299000000000000155,-2.753765274857230771
0.300000000000000155,-2.902365881402405368
0.301000000000000156,-3.047473744886795011
0.302000000000000157,-3.189141115128166781
0.303000000000000158,-3.327417722728476690
0.304000000000000159,-3.462350929216599926
0.305000000000000160,-3.593985875954827325
0.306000000000000161,-3.722365631261124630
0.307000000000000162,-3.847531335245797379
0.308000000000000163,-3.969522341906754459
0.309000000000000163,-4.088376358072225436
0.310000000000000164,-4.204129578822941582
0.311000000000000165,-4.316816819067438082
0.312000000000000166,-4.426471640984354750
0.313000000000000167,-4.533126477084012507
0.314000000000000168,-4.636812748678166507
0.315000000000000169,-4.737560979581777687
0.316000000000000170,-4.835400904903742969
0.317000000000000171,-4.930361574814460468
0.318000000000000171,-5.022471453207543846
0.319000000000000172,-5.111758511200433119
0.320000000000000173,-5.198250315444036929
0.321000000000000174,-5.281974111235340885
0.322000000000000175,-5.362956900448870634
0.323000000000000176,-5.441225514322906243
0.324000000000000177,-5.516806681155017600
0.325000000000000178,-5.589727088977911151
0.326000000000000179,-5.660013443302233327
0.327000000000000179,-5.727692520026177014
0.328000000000000180,-5.792791213624143509
0.329000000000000181,-5.855336580737534824
0.330000000000000182,-5.915355879299827535
0.331000000000000183,-5.972876603336713330
0.332000000000000184,-6.027926513588566237
0.333000000000000185,-6.080533664108569880
0.334000000000000186,-6.130726424994512591
0.335000000000000187,-6.178533501415889972
0.336000000000000187,-6.223983949101013380
0.337000000000000188,-6.267107186450248335
0.338000000000000189,-6.307933003443265463
0.339000000000000190,-6.346491567508103948
0.340000000000000191,-6.382813426519559741
0.341000000000000192,-6.416929509093795225
0.342000000000000193,-6.448871122344149498
0.343000000000000194,-6.478669947261503026
0.344000000000000195,-6.506358031879526216
0.345000000000000195,-6.531967782382935184
0.346000000000000196,-6.555531952312826149
0.347000000000000197,-6.577083630020129412
0.348000000000000198,-6.596656224513997024
0.349000000000000199,-6.614283449847841112
0.350000000000000200,-6.629999308181477424
0.351000000000000201,-6.643838071653095589
0.352000000000000202,-6.655834263190186562
0.353000000000000203,-6.666022636383741151
0.354000000000000203,-6.674438154545162760
0.355000000000000204,-6.681115969060125614
0.356000000000000205,-6.686091397148959281
0.357000000000000206,-6.689399899137970174
0.358000000000000207,-6.691077055340789670
0.359000000000000208,-6.691158542644425111
0.360000000000000209,-6.689680110889177911
0.361000000000000210,-6.686677559126991355
0.362000000000000210,-6.682186711837826643
0.363000000000000211,-6.676243395178896201
0.364000000000000212,-6.668883413337004740
0.365000000000000213,-6.660142525049495887
0.366000000000000214,-6.650056420355004327
0.367000000000000215,-6.638660697630697882
0.368000000000000216,-6.625990840968652762
0.369000000000000217,-6.612082197939605166
0.370000000000000218,-6.596969957788734185
0.371000000000000218,-6.580689130103804629
0.372000000000000219,-6.563274523992771670
0.373000000000000220,-6.544760727804030509
0.374000000000000221,-6.525182089419258702
0.375000000000000222,-6.504572697145292182
0.376000000000000223,-6.482966361228700514
0.377000000000000224,-6.460396596013292303
0.378000000000000225,-6.436896602758198860
0.379000000000000226,-6.412499253131303867
0.380000000000000226,-6.387237073390416242
0.381000000000000227,-6.361142229261668390
0.382000000000000228,-6.334246511522915846
0.383000000000000229,-6.306581322297192038
0.384000000000000230,-6.278177662059396091
0.385000000000000231,-6.249066117357616967
0.386000000000000232,-6.219276849248337236
0.387000000000000233,-6.188839582443359078
0.388000000000000234,-6.157783595164448620
0.389000000000000234,-6.126137709700522294
0.390000000000000235,-6.093930283660439429
0.391000000000000236,-6.061189201913590452
0.392000000000000237,-6.027941869208968129
0.393000000000000238,-5.994215203462618824
0.394000000000000239,-5.960035629702097992
0.395000000000000240,-5.925429074655998996
0.396000000000000241,-5.890420961975506131
0.397000000000000242,-5.855036208074347215
0.398000000000000242,-5.819299218572969501
0.399000000000000243,-5.783233885331926061
0.400000000000000244,-5.746863584059165753
0.401000000000000245,-5.710211172475537111
0.402000000000000246,-5.673298989022129035
0.403000000000000247,-5.636148852093123551
0.404000000000000248,-5.598782059777358100
0.405000000000000249,-5.561219390091688197
0.406000000000000250,-5.523481101688994421
0.407000000000000250,-5.485586935023730071
0.408000000000000251,-5.447556113957658930
0.409000000000000252,-5.409407347788605769
0.410000000000000253,-5.371158833684886780
0.411000000000000254,-5.332828259508289648
0.412000000000000255,-5.294432807008456088
0.413000000000000256,-5.255989155371777244
0.414000000000000257,-5.217513485107820870
0.415000000000000258,-5.179021482256868758
0.416000000000000258,-5.140528342901899528
0.417000000000000259,-5.102048777968979820
0.418000000000000260,-5.063597018300003860
0.419000000000000261,-5.025186819982126352
0.420000000000000262,-4.986831469918426407
0.421000000000000263,-4.948543791624773647
0.422000000000000264,-4.910336151237986613
0.423000000000000265,-4.872220463720824846
0.424000000000000266,-4.834208199249770743
0.425000000000000266,-4.796310389771613281
0.426000000000000267,-4.758537635715530456
0.427000000000000268,-4.720900112847488117
0.428000000000000269,-4.683407579254213360
0.429000000000000270,-4.646069382444452778
0.430000000000000271,-4.608894466555374159
0.431000000000000272,-4.571891379652616827
0.432000000000000273,-4.535068281112617505
0.433000000000000274,-4.498432949076429210
0.434000000000000274,-4.461992787964388363
0.435000000000000275,-4.425754836041616791
0.436000000000000276,-4.389725773024522049
0.437000000000000277,-4.353911927718839614
0.438000000000000278,-4.318319285680265907
0.439000000000000279,-4.282953496888964651
0.440000000000000280,-4.247819883429566623
0.441000000000000281,-4.212923447168741120
0.442000000000000282,-4.178268877422737226
0.443000000000000282,-4.143860558607483924
0.444000000000000283,-4.109702577864458029
0.445000000000000284,-4.075798732655562695
0.446000000000000285,-4.042152538320747723
0.447000000000000286,-4.008767235592491929
0.448000000000000287,-3.975645798061278491
0.449000000000000288,-3.942790939586896748
0.450000000000000289,-3.910205121650335514
0.451000000000000290,-3.877890560641582773
0.452000000000000290,-3.845849235078795836
0.453000000000000291,-3.814082892754590226
0.454000000000000292,-3.782593057805537118
0.455000000000000293,-3.751381037701112753
0.456000000000000294,-3.720447930148677251
0.457000000000000295,-3.689794629911312907
0.458000000000000296,-3.659421835535456857
0.459000000000000297,-3.629330055985703574
0.460000000000000298,-3.599519617184175679
0.461000000000000298,-3.569990668452204918
0.462000000000000299,-3.540743188852233825
0.463000000000000300,-3.511776993427999205
0.464000000000000301,-3.483091739341346305
0.465000000000000302,-3.454686931904171754
0.466000000000000303,-3.426561930504068876
0.467000000000000304,-3.398715954422634411
0.468000000000000305,-3.371148088545351751
0.469000000000000306,-3.343857288962235774
0.470000000000000306,-3.316842388458601132
0.471000000000000307,-3.290102101895312270
0.472000000000000308,-3.263635031478222093
0.473000000000000309,-3.237439671916457762
0.474000000000000310,-3.211514415469453265
0.475000000000000311,-3.185857556882652375
0.476000000000000312,-3.160467298212107146
0.477000000000000313,-3.135341753538000376
0.478000000000000314,-3.110478953567521909
0.479000000000000314,-3.085876850127521998
0.480000000000000315,-3.061533320547325410
0.481000000000000316,-3.037446171932449257
0.482000000000000317,-3.013613145329768095
0.483000000000000318,-2.990031919784981618
0.484000000000000319,-2.966700116293130129
0.485000000000000320,-2.943615301643139226
0.486000000000000321,-2.920774992157294303
0.487000000000000322,-2.898176657326710703
0.488000000000000322,-2.875817723343821353
0.489000000000000323,-2.853695576533136880
0.490000000000000324,-2.831807566681330268
0.491000000000000325,-2.810151010267985416
0.492000000000000326,-2.788723193598183769
0.493000000000000327,-2.767521375838356779
0.494000000000000328,-2.746542791956652518
0.495000000000000329,-2.725784655569263748
0.496000000000000330,-2.705244161694078997
0.497000000000000330,-2.684918489413156362
0.498000000000000331,-2.664804804445385145
0.499000000000000332,-2.644900261630939386
0.500000000000000333,-2.625202007328938159
0.501000000000000334,-2.605707181729814081
0.502000000000000335,-2.586412921084013661
0.503000000000000336,-2.567316359848481611
0.504000000000000337,-2.548414632752521669
0.505000000000000338,-2.529704876784573564
0.506000000000000338,-2.511184233101498187
0.507000000000000339,-2.492849848861897755
0.508000000000000340,-2.474698878985042150
0.509000000000000341,-2.456728487837039232
0.510000000000000342,-2.438935850845697306
0.511000000000000343,-2.421318156045746850
0.512000000000000344,-2.403872605555905206
0.513000000000000345,-2.386596416989374969
0.514000000000000346,-2.369486824799345914
0.515000000000000346,-2.352541081560938885
0.516000000000000347,-2.335756459191212553
0.517000000000000348,-2.319130250108746516
0.518000000000000349,-2.302659768334192947
0.519000000000000350,-2.286342350533443479
0.520000000000000351,-2.270175357004748040
0.521000000000000352,-2.254156172611365694
0.522000000000000353,-2.238282207661093093
0.523000000000000353,-2.222550898734149349
0.524000000000000354,-2.206959709460870389
0.525000000000000355,-2.191506131250513523
0.526000000000000356,-2.176187683972624409
0.527000000000000357,-2.161001916592336869
0.528000000000000358,-2.145946407760859209
0.529000000000000359,-2.131018766362597905
0.530000000000000360,-2.116216632020090138
0.531000000000000361,-2.101537675558139195
0.532000000000000361,-2.086979599428340215
0.533000000000000362,-2.072540138095289031
0.534000000000000363,-2.058217058385655829
0.535000000000000364,-2.044008159801365299
0.536000000000000365,-2.029911274798016585
0.537000000000000366,-2.015924269029770510
0.538000000000000367,-2.002045041561734351
0.539000000000000368,-1.988271525051110489
0.540000000000000369,-1.974601685898035752
0.541000000000000369,-1.961033524367346903
0.542000000000000370,-1.947565074682181985
0.543000000000000371,-1.934194405090553959
0.544000000000000372,-1.920919617905853638
0.545000000000000373,-1.907738849522289559
0.546000000000000374,-1.894650270406206261
0.547000000000000375,-1.881652085064257518
0.548000000000000376,-1.868742531989358913
0.549000000000000377,-1.855919883585289920
0.550000000000000377,-1.843182446070865010
0.551000000000000378,-1.830528559364506425
0.552000000000000379,-1.817956596950097037
0.553000000000000380,-1.805464965724902004
0.554000000000000381,-1.793052105830351239
0.555000000000000382,-1.780716490466546897
0.556000000000000383,-1.768456625691114059
0.557000000000000384,-1.756271050203300543
0.558000000000000385,-1.744158335113902947
0.559000000000000385,-1.732117083701837812
0.560000000000000386,-1.720145931157966546
0.561000000000000387,-1.708243544316885076
0.562000000000000388,-1.696408621377296200
0.563000000000000389,-1.684639891611635409
0.564000000000000390,-1.672936115065515761
0.565000000000000391,-1.661296082247629924
0.566000000000000392,-1.649718613810649659
0.567000000000000393,-1.638202560223738002
0.568000000000000393,-1.626746801437148893
0.569000000000000394,-1.615350246539497103
0.570000000000000395,-1.604011833408209853
0.571000000000000396,-1.592730528353600850
0.572000000000000397,-1.581505325757145419
0.573000000000000398,-1.570335247704304660
0.574000000000000399,-1.559219343612476383
0.575000000000000400,-1.548156689854387036
0.576000000000000401,-1.537146389377431088
0.577000000000000401,-1.526187571319364666
0.578000000000000402,-1.515279390620681177
0.579000000000000403,-1.504421027634103236
0.580000000000000404,-1.493611687731580151
0.581000000000000405,-1.482850600909069616
0.582000000000000406,-1.472137021389525513
0.583000000000000407,-1.461470227224355600
0.584000000000000408,-1.450849519893729012
0.585000000000000409,-1.440274223905982254
0.586000000000000409,-1.429743686396451441
0.587000000000000410,-1.419257276726023864
0.588000000000000411,-1.408814386079623393
0.589000000000000412,-1.398414427064984311
0.590000000000000413,-1.388056833311859695
0.591000000000000414,-1.377741059071981855
0.592000000000000415,-1.367466578819989342
0.593000000000000416,-1.357232886855503029
0.594000000000000417,-1.347039496906597522
0.595000000000000417,-1.336885941734909711
0.596000000000000418,-1.326771772742435962
0.597000000000000419,-1.316696559580409209
0.598000000000000420,-1.306659889760217963
0.599000000000000421,-1.296661368266712300
0.600000000000000422,-1.286700617173932359
0.601000000000000423,-1.276777275263477174
0.602000000000000424,-1.266890997645637951
0.603000000000000425,-1.257041455383432371
0.604000000000000425,-1.247228335119660247
0.605000000000000426,-1.237451338707111992
0.606000000000000427,-1.227710182842085551
0.607000000000000428,-1.218004598701177610
0.608000000000000429,-1.208334331581700116
0.609000000000000430,-1.198699140545512520
0.610000000000000431,-1.189098798066652529
0.611000000000000432,-1.179533089682636149
0.612000000000000433,-1.170001813649592659
0.613000000000000433,-1.160504780601334662
0.614000000000000434,-1.151041813212372977
0.615000000000000435,-1.141612745864943435
0.616000000000000436,-1.132217424320140164
0.617000000000000437,-1.122855705393207781
0.618000000000000438,-1.113527456632990020
0.619000000000000439,-1.104232556005605881
0.620000000000000440,-1.094970891582432326
0.621000000000000441,-1.085742361232360897
0.622000000000000441,-1.076546872318413506
0.623000000000000442,-1.067384341398696090
0.624000000000000443,-1.058254693931759194
0.625000000000000444,-1.049157863986374339
0.626000000000000445,-1.040093793955698676
0.627000000000000446,-1.031062434275918260
0.628000000000000447,-1.022063743149308923
0.629000000000000448,-1.013097686271761777
0.630000000000000449,-1.004164236564757617
0.631000000000000449,-0.995263373911803084
0.632000000000000450,-0.986395084899324148
0.633000000000000451,-0.977559362562014700
0.634000000000000452,-0.968756206132606601
0.635000000000000453,-0.959985620796106054
0.636000000000000454,-0.951247617448416016
0.637000000000000455,-0.942542212459407502
0.638000000000000456,-0.933869427440339073
0.639000000000000457,-0.925229289015677692
0.640000000000000457,-0.916621828599283317
0.641000000000000458,-0.908047082174872955
0.642000000000000459,-0.899505090080867320
0.643000000000000460,-0.890995896799440579
0.644000000000000461,-0.882519550749891635
0.645000000000000462,-0.874076104086205952
0.646000000000000463,-0.865665612498811798
0.647000000000000464,-0.857288135020517927
0.648000000000000465,-0.848943733836585723
0.649000000000000465,-0.840632474098873983
0.650000000000000466,-0.832354423744087635
0.651000000000000467,-0.824109653316008162
0.652000000000000468,-0.815898235791758353
0.653000000000000469,-0.807720246411978593
0.654000000000000470,-0.799575762514959654
0.655000000000000471,-0.791464863374615968
0.656000000000000472,-0.783387630042307714
0.657000000000000473,-0.775344145192443768
0.658000000000000473,-0.767334492971857740
0.659000000000000474,-0.759358758852865301
0.660000000000000475,-0.751417029490013988
0.661000000000000476,-0.743509392580419037
0.662000000000000477,-0.735635936727716544
0.663000000000000478,-0.727796751309511936
0.664000000000000479,-0.719991926348367173
0.665000000000000480,-0.712221552386151369
0.666000000000000481,-0.704485720361889056
0.667000000000000481,-0.696784521492855524
0.668000000000000482,-0.689118047159081759
0.669000000000000483,-0.681486388791028408
0.670000000000000484,-0.673889637760534899
0.671000000000000485,-0.666327885274906828
0.672000000000000486,-0.658801222274121967
0.673000000000000487,-0.651309739331144333
0.674000000000000488,-0.643853526555215661
0.675000000000000488,-0.636432673498151802
0.676000000000000489,-0.629047269063604975
0.677000000000000490,-0.621697401419146201
0.678000000000000491,-0.614383157911249089
0.679000000000000492,-0.607104624983043961
0.680000000000000493,-0.599861888094807338
0.681000000000000494,-0.592655031647193686
0.682000000000000495,-0.585484138907075735
0.683000000000000496,-0.578349291936040011
0.684000000000000496,-0.571250571521418449
0.685000000000000497,-0.564188057109852203
0.686000000000000498,-0.557161826743333810
0.687000000000000499,-0.550171956997674849
0.688000000000000500,-0.543218522923351488
0.689000000000000501,-0.536301597988709355
0.690000000000000502,-0.529421254025462695
0.691000000000000503,-0.522577561176436722
0.692000000000000504,-0.515770587845519435
0.693000000000000504,-0.509000400649819551
0.694000000000000505,-0.502267064373880245
0.695000000000000506,-0.495570641926054378
0.696000000000000507,-0.488911194296863638
0.697000000000000508,-0.482288780519376736
0.698000000000000509,-0.475703457631563409
0.699000000000000510,-0.469155280640534411
0.700000000000000511,-0.462644302488687931
0.701000000000000512,-0.456170574021678543
0.702000000000000512,-0.449734143958188060
0.703000000000000513,-0.443335058861458076
0.704000000000000514,-0.436973363112546476
0.705000000000000515,-0.430649098885255932
0.706000000000000516,-0.424362306122719357
0.707000000000000517,-0.418113022515594235
0.708000000000000518,-0.411901283481799996
0.709000000000000519,-0.405727122147846564
0.710000000000000520,-0.399590569331594314
0.711000000000000520,-0.393491653526533480
0.712000000000000521,-0.387430400887458060
0.713000000000000522,-0.381406835217536433
0.714000000000000523,-0.375420977956772151
0.715000000000000524,-0.369472848171734258
0.716000000000000525,-0.363562462546643039
0.717000000000000526,-0.357689835375673226
0.718000000000000527,-0.351854978556489839
0.719000000000000528,-0.346057901584989780
0.720000000000000528,-0.340298611551228258
0.721000000000000529,-0.334577113136409809
0.722000000000000530,-0.328893408611077298
0.723000000000000531,-0.323247497834284747
0.724000000000000532,-0.317639378253877058
0.725000000000000533,-0.312069044907761828
0.726000000000000534,-0.306536490426151054
0.727000000000000535,-0.301041705034791218
0.728000000000000536,-0.295584676559097592
0.729000000000000536,-0.290165390429206416
0.730000000000000537,-0.284783829685909984
0.731000000000000538,-0.279439974987410356
0.732000000000000539,-0.274133804616935595
0.733000000000000540,-0.268865294491130113
0.734000000000000541,-0.263634418169228724
0.735000000000000542,-0.258441146862961157
0.736000000000000543,-0.253285449447222977
0.737000000000000544,-0.248167292471391354
0.738000000000000544,-0.243086640171379292
0.739000000000000545,-0.238043454482285810
0.740000000000000546,-0.233037695051724641
0.741000000000000547,-0.228069319253724478
0.742000000000000548,-0.223138282203282495
0.743000000000000549,-0.218244536771391218
0.744000000000000550,-0.213388033600688892
0.745000000000000551,-0.208568721121608652
0.746000000000000552,-0.203786545569031752
0.747000000000000552,-0.199041450999440345
0.748000000000000553,-0.194333379308517518
0.749000000000000554,-0.189662270249209119
0.750000000000000555,-0.185028061450225934
0.751000000000000556,-0.180430688434925435
0.752000000000000557,-0.175870084640640384
0.753000000000000558,-0.171346181438311429
0.754000000000000559,-0.166858908152559715
0.755000000000000560,-0.162408192082035108
0.756000000000000560,-0.157993958520150357
0.757000000000000561,-0.153616130776068088
0.758000000000000562,-0.149274630196020219
0.759000000000000563,-0.144969376184909154
0.760000000000000564,-0.140700286228159943
0.761000000000000565,-0.136467275913820962
0.762000000000000566,-0.132270258954917674
0.763000000000000567,-0.128109147212015190
0.764000000000000568,-0.123983850715984195
0.765000000000000568,-0.119894277690996656
0.766000000000000569,-0.115840334577652554
0.767000000000000570,-0.111821926056332677
0.768000000000000571,-0.107838955070643824
0.769000000000000572,-0.103891322851080894
0.770000000000000573,-0.099978928938766407
0.771000000000000574,-0.096101671209344569
0.772000000000000575,-0.092259445896969688
0.773000000000000576,-0.088452147618402144
0.774000000000000576,-0.084679669397186227
0.775000000000000577,-0.080941902687926753
0.776000000000000578,-0.077238737400598417
0.777000000000000579,-0.073570061924961516
0.778000000000000580,-0.069935763154975600
0.779000000000000581,-0.066335726513298596
0.780000000000000582,-0.062769835975780189
0.781000000000000583,-0.059237974096009727
0.782000000000000584,-0.055740022029850865
0.783000000000000584,-0.052275859559989715
0.784000000000000585,-0.048845365120493353
0.785000000000000586,-0.045448415821328393
0.786000000000000587,-0.042084887472892997
0.787000000000000588,-0.038754654610502315
0.788000000000000589,-0.035457590518829900
0.789000000000000590,-0.032193567256351183
0.790000000000000591,-0.028962455679687037
0.791000000000000592,-0.025764125467931175
0.792000000000000592,-0.022598445146898006
0.793000000000000593,-0.019465282113305313
0.794000000000000594,-0.016364502658893342
0.795000000000000595,-0.013295971994464469
0.796000000000000596,-0.010259554273812515
0.797000000000000597,-0.007255112617603790
0.798000000000000598,-0.004282509137132471
0.799000000000000599,-0.001341604957979403
0.800000000000000600,0.001567739756415762
0.801000000000000600,0.004445665781317998
0.802000000000000601,0.007292314807359576
0.803000000000000602,0.010107829417327806
0.804000000000000603,0.012892353063070133
0.805000000000000604,0.015646030042523802
0.806000000000000605,0.018369005476912829
0.807000000000000606,0.021061425288015603
0.808000000000000607,0.023723436175633446
0.809000000000000608,0.026355185595174174
0.810000000000000608,0.028956821735359607
0.811000000000000609,0.031528493496151534
0.812000000000000610,0.034070350466737120
0.813000000000000611,0.036582542903759938
0.814000000000000612,0.039065221709645513
0.815000000000000613,0.041518538411106649
0.816000000000000614,0.043942645137834455
0.817000000000000615,0.046337694601326862
0.818000000000000616,0.048703840073891960
0.819000000000000616,0.051041235367834205
0.820000000000000617,0.053350034814810633
0.821000000000000618,0.055630393245347208
0.822000000000000619,0.057882465968540096
0.823000000000000620,0.060106408751949211
0.824000000000000621,0.062302377801660778
0.825000000000000622,0.064470529742523347
0.826000000000000623,0.066611021598580580
0.827000000000000624,0.068724010773687727
0.828000000000000624,0.070809655032305477
0.829000000000000625,0.072868112480500333
0.830000000000000626,0.074899541547107401
0.831000000000000627,0.076904100965107733
0.832000000000000628,0.078881949753170449
0.833000000000000629,0.080833247197421437
0.834000000000000630,0.082758152833370874
0.835000000000000631,0.084656826428052126
0.836000000000000631,0.086529427962354161
0.837000000000000632,0.088376117613531896
0.838000000000000633,0.090197055737942303
0.839000000000000634,0.091992402853947094
0.840000000000000635,0.093762319625016438
0.841000000000000636,0.095506966843054125
0.842000000000000637,0.097226505411872693
0.843000000000000638,0.098921096330913921
0.844000000000000639,0.100590900679131928
0.845000000000000639,0.102236079599085899
0.846000000000000640,0.103856794281239326
0.847000000000000641,0.105453205948419157
0.848000000000000642,0.107025475840523646
0.849000000000000643,0.108573765199392547
0.850000000000000644,0.110098235253859894
0.851000000000000645,0.111599047205056603
0.852000000000000646,0.113076362211848386
0.853000000000000647,0.114530341376505085
0.854000000000000647,0.115961145730560600
0.855000000000000648,0.117368936220854050
0.856000000000000649,0.118753873695770423
0.857000000000000650,0.120116118891678086
0.858000000000000651,0.121455832419559928
0.859000000000000652,0.122773174751835162
0.860000000000000653,0.124068306209353607
0.861000000000000654,0.125341386948622124
0.862000000000000655,0.126592576949171226
0.863000000000000655,0.127822036001157130
0.864000000000000656,0.129029923693109755
0.865000000000000657,0.130216399399910837
0.866000000000000658,0.131381622270918152
0.867000000000000659,0.132525751218295490
0.868000000000000660,0.133648944905535888
0.869000000000000661,0.134751361736153735
0.870000000000000662,0.135833159842561668
0.871000000000000663,0.136894497075123300
0.872000000000000663,0.137935530991417143
0.873000000000000664,0.138956418845634422
0.874000000000000665,0.139957317578197460
0.875000000000000666,0.140938383805520595
0.876000000000000667,0.141899773809979424
0.877000000000000668,0.142841643530032703
0.878000000000000669,0.143764148550518500
0.879000000000000670,0.144667444093147413
0.880000000000000671,0.145551685007130671
0.881000000000000671,0.146417025760019637
0.882000000000000672,0.147263620428671554
0.883000000000000673,0.148091622690422947
0.884000000000000674,0.148901185814397818
0.885000000000000675,0.149692462653010311
0.886000000000000676,0.150465605633603006
0.887000000000000677,0.151220766750268520
0.888000000000000678,0.151958097555832589
0.889000000000000679,0.152677749153978581
0.890000000000000679,0.153379872191553385
0.891000000000000680,0.154064616851014080
0.892000000000000681,0.154732132843043491
0.893000000000000682,0.155382569399312331
0.894000000000000683,0.156016075265407034
0.895000000000000684,0.156632798693884634
0.896000000000000685,0.157232887437507629
0.897000000000000686,0.157816488742613698
0.898000000000000687,0.158383749342629249
0.899000000000000687,0.158934815451745426
0.900000000000000688,0.159469832758721813
0.901000000000000689,0.159988946420850819
0.902000000000000690,0.160492301058046183
0.903000000000000691,0.160980040747091657
0.904000000000000692,0.161452309016016315
0.905000000000000693,0.161909248838617514
0.906000000000000694,0.162351002629104568
0.907000000000000695,0.162777712236907401
0.908000000000000695,0.163189518941583345
0.909000000000000696,0.163586563447891992
0.910000000000000697,0.163968985880966422
0.911000000000000698,0.164336925781649379
0.912000000000000699,0.164690522101933995
0.913000000000000700,0.165029913200529038
0.914000000000000701,0.165355236838584108
0.915000000000000702,0.165666630175488910
0.916000000000000703,0.165964229764839433
0.917000000000000703,0.166248171550497897
0.918000000000000704,0.166518590862787280
0.919000000000000705,0.166775622414804092
0.920000000000000706,0.167019400298833137
0.921000000000000707,0.167250057982904043
0.922000000000000708,0.167467728307443553
0.923000000000000709,0.167672543482035252
0.924000000000000710,0.167864635082322022
0.925000000000000711,0.168044134046985150
0.926000000000000711,0.168211170674851723
0.927000000000000712,0.168365874622104533
0.928000000000000713,0.168508374899602187
0.929000000000000714,0.168638799870291400
0.930000000000000715,0.168757277246745663
0.931000000000000716,0.168863934088791495
0.932000000000000717,0.168958896801229136
0.933000000000000718,0.169042291131676015
0.934000000000000719,0.169114242168484974
0.935000000000000719,0.169174874338772763
0.936000000000000720,0.169224311406548311
0.937000000000000721,0.169262676470923301
0.938000000000000722,0.169290091964420214
0.939000000000000723,0.169306679651383629
0.940000000000000724,0.169312560626464631
0.941000000000000725,0.169307855313215044
0.942000000000000726,0.169292683462741650
0.943000000000000727,0.169267164152486493
0.944000000000000727,0.169231415785053768
0.945000000000000728,0.169185556087143169
0.946000000000000729,0.169129702108576613
0.947000000000000730,0.169063970221370569
0.948000000000000731,0.168988476118937359
0.949000000000000732,0.168903334815317635
0.950000000000000733,0.168808660644538672
0.951000000000000734,0.168704567260001659
0.952000000000000735,0.168591167633991568
0.953000000000000735,0.168468574057236115
0.954000000000000736,0.168336898138539276
0.955000000000000737,0.168196250804497321
0.956000000000000738,0.168046742299277796
0.957000000000000739,0.167888482184478022
0.958000000000000740,0.167721579339044691
0.959000000000000741,0.167546141959271977
0.960000000000000742,0.167362277558849304
0.961000000000000743,0.167170092968998096
0.962000000000000743,0.166969694338659602
0.963000000000000744,0.166761187134750466
0.964000000000000745,0.166544676142472287
0.965000000000000746,0.166320265465705441
0.966000000000000747,0.166088058527440297
0.967000000000000748,0.165848158070286911
0.968000000000000749,0.165600666157022430
0.969000000000000750,0.165345684171225416
0.970000000000000751,0.165083312817930455
0.971000000000000751,0.164813652124381038
0.972000000000000752,0.164536801440808844
0.973000000000000753,0.164252859441257226
0.974000000000000754,0.163961924124497699
0.975000000000000755,0.163664092814961831
0.976000000000000756,0.163359462163738339
0.977000000000000757,0.163048128149624660
0.978000000000000758,0.162730186080223355
0.979000000000000759,0.162405730593070757
0.980000000000000759,0.162074855656852812
0.981000000000000760,0.161737654572627843
0.982000000000000761,0.161394219975104503
0.983000000000000762,0.161044643833988949
0.984000000000000763,0.160689017455346056
0.985000000000000764,0.160327431483009819
0.986000000000000765,0.159959975900052342
0.987000000000000766,0.159586740030278562
0.988000000000000766,0.159207812539765542
0.989000000000000767,0.158823281438438019
0.990000000000000768,0.158433234081687191
0.991000000000000769,0.158037757172036997
0.992000000000000770,0.157636936760829516
0.993000000000000771,0.157230858249946481
0.994000000000000772,0.156819606393595795
0.995000000000000773,0.156403265300089023
0.996000000000000774,0.155981918433695216
0.997000000000000774,0.155555648616496484
0.998000000000000775,0.155124538030294273
0.999000000000000776,0.154688668218542075
1.000000000000000666,0.154248120088307406
1.001000000000000778,0.153802973912266383
1.002000000000000668,0.153353309330728299
1.003000000000000780,0.152899205353690282
1.004000000000000670,0.152440740362918825
1.005000000000000782,0.151977992114054244
1.006000000000000671,0.151511037738748466
1.007000000000000783,0.151039953746836708
1.008000000000000673,0.150564816028512211
1.009000000000000785,0.150085699856547489
1.010000000000000675,0.149602679888530515
1.011000000000000787,0.149115830169128522
1.012000000000000677,0.148625224132365147
1.013000000000000789,0.148130934603931286
1.014000000000000679,0.147633033803524910
1.015000000000000790,0.147131593347179374
1.016000000000000680,0.146626684249651140
1.017000000000000792,0.146118376926804516
1.018000000000000682,0.145606741198025136
1.019000000000000794,0.145091846288647103
1.020000000000000684,0.144573760832397896
1.021000000000000796,0.144052552873869227
1.022000000000000686,0.143528289870999359
1.023000000000000798,0.143001038697567640
1.024000000000000687,0.142470865645717815
1.025000000000000799,0.141937836428482400
1.026000000000000689,0.141402016182333556
1.027000000000000801,0.140863469469742875
1.028000000000000691,0.140322260281755484
1.029000000000000803,0.139778452040580703
1.030000000000000693,0.139232107602198119
1.031000000000000805,0.138683289258959064
1.032000000000000695,0.138132058742232611
1.033000000000000806,0.137578477225024309
1.034000000000000696,0.137022605324639890
1.035000000000000808,0.136464503105342139
1.036000000000000698,0.135904230081024646
1.037000000000000810,0.135341845217875678
1.038000000000000700,0.134777406937094668
1.039000000000000812,0.134210973117574850
1.040000000000000702,0.133642601098612451
1.041000000000000814,0.133072347682622022
1.042000000000000703,0.132500269137871829
1.043000000000000815,0.131926421201198796
1.044000000000000705,0.131350859080750698
1.045000000000000817,0.130773637458743597
1.046000000000000707,0.130194810494193458
1.047000000000000819,0.129614431825683135
1.048000000000000709,0.129032554574125408
1.049000000000000821,0.128449231345521442
1.050000000000000711,0.127864514233746202
1.051000000000000822,0.127278454823306630
1.052000000000000712,0.126691104192135390
1.053000000000000824,0.126102512914370996
1.054000000000000714,0.125512731063139149
1.055000000000000826,0.124921808213349486
1.056000000000000716,0.124329793444480835
1.057000000000000828,0.123736735343382226
1.058000000000000718,0.123142682007065546
1.059000000000000830,0.122547681045506729
1.060000000000000719,0.121951779584436773
1.061000000000000831,0.121355024268155920
1.062000000000000721,0.120757461262325630
1.063000000000000833,0.120159136256765664
1.064000000000000723,0.119560094468269346
1.065000000000000835,0.118960380643396951
1.066000000000000725,0.118360039061270989
1.067000000000000837,0.117759113536397605
1.068000000000000727,0.117157647421436639
1.069000000000000838,0.116555683610027327
1.070000000000000728,0.115953264539569736
1.071000000000000840,0.115350432194024660
1.072000000000000730,0.114747228106703611
1.073000000000000842,0.114143693363062293
1.074000000000000732,0.113539868603495700
1.075000000000000844,0.112935794026110869
1.076000000000000734,0.112331509389517789
1.077000000000000846,0.111727054015611157
1.078000000000000735,0.111122466792338170
1.079000000000000847,0.110517786176483626
1.080000000000000737,0.109913050196422807
1.081000000000000849,0.109308296454902767
1.082000000000000739,0.108703562131795106
1.083000000000000851,0.108098883986851885
1.084000000000000741,0.107494298362453972
1.085000000000000853,0.106889841186369988
1.086000000000000743,0.106285547974488193
1.087000000000000854,0.105681453833553957
1.088000000000000744,0.105077593463899846
1.089000000000000856,0.104474001162180044
1.090000000000000746,0.103870710824083654
1.091000000000000858,0.103267755947044251
1.092000000000000748,0.102665169632958575
1.093000000000000860,0.102062984590877953
1.094000000000000750,0.101461233139714890
1.095000000000000862,0.100859947210919468
1.096000000000000751,0.100259158351168540
1.097000000000000863,0.099658897725045006
1.098000000000000753,0.099059196117695050
1.099000000000000865,0.098460083937494752
1.100000000000000755,0.097861591218709562
1.101000000000000867,0.097263747624131217
1.102000000000000757,0.096666582447722707
1.103000000000000869,0.096070124617242320
1.104000000000000759,0.095474402696881594
1.105000000000000870,0.094879444889858347
1.106000000000000760,0.094285279041050024
1.107000000000000872,0.093691932639570832
1.108000000000000762,0.093099432821371300
1.109000000000000874,0.092507806371822099
1.110000000000000764,0.091917079728285153
1.111000000000000876,0.091327278982683807
1.112000000000000766,0.090738429884050439
1.113000000000000878,0.090150557841081724
1.114000000000000767,0.089563687924671329
1.115000000000000879,0.088977844870449102
1.116000000000000769,0.088393053081290349
1.117000000000000881,0.087809336629834575
1.118000000000000771,0.087226719260986435
1.119000000000000883,0.086645224394404322
1.120000000000000773,0.086064875126986656
1.121000000000000885,0.085485694235347437
1.122000000000000774,0.084907704178278573
1.123000000000000886,0.084330927099203493
1.124000000000000776,0.083755384828616442
1.125000000000000888,0.083181098886532287
1.126000000000000778,0.082608090484898172
1.127000000000000890,0.082036380530003755
1.128000000000000780,0.081465989624907004
1.129000000000000892,0.080896938071806701
1.130000000000000782,0.080329245874438363
1.131000000000000894,0.079762932740447171
1.132000000000000783,0.079198018083750238
1.133000000000000895,0.078634521026885645
1.134000000000000785,0.078072460403370875
1.135000000000000897,0.077511854760013321
1.136000000000000787,0.076952722359253989
1.137000000000000899,0.076395081181461849
1.138000000000000789,0.075838948927252320
1.139000000000000901,0.075284343019753591
1.140000000000000790,0.074731280606910686
1.141000000000000902,0.074179778563746246
1.142000000000000792,0.073629853494610820
1.143000000000000904,0.073081521735440941
1.144000000000000794,0.072534799355985696
1.145000000000000906,0.071989702162050459
1.146000000000000796,0.071446245697687122
1.147000000000000908,0.070904445247417874
1.148000000000000798,0.070364315838420816
1.149000000000000909,0.069825872242709766
1.150000000000000799,0.069289128979315093
1.151000000000000689,0.068754100316432670
1.152000000000000801,0.068220800273579060
1.153000000000000913,0.067689242623728232
1.154000000000000803,0.067159440895438210
1.155000000000000693,0.066631408374973083
1.156000000000000805,0.066105158108393652
1.157000000000000917,0.065580702903669047
1.158000000000000806,0.065058055332745987
1.159000000000000696,0.064537227733624788
1.160000000000000808,0.064018232212424170
1.161000000000000920,0.063501080645423771
1.162000000000000810,0.062985784681102858
1.163000000000000700,0.062472355742174510
1.164000000000000812,0.061960805027589695
1.165000000000000924,0.061451143514557327
1.166000000000000814,0.060943381960521181
1.167000000000000703,0.060437530905154281
1.168000000000000815,0.059933600672322937
1.169000000000000927,0.059431601372053180
1.170000000000000817,0.058931542902471393
1.171000000000000707,0.058433434951752752
1.172000000000000819,0.057937287000033255
1.173000000000000931,0.057443108321338296
1.174000000000000821,0.056950907985482878
1.175000000000000711,0.056460694859960983
1.176000000000000822,0.055972477611827998
1.177000000000000934,0.055486264709577973
1.178000000000000824,0.055002064424994779
1.179000000000000714,0.054519884835009358
1.180000000000000826,0.054039733823525324
1.181000000000000938,0.053561619083259217
1.182000000000000828,0.053085548117546913
1.183000000000000718,0.052611528242148098
1.184000000000000830,0.052139566587040553
1.185000000000000941,0.051669670098211086
1.186000000000000831,0.051201845539408999
1.187000000000000721,0.050736099493924380
1.188000000000000833,0.050272438366324571
1.189000000000000945,0.049810868384198750
1.190000000000000835,0.049351395599882122
1.191000000000000725,0.048894025892181767
1.192000000000000837,0.048438764968061473
1.193000000000000949,0.047985618364364380
1.194000000000000838,0.047534591449470587
1.195000000000000728,0.047085689424991597
1.196000000000000840,0.046638917327417886
1.197000000000000952,0.046194280029775880
1.198000000000000842,0.045751782243272442
1.199000000000000732,0.045311428518913711
1.200000000000000844,0.044873223249145056
1.201000000000000956,0.044437170669435276
1.202000000000000846,0.044003274859894172
1.203000000000000735,0.043571539746847299
1.204000000000000847,0.043141969104427517
1.205000000000000959,0.042714566556120478
1.206000000000000849,0.042289335576341361
1.207000000000000739,0.041866279491970443
1.208000000000000851,0.041445401483887243
1.209000000000000963,0.041026704588499482
1.210000000000000853,0.040610191699252500
1.211000000000000743,0.040195865568141566
1.212000000000000854,0.039783728807193684
1.213000000000000966,0.039373783889964584
1.214000000000000856,0.038966033152994663
1.215000000000000746,0.038560478797294018
1.216000000000000858,0.038157122889770627
1.217000000000000970,0.037755967364693818
1.218000000000000860,0.037357014025116667
1.219000000000000750,0.036960264544297343
1.220000000000000862,0.036565720467113746
1.221000000000000973,0.036173383211470359
1.222000000000000863,0.035783254069680956
1.223000000000000753,0.035395334209861497
1.224000000000000865,0.035009624677294793
1.225000000000000977,0.034626126395794050
1.226000000000000867,0.034244840169061194
1.227000000000000757,0.033865766682025969
1.228000000000000869,0.033488906502182572
1.229000000000000981,0.033114260080900258
1.230000000000000870,0.032741827754762233
1.231000000000000760,0.032371609746846733
1.232000000000000872,0.032003606168027929
1.233000000000000984,0.031637817018275435
1.234000000000000874,0.031274242187906268
1.235000000000000764,0.030912881458873043
1.236000000000000876,0.030553734506004411
1.237000000000000988,0.030196800898266742
1.238000000000000878,0.029842080099986783
1.239000000000000767,0.029489571472095889
1.240000000000000879,0.029139274273338088
1.241000000000000991,0.028791187661487489
1.242000000000000881,0.028445310694547383
1.243000000000000771,0.028101642331939080
1.244000000000000883,0.027760181435693414
1.245000000000000995,0.027420926771613043
1.246000000000000885,0.027083877010446213
1.247000000000000774,0.026749030729041258
1.248000000000000886,0.026416386411491233
1.249000000000000998,0.026085942450274680
1.250000000000000888,0.025757697147380264
1.251000000000000778,0.025431648715434151
1.252000000000000890,0.025107795278805588
1.253000000000001002,0.024786134874720318
1.254000000000000892,0.024466665454336161
1.255000000000000782,0.024149384883847567
1.256000000000000894,0.023834290945555801
1.257000000000001005,0.023521381338934617
1.258000000000000895,0.023210653681693283
1.259000000000000785,0.022902105510830134
1.260000000000000897,0.022595734283673969
1.261000000000001009,0.022291537378915115
1.262000000000000899,0.021989512097642216
1.263000000000000789,0.021689655664352117
1.264000000000000901,0.021391965227959213
1.265000000000001013,0.021096437862805375
1.266000000000000902,0.020803070569646621
1.267000000000000792,0.020511860276641751
1.268000000000000904,0.020222803840329727
1.269000000000001016,0.019935898046600398
1.270000000000000906,0.019651139611650804
1.271000000000000796,0.019368525182946024
1.272000000000000908,0.019088051340162906
1.273000000000001020,0.018809714596125338
1.274000000000000909,0.018533511397736173
1.275000000000000799,0.018259438126903883
1.276000000000000911,0.017987491101445839
1.277000000000001023,0.017717666576010403
1.278000000000000913,0.017449960742965342
1.279000000000000803,0.017184369733294066
1.280000000000000915,0.016920889617474670
1.281000000000001027,0.016659516406370308
1.282000000000000917,0.016400246052082530
1.283000000000000806,0.016143074448823218
1.284000000000000918,0.015887997433763339
1.285000000000001030,0.015635010787888461
1.286000000000000920,0.015384110236828660
1.287000000000000810,0.015135291451699746
1.288000000000000922,0.014888550049920768
1.289000000000001034,0.014643881596040503
1.290000000000000924,0.014401281602548444
1.291000000000000814,0.014160745530667485
1.292000000000000925,0.013922268791169845
1.293000000000001037,0.013685846745147483
1.294000000000000927,0.013451474704810239
1.295000000000000817,0.013219147934258185
1.296000000000000929,0.012988861650246097
1.297000000000001041,0.012760611022956305
1.298000000000000931,0.012534391176743121
1.299000000000000821,0.012310197190888071
1.300000000000000933,0.012088024100346624
1.301000000000001044,0.011867866896476136
1.302000000000000934,0.011649720527771672
1.303000000000000824,0.011433579900579402
1.304000000000000936,0.011219439879829266
1.305000000000001048,0.011007295289727949
1.306000000000000938,0.010797140914468099
1.307000000000000828,0.010588971498932651
1.308000000000000940,0.010382781749377207
1.309000000000001052,0.010178566334111145
1.310000000000000941,0.009976319884187283
1.311000000000000831,0.009776036994061918
1.312000000000000943,0.009577712222276146
1.313000000000001055,0.009381340092089248
1.314000000000000945,0.009186915092160099
1.315000000000000835,0.008994431677178312
1.316000000000000947,0.008803884268509702
1.317000000000001059,0.008615267254828233
1.318000000000000949,0.008428574992755230
1.319000000000000838,0.008243801807467501
1.320000000000000950,0.008060941993327205
1.321000000000001062,0.007879989814491560
1.322000000000000952,0.007700939505512833
1.323000000000000842,0.007523785271946033
1.324000000000000954,0.007348521290934963
1.325000000000001066,0.007175141711812630
1.326000000000000956,0.007003640656669930
1.327000000000000846,0.006834012220947388
1.328000000000000957,0.006666250473993185
1.329000000000001069,0.006500349459646030
1.330000000000000959,0.006336303196777690
1.331000000000000849,0.006174105679861911
1.332000000000000961,0.006013750879522510
1.333000000000001073,0.005855232743074300
1.334000000000000963,0.005698545195061121
1.335000000000000853,0.005543682137798135
1.336000000000000965,0.005390637451891485
1.337000000000001076,0.005239404996767004
1.338000000000000966,0.005089978611189422
1.339000000000000856,0.004942352113770124
1.340000000000000968,0.004796519303480891
1.341000000000001080,0.004652473960157502
1.342000000000000970,0.004510209844991751
1.343000000000000860,0.004369720701029804
1.344000000000000972,0.004231000253659885
1.345000000000001084,0.004094042211088950
1.346000000000000973,0.003958840264831801
1.347000000000000863,0.003825388090174765
1.348000000000000975,0.003693679346653381
1.349000000000001087,0.003563707678505907
1.350000000000000977,0.003435466715139879
1.351000000000000867,0.003308950071580220
1.352000000000000979,0.003184151348932300
1.353000000000001091,0.003061064134807335
1.354000000000000981,0.002939682003774789
1.355000000000000870,0.002819998517799862
1.356000000000000982,0.002702007226668696
1.357000000000001094,0.002585701668413853
1.358000000000000984,0.002471075369744662
1.359000000000000874,0.002358121846458501
1.360000000000000986,0.002246834603856314
1.361000000000001098,0.002137207137146585
1.362000000000000988,0.002029232931861212
1.363000000000000878,0.001922905464247094
1.364000000000000989,0.001818218201657009
1.365000000000001101,0.001715164602958483
1.366000000000000991,0.001613738118905724
1.367000000000000881,0.001513932192528928
1.368000000000000993,0.001415740259514177
1.369000000000001105,0.001319155748574405
1.370000000000000995,0.001224172081826899
1.371000000000000885,0.001130782675154600
1.372000000000000997,0.001038980938572259
1.373000000000001108,0.000948760276578135
1.374000000000000998,0.000860114088527498
1.375000000000000888,0.000773035768956471
1.376000000000001000,0.000687518707951468
1.377000000000001112,0.000603556291483921
1.378000000000001002,0.000521141901747362
1.379000000000000892,0.000440268917497962
1.380000000000001004,0.000360930714384678
1.381000000000001116,0.000283120665271713
1.382000000000001005,0.000206832140572746
1.383000000000000895,0.000132058508565113
1.384000000000001007,0.000058793135706734
1.385000000000001119,-0.000012970613048403
1.386000000000001009,-0.000083239373944445
1.387000000000000899,-0.000152019784106306
1.388000000000001011,-0.000219318481260640
1.389000000000001123,-0.000285142103406983
1.390000000000001013,-0.000349497288545337
1.391000000000000902,-0.000412390674373045
1.392000000000001014,-0.000473828897999512
1.393000000000001126,-0.000533818595660740
1.394000000000001016,-0.000592366402439155
1.395000000000000906,-0.000649478951982691
1.396000000000001018,-0.000705162876226759
1.397000000000001130,-0.000759424805131051
1.398000000000001020,-0.000812271366404804
1.399000000000000909,-0.000863709185241669
1.400000000000001021,-0.000913744884057980
1.401000000000001133,-0.000962385082239671
1.402000000000001023,-0.001009636395876143
1.403000000000000913,-0.001055505437513760
1.404000000000001025,-0.001099998815909824
1.405000000000001137,-0.001143123135778366
1.406000000000001027,-0.001184884997550026
1.407000000000000917,-0.001225290997140667
1.408000000000001029,-0.001264347725694783
1.409000000000001140,-0.001302061769370785
1.410000000000001030,-0.001338439709097457
1.411000000000000920,-0.001373488120351632
1.412000000000001032,-0.001407213572928999
1.413000000000001144,-0.001439622630725724
1.414000000000001034,-0.001470721851514874
1.415000000000000924,-0.001500517786728931
1.416000000000001036,-0.001529016981253337
1.417000000000001148,-0.001556225973207926
1.418000000000001037,-0.001582151293738180
1.419000000000000927,-0.001606799466814221
1.420000000000001039,-0.001630177009022634
1.421000000000001151,-0.001652290429374099
1.422000000000001041,-0.001673146229096717
1.423000000000000931,-0.001692750901445886
1.424000000000001043,-0.001711110931511801
1.425000000000001155,-0.001728232796028364
1.426000000000001044,-0.001744122963187103
1.427000000000000934,-0.001758787892453912
1.428000000000001046,-0.001772234034383499
1.429000000000001158,-0.001784467830439963
1.430000000000001048,-0.001795495712826944
1.431000000000000938,-0.001805324104302288
1.432000000000001050,-0.001813959418014060
1.433000000000001162,-0.001821408057329427
1.434000000000001052,-0.001827676415662059
1.435000000000000941,-0.001832770876316537
1.436000000000001053,-0.001836697812316835
1.437000000000001165,-0.001839463586248673
1.438000000000001055,-0.001841074550108529
1.439000000000000945,-0.001841537045138474
1.440000000000001057,-0.001840857401679671
1.441000000000001169,-0.001839041939013734
1.442000000000001059,-0.001836096965222462
1.443000000000000949,-0.001832028777039406
1.444000000000001060,-0.001826843659701961
1.445000000000001172,-0.001820547886807581
1.446000000000001062,-0.001813147720185749
1.447000000000000952,-0.001804649409742763
1.448000000000001064,-0.001795059193340485
1.449000000000001176,-0.001784383296658713
1.450000000000001066,-0.001772627933055819
1.451000000000000956,-0.001759799303450162
1.452000000000001068,-0.001745903596187333
1.453000000000001180,-0.001730946986914745
1.454000000000001069,-0.001714935638458900
1.455000000000000959,-0.001697875700706134
1.456000000000001071,-0.001679773310476489
1.457000000000001183,-0.001660634591416783
1.458000000000001073,-0.001640465653876624
1.459000000000000963,-0.001619272594795448
1.460000000000001075,-0.001597061497593811
1.461000000000001187,-0.001573838432061655
1.462000000000001076,-0.001549609454255236
1.463000000000000966,-0.001524380606381240
1.464000000000001078,-0.001498157916699260
1.465000000000001190,-0.001470947399421844
1.466000000000001080,-0.001442755054604446
1.467000000000000970,-0.001413586868055033
1.468000000000001082,-0.001383448811235505
1.469000000000001194,-0.001352346841159403
1.470000000000001084,-0.001320286900308156
1.471000000000000973,-0.001287274916529908
1.472000000000001085,-0.001253316802959717
1.473000000000001197,-0.001218418457919367
1.474000000000001087,-0.001182585764839772
1.475000000000000977,-0.001145824592166376
1.476000000000001089,-0.001108140793286114
1.477000000000001201,-0.001069540206439824
1.478000000000001091,-0.001030028654637709
1.479000000000000981,-0.000989611945588493
1.480000000000001092,-0.000948295871616333
1.481000000000001204,-0.000906086209587125
1.482000000000001094,-0.000862988720834663
1.483000000000000984,-0.000819009151089517
1.484000000000001096,-0.000774153230402720
1.485000000000001208,-0.000728426673076458
1.486000000000001098,-0.000681835177605034
1.487000000000000988,-0.000634384426596847
1.488000000000001100,-0.000586080086712053
1.489000000000001211,-0.000536927808604921
1.490000000000001101,-0.000486933226853271
1.491000000000000991,-0.000436101959899802
1.492000000000001103,-0.000384439609996361
1.493000000000001215,-0.000331951763141058
1.494000000000001105,-0.000278643989021258
1.495000000000000995,-0.000224521840960100
1.496000000000001107,-0.000169590855862669
1.497000000000001219,-0.000113856554160560
1.498000000000001108,-0.000057324439762272
1.499000000000000998,0.000000000000000000
