# CaO001_HIPSCA-AC
# h[nm],U(h)[kJ/mol]
0.149999999999999994,124.253857867698258133
0.150999999999999995,122.069676208439361176
0.151999999999999996,119.680326449867493466
0.152999999999999997,117.274202718167742887
0.153999999999999998,114.919759117418379901
0.154999999999999999,112.629856591317235370
0.156000000000000000,110.396012402630546489
0.157000000000000001,108.205136801621421228
0.158000000000000002,106.046539222119278634
0.159000000000000002,103.913885861949054856
0.160000000000000003,101.804823534468582125
0.161000000000000004,99.719763956436736407
0.162000000000000005,97.660586347640645499
0.163000000000000006,95.629589011371479046
0.164000000000000007,93.628786309783052388
0.165000000000000008,91.659530260771845178
0.166000000000000009,89.722387095515713895
0.167000000000000010,87.817187837874399747
0.168000000000000010,85.943179508340890038
0.169000000000000011,84.099218838673635901
0.170000000000000012,82.283967232759792410
0.171000000000000013,80.496060984742697997
0.172000000000000014,78.734243142982762720
0.173000000000000015,76.997452595873511427
0.174000000000000016,75.284872200563953015
0.175000000000000017,73.595941566278852974
0.176000000000000018,71.930341994480841095
0.177000000000000018,70.287961594769853946
0.178000000000000019,68.668848191272559234
0.179000000000000020,67.073156673827654117
0.180000000000000021,65.501096208467615156
0.181000000000000022,63.952881401395494265
0.182000000000000023,62.428690243646698832
0.183000000000000024,60.928630532159715472
0.184000000000000025,59.452715510375355734
0.185000000000000026,58.000848712992493006
0.186000000000000026,56.572817431243322517
0.187000000000000027,55.168293821011616274
0.188000000000000028,53.786842433498648575
0.189000000000000029,52.427932831216182308
0.190000000000000030,51.090955934869000998
0.191000000000000031,49.775242804713158762
0.192000000000000032,48.480084671328469881
0.193000000000000033,47.204753176596128128
0.194000000000000034,45.948519950450432248
0.195000000000000034,44.710674820252975792
0.196000000000000035,43.490542117916426434
0.197000000000000036,42.287494708257639786
0.198000000000000037,41.100965505769821107
0.199000000000000038,39.930456373190857278
0.200000000000000039,38.775544402498212548
0.201000000000000040,37.635885667018250444
0.202000000000000041,36.511216602791691344
0.203000000000000042,35.401353229394239008
0.204000000000000042,34.306188456675961618
0.205000000000000043,33.225687746204705775
0.206000000000000044,32.159883406522112637
0.207000000000000045,31.108867801603928172
0.208000000000000046,30.072785744037112465
0.209000000000000047,29.051826330147356714
0.210000000000000048,28.046214455229566909
0.211000000000000049,27.056202224579699589
0.212000000000000050,26.082060451432869996
0.213000000000000050,25.124070407241056557
0.214000000000000051,24.182515963845858664
0.215000000000000052,23.257676241732490041
0.216000000000000053,22.349818854248308497
0.217000000000000054,21.459193814856053706
0.218000000000000055,20.586028153470760316
0.219000000000000056,19.730521268903537191
0.220000000000000057,18.892841027510247187
0.221000000000000058,18.073120603369062565
0.222000000000000058,17.271456042655806584
0.223000000000000059,16.487904524296158826
0.224000000000000060,15.722483280338462208
0.225000000000000061,14.975169132686659168
0.226000000000000062,14.245898597712550071
0.227000000000000063,13.534568506672737698
0.228000000000000064,12.841037087627166002
0.229000000000000065,12.165125453527309674
0.230000000000000066,11.506619441157486250
0.231000000000000066,10.865271746513160522
0.232000000000000067,10.240804303844985412
0.233000000000000068,9.632910857846731290
0.234000000000000069,9.041259681197130860
0.235000000000000070,8.465496392764134015
0.236000000000000071,7.905246835145291584
0.237000000000000072,7.360119973756437339
0.238000000000000073,6.829710783316309985
0.239000000000000073,6.313603091237692588
0.240000000000000074,5.811372351065105413
0.241000000000000075,5.322588322651268911
0.242000000000000076,4.846817639194911820
0.243000000000000077,4.383626244540354655
0.244000000000000078,3.932581687240817470
0.245000000000000079,3.493255260791793937
0.246000000000000080,3.065223982137758263
0.247000000000000081,2.648072403033773892
0.248000000000000081,2.241394251103125956
0.249000000000000082,1.844793899470159815
0.250000000000000111,1.457887665668012200
0.251000000000000112,1.080304942130114298
0.252000000000000113,0.711689161977585583
0.253000000000000114,0.351698605025273225
0.254000000000000115,0.000007049951888671
0.255000000000000115,-0.343695720568181595
0.256000000000000116,-0.679703554285256084
0.257000000000000117,-1.008293695320503502
0.258000000000000118,-1.329726673207737075
0.259000000000000119,-1.644246306322241891
0.260000000000000120,-1.952079810821635508
0.261000000000000121,-2.253438006157240103
0.262000000000000122,-2.548515608238193675
0.263000000000000123,-2.837491601431326504
0.264000000000000123,-3.120529680749800416
0.265000000000000124,-3.397778755810798579
0.266000000000000125,-3.669373508419801588
0.267000000000000126,-3.935434995956556659
0.268000000000000127,-4.196071293089422838
0.269000000000000128,-4.451378164721227826
0.270000000000000129,-4.701439763466917832
0.271000000000000130,-4.946329345374037345
0.272000000000000131,-5.186109998015908218
0.273000000000000131,-5.420835375511041221
0.274000000000000132,-5.650550435445121700
0.275000000000000133,-5.875292173091655634
0.276000000000000134,-6.095090348739943487
0.277000000000000135,-6.309968204342050413
0.278000000000000136,-6.519943166082375896
0.279000000000000137,-6.725027529851118402
0.280000000000000138,-6.925229126965732007
0.281000000000000139,-7.120551967831363349
0.282000000000000139,-7.310996861560248306
0.283000000000000140,-7.496562009881873045
0.284000000000000141,-7.677243573968553392
0.285000000000000142,-7.853036213075995420
0.286000000000000143,-8.023933594154337712
0.287000000000000144,-8.189928871822463208
0.288000000000000145,-8.351015138318309994
0.289000000000000146,-8.507185843238456613
0.290000000000000147,-8.658435183064982610
0.291000000000000147,-8.804758460644112716
0.292000000000000148,-8.946152414932377894
0.293000000000000149,-9.082615521460676078
0.294000000000000150,-9.214148264087164364
0.295000000000000151,-9.340753378715692890
0.296000000000000152,-9.462436069749063705
0.297000000000000153,-9.579204200126117286
0.298000000000000154,-9.691068455859660702
0.299000000000000155,-9.798042486048794686
0.300000000000000155,-9.900143019385694743
0.301000000000000156,-9.997389958213222627
0.302000000000000157,-10.089806451217954830
0.303000000000000158,-10.177418945862141797
0.304000000000000159,-10.260257221670610051
0.305000000000000160,-10.338354405493253907
0.306000000000000161,-10.411746969862967660
0.307000000000000162,-10.480474715562035470
0.308000000000000163,-10.544580739498027100
0.309000000000000163,-10.604111388974164498
0.310000000000000164,-10.659116203418752988
0.311000000000000165,-10.709647844614480050
0.312000000000000166,-10.755762016441670070
0.313000000000000167,-10.797517375120111893
0.314000000000000168,-10.834975430902508364
0.315000000000000169,-10.868200442139066553
0.316000000000000170,-10.897259302598099495
0.317000000000000171,-10.922221422891006171
0.318000000000000171,-10.943158606813316425
0.319000000000000172,-10.960144923375880310
0.320000000000000173,-10.973256575262135826
0.321000000000000174,-10.982571764409401638
0.322000000000000175,-10.988170555374097148
0.323000000000000176,-10.990134737102890128
0.324000000000000177,-10.988547683694319446
0.325000000000000178,-10.983494214698477975
0.326000000000000179,-10.975060455466230991
0.327000000000000179,-10.963333698023744134
0.328000000000000180,-10.948402262913441874
0.329000000000000181,-10.930355362409116537
0.330000000000000182,-10.909282965479622618
0.331000000000000183,-10.885275664844634491
0.332000000000000184,-10.858424546434841673
0.333000000000000185,-10.828821061539866122
0.334000000000000186,-10.796556901898965108
0.335000000000000187,-10.761723877962433349
0.336000000000000187,-10.724413800526001239
0.337000000000000188,-10.684718365915657046
0.338000000000000189,-10.642729044877231814
0.339000000000000190,-10.598536975302764063
0.340000000000000191,-10.552232858904421420
0.341000000000000192,-10.503906861927557514
0.342000000000000193,-10.453648519974972686
0.343000000000000194,-10.401546646997847034
0.344000000000000195,-10.347689248491356295
0.345000000000000195,-10.292163438918734641
0.346000000000000196,-10.235055363372230985
0.347000000000000197,-10.176450123466851849
0.348000000000000198,-10.116431707450104227
0.349000000000000199,-10.055082924499661345
0.350000000000000200,-9.992485343170615764
0.351000000000000201,-9.928719233944116596
0.352000000000000202,-9.863863515820700201
0.353000000000000203,-9.797995706893667389
0.354000000000000203,-9.731191878830609099
0.355000000000000204,-9.663526615184851565
0.356000000000000205,-9.595072973452849041
0.357000000000000206,-9.525902450788580111
0.358000000000000207,-9.456084953281294503
0.359000000000000208,-9.385688768699484541
0.360000000000000209,-9.314780542600413327
0.361000000000000210,-9.243425257701845865
0.362000000000000210,-9.171686216410380510
0.363000000000000211,-9.099625026398923566
0.364000000000000212,-9.027301589124625991
0.365000000000000213,-8.954774091177355899
0.366000000000000214,-8.882098998348519459
0.367000000000000215,-8.809331052309513410
0.368000000000000216,-8.736523269789410406
0.369000000000000217,-8.663726944141631137
0.370000000000000218,-8.590991649190257817
0.371000000000000218,-8.518365245247251138
0.372000000000000219,-8.445893887193269833
0.373000000000000220,-8.373622034515944890
0.374000000000000221,-8.301592463201062699
0.375000000000000222,-8.229846279373704832
0.376000000000000223,-8.158422934588511310
0.377000000000000224,-8.087360242669909383
0.378000000000000225,-8.016694398005483890
0.379000000000000226,-7.946459995197781900
0.380000000000000226,-7.876690049982248532
0.381000000000000227,-7.807416021321214927
0.382000000000000228,-7.738667834586517635
0.383000000000000229,-7.670473905745717857
0.384000000000000230,-7.602861166469364385
0.385000000000000231,-7.535855090079634166
0.386000000000000232,-7.469479718262900469
0.387000000000000233,-7.403757688471694465
0.388000000000000234,-7.338710261944052959
0.389000000000000234,-7.274357352270873989
0.390000000000000235,-7.210717554444561195
0.391000000000000236,-7.147808174324845609
0.392000000000000237,-7.085645258460180784
0.393000000000000238,-7.024243624205920078
0.394000000000000239,-6.963616890082644950
0.395000000000000240,-6.903777506320933455
0.396000000000000241,-6.844736785541002178
0.397000000000000242,-6.786504933518242133
0.398000000000000242,-6.729091079988103630
0.399000000000000243,-6.672503309445923847
0.400000000000000244,-6.616748691899738688
0.401000000000000245,-6.561833313536427958
0.402000000000000246,-6.507762307263448065
0.403000000000000247,-6.454539883090818719
0.404000000000000248,-6.402169358319978798
0.405000000000000249,-6.350653187508155995
0.406000000000000250,-6.299992992178814255
0.407000000000000250,-6.250189590250785798
0.408000000000000251,-6.201243025160311895
0.409000000000000252,-6.153152594652253171
0.410000000000000253,-6.105916879218240112
0.411000000000000254,-6.059533770161341870
0.412000000000000255,-6.014000497268331635
0.413000000000000256,-5.969313656072333885
0.414000000000000257,-5.925469234689876963
0.415000000000000258,-5.882462640218120598
0.416000000000000258,-5.840288724679099097
0.417000000000000259,-5.798941810499393945
0.418000000000000260,-5.758415715514773936
0.419000000000000261,-5.718703777490554252
0.420000000000000262,-5.679798878149662222
0.421000000000000263,-5.641693466701517501
0.422000000000000264,-5.604379582865698595
0.423000000000000265,-5.567848879385623562
0.424000000000000266,-5.532092644028369754
0.425000000000000266,-5.497101821067468919
0.426000000000000267,-5.462867032246680132
0.427000000000000268,-5.429378597223363911
0.428000000000000269,-5.396626553490900591
0.429000000000000270,-5.364600675780386574
0.430000000000000271,-5.333290494942454885
0.431000000000000272,-5.302685316310792096
0.432000000000000273,-5.272774237549477050
0.433000000000000274,-5.243546165986901819
0.434000000000000274,-5.214989835439536314
0.435000000000000275,-5.187093822529306841
0.436000000000000276,-5.159846562498889178
0.437000000000000277,-5.133236364529528473
0.438000000000000278,-5.107251426566588925
0.439000000000000279,-5.081879849658248460
0.440000000000000280,-5.057109651813202156
0.441000000000000281,-5.032928781383505523
0.442000000000000282,-5.009325129979094626
0.443000000000000282,-4.986286544920548458
0.444000000000000283,-4.963800841237260286
0.445000000000000284,-4.941855813218066551
0.446000000000000285,-4.920439245521737170
0.447000000000000286,-4.899538923855041972
0.448000000000000287,-4.879142645225899244
0.449000000000000288,-4.859238227779700381
0.450000000000000289,-4.839813520226643462
0.451000000000000290,-4.820856410868239017
0.452000000000000290,-4.802354836231176094
0.453000000000000291,-4.784296789316759835
0.454000000000000292,-4.766670327474266777
0.455000000000000293,-4.749463579906543664
0.456000000000000294,-4.732664754816223507
0.457000000000000295,-4.716262146200981498
0.458000000000000296,-4.700244140306170770
0.459000000000000297,-4.684599221743271258
0.460000000000000298,-4.669315979282504081
0.461000000000000298,-4.654383111327922151
0.462000000000000299,-4.639789431083332083
0.463000000000000300,-4.625523871417223987
0.464000000000000301,-4.611575489434979858
0.465000000000000302,-4.597933470766442987
0.466000000000000303,-4.584587133576938811
0.467000000000000304,-4.571525932309701723
0.468000000000000305,-4.558739461167658824
0.469000000000000306,-4.546217457342333290
0.470000000000000306,-4.533949803997646022
0.471000000000000307,-4.521926533016152661
0.472000000000000308,-4.510137827515349862
0.473000000000000309,-4.498574024141370309
0.474000000000000310,-4.487225615147382385
0.475000000000000311,-4.476083250263950930
0.476000000000000312,-4.465137738368348153
0.477000000000000313,-4.454380048959817984
0.478000000000000314,-4.443801313447601764
0.479000000000000314,-4.433392826258470976
0.480000000000000315,-4.423146045770276480
0.481000000000000316,-4.413052595078100993
0.482000000000000317,-4.403104262599176977
0.483000000000000318,-4.393293002522932866
0.484000000000000319,-4.383610935112132623
0.485000000000000320,-4.374050346861102057
0.486000000000000321,-4.364603690516853263
0.487000000000000322,-4.355263584968779966
0.488000000000000322,-4.346022815012450913
0.489000000000000323,-4.336874330993000015
0.490000000000000324,-4.327811248333347294
0.491000000000000325,-4.318826846952434018
0.492000000000000326,-4.309914570578492032
0.493000000000000327,-4.301068025962321073
0.494000000000000328,-4.292280981995274303
0.495000000000000329,-4.283547368736688732
0.496000000000000330,-4.274861276355217399
0.497000000000000330,-4.266216953988591243
0.498000000000000331,-4.257608808525932709
0.499000000000000332,-4.249031403316980260
0.500000000000000333,-4.240479456812145109
0.501000000000000334,-4.231947841137357891
0.502000000000000335,-4.223431580607581282
0.503000000000000336,-4.214925850182616784
0.504000000000000337,-4.206425973868868518
0.505000000000000338,-4.197927423070483499
0.506000000000000338,-4.189425814893288802
0.507000000000000339,-4.180916910404771869
0.508000000000000340,-4.172396612853245479
0.509000000000000341,-4.163860965849320195
0.510000000000000342,-4.155306151512554891
0.511000000000000343,-4.146728488586205685
0.512000000000000344,-4.138124430522802655
0.513000000000000345,-4.129490563543217974
0.514000000000000346,-4.120823604671844720
0.515000000000000346,-4.112120399750256894
0.516000000000000347,-4.103377921431845543
0.517000000000000348,-4.094593267159707395
0.518000000000000349,-4.085763657129922954
0.519000000000000350,-4.076886432242472935
0.520000000000000351,-4.067959052041746126
0.521000000000000352,-4.058979092648664633
0.522000000000000353,-4.049944244686281891
0.523000000000000353,-4.040852311200668012
0.524000000000000354,-4.031701205578865022
0.525000000000000355,-4.022488949465524932
0.526000000000000356,-4.013213670679829370
0.527000000000000357,-4.003873601134277926
0.528000000000000358,-3.994467074756721470
0.529000000000000359,-3.984992525417104581
0.530000000000000360,-3.975448484860191201
0.531000000000000361,-3.965833580645587997
0.532000000000000361,-3.956146534096247169
0.533000000000000362,-3.946386158256610432
0.534000000000000363,-3.936551355861476420
0.535000000000000364,-3.926641117316652441
0.536000000000000365,-3.916654518692333831
0.537000000000000366,-3.906590719730211880
0.538000000000000367,-3.896448961865087934
0.539000000000000368,-3.886228566261981765
0.540000000000000369,-3.875928931869325744
0.541000000000000369,-3.865549533489191614
0.542000000000000370,-3.855089919865064552
0.543000000000000371,-3.844549711787945689
0.544000000000000372,-3.833928600221333305
0.545000000000000373,-3.823226344445675551
0.546000000000000374,-3.812442770222813859
0.547000000000000375,-3.801577767980912625
0.548000000000000376,-3.790631291020377880
0.549000000000000377,-3.779603353741123328
0.550000000000000377,-3.768494029891604757
0.551000000000000378,-3.757303450840000725
0.552000000000000379,-3.746031803867833965
0.553000000000000380,-3.734679330486351034
0.554000000000000381,-3.723246324775897342
0.555000000000000382,-3.711733131748604197
0.556000000000000383,-3.700140145734468256
0.557000000000000384,-3.688467808791160873
0.558000000000000385,-3.676716609137597569
0.559000000000000385,-3.664887079611511833
0.560000000000000386,-3.652979796151055947
0.561000000000000387,-3.640995376300599329
0.562000000000000388,-3.628934477740732412
0.563000000000000389,-3.616797796842584400
0.564000000000000390,-3.604586067246432268
0.565000000000000391,-3.592300058464652501
0.566000000000000392,-3.579940574508999163
0.567000000000000393,-3.567508452542194508
0.568000000000000393,-3.555004561553762876
0.569000000000000394,-3.542429801060088757
0.570000000000000395,-3.529785099828647077
0.571000000000000396,-3.517071414626237846
0.572000000000000397,-3.504289728991260233
0.573000000000000398,-3.491441052029787162
0.574000000000000399,-3.478526417235417334
0.575000000000000400,-3.465546881332721707
0.576000000000000401,-3.452503523144137887
0.577000000000000401,-3.439397442480236045
0.578000000000000402,-3.426229759053066370
0.579000000000000403,-3.413001611412524117
0.580000000000000404,-3.399714155905526614
0.581000000000000405,-3.386368565657758012
0.582000000000000406,-3.372966029577886271
0.583000000000000407,-3.359507751383929985
0.584000000000000408,-3.345994948651688450
0.585000000000000409,-3.332428851884919219
0.586000000000000409,-3.318810703607087298
0.587000000000000410,-3.305141757474481246
0.588000000000000411,-3.291423277410377324
0.589000000000000412,-3.277656536760150452
0.590000000000000413,-3.263842817466933610
0.591000000000000414,-3.249983409267714674
0.592000000000000415,-3.236079608909560701
0.593000000000000416,-3.222132719385691679
0.594000000000000417,-3.208144049191209657
0.595000000000000417,-3.194114911598223916
0.596000000000000418,-3.180046623950004481
0.597000000000000419,-3.165940506974092017
0.598000000000000420,-3.151797884113896941
0.599000000000000421,-3.137620080878687379
0.600000000000000422,-3.123408424211595591
0.601000000000000423,-3.109164241875416845
0.602000000000000424,-3.094888861855941364
0.603000000000000425,-3.080583611782530262
0.604000000000000425,-3.066249818365659685
0.605000000000000426,-3.051888806851190239
0.606000000000000427,-3.037501900491107687
0.607000000000000428,-3.023090420030347669
0.608000000000000429,-3.008655683209661813
0.609000000000000430,-2.994199004283981225
0.610000000000000431,-2.979721693556264039
0.611000000000000432,-2.965225056926385605
0.612000000000000433,-2.950710395454863466
0.613000000000000433,-2.936179004941203541
0.614000000000000434,-2.921632175516531760
0.615000000000000435,-2.907071191250246933
0.616000000000000436,-2.892497329770502112
0.617000000000000437,-2.877911861898226675
0.618000000000000438,-2.863316051294384490
0.619000000000000439,-2.848711154120262545
0.620000000000000440,-2.834098418710549350
0.621000000000000441,-2.819479085258904227
0.622000000000000441,-2.804854385515809234
0.623000000000000442,-2.790225542498421696
0.624000000000000443,-2.775593770212214650
0.625000000000000444,-2.760960273384164942
0.626000000000000445,-2.746326247207188764
0.627000000000000446,-2.731692877095681649
0.628000000000000447,-2.717061338451853381
0.629000000000000448,-2.702432796442652663
0.630000000000000449,-2.687808405787044386
0.631000000000000449,-2.673189310553423237
0.632000000000000450,-2.658576643966937603
0.633000000000000451,-2.643971528226487955
0.634000000000000452,-2.629375074331183892
0.635000000000000453,-2.614788381916063109
0.636000000000000454,-2.600212539096818709
0.637000000000000455,-2.585648622323381662
0.638000000000000456,-2.571097696242079511
0.639000000000000457,-2.556560813566224333
0.640000000000000457,-2.542039014954915910
0.641000000000000458,-2.527533328899797649
0.642000000000000459,-2.513044771619703077
0.643000000000000460,-2.498574346962821657
0.644000000000000461,-2.484123046316367933
0.645000000000000462,-2.469691848523436928
0.646000000000000463,-2.455281719806908569
0.647000000000000464,-2.440893613700236386
0.648000000000000465,-2.426528470984919750
0.649000000000000465,-2.412187219634453150
0.650000000000000466,-2.397870774764661039
0.651000000000000467,-2.383580038590130457
0.652000000000000468,-2.369315900386706364
0.653000000000000469,-2.355079236459738379
0.654000000000000470,-2.340870910118073134
0.655000000000000471,-2.326691771653480068
0.656000000000000472,-2.312542658325470679
0.657000000000000473,-2.298424394351278099
0.658000000000000473,-2.284337790900901943
0.659000000000000474,-2.270283646097026153
0.660000000000000475,-2.256262745019699256
0.661000000000000476,-2.242275859715579411
0.662000000000000477,-2.228323749211687410
0.663000000000000478,-2.214407159533431813
0.664000000000000479,-2.200526823726869363
0.665000000000000480,-2.186683461884945334
0.666000000000000481,-2.172877781177748879
0.667000000000000481,-2.159110475886450331
0.668000000000000482,-2.145382227441012368
0.669000000000000483,-2.131693704461363303
0.670000000000000484,-2.118045562802029824
0.671000000000000485,-2.104438445600068874
0.672000000000000486,-2.090872983326165002
0.673000000000000487,-2.077349793838853209
0.674000000000000488,-2.063869482441640368
0.675000000000000488,-2.050432641943011447
0.676000000000000489,-2.037039852719209065
0.677000000000000490,-2.023691682779591439
0.678000000000000491,-2.010388687834591792
0.679000000000000492,-1.997131411366089182
0.680000000000000493,-1.983920384700111672
0.681000000000000494,-1.970756127081823905
0.682000000000000495,-1.957639145752619658
0.683000000000000496,-1.944569936029324708
0.684000000000000496,-1.931548981385334374
0.685000000000000497,-1.918576753533659751
0.686000000000000498,-1.905653712511765407
0.687000000000000499,-1.892780306768127918
0.688000000000000500,-1.879956973250415997
0.689000000000000501,-1.867184137495246699
0.690000000000000502,-1.854462213719419994
0.691000000000000503,-1.841791604912532465
0.692000000000000504,-1.829172702930933925
0.693000000000000504,-1.816605888592970119
0.694000000000000505,-1.804091531775343871
0.695000000000000506,-1.791629991510673037
0.696000000000000507,-1.779221616086037683
0.697000000000000508,-1.766866743142544660
0.698000000000000509,-1.754565699775816556
0.699000000000000510,-1.742318802637316200
0.700000000000000511,-1.730126358036506273
0.701000000000000512,-1.717988662043720138
0.702000000000000512,-1.705906000593736760
0.703000000000000513,-1.693878649589976693
0.704000000000000514,-1.681906875009274938
0.705000000000000515,-1.669990933007178047
0.706000000000000516,-1.658131070023705744
0.707000000000000517,-1.646327522889551531
0.708000000000000518,-1.634580518932617910
0.709000000000000519,-1.622890276084940187
0.710000000000000520,-1.611257002989817222
0.711000000000000520,-1.599680899109238830
0.712000000000000521,-1.588162154831475270
0.713000000000000522,-1.576700951578808851
0.714000000000000523,-1.565297461915422073
0.715000000000000524,-1.553951849655287765
0.716000000000000525,-1.542664269970160706
0.717000000000000526,-1.531434869497521722
0.718000000000000527,-1.520263786448484478
0.719000000000000528,-1.509151150715642320
0.720000000000000528,-1.498097083980817867
0.721000000000000529,-1.487101699822612755
0.722000000000000530,-1.476165103823867009
0.723000000000000531,-1.465287393678839534
0.724000000000000532,-1.454468659300206523
0.725000000000000533,-1.443708982925783202
0.726000000000000534,-1.433008439224935815
0.727000000000000535,-1.422367095404711401
0.728000000000000536,-1.411785011315597416
0.729000000000000536,-1.401262239556934741
0.730000000000000537,-1.390798825581937681
0.731000000000000538,-1.380394807802277635
0.732000000000000539,-1.370050217692272643
0.733000000000000540,-1.359765079892578665
0.734000000000000541,-1.349539412313435882
0.735000000000000542,-1.339373226237382308
0.736000000000000543,-1.329266526421501782
0.737000000000000544,-1.319219311199075761
0.738000000000000544,-1.309231572580746850
0.739000000000000545,-1.299303296355054815
0.740000000000000546,-1.289434462188433272
0.741000000000000547,-1.279625043724562650
0.742000000000000548,-1.269875008683177153
0.743000000000000549,-1.260184318958155192
0.744000000000000550,-1.250552930715024047
0.745000000000000551,-1.240980794487802408
0.746000000000000552,-1.231467855275161449
0.747000000000000552,-1.222014052635921555
0.748000000000000553,-1.212619320783842047
0.749000000000000554,-1.203283588681717475
0.750000000000000555,-1.194006780134777346
0.751000000000000556,-1.184788813883334901
0.752000000000000557,-1.175629603694754000
0.753000000000000558,-1.166529058454610190
0.754000000000000559,-1.157487082257184996
0.755000000000000560,-1.148503574495141732
0.756000000000000560,-1.139578429948498783
0.757000000000000561,-1.130711538872776867
0.758000000000000562,-1.121902787086418218
0.759000000000000563,-1.113152056057423289
0.760000000000000564,-1.104459222989191192
0.761000000000000565,-1.095824160905577660
0.762000000000000566,-1.087246738735164531
0.763000000000000567,-1.078726821394736080
0.764000000000000568,-1.070264269871936014
0.765000000000000568,-1.061858941307167070
0.766000000000000569,-1.053510689074626194
0.767000000000000570,-1.045219362862592094
0.768000000000000571,-1.036984808752839049
0.769000000000000572,-1.028806869299303983
0.770000000000000573,-1.020685383605892671
0.771000000000000574,-1.012620187403496130
0.772000000000000575,-1.004611113126181232
0.773000000000000576,-0.996657989986563408
0.774000000000000576,-0.988760644050370452
0.775000000000000577,-0.980918898310197962
0.776000000000000578,-0.973132572758411363
0.777000000000000579,-0.965401484459289305
0.778000000000000580,-0.957725447620293879
0.779000000000000581,-0.950104273662567445
0.780000000000000582,-0.942537771290596682
0.781000000000000583,-0.935025746561074955
0.782000000000000584,-0.927568002950944548
0.783000000000000584,-0.920164341424633769
0.784000000000000585,-0.912814560500500805
0.785000000000000586,-0.905518456316441567
0.786000000000000587,-0.898275822694737491
0.787000000000000588,-0.891086451206073549
0.788000000000000589,-0.883950131232751679
0.789000000000000590,-0.876866650031161377
0.790000000000000591,-0.869835792793392182
0.791000000000000592,-0.862857342708113206
0.792000000000000592,-0.855931081020637974
0.793000000000000593,-0.849056787092215659
0.794000000000000594,-0.842234238458549056
0.795000000000000595,-0.835463210887551044
0.796000000000000596,-0.828743478436287595
0.797000000000000597,-0.822074813507218338
0.798000000000000598,-0.815456986903623338
0.799000000000000599,-0.808889767884295230
0.800000000000000600,-0.802372924217488404
0.801000000000000600,-0.795906222234094463
0.802000000000000601,-0.789489426880094269
0.803000000000000602,-0.783122301768260254
0.804000000000000603,-0.776804609229134524
0.805000000000000604,-0.770536110361276672
0.806000000000000605,-0.764316565080757626
0.807000000000000606,-0.758145732169991149
0.808000000000000607,-0.752023369325793722
0.809000000000000608,-0.745949233206765205
0.810000000000000608,-0.739923079479980150
0.811000000000000609,-0.733944662866919395
0.812000000000000610,-0.728013737188792032
0.813000000000000611,-0.722130055411089211
0.814000000000000612,-0.716293369687508896
0.815000000000000613,-0.710503431403195829
0.816000000000000614,-0.704759991217272619
0.817000000000000615,-0.699062799104749555
0.818000000000000616,-0.693411604397755399
0.819000000000000616,-0.687806155826105270
0.820000000000000617,-0.682246201557223375
0.821000000000000618,-0.676731489235434913
0.822000000000000619,-0.671261766020609718
0.823000000000000620,-0.665836778626168080
0.824000000000000621,-0.660456273356459067
0.825000000000000622,-0.655119996143537220
0.826000000000000623,-0.649827692583307082
0.827000000000000624,-0.644579107971056109
0.828000000000000624,-0.639373987336401828
0.829000000000000625,-0.634212075477612380
0.830000000000000626,-0.629093116995368518
0.831000000000000627,-0.624016856325910863
0.832000000000000628,-0.618983037773639166
0.833000000000000629,-0.613991405543089841
0.834000000000000630,-0.609041703770392573
0.835000000000000631,-0.604133676554140853
0.836000000000000631,-0.599267067985697954
0.837000000000000632,-0.594441622178984663
0.838000000000000633,-0.589657083299674367
0.839000000000000634,-0.584913195593890656
0.840000000000000635,-0.580209703416356470
0.841000000000000636,-0.575546351257997690
0.842000000000000637,-0.570922883773063772
0.843000000000000638,-0.566339045805690389
0.844000000000000639,-0.561794582415980570
0.845000000000000639,-0.557289238905570250
0.846000000000000640,-0.552822760842682781
0.847000000000000641,-0.548394894086729812
0.848000000000000642,-0.544005384812372816
0.849000000000000643,-0.539653979533128214
0.850000000000000644,-0.535340425124524844
0.851000000000000645,-0.531064468846716209
0.852000000000000646,-0.526825858366711031
0.853000000000000647,-0.522624341780086432
0.854000000000000647,-0.518459667632267363
0.855000000000000648,-0.514331584939358044
0.856000000000000649,-0.510239843208535104
0.857000000000000650,-0.506184192457990956
0.858000000000000651,-0.502164383236445744
0.859000000000000652,-0.498180166642242905
0.860000000000000653,-0.494231294342025229
0.861000000000000654,-0.490317518588966550
0.862000000000000655,-0.486438592240640122
0.863000000000000655,-0.482594268776428970
0.864000000000000656,-0.478784302314583410
0.865000000000000657,-0.475008447628841868
0.866000000000000658,-0.471266460164695533
0.867000000000000659,-0.467558096055256667
0.868000000000000660,-0.463883112136730169
0.869000000000000661,-0.460241265963532320
0.870000000000000662,-0.456632315823034485
0.871000000000000663,-0.453056020749946775
0.872000000000000663,-0.449512140540315297
0.873000000000000664,-0.446000435765207537
0.874000000000000665,-0.442520667784005117
0.875000000000000666,-0.439072598757390853
0.876000000000000667,-0.435655991659957720
0.877000000000000668,-0.432270610292512125
0.878000000000000669,-0.428916219294034451
0.879000000000000670,-0.425592584153305142
0.880000000000000671,-0.422299471220231037
0.881000000000000671,-0.419036647716824362
0.882000000000000672,-0.415803881747908388
0.883000000000000673,-0.412600942311472985
0.884000000000000674,-0.409427599308764822
0.885000000000000675,-0.406283623554046902
0.886000000000000676,-0.403168786784089406
0.887000000000000677,-0.400082861667355516
0.888000000000000678,-0.397025621812896801
0.889000000000000679,-0.393996841778990636
0.890000000000000679,-0.390996297081472544
0.891000000000000680,-0.388023764201816723
0.892000000000000681,-0.385079020594935650
0.893000000000000682,-0.382161844696716435
0.894000000000000683,-0.379272015931297557
0.895000000000000684,-0.376409314718097243
0.896000000000000685,-0.373573522478576059
0.897000000000000686,-0.370764421642752529
0.898000000000000687,-0.367981795655492716
0.899000000000000687,-0.365225428982527522
0.900000000000000688,-0.362495107116259319
0.901000000000000689,-0.359790616581320388
0.902000000000000690,-0.357111744939914877
0.903000000000000691,-0.354458280796921765
0.904000000000000692,-0.351830013804782848
0.905000000000000693,-0.349226734668167227
0.906000000000000694,-0.346648235148436457
0.907000000000000695,-0.344094308067867061
0.908000000000000695,-0.341564747313710393
0.909000000000000696,-0.339059347841994430
0.910000000000000697,-0.336577905681180678
0.911000000000000698,-0.334120217935575448
0.912000000000000699,-0.331686082788577363
0.913000000000000700,-0.329275299505731978
0.914000000000000701,-0.326887668437568779
0.915000000000000702,-0.324522991022305585
0.916000000000000703,-0.322181069788321672
0.917000000000000703,-0.319861708356489804
0.918000000000000704,-0.317564711442311576
0.919000000000000705,-0.315289884857886338
0.920000000000000706,-0.313037035513727191
0.921000000000000707,-0.310805971420383964
0.922000000000000708,-0.308596501689922476
0.923000000000000709,-0.306408436537256246
0.924000000000000710,-0.304241587281279258
0.925000000000000711,-0.302095766345895300
0.926000000000000711,-0.299970787260860738
0.927000000000000712,-0.297866464662496389
0.928000000000000713,-0.295782614294247959
0.929000000000000714,-0.293719053007114983
0.930000000000000715,-0.291675598759917443
0.931000000000000716,-0.289652070619445978
0.932000000000000717,-0.287648288760478654
0.933000000000000718,-0.285664074465643125
0.934000000000000719,-0.283699250125179714
0.935000000000000719,-0.281753639236557885
0.936000000000000720,-0.279827066403971370
0.937000000000000721,-0.277919357337717665
0.938000000000000722,-0.276030338853459789
0.939000000000000723,-0.274159838871358086
0.940000000000000724,-0.272307686415103056
0.941000000000000725,-0.270473711610826728
0.942000000000000726,-0.268657745685913774
0.943000000000000727,-0.266859620967687672
0.944000000000000727,-0.265079170882015158
0.945000000000000728,-0.263316229951792879
0.946000000000000729,-0.261570633795327301
0.947000000000000730,-0.259842219124641005
0.948000000000000731,-0.258130823743650650
0.949000000000000732,-0.256436286546282477
0.950000000000000733,-0.254758447514463859
0.951000000000000734,-0.253097147716062620
0.952000000000000735,-0.251452229302698060
0.953000000000000735,-0.249823535507490035
0.954000000000000736,-0.248210910642723132
0.955000000000000737,-0.246614200097418662
0.956000000000000738,-0.245033250334837971
0.957000000000000739,-0.243467908889895668
0.958000000000000740,-0.241918024366505863
0.959000000000000741,-0.240383446434846271
0.960000000000000742,-0.238864025828559423
0.961000000000000743,-0.237359614341871528
0.962000000000000743,-0.235870064826645687
0.963000000000000744,-0.234395231189370223
0.964000000000000745,-0.232934968388088942
0.965000000000000746,-0.231489132429240685
0.966000000000000747,-0.230057580364468051
0.967000000000000748,-0.228640170287338351
0.968000000000000749,-0.227236761330034481
0.969000000000000750,-0.225847213659949420
0.970000000000000751,-0.224471388476268491
0.971000000000000751,-0.223109148006456259
0.972000000000000752,-0.221760355502711171
0.973000000000000753,-0.220424875238381640
0.974000000000000754,-0.219102572504295517
0.975000000000000755,-0.217793313605073535
0.976000000000000756,-0.216496965855379697
0.977000000000000757,-0.215213397576127591
0.978000000000000758,-0.213942478090640542
0.979000000000000759,-0.212684077720786485
0.980000000000000759,-0.211438067783032840
0.981000000000000760,-0.210204320584498616
0.982000000000000761,-0.208982709418954749
0.983000000000000762,-0.207773108562772701
0.984000000000000763,-0.206575393270848506
0.985000000000000764,-0.205389439772502763
0.986000000000000765,-0.204215125267318554
0.987000000000000766,-0.203052327920965364
0.988000000000000766,-0.201900926860986457
0.989000000000000767,-0.200760802172559261
0.990000000000000768,-0.199631834894221150
0.991000000000000769,-0.198513907013557672
0.992000000000000770,-0.197406901462879369
0.993000000000000771,-0.196310702114873420
0.994000000000000772,-0.195225193778203243
0.995000000000000773,-0.194150262193122231
0.996000000000000774,-0.193085794027027635
0.997000000000000774,-0.192031676870017209
0.998000000000000775,-0.190987799230411509
0.999000000000000776,-0.189954050530261681
1.000000000000000666,-0.188930321100833659
1.001000000000000778,-0.187916502178078704
1.002000000000000668,-0.186912485898079128
1.003000000000000780,-0.185918165292482063
1.004000000000000670,-0.184933434283918008
1.005000000000000782,-0.183958187681402985
1.006000000000000671,-0.182992321175728029
1.007000000000000783,-0.182035731334824508
1.008000000000000673,-0.181088315599137101
1.009000000000000785,-0.180149972276966469
1.010000000000000675,-0.179220600539812730
1.011000000000000787,-0.178300100417696367
1.012000000000000677,-0.177388372794490101
1.013000000000000789,-0.176485319403222096
1.014000000000000679,-0.175590842821372606
1.015000000000000790,-0.174704846466182173
1.016000000000000680,-0.173827234589935570
1.017000000000000792,-0.172957912275242071
1.018000000000000682,-0.172096785430313870
1.019000000000000794,-0.171243760784243804
1.020000000000000684,-0.170398745882272967
1.021000000000000796,-0.169561649081056698
1.022000000000000686,-0.168732379543927585
1.023000000000000798,-0.167910847236161953
1.024000000000000687,-0.167096962920231851
1.025000000000000799,-0.166290638151076919
1.026000000000000689,-0.165491785271354525
1.027000000000000801,-0.164700317406703378
1.028000000000000691,-0.163916148461007272
1.029000000000000803,-0.163139193111654229
1.030000000000000693,-0.162369366804798965
1.031000000000000805,-0.161606585750640630
1.032000000000000695,-0.160850766918677585
1.033000000000000806,-0.160101828032997634
1.034000000000000696,-0.159359687567546982
1.035000000000000808,-0.158624264741409060
1.036000000000000698,-0.157895479514098602
1.037000000000000810,-0.157173252580863038
1.038000000000000700,-0.156457505367959993
1.039000000000000812,-0.155748160027978311
1.040000000000000702,-0.155045139435148582
1.041000000000000814,-0.154348367180662888
1.042000000000000703,-0.153657767567990711
1.043000000000000815,-0.152973265608229492
1.044000000000000705,-0.152294787015443772
1.045000000000000817,-0.151622258202005478
1.046000000000000707,-0.150955606273973364
1.047000000000000819,-0.150294759026455893
1.048000000000000709,-0.149639644938986238
1.049000000000000821,-0.148990193170926377
1.050000000000000711,-0.148346333556853921
1.051000000000000822,-0.147707996601990715
1.052000000000000712,-0.147075113477615732
1.053000000000000824,-0.146447616016502608
1.054000000000000714,-0.145825436708370171
1.055000000000000826,-0.145208508695339411
1.056000000000000716,-0.144596765767409374
1.057000000000000828,-0.143990142357935780
1.058000000000000718,-0.143388573539135145
1.059000000000000830,-0.142791995017589879
1.060000000000000719,-0.142200343129782747
1.061000000000000831,-0.141613554837622502
1.062000000000000721,-0.141031567724006768
1.063000000000000833,-0.140454319988389059
1.064000000000000723,-0.139881750442351710
1.065000000000000835,-0.139313798505210251
1.066000000000000725,-0.138750404199627614
1.067000000000000837,-0.138191508147224890
1.068000000000000727,-0.137637051564246160
1.069000000000000838,-0.137086976257194737
1.070000000000000728,-0.136541224618523138
1.071000000000000840,-0.135999739622312654
1.072000000000000730,-0.135462464819986639
1.073000000000000842,-0.134929344336027796
1.074000000000000732,-0.134400322863715088
1.075000000000000844,-0.133875345660886380
1.076000000000000734,-0.133354358545708845
1.077000000000000846,-0.132837307892462175
1.078000000000000735,-0.132324140627357228
1.079000000000000847,-0.131814804224345494
1.080000000000000737,-0.131309246700981458
1.081000000000000849,-0.130807416614257460
1.082000000000000739,-0.130309263056501506
1.083000000000000851,-0.129814735651260144
1.084000000000000741,-0.129323784549221388
1.085000000000000853,-0.128836360424135959
1.086000000000000743,-0.128352414468773324
1.087000000000000854,-0.127871898390888722
1.088000000000000744,-0.127394764409215822
1.089000000000000856,-0.126920965249456036
1.090000000000000746,-0.126450454140316609
1.091000000000000858,-0.125983184809552590
1.092000000000000748,-0.125519111480019124
1.093000000000000860,-0.125058188865764974
1.094000000000000750,-0.124600372168117673
1.095000000000000862,-0.124145617071813930
1.096000000000000751,-0.123693879741136659
1.097000000000000863,-0.123245116816060762
1.098000000000000753,-0.122799285408444384
1.099000000000000865,-0.122356343098220591
1.100000000000000755,-0.121916247929603913
1.101000000000000867,-0.121478958407335288
1.102000000000000757,-0.121044433492933631
1.103000000000000869,-0.120612632600972700
1.104000000000000759,-0.120183515595363513
1.105000000000000870,-0.119757042785686482
1.106000000000000760,-0.119333174923502594
1.107000000000000872,-0.118911873198725981
1.108000000000000762,-0.118493099235986860
1.109000000000000874,-0.118076815091025161
1.110000000000000764,-0.117662983247103670
1.111000000000000876,-0.117251566611436070
1.112000000000000766,-0.116842528511647406
1.113000000000000878,-0.116435832692238866
1.114000000000000767,-0.116031443311087126
1.115000000000000879,-0.115629324935944314
1.116000000000000769,-0.115229442540981469
1.117000000000000881,-0.114831761503334365
1.118000000000000771,-0.114436247599677479
1.119000000000000883,-0.114042867002813256
1.120000000000000773,-0.113651586278289668
1.121000000000000885,-0.113262372381022255
1.122000000000000774,-0.112875192651952824
1.123000000000000886,-0.112490014814717987
1.124000000000000776,-0.112106806972347345
1.125000000000000888,-0.111725537603958980
1.126000000000000778,-0.111346175561503988
1.127000000000000890,-0.110968690066522796
1.128000000000000780,-0.110593050706894333
1.129000000000000892,-0.110219227433647912
1.130000000000000782,-0.109847190557764623
1.131000000000000894,-0.109476910747007564
1.132000000000000783,-0.109108359022772411
1.133000000000000895,-0.108741506756965256
1.134000000000000785,-0.108376325668873535
1.135000000000000897,-0.108012787822099818
1.136000000000000787,-0.107650865621469374
1.137000000000000899,-0.107290531809993067
1.138000000000000789,-0.106931759465821535
1.139000000000000901,-0.106574521999255142
1.140000000000000790,-0.106218793149730442
1.141000000000000902,-0.105864546982847821
1.142000000000000792,-0.105511757887433416
1.143000000000000904,-0.105160400572589727
1.144000000000000794,-0.104810450064792240
1.145000000000000906,-0.104461881704975057
1.146000000000000796,-0.104114671145678558
1.147000000000000908,-0.103768794348173807
1.148000000000000798,-0.103424227579630351
1.149000000000000909,-0.103080947410300133
1.150000000000000799,-0.102738930710707388
1.151000000000000689,-0.102398154648879330
1.152000000000000801,-0.102058596687577288
1.153000000000000913,-0.101720234581555186
1.154000000000000803,-0.101383046374833891
1.155000000000000693,-0.101047010397991202
1.156000000000000805,-0.100712105265489987
1.157000000000000917,-0.100378309872987750
1.158000000000000806,-0.100045603394704058
1.159000000000000696,-0.099713965280782621
1.160000000000000808,-0.099383375254675901
1.161000000000000920,-0.099053813310554101
1.162000000000000810,-0.098725259710732066
1.163000000000000700,-0.098397694983101441
1.164000000000000812,-0.098071099918601273
1.165000000000000924,-0.097745455568686634
1.166000000000000814,-0.097420743242835658
1.167000000000000703,-0.097096944506052732
1.168000000000000815,-0.096774041176412057
1.169000000000000927,-0.096452015322595036
1.170000000000000817,-0.096130849261472015
1.171000000000000707,-0.095810525555671947
1.172000000000000819,-0.095491027011203364
1.173000000000000931,-0.095172336675061892
1.174000000000000821,-0.094854437832870050
1.175000000000000711,-0.094537314006538448
1.176000000000000822,-0.094220948951936473
1.177000000000000934,-0.093905326656579455
1.178000000000000824,-0.093590431337340754
1.179000000000000714,-0.093276247438168203
1.180000000000000826,-0.092962759627839966
1.181000000000000938,-0.092649952797706076
1.182000000000000828,-0.092337812059476415
1.183000000000000718,-0.092026322743008190
1.184000000000000830,-0.091715470394116455
1.185000000000000941,-0.091405240772391136
1.186000000000000831,-0.091095619849056120
1.187000000000000721,-0.090786593804809926
1.188000000000000833,-0.090478149027713700
1.189000000000000945,-0.090170272111075603
1.190000000000000835,-0.089862949851363588
1.191000000000000725,-0.089556169246115952
1.192000000000000837,-0.089249917491907443
1.193000000000000949,-0.088944181982272288
1.194000000000000838,-0.088638950305704622
1.195000000000000728,-0.088334210243625283
1.196000000000000840,-0.088029949768397148
1.197000000000000952,-0.087726157041344704
1.198000000000000842,-0.087422820410777299
1.199000000000000732,-0.087119928410055752
1.200000000000000844,-0.086817469755637686
1.201000000000000956,-0.086515433345179860
1.202000000000000846,-0.086213808255618987
1.203000000000000735,-0.085912583741292556
1.204000000000000847,-0.085611749232052906
1.205000000000000959,-0.085311294331428145
1.206000000000000849,-0.085011208814760847
1.207000000000000739,-0.084711482627386356
1.208000000000000851,-0.084412105882821054
1.209000000000000963,-0.084113068860959456
1.210000000000000853,-0.083814362006292581
1.211000000000000743,-0.083515975926133898
1.212000000000000854,-0.083217901388868726
1.213000000000000966,-0.082920129322206701
1.214000000000000856,-0.082622650811465886
1.215000000000000746,-0.082325457097843335
1.216000000000000858,-0.082028539576734796
1.217000000000000970,-0.081731889796035434
1.218000000000000860,-0.081435499454475743
1.219000000000000750,-0.081139360399966498
1.220000000000000862,-0.080843464627951750
1.221000000000000973,-0.080547804279779339
1.222000000000000863,-0.080252371641091377
1.223000000000000753,-0.079957159140212369
1.224000000000000865,-0.079662159346567771
1.225000000000000977,-0.079367364969110676
1.226000000000000867,-0.079072768854750786
1.227000000000000757,-0.078778363986813774
1.228000000000000869,-0.078484143483496041
1.229000000000000981,-0.078190100596362028
1.230000000000000870,-0.077896228708806678
1.231000000000000760,-0.077602521334580024
1.232000000000000872,-0.077308972116301181
1.233000000000000984,-0.077015574823969091
1.234000000000000874,-0.076722323353531435
1.235000000000000764,-0.076429211725413920
1.236000000000000876,-0.076136234083102855
1.237000000000000988,-0.075843384691713839
1.238000000000000878,-0.075550657936592075
1.239000000000000767,-0.075258048321907731
1.240000000000000879,-0.074965550469276068
1.241000000000000991,-0.074673159116383905
1.242000000000000881,-0.074380869115627912
1.243000000000000771,-0.074088675432770743
1.244000000000000883,-0.073796573145594929
1.245000000000000995,-0.073504557442590976
1.246000000000000885,-0.073212623621635692
1.247000000000000774,-0.072920767088691857
1.248000000000000886,-0.072628983356517615
1.249000000000000998,-0.072337268043391773
1.250000000000000888,-0.072045616871845811
1.251000000000000778,-0.071754025667402410
1.252000000000000890,-0.071462490357338676
1.253000000000001002,-0.071171006969444200
1.254000000000000892,-0.070879571630810628
1.255000000000000782,-0.070588180566607109
1.256000000000000894,-0.070296830098887916
1.257000000000001005,-0.070005516645400695
1.258000000000000895,-0.069714236718409525
1.259000000000000785,-0.069422986923522084
1.260000000000000897,-0.069131763958535306
1.261000000000001009,-0.068840564612291835
1.262000000000000899,-0.068549385763534157
1.263000000000000789,-0.068258224379787055
1.264000000000000901,-0.067967077516240204
1.265000000000001013,-0.067675942314638277
1.266000000000000902,-0.067384816002189901
1.267000000000000792,-0.067093695890481447
1.268000000000000904,-0.066802579374400511
1.269000000000001016,-0.066511463931071005
1.270000000000000906,-0.066220347118801606
1.271000000000000796,-0.065929226576034963
1.272000000000000908,-0.065638100020311591
1.273000000000001020,-0.065346965247248368
1.274000000000000909,-0.065055820129522463
1.275000000000000799,-0.064764662615852925
1.276000000000000911,-0.064473490730022384
1.277000000000001023,-0.064182302569871424
1.278000000000000913,-0.063891096306328193
1.279000000000000803,-0.063599870182437318
1.280000000000000915,-0.063308622512405363
1.281000000000001027,-0.063017351680631523
1.282000000000000917,-0.062726056140789771
1.283000000000000806,-0.062434734414877437
1.284000000000000918,-0.062143385092300329
1.285000000000001030,-0.061852006828951124
1.286000000000000920,-0.061560598346309600
1.287000000000000810,-0.061269158430536944
1.288000000000000922,-0.060977685931596151
1.289000000000001034,-0.060686179762362326
1.290000000000000924,-0.060394638897750499
1.291000000000000814,-0.060103062373865201
1.292000000000000925,-0.059811449287123786
1.293000000000001037,-0.059519798793432277
1.294000000000000927,-0.059228110107329687
1.295000000000000817,-0.058936382501163745
1.296000000000000929,-0.058644615304271272
1.297000000000001041,-0.058352807902155732
1.298000000000000931,-0.058060959735692343
1.299000000000000821,-0.057769070300322647
1.300000000000000933,-0.057477139145260314
1.301000000000001044,-0.057185165872719400
1.302000000000000934,-0.056893150137128853
1.303000000000000824,-0.056601091644377474
1.304000000000000936,-0.056308990151036319
1.305000000000001048,-0.056016845463627632
1.306000000000000938,-0.055724657437868585
1.307000000000000828,-0.055432425977931868
1.308000000000000940,-0.055140151035723027
1.309000000000001052,-0.054847832610160421
1.310000000000000941,-0.054555470746452728
1.311000000000000831,-0.054263065535395193
1.312000000000000943,-0.053970617112663842
1.313000000000001055,-0.053678125658138988
1.314000000000000945,-0.053385591395199203
1.315000000000000835,-0.053093014590049045
1.316000000000000947,-0.052800395551051781
1.317000000000001059,-0.052507734628060944
1.318000000000000949,-0.052215032211754206
1.319000000000000838,-0.051922288732998180
1.320000000000000950,-0.051629504662188588
1.321000000000001062,-0.051336680508614632
1.322000000000000952,-0.051043816819834296
1.323000000000000842,-0.050750914181040982
1.324000000000000954,-0.050457973214451814
1.325000000000001066,-0.050164994578686818
1.326000000000000956,-0.049871978968174420
1.327000000000000846,-0.049578927112539847
1.328000000000000957,-0.049285839776023757
1.329000000000001069,-0.048992717756882687
1.330000000000000959,-0.048699561886822160
1.331000000000000849,-0.048406373030412841
1.332000000000000961,-0.048113152084519870
1.333000000000001073,-0.047819899977748402
1.334000000000000963,-0.047526617669885717
1.335000000000000853,-0.047233306151342622
1.336000000000000965,-0.046939966442619996
1.337000000000001076,-0.046646599593762626
1.338000000000000966,-0.046353206683827163
1.339000000000000856,-0.046059788820359340
1.340000000000000968,-0.045766347138865439
1.341000000000001080,-0.045472882802300510
1.342000000000000970,-0.045179397000559215
1.343000000000000860,-0.044885890949967235
1.344000000000000972,-0.044592365892784203
1.345000000000001084,-0.044298823096713187
1.346000000000000973,-0.044005263854404744
1.347000000000000863,-0.043711689482980556
1.348000000000000975,-0.043418101323549459
1.349000000000001087,-0.043124500740742311
1.350000000000000977,-0.042830889122239771
1.351000000000000867,-0.042537267878313814
1.352000000000000979,-0.042243638441360587
1.353000000000001091,-0.041950002265465317
1.354000000000000981,-0.041656360825946294
1.355000000000000870,-0.041362715618906323
1.356000000000000982,-0.041069068160808256
1.357000000000001094,-0.040775419988039505
1.358000000000000984,-0.040481772656478843
1.359000000000000874,-0.040188127741081402
1.360000000000000986,-0.039894486835456953
1.361000000000001098,-0.039600851551464027
1.362000000000000988,-0.039307223518789181
1.363000000000000878,-0.039013604384555048
1.364000000000000989,-0.038719995812922139
1.365000000000001101,-0.038426399484683633
1.366000000000000991,-0.038132817096885180
1.367000000000000881,-0.037839250362439812
1.368000000000000993,-0.037545701009742069
1.369000000000001105,-0.037252170782296402
1.370000000000000995,-0.036958661438343220
1.371000000000000885,-0.036665174750491247
1.372000000000000997,-0.036371712505355577
1.373000000000001108,-0.036078276503203263
1.374000000000000998,-0.035784868557579563
1.375000000000000888,-0.035491490494988349
1.376000000000001000,-0.035198144154518982
1.377000000000001112,-0.034904831387516856
1.378000000000001002,-0.034611554057242290
1.379000000000000892,-0.034318314038537349
1.380000000000001004,-0.034025113217492395
1.381000000000001116,-0.033731953491127273
1.382000000000001005,-0.033438836767061504
1.383000000000000895,-0.033145764963197634
1.384000000000001007,-0.032852740007410758
1.385000000000001119,-0.032559763837233982
1.386000000000001009,-0.032266838399555062
1.387000000000000899,-0.031973965650303707
1.388000000000001011,-0.031681147554173297
1.389000000000001123,-0.031388386084297296
1.390000000000001013,-0.031095683221979427
1.391000000000000902,-0.030803040956394155
1.392000000000001014,-0.030510461284306012
1.393000000000001126,-0.030217946209785490
1.394000000000001016,-0.029925497743937601
1.395000000000000906,-0.029633117904619210
1.396000000000001018,-0.029340808716169960
1.397000000000001130,-0.029048572209150504
1.398000000000001020,-0.028756410420075085
1.399000000000000909,-0.028464325391148439
1.400000000000001021,-0.028172319170009064
1.401000000000001133,-0.027880393809482245
1.402000000000001023,-0.027588551367318748
1.403000000000000913,-0.027296793905950956
1.404000000000001025,-0.027005123492255246
1.405000000000001137,-0.026713542197299944
1.406000000000001027,-0.026422052096112196
1.407000000000000917,-0.026130655267451220
1.408000000000001029,-0.025839353793556907
1.409000000000001140,-0.025548149759940731
1.410000000000001030,-0.025257045255148991
1.411000000000000920,-0.024966042370542712
1.412000000000001032,-0.024675143200075911
1.413000000000001144,-0.024384349840084876
1.414000000000001034,-0.024093664389066103
1.415000000000000924,-0.023803088947467389
1.416000000000001036,-0.023512625617486068
1.417000000000001148,-0.023222276502855858
1.418000000000001037,-0.022932043708645457
1.419000000000000927,-0.022641929341060161
1.420000000000001039,-0.022351935507244326
1.421000000000001151,-0.022062064315089013
1.422000000000001041,-0.021772317873037069
1.423000000000000931,-0.021482698289892771
1.424000000000001043,-0.021193207674639929
1.425000000000001155,-0.020903848136255100
1.426000000000001044,-0.020614621783526951
1.427000000000000934,-0.020325530724878586
1.428000000000001046,-0.020036577068189527
1.429000000000001158,-0.019747762920619062
1.430000000000001048,-0.019459090388445229
1.431000000000000938,-0.019170561576884123
1.432000000000001050,-0.018882178589931777
1.433000000000001162,-0.018593943530197724
1.434000000000001052,-0.018305858498739273
1.435000000000000941,-0.018017925594912873
1.436000000000001053,-0.017730146916204750
1.437000000000001165,-0.017442524558081863
1.438000000000001055,-0.017155060613846765
1.439000000000000945,-0.016867757174474939
1.440000000000001057,-0.016580616328476926
1.441000000000001169,-0.016293640161743610
1.442000000000001059,-0.016006830757411487
1.443000000000000949,-0.015720190195722371
1.444000000000001060,-0.015433720553874731
1.445000000000001172,-0.015147423905891707
1.446000000000001062,-0.014861302322494890
1.447000000000000952,-0.014575357870955031
1.448000000000001064,-0.014289592614975389
1.449000000000001176,-0.014004008614560914
1.450000000000001066,-0.013718607925882365
1.451000000000000956,-0.013433392601162919
1.452000000000001068,-0.013148364688550976
1.453000000000001180,-0.012863526231998851
1.454000000000001069,-0.012578879271146388
1.455000000000000959,-0.012294425841202834
1.456000000000001071,-0.012010167972830556
1.457000000000001183,-0.011726107692038058
1.458000000000001073,-0.011442247020064342
1.459000000000000963,-0.011158587973265150
1.460000000000001075,-0.010875132563017267
1.461000000000001187,-0.010591882795599661
1.462000000000001076,-0.010308840672106445
1.463000000000000966,-0.010026008188325292
1.464000000000001078,-0.009743387334649739
1.465000000000001190,-0.009460980095983732
1.466000000000001080,-0.009178788451629385
1.467000000000000970,-0.008896814375207252
1.468000000000001082,-0.008615059834557421
1.469000000000001194,-0.008333526791643286
1.470000000000001084,-0.008052217202469158
1.471000000000000973,-0.007771133016983948
1.472000000000001085,-0.007490276179004146
1.473000000000001197,-0.007209648626119060
1.474000000000001087,-0.006929252289611160
1.475000000000000977,-0.006649089094370547
1.476000000000001089,-0.006369160958822906
1.477000000000001201,-0.006089469794841848
1.478000000000001091,-0.005810017507672110
1.479000000000000981,-0.005530805995858707
1.480000000000001092,-0.005251837151164052
1.481000000000001204,-0.004973112858504929
1.482000000000001094,-0.004694634995870224
1.483000000000000984,-0.004416405434261689
1.484000000000001096,-0.004138426037615105
1.485000000000001208,-0.003860698662732553
1.486000000000001098,-0.003583225159227842
1.487000000000000988,-0.003306007369450201
1.488000000000001100,-0.003029047128421993
1.489000000000001211,-0.002752346263783709
1.490000000000001101,-0.002475906595726987
1.491000000000000991,-0.002199729936933416
1.492000000000001103,-0.001923818092525463
1.493000000000001215,-0.001648172859998881
1.494000000000001105,-0.001372796029172003
1.495000000000000995,-0.001097689382131952
1.496000000000001107,-0.000822854693181207
1.497000000000001219,-0.000548293728781321
1.498000000000001108,-0.000274008247509575
1.499000000000000998,0.000000000000000000
