# CaO001_CS-8009726-AC
# h[nm],U(h)[kJ/mol]
0.149999999999999994,116.268119118554224656
0.150999999999999995,113.862365008228309193
0.151999999999999996,111.645302594814936015
0.152999999999999997,109.479988570483143917
0.153999999999999998,107.325945629093709499
0.154999999999999999,105.183256325680645205
0.156000000000000000,103.064339869251654136
0.157000000000000001,100.981290554596483844
0.158000000000000002,98.941475748526158895
0.159000000000000002,96.947134954637306237
0.160000000000000003,94.996605450588560871
0.161000000000000004,93.085936559215056718
0.162000000000000005,91.210317178912831082
0.163000000000000006,89.365109146151596065
0.164000000000000007,87.546468529895946631
0.165000000000000008,85.751622153495318912
0.166000000000000009,83.978893822152855364
0.167000000000000010,82.227572128911759819
0.168000000000000010,80.497695934392638151
0.169000000000000011,78.789813969325379617
0.170000000000000012,77.104756305708562536
0.171000000000000013,75.443439822844680975
0.172000000000000014,73.806717885214681019
0.173000000000000015,72.195276080795991902
0.174000000000000016,70.609570507710131437
0.175000000000000017,69.049802095739110541
0.176000000000000018,67.515919178013234614
0.177000000000000018,66.007640440663493564
0.178000000000000019,64.524491033645119842
0.179000000000000020,63.065845688942189895
0.180000000000000021,61.630973921680364924
0.181000000000000022,60.219083622010785461
0.182000000000000023,58.829360478986629346
0.183000000000000024,57.461001655941934985
0.184000000000000025,56.113242936798869209
0.185000000000000026,54.785379183142104864
0.186000000000000026,53.476778395617714068
0.187000000000000027,52.186889980869011652
0.188000000000000028,50.915248010883779273
0.189000000000000029,49.661470349853644279
0.190000000000000030,48.425254537558977574
0.191000000000000031,47.206371278507134548
0.192000000000000032,46.004656310141157860
0.193000000000000033,44.820001325799594838
0.194000000000000034,43.652344520116265869
0.195000000000000034,42.501661214798282629
0.196000000000000035,41.367954917415580951
0.197000000000000036,40.251249069161673333
0.198000000000000037,39.151579652053570157
0.199000000000000038,38.068988752995146285
0.200000000000000039,37.003519121833662098
0.201000000000000040,35.955209712583013015
0.202000000000000041,34.924092160486750913
0.203000000000000042,33.910188121363290747
0.204000000000000042,32.913507382367015452
0.205000000000000043,31.934046643521547537
0.206000000000000044,30.971788865758231424
0.207000000000000045,30.026703082440825199
0.208000000000000046,29.098744576301509568
0.209000000000000047,28.187855331314636942
0.210000000000000048,27.293964678403661139
0.211000000000000049,26.416990064262655835
0.212000000000000050,25.556837883364458719
0.213000000000000050,24.713404323942757657
0.214000000000000051,23.886576189000741977
0.215000000000000052,23.076231662949535206
0.216000000000000053,22.282241003130994983
0.217000000000000054,21.504467143120358230
0.218000000000000055,20.742766201284656091
0.219000000000000056,19.996987893588357821
0.220000000000000057,19.266975854116942912
0.221000000000000058,18.552567870298574348
0.222000000000000058,17.853596042410536882
0.223000000000000059,17.169886878762877558
0.224000000000000060,16.501261339042965659
0.225000000000000061,15.847534838786865308
0.226000000000000062,15.208517227910922642
0.227000000000000063,14.584012755783751558
0.228000000000000064,13.973820034533289913
0.229000000000000065,13.377732011243514521
0.230000000000000066,12.795535958476769167
0.231000000000000066,12.227013491219310026
0.232000000000000067,11.671940616949830982
0.233000000000000068,11.130087824115893369
0.234000000000000069,10.601220212913300855
0.235000000000000070,10.085097670928487190
0.236000000000000071,9.581475094949910343
0.237000000000000072,9.090102659097761162
0.238000000000000073,8.610726128377928390
0.239000000000000073,8.143087215843115345
0.240000000000000074,7.686923980743936902
0.241000000000000075,7.241971264380642204
0.242000000000000076,6.807961159815903329
0.243000000000000077,6.384623511178375566
0.244000000000000078,5.971686437969432326
0.245000000000000079,5.568876879573144478
0.246000000000000080,5.175921155055132949
0.247000000000000081,4.792545533307817962
0.248000000000000081,4.418476808651446319
0.249000000000000082,4.053442877119881160
0.250000000000000111,3.697173308838850314
0.251000000000000112,3.349399912133812940
0.252000000000000113,3.009857285273306093
0.253000000000000114,2.678283352057656774
0.254000000000000115,2.354419877788706650
0.255000000000000115,2.038012962502095071
0.256000000000000116,1.728813508698905821
0.257000000000000117,1.426577661174506240
0.258000000000000118,1.131067216903698602
0.259000000000000119,0.842050003297131311
0.260000000000000120,0.559300223491322468
0.261000000000000121,0.282598767670721618
0.262000000000000122,0.011733489740297110
0.263000000000000123,-0.253500551028580268
0.264000000000000123,-0.513300883471895508
0.265000000000000124,-0.767857452954267772
0.266000000000000125,-1.017352484322394668
0.267000000000000126,-1.261960378753037570
0.268000000000000127,-1.501847643658496212
0.269000000000000128,-1.737172854633739050
0.270000000000000129,-1.968086648273212003
0.271000000000000130,-2.194731744549821340
0.272000000000000131,-2.417242997333381105
0.273000000000000131,-2.635747471530489605
0.274000000000000132,-2.850364545250788861
0.275000000000000133,-3.061206035345644061
0.276000000000000134,-3.268376344622585528
0.277000000000000135,-3.471972629011295997
0.278000000000000136,-3.672084982944554099
0.279000000000000137,-3.868796641217186583
0.280000000000000138,-4.062184195598158354
0.281000000000000139,-4.252317824493745846
0.282000000000000139,-4.439261533991905928
0.283000000000000140,-4.623073408658806116
0.284000000000000141,-4.803805870506555387
0.285000000000000142,-4.981505944605915559
0.286000000000000143,-5.156215529877705706
0.287000000000000144,-5.327971673660985452
0.288000000000000145,-5.496806848724808958
0.289000000000000146,-5.662749231460589172
0.290000000000000147,-5.825822980066162948
0.291000000000000147,-5.986048511606478328
0.292000000000000148,-6.143442776911911984
0.293000000000000149,-6.298019532350303429
0.294000000000000150,-6.449789607584615503
0.295000000000000151,-6.598761168502514707
0.296000000000000152,-6.744939974577870423
0.297000000000000153,-6.888329629995951109
0.298000000000000154,-7.028931827944570720
0.299000000000000155,-7.166746587541284796
0.300000000000000155,-7.301772482932729069
0.301000000000000156,-7.434006864165207062
0.302000000000000157,-7.563446069486609247
0.303000000000000158,-7.690085628797220352
0.304000000000000159,-7.813920458022115767
0.305000000000000160,-7.934945044229780642
0.306000000000000161,-8.053153621370530146
0.307000000000000162,-8.168540336554510617
0.308000000000000163,-8.281099406831769372
0.309000000000000163,-8.390825266477165201
0.310000000000000164,-8.497712704819806007
0.311000000000000165,-8.601756994690951785
0.312000000000000166,-8.702954011595696926
0.313000000000000167,-8.801300343742273213
0.314000000000000168,-8.896793393088847424
0.315000000000000169,-8.989431467590936364
0.316000000000000170,-9.079213864853613813
0.317000000000000171,-9.166140947410950091
0.318000000000000171,-9.250214209871508331
0.319000000000000172,-9.331436338182825807
0.320000000000000173,-9.409811261279642736
0.321000000000000174,-9.485344195390826627
0.322000000000000175,-9.558041681288180769
0.323000000000000176,-9.627911614766766490
0.324000000000000177,-9.694963270651404841
0.325000000000000178,-9.759207320627146132
0.326000000000000179,-9.820655845193982714
0.327000000000000179,-9.879322340046211792
0.328000000000000180,-9.935221717176847989
0.329000000000000181,-9.988370301005701890
0.330000000000000182,-10.038785819827111823
0.331000000000000183,-10.086487392870058244
0.332000000000000184,-10.131495513258832020
0.333000000000000185,-10.173832027157498459
0.334000000000000186,-10.213520109375771483
0.335000000000000187,-10.250584235707398406
0.336000000000000187,-10.285050152265693413
0.337000000000000188,-10.316944842073112909
0.338000000000000189,-10.346296489154628517
0.339000000000000190,-10.373134440376514220
0.340000000000000191,-10.397489165263646527
0.341000000000000192,-10.419392214020534837
0.342000000000000193,-10.438876173972179373
0.343000000000000194,-10.455974624632537129
0.344000000000000195,-10.470722091599146353
0.345000000000000195,-10.483153999464093431
0.346000000000000196,-10.493306623922237009
0.347000000000000197,-10.501217043249056360
0.348000000000000198,-10.506923089311623443
0.349000000000000199,-10.510463298267463728
0.350000000000000200,-10.511876861097690039
0.351000000000000201,-10.511203574112158776
0.352000000000000202,-10.508483789556178678
0.353000000000000203,-10.503758366440248295
0.354000000000000203,-10.497068621706365121
0.355000000000000204,-10.488456281836414874
0.356000000000000205,-10.477963435001139914
0.357000000000000206,-10.465632483840508371
0.358000000000000207,-10.451506098959097102
0.359000000000000208,-10.435627173213708474
0.360000000000000209,-10.418038776863413730
0.361000000000000210,-10.398784113645954008
0.362000000000000210,-10.377906477838367394
0.363000000000000211,-10.355449212353668997
0.364000000000000212,-10.331455667919977159
0.365000000000000213,-10.305969163382782128
0.366000000000000214,-10.279032947166211187
0.367000000000000215,-10.250690159923905753
0.368000000000000216,-10.220983798405805842
0.369000000000000217,-10.189956680562278990
0.370000000000000218,-10.157651411903284355
0.371000000000000218,-10.124110353125752582
0.372000000000000219,-10.089375589019130786
0.373000000000000220,-10.053488898655128736
0.374000000000000221,-10.016491726864545697
0.375000000000000222,-9.978425157000785362
0.376000000000000223,-9.939329884987010644
0.377000000000000224,-9.899246194640900498
0.378000000000000225,-9.858213934268549750
0.379000000000000226,-9.816272494516647740
0.380000000000000226,-9.773460787470112265
0.381000000000000227,-9.729817226979886158
0.382000000000000228,-9.685379710204319537
0.383000000000000229,-9.640185600345471784
0.384000000000000230,-9.594271710560189348
0.385000000000000231,-9.547674289024721261
0.386000000000000232,-9.500429005129914728
0.387000000000000233,-9.452570936783327937
0.388000000000000234,-9.404134558793309395
0.389000000000000234,-9.355153732309430481
0.390000000000000235,-9.305661695292711144
0.391000000000000236,-9.255691053988593708
0.392000000000000237,-9.205273775374871903
0.393000000000000238,-9.154441180556567303
0.394000000000000239,-9.103223939079105875
0.395000000000000240,-9.051652064131079811
0.396000000000000241,-8.999754908607636494
0.397000000000000242,-8.947561162005213120
0.398000000000000242,-8.895098848118658807
0.399000000000000243,-8.842395323511400562
0.400000000000000244,-8.789477276729611432
0.401000000000000245,-8.736370728231488414
0.402000000000000246,-8.683101031002738779
0.403000000000000247,-8.629692871829780287
0.404000000000000248,-8.576170273202395222
0.405000000000000249,-8.522556595817860625
0.406000000000000250,-8.468874541658903965
0.407000000000000250,-8.415146157618398348
0.408000000000000251,-8.361392839643841057
0.409000000000000252,-8.307635337375449680
0.410000000000000253,-8.253893759251855755
0.411000000000000254,-8.200187578058187654
0.412000000000000255,-8.146535636891538701
0.413000000000000256,-8.092956155519722472
0.414000000000000257,-8.039466737109323802
0.415000000000000258,-7.986084375300080751
0.416000000000000258,-7.932825461602883266
0.417000000000000259,-7.879705793099359035
0.418000000000000260,-7.826740580421713389
0.419000000000000261,-7.773944455991916413
0.420000000000000262,-7.721331482500050747
0.421000000000000263,-7.668915161602275710
0.422000000000000264,-7.616708442819275504
0.423000000000000265,-7.564723732616880802
0.424000000000000266,-7.512972903651179202
0.425000000000000266,-7.461467304160684932
0.426000000000000267,-7.410217767489234220
0.427000000000000268,-7.359234621723492076
0.428000000000000269,-7.308527699429696156
0.429000000000000270,-7.258106347474885922
0.430000000000000271,-7.207979436918293459
0.431000000000000272,-7.158155372959342344
0.432000000000000273,-7.108642104929056238
0.433000000000000274,-7.059447136312416937
0.434000000000000274,-7.010577534789598886
0.435000000000000275,-6.962039942284640404
0.436000000000000276,-6.913840585010649242
0.437000000000000277,-6.865985283501002456
0.438000000000000278,-6.818479462616681808
0.439000000000000279,-6.771328161520344224
0.440000000000000280,-6.724536043608027924
0.441000000000000281,-6.678107406390100032
0.442000000000000282,-6.632046191313435202
0.443000000000000282,-6.586355993517075902
0.444000000000000283,-6.541040071514378162
0.445000000000000284,-6.496101356794822479
0.446000000000000285,-6.451542463339064781
0.447000000000000286,-6.407365697041511154
0.448000000000000287,-6.363573065034585419
0.449000000000000288,-6.320166284909733534
0.450000000000000289,-6.277146793830196358
0.451000000000000290,-6.234515757531108093
0.452000000000000290,-6.192274079202844561
0.453000000000000291,-6.150422408253673368
0.454000000000000292,-6.108961148948368169
0.455000000000000293,-6.067890468919415525
0.456000000000000294,-6.027210307548049428
0.457000000000000295,-5.986920384212412571
0.458000000000000296,-5.947020206400487119
0.459000000000000297,-5.907509077685735299
0.460000000000000298,-5.868386105563540234
0.461000000000000298,-5.829650209146920226
0.462000000000000299,-5.791300126720051900
0.463000000000000300,-5.753334423148463550
0.464000000000000301,-5.715751497144977655
0.465000000000000302,-5.678549588390627179
0.466000000000000303,-5.641726784509954129
0.467000000000000304,-5.605281027900342217
0.468000000000000305,-5.569210122415192643
0.469000000000000306,-5.533511739900818682
0.470000000000000306,-5.498183426587332612
0.471000000000000307,-5.463222609333547197
0.472000000000000308,-5.428626601726564971
0.473000000000000309,-5.394392610036385705
0.474000000000000310,-5.360517739026298578
0.475000000000000311,-5.326998997619785570
0.476000000000000312,-5.293833304424936159
0.477000000000000313,-5.261017493117223331
0.478000000000000314,-5.228548317681829261
0.479000000000000314,-5.196422457516765903
0.480000000000000315,-5.164636522397917595
0.481000000000000316,-5.133187057307528001
0.482000000000000317,-5.102070547127464550
0.483000000000000318,-5.071283421198808483
0.484000000000000319,-5.040822057749322127
0.485000000000000320,-5.010682788190472969
0.486000000000000321,-4.980861901285637217
0.487000000000000322,-4.951355647191272524
0.488000000000000322,-4.922160241372793621
0.489000000000000323,-4.893271868397063074
0.490000000000000324,-4.864686685603248684
0.491000000000000325,-4.836400826654069007
0.492000000000000326,-4.808410404969206020
0.493000000000000327,-4.780711517043019221
0.494000000000000328,-4.753300245648370392
0.495000000000000329,-4.726172662928690649
0.496000000000000330,-4.699324833380185140
0.497000000000000330,-4.672752816726343461
0.498000000000000331,-4.646452670686622710
0.499000000000000332,-4.620420453641532532
0.500000000000000333,-4.594652227196056593
0.501000000000000334,-4.569144058643460404
0.502000000000000335,-4.543892023331638441
0.503000000000000336,-4.518892206933984745
0.504000000000000337,-4.494140707626821829
0.505000000000000338,-4.469633638175514179
0.506000000000000338,-4.445367127931218576
0.507000000000000339,-4.421337324740383323
0.508000000000000340,-4.397540396768912174
0.509000000000000341,-4.373972534243160126
0.510000000000000342,-4.350629951109563187
0.511000000000000343,-4.327508886615040851
0.512000000000000344,-4.304605606810040896
0.513000000000000345,-4.281916405976200046
0.514000000000000346,-4.259437607980581575
0.515000000000000346,-4.237165567558320411
0.516000000000000347,-4.215096671525611072
0.517000000000000348,-4.193227339924943564
0.518000000000000349,-4.171554027104308560
0.519000000000000350,-4.150073222732319600
0.520000000000000351,-4.128781452750960312
0.521000000000000352,-4.107675280267787166
0.522000000000000353,-4.086751306389283300
0.523000000000000353,-4.066006170997093605
0.524000000000000354,-4.045436553468881868
0.525000000000000355,-4.025039173345427379
0.526000000000000356,-4.004810790945592558
0.527000000000000357,-3.984748207930849162
0.528000000000000358,-3.964848267820849426
0.529000000000000359,-3.945107856461696372
0.530000000000000360,-3.925523902448367686
0.531000000000000361,-3.906093377502859454
0.532000000000000361,-3.886813296809461526
0.533000000000000362,-3.867680719308688619
0.534000000000000363,-3.848692747951213189
0.535000000000000364,-3.829846529913228714
0.536000000000000365,-3.811139256774618733
0.537000000000000366,-3.792568164661235919
0.538000000000000367,-3.774130534352599931
0.539000000000000368,-3.755823691356344973
0.540000000000000369,-3.737645005950584132
0.541000000000000369,-3.719591893195513421
0.542000000000000370,-3.701661812915349792
0.543000000000000371,-3.683852269651856748
0.544000000000000372,-3.666160812590558038
0.545000000000000373,-3.648585035460777615
0.546000000000000374,-3.631122576410561464
0.547000000000000375,-3.613771117857575543
0.548000000000000376,-3.596528386317026538
0.549000000000000377,-3.579392152207579336
0.550000000000000377,-3.562360229636287734
0.551000000000000378,-3.545430476163470956
0.552000000000000379,-3.528600792548529430
0.553000000000000380,-3.511869122477532468
0.554000000000000381,-3.495233452273518449
0.555000000000000382,-3.478691810590391675
0.556000000000000383,-3.462242268091153985
0.557000000000000384,-3.445882937111441002
0.558000000000000385,-3.429611971308999863
0.559000000000000385,-3.413427565300003241
0.560000000000000386,-3.397327954282881812
0.561000000000000387,-3.381311413650428754
0.562000000000000388,-3.365376258590863756
0.563000000000000389,-3.349520843678573279
0.564000000000000390,-3.333743562455163012
0.565000000000000391,-3.318042847001479778
0.566000000000000392,-3.302417167501221940
0.567000000000000393,-3.286865031796774250
0.568000000000000393,-3.271384984937785845
0.569000000000000394,-3.255975608723127745
0.570000000000000395,-3.240635521236762351
0.571000000000000396,-3.225363376378004521
0.572000000000000397,-3.210157863386784438
0.573000000000000398,-3.195017706364307486
0.574000000000000399,-3.179941663789663586
0.575000000000000400,-3.164928528032810995
0.576000000000000401,-3.149977124864380862
0.577000000000000401,-3.135086312962784394
0.578000000000000402,-3.120254983418955241
0.579000000000000403,-3.105482059239179193
0.580000000000000404,-3.090766494846419299
0.581000000000000405,-3.076107275580429512
0.582000000000000406,-3.061503417197100507
0.583000000000000407,-3.046953965367311667
0.584000000000000408,-3.032457995175668053
0.585000000000000409,-3.018014610619407456
0.586000000000000409,-3.003622944107789294
0.587000000000000410,-2.989282155962281529
0.588000000000000411,-2.974991433917776984
0.589000000000000412,-2.960749992625155702
0.590000000000000413,-2.946557073155412265
0.591000000000000414,-2.932411942505607882
0.592000000000000415,-2.918313893106906587
0.593000000000000416,-2.904262242334850086
0.594000000000000417,-2.890256332022148822
0.595000000000000417,-2.876295527974207733
0.596000000000000418,-2.862379219487453330
0.597000000000000419,-2.848506818870840007
0.598000000000000420,-2.834677760970515159
0.599000000000000421,-2.820891502697964182
0.600000000000000422,-2.807147522561683317
0.601000000000000423,-2.793445320202595283
0.602000000000000424,-2.779784415933315600
0.603000000000000425,-2.766164350281417494
0.604000000000000425,-2.752584683536803745
0.605000000000000426,-2.739044995303305807
0.606000000000000427,-2.725544884054676764
0.607000000000000428,-2.712083966694922132
0.608000000000000429,-2.698661878123312707
0.609000000000000430,-2.685278270803896472
0.610000000000000431,-2.671932814339823992
0.611000000000000432,-2.658625195052409573
0.612000000000000433,-2.645355115565059201
0.613000000000000433,-2.632122294392153172
0.614000000000000434,-2.618926465532899872
0.615000000000000435,-2.605767378070214413
0.616000000000000436,-2.592644795774697641
0.617000000000000437,-2.579558496713779903
0.618000000000000438,-2.566508272865997142
0.619000000000000439,-2.553493929740473511
0.620000000000000440,-2.540515286001681527
0.621000000000000441,-2.527572173099430941
0.622000000000000441,-2.514664434904157808
0.623000000000000442,-2.501791927347510658
0.624000000000000443,-2.488954518068245747
0.625000000000000444,-2.476152086063478475
0.626000000000000445,-2.463384521345227007
0.627000000000000446,-2.450651724602324499
0.628000000000000447,-2.437953606867652834
0.629000000000000448,-2.425290089190712983
0.630000000000000449,-2.412661102315514228
0.631000000000000449,-2.400066586363785781
0.632000000000000450,-2.387506490523494396
0.633000000000000451,-2.374980772742658175
0.634000000000000452,-2.362489399428410408
0.635000000000000453,-2.350032345151345403
0.636000000000000454,-2.337609592355065935
0.637000000000000455,-2.325221131070970504
0.638000000000000456,-2.312866958638188475
0.639000000000000457,-2.300547079428684860
0.640000000000000457,-2.288261504577497885
0.641000000000000458,-2.276010251718028066
0.642000000000000459,-2.263793344722440537
0.643000000000000460,-2.251610813447027404
0.644000000000000461,-2.239462693482602074
0.645000000000000462,-2.227349025909819424
0.646000000000000463,-2.215269857059392944
0.647000000000000464,-2.203225238277195963
0.648000000000000465,-2.191215225694181701
0.649000000000000465,-2.179239880001063501
0.650000000000000466,-2.167299266227768584
0.651000000000000467,-2.155393453527539194
0.652000000000000468,-2.143522514965707337
0.653000000000000469,-2.131686527313040536
0.654000000000000470,-2.119885570843670575
0.655000000000000471,-2.108119729137491127
0.656000000000000472,-2.096389088887012697
0.657000000000000473,-2.084693739708616711
0.658000000000000473,-2.073033773958176784
0.659000000000000474,-2.061409286550943243
0.660000000000000475,-2.049820374785718435
0.661000000000000476,-2.038267138173170512
0.662000000000000477,-2.026749678268346067
0.663000000000000478,-2.015268098507224437
0.664000000000000479,-2.003822504047355846
0.665000000000000480,-1.992413001612415302
0.666000000000000481,-1.981039699340767513
0.667000000000000481,-1.969702706637815437
0.668000000000000482,-1.958402134032270370
0.669000000000000483,-1.947138093036095530
0.670000000000000484,-1.935910696008224408
0.671000000000000485,-1.924720056021917092
0.672000000000000486,-1.913566286735708832
0.673000000000000487,-1.902449502267948844
0.674000000000000488,-1.891369817074793236
0.675000000000000488,-1.880327345831651176
0.676000000000000489,-1.869322203318060982
0.677000000000000490,-1.858354504305837152
0.678000000000000491,-1.847424363450553830
0.679000000000000492,-1.836531895186231056
0.680000000000000493,-1.825677213623199791
0.681000000000000494,-1.814860432449107108
0.682000000000000495,-1.804081664832960286
0.683000000000000496,-1.793341023332233330
0.684000000000000496,-1.782638619802901392
0.685000000000000497,-1.771974565312410377
0.686000000000000498,-1.761348970055514274
0.687000000000000499,-1.750761943272913346
0.688000000000000500,-1.740213593172655226
0.689000000000000501,-1.729704026854260945
0.690000000000000502,-1.719233350235510382
0.691000000000000503,-1.708801667981832084
0.692000000000000504,-1.698409083438251699
0.693000000000000504,-1.688055698563899254
0.694000000000000505,-1.677741613868908299
0.695000000000000506,-1.667466928353821487
0.696000000000000507,-1.657231739451297869
0.697000000000000508,-1.647036142970178973
0.698000000000000509,-1.636880233041845045
0.699000000000000510,-1.626764102068764428
0.700000000000000511,-1.616687840675280485
0.701000000000000512,-1.606651537660501061
0.702000000000000512,-1.596655279953311135
0.703000000000000513,-1.586699152569429172
0.704000000000000514,-1.576783238570484524
0.705000000000000515,-1.566907619025049936
0.706000000000000516,-1.557072372971614049
0.707000000000000517,-1.547277577383438185
0.708000000000000518,-1.537523307135228112
0.709000000000000519,-1.527809634971666553
0.710000000000000520,-1.518136631477639886
0.711000000000000520,-1.508504365050237439
0.712000000000000521,-1.498912901872414105
0.713000000000000522,-1.489362305888279447
0.714000000000000523,-1.479852638780049467
0.715000000000000524,-1.470383959946485852
0.716000000000000525,-1.460956326482943712
0.717000000000000526,-1.451569793162866162
0.718000000000000527,-1.442224412420745505
0.719000000000000528,-1.432920234336512610
0.720000000000000528,-1.423657306621336271
0.721000000000000529,-1.414435674604712423
0.722000000000000530,-1.405255381222955346
0.723000000000000531,-1.396116467008891693
0.724000000000000532,-1.387018970082876779
0.725000000000000533,-1.377962926144994382
0.726000000000000534,-1.368948368468439813
0.727000000000000535,-1.359975327894083152
0.728000000000000536,-1.351043832826135382
0.729000000000000536,-1.342153909228924746
0.730000000000000537,-1.333305580624741804
0.731000000000000538,-1.324498868092691239
0.732000000000000539,-1.315733790268590164
0.733000000000000540,-1.307010363345813886
0.734000000000000541,-1.298328601077109123
0.735000000000000542,-1.289688514777309170
0.736000000000000543,-1.281090113326984081
0.737000000000000544,-1.272533403176905553
0.738000000000000544,-1.264018388353409739
0.739000000000000545,-1.255545070464532342
0.740000000000000546,-1.247113448706963501
0.741000000000000547,-1.238723519873748735
0.742000000000000548,-1.230375278362776159
0.743000000000000549,-1.222068716185914727
0.744000000000000550,-1.213803822978904323
0.745000000000000551,-1.205580586011896438
0.746000000000000552,-1.197398990200651436
0.747000000000000552,-1.189259018118363986
0.748000000000000553,-1.181160650008083568
0.749000000000000554,-1.173103863795732504
0.750000000000000555,-1.165088635103693759
0.751000000000000556,-1.157114937264919874
0.752000000000000557,-1.149182741337605673
0.753000000000000558,-1.141292016120309283
0.754000000000000559,-1.133442728167620261
0.755000000000000560,-1.125634841806241404
0.756000000000000560,-1.117868319151571477
0.757000000000000561,-1.110143120124657656
0.758000000000000562,-1.102459202469604271
0.759000000000000563,-1.094816521771375006
0.760000000000000564,-1.087215031473953264
0.761000000000000565,-1.079654682898874896
0.762000000000000566,-1.072135425264108655
0.763000000000000567,-1.064657205703268161
0.764000000000000568,-1.057219969285116079
0.765000000000000568,-1.049823659033416678
0.766000000000000569,-1.042468215947012888
0.767000000000000570,-1.035153579020228198
0.768000000000000571,-1.027879685263468179
0.769000000000000572,-1.020646469724123095
0.770000000000000573,-1.013453865507651042
0.771000000000000574,-1.006301803798910877
0.772000000000000575,-0.999190213883671019
0.773000000000000576,-0.992119023170321412
0.774000000000000576,-0.985088157211763460
0.775000000000000577,-0.978097539727468934
0.776000000000000578,-0.971147092625667674
0.777000000000000579,-0.964236736025724461
0.778000000000000580,-0.957366388280595948
0.779000000000000581,-0.950535965999444898
0.780000000000000582,-0.943745384070343585
0.781000000000000583,-0.936994555683096864
0.782000000000000584,-0.930283392352128979
0.783000000000000584,-0.923611803939468956
0.784000000000000585,-0.916979698677807264
0.785000000000000586,-0.910386983193591903
0.786000000000000587,-0.903833562530211188
0.787000000000000588,-0.897319340171188307
0.788000000000000589,-0.890844218063410964
0.789000000000000590,-0.884408096640428409
0.790000000000000591,-0.878010874845710609
0.791000000000000592,-0.871652450155955272
0.792000000000000592,-0.865332718604384210
0.793000000000000593,-0.859051574804029938
0.794000000000000594,-0.852808911971026595
0.795000000000000595,-0.846604621947873448
0.796000000000000596,-0.840438595226654983
0.797000000000000597,-0.834310720972260889
0.798000000000000598,-0.828220887045545751
0.799000000000000599,-0.822168980026441787
0.800000000000000600,-0.816154885237039829
0.801000000000000600,-0.810178486764592476
0.802000000000000601,-0.804239667484461407
0.803000000000000602,-0.798338309083001074
0.804000000000000603,-0.792474292080368015
0.805000000000000604,-0.786647495853253220
0.806000000000000605,-0.780857798657505930
0.807000000000000606,-0.775105077650719343
0.808000000000000607,-0.769389208914673217
0.809000000000000608,-0.763710067477703536
0.810000000000000608,-0.758067527336988567
0.811000000000000609,-0.752461461480663951
0.812000000000000610,-0.746891741909922913
0.813000000000000611,-0.741358239660904528
0.814000000000000612,-0.735860824826537918
0.815000000000000613,-0.730399366578241005
0.816000000000000614,-0.724973733187471270
0.817000000000000615,-0.719583792047182591
0.818000000000000616,-0.714229409693143635
0.819000000000000616,-0.708910451825103816
0.820000000000000617,-0.703626783327834349
0.821000000000000618,-0.698378268292036086
0.822000000000000619,-0.693164770035107236
0.823000000000000620,-0.687986151121736556
0.824000000000000621,-0.682842273384376974
0.825000000000000622,-0.677732997943567006
0.826000000000000623,-0.672658185228093619
0.827000000000000624,-0.667617694994995681
0.828000000000000624,-0.662611386349424292
0.829000000000000625,-0.657639117764327930
0.830000000000000626,-0.652700747099997369
0.831000000000000627,-0.647796131623428306
0.832000000000000628,-0.642925128027549198
0.833000000000000629,-0.638087592450242047
0.834000000000000630,-0.633283380493237180
0.835000000000000631,-0.628512347240817282
0.836000000000000631,-0.623774347278355568
0.837000000000000632,-0.619069234710702743
0.838000000000000633,-0.614396863180363351
0.839000000000000634,-0.609757085885538341
0.840000000000000635,-0.605149755597981009
0.841000000000000636,-0.600574724680662309
0.842000000000000637,-0.596031845105296609
0.843000000000000638,-0.591520968469652297
0.844000000000000639,-0.587041946014714711
0.845000000000000639,-0.582594628641664780
0.846000000000000640,-0.578178866928659829
0.847000000000000641,-0.573794511147486253
0.848000000000000642,-0.569441411279971610
0.849000000000000643,-0.565119417034258165
0.850000000000000644,-0.560828377860905891
0.851000000000000645,-0.556568142968766999
0.852000000000000646,-0.552338561340740108
0.853000000000000647,-0.548139481749308044
0.854000000000000647,-0.543970752771898658
0.855000000000000648,-0.539832222806083672
0.856000000000000649,-0.535723740084588784
0.857000000000000650,-0.531645152690122469
0.858000000000000651,-0.527596308570023043
0.859000000000000652,-0.523577055550731307
0.860000000000000653,-0.519587241352102658
0.861000000000000654,-0.515626713601493813
0.862000000000000655,-0.511695319847729646
0.863000000000000655,-0.507792907574842411
0.864000000000000656,-0.503919324215672648
0.865000000000000657,-0.500074417165256468
0.866000000000000658,-0.496258033794074183
0.867000000000000659,-0.492470021461103968
0.868000000000000660,-0.488710227526689578
0.869000000000000661,-0.484978499365252169
0.870000000000000662,-0.481274684377824613
0.871000000000000663,-0.477598630004416269
0.872000000000000663,-0.473950183736177255
0.873000000000000664,-0.470329193127440537
0.874000000000000665,-0.466735505807538087
0.875000000000000666,-0.463168969492498417
0.876000000000000667,-0.459629431996531612
0.877000000000000668,-0.456116741243370538
0.878000000000000669,-0.452630745277444846
0.879000000000000670,-0.449171292274865130
0.880000000000000671,-0.445738230554275916
0.881000000000000671,-0.442331408587502584
0.882000000000000672,-0.438950675010080560
0.883000000000000673,-0.435595878631575062
0.884000000000000674,-0.432266868445777608
0.885000000000000675,-0.428963493640706073
0.886000000000000676,-0.425685603608481955
0.887000000000000677,-0.422433047955015462
0.888000000000000678,-0.419205676509544101
0.889000000000000679,-0.416003339334027333
0.890000000000000679,-0.412825886732363478
0.891000000000000680,-0.409673169259469394
0.892000000000000681,-0.406545037730193237
0.893000000000000682,-0.403441343228082672
0.894000000000000683,-0.400361937113992927
0.895000000000000684,-0.397306671034560188
0.896000000000000685,-0.394275396930510003
0.897000000000000686,-0.391267967044819365
0.898000000000000687,-0.388284233930745182
0.899000000000000687,-0.385324050459688039
0.900000000000000688,-0.382387269828924070
0.901000000000000689,-0.379473745569187726
0.902000000000000690,-0.376583331552121092
0.903000000000000691,-0.373715881997567834
0.904000000000000692,-0.370871251480735964
0.905000000000000693,-0.368049294939219451
0.906000000000000694,-0.365249867679893481
0.907000000000000695,-0.362472825385646125
0.908000000000000695,-0.359718024122009816
0.909000000000000696,-0.356985320343627066
0.910000000000000697,-0.354274570900611541
0.911000000000000698,-0.351585633044752321
0.912000000000000699,-0.348918364435605699
0.913000000000000700,-0.346272623146461400
0.914000000000000701,-0.343648267670151164
0.915000000000000702,-0.341045156924772830
0.916000000000000703,-0.338463150259258660
0.917000000000000703,-0.335902107458832311
0.918000000000000704,-0.333361888750344171
0.919000000000000705,-0.330842354807469541
0.920000000000000706,-0.328343366755818822
0.921000000000000707,-0.325864786177890609
0.922000000000000708,-0.323406475117932579
0.923000000000000709,-0.320968296086689364
0.924000000000000710,-0.318550112066003865
0.925000000000000711,-0.316151786513344635
0.926000000000000711,-0.313773183366191810
0.927000000000000712,-0.311414167046322632
0.928000000000000713,-0.309074602463984494
0.929000000000000714,-0.306754355021971681
0.930000000000000715,-0.304453290619564165
0.931000000000000716,-0.302171275656387905
0.932000000000000717,-0.299908177036163348
0.933000000000000718,-0.297663862170338522
0.934000000000000719,-0.295438198981634592
0.935000000000000719,-0.293231055907480331
0.936000000000000720,-0.291042301903343625
0.937000000000000721,-0.288871806445971935
0.938000000000000722,-0.286719439536535503
0.939000000000000723,-0.284585071703658821
0.940000000000000724,-0.282468574006373374
0.941000000000000725,-0.280369818036964480
0.942000000000000726,-0.278288675923738738
0.943000000000000727,-0.276225020333672078
0.944000000000000727,-0.274178724475000579
0.945000000000000728,-0.272149662099701539
0.946000000000000729,-0.270137707505875568
0.947000000000000730,-0.268142735540075894
0.948000000000000731,-0.266164621599507267
0.949000000000000732,-0.264203241634181574
0.950000000000000733,-0.262258472148951205
0.951000000000000734,-0.260330190205496748
0.952000000000000735,-0.258418273424198930
0.953000000000000735,-0.256522599985943012
0.954000000000000736,-0.254643048633851399
0.955000000000000737,-0.252779498674927328
0.956000000000000738,-0.250931829981623666
0.957000000000000739,-0.249099922993331419
0.958000000000000740,-0.247283658717801780
0.959000000000000741,-0.245482918732478572
0.960000000000000742,-0.243697585185781385
0.961000000000000743,-0.241927540798285573
0.962000000000000743,-0.240172668863853522
0.963000000000000744,-0.238432853250684529
0.964000000000000745,-0.236707978402311087
0.965000000000000746,-0.234997929338498113
0.966000000000000747,-0.233302591656101288
0.967000000000000748,-0.231621851529842354
0.968000000000000749,-0.229955595713037836
0.969000000000000750,-0.228303711538234116
0.970000000000000751,-0.226666086917815590
0.971000000000000751,-0.225042610344512395
0.972000000000000752,-0.223433170891868121
0.973000000000000753,-0.221837658214660449
0.974000000000000754,-0.220255962549222861
0.975000000000000755,-0.218687974713744016
0.976000000000000756,-0.217133586108490595
0.977000000000000757,-0.215592688715976866
0.978000000000000758,-0.214065175101078309
0.979000000000000759,-0.212550938411101231
0.980000000000000759,-0.211049872375769970
0.981000000000000760,-0.209561871307190811
0.982000000000000761,-0.208086830099755676
0.983000000000000762,-0.206624644229975202
0.984000000000000763,-0.205175209756282534
0.985000000000000764,-0.203738423318786499
0.986000000000000765,-0.202314182138959964
0.987000000000000766,-0.200902384019292196
0.988000000000000766,-0.199502927342889380
0.989000000000000767,-0.198115711073035827
0.990000000000000768,-0.196740634752703286
0.991000000000000769,-0.195377598504004185
0.992000000000000770,-0.194026503027620173
0.993000000000000771,-0.192687249602188027
0.994000000000000772,-0.191359740083611563
0.995000000000000773,-0.190043876904378406
0.996000000000000774,-0.188739563072792105
0.997000000000000774,-0.187446702172194085
0.998000000000000775,-0.186165198360129680
0.999000000000000776,-0.184894956367481406
1.000000000000000666,-0.183635881497563630
1.001000000000000778,-0.182387879625179827
1.002000000000000668,-0.181150857195640946
1.003000000000000780,-0.179924721223746920
1.004000000000000670,-0.178709379292739001
1.005000000000000782,-0.177504739553213081
1.006000000000000671,-0.176310710722000857
1.007000000000000783,-0.175127202081006461
1.008000000000000673,-0.173954123476034228
1.009000000000000785,-0.172791385315560819
1.010000000000000675,-0.171638898569490050
1.011000000000000787,-0.170496574767867254
1.012000000000000677,-0.169364325999577431
1.013000000000000789,-0.168242064911001160
1.014000000000000679,-0.167129704704638005
1.015000000000000790,-0.166027159137725588
1.016000000000000680,-0.164934342520806576
1.017000000000000792,-0.163851169716274059
1.018000000000000682,-0.162777556136898843
1.019000000000000794,-0.161713417744324656
1.020000000000000684,-0.160658671047541945
1.021000000000000796,-0.159613233101330326
1.022000000000000686,-0.158577021504679699
1.023000000000000798,-0.157549954399197445
1.024000000000000687,-0.156531950467473757
1.025000000000000799,-0.155522928931443094
1.026000000000000689,-0.154522809550713569
1.027000000000000801,-0.153531512620874111
1.028000000000000691,-0.152548958971789550
1.029000000000000803,-0.151575069965863590
1.030000000000000693,-0.150609767496290126
1.031000000000000805,-0.149652973985287707
1.032000000000000695,-0.148704612382299511
1.033000000000000806,-0.147764606162200635
1.034000000000000696,-0.146832879323462784
1.035000000000000808,-0.145909356386310918
1.036000000000000698,-0.144993962390865233
1.037000000000000810,-0.144086622895279154
1.038000000000000700,-0.143187263973822893
1.039000000000000812,-0.142295812214990935
1.040000000000000702,-0.141412194719580719
1.041000000000000814,-0.140536339098751684
1.042000000000000703,-0.139668173472067586
1.043000000000000815,-0.138807626465544176
1.044000000000000705,-0.137954627209664726
1.045000000000000817,-0.137109105337380355
1.046000000000000707,-0.136270990982121476
1.047000000000000819,-0.135440214775772866
1.048000000000000709,-0.134616707846643924
1.049000000000000821,-0.133800401817436743
1.050000000000000711,-0.132991228803185590
1.051000000000000822,-0.132189121409210103
1.052000000000000712,-0.131394012729032894
1.053000000000000824,-0.130605836342301496
1.054000000000000714,-0.129824526312702748
1.055000000000000826,-0.129050017185857568
1.056000000000000716,-0.128282243987220268
1.057000000000000828,-0.127521142219955197
1.058000000000000718,-0.126766647862815079
1.059000000000000830,-0.126018697368008914
1.060000000000000719,-0.125277227659066293
1.061000000000000831,-0.124542176128683832
1.062000000000000721,-0.123813480636576045
1.063000000000000833,-0.123091079507320386
1.064000000000000723,-0.122374911528182626
1.065000000000000835,-0.121664915946949795
1.066000000000000725,-0.120961032469760449
1.067000000000000837,-0.120263201258904148
1.068000000000000727,-0.119571362930660438
1.069000000000000838,-0.118885458553082968
1.070000000000000728,-0.118205429643820192
1.071000000000000840,-0.117531218167908971
1.072000000000000730,-0.116862766535573176
1.073000000000000842,-0.116200017600020078
1.074000000000000732,-0.115542914655218570
1.075000000000000844,-0.114891401433701953
1.076000000000000734,-0.114245422104344962
1.077000000000000846,-0.113604921270142253
1.078000000000000735,-0.112969843965998101
1.079000000000000847,-0.112340135656492146
1.080000000000000737,-0.111715742233672172
1.081000000000000849,-0.111096610014812344
1.082000000000000739,-0.110482685740197331
1.083000000000000851,-0.109873916570890989
1.084000000000000741,-0.109270250086516807
1.085000000000000853,-0.108671634283015336
1.086000000000000743,-0.108078017570426385
1.087000000000000854,-0.107489348770658549
1.088000000000000744,-0.106905577115264577
1.089000000000000856,-0.106326652243200565
1.090000000000000746,-0.105752524198609435
1.091000000000000858,-0.105183143428596443
1.092000000000000748,-0.104618460780993391
1.093000000000000860,-0.104058427502143586
1.094000000000000750,-0.103502995234670436
1.095000000000000862,-0.102952116015262260
1.096000000000000751,-0.102405742272453693
1.097000000000000863,-0.101863826824395806
1.098000000000000753,-0.101326322876655397
1.099000000000000865,-0.100793184019994417
1.100000000000000755,-0.100264364228154615
1.101000000000000867,-0.099739817855654361
1.102000000000000757,-0.099219499635583339
1.103000000000000869,-0.098703364677399971
1.104000000000000759,-0.098191368464720846
1.105000000000000870,-0.097683466853142067
1.106000000000000760,-0.097179616068028760
1.107000000000000872,-0.096679772702335243
1.108000000000000762,-0.096183893714419752
1.109000000000000874,-0.095691936425857188
1.110000000000000764,-0.095203858519261525
1.111000000000000876,-0.094719618036110648
1.112000000000000766,-0.094239173374582166
1.113000000000000878,-0.093762483287381279
1.114000000000000767,-0.093289506879586273
1.115000000000000879,-0.092820203606481383
1.116000000000000769,-0.092354533271415726
1.117000000000000881,-0.091892456023650440
1.118000000000000771,-0.091433932356217787
1.119000000000000883,-0.090978923103785816
1.120000000000000773,-0.090527389440526226
1.121000000000000885,-0.090079292877985731
1.122000000000000774,-0.089634595262963940
1.123000000000000886,-0.089193258775402920
1.124000000000000776,-0.088755245926278231
1.125000000000000888,-0.088320519555482285
1.126000000000000778,-0.087889042829738778
1.127000000000000890,-0.087460779240513223
1.128000000000000780,-0.087035692601907841
1.129000000000000892,-0.086613747048600406
1.130000000000000782,-0.086194907033761176
1.131000000000000894,-0.085779137326984584
1.132000000000000783,-0.085366403012230432
1.133000000000000895,-0.084956669485772990
1.134000000000000785,-0.084549902454135573
1.135000000000000897,-0.084146067932073410
1.136000000000000787,-0.083745132240516079
1.137000000000000899,-0.083347062004553704
1.138000000000000789,-0.082951824151403106
1.139000000000000901,-0.082559385908409472
1.140000000000000790,-0.082169714801022614
1.141000000000000902,-0.081782778650798832
1.142000000000000792,-0.081398545573416442
1.143000000000000904,-0.081016983976678558
1.144000000000000794,-0.080638062558546122
1.145000000000000906,-0.080261750305144999
1.146000000000000796,-0.079888016488826680
1.147000000000000908,-0.079516830666191113
1.148000000000000798,-0.079148162676146910
1.149000000000000909,-0.078781982637966610
1.150000000000000799,-0.078418260949346119
1.151000000000000689,-0.078056968284486730
1.152000000000000801,-0.077698075592170207
1.153000000000000913,-0.077341554093848686
1.154000000000000803,-0.076987375281737561
1.155000000000000693,-0.076635510916918531
1.156000000000000805,-0.076285933027459757
1.157000000000000917,-0.075938613906520055
1.158000000000000806,-0.075593526110491388
1.159000000000000696,-0.075250642457123540
1.160000000000000808,-0.074909936023668064
1.161000000000000920,-0.074571380145032923
1.162000000000000810,-0.074234948411942669
1.163000000000000700,-0.073900614669098016
1.164000000000000812,-0.073568353013360038
1.165000000000000924,-0.073238137791922023
1.166000000000000814,-0.072909943600515517
1.167000000000000703,-0.072583745281594961
1.168000000000000815,-0.072259517922558955
1.169000000000000927,-0.071937236853952508
1.170000000000000817,-0.071616877647705995
1.171000000000000707,-0.071298416115351038
1.172000000000000819,-0.070981828306278222
1.173000000000000931,-0.070667090505974708
1.174000000000000821,-0.070354179234282194
1.175000000000000711,-0.070043071243668792
1.176000000000000822,-0.069733743517499142
1.177000000000000934,-0.069426173268313990
1.178000000000000824,-0.069120337936128831
1.179000000000000714,-0.068816215186720958
1.180000000000000826,-0.068513782909953386
1.181000000000000938,-0.068213019218073698
1.182000000000000828,-0.067913902444049171
1.183000000000000718,-0.067616411139898844
1.184000000000000830,-0.067320524075031432
1.185000000000000941,-0.067026220234591732
1.186000000000000831,-0.066733478817829775
1.187000000000000721,-0.066442279236455085
1.188000000000000833,-0.066152601113019988
1.189000000000000945,-0.065864424279300740
1.190000000000000835,-0.065577728774690397
1.191000000000000725,-0.065292494844589141
1.192000000000000837,-0.065008702938836330
1.193000000000000949,-0.064726333710098310
1.194000000000000838,-0.064445368012319620
1.195000000000000728,-0.064165786899139945
1.196000000000000840,-0.063887571622345818
1.197000000000000952,-0.063610703630321119
1.198000000000000842,-0.063335164566500374
1.199000000000000732,-0.063060936267848006
1.200000000000000844,-0.062788000763316240
1.201000000000000956,-0.062516340272353463
1.202000000000000846,-0.062245937203376692
1.203000000000000735,-0.061976774152287972
1.204000000000000847,-0.061708833900969852
1.205000000000000959,-0.061442099415823216
1.206000000000000849,-0.061176553846274719
1.207000000000000739,-0.060912180523322132
1.208000000000000851,-0.060648962958076855
1.209000000000000963,-0.060386884840313862
1.210000000000000853,-0.060125930037036014
1.211000000000000743,-0.059866082591033098
1.212000000000000854,-0.059607326719471374
1.213000000000000966,-0.059349646812465615
1.214000000000000856,-0.059093027431687851
1.215000000000000746,-0.058837453308949697
1.216000000000000858,-0.058582909344833199
1.217000000000000970,-0.058329380607290392
1.218000000000000860,-0.058076852330281370
1.219000000000000750,-0.057825309912404269
1.220000000000000862,-0.057574738915540866
1.221000000000000973,-0.057325125063501403
1.222000000000000863,-0.057076454240692097
1.223000000000000753,-0.056828712490772947
1.224000000000000865,-0.056581886015341566
1.225000000000000977,-0.056335961172612803
1.226000000000000867,-0.056090924476107883
1.227000000000000757,-0.055846762593357267
1.228000000000000869,-0.055603462344601937
1.229000000000000981,-0.055361010701525340
1.230000000000000870,-0.055119394785951625
1.231000000000000760,-0.054878601868596541
1.232000000000000872,-0.054638619367806653
1.233000000000000984,-0.054399434848286667
1.234000000000000874,-0.054161036019882682
1.235000000000000764,-0.053923410736320052
1.236000000000000876,-0.053686546993991724
1.237000000000000988,-0.053450432930724934
1.238000000000000878,-0.053215056824579499
1.239000000000000767,-0.052980407092628114
1.240000000000000879,-0.052746472289770842
1.241000000000000991,-0.052513241107536857
1.242000000000000881,-0.052280702372903408
1.243000000000000771,-0.052048845047124592
1.244000000000000883,-0.051817658224556550
1.245000000000000995,-0.051587131131506613
1.246000000000000885,-0.051357253125075095
1.247000000000000774,-0.051128013692011351
1.248000000000000886,-0.050899402447577166
1.249000000000000998,-0.050671409134418123
1.250000000000000888,-0.050444023621443249
1.251000000000000778,-0.050217235902704639
1.252000000000000890,-0.049991036096296695
1.253000000000001002,-0.049765414443246864
1.254000000000000892,-0.049540361306437242
1.255000000000000782,-0.049315867169508629
1.256000000000000894,-0.049091922635780695
1.257000000000001005,-0.048868518427193822
1.258000000000000895,-0.048645645383235139
1.259000000000000785,-0.048423294459884400
1.260000000000000897,-0.048201456728566447
1.261000000000001009,-0.047980123375112323
1.262000000000000899,-0.047759285698716611
1.263000000000000789,-0.047538935110917703
1.264000000000000901,-0.047319063134575373
1.265000000000001013,-0.047099661402853210
1.266000000000000902,-0.046880721658217925
1.267000000000000792,-0.046662235751436909
1.268000000000000904,-0.046444195640585217
1.269000000000001016,-0.046226593390060869
1.270000000000000906,-0.046009421169609939
1.271000000000000796,-0.045792671253347697
1.272000000000000908,-0.045576336018796439
1.273000000000001020,-0.045360407945930270
1.274000000000000909,-0.045144879616221809
1.275000000000000799,-0.044929743711691790
1.276000000000000911,-0.044714993013984718
1.277000000000001023,-0.044500620403421565
1.278000000000000913,-0.044286618858086185
1.279000000000000803,-0.044072981452902407
1.280000000000000915,-0.043859701358729762
1.281000000000001027,-0.043646771841441105
1.282000000000000917,-0.043434186261046129
1.283000000000000806,-0.043221938070783138
1.284000000000000918,-0.043010020816243950
1.285000000000001030,-0.042798428134485075
1.286000000000000920,-0.042587153753165560
1.287000000000000810,-0.042376191489670430
1.288000000000000922,-0.042165535250262023
1.289000000000001034,-0.041955179029214015
1.290000000000000924,-0.041745116907970330
1.291000000000000814,-0.041535343054309379
1.292000000000000925,-0.041325851721493244
1.293000000000001037,-0.041116637247458648
1.294000000000000927,-0.040907694053980190
1.295000000000000817,-0.040699016645856123
1.296000000000000929,-0.040490599610102818
1.297000000000001041,-0.040282437615142982
1.298000000000000931,-0.040074525410015938
1.299000000000000821,-0.039866857823578940
1.300000000000000933,-0.039659429763719709
1.301000000000001044,-0.039452236216580817
1.302000000000000934,-0.039245272245779284
1.303000000000000824,-0.039038532991646446
1.304000000000000936,-0.038832013670450694
1.305000000000001048,-0.038625709573654743
1.306000000000000938,-0.038419616067158921
1.307000000000000828,-0.038213728590547960
1.308000000000000940,-0.038008042656358806
1.309000000000001052,-0.037802553849350343
1.310000000000000941,-0.037597257825762856
1.311000000000000831,-0.037392150312603081
1.312000000000000943,-0.037187227106917867
1.313000000000001055,-0.036982484075099811
1.314000000000000945,-0.036777917152159313
1.315000000000000835,-0.036573522341035572
1.316000000000000947,-0.036369295711898973
1.317000000000001059,-0.036165233401461196
1.318000000000000949,-0.035961331612283848
1.319000000000000838,-0.035757586612111994
1.320000000000000950,-0.035553994733187474
1.321000000000001062,-0.035350552371582702
1.322000000000000952,-0.035147255986542968
1.323000000000000842,-0.034944102099820060
1.324000000000000954,-0.034741087295025411
1.325000000000001066,-0.034538208216974391
1.326000000000000956,-0.034335461571054778
1.327000000000000846,-0.034132844122574932
1.328000000000000957,-0.033930352696144084
1.329000000000001069,-0.033727984175031471
1.330000000000000959,-0.033525735500557888
1.331000000000000849,-0.033323603671467417
1.332000000000000961,-0.033121585743315050
1.333000000000001073,-0.032919678827862085
1.334000000000000963,-0.032717880092476781
1.335000000000000853,-0.032516186759525459
1.336000000000000965,-0.032314596105788664
1.337000000000001076,-0.032113105461869705
1.338000000000000966,-0.031911712211607435
1.339000000000000856,-0.031710413791504868
1.340000000000000968,-0.031509207690145660
1.341000000000001080,-0.031308091447630408
1.342000000000000970,-0.031107062655010488
1.343000000000000860,-0.030906118953727756
1.344000000000000972,-0.030705258035055881
1.345000000000001084,-0.030504477639556871
1.346000000000000973,-0.030303775556525036
1.347000000000000863,-0.030103149623450266
1.348000000000000975,-0.029902597725477330
1.349000000000001087,-0.029702117794876793
1.350000000000000977,-0.029501707810513332
1.351000000000000867,-0.029301365797324876
1.352000000000000979,-0.029101089825789461
1.353000000000001091,-0.028900878011430507
1.354000000000000981,-0.028700728514292527
1.355000000000000870,-0.028500639538431315
1.356000000000000982,-0.028300609331418525
1.357000000000001094,-0.028100636183843609
1.358000000000000984,-0.027900718428811255
1.359000000000000874,-0.027700854441458977
1.360000000000000986,-0.027501042638465690
1.361000000000001098,-0.027301281477578643
1.362000000000000988,-0.027101569457120122
1.363000000000000878,-0.026901905115527598
1.364000000000000989,-0.026702287030883409
1.365000000000001101,-0.026502713820435057
1.366000000000000991,-0.026303184140149250
1.367000000000000881,-0.026103696684246381
1.368000000000000993,-0.025904250184748779
1.369000000000001105,-0.025704843411029632
1.370000000000000995,-0.025505475169366791
1.371000000000000885,-0.025306144302501155
1.372000000000000997,-0.025106849689197946
1.373000000000001108,-0.024907590243817473
1.374000000000000998,-0.024708364915866608
1.375000000000000888,-0.024509172689597260
1.376000000000001000,-0.024310012583563186
1.377000000000001112,-0.024110883650208800
1.378000000000001002,-0.023911784975451024
1.379000000000000892,-0.023712715678266931
1.380000000000001004,-0.023513674910284214
1.381000000000001116,-0.023314661855381842
1.382000000000001005,-0.023115675729279035
1.383000000000000895,-0.022916715779142845
1.384000000000001007,-0.022717781283194662
1.385000000000001119,-0.022518871550316309
1.386000000000001009,-0.022319985919665393
1.387000000000000899,-0.022121123760281851
1.388000000000001011,-0.021922284470729143
1.389000000000001123,-0.021723467478689279
1.390000000000001013,-0.021524672240609256
1.391000000000000902,-0.021325898241321108
1.392000000000001014,-0.021127144993677911
1.393000000000001126,-0.020928412038188134
1.394000000000001016,-0.020729698942660434
1.395000000000000906,-0.020531005301838719
1.396000000000001018,-0.020332330737049049
1.397000000000001130,-0.020133674895854856
1.398000000000001020,-0.019935037451705138
1.399000000000000909,-0.019736418103589080
1.400000000000001021,-0.019537816575694110
1.401000000000001133,-0.019339232617073415
1.402000000000001023,-0.019140666001303576
1.403000000000000913,-0.018942116526154244
1.404000000000001025,-0.018743584013264356
1.405000000000001137,-0.018545068307808554
1.406000000000001027,-0.018346569278177412
1.407000000000000917,-0.018148086815663884
1.408000000000001029,-0.017949620834131187
1.409000000000001140,-0.017751171269714223
1.410000000000001030,-0.017552738080498419
1.411000000000000920,-0.017354321246215578
1.412000000000001032,-0.017155920767937195
1.413000000000001144,-0.016957536667774435
1.414000000000001034,-0.016759168988573842
1.415000000000000924,-0.016560817793621188
1.416000000000001036,-0.016362483166354583
1.417000000000001148,-0.016164165210065178
1.418000000000001037,-0.015965864047608740
1.419000000000000927,-0.015767579821124339
1.420000000000001039,-0.015569312691747297
1.421000000000001151,-0.015371062839333557
1.422000000000001041,-0.015172830462175838
1.423000000000000931,-0.014974615776732630
1.424000000000001043,-0.014776419017353801
1.425000000000001155,-0.014578240436012125
1.426000000000001044,-0.014380080302034758
1.427000000000000934,-0.014181938901841218
1.428000000000001046,-0.013983816538676525
1.429000000000001158,-0.013785713532353772
1.430000000000001048,-0.013587630219000465
1.431000000000000938,-0.013389566950797484
1.432000000000001050,-0.013191524095732644
1.433000000000001162,-0.012993502037348342
1.434000000000001052,-0.012795501174492806
1.435000000000000941,-0.012597521921080556
1.436000000000001053,-0.012399564705843155
1.437000000000001165,-0.012201629972092029
1.438000000000001055,-0.012003718177486290
1.439000000000000945,-0.011805829793788081
1.440000000000001057,-0.011607965306637057
1.441000000000001169,-0.011410125215310951
1.442000000000001059,-0.011212310032507226
1.443000000000000949,-0.011014520284113396
1.444000000000001060,-0.010816756508980610
1.445000000000001172,-0.010619019258700119
1.446000000000001062,-0.010421309097395507
1.447000000000000952,-0.010223626601489099
1.448000000000001064,-0.010025972359499131
1.449000000000001176,-0.009828346971825806
1.450000000000001066,-0.009630751050531860
1.451000000000000956,-0.009433185219142748
1.452000000000001068,-0.009235650112437776
1.453000000000001180,-0.009038146376244980
1.454000000000001069,-0.008840674667237801
1.455000000000000959,-0.008643235652738158
1.456000000000001071,-0.008445830010513380
1.457000000000001183,-0.008248458428587926
1.458000000000001073,-0.008051121605041565
1.459000000000000963,-0.007853820247819349
1.460000000000001075,-0.007656555074543256
1.461000000000001187,-0.007459326812322345
1.462000000000001076,-0.007262136197570783
1.463000000000000966,-0.007064983975815483
1.464000000000001078,-0.006867870901520155
1.465000000000001190,-0.006670797737906772
1.466000000000001080,-0.006473765256766966
1.467000000000000970,-0.006276774238296227
1.468000000000001082,-0.006079825470915312
1.469000000000001194,-0.005882919751093400
1.470000000000001084,-0.005686057883182670
1.471000000000000973,-0.005489240679245125
1.472000000000001085,-0.005292468958889887
1.473000000000001197,-0.005095743549100655
1.474000000000001087,-0.004899065284079266
1.475000000000000977,-0.004702435005073563
1.476000000000001089,-0.004505853560228722
1.477000000000001201,-0.004309321804422140
1.478000000000001091,-0.004112840599104457
1.479000000000000981,-0.003916410812149382
1.480000000000001092,-0.003720033317695590
1.481000000000001204,-0.003523708995998655
1.482000000000001094,-0.003327438733278028
1.483000000000000984,-0.003131223421571982
1.484000000000001096,-0.002935063958585333
1.485000000000001208,-0.002738961247545196
1.486000000000001098,-0.002542916197063966
1.487000000000000988,-0.002346929720987756
1.488000000000001100,-0.002151002738260189
1.489000000000001211,-0.001955136172784765
1.490000000000001101,-0.001759330953286125
1.491000000000000991,-0.001563588013170701
1.492000000000001103,-0.001367908290398701
1.493000000000001215,-0.001172292727347301
1.494000000000001105,-0.000976742270676678
1.495000000000000995,-0.000781257871206064
1.496000000000001107,-0.000585840483781614
1.497000000000001219,-0.000390491067149560
1.498000000000001108,-0.000195210583831789
1.499000000000000998,0.000000000000000000
