# AlFCC111UCD_BSAI7
# h[nm],U(h)[kJ/mol]
0.149999999999999994,74.428230848818856202
0.150999999999999995,69.863656398342783405
0.151999999999999996,66.390108095646468200
0.152999999999999997,63.187892532088156372
0.153999999999999998,59.995477519662486543
0.154999999999999999,56.788556106433176751
0.156000000000000000,53.618637773640998034
0.157000000000000001,50.540780742905901946
0.158000000000000002,47.588285568387185265
0.159000000000000002,44.769913264134331143
0.160000000000000003,42.076120115203302419
0.161000000000000004,39.487353480942232409
0.162000000000000005,36.981241117914109395
0.163000000000000006,34.537586059673550665
0.164000000000000007,32.141131035919144665
0.165000000000000008,29.782513218871294214
0.166000000000000009,27.457960577334983299
0.167000000000000010,25.168247907100273153
0.168000000000000010,22.917328426437578059
0.169000000000000011,20.710937910714665833
0.170000000000000012,18.555358999546662346
0.171000000000000013,16.456444600517666998
0.172000000000000014,14.418933782030089574
0.173000000000000015,12.446049384763268719
0.174000000000000016,10.539340096589308260
0.175000000000000017,8.698716764199021512
0.176000000000000018,6.922629352911178202
0.177000000000000018,5.208333907129809148
0.178000000000000019,3.552205497025821668
0.179000000000000020,1.950061521707388668
0.180000000000000021,0.397468518069327481
0.181000000000000022,-1.109986085077156570
0.182000000000000023,-2.576468542708472587
0.183000000000000024,-4.005724941883549661
0.184000000000000025,-5.400959446506682582
0.185000000000000026,-6.764761695340288483
0.186000000000000026,-8.099078060405400237
0.187000000000000027,-9.405220070029553625
0.188000000000000028,-10.683902663022355028
0.189000000000000029,-11.935304891869463972
0.190000000000000030,-13.159146073495458396
0.191000000000000031,-14.354771057480153473
0.192000000000000032,-15.521239128443408362
0.193000000000000033,-16.657411989615813042
0.194000000000000034,-17.762037217848526183
0.195000000000000034,-18.833824484992703674
0.196000000000000035,-19.871512671407494111
0.197000000000000036,-20.873926732414123109
0.198000000000000037,-21.840023806497441683
0.199000000000000038,-22.768928571826144491
0.200000000000000039,-23.659958268086789701
0.201000000000000040,-24.512638110765312405
0.202000000000000041,-25.326708044625725336
0.203000000000000042,-26.102121923505876566
0.204000000000000042,-26.839040276554833042
0.205000000000000043,-27.537817838467582021
0.206000000000000044,-28.198986994360062397
0.207000000000000045,-28.823238229000303079
0.208000000000000046,-29.411398584415291424
0.209000000000000047,-29.964409027482201253
0.210000000000000048,-30.483301516838174905
0.211000000000000049,-30.969176441977133152
0.212000000000000050,-31.423180991325711631
0.213000000000000050,-31.846488893964181699
0.214000000000000051,-32.240281874164828935
0.215000000000000052,-32.605733060947287072
0.216000000000000053,-32.943992507630511568
0.217000000000000054,-33.256174899568847536
0.218000000000000055,-33.543349462117546977
0.219000000000000056,-33.806532025245942918
0.220000000000000057,-34.046679155695798613
0.221000000000000058,-34.264684231548741877
0.222000000000000058,-34.461375306773120997
0.223000000000000059,-34.637514593913820704
0.224000000000000060,-34.793799380684944822
0.225000000000000061,-34.930864189918466423
0.226000000000000062,-35.049283991224513102
0.227000000000000063,-35.149578275982030107
0.228000000000000064,-35.232215814097500584
0.229000000000000065,-35.297619920609463406
0.230000000000000066,-35.346174072002227717
0.231000000000000066,-35.378227725425972494
0.232000000000000067,-35.394102208372352436
0.233000000000000068,-35.394096561267289758
0.234000000000000069,-35.378493230525108970
0.235000000000000070,-35.347563524535118518
0.236000000000000071,-35.301572759553451419
0.237000000000000072,-35.240785036340490421
0.238000000000000073,-35.165467601447488732
0.239000000000000073,-35.075894759198831707
0.240000000000000074,-34.972351311552458242
0.241000000000000075,-34.855135513100954370
0.242000000000000076,-34.724561537477093509
0.243000000000000077,-34.580961459351115650
0.244000000000000078,-34.424686763074078044
0.245000000000000079,-34.256109394866115281
0.246000000000000080,-34.075622380321128446
0.247000000000000081,-33.883640032956108712
0.248000000000000081,-33.680597782637960336
0.249000000000000082,-33.466951655042677771
0.250000000000000111,-33.243177434911451940
0.251000000000000112,-33.009769546836011500
0.252000000000000113,-32.767239687705064455
0.253000000000000114,-32.516115244841003573
0.254000000000000115,-32.256937533320723333
0.255000000000000115,-31.990259885068375922
0.256000000000000116,-31.716645621091629437
0.257000000000000117,-31.436665936761876594
0.258000000000000118,-31.150897728365077199
0.259000000000000119,-30.859921387319211306
0.260000000000000120,-30.564318586511273423
0.261000000000000121,-30.264670081187382777
0.262000000000000122,-29.961553544769380153
0.263000000000000123,-29.655541457899953883
0.264000000000000123,-29.347199066961092484
0.265000000000000124,-29.037082426290055537
0.266000000000000125,-28.725736536353331019
0.267000000000000126,-28.413693588244427701
0.268000000000000127,-28.101471323063009322
0.269000000000000128,-27.789571513016625204
0.270000000000000129,-27.478478569473168136
0.271000000000000130,-27.168658281684724187
0.272000000000000131,-26.860556688508154366
0.273000000000000131,-26.554599084163321265
0.274000000000000132,-26.251189157899460724
0.275000000000000133,-25.950708266381202094
0.276000000000000134,-25.653514836656494680
0.277000000000000135,-25.359943896726754531
0.278000000000000136,-25.070306730000805118
0.279000000000000137,-24.784890649274338159
0.280000000000000138,-24.503958885331176276
0.281000000000000139,-24.227750584806354794
0.282000000000000139,-23.956480911578296400
0.283000000000000140,-23.690341245663073977
0.284000000000000141,-23.429499473361765638
0.285000000000000142,-23.174100362257028962
0.286000000000000143,-22.924266014561275995
0.287000000000000144,-22.680096392280756135
0.288000000000000145,-22.441669907672569195
0.289000000000000146,-22.209044072528733693
0.290000000000000147,-21.982256199919625317
0.291000000000000147,-21.761324152161723333
0.292000000000000148,-21.546247128938787796
0.293000000000000149,-21.337006489695831135
0.294000000000000150,-21.133566604638097886
0.295000000000000151,-20.935875728898992065
0.296000000000000152,-20.743866894687489122
0.297000000000000153,-20.557458816484718511
0.298000000000000154,-20.376556804626691388
0.299000000000000155,-20.201053682884811735
0.300000000000000155,-20.030830705933215796
0.301000000000000156,-19.865758472871895890
0.302000000000000157,-19.705697833253246642
0.303000000000000158,-19.550500782336758476
0.304000000000000159,-19.400011342569630557
0.305000000000000160,-19.254066428558772373
0.306000000000000161,-19.112496693061210351
0.307000000000000162,-18.975127351774048634
0.308000000000000163,-18.841778984950714460
0.309000000000000163,-18.712268314106964340
0.310000000000000164,-18.586408952307422737
0.311000000000000165,-18.464012126739987707
0.312000000000000166,-18.344887372492518551
0.313000000000000167,-18.228843196641729918
0.314000000000000168,-18.115687711949462368
0.315000000000000169,-18.005229239635376359
0.316000000000000170,-17.897276880858747461
0.317000000000000171,-17.791641056694068368
0.318000000000000171,-17.688134016526898762
0.319000000000000172,-17.586570314927890024
0.320000000000000173,-17.486767257183259971
0.321000000000000174,-17.388545313771437861
0.322000000000000175,-17.291728504176184344
0.323000000000000176,-17.196144750518730149
0.324000000000000177,-17.101626201573715491
0.325000000000000178,-17.008009527808031436
0.326000000000000179,-16.915136188147300800
0.327000000000000179,-16.822852669232315037
0.328000000000000180,-16.731010697978355495
0.329000000000000181,-16.639467428293187368
0.330000000000000182,-16.548085602846001052
0.331000000000000183,-16.456733690809794979
0.332000000000000184,-16.365286002523635744
0.333000000000000185,-16.273622782040014556
0.334000000000000186,-16.181630278535898526
0.335000000000000187,-16.089200797574555679
0.336000000000000187,-15.996232733209771126
0.337000000000000188,-15.902630581923677511
0.338000000000000189,-15.808304939386284005
0.339000000000000190,-15.713172481017355864
0.340000000000000191,-15.617155927320919062
0.341000000000000192,-15.520183994950329520
0.342000000000000193,-15.422191334445329858
0.343000000000000194,-15.323118455565387208
0.344000000000000195,-15.222911641123307191
0.345000000000000195,-15.121522850201717603
0.346000000000000196,-15.018909611611700683
0.347000000000000197,-14.915034908428273397
0.348000000000000198,-14.809867054411986587
0.349000000000000199,-14.703379563099019833
0.350000000000000200,-14.595551010315171325
0.351000000000000201,-14.486364890840800257
0.352000000000000202,-14.375809469925702189
0.353000000000000203,-14.263877630324103052
0.354000000000000203,-14.150566715491020631
0.355000000000000204,-14.035878369552387213
0.356000000000000205,-13.919818374632532354
0.357000000000000206,-13.802396486093886807
0.358000000000000207,-13.683626266215014766
0.359000000000000208,-13.563524916805624443
0.360000000000000209,-13.442113111228721323
0.361000000000000210,-13.319414826273311192
0.362000000000000210,-13.195457174294142888
0.363000000000000211,-13.070270236008772358
0.364000000000000212,-12.943886894316912972
0.365000000000000213,-12.816342669481795014
0.366000000000000214,-12.687675555989468279
0.367000000000000215,-12.557925861378210541
0.368000000000000216,-12.427136047307662636
0.369000000000000217,-12.295350573115248594
0.370000000000000218,-12.162615742086357429
0.371000000000000218,-12.028979550644230301
0.372000000000000219,-11.894491540645963923
0.373000000000000220,-11.759202654952279232
0.374000000000000221,-11.623165096420560616
0.375000000000000222,-11.486432190453504276
0.376000000000000223,-11.349058251219267035
0.377000000000000224,-11.211098451643341178
0.378000000000000225,-11.072608697257461330
0.379000000000000226,-10.933645503976633151
0.380000000000000226,-10.794265879862269486
0.381000000000000227,-10.654527210916160840
0.382000000000000228,-10.514487150938768067
0.383000000000000229,-10.374203515473519488
0.384000000000000230,-10.233734179848305246
0.385000000000000231,-10.093136981315730338
0.386000000000000232,-9.952469625283999477
0.387000000000000233,-9.811789595621881688
0.388000000000000234,-9.671154069013057963
0.389000000000000234,-9.530619833327747870
0.390000000000000235,-9.390243209972364724
0.391000000000000236,-9.250079980171912908
0.392000000000000237,-9.110185315133531248
0.393000000000000238,-8.970613710034704980
0.394000000000000239,-8.831418921774252695
0.395000000000000240,-8.692653910420165886
0.396000000000000241,-8.554370784284207829
0.397000000000000242,-8.416620748549460629
0.398000000000000242,-8.279454057374140419
0.399000000000000243,-8.142919969391838819
0.400000000000000244,-8.007066706526000388
0.401000000000000245,-7.871941416034525574
0.402000000000000246,-7.737590135698345861
0.403000000000000247,-7.604057762066216419
0.404000000000000248,-7.471388021667243251
0.405000000000000249,-7.339623445101198129
0.406000000000000250,-7.208805343916284691
0.407000000000000250,-7.078973790183498593
0.408000000000000251,-6.950167598676418201
0.409000000000000252,-6.822424311565482569
0.410000000000000253,-6.695780185535584295
0.411000000000000254,-6.570270181236669949
0.412000000000000255,-6.445927954977117125
0.413000000000000256,-6.322785852570627085
0.414000000000000257,-6.200874905248006108
0.415000000000000258,-6.080224827546360622
0.416000000000000258,-5.960864017089163802
0.417000000000000259,-5.842819556171805928
0.418000000000000260,-5.726117215068767585
0.419000000000000261,-5.610781456979578863
0.420000000000000262,-5.496835444532544912
0.421000000000000263,-5.384301047766513193
0.422000000000000264,-5.273198853512654161
0.423000000000000265,-5.163548176099801879
0.424000000000000266,-5.055367069308831063
0.425000000000000266,-4.948672339502973472
0.426000000000000267,-4.843479559862993611
0.427000000000000268,-4.739803085657923631
0.428000000000000269,-4.637656070483816784
0.429000000000000270,-4.537050483404952317
0.430000000000000271,-4.437997126933677094
0.431000000000000272,-4.340505655787056938
0.432000000000000273,-4.244584596360366113
0.433000000000000274,-4.150241366859289016
0.434000000000000274,-4.057482298034651436
0.435000000000000275,-3.966312654465350640
0.436000000000000276,-3.876736656337070208
0.437000000000000277,-3.788757501666053962
0.438000000000000278,-3.702377388919324552
0.439000000000000279,-3.617597539984325206
0.440000000000000280,-3.534418223442824747
0.441000000000000281,-3.452838778105745909
0.442000000000000282,-3.372857636767327083
0.443000000000000282,-3.294472350138634820
0.444000000000000283,-3.217679610922310474
0.445000000000000284,-3.142475277991992666
0.446000000000000285,-3.068854400641409352
0.447000000000000286,-2.996811242870061953
0.448000000000000287,-2.926339307673463619
0.449000000000000288,-2.857431361307998241
0.450000000000000289,-2.790079457501514426
0.451000000000000290,-2.724274961582485943
0.452000000000000290,-2.660008574501865564
0.453000000000000291,-2.597270356723251350
0.454000000000000292,-2.536049751958252330
0.455000000000000293,-2.476335610725251879
0.456000000000000294,-2.418116213711175355
0.457000000000000295,-2.361379294916864602
0.458000000000000296,-2.306112064568183406
0.459000000000000297,-2.252301231775821755
0.460000000000000298,-2.199933026928155844
0.461000000000000298,-2.148993223802416086
0.462000000000000299,-2.099467161380666358
0.463000000000000300,-2.051339765357911293
0.464000000000000301,-2.004595569330794191
0.465000000000000302,-1.959218735656260035
0.466000000000000303,-1.915193075970416103
0.467000000000000304,-1.872502071358706832
0.468000000000000305,-1.831128892169550326
0.469000000000000306,-1.791056417464093498
0.470000000000000306,-1.752267254095787763
0.471000000000000307,-1.714743755414085857
0.472000000000000308,-1.678468039587408978
0.473000000000000309,-1.643422007541031515
0.474000000000000310,-1.609587360506417708
0.475000000000000311,-1.576945617178992398
0.476000000000000312,-1.545478130482099033
0.477000000000000313,-1.515166103935204234
0.478000000000000314,-1.485990607625331084
0.479000000000000314,-1.457932593780895569
0.480000000000000315,-1.430972911947765436
0.481000000000000316,-1.405092323767847429
0.482000000000000317,-1.380271517360883715
0.483000000000000318,-1.356491121310610115
0.484000000000000319,-1.333731718256781162
0.485000000000000320,-1.311973858095067502
0.486000000000000321,-1.291198070786978125
0.487000000000000322,-1.271384878782508832
0.488000000000000322,-1.252514809058391965
0.489000000000000323,-1.234568404775189698
0.490000000000000324,-1.217526236556704999
0.491000000000000325,-1.201368913395514770
0.492000000000000326,-1.186077093188541376
0.493000000000000327,-1.171631492906952898
0.494000000000000328,-1.158012898404805702
0.495000000000000329,-1.145202173871020301
0.496000000000000330,-1.133180270929540434
0.497000000000000330,-1.121928237392566086
0.498000000000000331,-1.111427225672074526
0.499000000000000332,-1.101658500854751699
0.500000000000000333,-1.092603448445794267
0.501000000000000334,-1.084243581787044608
0.502000000000000335,-1.076560549154979674
0.503000000000000336,-1.069536140544310232
0.504000000000000337,-1.063152294142829746
0.505000000000000338,-1.057391102503401292
0.506000000000000338,-1.052234818418894546
0.507000000000000339,-1.047665860505998303
0.508000000000000340,-1.043666818503870886
0.509000000000000341,-1.040220458293537265
0.510000000000000342,-1.037309726644138008
0.511000000000000343,-1.034917755691916019
0.512000000000000344,-1.033027867158065716
0.513000000000000345,-1.031623576311362589
0.514000000000000346,-1.030688595681652497
0.515000000000000346,-1.030206838530154823
0.516000000000000347,-1.030162422082541829
0.517000000000000348,-1.030539670530789875
0.518000000000000349,-1.031323117809643364
0.519000000000000350,-1.032497510153627562
0.520000000000000351,-1.034047808440463623
0.521000000000000352,-1.035959190326592116
0.522000000000000353,-1.038217052180649080
0.523000000000000353,-1.040807010820546941
0.524000000000000354,-1.043714905059768938
0.525000000000000355,-1.046926797068520765
0.526000000000000356,-1.050428973555194601
0.527000000000000357,-1.054207946773630500
0.528000000000000358,-1.058250455361564590
0.529000000000000359,-1.062543465015510780
0.530000000000000360,-1.067074169007437456
0.531000000000000361,-1.071829988548280710
0.532000000000000361,-1.076798573003463044
0.533000000000000362,-1.081967799965396271
0.534000000000000363,-1.087325775187936383
0.535000000000000364,-1.092860832387577474
0.536000000000000365,-1.098561532916240813
0.537000000000000366,-1.104416665310275381
0.538000000000000367,-1.110415244720327932
0.539000000000000368,-1.116546512226559651
0.540000000000000369,-1.122799934043695158
0.541000000000000369,-1.129165200620193321
0.542000000000000370,-1.135632225635887949
0.543000000000000371,-1.142191144902182875
0.544000000000000372,-1.148832315168992313
0.545000000000000373,-1.155546312842346879
0.546000000000000374,-1.162323932616666555
0.547000000000000375,-1.169156186025467337
0.548000000000000376,-1.176034299914325398
0.549000000000000377,-1.182949714839697020
0.550000000000000377,-1.189894083397214031
0.551000000000000378,-1.196859268482964644
0.552000000000000379,-1.203837341491124091
0.553000000000000380,-1.210820580451322126
0.554000000000000381,-1.217801468108963947
0.555000000000000382,-1.224772689951669324
0.556000000000000383,-1.231727132184936568
0.557000000000000384,-1.238657879660009842
0.558000000000000385,-1.245558213756904120
0.559000000000000385,-1.252421610225420867
0.560000000000000386,-1.259241736986902893
0.561000000000000387,-1.266012451899461766
0.562000000000000388,-1.272727800489289463
0.563000000000000389,-1.279382013650540717
0.564000000000000390,-1.285969505316332473
0.565000000000000391,-1.292484870103213002
0.566000000000000392,-1.298922880931428381
0.567000000000000393,-1.305278486623249634
0.568000000000000393,-1.311546809481529241
0.569000000000000394,-1.317723142850643514
0.570000000000000395,-1.323802948661812140
0.571000000000000396,-1.329781854964820598
0.572000000000000397,-1.335655653448059921
0.573000000000000398,-1.341420296948713675
0.574000000000000399,-1.347071896954910475
0.575000000000000400,-1.352606721101573539
0.576000000000000401,-1.358021190661608646
0.577000000000000401,-1.363311878034071167
0.578000000000000402,-1.368475504230876272
0.579000000000000403,-1.373508936363498023
0.580000000000000404,-1.378409185131155734
0.581000000000000405,-1.383173402311862699
0.582000000000000406,-1.387798878257619606
0.583000000000000407,-1.392283039395136868
0.584000000000000408,-1.396623445733212510
0.585000000000000409,-1.400817788378012407
0.586000000000000409,-1.404863887057372640
0.587000000000000410,-1.408759687655200654
0.588000000000000411,-1.412503259757027507
0.589000000000000412,-1.416092794207688854
0.590000000000000413,-1.419526600682108342
0.591000000000000414,-1.422803105270082247
0.592000000000000415,-1.425920848075907355
0.593000000000000416,-1.428878480833719378
0.594000000000000417,-1.431674764539314193
0.595000000000000417,-1.434308567099150666
0.596000000000000418,-1.436778860997328433
0.597000000000000419,-1.439084720981141263
0.598000000000000420,-1.441225321765871481
0.599000000000000421,-1.443199935759431618
0.600000000000000422,-1.445007930807405083
0.601000000000000423,-1.446648767959030524
0.602000000000000424,-1.448121999254623704
0.603000000000000425,-1.449427265534930731
0.604000000000000425,-1.450564294272816301
0.605000000000000426,-1.451532897427738833
0.606000000000000427,-1.452332969323365308
0.607000000000000428,-1.452964484548703750
0.608000000000000429,-1.453427495883066634
0.609000000000000430,-1.453722132245182763
0.610000000000000431,-1.453848596666726500
0.611000000000000432,-1.453807164290521481
0.612000000000000433,-1.453598180393652628
0.613000000000000433,-1.453222058435696296
0.614000000000000434,-1.452679278132245289
0.615000000000000435,-1.451970383553893074
0.616000000000000436,-1.451095981250862588
0.617000000000000437,-1.450056738403318946
0.618000000000000438,-1.448853380997567886
0.619000000000000439,-1.447486692028162825
0.620000000000000440,-1.445957509726016665
0.621000000000000441,-1.444266725812557883
0.622000000000000441,-1.442415283779979962
0.623000000000000442,-1.440404177197597502
0.624000000000000443,-1.438234448044314107
0.625000000000000444,-1.435907185067182290
0.626000000000000445,-1.433423522166062725
0.627000000000000446,-1.430784636804289800
0.628000000000000447,-1.427991748445371689
0.629000000000000448,-1.425046117015579483
0.630000000000000449,-1.421949041392398083
0.631000000000000449,-1.418701857918750031
0.632000000000000450,-1.415305938942876818
0.633000000000000451,-1.411762691383782409
0.634000000000000452,-1.408073555322128412
0.635000000000000453,-1.404240002616413907
0.636000000000000454,-1.400263535544369109
0.637000000000000455,-1.396145685469340370
0.638000000000000456,-1.391888011531593250
0.639000000000000457,-1.387492099364294518
0.640000000000000457,-1.382959559834063601
0.641000000000000458,-1.378292027805882558
0.642000000000000459,-1.373491160932193811
0.643000000000000460,-1.368558638466001787
0.644000000000000461,-1.363496160097769083
0.645000000000000462,-1.358305444815918417
0.646000000000000463,-1.352988229790721864
0.647000000000000464,-1.347546269281380438
0.648000000000000465,-1.341981333566065526
0.649000000000000465,-1.336295207894710124
0.650000000000000466,-1.330489691464312729
0.651000000000000467,-1.324566596416549391
0.652000000000000468,-1.318527746857430127
0.653000000000000469,-1.312374977898784767
0.654000000000000470,-1.306110134721345961
0.655000000000000471,-1.299735071659161800
0.656000000000000472,-1.293251651305124650
0.657000000000000473,-1.286661743637338207
0.658000000000000473,-1.279967225166109390
0.659000000000000474,-1.273169978101293731
0.660000000000000475,-1.266271889539731133
0.661000000000000476,-1.259274850672552182
0.662000000000000477,-1.252180756012075236
0.663000000000000478,-1.244991502638049807
0.664000000000000479,-1.237708989462968923
0.665000000000000480,-1.230335116516231952
0.666000000000000481,-1.222871784246874594
0.667000000000000481,-1.215320892844596434
0.668000000000000482,-1.207684341578851184
0.669000000000000483,-1.199964028155746210
0.670000000000000484,-1.192161848092458287
0.671000000000000485,-1.184279694108940628
0.672000000000000486,-1.176319455536643188
0.673000000000000487,-1.168283017744016439
0.674000000000000488,-1.160172261578495512
0.675000000000000488,-1.151989062824748444
0.676000000000000489,-1.143735291678927180
0.677000000000000490,-1.135412812238642655
0.678000000000000491,-1.127023482008440602
0.679000000000000492,-1.118569151420513164
0.680000000000000493,-1.110051663370377417
0.681000000000000494,-1.101472852767310107
0.682000000000000495,-1.092834546099250570
0.683000000000000496,-1.084138561011959601
0.684000000000000496,-1.075386705902139806
0.685000000000000497,-1.066580779524354927
0.686000000000000498,-1.057722570611398627
0.687000000000000499,-1.048813857507977065
0.688000000000000500,-1.039856407817385531
0.689000000000000501,-1.030851978060996821
0.690000000000000502,-1.021802313350292701
0.691000000000000503,-1.012709147071223725
0.692000000000000504,-1.003574200580652498
0.693000000000000504,-0.994399182914678770
0.694000000000000505,-0.985185790508567139
0.695000000000000506,-0.975935706928120816
0.696000000000000507,-0.966650602612215137
0.697000000000000508,-0.957332134626312281
0.698000000000000509,-0.947981946426731725
0.699000000000000510,-0.938601667635429293
0.700000000000000511,-0.929192913825129807
0.701000000000000512,-0.919757286314534794
0.702000000000000512,-0.910296371973455143
0.703000000000000513,-0.900811743037625234
0.704000000000000514,-0.891304956933005044
0.705000000000000515,-0.881777556109377469
0.706000000000000516,-0.872231067883022737
0.707000000000000517,-0.862667004288286021
0.708000000000000518,-0.853086861937850771
0.709000000000000519,-0.843492121891504021
0.710000000000000520,-0.833884249533218602
0.711000000000000520,-0.824264694456369518
0.712000000000000521,-0.814634890356880303
0.713000000000000522,-0.804996254934138067
0.714000000000000523,-0.795350189799491014
0.715000000000000524,-0.785698080392133846
0.716000000000000525,-0.776041295902249018
0.717000000000000526,-0.766381189201160717
0.718000000000000527,-0.756719096778421529
0.719000000000000528,-0.747056338685576193
0.720000000000000528,-0.737394218486516428
0.721000000000000529,-0.727734023214176684
0.722000000000000530,-0.718077023333514752
0.723000000000000531,-0.708424472710524222
0.724000000000000532,-0.698777608587172971
0.725000000000000533,-0.689137651562121922
0.726000000000000534,-0.679505805577029220
0.727000000000000535,-0.669883257908342911
0.728000000000000536,-0.660271179164391042
0.729000000000000536,-0.650670723287667174
0.730000000000000537,-0.641083027562139640
0.731000000000000538,-0.631509212625446237
0.732000000000000539,-0.621950382485869202
0.733000000000000540,-0.612407624543914619
0.734000000000000541,-0.602882009618387560
0.735000000000000542,-0.593374591976840504
0.736000000000000543,-0.583886409370246939
0.737000000000000544,-0.574418483071774233
0.738000000000000544,-0.564971817919569852
0.739000000000000545,-0.555547402363378851
0.740000000000000546,-0.546146208514936227
0.741000000000000547,-0.536769192201970169
0.742000000000000548,-0.527417293025729927
0.743000000000000549,-0.518091434421913299
0.744000000000000550,-0.508792523724874934
0.745000000000000551,-0.499521452235045849
0.746000000000000552,-0.490279095289388622
0.747000000000000552,-0.481066312334874069
0.748000000000000553,-0.471883947004785587
0.749000000000000554,-0.462732827197815388
0.750000000000000555,-0.453613765159831428
0.751000000000000556,-0.444527557568213272
0.752000000000000557,-0.435474985618667432
0.753000000000000558,-0.426456815114440613
0.754000000000000559,-0.417473796557819798
0.755000000000000560,-0.408526665243845621
0.756000000000000560,-0.399616141356139820
0.757000000000000561,-0.390742930064781280
0.758000000000000562,-0.381907721626107588
0.759000000000000563,-0.373111191484426175
0.760000000000000564,-0.364354000375470999
0.761000000000000565,-0.355636794431603398
0.762000000000000566,-0.346960205288622148
0.763000000000000567,-0.338324850194162530
0.764000000000000568,-0.329731332117539466
0.765000000000000568,-0.321180239861043770
0.766000000000000569,-0.312672148172556175
0.767000000000000570,-0.304207617859446167
0.768000000000000571,-0.295787195903663536
0.769000000000000572,-0.287411415577997320
0.770000000000000573,-0.279080796563384470
0.771000000000000574,-0.270795845067244467
0.772000000000000575,-0.262557053942771179
0.773000000000000576,-0.254364902809098070
0.774000000000000576,-0.246219858172322503
0.775000000000000577,-0.238122373547294597
0.776000000000000578,-0.230072889580107409
0.777000000000000579,-0.222071834171304883
0.778000000000000580,-0.214119622599643789
0.779000000000000581,-0.206216657646462631
0.780000000000000582,-0.198363329720527448
0.781000000000000583,-0.190560016983377822
0.782000000000000584,-0.182807085475043624
0.783000000000000584,-0.175104889240161848
0.784000000000000585,-0.167453770454402101
0.785000000000000586,-0.159854059551161221
0.786000000000000587,-0.152306075348511677
0.787000000000000588,-0.144810125176321580
0.788000000000000589,-0.137366505003530870
0.789000000000000590,-0.129975499565548935
0.790000000000000591,-0.122637382491701225
0.791000000000000592,-0.115352416432738941
0.792000000000000592,-0.108120853188313104
0.793000000000000593,-0.100942933834438933
0.794000000000000594,-0.093818888850867560
0.795000000000000595,-0.086748938248356985
0.796000000000000596,-0.079733291695800651
0.797000000000000597,-0.072772148647195084
0.798000000000000598,-0.065865698468384096
0.799000000000000599,-0.059014120563587583
0.800000000000000600,-0.052217584501661266
0.801000000000000600,-0.045476250142068506
0.802000000000000601,-0.038790267760528817
0.803000000000000602,-0.032159778174332347
0.804000000000000603,-0.025584912867279187
0.805000000000000604,-0.019065794114217445
0.806000000000000605,-0.012602535105175092
0.807000000000000606,-0.006195240069050155
0.808000000000000607,0.000155995603187209
0.809000000000000608,0.006451085235742801
0.810000000000000608,0.012689950745777324
0.811000000000000609,0.018872522521708547
0.812000000000000610,0.024998739302057846
0.813000000000000611,0.031068548054863376
0.814000000000000612,0.037081903857678587
0.815000000000000613,0.043038769778160943
0.816000000000000614,0.048939116755307099
0.817000000000000615,0.054782923481290949
0.818000000000000616,0.060570176283963953
0.819000000000000616,0.066300869010030877
0.820000000000000617,0.071975002908892347
0.821000000000000618,0.077592586517191503
0.822000000000000619,0.083153635544044577
0.823000000000000620,0.088658172757022549
0.824000000000000621,0.094106227868843456
0.825000000000000622,0.099497837424813190
0.826000000000000623,0.104833044691023364
0.827000000000000624,0.110111899543304317
0.828000000000000624,0.115334458356964209
0.829000000000000625,0.120500783897312044
0.830000000000000626,0.125610945210962471
0.831000000000000627,0.130665017517956339
0.832000000000000628,0.135663082104676092
0.833000000000000629,0.140605226217601992
0.834000000000000630,0.145491542957869868
0.835000000000000631,0.150322131176675061
0.836000000000000631,0.155097095371507454
0.837000000000000632,0.159816545583236463
0.838000000000000633,0.164480597294052677
0.839000000000000634,0.169089371326239302
0.840000000000000635,0.173642993741834867
0.841000000000000636,0.178141595743148806
0.842000000000000637,0.182585313574126717
0.843000000000000638,0.186974288422632029
0.844000000000000639,0.191308666323555421
0.845000000000000639,0.195588598062839986
0.846000000000000640,0.199814239082371226
0.847000000000000641,0.203985749385756365
0.848000000000000642,0.208103293444984905
0.849000000000000643,0.212167040107996169
0.850000000000000644,0.216177162507104503
0.851000000000000645,0.220133837968358753
0.852000000000000646,0.224037247921754640
0.853000000000000647,0.227887577812363296
0.854000000000000647,0.231685017012350725
0.855000000000000648,0.235429758733889827
0.856000000000000649,0.239121999942963070
0.857000000000000650,0.242761941274062254
0.858000000000000651,0.246349786945790822
0.859000000000000652,0.249885744677341037
0.860000000000000653,0.253370025605880345
0.861000000000000654,0.256802844204821634
0.862000000000000655,0.260184418202974554
0.863000000000000655,0.263514968504609759
0.864000000000000656,0.266794719110383050
0.865000000000000657,0.270023897039154803
0.866000000000000658,0.273202732250701907
0.867000000000000659,0.276331457569288952
0.868000000000000660,0.279410308608142199
0.869000000000000661,0.282439523694772709
0.870000000000000662,0.285419343797196745
0.871000000000000663,0.288350012451007331
0.872000000000000663,0.291231775687320282
0.873000000000000664,0.294064881961588698
0.874000000000000665,0.296849582083262564
0.875000000000000666,0.299586129146330260
0.876000000000000667,0.302274778460676852
0.877000000000000668,0.304915787484330403
0.878000000000000669,0.307509415756526183
0.879000000000000670,0.310055924831626917
0.880000000000000671,0.312555578213872809
0.881000000000000671,0.315008641292967850
0.882000000000000672,0.317415381280500120
0.883000000000000673,0.319776067147175991
0.884000000000000674,0.322090969560884233
0.885000000000000675,0.324360360825573402
0.886000000000000676,0.326584514820934202
0.887000000000000677,0.328763706942892309
0.888000000000000678,0.330898214044916650
0.889000000000000679,0.332988314380091688
0.890000000000000679,0.335034287544016596
0.891000000000000680,0.337036414418461050
0.892000000000000681,0.338994977115825713
0.893000000000000682,0.340910258924368215
0.894000000000000683,0.342782544254200294
0.895000000000000684,0.344612118584049942
0.896000000000000685,0.346399268408788763
0.897000000000000686,0.348144281187711624
0.898000000000000687,0.349847445293560266
0.899000000000000687,0.351509049962303532
0.900000000000000688,0.353129385243647786
0.901000000000000689,0.354708741952280082
0.902000000000000690,0.356247411619838861
0.903000000000000691,0.357745686447605959
0.904000000000000692,0.359203859259925984
0.905000000000000693,0.360622223458314406
0.906000000000000694,0.362001072976292970
0.907000000000000695,0.363340702234908219
0.908000000000000695,0.364641406098943244
0.909000000000000696,0.365903479833831591
0.910000000000000697,0.367127219063234922
0.911000000000000698,0.368312919727310450
0.912000000000000699,0.369460878041637408
0.913000000000000700,0.370571390456805372
0.914000000000000701,0.371644753618681822
0.915000000000000702,0.372681264329306206
0.916000000000000703,0.373681219508439078
0.917000000000000703,0.374644916155757457
0.918000000000000704,0.375572651313681116
0.919000000000000705,0.376464722030823429
0.920000000000000706,0.377321425326067328
0.921000000000000707,0.378143058153255940
0.922000000000000708,0.378929917366506275
0.923000000000000709,0.379682299686102509
0.924000000000000710,0.380400501665015656
0.925000000000000711,0.381084819655992280
0.926000000000000711,0.381735549779253724
0.927000000000000712,0.382352987890753782
0.928000000000000713,0.382937429551028108
0.929000000000000714,0.383489169994601642
0.930000000000000715,0.384008504099972503
0.931000000000000716,0.384495726360143841
0.932000000000000717,0.384951130853699031
0.933000000000000718,0.385375011216452956
0.934000000000000719,0.385767660613609675
0.935000000000000719,0.386129371712476688
0.936000000000000720,0.386460436655693795
0.937000000000000721,0.386761147035002306
0.938000000000000722,0.387031793865511287
0.939000000000000723,0.387272667560490669
0.940000000000000724,0.387484057906664736
0.941000000000000725,0.387666254040004210
0.942000000000000726,0.387819544422017937
0.943000000000000727,0.387944216816526632
0.944000000000000727,0.388040558266929458
0.945000000000000728,0.388108855073937775
0.946000000000000729,0.388149392773791901
0.947000000000000730,0.388162456116939114
0.948000000000000731,0.388148329047171725
0.949000000000000732,0.388107294681221349
0.950000000000000733,0.388039635288817353
0.951000000000000734,0.387945632273161978
0.952000000000000735,0.387825566151875356
0.953000000000000735,0.387679716538360086
0.954000000000000736,0.387508362123594519
0.955000000000000737,0.387311780658354698
0.956000000000000738,0.387090248935852643
0.957000000000000739,0.386844042774784902
0.958000000000000740,0.386573437002807607
0.959000000000000741,0.386278705440383896
0.960000000000000742,0.385960120885053326
0.961000000000000743,0.385617955096096254
0.962000000000000743,0.385252478779564755
0.963000000000000744,0.384863961573719437
0.964000000000000745,0.384452672034828802
0.965000000000000746,0.384018877623350241
0.966000000000000747,0.383562844690483462
0.967000000000000748,0.383084838465071909
0.968000000000000749,0.382585123040879160
0.969000000000000750,0.382063961364210780
0.970000000000000751,0.381521615221887045
0.971000000000000751,0.380958345229559070
0.972000000000000752,0.380374410820376596
0.973000000000000753,0.379770070233962642
0.974000000000000754,0.379145580505756141
0.975000000000000755,0.378501197456647842
0.976000000000000756,0.377837175682960602
0.977000000000000757,0.377153768546729828
0.978000000000000758,0.376451228166317042
0.979000000000000759,0.375729805407303608
0.980000000000000759,0.374989749873717026
0.981000000000000760,0.374231309899542008
0.982000000000000761,0.373454732540520251
0.983000000000000762,0.372660263566258698
0.984000000000000763,0.371848147452616073
0.985000000000000764,0.371018627374362697
0.986000000000000765,0.370171945198139229
0.987000000000000766,0.369308341475671653
0.988000000000000766,0.368428055437267143
0.989000000000000767,0.367531324985562680
0.990000000000000768,0.366618386689564868
0.991000000000000769,0.365689475778910034
0.992000000000000770,0.364744826138408418
0.993000000000000771,0.363784670302825186
0.994000000000000772,0.362809239451911014
0.995000000000000773,0.361818763405674593
0.996000000000000774,0.360813470619900545
0.997000000000000774,0.359793588181890667
0.998000000000000775,0.358759341806451304
0.999000000000000776,0.357710955832091893
1.000000000000000666,0.356648653217468747
1.001000000000000778,0.355572655538027083
1.002000000000000668,0.354483182982879230
1.003000000000000780,0.353380454351890583
1.004000000000000670,0.352264687052962433
1.005000000000000782,0.351136097099545796
1.006000000000000671,0.349994899108338198
1.007000000000000783,0.348841306297195619
1.008000000000000673,0.347675530483229855
1.009000000000000785,0.346497782081099215
1.010000000000000675,0.345308270101507497
1.011000000000000787,0.344107202149861902
1.012000000000000677,0.342894784425133825
1.013000000000000789,0.341671221718903240
1.014000000000000679,0.340436717414558276
1.015000000000000790,0.339191473486697981
1.016000000000000680,0.337935690500678898
1.017000000000000792,0.336669567612362219
1.018000000000000682,0.335393302567980445
1.019000000000000794,0.334107091704220316
1.020000000000000684,0.332811129948419659
1.021000000000000796,0.331505610818945695
1.022000000000000686,0.330190726425725556
1.023000000000000798,0.328866667470910978
1.024000000000000687,0.327533623249717742
1.025000000000000799,0.326191781651380019
1.026000000000000689,0.324841329160279746
1.027000000000000801,0.323482450857181691
1.028000000000000691,0.322115330420639390
1.029000000000000803,0.320740150128504764
1.030000000000000693,0.319357090859599568
1.031000000000000805,0.317966332095489468
1.032000000000000695,0.316568051922406390
1.033000000000000806,0.315162427033277404
1.034000000000000696,0.313749632729886985
1.035000000000000808,0.312329842925163914
1.036000000000000698,0.310903230145566978
1.037000000000000810,0.309469965533596680
1.038000000000000700,0.308030218850429638
1.039000000000000812,0.306584158478636626
1.040000000000000702,0.305131951425035797
1.041000000000000814,0.303673763323628221
1.042000000000000703,0.302209758438664933
1.043000000000000815,0.300740099667778815
1.044000000000000705,0.299264948545248433
1.045000000000000817,0.297784465245334196
1.046000000000000707,0.296298808585729101
1.047000000000000819,0.294808136031080692
1.048000000000000709,0.293312603696639251
1.049000000000000821,0.291812366351934582
1.050000000000000711,0.290307577424608998
1.051000000000000822,0.288798389004276845
1.052000000000000712,0.287284951846502712
1.053000000000000824,0.285767415376849576
1.054000000000000714,0.284245927694990852
1.055000000000000826,0.282720635578928348
1.056000000000000716,0.281191684489252913
1.057000000000000828,0.279659218573506618
1.058000000000000718,0.278123380670600384
1.059000000000000830,0.276584312315298508
1.060000000000000719,0.275042153742778184
1.061000000000000831,0.273497043893267622
1.062000000000000721,0.271949120416709322
1.063000000000000833,0.270398519677526816
1.064000000000000723,0.268845376759435373
1.065000000000000835,0.267289825470311437
1.066000000000000725,0.265731998347112974
1.067000000000000837,0.264172026660878134
1.068000000000000727,0.262610040421748514
1.069000000000000838,0.261046168384073463
1.070000000000000728,0.259480538051549192
1.071000000000000840,0.257913275682405962
1.072000000000000730,0.256344506294659880
1.073000000000000842,0.254774353671389453
1.074000000000000732,0.253202940366081597
1.075000000000000844,0.251630387707996395
1.076000000000000734,0.250056815807600863
1.077000000000000846,0.248482343562022034
1.078000000000000735,0.246907088660550611
1.079000000000000847,0.245331167590180449
1.080000000000000737,0.243754695641189040
1.081000000000000849,0.242177786912752907
1.082000000000000739,0.240600554318588122
1.083000000000000851,0.239023109592640726
1.084000000000000741,0.237445563294793549
1.085000000000000853,0.235868024816619254
1.086000000000000743,0.234290602387148772
1.087000000000000854,0.232713403078677550
1.088000000000000744,0.231136532812595913
1.089000000000000856,0.229560096365251765
1.090000000000000746,0.227984197373821779
1.091000000000000858,0.226408938342228805
1.092000000000000748,0.224834420647068101
1.093000000000000860,0.223260744543561568
1.094000000000000750,0.221688009171519512
1.095000000000000862,0.220116312561351279
1.096000000000000751,0.218545751640062930
1.097000000000000863,0.216976422237289496
1.098000000000000753,0.215408419091343617
1.099000000000000865,0.213841835855272444
1.100000000000000755,0.212276765102947074
1.101000000000000867,0.210713298335133720
1.102000000000000757,0.209151525985614761
1.103000000000000869,0.207591537427294082
1.104000000000000759,0.206033420978333215
1.105000000000000870,0.204477263908281109
1.106000000000000760,0.202923152444227262
1.107000000000000872,0.201371171776952768
1.108000000000000762,0.199821406067096363
1.109000000000000874,0.198273938451327625
1.110000000000000764,0.196728851048520392
1.111000000000000876,0.195186224965933575
1.112000000000000766,0.193646140305406972
1.113000000000000878,0.192108676169543607
1.114000000000000767,0.190573910667904522
1.115000000000000879,0.189041920923208540
1.116000000000000769,0.187512783077534162
1.117000000000000881,0.185986572298508956
1.118000000000000771,0.184463362785516088
1.119000000000000883,0.182943227775892031
1.120000000000000773,0.181426239551121943
1.121000000000000885,0.179912469443043788
1.122000000000000774,0.178401987840033749
1.123000000000000886,0.176894864193199663
1.124000000000000776,0.175391167022571237
1.125000000000000888,0.173890963923281572
1.126000000000000778,0.172394321571743614
1.127000000000000890,0.170901305731827075
1.128000000000000780,0.169411981261022082
1.129000000000000892,0.167926412116599644
1.130000000000000782,0.166444661361772689
1.131000000000000894,0.164966791171824834
1.132000000000000783,0.163492862840269787
1.133000000000000895,0.162022936784959271
1.134000000000000785,0.160557072554221497
1.135000000000000897,0.159095328832955046
1.136000000000000787,0.157637763448740309
1.137000000000000899,0.156184433377922954
1.138000000000000789,0.154735394751697120
1.139000000000000901,0.153290702862161177
1.140000000000000790,0.151850412168384463
1.141000000000000902,0.150414576302447728
1.142000000000000792,0.148983248075466340
1.143000000000000904,0.147556479483602232
1.144000000000000794,0.146134321714083609
1.145000000000000906,0.144716825151177814
1.146000000000000796,0.143304039382168569
1.147000000000000908,0.141896013203317406
1.148000000000000798,0.140492794625804551
1.149000000000000909,0.139094430881658571
1.150000000000000799,0.137700968429664256
1.151000000000000689,0.136312452961266872
1.152000000000000801,0.134928929406436332
1.153000000000000913,0.133550441939546183
1.154000000000000803,0.132177033985208359
1.155000000000000693,0.130808748224096411
1.156000000000000805,0.129445626598765073
1.157000000000000917,0.128087710319433029
1.158000000000000806,0.126735039869756816
1.159000000000000696,0.125387655012586502
1.160000000000000808,0.124045594795696740
1.161000000000000920,0.122708897557502139
1.162000000000000810,0.121377600932753030
1.163000000000000700,0.120051741858216807
1.164000000000000812,0.118731356578314171
1.165000000000000924,0.117416480650778060
1.166000000000000814,0.116107148952254269
1.167000000000000703,0.114803395683890946
1.168000000000000815,0.113505254376921272
1.169000000000000927,0.112212757898210058
1.170000000000000817,0.110925938455775475
1.171000000000000707,0.109644827604312226
1.172000000000000819,0.108369456250662549
1.173000000000000931,0.107099854659287258
1.174000000000000821,0.105836052457706553
1.175000000000000711,0.104578078641913846
1.176000000000000822,0.103325961581778758
1.177000000000000934,0.102079729026415197
1.178000000000000824,0.100839408109537773
1.179000000000000714,0.099605025354780843
1.180000000000000826,0.098376606681005993
1.181000000000000938,0.097154177407584461
1.182000000000000828,0.095937762259651144
1.183000000000000718,0.094727385373341688
1.184000000000000830,0.093523070300997574
1.185000000000000941,0.092324840016352425
1.186000000000000831,0.091132716919692255
1.187000000000000721,0.089946722842997609
1.188000000000000833,0.088766879055049264
1.189000000000000945,0.087593206266520646
1.190000000000000835,0.086425724635039641
1.191000000000000725,0.085264453770233450
1.192000000000000837,0.084109412738728989
1.193000000000000949,0.082960620069161314
1.194000000000000838,0.081818093757120555
1.195000000000000728,0.080681851270103924
1.196000000000000840,0.079551909552423583
1.197000000000000952,0.078428285030097772
1.198000000000000842,0.077310993615719178
1.199000000000000732,0.076200050713281703
1.200000000000000844,0.075095471223013993
1.201000000000000956,0.073997269546144176
1.202000000000000846,0.072905459589686500
1.203000000000000735,0.071820054771155092
1.204000000000000847,0.070741068023294759
1.205000000000000959,0.069668511798757743
1.206000000000000849,0.068602398074766785
1.207000000000000739,0.067542738357748627
1.208000000000000851,0.066489543687946892
1.209000000000000963,0.065442824643997949
1.210000000000000853,0.064402591347498470
1.211000000000000743,0.063368853467530281
1.212000000000000854,0.062341620225171000
1.213000000000000966,0.061320900397970134
1.214000000000000856,0.060306702324408247
1.215000000000000746,0.059299033908325784
1.216000000000000858,0.058297902623314635
1.217000000000000970,0.057303315517117495
1.218000000000000860,0.056315279215960266
1.219000000000000750,0.055333799928881641
1.220000000000000862,0.054358883452039729
1.221000000000000973,0.053390535172978607
1.222000000000000863,0.052428760074881252
1.223000000000000753,0.051473562740788258
1.224000000000000865,0.050524947357795856
1.225000000000000977,0.049582917721228074
1.226000000000000867,0.048647477238778804
1.227000000000000757,0.047718628934631621
1.228000000000000869,0.046796375453561322
1.229000000000000981,0.045880719064986926
1.230000000000000870,0.044971661667026021
1.231000000000000760,0.044069204790505925
1.232000000000000872,0.043173349602957857
1.233000000000000984,0.042284096912584418
1.234000000000000874,0.041401447172185989
1.235000000000000764,0.040525400483098772
1.236000000000000876,0.039655956599060044
1.237000000000000988,0.038793114930090682
1.238000000000000878,0.037936874546321532
1.239000000000000767,0.037087234181810758
1.240000000000000879,0.036244192238330683
1.241000000000000991,0.035407746789136739
1.242000000000000881,0.034577895582695098
1.243000000000000771,0.033754636046397821
1.244000000000000883,0.032937965290260586
1.245000000000000995,0.032127880110571501
1.246000000000000885,0.031324376993533833
1.247000000000000774,0.030527452118879160
1.248000000000000886,0.029737101363456704
1.249000000000000998,0.028953320304795471
1.250000000000000888,0.028176104224637465
1.251000000000000778,0.027405448112462299
1.252000000000000890,0.026641346668963610
1.253000000000001002,0.025883794309529549
1.254000000000000892,0.025132785167669008
1.255000000000000782,0.024388313098433471
1.256000000000000894,0.023650371681809786
1.257000000000001005,0.022918954226085843
1.258000000000000895,0.022194053771193857
1.259000000000000785,0.021475663092038320
1.260000000000000897,0.020763774701773242
1.261000000000001009,0.020058380855094805
1.262000000000000899,0.019359473551474309
1.263000000000000789,0.018667044538392352
1.264000000000000901,0.017981085314527200
1.265000000000001013,0.017301587132945325
1.266000000000000902,0.016628541004249715
1.267000000000000792,0.015961937699703811
1.268000000000000904,0.015301767754349296
1.269000000000001016,0.014648021470078470
1.270000000000000906,0.014000688918707435
1.271000000000000796,0.013359759944999536
1.272000000000000908,0.012725224169691615
1.273000000000001020,0.012097070992476816
1.274000000000000909,0.011475289594983005
1.275000000000000799,0.010859868943709572
1.276000000000000911,0.010250797792951905
1.277000000000001023,0.009648064687712499
1.278000000000000913,0.009051657966563757
1.279000000000000803,0.008461565764521405
1.280000000000000915,0.007877776015860804
1.281000000000001027,0.007300276456945530
1.282000000000000917,0.006729054629005094
1.283000000000000806,0.006164097880909836
1.284000000000000918,0.005605393371913706
1.285000000000001030,0.005052928074380363
1.286000000000000920,0.004506688776479820
1.287000000000000810,0.003966662084883397
1.288000000000000922,0.003432834427405680
1.289000000000001034,0.002905192055657782
1.290000000000000924,0.002383721047656307
1.291000000000000814,0.001868407310418030
1.292000000000000925,0.001359236582543732
1.293000000000001037,0.000856194436760073
1.294000000000000927,0.000359266282464238
1.295000000000000817,-0.000131562631779650
1.296000000000000929,-0.000616307215727972
1.297000000000001041,-0.001094982535001336
1.298000000000000931,-0.001567603808635959
1.299000000000000821,-0.002034186406642835
1.300000000000000933,-0.002494745847605379
1.301000000000001044,-0.002949297796289704
1.302000000000000934,-0.003397858061270480
1.303000000000000824,-0.003840442592584407
1.304000000000000936,-0.004277067479399469
1.305000000000001048,-0.004707748947709364
1.306000000000000938,-0.005132503358038394
1.307000000000000828,-0.005551347203168133
1.308000000000000940,-0.005964297105890687
1.309000000000001052,-0.006371369816778875
1.310000000000000941,-0.006772582211970453
1.311000000000000831,-0.007167951290968852
1.312000000000000943,-0.007557494174474466
1.313000000000001055,-0.007941228102234934
1.314000000000000945,-0.008319170430898561
1.315000000000000835,-0.008691338631896693
1.316000000000000947,-0.009057750289348994
1.317000000000001059,-0.009418423097982541
1.318000000000000949,-0.009773374861063914
1.319000000000000838,-0.010122623488360039
1.320000000000000950,-0.010466186994111453
1.321000000000001062,-0.010804083495019452
1.322000000000000952,-0.011136331208262082
1.323000000000000842,-0.011462948449521492
1.324000000000000954,-0.011783953631026984
1.325000000000001066,-0.012099365259615930
1.326000000000000956,-0.012409201934825118
1.327000000000000846,-0.012713482346977948
1.328000000000000957,-0.013012225275305416
1.329000000000001069,-0.013305449586077203
1.330000000000000959,-0.013593174230759680
1.331000000000000849,-0.013875418244170185
1.332000000000000961,-0.014152200742672243
1.333000000000001073,-0.014423540922371424
1.334000000000000963,-0.014689458057335975
1.335000000000000853,-0.014949971497827296
1.336000000000000965,-0.015205100668559762
1.337000000000001076,-0.015454865066957086
1.338000000000000966,-0.015699284261443368
1.339000000000000856,-0.015938377889748275
1.340000000000000968,-0.016172165657207284
1.341000000000001080,-0.016400667335111356
1.342000000000000970,-0.016623902759045881
1.343000000000000860,-0.016841891827255595
1.344000000000000972,-0.017054654499027381
1.345000000000001084,-0.017262210793090531
1.346000000000000973,-0.017464580786012995
1.347000000000000863,-0.017661784610643688
1.348000000000000975,-0.017853842454545223
1.349000000000001087,-0.018040774558457089
1.350000000000000977,-0.018222601214761332
1.351000000000000867,-0.018399342765978714
1.352000000000000979,-0.018571019603263288
1.353000000000001091,-0.018737652164922122
1.354000000000000981,-0.018899260934952884
1.355000000000000870,-0.019055866441578636
1.356000000000000982,-0.019207489255823284
1.357000000000001094,-0.019354149990077358
1.358000000000000984,-0.019495869296687552
1.359000000000000874,-0.019632667866571935
1.360000000000000986,-0.019764566427825335
1.361000000000001098,-0.019891585744364629
1.362000000000000988,-0.020013746614558060
1.363000000000000878,-0.020131069869905038
1.364000000000000989,-0.020243576373704410
1.365000000000001101,-0.020351287019728347
1.366000000000000991,-0.020454222730946645
1.367000000000000881,-0.020552404458225045
1.368000000000000993,-0.020645853179062944
1.369000000000001105,-0.020734589896328742
1.370000000000000995,-0.020818635637018142
1.371000000000000885,-0.020898011451026599
1.372000000000000997,-0.020972738409921705
1.373000000000001108,-0.021042837605749549
1.374000000000000998,-0.021108330149820016
1.375000000000000888,-0.021169237171557657
1.376000000000001000,-0.021225579817306016
1.377000000000001112,-0.021277379249191826
1.378000000000001002,-0.021324656643969528
1.379000000000000892,-0.021367433191903130
1.380000000000001004,-0.021405730095635900
1.381000000000001116,-0.021439568569098576
1.382000000000001005,-0.021468969836403860
1.383000000000000895,-0.021493955130771025
1.384000000000001007,-0.021514545693461350
1.385000000000001119,-0.021530762772710883
1.386000000000001009,-0.021542627622691879
1.387000000000000899,-0.021550161502472215
1.388000000000001011,-0.021553385675007718
1.389000000000001123,-0.021552321406110436
1.390000000000001013,-0.021546989963468682
1.391000000000000902,-0.021537412615643285
1.392000000000001014,-0.021523610631105718
1.393000000000001126,-0.021505605277261270
1.394000000000001016,-0.021483417819500101
1.395000000000000906,-0.021457069520253287
1.396000000000001018,-0.021426581638057086
1.397000000000001130,-0.021391975426637493
1.398000000000001020,-0.021353272133996421
1.399000000000000909,-0.021310493001507311
1.400000000000001021,-0.021263659263033967
1.401000000000001133,-0.021212792144044708
1.402000000000001023,-0.021157912860749768
1.403000000000000913,-0.021099042619237746
1.404000000000001025,-0.021036202614626440
1.405000000000001137,-0.020969414030238116
1.406000000000001027,-0.020898698036751529
1.407000000000000917,-0.020824075791407402
1.408000000000001029,-0.020745568437177602
1.409000000000001140,-0.020663197101986906
1.410000000000001030,-0.020576982897915808
1.411000000000000920,-0.020486946920423237
1.412000000000001032,-0.020393110247575747
1.413000000000001144,-0.020295493939297728
1.414000000000001034,-0.020194119036615565
1.415000000000000924,-0.020089006560911404
1.416000000000001036,-0.019980177513206274
1.417000000000001148,-0.019867652873431903
1.418000000000001037,-0.019751453599715741
1.419000000000000927,-0.019631600627684515
1.420000000000001039,-0.019508114869761142
1.421000000000001151,-0.019381017214494228
1.422000000000001041,-0.019250328525866438
1.423000000000000931,-0.019116069642638116
1.424000000000001043,-0.018978261377681199
1.425000000000001155,-0.018836924517338444
1.426000000000001044,-0.018692079820771652
1.427000000000000934,-0.018543748019341867
1.428000000000001046,-0.018391949815973262
1.429000000000001158,-0.018236705884542834
1.430000000000001048,-0.018078036869271140
1.431000000000000938,-0.017915963384129187
1.432000000000001050,-0.017750506012240486
1.433000000000001162,-0.017581685305301166
1.434000000000001052,-0.017409521783003586
1.435000000000000941,-0.017234035932472674
1.436000000000001053,-0.017055248207707790
1.437000000000001165,-0.016873179029022745
1.438000000000001055,-0.016687848782518715
1.439000000000000945,-0.016499277819534117
1.440000000000001057,-0.016307486456124561
1.441000000000001169,-0.016112494972536612
1.442000000000001059,-0.015914323612702407
1.443000000000000949,-0.015712992583734313
1.444000000000001060,-0.015508522055419693
1.445000000000001172,-0.015300932159735391
1.446000000000001062,-0.015090242990369337
1.447000000000000952,-0.014876474602231482
1.448000000000001064,-0.014659647010998303
1.449000000000001176,-0.014439780192648754
1.450000000000001066,-0.014216894082998926
1.451000000000000956,-0.013991008577268250
1.452000000000001068,-0.013762143529631000
1.453000000000001180,-0.013530318752784473
1.454000000000001069,-0.013295554017520583
1.455000000000000959,-0.013057869052307375
1.456000000000001071,-0.012817283542869037
1.457000000000001183,-0.012573817131793336
1.458000000000001073,-0.012327489418112719
1.459000000000000963,-0.012078319956922875
1.460000000000001075,-0.011826328258989048
1.461000000000001187,-0.011571533790366930
1.462000000000001076,-0.011313955972029830
1.463000000000000966,-0.011053614179492816
1.464000000000001078,-0.010790527742454356
1.465000000000001190,-0.010524715944449935
1.466000000000001080,-0.010256198022473084
1.467000000000000970,-0.009984993166666001
1.468000000000001082,-0.009711120519958358
1.469000000000001194,-0.009434599177741098
1.470000000000001084,-0.009155448187539222
1.471000000000000973,-0.008873686548691497
1.472000000000001085,-0.008589333212038201
1.473000000000001197,-0.008302407079607488
1.474000000000001087,-0.008012927004313063
1.475000000000000977,-0.007720911789653284
1.476000000000001089,-0.007426380189427972
1.477000000000001201,-0.007129350907440485
1.478000000000001091,-0.006829842597219681
1.479000000000000981,-0.006527873861749800
1.480000000000001092,-0.006223463253186361
1.481000000000001204,-0.005916629272605514
1.482000000000001094,-0.005607390369732154
1.483000000000000984,-0.005295764942691220
1.484000000000001096,-0.004981771337757413
1.485000000000001208,-0.004665427849102386
1.486000000000001098,-0.004346752718567261
1.487000000000000988,-0.004025764135417583
1.488000000000001100,-0.003702480236117345
1.489000000000001211,-0.003376919104102680
1.490000000000001101,-0.003049098769566947
1.491000000000000991,-0.002719037209234008
1.492000000000001103,-0.002386752346161386
1.493000000000001215,-0.002052262049522317
1.494000000000001105,-0.001715584134410301
1.495000000000000995,-0.001376736361641801
1.496000000000001107,-0.001035736437565142
1.497000000000001219,-0.000692602013868950
1.498000000000001108,-0.000347350687405248
1.499000000000000998,0.000000000000000000
