# AlFCC111UCD_TRP-AC
# h[nm],U(h)[kJ/mol]
0.149999999999999994,131.884732557485364168
0.150999999999999995,123.289636795364373256
0.151999999999999996,119.174844435196817471
0.152999999999999997,116.079411304245326164
0.153999999999999998,112.721136630913591148
0.154999999999999999,108.847617377062675814
0.156000000000000000,104.613705284329171263
0.157000000000000001,100.269624565672444305
0.158000000000000002,96.024955165840296445
0.159000000000000002,92.006312104900615623
0.160000000000000003,88.260232642620735533
0.161000000000000004,84.773924037430774092
0.162000000000000005,81.499467932126634651
0.163000000000000006,78.374742618286362017
0.164000000000000007,75.338655377084691622
0.165000000000000008,72.340552496874551025
0.166000000000000009,69.344723555561316175
0.167000000000000010,66.331267107944825057
0.168000000000000010,63.294565530995363645
0.169000000000000011,60.240425584014658966
0.170000000000000012,57.182692590013857625
0.171000000000000013,54.139901701452536997
0.172000000000000014,51.132318931479595392
0.173000000000000015,48.179558049477662962
0.174000000000000016,45.298837140604746310
0.175000000000000017,42.503855490358503744
0.176000000000000018,39.804220291044110525
0.177000000000000018,37.205326015352802926
0.178000000000000019,34.708580357418377105
0.179000000000000020,32.311873664933379757
0.180000000000000021,30.010199210356802269
0.181000000000000022,27.796346018128453181
0.182000000000000023,25.661601788993401385
0.183000000000000024,23.596419049451977656
0.184000000000000025,21.591011937814652555
0.185000000000000026,19.635863424740310990
0.186000000000000026,17.722133003512251292
0.187000000000000027,15.841962956951629593
0.188000000000000028,13.988687348999960136
0.189000000000000029,12.156952123810963684
0.190000000000000030,10.342757390946886176
0.191000000000000031,8.543434410245016153
0.192000000000000032,6.757570232099736174
0.193000000000000033,4.984892642918279826
0.194000000000000034,3.226127225591746139
0.195000000000000034,1.482837152033515737
0.196000000000000035,-0.242745072748379670
0.197000000000000036,-1.947886180862616445
0.198000000000000037,-3.629514775569599117
0.199000000000000038,-5.284373195763832243
0.200000000000000039,-6.909155083277886078
0.201000000000000040,-8.500626291815963853
0.202000000000000041,-10.055727788753369367
0.203000000000000042,-11.571660055050662308
0.204000000000000042,-13.045949187368634625
0.205000000000000043,-14.476495458805544558
0.206000000000000044,-15.861605512816225882
0.207000000000000045,-17.200009663263291060
0.208000000000000046,-18.490865967672959869
0.209000000000000047,-19.733752846243469037
0.210000000000000048,-20.928652051120696598
0.211000000000000049,-22.075923763119089216
0.212000000000000050,-23.176275519424887506
0.213000000000000050,-24.230726567471947419
0.214000000000000051,-25.240569107298529872
0.215000000000000052,-26.207327735977070660
0.216000000000000053,-27.132718250475118538
0.217000000000000054,-28.018606805558743389
0.218000000000000055,-28.866970265900778969
0.219000000000000056,-29.679858440138595199
0.220000000000000057,-30.459358742043995960
0.221000000000000058,-31.207563692186077731
0.222000000000000058,-31.926541553792354478
0.223000000000000059,-32.618310289637825861
0.224000000000000060,-33.284814932966980905
0.225000000000000061,-33.927908384537431630
0.226000000000000062,-34.549335579436522892
0.227000000000000063,-35.150720910715484990
0.228000000000000064,-35.733558751300577683
0.229000000000000065,-36.299206880170359568
0.230000000000000066,-36.848882592456078555
0.231000000000000066,-37.383661254939724472
0.232000000000000067,-37.904477057395084216
0.233000000000000068,-38.412125705380745444
0.234000000000000069,-38.907268800528314046
0.235000000000000070,-39.390439659209974366
0.236000000000000071,-39.862050328915231034
0.237000000000000072,-40.322399572988750549
0.238000000000000073,-40.771681607915752465
0.239000000000000073,-41.209995392502420941
0.240000000000000074,-41.637354284570548657
0.241000000000000075,-42.053695897713744500
0.242000000000000076,-42.458892007864790230
0.243000000000000077,-42.852758376573511612
0.244000000000000078,-43.235064374721545732
0.245000000000000079,-43.605542306682487208
0.246000000000000080,-43.963896350501869392
0.247000000000000081,-44.309811044385135403
0.248000000000000081,-44.642959263543779969
0.249000000000000082,-44.963009644196027637
0.250000000000000111,-45.269633423206116163
0.251000000000000112,-45.562510672459112016
0.252000000000000113,-45.841335916610169932
0.253000000000000114,-46.105823131331163722
0.254000000000000115,-46.355710126643387525
0.255000000000000115,-46.590762326404060900
0.256000000000000116,-46.810775960565415232
0.257000000000000117,-47.015580691496303700
0.258000000000000118,-47.205041699510381648
0.259000000000000119,-47.379061255843865297
0.260000000000000120,-47.537579813730836520
0.261000000000000121,-47.680576649998350547
0.262000000000000122,-47.808070090811426667
0.263000000000000123,-47.920117355896060474
0.264000000000000123,-48.016814055818670681
0.265000000000000124,-48.098293376755364648
0.266000000000000125,-48.164724986699049225
0.267000000000000126,-48.216313696273786604
0.268000000000000127,-48.253297906302137221
0.269000000000000128,-48.275947873042227343
0.270000000000000129,-48.284563820618039642
0.271000000000000130,-48.279473928643930947
0.272000000000000131,-48.261032221423263877
0.273000000000000131,-48.229616383411666902
0.274000000000000132,-48.185625523902487544
0.275000000000000133,-48.129477912139350337
0.276000000000000134,-48.061608702305647967
0.277000000000000135,-47.982467666103261195
0.278000000000000136,-47.892516948926264320
0.279000000000000137,-47.792228863971715214
0.280000000000000138,-47.682083737020221292
0.281000000000000139,-47.562567813072085698
0.282000000000000139,-47.434171234546887774
0.283000000000000140,-47.297386099350276822
0.284000000000000141,-47.152704605786738057
0.285000000000000142,-47.000617290051692976
0.286000000000000143,-46.841611360874118475
0.287000000000000144,-46.676169134799820881
0.288000000000000145,-46.504766574608957796
0.289000000000000146,-46.327871932444104175
0.290000000000000147,-46.145944498388871580
0.291000000000000147,-45.959433454477725434
0.292000000000000148,-45.768776833434081652
0.293000000000000149,-45.574400580820956463
0.294000000000000150,-45.376717718746093055
0.295000000000000151,-45.176127608785797918
0.296000000000000152,-44.973015311376194347
0.297000000000000153,-44.767751038564142618
0.298000000000000154,-44.560689696707200369
0.299000000000000155,-44.352170515462333356
0.300000000000000155,-44.142516759198400678
0.301000000000000156,-43.932035516808710440
0.302000000000000157,-43.721017565781096437
0.303000000000000158,-43.509737306300280579
0.304000000000000159,-43.298452761109594178
0.305000000000000160,-43.087405636841261014
0.306000000000000161,-42.876821442533909590
0.307000000000000162,-42.666909661090976158
0.308000000000000163,-42.457863969489054057
0.309000000000000163,-42.249862503621685050
0.310000000000000164,-42.043068163755606292
0.311000000000000165,-41.837628956683900583
0.312000000000000166,-41.633678370779747979
0.313000000000000167,-41.431335780283944814
0.314000000000000168,-41.230706875297961744
0.315000000000000169,-41.031884114099582916
0.316000000000000170,-40.834947194548881555
0.317000000000000171,-40.639963541506531897
0.318000000000000171,-40.446988807344204986
0.319000000000000172,-40.256067382785190034
0.320000000000000173,-40.067232915472899890
0.321000000000000174,-39.880508833822936765
0.322000000000000175,-39.695908873872909339
0.323000000000000176,-39.513437606998088825
0.324000000000000177,-39.333090966514731690
0.325000000000000178,-39.154856771341101762
0.326000000000000179,-38.978715245032574899
0.327000000000000179,-38.804639528647832947
0.328000000000000180,-38.632596186039776853
0.329000000000000181,-38.462545700297567919
0.330000000000000182,-38.294442960191318548
0.331000000000000183,-38.128237735594552760
0.332000000000000184,-37.963875140973826205
0.333000000000000185,-37.801296086146933817
0.334000000000000186,-37.640437713615838788
0.335000000000000187,-37.481233821880003632
0.336000000000000187,-37.323615274230732552
0.337000000000000188,-37.167510392614786952
0.338000000000000189,-37.012845336240175698
0.339000000000000190,-36.859544464674307562
0.340000000000000191,-36.707530685257538039
0.341000000000000192,-36.556725784724065420
0.342000000000000193,-36.407050744983493473
0.343000000000000194,-36.258426043076298129
0.344000000000000195,-36.110771935368397578
0.345000000000000195,-35.964008726100800573
0.346000000000000196,-35.818057020453629491
0.347000000000000197,-35.672837962325935734
0.348000000000000198,-35.528273457068834773
0.349000000000000199,-35.384286379442940529
0.350000000000000200,-35.240800767100722624
0.351000000000000201,-35.097741999920444300
0.352000000000000202,-34.955036965541822269
0.353000000000000203,-34.812614211473103865
0.354000000000000203,-34.670404084156842828
0.355000000000000204,-34.528338855396071949
0.356000000000000205,-34.386352836554365808
0.357000000000000206,-34.244382480953881043
0.358000000000000207,-34.102366474901415927
0.359000000000000208,-33.960245817779679101
0.360000000000000209,-33.817963891643664454
0.361000000000000210,-33.675466520763862377
0.362000000000000210,-33.532702021558584704
0.363000000000000211,-33.389621243356700120
0.364000000000000212,-33.246177600428715948
0.365000000000000213,-33.102327095721236105
0.366000000000000214,-32.958028336724353835
0.367000000000000215,-32.813242543895846381
0.368000000000000216,-32.667933552059267299
0.369000000000000217,-32.522067805185074008
0.370000000000000218,-32.375614344956190394
0.371000000000000218,-32.228544793509769306
0.372000000000000219,-32.080833330737668518
0.373000000000000220,-31.932456666518572064
0.374000000000000221,-31.783394008243391227
0.375000000000000222,-31.633627023985621207
0.376000000000000223,-31.483139801657024748
0.377000000000000224,-31.331918804477744800
0.378000000000000225,-31.179952823078622259
0.379000000000000226,-31.027232924541927161
0.380000000000000226,-30.873752398675442521
0.381000000000000227,-30.719506701802618664
0.382000000000000228,-30.564493398340630392
0.383000000000000229,-30.408712100426281921
0.384000000000000230,-30.252164405838101402
0.385000000000000231,-30.094853834452095498
0.386000000000000232,-29.936785763456981613
0.387000000000000233,-29.777967361543964842
0.388000000000000234,-29.618407522274974752
0.389000000000000234,-29.458116796823141215
0.390000000000000235,-29.297107326268076122
0.391000000000000236,-29.135392773619162909
0.392000000000000237,-28.972988255729177354
0.393000000000000238,-28.809910275252100575
0.394000000000000239,-28.646176652787751493
0.395000000000000240,-28.481806459348717908
0.396000000000000241,-28.316819949274492529
0.397000000000000242,-28.151238493709985988
0.398000000000000242,-27.985084514757211593
0.399000000000000243,-27.818381420400346116
0.400000000000000244,-27.651153540297247702
0.401000000000000245,-27.483426062522831046
0.402000000000000246,-27.315224971342189519
0.403000000000000247,-27.146576986084902217
0.404000000000000248,-26.977509501185267027
0.405000000000000249,-26.808050527446550149
0.406000000000000250,-26.638228634581746945
0.407000000000000250,-26.468072895077163764
0.408000000000000251,-26.297612829419904301
0.409000000000000252,-26.126878352724997256
0.410000000000000253,-25.955899722792771911
0.411000000000000254,-25.784707489622586962
0.412000000000000255,-25.613332446404477594
0.413000000000000256,-25.441805582005851960
0.414000000000000257,-25.270158034966456739
0.415000000000000258,-25.098421049011243156
0.416000000000000258,-24.926625930086874661
0.417000000000000259,-24.754804004924370275
0.418000000000000260,-24.582986581127517667
0.419000000000000261,-24.411204908783098233
0.420000000000000262,-24.239490143587005377
0.421000000000000263,-24.067873311477200104
0.422000000000000264,-23.896385274762135253
0.423000000000000265,-23.725056699731371879
0.424000000000000266,-23.553918025732858865
0.425000000000000266,-23.382999435699272084
0.426000000000000267,-23.212330828104494884
0.427000000000000268,-23.041941790329389050
0.428000000000000269,-22.871861573414712154
0.429000000000000270,-22.702119068177772476
0.430000000000000271,-22.532742782668019998
0.431000000000000272,-22.363760820935976170
0.432000000000000273,-22.195200863088697218
0.433000000000000274,-22.027090146604468401
0.434000000000000274,-21.859455448878151174
0.435000000000000275,-21.692323070968679843
0.436000000000000276,-21.525718822519102957
0.437000000000000277,-21.359668007819188063
0.438000000000000278,-21.194195412980654680
0.439000000000000279,-21.029325294194372020
0.440000000000000280,-20.865081367038690985
0.441000000000000281,-20.701486796808190149
0.442000000000000282,-20.538564189831980400
0.443000000000000282,-20.376335585750307899
0.444000000000000283,-20.214822450718898494
0.445000000000000284,-20.054045671509975080
0.446000000000000285,-19.894025550479348396
0.447000000000000286,-19.734781801369329912
0.448000000000000287,-19.576333545916757117
0.449000000000000288,-19.418699311236775173
0.450000000000000289,-19.261897027952223027
0.451000000000000290,-19.105944029039619636
0.452000000000000290,-18.950857049362799245
0.453000000000000291,-18.796652225865589259
0.454000000000000292,-18.643345098395613491
0.455000000000000293,-18.490950611131452774
0.456000000000000294,-18.339483114586162316
0.457000000000000295,-18.188956368160415167
0.458000000000000296,-18.039383543219198458
0.459000000000000297,-17.890777226666450872
0.460000000000000298,-17.743149424992537888
0.461000000000000298,-17.596511568770150546
0.462000000000000299,-17.450874517574618494
0.463000000000000300,-17.306248565305196507
0.464000000000000301,-17.162643445884668836
0.465000000000000302,-17.020068339314939010
0.466000000000000303,-16.878531878066986849
0.467000000000000304,-16.738042153784029153
0.468000000000000305,-16.598606724277679803
0.469000000000000306,-16.460232620796844571
0.470000000000000306,-16.322926355550418265
0.471000000000000307,-16.186693929464667008
0.472000000000000308,-16.051540840157578316
0.473000000000000309,-15.917472090112147143
0.474000000000000310,-15.784492195032026274
0.475000000000000311,-15.652605192362653241
0.476000000000000312,-15.521814649962539789
0.477000000000000313,-15.392123674908717135
0.478000000000000314,-15.263534922422129725
0.479000000000000314,-15.136050604898477090
0.480000000000000315,-15.009672501030701497
0.481000000000000316,-14.884401965010178870
0.482000000000000317,-14.760239935793705968
0.483000000000000318,-14.637186946424259659
0.484000000000000319,-14.515243133393667563
0.485000000000000320,-14.394408246036258348
0.486000000000000321,-14.274681655942520919
0.487000000000000322,-14.156062366382645479
0.488000000000000322,-14.038549021730048594
0.489000000000000323,-13.922139916875689636
0.490000000000000324,-13.806833006624094295
0.491000000000000325,-13.692625915062725639
0.492000000000000326,-13.579515944896380475
0.493000000000000327,-13.467500086739320864
0.494000000000000328,-13.356575028357445589
0.495000000000000329,-13.246737163853925523
0.496000000000000330,-13.137982602791527853
0.497000000000000330,-13.030307179245644633
0.498000000000000331,-12.923706460782048211
0.499000000000000332,-12.818175757354069333
0.500000000000000333,-12.713710130113890173
0.501000000000000334,-12.610304400133234282
0.502000000000000335,-12.507953157028845581
0.503000000000000336,-12.406650767488683229
0.504000000000000337,-12.306391383694778696
0.505000000000000338,-12.207168951639150833
0.506000000000000338,-12.108977219329457142
0.507000000000000339,-12.011809744881194462
0.508000000000000340,-11.915659904493656640
0.509000000000000341,-11.820520900307087686
0.510000000000000342,-11.726385768138472443
0.511000000000000343,-11.633247385094048099
0.512000000000000344,-11.541098477056452865
0.513000000000000345,-11.449931626044797639
0.514000000000000346,-11.359739277446303518
0.515000000000000346,-11.270513747117938408
0.516000000000000347,-11.182247228357089952
0.517000000000000348,-11.094931798740340412
0.518000000000000349,-11.008559426829311434
0.519000000000000350,-10.923121978743278504
0.520000000000000351,-10.838611224597828553
0.521000000000000352,-10.755018844809390188
0.522000000000000353,-10.672336436265394966
0.523000000000000353,-10.590555518359947129
0.524000000000000354,-10.509667538895358874
0.525000000000000355,-10.429663879849375263
0.526000000000000356,-10.350535863008738957
0.527000000000000357,-10.272274755469405605
0.528000000000000358,-10.194871775003857550
0.529000000000000359,-10.118318095296377379
0.530000000000000360,-10.042604851046800007
0.531000000000000361,-9.967723142943720305
0.532000000000000361,-9.893664042507957390
0.533000000000000362,-9.820418596807366285
0.534000000000000363,-9.747977833043986351
0.535000000000000364,-9.676332763014649174
0.536000000000000365,-9.605474387446333751
0.537000000000000366,-9.535393700207441370
0.538000000000000367,-9.466081692396313585
0.539000000000000368,-9.397529356308442772
0.540000000000000369,-9.329727689283691561
0.541000000000000369,-9.262667697435032821
0.542000000000000370,-9.196340399260368059
0.543000000000000371,-9.130736829138836441
0.544000000000000372,-9.065848040713351708
0.545000000000000373,-9.001665110160875116
0.546000000000000374,-8.938179139352074642
0.547000000000000375,-8.875381258902056203
0.548000000000000376,-8.813262631113946810
0.549000000000000377,-8.751814452816846668
0.550000000000000377,-8.691027958100036699
0.551000000000000378,-8.630894420945153911
0.552000000000000379,-8.571405157758055893
0.553000000000000380,-8.512551529802179218
0.554000000000000381,-8.454324945535136138
0.555000000000000382,-8.396716862850436058
0.556000000000000383,-8.339718791225914529
0.557000000000000384,-8.283322293780919665
0.558000000000000385,-8.227518989243838732
0.559000000000000385,-8.172300553831915337
0.560000000000000386,-8.117658723044975488
0.561000000000000387,-8.063585293375069796
0.562000000000000388,-8.010072123933621668
0.563000000000000389,-7.957111137997957329
0.564000000000000390,-7.904694324478951373
0.565000000000000391,-7.852813739311581109
0.566000000000000392,-7.801461506770086096
0.567000000000000393,-7.750629820709550977
0.568000000000000393,-7.700310945735518331
0.569000000000000394,-7.650497218303454972
0.570000000000000395,-7.601181047749768993
0.571000000000000396,-7.552354917255915900
0.572000000000000397,-7.504011384747468760
0.573000000000000398,-7.456143083729633858
0.574000000000000399,-7.408742724060955354
0.575000000000000400,-7.361803092666737491
0.576000000000000401,-7.315317054193855029
0.577000000000000401,-7.269277551608512411
0.578000000000000402,-7.223677606738448276
0.579000000000000403,-7.178510320761215091
0.580000000000000404,-7.133768874639983437
0.581000000000000405,-7.089446529508433237
0.582000000000000406,-7.045536627006119268
0.583000000000000407,-7.002032589565845733
0.584000000000000408,-6.958927920654444321
0.585000000000000409,-6.916216204968383074
0.586000000000000409,-6.873891108585569398
0.587000000000000410,-6.831946379074757658
0.588000000000000411,-6.790375845563843882
0.589000000000000412,-6.749173418768447341
0.590000000000000413,-6.708333090981978941
0.591000000000000414,-6.667848936028589080
0.592000000000000415,-6.627715109180149611
0.593000000000000416,-6.587925847038528460
0.594000000000000417,-6.548475467384392346
0.595000000000000417,-6.509358368993742872
0.596000000000000418,-6.470569031423186068
0.597000000000000419,-6.432102014765358255
0.598000000000000420,-6.393951959375313798
0.599000000000000421,-6.356113585569241664
0.600000000000000422,-6.318581693296347446
0.601000000000000423,-6.281351161785163839
0.602000000000000424,-6.244416949165137787
0.603000000000000425,-6.207774092064602733
0.604000000000000425,-6.171417705186111213
0.605000000000000426,-6.135342980860019502
0.606000000000000427,-6.099545188577407906
0.607000000000000428,-6.064019674503003721
0.608000000000000429,-6.028761860969355624
0.609000000000000430,-5.993767245952763112
0.610000000000000431,-5.959031402532135147
0.611000000000000432,-5.924549978331398847
0.612000000000000433,-5.890318694946337530
0.613000000000000433,-5.856333347356724950
0.614000000000000434,-5.822589803324443203
0.615000000000000435,-5.789084002778324134
0.616000000000000436,-5.755811957186539374
0.617000000000000437,-5.722769748917228227
0.618000000000000438,-5.689953530587985142
0.619000000000000439,-5.657359524404979467
0.620000000000000440,-5.624984021492340780
0.621000000000000441,-5.592823381212435052
0.622000000000000441,-5.560874030477672036
0.623000000000000442,-5.529132463054468261
0.624000000000000443,-5.497595238859902977
0.625000000000000444,-5.466258983251742976
0.626000000000000445,-5.435120386312251028
0.627000000000000446,-5.404176202126484085
0.628000000000000447,-5.373423248055464896
0.629000000000000448,-5.342858404004823036
0.630000000000000449,-5.312478611689376962
0.631000000000000449,-5.282280873894099393
0.632000000000000450,-5.252262253732011388
0.633000000000000451,-5.222419873899399434
0.634000000000000452,-5.192750915928761479
0.635000000000000453,-5.163252619440005020
0.636000000000000454,-5.133922281390190356
0.637000000000000455,-5.104757255322307508
0.638000000000000456,-5.075754950613393213
0.639000000000000457,-5.046912831722428550
0.640000000000000457,-5.018228417438310274
0.641000000000000458,-4.989699280128255587
0.642000000000000459,-4.961323044987033803
0.643000000000000460,-4.933097389287198098
0.644000000000000461,-4.905020041630833383
0.645000000000000462,-4.877088781202904677
0.646000000000000463,-4.849301437026618977
0.647000000000000464,-4.821655887221067971
0.648000000000000465,-4.794150058261365643
0.649000000000000465,-4.766781924241543678
0.650000000000000466,-4.739549506140505741
0.651000000000000467,-4.712450871091196092
0.652000000000000468,-4.685484131653240958
0.653000000000000469,-4.658647445089286521
0.654000000000000470,-4.631939012645247544
0.655000000000000471,-4.605357078834592777
0.656000000000000472,-4.578899930726943346
0.657000000000000473,-4.552565897241111159
0.658000000000000473,-4.526353348442754942
0.659000000000000474,-4.500260694846823561
0.660000000000000475,-4.474286386724948272
0.661000000000000476,-4.448428913417886044
0.662000000000000477,-4.422686802653226223
0.663000000000000478,-4.397058619868420060
0.664000000000000479,-4.371542967539328473
0.665000000000000480,-4.346138484514284528
0.666000000000000481,-4.320843845353993018
0.667000000000000481,-4.295657759677083298
0.668000000000000482,-4.270578971511730160
0.669000000000000483,-4.245606258653152665
0.670000000000000484,-4.220738432027266285
0.671000000000000485,-4.195974335060471461
0.672000000000000486,-4.171312843055703823
0.673000000000000487,-4.146752862574784260
0.674000000000000488,-4.122293330827146107
0.675000000000000488,-4.097933215064957224
0.676000000000000489,-4.073671511984821691
0.677000000000000490,-4.049507247135889720
0.678000000000000491,-4.025439474334648438
0.679000000000000492,-4.001467275086278974
0.680000000000000493,-3.977589758012661569
0.681000000000000494,-3.953806058287097080
0.682000000000000495,-3.930115337075677839
0.683000000000000496,-3.906516780985471282
0.684000000000000496,-3.883009601519364473
0.685000000000000497,-3.859593034537739609
0.686000000000000498,-3.836266339726886798
0.687000000000000499,-3.813028800074227398
0.688000000000000500,-3.789879721350275954
0.689000000000000501,-3.766818431597461991
0.690000000000000502,-3.743844280625668652
0.691000000000000503,-3.720956639514601871
0.692000000000000504,-3.698154900122892830
0.693000000000000504,-3.675438474604026062
0.694000000000000505,-3.652806794928921796
0.695000000000000506,-3.630259312415344830
0.696000000000000507,-3.607795497263976525
0.697000000000000508,-3.585414838101188995
0.698000000000000509,-3.563116841528517487
0.699000000000000510,-3.540901031678707511
0.700000000000000511,-3.518766949778499686
0.701000000000000512,-3.496714153717872087
0.702000000000000512,-3.474742217625938601
0.703000000000000513,-3.452850731453322997
0.704000000000000514,-3.431039300561038008
0.705000000000000515,-3.409307545315817922
0.706000000000000516,-3.387655100691861154
0.707000000000000517,-3.366081615878959266
0.708000000000000518,-3.344586753896932496
0.709000000000000519,-3.323170191216405556
0.710000000000000520,-3.301831617385775353
0.711000000000000520,-3.280570734664425281
0.712000000000000521,-3.259387257662075488
0.713000000000000522,-3.238280912984223825
0.714000000000000523,-3.217251438883717007
0.715000000000000524,-3.196298584918217944
0.716000000000000525,-3.175422111613763310
0.717000000000000526,-3.154621790134127135
0.718000000000000527,-3.133897401956086348
0.719000000000000528,-3.113248738550485673
0.720000000000000528,-3.092675601069074354
0.721000000000000529,-3.072177800036963280
0.722000000000000530,-3.051755155050835722
0.723000000000000531,-3.031407494482639908
0.724000000000000532,-3.011134655188866471
0.725000000000000533,-2.990936482225311721
0.726000000000000534,-2.970812828567187758
0.727000000000000535,-2.950763554834681557
0.728000000000000536,-2.930788529023721445
0.729000000000000536,-2.910887626242076642
0.730000000000000537,-2.891060728450584705
0.731000000000000538,-2.871307724209498868
0.732000000000000539,-2.851628508429952635
0.733000000000000540,-2.832022982130389721
0.734000000000000541,-2.812491052197953145
0.735000000000000542,-2.793032631154754419
0.736000000000000543,-2.773647636929024607
0.737000000000000544,-2.754335992630947416
0.738000000000000544,-2.735097626333303111
0.739000000000000545,-2.715932470856670555
0.740000000000000546,-2.696840463559296630
0.741000000000000547,-2.677821546131448294
0.742000000000000548,-2.658875664394288574
0.743000000000000549,-2.640002768103118846
0.744000000000000550,-2.621202810754985624
0.745000000000000551,-2.602475749400627869
0.746000000000000552,-2.583821544460610298
0.747000000000000552,-2.565240159545669307
0.748000000000000553,-2.546731561281163625
0.749000000000000554,-2.528295719135587039
0.750000000000000555,-2.509932605253118787
0.751000000000000556,-2.491642194290067724
0.752000000000000557,-2.473424463255263994
0.753000000000000558,-2.455279391354237450
0.754000000000000559,-2.437206959837210807
0.755000000000000560,-2.419207151850780058
0.756000000000000560,-2.401279952293299935
0.757000000000000561,-2.383425347673833183
0.758000000000000562,-2.365643325974674305
0.759000000000000563,-2.347933876517388718
0.760000000000000564,-2.330296989832271404
0.761000000000000565,-2.312732657531201053
0.762000000000000566,-2.295240872183832437
0.763000000000000567,-2.277821627197086585
0.764000000000000568,-2.260474916697815750
0.765000000000000568,-2.243200735418737768
0.766000000000000569,-2.225999078587399094
0.767000000000000570,-2.208869941818289107
0.768000000000000571,-2.191813321007887616
0.769000000000000572,-2.174829212232802345
0.770000000000000573,-2.157917611650706835
0.771000000000000574,-2.141078515404237770
0.772000000000000575,-2.124311919527661630
0.773000000000000576,-2.107617819856328456
0.774000000000000576,-2.090996211938858096
0.775000000000000577,-2.074447090952010075
0.776000000000000578,-2.057970451618125196
0.777000000000000579,-2.041566288125243211
0.778000000000000580,-2.025234594049658998
0.779000000000000581,-2.008975362281038457
0.780000000000000582,-1.992788584949930497
0.781000000000000583,-1.976674253357715738
0.782000000000000584,-1.960632357908876688
0.783000000000000584,-1.944662888045588289
0.784000000000000585,-1.928765832184595741
0.785000000000000586,-1.912941177656265257
0.786000000000000587,-1.897188910645875692
0.787000000000000588,-1.881509016137013601
0.788000000000000589,-1.865901477857042412
0.789000000000000590,-1.850366278224699013
0.790000000000000591,-1.834903398299629673
0.791000000000000592,-1.819512817733953014
0.792000000000000592,-1.804194514725733445
0.793000000000000593,-1.788948465974350865
0.794000000000000594,-1.773774646637751307
0.795000000000000595,-1.758673030291497907
0.796000000000000596,-1.743643588889597140
0.797000000000000597,-1.728686292727105167
0.798000000000000598,-1.713801110404404415
0.799000000000000599,-1.698988008793177240
0.800000000000000600,-1.684246953004014502
0.801000000000000600,-1.669577906355624197
0.802000000000000601,-1.654980830345597287
0.803000000000000602,-1.640455684622730725
0.804000000000000603,-1.626002426960836855
0.805000000000000604,-1.611621013234026289
0.806000000000000605,-1.597311397393397225
0.807000000000000606,-1.583073531445194249
0.808000000000000607,-1.568907365430255219
0.809000000000000608,-1.554812847404859699
0.810000000000000608,-1.540789923422877461
0.811000000000000609,-1.526838537519146666
0.812000000000000610,-1.512958631694184541
0.813000000000000611,-1.499150145900030706
0.814000000000000612,-1.485413018027338605
0.815000000000000613,-1.471747183893636235
0.816000000000000614,-1.458152577232645353
0.817000000000000615,-1.444629129684799951
0.818000000000000616,-1.431176770788799457
0.819000000000000616,-1.417795427974201328
0.820000000000000617,-1.404485026555060134
0.821000000000000618,-1.391245489724567408
0.822000000000000619,-1.378076738550683134
0.823000000000000620,-1.364978691972662084
0.824000000000000621,-1.351951266798556706
0.825000000000000622,-1.338994377703603966
0.826000000000000623,-1.326107937229489497
0.827000000000000624,-1.313291855784468165
0.828000000000000624,-1.300546041644309314
0.829000000000000625,-1.287870400954053141
0.830000000000000626,-1.275264837730553769
0.831000000000000627,-1.262729253865781942
0.832000000000000628,-1.250263549130900431
0.833000000000000629,-1.237867621180991140
0.834000000000000630,-1.225541365560561591
0.835000000000000631,-1.213284675709683347
0.836000000000000631,-1.201097442970799900
0.837000000000000632,-1.188979556596197806
0.838000000000000633,-1.176930903756052471
0.839000000000000634,-1.164951369547125637
0.840000000000000635,-1.153040837002026642
0.841000000000000636,-1.141199187099010803
0.842000000000000637,-1.129426298772401083
0.843000000000000638,-1.117722048923442291
0.844000000000000639,-1.106086312431743046
0.845000000000000639,-1.094518962167190690
0.846000000000000640,-1.083019869002316948
0.847000000000000641,-1.071588901825189399
0.848000000000000642,-1.060225927552682856
0.849000000000000643,-1.048930811144214159
0.850000000000000644,-1.037703415615920832
0.851000000000000645,-1.026543602055158377
0.852000000000000646,-1.015451229635486730
0.853000000000000647,-1.004426155631951589
0.854000000000000647,-0.993468235436743341
0.855000000000000648,-0.982577322575216683
0.856000000000000649,-0.971753268722233221
0.857000000000000650,-0.960995923718804379
0.858000000000000651,-0.950305135589050942
0.859000000000000652,-0.939680750557454703
0.860000000000000653,-0.929122613066391878
0.861000000000000654,-0.918630565793907117
0.862000000000000655,-0.908204449671785818
0.863000000000000655,-0.897844103903819191
0.864000000000000656,-0.887549365984341754
0.865000000000000657,-0.877320071716956917
0.866000000000000658,-0.867156055233490930
0.867000000000000659,-0.857057149013144559
0.868000000000000660,-0.847023183901807308
0.869000000000000661,-0.837053989131581688
0.870000000000000662,-0.827149392340449374
0.871000000000000663,-0.817309219592115554
0.872000000000000663,-0.807533295395968187
0.873000000000000664,-0.797821442727220109
0.874000000000000665,-0.788173483047128087
0.875000000000000666,-0.778589236323380951
0.876000000000000667,-0.769068521050560672
0.877000000000000668,-0.759611154270724565
0.878000000000000669,-0.750216951594088077
0.879000000000000670,-0.740885727219758428
0.880000000000000671,-0.731617293956597470
0.881000000000000671,-0.722411463244100993
0.882000000000000672,-0.713268045173390264
0.883000000000000673,-0.704186848508214336
0.884000000000000674,-0.695167680706037072
0.885000000000000675,-0.686210347939125054
0.886000000000000676,-0.677314655115723974
0.887000000000000677,-0.668480405901201280
0.888000000000000678,-0.659707402739244331
0.889000000000000679,-0.650995446873078309
0.890000000000000679,-0.642344338366665601
0.891000000000000680,-0.633753876125932814
0.892000000000000681,-0.625223857919974035
0.893000000000000682,-0.616754080402257543
0.894000000000000683,-0.608344339131805412
0.895000000000000684,-0.599994428594369023
0.896000000000000685,-0.591704142223560048
0.897000000000000686,-0.583473272421962563
0.898000000000000687,-0.575301610582212741
0.899000000000000687,-0.567188947108017816
0.900000000000000688,-0.559135071435145070
0.901000000000000689,-0.551139772052360755
0.902000000000000690,-0.543202836522316490
0.903000000000000691,-0.535324051502363507
0.904000000000000692,-0.527503202765306267
0.905000000000000693,-0.519740075220109565
0.906000000000000694,-0.512034452932511264
0.907000000000000695,-0.504386119145555534
0.908000000000000695,-0.496794856300089127
0.909000000000000696,-0.489260446055115317
0.910000000000000697,-0.481782669308118028
0.911000000000000698,-0.474361306215254352
0.912000000000000699,-0.466996136211475732
0.913000000000000700,-0.459686938030570702
0.914000000000000701,-0.452433489725052596
0.915000000000000702,-0.445235568686015548
0.916000000000000703,-0.438092951662838181
0.917000000000000703,-0.431005414782798635
0.918000000000000704,-0.423972733570578186
0.919000000000000705,-0.416994682967644081
0.920000000000000706,-0.410071037351543599
0.921000000000000707,-0.403201570555042299
0.922000000000000708,-0.396386055885173838
0.923000000000000709,-0.389624266142172659
0.924000000000000710,-0.382915973638239815
0.925000000000000711,-0.376260950216247170
0.926000000000000711,-0.369658967268254257
0.927000000000000712,-0.363109795753936038
0.928000000000000713,-0.356613206218864276
0.929000000000000714,-0.350168968812667070
0.930000000000000715,-0.343776853307027952
0.931000000000000716,-0.337436629113582853
0.932000000000000717,-0.331148065301661298
0.933000000000000718,-0.324910930615891602
0.934000000000000719,-0.318724993493665065
0.935000000000000719,-0.312590022082472718
0.936000000000000720,-0.306505784257076808
0.937000000000000721,-0.300472047636556550
0.938000000000000722,-0.294488579601208778
0.939000000000000723,-0.288555147309291049
0.940000000000000724,-0.282671517713634912
0.941000000000000725,-0.276837457578092416
0.942000000000000726,-0.271052733493864273
0.943000000000000727,-0.265317111895638003
0.944000000000000727,-0.259630359077622441
0.945000000000000728,-0.253992241209401004
0.946000000000000729,-0.248402524351637510
0.947000000000000730,-0.242860974471646479
0.948000000000000731,-0.237367357458793726
0.949000000000000732,-0.231921439139762431
0.950000000000000733,-0.226522985293648033
0.951000000000000734,-0.221171761666923039
0.952000000000000735,-0.215867533988229499
0.953000000000000735,-0.210610067983012461
0.954000000000000736,-0.205399129388030843
0.955000000000000737,-0.200234483965687382
0.956000000000000738,-0.195115897518219311
0.957000000000000739,-0.190043135901715898
0.958000000000000740,-0.185015965040008695
0.959000000000000741,-0.180034150938382653
0.960000000000000742,-0.175097459697166113
0.961000000000000743,-0.170205657525117460
0.962000000000000743,-0.165358510752702081
0.963000000000000744,-0.160555785845195642
0.964000000000000745,-0.155797249415649930
0.965000000000000746,-0.151082668237677908
0.966000000000000747,-0.146411809258101433
0.967000000000000748,-0.141784439609454971
0.968000000000000749,-0.137200326622330532
0.969000000000000750,-0.132659237837550847
0.970000000000000751,-0.128160941018228475
0.971000000000000751,-0.123705204161635468
0.972000000000000752,-0.119291795510935605
0.973000000000000753,-0.114920483566796877
0.974000000000000754,-0.110591037098790770
0.975000000000000755,-0.106303225156701028
0.976000000000000756,-0.102056817081649528
0.977000000000000757,-0.097851582517083174
0.978000000000000758,-0.093687291419606120
0.979000000000000759,-0.089563714069689798
0.980000000000000759,-0.085480621082188540
0.981000000000000760,-0.081437783416754714
0.982000000000000761,-0.077434972388091744
0.983000000000000762,-0.073471959676044835
0.984000000000000763,-0.069548517335570451
0.985000000000000764,-0.065664417806555325
0.986000000000000765,-0.061819433923489653
0.987000000000000766,-0.058013338924987168
0.988000000000000766,-0.054245906463180414
0.989000000000000767,-0.050516910612985522
0.990000000000000768,-0.046826125881182575
0.991000000000000769,-0.043173327215398148
0.992000000000000770,-0.039558290012928557
0.993000000000000771,-0.035980790129440887
0.994000000000000772,-0.032440603887510612
0.995000000000000773,-0.028937508085058773
0.996000000000000774,-0.025471280003613518
0.997000000000000774,-0.022041697416471023
0.998000000000000775,-0.018648538596700910
0.999000000000000776,-0.015291582325030048
1.000000000000000666,-0.011970607897582064
1.001000000000000778,-0.008685395133508463
1.002000000000000668,-0.005435724382461427
1.003000000000000780,-0.002221376531946073
1.004000000000000670,0.000957866985435180
1.005000000000000782,0.004102224184900888
1.006000000000000671,0.007211912522497701
1.007000000000000783,0.010287148888284229
1.008000000000000673,0.013328149599581915
1.009000000000000785,0.016335130394388130
1.010000000000000675,0.019308306424901524
1.011000000000000787,0.022247892251180339
1.012000000000000677,0.025154101834890162
1.013000000000000789,0.028027148533210967
1.014000000000000679,0.030867245092847950
1.015000000000000790,0.033674603644146560
1.016000000000000680,0.036449435695339968
1.017000000000000792,0.039191952126933383
1.018000000000000682,0.041902363186143821
1.019000000000000794,0.044580878481527898
1.020000000000000684,0.047227706977663805
1.021000000000000796,0.049843056989979866
1.022000000000000686,0.052427136179686341
1.023000000000000798,0.054980151548811050
1.024000000000000687,0.057502309435355115
1.025000000000000799,0.059993815508545892
1.026000000000000689,0.062454874764213034
1.027000000000000801,0.064885691520257235
1.028000000000000691,0.067286469412226282
1.029000000000000803,0.069657411389010299
1.030000000000000693,0.071998719708622622
1.031000000000000805,0.074310595934095086
1.032000000000000695,0.076593240929474768
1.033000000000000806,0.078846854855905646
1.034000000000000696,0.081071637167835317
1.035000000000000808,0.083267786609310487
1.036000000000000698,0.085435501210365153
1.037000000000000810,0.087574978283492561
1.038000000000000700,0.089686414420261110
1.039000000000000812,0.091770005487973677
1.040000000000000702,0.093825946626446527
1.041000000000000814,0.095854432244870211
1.042000000000000703,0.097855656018788664
1.043000000000000815,0.099829810887128681
1.044000000000000705,0.101777089049348277
1.045000000000000817,0.103697681962675897
1.046000000000000707,0.105591780339415339
1.047000000000000819,0.107459574144355183
1.048000000000000709,0.109301252592280740
1.049000000000000821,0.111117004145517811
1.050000000000000711,0.112907016511634220
1.051000000000000822,0.114671476641152070
1.052000000000000712,0.116410570725396428
1.053000000000000824,0.118124484194413709
1.054000000000000714,0.119813401714941592
1.055000000000000826,0.121477507188502629
1.056000000000000716,0.123116983749536391
1.057000000000000828,0.124732013763649424
1.058000000000000718,0.126322778825909837
1.059000000000000830,0.127889459759231827
1.060000000000000719,0.129432236612831431
1.061000000000000831,0.130951288660777515
1.062000000000000721,0.132446794400574441
1.063000000000000833,0.133918931551853221
1.064000000000000723,0.135367877055130259
1.065000000000000835,0.136793807070620554
1.066000000000000725,0.138196896977126393
1.067000000000000837,0.139577321371021468
1.068000000000000727,0.140935254065250121
1.069000000000000838,0.142270868088455182
1.070000000000000728,0.143584335684126263
1.071000000000000840,0.144875828309834365
1.072000000000000730,0.146145516636528305
1.073000000000000842,0.147393570547894232
1.074000000000000732,0.148620159139785102
1.075000000000000844,0.149825450719696052
1.076000000000000734,0.151009612806322052
1.077000000000000846,0.152172812129163365
1.078000000000000735,0.153315214628192670
1.079000000000000847,0.154436985453586251
1.080000000000000737,0.155538288965506200
1.081000000000000849,0.156619288733956225
1.082000000000000739,0.157680147538669102
1.083000000000000851,0.158721027369075507
1.084000000000000741,0.159742089424305123
1.085000000000000853,0.160743494113271157
1.086000000000000743,0.161725401054775175
1.087000000000000854,0.162687969077695505
1.088000000000000744,0.163631356221196789
1.089000000000000856,0.164555719735035744
1.090000000000000746,0.165461216079863804
1.091000000000000858,0.166348000927614814
1.092000000000000748,0.167216229161945229
1.093000000000000860,0.168066054878699106
1.094000000000000750,0.168897631386435848
1.095000000000000862,0.169711111207008380
1.096000000000000751,0.170506646076176882
1.097000000000000863,0.171284386944278555
1.098000000000000753,0.172044483976931617
1.099000000000000865,0.172787086555792502
1.100000000000000755,0.173512343279363462
1.101000000000000867,0.174220401963822796
1.102000000000000757,0.174911409643907001
1.103000000000000869,0.175585512573844804
1.104000000000000759,0.176242856228326916
1.105000000000000870,0.176883585303501040
1.106000000000000760,0.177507843718025582
1.107000000000000872,0.178115774614161115
1.108000000000000762,0.178707520358878685
1.109000000000000874,0.179283222545043641
1.110000000000000764,0.179843021992595442
1.111000000000000876,0.180387058749799128
1.112000000000000766,0.180915472094511282
1.113000000000000878,0.181428400535487228
1.114000000000000767,0.181925981813720272
1.115000000000000879,0.182408352903829035
1.116000000000000769,0.182875650015458135
1.117000000000000881,0.183328008594725478
1.118000000000000771,0.183765563325697101
1.119000000000000883,0.184188448131893806
1.120000000000000773,0.184596796177828593
1.121000000000000885,0.184990739870585175
1.122000000000000774,0.185370410861408763
1.123000000000000886,0.185735940047334791
1.124000000000000776,0.186087457572853054
1.125000000000000888,0.186425092831593503
1.126000000000000778,0.186748974468040146
1.127000000000000890,0.187059230379265251
1.128000000000000780,0.187355987716718630
1.129000000000000892,0.187639372888003253
1.130000000000000782,0.187909511558710052
1.131000000000000894,0.188166528654253040
1.132000000000000783,0.188410548361756552
1.133000000000000895,0.188641694131929688
1.134000000000000785,0.188860088681020444
1.135000000000000897,0.189065853992714999
1.136000000000000787,0.189259111320146778
1.137000000000000899,0.189439981187854323
1.138000000000000789,0.189608583393812730
1.139000000000000901,0.189765037011446508
1.140000000000000790,0.189909460391698925
1.141000000000000902,0.190041971165108431
1.142000000000000792,0.190162686243885354
1.143000000000000904,0.190271721824033124
1.144000000000000794,0.190369193387488256
1.145000000000000906,0.190455215704273151
1.146000000000000796,0.190529902834646131
1.147000000000000908,0.190593368131314056
1.148000000000000798,0.190645724241622710
1.149000000000000909,0.190687083109782496
1.150000000000000799,0.190717555979112940
1.151000000000000689,0.190737253394294204
1.152000000000000801,0.190746285203632349
1.153000000000000913,0.190744760561358945
1.154000000000000803,0.190732787929923014
1.155000000000000693,0.190710475082313813
1.156000000000000805,0.190677929104384136
1.157000000000000917,0.190635256397204217
1.158000000000000806,0.190582562679411094
1.159000000000000696,0.190519952989588015
1.160000000000000808,0.190447531688643618
1.161000000000000920,0.190365402462212036
1.162000000000000810,0.190273668323052925
1.163000000000000700,0.190172431613492232
1.164000000000000812,0.190061794007821222
1.165000000000000924,0.189941856514775631
1.166000000000000814,0.189812719479964198
1.167000000000000703,0.189674482588340743
1.168000000000000815,0.189527244866676770
1.169000000000000927,0.189371104686051284
1.170000000000000817,0.189206159764325976
1.171000000000000707,0.189032507168675062
1.172000000000000819,0.188850243318068045
1.173000000000000931,0.188659463985804160
1.174000000000000821,0.188460264302040381
1.175000000000000711,0.188252738756314375
1.176000000000000822,0.188036981200099124
1.177000000000000934,0.187813084849347917
1.178000000000000824,0.187581142287052249
1.179000000000000714,0.187341245465800110
1.180000000000000826,0.187093485710349061
1.181000000000000938,0.186837953720203231
1.182000000000000828,0.186574739572193754
1.183000000000000718,0.186303932723060228
1.184000000000000830,0.186025622012052055
1.185000000000000941,0.185739895663518534
1.186000000000000831,0.185446841289510722
1.187000000000000721,0.185146545892392766
1.188000000000000833,0.184839095867443876
1.189000000000000945,0.184524577005479556
1.190000000000000835,0.184203074495464025
1.191000000000000725,0.183874672927145488
1.192000000000000837,0.183539456293650455
1.193000000000000949,0.183197507994150605
1.194000000000000838,0.182848910836457018
1.195000000000000728,0.182493747039680104
1.196000000000000840,0.182132098236845702
1.197000000000000952,0.181764045477541436
1.198000000000000842,0.181389669230556605
1.199000000000000732,0.181009049386510024
1.200000000000000844,0.180622265260516279
1.201000000000000956,0.180229395594796643
1.202000000000000846,0.179830518561360619
1.203000000000000735,0.179425711764604923
1.204000000000000847,0.179015052244007600
1.205000000000000959,0.178598616476731753
1.206000000000000849,0.178176480380300178
1.207000000000000739,0.177748719315228204
1.208000000000000851,0.177315408087671655
1.209000000000000963,0.176876620952066826
1.210000000000000853,0.176432431613783525
1.211000000000000743,0.175982913231768567
1.212000000000000854,0.175528138421179591
1.213000000000000966,0.175068179256035822
1.214000000000000856,0.174603107271847691
1.215000000000000746,0.174132993468280178
1.216000000000000858,0.173657908311746156
1.217000000000000970,0.173177921738094653
1.218000000000000860,0.172693103155203753
1.219000000000000750,0.172203521445626118
1.220000000000000862,0.171709244969223740
1.221000000000000973,0.171210341565786656
1.222000000000000863,0.170706878557656344
1.223000000000000753,0.170198922752357013
1.224000000000000865,0.169686540445198902
1.225000000000000977,0.169169797421903273
1.226000000000000867,0.168648758961217393
1.227000000000000757,0.168123489837511436
1.228000000000000869,0.167594054323403463
1.229000000000000981,0.167060516192331920
1.230000000000000870,0.166522938721186453
1.231000000000000760,0.165981384692875711
1.232000000000000872,0.165435916398932625
1.233000000000000984,0.164886595642101175
1.234000000000000874,0.164333483738900665
1.235000000000000764,0.163776641522231758
1.236000000000000876,0.163216129343919575
1.237000000000000988,0.162652007077311089
1.238000000000000878,0.162084334119809104
1.239000000000000767,0.161513169395456513
1.240000000000000879,0.160938571357476329
1.241000000000000991,0.160360597990827580
1.242000000000000881,0.159779306814746891
1.243000000000000771,0.159194754885277651
1.244000000000000883,0.158606998797831189
1.245000000000000995,0.158016094689677700
1.246000000000000885,0.157422098242496394
1.247000000000000774,0.156825064684878529
1.248000000000000886,0.156225048794846361
1.249000000000000998,0.155622104902354341
1.250000000000000888,0.155016286891782179
1.251000000000000778,0.154407648204442249
1.252000000000000890,0.153796241841053311
1.253000000000001002,0.153182120364235147
1.254000000000000892,0.152565335900968602
1.255000000000000782,0.151945940145070540
1.256000000000000894,0.151323984359661989
1.257000000000001005,0.150699519379611485
1.258000000000000895,0.150072595613988835
1.259000000000000785,0.149443263048521652
1.260000000000000897,0.148811571248000402
1.261000000000001009,0.148177569358735606
1.262000000000000899,0.147541306110967274
1.263000000000000789,0.146902829821284164
1.264000000000000901,0.146262188395020420
1.265000000000001013,0.145619429328672556
1.266000000000000902,0.144974599712285629
1.267000000000000792,0.144327746231834780
1.268000000000000904,0.143678915171615129
1.269000000000001016,0.143028152416606741
1.270000000000000906,0.142375503454841235
1.271000000000000796,0.141721013379756289
1.272000000000000908,0.141064726892551395
1.273000000000001020,0.140406688304524463
1.274000000000000909,0.139746941539412334
1.275000000000000799,0.139085530135712371
1.276000000000000911,0.138422497248999160
1.277000000000001023,0.137757885654250067
1.278000000000000913,0.137091737748127995
1.279000000000000803,0.136424095551305025
1.280000000000000915,0.135755000710716112
1.281000000000001027,0.135084494501872238
1.282000000000000917,0.134412617831114106
1.283000000000000806,0.133739411237881467
1.284000000000000918,0.133064914896964426
1.285000000000001030,0.132389168620767134
1.286000000000000920,0.131712211861523570
1.287000000000000810,0.131034083713555349
1.288000000000000922,0.130354822915472901
1.289000000000001034,0.129674467852409186
1.290000000000000924,0.128993056558220298
1.291000000000000814,0.128310626717674292
1.292000000000000925,0.127627215668666250
1.293000000000001037,0.126942860404371916
1.294000000000000927,0.126257597575449798
1.295000000000000817,0.125571463492177265
1.296000000000000929,0.124884494126641682
1.297000000000001041,0.124196725114865014
1.298000000000000931,0.123508191758948893
1.299000000000000821,0.122818929029211238
1.300000000000000933,0.122128971566307573
1.301000000000001044,0.121438353683348099
1.302000000000000934,0.120747109368003286
1.303000000000000824,0.120055272284599140
1.304000000000000936,0.119362875776212296
1.305000000000001048,0.118669952866745310
1.306000000000000938,0.117976536262993398
1.307000000000000828,0.117282658356732308
1.308000000000000940,0.116588351226749001
1.309000000000001052,0.115893646640889414
1.310000000000000941,0.115198576058108487
1.311000000000000831,0.114503170630495574
1.312000000000000943,0.113807461205298652
1.313000000000001055,0.113111478326913123
1.314000000000000945,0.112415252238912799
1.315000000000000835,0.111718812886033095
1.316000000000000947,0.111022189916160863
1.317000000000001059,0.110325412682295010
1.318000000000000949,0.109628510244539873
1.319000000000000838,0.108931511372042489
1.320000000000000950,0.108234444544955746
1.321000000000001062,0.107537337956382567
1.322000000000000952,0.106840219514298007
1.323000000000000842,0.106143116843480878
1.324000000000000954,0.105446057287425038
1.325000000000001066,0.104749067910257690
1.326000000000000956,0.104052175498620003
1.327000000000000846,0.103355406563575475
1.328000000000000957,0.102658787342470068
1.329000000000001069,0.101962343800831245
1.330000000000000959,0.101266101634196887
1.331000000000000849,0.100570086270002329
1.332000000000000961,0.099874322869407270
1.333000000000001073,0.099178836329140915
1.334000000000000963,0.098483651283319346
1.335000000000000853,0.097788792105285183
1.336000000000000965,0.097094282909395077
1.337000000000001076,0.096400147552840487
1.338000000000000966,0.095706409637434417
1.339000000000000856,0.095013092511384595
1.340000000000000968,0.094320219271096670
1.341000000000001080,0.093627812762916027
1.342000000000000970,0.092935895584896816
1.343000000000000860,0.092244490088557771
1.344000000000000972,0.091553618380612933
1.345000000000001084,0.090863302324703188
1.346000000000000973,0.090173563543136576
1.347000000000000863,0.089484423418586617
1.348000000000000975,0.088795903095811896
1.349000000000001087,0.088108023483339626
1.350000000000000977,0.087420805255177550
1.351000000000000867,0.086734268852466670
1.352000000000000979,0.086048434485182526
1.353000000000001091,0.085363322133780728
1.354000000000000981,0.084678951550852810
1.355000000000000870,0.083995342262788680
1.356000000000000982,0.083312513571398072
1.357000000000001094,0.082630484555546252
1.358000000000000984,0.081949274072781797
1.359000000000000874,0.081268900760942370
1.360000000000000986,0.080589383039759516
1.361000000000001098,0.079910739112455789
1.362000000000000988,0.079232986967343919
1.363000000000000878,0.078556144379390291
1.364000000000000989,0.077880228911783256
1.365000000000001101,0.077205257917519490
1.366000000000000991,0.076531248540936569
1.367000000000000881,0.075858217719267124
1.368000000000000993,0.075186182184175748
1.369000000000001105,0.074515158463287670
1.370000000000000995,0.073845162881716137
1.371000000000000885,0.073176211563565755
1.372000000000000997,0.072508320433443282
1.373000000000001108,0.071841505217945023
1.374000000000000998,0.071175781447178149
1.375000000000000888,0.070511164456185244
1.376000000000001000,0.069847669386471106
1.377000000000001112,0.069185311187428739
1.378000000000001002,0.068524104617819409
1.379000000000000892,0.067864064247205494
1.380000000000001004,0.067205204457403023
1.381000000000001116,0.066547539443893550
1.382000000000001005,0.065891083217277796
1.383000000000000895,0.065235849604664400
1.384000000000001007,0.064581852251091601
1.385000000000001119,0.063929104620922855
1.386000000000001009,0.063277619999240003
1.387000000000000899,0.062627411493235932
1.388000000000001011,0.061978492033563218
1.389000000000001123,0.061330874375747094
1.390000000000001013,0.060684571101501807
1.391000000000000902,0.060039594620118222
1.392000000000001014,0.059395957169782465
1.393000000000001126,0.058753670818931902
1.394000000000001016,0.058112747467574555
1.395000000000000906,0.057473198848615605
1.396000000000001018,0.056835036529175133
1.397000000000001130,0.056198271911885200
1.398000000000001020,0.055562916236194658
1.399000000000000909,0.054928980579665533
1.400000000000001021,0.054296475859249550
1.401000000000001133,0.053665412832565408
1.402000000000001023,0.053035802099173780
1.403000000000000913,0.052407654101831472
1.404000000000001025,0.051780979127753077
1.405000000000001137,0.051155787309847947
1.406000000000001027,0.050532088627972850
1.407000000000000917,0.049909892910144790
1.408000000000001029,0.049289209833789524
1.409000000000001140,0.048670048926935564
1.410000000000001030,0.048052419569441743
1.411000000000000920,0.047436330994189611
1.412000000000001032,0.046821792288282087
1.413000000000001144,0.046208812394235237
1.414000000000001034,0.045597400111148170
1.415000000000000924,0.044987564095896604
1.416000000000001036,0.044379312864277723
1.417000000000001148,0.043772654792181391
1.418000000000001037,0.043167598116744775
1.419000000000000927,0.042564150937490150
1.420000000000001039,0.041962321217477248
1.421000000000001151,0.041362116784410860
1.422000000000001041,0.040763545331788865
1.423000000000000931,0.040166614420010655
1.424000000000001043,0.039571331477488023
1.425000000000001155,0.038977703801746789
1.426000000000001044,0.038385738560530736
1.427000000000000934,0.037795442792878539
1.428000000000001046,0.037206823410224701
1.429000000000001158,0.036619887197467123
1.430000000000001048,0.036034640814036067
1.431000000000000938,0.035451090794955224
1.432000000000001050,0.034869243551906903
1.433000000000001162,0.034289105374275902
1.434000000000001052,0.033710682430194622
1.435000000000000941,0.033133980767576642
1.436000000000001053,0.032559006315148235
1.437000000000001165,0.031985764883485340
1.438000000000001055,0.031414262166000337
1.439000000000000945,0.030844503739981467
1.440000000000001057,0.030276495067582797
1.441000000000001169,0.029710241496834440
1.442000000000001059,0.029145748262614301
1.443000000000000949,0.028583020487647014
1.444000000000001060,0.028022063183479700
1.445000000000001172,0.027462881251458217
1.446000000000001062,0.026905479483681244
1.447000000000000952,0.026349862563977637
1.448000000000001064,0.025796035068844501
1.449000000000001176,0.025244001468393912
1.450000000000001066,0.024693766127318991
1.451000000000000956,0.024145333305797594
1.452000000000001068,0.023598707160435061
1.453000000000001180,0.023053891745191381
1.454000000000001069,0.022510891012292332
1.455000000000000959,0.021969708813139737
1.456000000000001071,0.021430348899225900
1.457000000000001183,0.020892814923011972
1.458000000000001073,0.020357110438840122
1.459000000000000963,0.019823238903820008
1.460000000000001075,0.019291203678696071
1.461000000000001187,0.018761008028739767
1.462000000000001076,0.018232655124598228
1.463000000000000966,0.017706148043179000
1.464000000000001078,0.017181489768504830
1.465000000000001190,0.016658683192540026
1.466000000000001080,0.016137731116084953
1.467000000000000970,0.015618636249568441
1.468000000000001082,0.015101401213909372
1.469000000000001194,0.014586028541344682
1.470000000000001084,0.014072520676245323
1.471000000000000973,0.013560879975945605
1.472000000000001085,0.013051108711539781
1.473000000000001197,0.012543209068702956
1.474000000000001087,0.012037183148488787
1.475000000000000977,0.011533032968131750
1.476000000000001089,0.011030760461823431
1.477000000000001201,0.010530367481508858
1.478000000000001091,0.010031855797672002
1.479000000000000981,0.009535227100091368
1.480000000000001092,0.009040482998636036
1.481000000000001204,0.008547625024005809
1.482000000000001094,0.008056654628503915
1.483000000000000984,0.007567573186784843
1.484000000000001096,0.007080381996600974
1.485000000000001208,0.006595082279562803
1.486000000000001098,0.006111675181849087
1.487000000000000988,0.005630161774964356
1.488000000000001100,0.005150543056455753
1.489000000000001211,0.004672819950636245
1.490000000000001101,0.004196993309302320
1.491000000000000991,0.003723063912457252
1.492000000000001103,0.003251032468994444
1.493000000000001215,0.002780899617428694
1.494000000000001105,0.002312665926577574
1.495000000000000995,0.001846331896257930
1.496000000000001107,0.001381897957972913
1.497000000000001219,0.000919364475598796
1.498000000000001108,0.000458731746056970
1.499000000000000998,0.000000000000000000
