# Au-001-PEG_CS-3530-AC
# h[nm],U(h)[kJ/mol]
0.149999999999999994,69.044636683978239944
0.150999999999999995,66.942507784408988414
0.151999999999999996,65.311027558844145346
0.152999999999999997,63.791403801966815479
0.153999999999999998,62.261970114690861067
0.154999999999999999,60.706175109240597010
0.156000000000000000,59.144381379096060414
0.157000000000000001,57.601972464248206052
0.158000000000000002,56.097071307423959752
0.159000000000000002,54.638037715583621434
0.160000000000000003,53.225189798019314935
0.161000000000000004,51.853795780961625894
0.162000000000000005,50.516914665026497744
0.163000000000000006,49.207526949815907358
0.164000000000000007,47.919850667221297158
0.165000000000000008,46.649950422412203466
0.166000000000000009,45.395823309240164178
0.167000000000000010,44.157150151857926801
0.168000000000000010,42.934872036271102047
0.169000000000000011,41.730712424518642933
0.170000000000000012,40.546725877125041393
0.171000000000000013,39.384920939123382766
0.172000000000000014,38.246978898996474072
0.173000000000000015,37.134071817385830627
0.174000000000000016,36.046771436033857583
0.175000000000000017,34.985033979590994591
0.176000000000000018,33.948243108622925490
0.177000000000000018,32.935293179137637765
0.178000000000000019,31.944696536080897431
0.179000000000000020,30.974701064122815097
0.180000000000000021,30.023407092274332797
0.181000000000000022,29.088875625873338748
0.182000000000000023,28.169222524351766879
0.183000000000000024,27.262695524377893008
0.184000000000000025,26.367732869328101231
0.185000000000000026,25.483003743104504224
0.186000000000000026,24.607431747594681326
0.187000000000000027,23.740203356012859359
0.188000000000000028,22.880763675160210369
0.189000000000000029,22.028802016211891157
0.190000000000000030,21.184229761047149054
0.191000000000000031,20.347152868889672561
0.192000000000000032,19.517841138686346625
0.193000000000000033,18.696696061420183810
0.194000000000000034,17.884218791457961117
0.195000000000000034,17.080979458500131329
0.196000000000000035,16.287588747357997221
0.197000000000000036,15.504672402323325997
0.198000000000000037,14.732849072961746728
0.199000000000000038,13.972711712174184839
0.200000000000000039,13.224812566274971815
0.201000000000000040,12.489651659747845969
0.202000000000000041,11.767668572099905688
0.203000000000000042,11.059237227848312202
0.204000000000000042,10.364663369678400073
0.205000000000000043,9.684184355550950585
0.206000000000000044,9.017970909360883525
0.207000000000000045,8.366130458180553120
0.208000000000000046,7.728711703934235011
0.209000000000000047,7.105710100650192373
0.210000000000000048,6.497073937680641009
0.211000000000000049,5.902710762291562219
0.212000000000000050,5.322493909979025162
0.213000000000000050,4.756268946285677757
0.214000000000000051,4.203859858588366194
0.215000000000000052,3.665074869409329583
0.216000000000000053,3.139711773609628498
0.217000000000000054,2.627562729906249395
0.218000000000000055,2.128418462240289077
0.219000000000000056,1.642071848485679109
0.220000000000000057,1.168320892810534417
0.221000000000000058,0.706971093771867398
0.222000000000000058,0.257837233079097283
0.223000000000000059,-0.179255379891885225
0.224000000000000060,-0.604470165088872191
0.225000000000000061,-1.017958982098219112
0.226000000000000062,-1.419862242140565112
0.227000000000000063,-1.810309368349815928
0.228000000000000064,-2.189419550640686385
0.229000000000000065,-2.557302742390844319
0.230000000000000066,-2.914060848074071952
0.231000000000000066,-3.259789053677418114
0.232000000000000067,-3.594577255027531670
0.233000000000000068,-3.918511542874835385
0.234000000000000069,-4.231675707590378366
0.235000000000000070,-4.534152730493279826
0.236000000000000071,-4.826026233037606694
0.237000000000000072,-5.107381859257317913
0.238000000000000073,-5.378308570921204179
0.239000000000000073,-5.638899838727545522
0.240000000000000074,-5.889254716527023703
0.241000000000000075,-6.129478788964972225
0.242000000000000076,-6.359684986060075929
0.243000000000000077,-6.579994261070514661
0.244000000000000078,-6.790536130533894266
0.245000000000000079,-6.991449077604111828
0.246000000000000080,-7.182880821751625788
0.247000000000000081,-7.364988459553818423
0.248000000000000081,-7.537938482690732300
0.249000000000000082,-7.701906680395171456
0.250000000000000111,-7.857077934502129324
0.251000000000000112,-8.003645915918541576
0.252000000000000113,-8.141812691811409763
0.253000000000000114,-8.271788253107528632
0.254000000000000115,-8.393789972033852465
0.255000000000000115,-8.508041999420139945
0.256000000000000116,-8.614774611355484168
0.257000000000000117,-8.714223514554035432
0.258000000000000118,-8.806629119459307375
0.259000000000000119,-8.892235789717149785
0.260000000000000120,-8.971291076188483871
0.261000000000000121,-9.044044943167046213
0.262000000000000122,-9.110748993927824557
0.263000000000000123,-9.171655702167925028
0.264000000000000123,-9.227017655324109668
0.265000000000000124,-9.277086815167638889
0.266000000000000125,-9.322113800495756664
0.267000000000000126,-9.362347196165440977
0.268000000000000127,-9.398032892155528728
0.269000000000000128,-9.429413455801642030
0.270000000000000129,-9.456727539828618134
0.271000000000000130,-9.480209328310571948
0.272000000000000131,-9.500088022221353512
0.273000000000000131,-9.516587365799567877
0.274000000000000132,-9.529925214544267220
0.275000000000000133,-9.540313145280169493
0.276000000000000134,-9.547956108384987317
0.277000000000000135,-9.553052121956477905
0.278000000000000136,-9.555792007412538425
0.279000000000000137,-9.556359165763282704
0.280000000000000138,-9.554929393568867724
0.281000000000000139,-9.551670737399730271
0.282000000000000139,-9.546743385445580543
0.283000000000000140,-9.540299594774770853
0.284000000000000141,-9.532483652624813786
0.285000000000000142,-9.523431870006856315
0.286000000000000143,-9.513272605829881101
0.287000000000000144,-9.502126319692658640
0.288000000000000145,-9.490105651452555691
0.289000000000000146,-9.477315525656701212
0.290000000000000147,-9.463853278913660461
0.291000000000000147,-9.449808808288942430
0.292000000000000148,-9.435264738825901887
0.293000000000000149,-9.420296608321939047
0.294000000000000150,-9.404973067528260344
0.295000000000000151,-9.389356093988073582
0.296000000000000152,-9.373501217781669226
0.297000000000000153,-9.357457757506969287
0.298000000000000154,-9.341269064888802376
0.299000000000000155,-9.324972776479608427
0.300000000000000155,-9.308601070986446402
0.301000000000000156,-9.292180930834401664
0.302000000000000157,-9.275734406653006303
0.303000000000000158,-9.259278883450175357
0.304000000000000159,-9.242827347316747932
0.305000000000000160,-9.226388651582498213
0.306000000000000161,-9.209967781422882638
0.307000000000000162,-9.193566115992231502
0.308000000000000163,-9.177181687234680751
0.309000000000000163,-9.160809434598053969
0.310000000000000164,-9.144441454947841663
0.311000000000000165,-9.128067247047946253
0.312000000000000166,-9.111673950042481707
0.313000000000000167,-9.095246575437421654
0.314000000000000168,-9.078768232143163530
0.315000000000000169,-9.062220344198237854
0.316000000000000170,-9.045582860850950979
0.317000000000000171,-9.028834458729134482
0.318000000000000171,-9.011952735878757892
0.319000000000000172,-8.994914397499886860
0.320000000000000173,-8.977695433252991464
0.321000000000000174,-8.960271286050430106
0.322000000000000175,-8.942617012286868672
0.323000000000000176,-8.924707433498394238
0.324000000000000177,-8.906517279473506576
0.325000000000000178,-8.888021322869615659
0.326000000000000179,-8.869194505417087981
0.327000000000000179,-8.850012055818021750
0.328000000000000180,-8.830449599470345134
0.329000000000000181,-8.810483260168663122
0.330000000000000182,-8.790089753951615847
0.331000000000000183,-8.769246475282418629
0.332000000000000184,-8.747931575763326251
0.333000000000000185,-8.726124035597731421
0.334000000000000186,-8.703803728024125164
0.335000000000000187,-8.680951476955339530
0.336000000000000187,-8.657549108064120702
0.337000000000000188,-8.633579493561786222
0.338000000000000189,-8.609026590921750710
0.339000000000000190,-8.583875475802674515
0.340000000000000191,-8.558112369428256372
0.341000000000000192,-8.531724660681817340
0.342000000000000193,-8.504700923173549754
0.343000000000000194,-8.477030927537649418
0.344000000000000195,-8.448705649214426572
0.345000000000000195,-8.419717271970252881
0.346000000000000196,-8.390059187404574459
0.347000000000000197,-8.359725990689517161
0.348000000000000198,-8.328713472783043414
0.349000000000000199,-8.297018609351514584
0.350000000000000200,-8.264639546632320588
0.351000000000000201,-8.231575584461079842
0.352000000000000202,-8.197827156682018668
0.353000000000000203,-8.163395809153525917
0.354000000000000203,-8.128284175554298940
0.355000000000000204,-8.092495951188430681
0.356000000000000205,-8.056035864981019756
0.357000000000000206,-8.018909649848541932
0.358000000000000207,-7.981124011620953418
0.359000000000000208,-7.942686596685447853
0.360000000000000209,-7.903605958514255292
0.361000000000000210,-7.863891523231686165
0.362000000000000210,-7.823553554368404939
0.363000000000000211,-7.782603116943590749
0.364000000000000212,-7.741052041008726903
0.365000000000000213,-7.698912884779484322
0.366000000000000214,-7.656198897475479548
0.367000000000000215,-7.612923981980695309
0.368000000000000216,-7.569102657430944348
0.369000000000000217,-7.524750021827950164
0.370000000000000218,-7.479881714773573442
0.371000000000000218,-7.434513880411341979
0.372000000000000219,-7.388663130656508038
0.373000000000000220,-7.342346508790107862
0.374000000000000221,-7.295581453486749801
0.375000000000000222,-7.248385763340460031
0.376000000000000223,-7.200777561947750982
0.377000000000000224,-7.152775263601891531
0.378000000000000225,-7.104397539647581361
0.379000000000000226,-7.055663285540534346
0.380000000000000226,-7.006591588652076652
0.381000000000000227,-6.957201696854421691
0.382000000000000228,-6.907512987918442704
0.383000000000000229,-6.857544939751666568
0.384000000000000230,-6.807317101500554024
0.385000000000000231,-6.756849065537762655
0.386000000000000232,-6.706160440351479401
0.387000000000000233,-6.655270824351013914
0.388000000000000234,-6.604199780599641301
0.389000000000000234,-6.552966812483060899
0.390000000000000235,-6.501591340318965351
0.391000000000000236,-6.450092678910958277
0.392000000000000237,-6.398490016047492013
0.393000000000000238,-6.346802391944515342
0.394000000000000239,-6.295048679628289179
0.395000000000000240,-6.243247566253105951
0.396000000000000241,-6.191417535346777079
0.397000000000000242,-6.139576849975081352
0.398000000000000242,-6.087743536815064083
0.399000000000000243,-6.035935371125432880
0.400000000000000244,-5.984169862601162571
0.401000000000000245,-5.932464242098364871
0.402000000000000246,-5.880835449214179000
0.403000000000000247,-5.829300120705674715
0.404000000000000248,-5.777874579730914562
0.405000000000000249,-5.726574825894443777
0.406000000000000250,-5.675416526078878476
0.407000000000000250,-5.624415006043722798
0.408000000000000251,-5.573585242771889270
0.409000000000000252,-5.522941857544183542
0.410000000000000253,-5.472499109721354671
0.411000000000000254,-5.422270891213377908
0.412000000000000255,-5.372270721615042710
0.413000000000000256,-5.322511743987050181
0.414000000000000257,-5.273006721261445762
0.415000000000000258,-5.223768033250395071
0.416000000000000258,-5.174807674237063893
0.417000000000000259,-5.126137251127568462
0.418000000000000260,-5.077767982142946224
0.419000000000000261,-5.029710696030178951
0.420000000000000262,-4.981975831771560337
0.421000000000000263,-4.934573438771769460
0.422000000000000264,-4.887513177502271766
0.423000000000000265,-4.840804320582859255
0.424000000000000266,-4.794455754280572357
0.425000000000000266,-4.748475980406242414
0.426000000000000267,-4.702873118589502077
0.427000000000000268,-4.657654908913263725
0.428000000000000269,-4.612828714889042558
0.429000000000000270,-4.568401526754946929
0.430000000000000271,-4.524379965078384025
0.431000000000000272,-4.480770284646093060
0.432000000000000273,-4.437578378624365882
0.433000000000000274,-4.394809782972831869
0.434000000000000274,-4.352469681095519682
0.435000000000000275,-4.310562908713391650
0.436000000000000276,-4.269093958942955958
0.437000000000000277,-4.228066987565942902
0.438000000000000278,-4.187485818475537691
0.439000000000000279,-4.147353949285093933
0.440000000000000280,-4.107674557085585043
0.441000000000000281,-4.068450504338615659
0.442000000000000282,-4.029684344892199732
0.443000000000000282,-3.991378330106880590
0.444000000000000283,-3.953534415080316222
0.445000000000000284,-3.916154264958796372
0.446000000000000285,-3.879239261324534116
0.447000000000000286,-3.842790508648221248
0.448000000000000287,-3.806808840796363391
0.449000000000000288,-3.771294827583754561
0.450000000000000289,-3.736248781361483307
0.451000000000000290,-3.701670763631477623
0.452000000000000290,-3.667560591678920900
0.453000000000000291,-3.633917845214205578
0.454000000000000292,-3.600741873016561012
0.455000000000000293,-3.568031799571742990
0.456000000000000294,-3.535786531696644808
0.457000000000000295,-3.504004765143961642
0.458000000000000296,-3.472684991180398750
0.459000000000000297,-3.441825503132278641
0.460000000000000298,-3.411424402892694108
0.461000000000000298,-3.381479607384679120
0.462000000000000299,-3.351988854975211041
0.463000000000000300,-3.322949711835075703
0.464000000000000301,-3.294359578240043440
0.465000000000000302,-3.266215694808981773
0.466000000000000303,-3.238515148674829813
0.467000000000000304,-3.211254879584672040
0.468000000000000305,-3.184431685925365407
0.469000000000000306,-3.158042230671422423
0.470000000000000306,-3.132083047252142372
0.471000000000000307,-3.106550545335111657
0.472000000000000308,-3.081441016523597032
0.473000000000000309,-3.056750639965359007
0.474000000000000310,-3.032475487870807118
0.475000000000000311,-3.008611530938485767
0.476000000000000312,-2.985154643686233733
0.477000000000000313,-2.962100609686295627
0.478000000000000314,-2.939445126703136069
0.479000000000000314,-2.917183811732676268
0.480000000000000315,-2.895312205941888983
0.481000000000000316,-2.873825779507912515
0.482000000000000317,-2.852719936355881281
0.483000000000000318,-2.831990018794937836
0.484000000000000319,-2.811631312051906750
0.485000000000000320,-2.791639048702383885
0.486000000000000321,-2.772008412998977711
0.487000000000000322,-2.752734545096653385
0.488000000000000322,-2.733812545175207998
0.489000000000000323,-2.715237477459057303
0.490000000000000324,-2.697004374134531091
0.491000000000000325,-2.679108239165079119
0.492000000000000326,-2.661544052004766847
0.493000000000000327,-2.644306771210663154
0.494000000000000328,-2.627391337954661843
0.495000000000000329,-2.610792679435482100
0.496000000000000330,-2.594505712191561120
0.497000000000000330,-2.578525345315720418
0.498000000000000331,-2.562846483572450929
0.499000000000000332,-2.547464030418812975
0.500000000000000333,-2.532372890929944553
0.501000000000000334,-2.517567974630245509
0.502000000000000335,-2.503044198231349160
0.503000000000000336,-2.488796488278048447
0.504000000000000337,-2.474819783703369858
0.505000000000000338,-2.461109038294025275
0.506000000000000338,-2.447659223067540246
0.507000000000000339,-2.434465328562333220
0.508000000000000340,-2.421522367042092672
0.509000000000000341,-2.408825374615831905
0.510000000000000342,-2.396369413274967997
0.511000000000000343,-2.384149572848852650
0.512000000000000344,-2.372160972880169361
0.513000000000000345,-2.360398764421637985
0.514000000000000346,-2.348858131755481526
0.515000000000000346,-2.337534294037104665
0.516000000000000347,-2.326422506864456174
0.517000000000000348,-2.315518063774594903
0.518000000000000349,-2.304816297668855096
0.519000000000000350,-2.294312582168202219
0.520000000000000351,-2.284002332900190169
0.521000000000000352,-2.273881008719052410
0.522000000000000353,-2.263944112860387659
0.523000000000000353,-2.254187194031936237
0.524000000000000354,-2.244605847441948132
0.525000000000000355,-2.235195715766568281
0.526000000000000356,-2.225952490057751643
0.527000000000000357,-2.216871910593154027
0.528000000000000358,-2.207949767669435737
0.529000000000000359,-2.199181902340433759
0.530000000000000360,-2.190564207101628025
0.531000000000000361,-2.182092626522315282
0.532000000000000361,-2.173763157826893000
0.533000000000000362,-2.165571851426655758
0.534000000000000363,-2.157514811403461241
0.535000000000000364,-2.149588195946642522
0.536000000000000365,-2.141788217744495348
0.537000000000000366,-2.134111144331698462
0.538000000000000367,-2.126553298393925040
0.539000000000000368,-2.119111058031010408
0.540000000000000369,-2.111780856979879495
0.541000000000000369,-2.104559184798556970
0.542000000000000370,-2.097442587012444459
0.543000000000000371,-2.090427665224119380
0.544000000000000372,-2.083511077187852223
0.545000000000000373,-2.076689536850010231
0.546000000000000374,-2.069959814356519878
0.547000000000000375,-2.063318736028521005
0.548000000000000376,-2.056763184307357495
0.549000000000000377,-2.050290097669978273
0.550000000000000377,-2.043896470515836228
0.551000000000000378,-2.037579353026360174
0.552000000000000379,-2.031335850998031045
0.553000000000000380,-2.025163125650078833
0.554000000000000381,-2.019058393407793695
0.555000000000000382,-2.013018925662472203
0.556000000000000383,-2.007042048508878906
0.557000000000000384,-2.001125142461246842
0.558000000000000385,-1.995265642148671414
0.559000000000000385,-1.989461035990836235
0.560000000000000386,-1.983708865854910908
0.561000000000000387,-1.978006726694519823
0.562000000000000388,-1.972352266171584656
0.563000000000000389,-1.966743184261879662
0.564000000000000390,-1.961177232845080498
0.565000000000000391,-1.955652215280109685
0.566000000000000392,-1.950165985966508142
0.567000000000000393,-1.944716449892609500
0.568000000000000393,-1.939301562171192428
0.569000000000000394,-1.933919327563361490
0.570000000000000395,-1.928567799991316889
0.571000000000000396,-1.923245082040663245
0.572000000000000397,-1.917949324452963511
0.573000000000000398,-1.912678725609082253
0.574000000000000399,-1.907431531004024849
0.575000000000000400,-1.902206032713794626
0.576000000000000401,-1.897000568854881219
0.577000000000000401,-1.891813523036949274
0.578000000000000402,-1.886643323809249484
0.579000000000000403,-1.881488444101288238
0.580000000000000404,-1.876347400658290976
0.581000000000000405,-1.871218753471928675
0.582000000000000406,-1.866101105206799726
0.583000000000000407,-1.860993100623144603
0.584000000000000408,-1.855893425996232526
0.585000000000000409,-1.850800808532860220
0.586000000000000409,-1.845714015785391071
0.587000000000000410,-1.840631855063748379
0.588000000000000411,-1.835553172845734604
0.589000000000000412,-1.830476854186096514
0.590000000000000413,-1.825401822124661511
0.591000000000000414,-1.820327037093939282
0.592000000000000415,-1.815251496326512282
0.593000000000000416,-1.810174233262538568
0.594000000000000417,-1.805094316957704503
0.595000000000000417,-1.800010851491932851
0.596000000000000418,-1.794922975379101615
0.597000000000000419,-1.789829860978130238
0.598000000000000420,-1.784730713905623434
0.599000000000000421,-1.779624772450398185
0.600000000000000422,-1.774511306990110615
0.601000000000000423,-1.769389619410228320
0.602000000000000424,-1.764259042525588184
0.603000000000000425,-1.759118939504751733
0.604000000000000425,-1.753968703297362763
0.605000000000000426,-1.748807756064720831
0.606000000000000427,-1.743635548613767794
0.607000000000000428,-1.738451559834622184
0.608000000000000429,-1.733255296141931634
0.609000000000000430,-1.728046290920082217
0.610000000000000431,-1.722824103972550258
0.611000000000000432,-1.717588320975447669
0.612000000000000433,-1.712338552935446456
0.613000000000000433,-1.707074435652227162
0.614000000000000434,-1.701795629185546277
0.615000000000000435,-1.696501817327049411
0.616000000000000436,-1.691192707076964341
0.617000000000000437,-1.685868028125762974
0.618000000000000438,-1.680527532340883479
0.619000000000000439,-1.675170993258615848
0.620000000000000440,-1.669798205581245032
0.621000000000000441,-1.664408984679509373
0.622000000000000441,-1.659003166100476934
0.623000000000000442,-1.653580605080875232
0.624000000000000443,-1.648141176065967217
0.625000000000000444,-1.642684772234024759
0.626000000000000445,-1.637211305026430086
0.627000000000000446,-1.631720703683485096
0.628000000000000447,-1.626212914785958308
0.629000000000000448,-1.620687901802392972
0.630000000000000449,-1.615145644642236533
0.631000000000000449,-1.609586139214799871
0.632000000000000450,-1.604009396994080516
0.633000000000000451,-1.598415444589481149
0.634000000000000452,-1.592804323322414062
0.635000000000000453,-1.587176088808831098
0.636000000000000454,-1.581530810547672194
0.637000000000000455,-1.575868571515255612
0.638000000000000456,-1.570189467765587654
0.639000000000000457,-1.564493608036619188
0.640000000000000457,-1.558781113362434301
0.641000000000000458,-1.553052116691345130
0.642000000000000459,-1.547306762509928602
0.643000000000000460,-1.541545206472940466
0.644000000000000461,-1.535767615039139944
0.645000000000000462,-1.529974165112972795
0.646000000000000463,-1.524165043692103261
0.647000000000000464,-1.518340447520786896
0.648000000000000465,-1.512500582749044309
0.649000000000000465,-1.506645664597604739
0.650000000000000466,-1.500775917028617457
0.651000000000000467,-1.494891572422065718
0.652000000000000468,-1.488992871257881490
0.653000000000000469,-1.483080061803698779
0.654000000000000470,-1.477153399808248002
0.655000000000000471,-1.471213148200305909
0.656000000000000472,-1.465259576793206842
0.657000000000000473,-1.459292961994838489
0.658000000000000473,-1.453313586523111267
0.659000000000000474,-1.447321739126840701
0.660000000000000475,-1.441317714311996401
0.661000000000000476,-1.435301812073281447
0.662000000000000477,-1.429274337631000646
0.663000000000000478,-1.423235601173144182
0.664000000000000479,-1.417185917602681311
0.665000000000000480,-1.411125606289953982
0.666000000000000481,-1.405054990830203909
0.667000000000000481,-1.398974398806078323
0.668000000000000482,-1.392884161555171474
0.669000000000000483,-1.386784613942460664
0.670000000000000484,-1.380676094137634147
0.671000000000000485,-1.374558943397243382
0.672000000000000486,-1.368433505851614829
0.673000000000000487,-1.362300128296504598
0.674000000000000488,-1.356159159989378749
0.675000000000000488,-1.350010952450315882
0.676000000000000489,-1.343855859267478081
0.677000000000000490,-1.337694235907038065
0.678000000000000491,-1.331526439527576544
0.679000000000000492,-1.325352828798851634
0.680000000000000493,-1.319173763724881487
0.681000000000000494,-1.312989605471321486
0.682000000000000495,-1.306800716197022094
0.683000000000000496,-1.300607458889776469
0.684000000000000496,-1.294410197206133484
0.685000000000000497,-1.288209295315279279
0.686000000000000498,-1.282005117746888745
0.687000000000000499,-1.275798029242910525
0.688000000000000500,-1.269588394613216709
0.689000000000000501,-1.263376578595080790
0.690000000000000502,-1.257162945716403524
0.691000000000000503,-1.250947860162644476
0.692000000000000504,-1.244731685647393338
0.693000000000000504,-1.238514785286553899
0.694000000000000505,-1.232297521476024782
0.695000000000000506,-1.226080255772898919
0.696000000000000507,-1.219863348780060530
0.697000000000000508,-1.213647160034156958
0.698000000000000509,-1.207432047896899396
0.699000000000000510,-1.201218369449596590
0.700000000000000511,-1.195006480390923054
0.701000000000000512,-1.188796734937818567
0.702000000000000512,-1.182589485729498291
0.703000000000000513,-1.176385083734507120
0.704000000000000514,-1.170183878160764746
0.705000000000000515,-1.163986216368555038
0.706000000000000516,-1.157792443786405556
0.707000000000000517,-1.151602903829805680
0.708000000000000518,-1.145417937822704735
0.709000000000000519,-1.139237884921768806
0.710000000000000520,-1.133063082043294312
0.711000000000000520,-1.126893863792787887
0.712000000000000521,-1.120730562397117769
0.713000000000000522,-1.114573507639203154
0.714000000000000523,-1.108423026795220423
0.715000000000000524,-1.102279444574212786
0.716000000000000525,-1.096143083060138634
0.717000000000000526,-1.090014261656244265
0.718000000000000527,-1.083893297031744307
0.719000000000000528,-1.077780503070766338
0.720000000000000528,-1.071676190823517949
0.721000000000000529,-1.065580668459588320
0.722000000000000530,-1.059494241223423616
0.723000000000000531,-1.053417211391834085
0.724000000000000532,-1.047349878233576614
0.725000000000000533,-1.041292537970916587
0.726000000000000534,-1.035245483743134853
0.727000000000000535,-1.029209005571967150
0.728000000000000536,-1.023183390328890718
0.729000000000000536,-1.017168921704258766
0.730000000000000537,-1.011165880178223508
0.731000000000000538,-1.005174542993390707
0.732000000000000539,-0.999195184129213820
0.733000000000000540,-0.993228074278039386
0.734000000000000541,-0.987273480822800531
0.735000000000000542,-0.981331667816294329
0.736000000000000543,-0.975402895962043437
0.737000000000000544,-0.969487422596653992
0.738000000000000544,-0.963585501673690281
0.739000000000000545,-0.957697383748976505
0.740000000000000546,-0.951823315967340600
0.741000000000000547,-0.945963542050721529
0.742000000000000548,-0.940118302287657470
0.743000000000000549,-0.934287833524052536
0.744000000000000550,-0.928472369155254107
0.745000000000000551,-0.922672139119383061
0.746000000000000552,-0.916887369891871140
0.747000000000000552,-0.911118284481203133
0.748000000000000553,-0.905365102425803814
0.749000000000000554,-0.899628039792060186
0.750000000000000555,-0.893907309173448406
0.751000000000000556,-0.888203119690715637
0.752000000000000557,-0.882515676993123277
0.753000000000000558,-0.876845183260673844
0.754000000000000559,-0.871191837207356157
0.755000000000000560,-0.865555834085318665
0.756000000000000560,-0.859937365689996347
0.757000000000000561,-0.854336620366120014
0.758000000000000562,-0.848753783014613683
0.759000000000000563,-0.843189035100353701
0.760000000000000564,-0.837642554660737337
0.761000000000000565,-0.832114516315064612
0.762000000000000566,-0.826605091274694059
0.763000000000000567,-0.821114447353959997
0.764000000000000568,-0.815642748981802557
0.765000000000000568,-0.810190157214136120
0.766000000000000569,-0.804756829746872904
0.767000000000000570,-0.799342920929632883
0.768000000000000571,-0.793948581780070661
0.769000000000000572,-0.788573959998857044
0.770000000000000573,-0.783219199985228043
0.771000000000000574,-0.777884442853133296
0.772000000000000575,-0.772569826447936370
0.773000000000000576,-0.767275485363648424
0.774000000000000576,-0.762001550960695218
0.775000000000000577,-0.756748151384183498
0.776000000000000578,-0.751515411582627579
0.777000000000000579,-0.746303453327180732
0.778000000000000580,-0.741112395231273147
0.779000000000000581,-0.735942352770707187
0.780000000000000582,-0.730793438304144671
0.781000000000000583,-0.725665761094011819
0.782000000000000584,-0.720559427327759350
0.783000000000000584,-0.715474540139500403
0.784000000000000585,-0.710411199631996504
0.785000000000000586,-0.705369502898959611
0.786000000000000587,-0.700349544047694339
0.787000000000000588,-0.695351414222025732
0.788000000000000589,-0.690375201625507362
0.789000000000000590,-0.685420991544935188
0.790000000000000591,-0.680488866374081791
0.791000000000000592,-0.675578905637706173
0.792000000000000592,-0.670691186015780039
0.793000000000000593,-0.665825781367940461
0.794000000000000594,-0.660982762758149489
0.795000000000000595,-0.656162198479554482
0.796000000000000596,-0.651364154079511204
0.797000000000000597,-0.646588692384809760
0.798000000000000598,-0.641835873527032974
0.799000000000000599,-0.637105754968074645
0.800000000000000600,-0.632398391525801573
0.801000000000000600,-0.627713835399829501
0.802000000000000601,-0.623052136197424278
0.803000000000000602,-0.618413340959507174
0.804000000000000603,-0.613797494186760217
0.805000000000000604,-0.609204637865813914
0.806000000000000605,-0.604634811495506908
0.807000000000000606,-0.600088052113235015
0.808000000000000607,-0.595564394321330903
0.809000000000000608,-0.591063870313515038
0.810000000000000608,-0.586586509901391273
0.811000000000000609,-0.582132340540947091
0.812000000000000610,-0.577701387359123020
0.813000000000000611,-0.573293673180356622
0.814000000000000612,-0.568909218553166340
0.815000000000000613,-0.564548041776736897
0.816000000000000614,-0.560210158927471946
0.817000000000000615,-0.555895583885569367
0.818000000000000616,-0.551604328361564256
0.819000000000000616,-0.547336401922840832
0.820000000000000617,-0.543091812020116693
0.821000000000000618,-0.538870564013895548
0.822000000000000619,-0.534672661200877863
0.823000000000000620,-0.530498104840304019
0.824000000000000621,-0.526346894180256486
0.825000000000000622,-0.522219026483902504
0.826000000000000623,-0.518114497055662815
0.827000000000000624,-0.514033299267310673
0.828000000000000624,-0.509975424583999137
0.829000000000000625,-0.505940862590194329
0.830000000000000626,-0.501929601015537186
0.831000000000000627,-0.497941625760602580
0.832000000000000628,-0.493976920922576834
0.833000000000000629,-0.490035468820811171
0.834000000000000630,-0.486117250022297553
0.835000000000000631,-0.482222243367020464
0.836000000000000631,-0.478350425993200434
0.837000000000000632,-0.474501773362428825
0.838000000000000633,-0.470676259284664666
0.839000000000000634,-0.466873855943132188
0.840000000000000635,-0.463094533919079510
0.841000000000000636,-0.459338262216399673
0.842000000000000637,-0.455605008286145086
0.843000000000000638,-0.451894738050875766
0.844000000000000639,-0.448207415928891240
0.845000000000000639,-0.444543004858312052
0.846000000000000640,-0.440901466321014734
0.847000000000000641,-0.437282760366435208
0.848000000000000642,-0.433686845635203100
0.849000000000000643,-0.430113679382632674
0.850000000000000644,-0.426563217502080871
0.851000000000000645,-0.423035414548104338
0.852000000000000646,-0.419530223759508936
0.853000000000000647,-0.416047597082207676
0.854000000000000647,-0.412587485191922787
0.855000000000000648,-0.409149837516734727
0.856000000000000649,-0.405734602259459176
0.857000000000000650,-0.402341726419860435
0.858000000000000651,-0.398971155816688516
0.859000000000000652,-0.395622835109560922
0.860000000000000653,-0.392296707820668389
0.861000000000000654,-0.388992716356297785
0.862000000000000655,-0.385710802028206678
0.863000000000000655,-0.382450905074795844
0.864000000000000656,-0.379212964682128895
0.865000000000000657,-0.375996919004761732
0.866000000000000658,-0.372802705186404237
0.867000000000000659,-0.369630259380404058
0.868000000000000660,-0.366479516770040870
0.869000000000000661,-0.363350411588655109
0.870000000000000662,-0.360242877139589246
0.871000000000000663,-0.357156845815958746
0.872000000000000663,-0.354092249120223579
0.873000000000000664,-0.351049017683600417
0.874000000000000665,-0.348027081285275541
0.875000000000000666,-0.345026368871450939
0.876000000000000667,-0.342046808574195282
0.877000000000000668,-0.339088327730121375
0.878000000000000669,-0.336150852898881858
0.879000000000000670,-0.333234309881470792
0.880000000000000671,-0.330338623738361925
0.881000000000000671,-0.327463718807442905
0.882000000000000672,-0.324609518721788670
0.883000000000000673,-0.321775946427233339
0.884000000000000674,-0.318962924199774733
0.885000000000000675,-0.316170373662783777
0.886000000000000676,-0.313398215804047031
0.887000000000000677,-0.310646370992614607
0.888000000000000678,-0.307914758995467885
0.889000000000000679,-0.305203298994019323
0.890000000000000679,-0.302511909600414353
0.891000000000000680,-0.299840508873667422
0.892000000000000681,-0.297189014335609125
0.893000000000000682,-0.294557342986655590
0.894000000000000683,-0.291945411321401616
0.895000000000000684,-0.289353135344037449
0.896000000000000685,-0.286780430583581047
0.897000000000000686,-0.284227212108938920
0.898000000000000687,-0.281693394543791997
0.899000000000000687,-0.279178892081296426
0.900000000000000688,-0.276683618498618833
0.901000000000000689,-0.274207487171292730
0.902000000000000690,-0.271750411087405996
0.903000000000000691,-0.269312302861607678
0.904000000000000692,-0.266893074748945858
0.905000000000000693,-0.264492638658538670
0.906000000000000694,-0.262110906167069779
0.907000000000000695,-0.259747788532111112
0.908000000000000695,-0.257403196705290549
0.909000000000000696,-0.255077041345270761
0.910000000000000697,-0.252769232830582169
0.911000000000000698,-0.250479681272273269
0.912000000000000699,-0.248208296526402888
0.913000000000000700,-0.245954988206376429
0.914000000000000701,-0.243719665695093457
0.915000000000000702,-0.241502238156965088
0.916000000000000703,-0.239302614549744858
0.917000000000000703,-0.237120703636213959
0.918000000000000704,-0.234956413995698471
0.919000000000000705,-0.232809654035429636
0.920000000000000706,-0.230680332001757138
0.921000000000000707,-0.228568355991187688
0.922000000000000708,-0.226473633961281701
0.923000000000000709,-0.224396073741400359
0.924000000000000710,-0.222335583043278107
0.925000000000000711,-0.220292069471469093
0.926000000000000711,-0.218265440533622262
0.927000000000000712,-0.216255603650619632
0.928000000000000713,-0.214262466166558363
0.929000000000000714,-0.212285935358595523
0.930000000000000715,-0.210325918446627208
0.931000000000000716,-0.208382322602841563
0.932000000000000717,-0.206455054961123124
0.933000000000000718,-0.204544022626303640
0.934000000000000719,-0.202649132683285410
0.935000000000000719,-0.200770292206015361
0.936000000000000720,-0.198907408266320668
0.937000000000000721,-0.197060387942606108
0.938000000000000722,-0.195229138328420065
0.939000000000000723,-0.193413566540872883
0.940000000000000724,-0.191613579728931255
0.941000000000000725,-0.189829085081571203
0.942000000000000726,-0.188059989835807018
0.943000000000000727,-0.186306201284576145
0.944000000000000727,-0.184567626784507721
0.945000000000000728,-0.182844173763554829
0.946000000000000729,-0.181135749728493833
0.947000000000000730,-0.179442262272311220
0.948000000000000731,-0.177763619081448276
0.949000000000000732,-0.176099727942937351
0.950000000000000733,-0.174450496751398787
0.951000000000000734,-0.172815833515936434
0.952000000000000735,-0.171195646366889026
0.953000000000000735,-0.169589843562475362
0.954000000000000736,-0.167998333495322255
0.955000000000000737,-0.166421024698869185
0.956000000000000738,-0.164857825853660156
0.957000000000000739,-0.163308645793519031
0.958000000000000740,-0.161773393511610575
0.959000000000000741,-0.160251978166389808
0.960000000000000742,-0.158744309087444219
0.961000000000000743,-0.157250295781214133
0.962000000000000743,-0.155769847936613942
0.963000000000000744,-0.154302875430541275
0.964000000000000745,-0.152849288333284761
0.965000000000000746,-0.151408996913813543
0.966000000000000747,-0.149981911644973931
0.967000000000000748,-0.148567943208574915
0.968000000000000749,-0.147167002500382338
0.969000000000000750,-0.145779000634992301
0.970000000000000751,-0.144403848950627328
0.971000000000000751,-0.143041459013813821
0.972000000000000752,-0.141691742623968026
0.973000000000000753,-0.140354611817898739
0.974000000000000754,-0.139029978874187388
0.975000000000000755,-0.137717756317498108
0.976000000000000756,-0.136417856922779523
0.977000000000000757,-0.135130193719378344
0.978000000000000758,-0.133854679995061066
0.979000000000000759,-0.132591229299951735
0.980000000000000759,-0.131339755450363638
0.981000000000000760,-0.130100172532559705
0.982000000000000761,-0.128872394906421106
0.983000000000000762,-0.127656337209022031
0.984000000000000763,-0.126451914358125472
0.985000000000000764,-0.125259041555598138
0.986000000000000765,-0.124077634290734443
0.987000000000000766,-0.122907608343501187
0.988000000000000766,-0.121748879787701325
0.989000000000000767,-0.120601364994064847
0.990000000000000768,-0.119464980633245732
0.991000000000000769,-0.118339643678750300
0.992000000000000770,-0.117225271409786030
0.993000000000000771,-0.116121781414041017
0.994000000000000772,-0.115029091590370808
0.995000000000000773,-0.113947120151433004
0.996000000000000774,-0.112875785626229172
0.997000000000000774,-0.111815006862587080
0.998000000000000775,-0.110764703029565231
0.999000000000000776,-0.109724793619789443
1.000000000000000666,-0.108695198451716823
1.001000000000000778,-0.107675837671837610
1.002000000000000668,-0.106666631756800620
1.003000000000000780,-0.105667501515475520
1.004000000000000670,-0.104678368090953960
1.005000000000000782,-0.103699152962477489
1.006000000000000671,-0.102729777947309114
1.007000000000000783,-0.101770165202529975
1.008000000000000673,-0.100820237226788165
1.009000000000000785,-0.099879916861977197
1.010000000000000675,-0.098949127294853070
1.011000000000000787,-0.098027792058593050
1.012000000000000677,-0.097115835034301434
1.013000000000000789,-0.096213180452446784
1.014000000000000679,-0.095319752894245699
1.015000000000000790,-0.094435477292995132
1.016000000000000680,-0.093560278935345423
1.017000000000000792,-0.092694083462509028
1.018000000000000682,-0.091836816871434648
1.019000000000000794,-0.090988405515908949
1.020000000000000684,-0.090148776107618928
1.021000000000000796,-0.089317855717155850
1.022000000000000686,-0.088495571774965281
1.023000000000000798,-0.087681852072259092
1.024000000000000687,-0.086876624761862573
1.025000000000000799,-0.086079818359023980
1.026000000000000689,-0.085291361742171848
1.027000000000000801,-0.084511184153624019
1.028000000000000691,-0.083739215200252695
1.029000000000000803,-0.082975384854101678
1.030000000000000693,-0.082219623452956872
1.031000000000000805,-0.081471861700879569
1.032000000000000695,-0.080732030668683535
1.033000000000000806,-0.080000061794384417
1.034000000000000696,-0.079275886883594202
1.035000000000000808,-0.078559438109875063
1.036000000000000698,-0.077850648015060989
1.037000000000000810,-0.077149449509536241
1.038000000000000700,-0.076455775872460649
1.039000000000000812,-0.075769560751974635
1.040000000000000702,-0.075090738165357274
1.041000000000000814,-0.074419242499146485
1.042000000000000703,-0.073755008509215764
1.043000000000000815,-0.073097971320832206
1.044000000000000705,-0.072448066428661445
1.045000000000000817,-0.071805229696740164
1.046000000000000707,-0.071169397358424674
1.047000000000000819,-0.070540506016294691
1.048000000000000709,-0.069918492642020144
1.049000000000000821,-0.069303294576213231
1.050000000000000711,-0.068694849528224716
1.051000000000000822,-0.068093095575929963
1.052000000000000712,-0.067497971165467449
1.053000000000000824,-0.066909415110952719
1.054000000000000714,-0.066327366594167075
1.055000000000000826,-0.065751765164206916
1.056000000000000716,-0.065182550737114625
1.057000000000000828,-0.064619663595469001
1.058000000000000718,-0.064063044387958040
1.059000000000000830,-0.063512634128919651
1.060000000000000719,-0.062968374197857779
1.061000000000000831,-0.062430206338923780
1.062000000000000721,-0.061898072660386529
1.063000000000000833,-0.061371915634066819
1.064000000000000723,-0.060851678094743455
1.065000000000000835,-0.060337303239545850
1.066000000000000725,-0.059828734627319483
1.067000000000000837,-0.059325916177954220
1.068000000000000727,-0.058828792171716250
1.069000000000000838,-0.058337307248527745
1.070000000000000728,-0.057851406407247695
1.071000000000000840,-0.057371035004918490
1.072000000000000730,-0.056896138755996285
1.073000000000000842,-0.056426663731558316
1.074000000000000732,-0.055962556358487722
1.075000000000000844,-0.055503763418646698
1.076000000000000734,-0.055050232048021966
1.077000000000000846,-0.054601909735851037
1.078000000000000735,-0.054158744323739128
1.079000000000000847,-0.053720684004744348
1.080000000000000737,-0.053287677322459592
1.081000000000000849,-0.052859673170060260
1.082000000000000739,-0.052436620789351386
1.083000000000000851,-0.052018469769787336
1.084000000000000741,-0.051605170047480865
1.085000000000000853,-0.051196671904189903
1.086000000000000743,-0.050792925966296851
1.087000000000000854,-0.050393883203765220
1.088000000000000744,-0.049999494929091212
1.089000000000000856,-0.049609712796222991
1.090000000000000746,-0.049224488799488889
1.091000000000000858,-0.048843775272495213
1.092000000000000748,-0.048467524887013558
1.093000000000000860,-0.048095690651862512
1.094000000000000750,-0.047728225911765863
1.095000000000000862,-0.047365084346207571
1.096000000000000751,-0.047006219968269584
1.097000000000000863,-0.046651587123457253
1.098000000000000753,-0.046301140488518668
1.099000000000000865,-0.045954835070249354
1.100000000000000755,-0.045612626204279923
1.101000000000000867,-0.045274469553866686
1.102000000000000757,-0.044940321108661974
1.103000000000000869,-0.044610137183478511
1.104000000000000759,-0.044283874417037766
1.105000000000000870,-0.043961489770723103
1.106000000000000760,-0.043642940527305309
1.107000000000000872,-0.043328184289675407
1.108000000000000762,-0.043017178979562566
1.109000000000000874,-0.042709882836238902
1.110000000000000764,-0.042406254415225067
1.111000000000000876,-0.042106252586981301
1.112000000000000766,-0.041809836535596584
1.113000000000000878,-0.041516965757465704
1.114000000000000767,-0.041227600059963954
1.115000000000000879,-0.040941699560109103
1.116000000000000769,-0.040659224683222320
1.117000000000000881,-0.040380136161581828
1.118000000000000771,-0.040104395033068563
1.119000000000000883,-0.039831962639808094
1.120000000000000773,-0.039562800626807323
1.121000000000000885,-0.039296870940580216
1.122000000000000774,-0.039034135827778670
1.123000000000000886,-0.038774557833808600
1.124000000000000776,-0.038518099801451426
1.125000000000000888,-0.038264724869466624
1.126000000000000778,-0.038014396471206101
1.127000000000000890,-0.037767078333218178
1.128000000000000780,-0.037522734473838998
1.129000000000000892,-0.037281329201796373
1.130000000000000782,-0.037042827114798754
1.131000000000000894,-0.036807193098124261
1.132000000000000783,-0.036574392323206216
1.133000000000000895,-0.036344390246222637
1.134000000000000785,-0.036117152606663469
1.135000000000000897,-0.035892645425926135
1.136000000000000787,-0.035670835005876575
1.137000000000000899,-0.035451687927432730
1.138000000000000789,-0.035235171049127996
1.139000000000000901,-0.035021251505694066
1.140000000000000790,-0.034809896706617549
1.141000000000000902,-0.034601074334707826
1.142000000000000792,-0.034394752344670980
1.143000000000000904,-0.034190898961669623
1.144000000000000794,-0.033989482679887224
1.145000000000000906,-0.033790472261086162
1.146000000000000796,-0.033593836733181934
1.147000000000000908,-0.033399545388792876
1.148000000000000798,-0.033207567783808491
1.149000000000000909,-0.033017873735949180
1.150000000000000799,-0.032830433323325428
1.151000000000000689,-0.032645216883001711
1.152000000000000801,-0.032462195009558339
1.153000000000000913,-0.032281338553650334
1.154000000000000803,-0.032102618620571455
1.155000000000000693,-0.031926006568816424
1.156000000000000805,-0.031751474008647758
1.157000000000000917,-0.031578992800653176
1.158000000000000806,-0.031408535054318752
1.159000000000000696,-0.031240073126590349
1.160000000000000808,-0.031073579620442039
1.161000000000000920,-0.030909027383446457
1.162000000000000810,-0.030746389506346800
1.163000000000000700,-0.030585639321621581
1.164000000000000812,-0.030426750402069401
1.165000000000000924,-0.030269696559372263
1.166000000000000814,-0.030114451842681873
1.167000000000000703,-0.029960990537194969
1.168000000000000815,-0.029809287162735825
1.169000000000000927,-0.029659316472335912
1.170000000000000817,-0.029511053450827995
1.171000000000000707,-0.029364473313422224
1.172000000000000819,-0.029219551504308570
1.173000000000000931,-0.029076263695241893
1.174000000000000821,-0.028934585784138499
1.175000000000000711,-0.028794493893679191
1.176000000000000822,-0.028655964369904880
1.177000000000000934,-0.028518973780822958
1.178000000000000824,-0.028383498915014488
1.179000000000000714,-0.028249516780241696
1.180000000000000826,-0.028117004602066741
1.181000000000000938,-0.027985939822461003
1.182000000000000828,-0.027856300098429088
1.183000000000000718,-0.027728063300630500
1.184000000000000830,-0.027601207512006804
1.185000000000000941,-0.027475711026407106
1.186000000000000831,-0.027351552347229698
1.187000000000000721,-0.027228710186049582
1.188000000000000833,-0.027107163461266376
1.189000000000000945,-0.026986891296744964
1.190000000000000835,-0.026867873020466736
1.191000000000000725,-0.026750088163172925
1.192000000000000837,-0.026633516457036949
1.193000000000000949,-0.026518137834305150
1.194000000000000838,-0.026403932425976974
1.195000000000000728,-0.026290880560462047
1.196000000000000840,-0.026178962762258073
1.197000000000000952,-0.026068159750627311
1.198000000000000842,-0.025958452438272279
1.199000000000000732,-0.025849821930030430
1.200000000000000844,-0.025742249521548560
1.201000000000000956,-0.025635716697993898
1.202000000000000846,-0.025530205132737026
1.203000000000000735,-0.025425696686067194
1.204000000000000847,-0.025322173403887250
1.205000000000000959,-0.025219617516437903
1.206000000000000849,-0.025118011437004328
1.207000000000000739,-0.025017337760641072
1.208000000000000851,-0.024917579262898230
1.209000000000000963,-0.024818718898552035
1.210000000000000853,-0.024720739800338416
1.211000000000000743,-0.024623625277693829
1.212000000000000854,-0.024527358815500624
1.213000000000000966,-0.024431924072835422
1.214000000000000856,-0.024337304881727969
1.215000000000000746,-0.024243485245911609
1.216000000000000858,-0.024150449339601376
1.217000000000000970,-0.024058181506248933
1.218000000000000860,-0.023966666257326900
1.219000000000000750,-0.023875888271106854
1.220000000000000862,-0.023785832391440921
1.221000000000000973,-0.023696483626552741
1.222000000000000863,-0.023607827147835374
1.223000000000000753,-0.023519848288645874
1.224000000000000865,-0.023432532543115534
1.225000000000000977,-0.023345865564957779
1.226000000000000867,-0.023259833166284029
1.227000000000000757,-0.023174421316425380
1.228000000000000869,-0.023089616140753316
1.229000000000000981,-0.023005403919523874
1.230000000000000870,-0.022921771086698427
1.231000000000000760,-0.022838704228796157
1.232000000000000872,-0.022756190083740316
1.233000000000000984,-0.022674215539702197
1.234000000000000874,-0.022592767633973849
1.235000000000000764,-0.022511833551815193
1.236000000000000876,-0.022431400625335579
1.237000000000000988,-0.022351456332358289
1.238000000000000878,-0.022271988295308305
1.239000000000000767,-0.022192984280089104
1.240000000000000879,-0.022114432194979362
1.241000000000000991,-0.022036320089524150
1.242000000000000881,-0.021958636153436982
1.243000000000000771,-0.021881368715509726
1.244000000000000883,-0.021804506242515984
1.245000000000000995,-0.021728037338139480
1.246000000000000885,-0.021651950741889248
1.247000000000000774,-0.021576235328029124
1.248000000000000886,-0.021500880104513221
1.249000000000000998,-0.021425874211922900
1.250000000000000888,-0.021351206922415700
1.251000000000000778,-0.021276867638669001
1.252000000000000890,-0.021202845892841677
1.253000000000001002,-0.021129131345528216
1.254000000000000892,-0.021055713784734916
1.255000000000000782,-0.020982583124843055
1.256000000000000894,-0.020909729405589748
1.257000000000001005,-0.020837142791053032
1.258000000000000895,-0.020764813568637578
1.259000000000000785,-0.020692732148066845
1.260000000000000897,-0.020620889060388042
1.261000000000001009,-0.020549274956972407
1.262000000000000899,-0.020477880608527146
1.263000000000000789,-0.020406696904109237
1.264000000000000901,-0.020335714850152030
1.265000000000001013,-0.020264925569485677
1.266000000000000902,-0.020194320300371663
1.267000000000000792,-0.020123890395542507
1.268000000000000904,-0.020053627321241038
1.269000000000001016,-0.019983522656271690
1.270000000000000906,-0.019913568091053942
1.271000000000000796,-0.019843755426680754
1.272000000000000908,-0.019774076573982363
1.273000000000001020,-0.019704523552599343
1.274000000000000909,-0.019635088490056112
1.275000000000000799,-0.019565763620839591
1.276000000000000911,-0.019496541285493156
1.277000000000001023,-0.019427413929697789
1.278000000000000913,-0.019358374103378484
1.279000000000000803,-0.019289414459799061
1.280000000000000915,-0.019220527754679147
1.281000000000001027,-0.019151706845293555
1.282000000000000917,-0.019082944689605176
1.283000000000000806,-0.019014234345377561
1.284000000000000918,-0.018945568969312179
1.285000000000001030,-0.018876941816174303
1.286000000000000920,-0.018808346237942263
1.287000000000000810,-0.018739775682941415
1.288000000000000922,-0.018671223695005023
1.289000000000001034,-0.018602683912621057
1.290000000000000924,-0.018534150068094338
1.291000000000000814,-0.018465615986719405
1.292000000000000925,-0.018397075585938394
1.293000000000001037,-0.018328522874531031
1.294000000000000927,-0.018259951951784911
1.295000000000000817,-0.018191357006689200
1.296000000000000929,-0.018122732317121266
1.297000000000001041,-0.018054072249044539
1.298000000000000931,-0.017985371255714023
1.299000000000000821,-0.017916623876878875
1.300000000000000933,-0.017847824737994494
1.301000000000001044,-0.017778968549442754
1.302000000000000934,-0.017710050105750011
1.303000000000000824,-0.017641064284818396
1.304000000000000936,-0.017572006047152703
1.305000000000001048,-0.017502870435103637
1.306000000000000938,-0.017433652572107414
1.307000000000000828,-0.017364347661928632
1.308000000000000940,-0.017294950987916658
1.309000000000001052,-0.017225457912265277
1.310000000000000941,-0.017155863875269753
1.311000000000000831,-0.017086164394592877
1.312000000000000943,-0.017016355064537227
1.313000000000001055,-0.016946431555330120
1.314000000000000945,-0.016876389612392968
1.315000000000000835,-0.016806225055632104
1.316000000000000947,-0.016735933778731837
1.317000000000001059,-0.016665511748449914
1.318000000000000949,-0.016594955003912813
1.319000000000000838,-0.016524259655929775
1.320000000000000950,-0.016453421886296050
1.321000000000001062,-0.016382437947108620
1.322000000000000952,-0.016311304160088587
1.323000000000000842,-0.016240016915903103
1.324000000000000954,-0.016168572673495949
1.325000000000001066,-0.016096967959416598
1.326000000000000956,-0.016025199367165992
1.327000000000000846,-0.015953263556530879
1.328000000000000957,-0.015881157252938729
1.329000000000001069,-0.015808877246801391
1.330000000000000959,-0.015736420392881662
1.331000000000000849,-0.015663783609645369
1.332000000000000961,-0.015590963878629783
1.333000000000001073,-0.015517958243814300
1.334000000000000963,-0.015444763810996706
1.335000000000000853,-0.015371377747166265
1.336000000000000965,-0.015297797279894009
1.337000000000001076,-0.015224019696715083
1.338000000000000966,-0.015150042344522396
1.339000000000000856,-0.015075862628967060
1.340000000000000968,-0.015001478013851313
1.341000000000001080,-0.014926886020540162
1.342000000000000970,-0.014852084227369144
1.343000000000000860,-0.014777070269056284
1.344000000000000972,-0.014701841836122147
1.345000000000001084,-0.014626396674314779
1.346000000000000973,-0.014550732584027993
1.347000000000000863,-0.014474847419740816
1.348000000000000975,-0.014398739089446083
1.349000000000001087,-0.014322405554094916
1.350000000000000977,-0.014245844827034528
1.351000000000000867,-0.014169054973462377
1.352000000000000979,-0.014092034109868007
1.353000000000001091,-0.014014780403498642
1.354000000000000981,-0.013937292071814470
1.355000000000000870,-0.013859567381948917
1.356000000000000982,-0.013781604650182503
1.357000000000001094,-0.013703402241412069
1.358000000000000984,-0.013624958568624401
1.359000000000000874,-0.013546272092378553
1.360000000000000986,-0.013467341320288900
1.361000000000001098,-0.013388164806514441
1.362000000000000988,-0.013308741151243480
1.363000000000000878,-0.013229069000196778
1.364000000000000989,-0.013149147044126754
1.365000000000001101,-0.013068974018311506
1.366000000000000991,-0.012988548702071548
1.367000000000000881,-0.012907869918275625
1.368000000000000993,-0.012826936532857099
1.369000000000001105,-0.012745747454330447
1.370000000000000995,-0.012664301633313646
1.371000000000000885,-0.012582598062055275
1.372000000000000997,-0.012500635773962354
1.373000000000001108,-0.012418413843137733
1.374000000000000998,-0.012335931383903327
1.375000000000000888,-0.012253187550361852
1.376000000000001000,-0.012170181535921509
1.377000000000001112,-0.012086912572855027
1.378000000000001002,-0.012003379931845195
1.379000000000000892,-0.011919582921542373
1.380000000000001004,-0.011835520888121105
1.381000000000001116,-0.011751193214845084
1.382000000000001005,-0.011666599321626749
1.383000000000000895,-0.011581738664600855
1.384000000000001007,-0.011496610735695995
1.385000000000001119,-0.011411215062208598
1.386000000000001009,-0.011325551206384657
1.387000000000000899,-0.011239618764994972
1.388000000000001011,-0.011153417368936274
1.389000000000001123,-0.011066946682801565
1.390000000000001013,-0.010980206404486995
1.391000000000000902,-0.010893196264779845
1.392000000000001014,-0.010805916026962400
1.393000000000001126,-0.010718365486411519
1.394000000000001016,-0.010630544470207181
1.395000000000000906,-0.010542452836737871
1.396000000000001018,-0.010454090475314086
1.397000000000001130,-0.010365457305785798
1.398000000000001020,-0.010276553278160686
1.399000000000000909,-0.010187378372221298
1.400000000000001021,-0.010097932597155978
1.401000000000001133,-0.010008215991184377
1.402000000000001023,-0.009918228621187719
1.403000000000000913,-0.009827970582343378
1.404000000000001025,-0.009737441997763741
1.405000000000001137,-0.009646643018136034
1.406000000000001027,-0.009555573821362188
1.407000000000000917,-0.009464234612213556
1.408000000000001029,-0.009372625621969341
1.409000000000001140,-0.009280747108078602
1.410000000000001030,-0.009188599353809796
1.411000000000000920,-0.009096182667912178
1.412000000000001032,-0.009003497384273206
1.413000000000001144,-0.008910543861588122
1.414000000000001034,-0.008817322483022813
1.415000000000000924,-0.008723833655882496
1.416000000000001036,-0.008630077811289780
1.417000000000001148,-0.008536055403856739
1.418000000000001037,-0.008441766911361878
1.419000000000000927,-0.008347212834434219
1.420000000000001039,-0.008252393696233568
1.421000000000001151,-0.008157310042143711
1.422000000000001041,-0.008061962439453969
1.423000000000000931,-0.007966351477056077
1.424000000000001043,-0.007870477765137796
1.425000000000001155,-0.007774341934880103
1.426000000000001044,-0.007677944638157469
1.427000000000000934,-0.007581286547242469
1.428000000000001046,-0.007484368354508442
1.429000000000001158,-0.007387190772136856
1.430000000000001048,-0.007289754531832932
1.431000000000000938,-0.007192060384533719
1.432000000000001050,-0.007094109100126721
1.433000000000001162,-0.006995901467167266
1.434000000000001052,-0.006897438292598236
1.435000000000000941,-0.006798720401477326
1.436000000000001053,-0.006699748636698940
1.437000000000001165,-0.006600523858720635
1.438000000000001055,-0.006501046945304037
1.439000000000000945,-0.006401318791235852
1.440000000000001057,-0.006301340308071957
1.441000000000001169,-0.006201112423868576
1.442000000000001059,-0.006100636082929533
1.443000000000000949,-0.005999912245547328
1.444000000000001060,-0.005898941887745222
1.445000000000001172,-0.005797726001025478
1.446000000000001062,-0.005696265592125555
1.447000000000000952,-0.005594561682759592
1.448000000000001064,-0.005492615309382162
1.449000000000001176,-0.005390427522942684
1.450000000000001066,-0.005287999388639664
1.451000000000000956,-0.005185331985687774
1.452000000000001068,-0.005082426407080134
1.453000000000001180,-0.004979283759351889
1.454000000000001069,-0.004875905162349927
1.455000000000000959,-0.004772291749003487
1.456000000000001071,-0.004668444665092461
1.457000000000001183,-0.004564365069030197
1.458000000000001073,-0.004460054131631785
1.459000000000000963,-0.004355513035894779
1.460000000000001075,-0.004250742976784632
1.461000000000001187,-0.004145745161009591
1.462000000000001076,-0.004040520806816487
1.463000000000000966,-0.003935071143766499
1.464000000000001078,-0.003829397412529950
1.465000000000001190,-0.003723500864682239
1.466000000000001080,-0.003617382762483266
1.467000000000000970,-0.003511044378687915
1.468000000000001082,-0.003404486996334343
1.469000000000001194,-0.003297711908544403
1.470000000000001084,-0.003190720418326447
1.471000000000000973,-0.003083513838376420
1.472000000000001085,-0.002976093490886012
1.473000000000001197,-0.002868460707346842
1.474000000000001087,-0.002760616828359705
1.475000000000000977,-0.002652563203443702
1.476000000000001089,-0.002544301190854571
1.477000000000001201,-0.002435832157393574
1.478000000000001091,-0.002327157478224253
1.479000000000000981,-0.002218278536694797
1.480000000000001092,-0.002109196724151292
1.481000000000001204,-0.001999913439766584
1.482000000000001094,-0.001890430090358575
1.483000000000000984,-0.001780748090219459
1.484000000000001096,-0.001670868860940907
1.485000000000001208,-0.001560793831239006
1.486000000000001098,-0.001450524436795132
1.487000000000000988,-0.001340062120077794
1.488000000000001100,-0.001229408330180998
1.489000000000001211,-0.001118564522661868
1.490000000000001101,-0.001007532159376089
1.491000000000000991,-0.000896312708314343
1.492000000000001103,-0.000784907643450598
1.493000000000001215,-0.000673318444576800
1.494000000000001105,-0.000561546597149728
1.495000000000000995,-0.000449593592138448
1.496000000000001107,-0.000337460925869778
1.497000000000001219,-0.000225150099877901
1.498000000000001108,-0.000112662620754657
1.499000000000000998,0.000000000000000000
