# AuFCC100-Ablate0_EST-AC
# h[nm],U(h)[kJ/mol]
0.149999999999999994,128.851357073592851066
0.150999999999999995,127.377178889454086175
0.151999999999999996,123.210658069135476467
0.152999999999999997,118.524324980901525350
0.153999999999999998,114.164768130393525780
0.154999999999999999,110.322882917304610828
0.156000000000000000,106.911137864072856019
0.157000000000000001,103.762183127528516025
0.158000000000000002,100.722315841559918681
0.159000000000000002,97.686091560352878105
0.160000000000000003,94.600449283100388698
0.161000000000000004,91.455110809698652474
0.162000000000000005,88.268650277391031977
0.163000000000000006,85.075078454951352569
0.164000000000000007,81.913072914279425163
0.165000000000000008,78.818449283192265398
0.166000000000000009,75.819668795508221137
0.167000000000000010,72.935822084131274323
0.168000000000000010,70.176429937772084600
0.169000000000000011,67.542439065780627061
0.170000000000000012,65.027891366977740972
0.171000000000000013,62.621865563046846148
0.172000000000000014,60.310406529857587543
0.173000000000000015,58.078258580274123801
0.174000000000000016,55.910299983077969443
0.175000000000000017,53.792636989834349492
0.176000000000000018,51.713358608929468119
0.177000000000000018,49.662981278757037273
0.178000000000000019,47.634628624373149819
0.179000000000000020,45.623998613365721155
0.180000000000000021,43.629171245650560707
0.181000000000000022,41.650306546205946745
0.182000000000000023,39.689276750413007733
0.183000000000000024,37.749269435802247585
0.184000000000000025,35.834390865187799591
0.185000000000000026,33.949291579113349826
0.186000000000000026,32.098829697772437441
0.187000000000000027,30.287781679292642423
0.188000000000000028,28.520605521809379468
0.189000000000000029,26.801257592494344806
0.190000000000000030,25.133061361085104579
0.191000000000000031,23.518624216945291039
0.192000000000000032,21.959797147800859562
0.193000000000000033,20.457671239851428879
0.194000000000000034,19.012604610400785532
0.195000000000000034,17.624273400935770439
0.196000000000000035,16.291740747318360860
0.197000000000000036,15.013538123662797830
0.198000000000000037,13.787754059727467038
0.199000000000000038,12.612125902924923082
0.200000000000000039,11.484130991540073552
0.201000000000000040,10.401074291935234584
0.202000000000000041,9.360170204834629359
0.203000000000000042,8.358616847195930788
0.204000000000000042,7.393661655899276930
0.205000000000000043,6.462657631745093667
0.206000000000000044,5.563109945199628648
0.207000000000000045,4.692712960101815156
0.208000000000000046,3.849378001448103159
0.209000000000000047,3.031252403210674018
0.210000000000000048,2.236730527666765056
0.211000000000000049,1.464457555183715565
0.212000000000000050,0.713326909233899187
0.213000000000000050,-0.017527788060024717
0.214000000000000051,-0.728745333286701658
0.215000000000000052,-1.420753257817924942
0.216000000000000053,-2.093787009255453135
0.217000000000000054,-2.747911219683579986
0.218000000000000055,-3.383042346795281041
0.219000000000000056,-3.998972044990233066
0.220000000000000057,-4.595390698024075959
0.221000000000000058,-5.171910620267598624
0.222000000000000058,-5.728088508134706380
0.223000000000000059,-6.263446795177729065
0.224000000000000060,-6.777493632531556678
0.225000000000000061,-7.269741279930765465
0.226000000000000062,-7.739722750823347042
0.227000000000000063,-8.187006607795195734
0.228000000000000064,-8.611209851428709428
0.229000000000000065,-9.012008886839627309
0.230000000000000066,-9.389148587583964201
0.231000000000000066,-9.742449506624968336
0.232000000000000067,-10.071813308890055438
0.233000000000000068,-10.377226519981547881
0.234000000000000069,-10.658762701216391022
0.235000000000000070,-10.916583172765829346
0.236000000000000071,-11.150936414660133522
0.237000000000000072,-11.362156280229337213
0.238000000000000073,-11.550659158569846596
0.239000000000000073,-11.716940222244959457
0.240000000000000074,-11.861568894011861985
0.241000000000000075,-11.985183662257211878
0.242000000000000076,-12.088486369334177084
0.243000000000000077,-12.172236090413345977
0.244000000000000078,-12.237242713047301379
0.245000000000000079,-12.284360319634602732
0.246000000000000080,-12.314480466560716820
0.247000000000000081,-12.328525445167414887
0.248000000000000081,-12.327441601014264450
0.249000000000000082,-12.312192779276989185
0.250000000000000111,-12.283753955688322179
0.251000000000000112,-12.243105104257296034
0.252000000000000113,-12.191225345177603145
0.253000000000000114,-12.129087408909128953
0.254000000000000115,-12.057652445435241617
0.255000000000000115,-11.977865201188965472
0.256000000000000116,-11.890649580126009255
0.257000000000000117,-11.796904599909824540
0.258000000000000118,-11.697500749165767431
0.259000000000000119,-11.593276747253316472
0.260000000000000120,-11.485036703986025941
0.261000000000000121,-11.373547673182367035
0.262000000000000122,-11.259537590839027388
0.263000000000000123,-11.143693586057839440
0.264000000000000123,-11.026660650605336400
0.265000000000000124,-10.909040651113041775
0.266000000000000125,-10.791391666411412231
0.267000000000000126,-10.674227631302134256
0.268000000000000127,-10.558018267186410455
0.269000000000000128,-10.443189279352866450
0.270000000000000129,-10.330122800361825952
0.271000000000000130,-10.219158058817011892
0.272000000000000131,-10.110592252867155239
0.273000000000000131,-10.004681608003810567
0.274000000000000132,-9.901642599097346675
0.275000000000000133,-9.801653317118059761
0.276000000000000134,-9.704854961604906904
0.277000000000000135,-9.611353440652397495
0.278000000000000136,-9.521221060969265793
0.279000000000000137,-9.434498291405940762
0.280000000000000138,-9.351195584237213865
0.281000000000000139,-9.271295239408988920
0.282000000000000139,-9.194753297902478195
0.283000000000000140,-9.121501451325233489
0.284000000000000141,-9.051448955796576712
0.285000000000000142,-8.984484539148137827
0.286000000000000143,-8.920478291400460336
0.287000000000000144,-8.859283529398059187
0.288000000000000145,-8.800738627383832835
0.289000000000000146,-8.744668806163117480
0.290000000000000147,-8.690887874346250541
0.291000000000000147,-8.639199915961835785
0.292000000000000148,-8.589400919500128850
0.293000000000000149,-8.541280344173731720
0.294000000000000150,-8.494622619871458724
0.295000000000000151,-8.449208577929255171
0.296000000000000152,-8.404816810448703990
0.297000000000000153,-8.361224956460315383
0.298000000000000154,-8.318210913753775415
0.299000000000000155,-8.275553975683427765
0.300000000000000155,-8.233035892703378877
0.301000000000000156,-8.190441858794788033
0.302000000000000157,-8.147561423319402252
0.303000000000000158,-8.104189329168590916
0.304000000000000159,-8.060126278378742626
0.305000000000000160,-8.015179626651955047
0.306000000000000161,-7.969164008458532678
0.307000000000000162,-7.921901894605315242
0.308000000000000163,-7.873224084333321215
0.309000000000000163,-7.822970134161828071
0.310000000000000164,-7.770988725824262033
0.311000000000000165,-7.717137975746867440
0.312000000000000166,-7.661285688605204314
0.313000000000000167,-7.603309557557460963
0.314000000000000168,-7.543097313799260739
0.315000000000000169,-7.480546828113442182
0.316000000000000170,-7.415566167101563799
0.317000000000000171,-7.348073606783017908
0.318000000000000171,-7.277997606233931549
0.319000000000000172,-7.205276743913069382
0.320000000000000173,-7.129859619286281536
0.321000000000000174,-7.051704722316375573
0.322000000000000175,-6.970780273332548127
0.323000000000000176,-6.887064035733535761
0.324000000000000177,-6.800543103912536580
0.325000000000000178,-6.711213668720458436
0.326000000000000179,-6.619080762708614785
0.327000000000000179,-6.524157987311921758
0.328000000000000180,-6.426467224051521043
0.329000000000000181,-6.326038331751162147
0.330000000000000182,-6.222908831674457630
0.331000000000000183,-6.117123582403442228
0.332000000000000184,-6.008734446189792244
0.333000000000000185,-5.897799948422084881
0.334000000000000186,-5.784384931764131821
0.335000000000000187,-5.668560206431713766
0.336000000000000187,-5.550402197988671738
0.337000000000000188,-5.429992593957589264
0.338000000000000189,-5.307417990456771761
0.339000000000000190,-5.182769539992887253
0.340000000000000191,-5.056142601458384789
0.341000000000000192,-4.927636393305330209
0.342000000000000193,-4.797353650790570967
0.343000000000000194,-4.665400288114894600
0.344000000000000195,-4.531885066206971402
0.345000000000000195,-4.396919266835351614
0.346000000000000196,-4.260616373665702561
0.347000000000000197,-4.123091760817580997
0.348000000000000198,-3.984462389415011074
0.349000000000000199,-3.844846512567202446
0.350000000000000200,-3.704363389161423381
0.351000000000000201,-3.563133006797428948
0.352000000000000202,-3.421275814143854177
0.353000000000000203,-3.278912462950073436
0.354000000000000203,-3.136163559902747533
0.355000000000000204,-2.993149428474958906
0.356000000000000205,-2.849989880876668824
0.357000000000000206,-2.706804000178584690
0.358000000000000207,-2.563709932647365353
0.359000000000000208,-2.420824690298254200
0.360000000000000209,-2.278263963641552703
0.361000000000000210,-2.136141944571851248
0.362000000000000210,-1.994571159323674348
0.363000000000000211,-1.853662311393796447
0.364000000000000212,-1.713524134309198477
0.365000000000000213,-1.574263254099938614
0.366000000000000214,-1.435984061318738902
0.367000000000000215,-1.298788592432799094
0.368000000000000216,-1.162776420399211252
0.369000000000000217,-1.028044554222272922
0.370000000000000218,-0.894687347279837675
0.371000000000000218,-0.762796414195682448
0.372000000000000219,-0.632460556026365084
0.373000000000000220,-0.503765693523534841
0.374000000000000221,-0.376794808226571742
0.375000000000000222,-0.251627891135107806
0.376000000000000223,-0.128341898707117819
0.377000000000000224,-0.007010715924989292
0.378000000000000225,0.112294873830036918
0.379000000000000226,0.229507212356213630
0.380000000000000226,0.344561783923903242
0.381000000000000227,0.457397226543998170
0.382000000000000228,0.567955337472630495
0.383000000000000229,0.676181073211231221
0.384000000000000230,0.782022544259071806
0.385000000000000231,0.885431004872566318
0.386000000000000232,0.986360838082781632
0.387000000000000233,1.084769536219020836
0.388000000000000234,1.180617677182396408
0.389000000000000234,1.273868896709055010
0.390000000000000235,1.364489856858301930
0.391000000000000236,1.452450210955667842
0.392000000000000237,1.537722565216310899
0.393000000000000238,1.620282437268350195
0.394000000000000239,1.700108211790575252
0.395000000000000240,1.777181093473100049
0.396000000000000241,1.851485057503774456
0.397000000000000242,1.923006797777272014
0.398000000000000242,1.991735673017710484
0.399000000000000243,2.057663650999619342
0.400000000000000244,2.120785251046111597
0.401000000000000245,2.181097484976528555
0.402000000000000246,2.238599796670277531
0.403000000000000247,2.293294000407009925
0.404000000000000248,2.345184218137298160
0.405000000000000249,2.394276815831943850
0.406000000000000250,2.440580339051956926
0.407000000000000250,2.484105447875267991
0.408000000000000251,2.524864851310446578
0.409000000000000252,2.562873241321619755
0.410000000000000253,2.598147226583448877
0.411000000000000254,2.630705266078934734
0.412000000000000255,2.660567602647698315
0.413000000000000256,2.687756196586613022
0.414000000000000257,2.712294659399675290
0.415000000000000258,2.734208187788474298
0.416000000000000258,2.753523497969883937
0.417000000000000259,2.770268760402363473
0.418000000000000260,2.784473534997646826
0.419000000000000261,2.796168706889833100
0.420000000000000262,2.805386422829298176
0.421000000000000263,2.812160028264493405
0.422000000000000264,2.816524005170439438
0.423000000000000265,2.818513910678500878
0.424000000000000266,2.818166316557992435
0.425000000000000266,2.815518749596442660
0.426000000000000267,2.810609632921466705
0.427000000000000268,2.803478228303570408
0.428000000000000269,2.794164579475869825
0.429000000000000270,2.782709456503286827
0.430000000000000271,2.769154301230465798
0.431000000000000272,2.753541173834814337
0.432000000000000273,2.735912700507881823
0.433000000000000274,2.716312022285614969
0.434000000000000274,2.694782745045147365
0.435000000000000275,2.671368890683445407
0.436000000000000276,2.646114849490392551
0.437000000000000277,2.619065333726685818
0.438000000000000278,2.590265332414680710
0.439000000000000279,2.559760067348087365
0.440000000000000280,2.527594950324464129
0.441000000000000281,2.493815541602596220
0.442000000000000282,2.458467509584789656
0.443000000000000282,2.421596591722727787
0.444000000000000283,2.383248556643568605
0.445000000000000284,2.343469167491688321
0.446000000000000285,2.302304146479903668
0.447000000000000286,2.259799140642646087
0.448000000000000287,2.215999688782363641
0.449000000000000288,2.170951189599184872
0.450000000000000289,2.124698870992725031
0.451000000000000290,2.077287760524018534
0.452000000000000290,2.028762657024443250
0.453000000000000291,1.979168103337724860
0.454000000000000292,1.928548360180216914
0.455000000000000293,1.876947381103942991
0.456000000000000294,1.824408788546159954
0.457000000000000295,1.770975850948634633
0.458000000000000296,1.716691460929087087
0.459000000000000297,1.661598114487020883
0.460000000000000298,1.605737891225282654
0.461000000000000298,1.549152435568821096
0.462000000000000299,1.491882938961117677
0.463000000000000300,1.433970123019019827
0.464000000000000301,1.375454223626011885
0.465000000000000302,1.316374975944043957
0.466000000000000303,1.256771600323462135
0.467000000000000304,1.196682789090915078
0.468000000000000305,1.136146694194522855
0.469000000000000306,1.075200915685794234
0.470000000000000306,1.013882491017689569
0.471000000000000307,0.952227885138034580
0.472000000000000308,0.890272981357731807
0.473000000000000309,0.828053072973041537
0.474000000000000310,0.765602855621493772
0.475000000000000311,0.702956420350657973
0.476000000000000312,0.640147247379803663
0.477000000000000313,0.577208200533715798
0.478000000000000314,0.514171522328921160
0.479000000000000314,0.451068829692153117
0.480000000000000315,0.387931110291380998
0.481000000000000316,0.324788719459773501
0.482000000000000317,0.261671377693275697
0.483000000000000318,0.198608168702632287
0.484000000000000319,0.135627538000966108
0.485000000000000320,0.072757292008281002
0.486000000000000321,0.010024597654465239
0.487000000000000322,-0.052544017537278088
0.488000000000000322,-0.114922664904474822
0.489000000000000323,-0.177086093654334559
0.490000000000000324,-0.239009689445012885
0.491000000000000325,-0.300669472556030715
0.492000000000000326,-0.362042095664558083
0.493000000000000327,-0.423104841243852559
0.494000000000000328,-0.483835618599926742
0.495000000000000329,-0.544212960562116210
0.496000000000000330,-0.604216019842927166
0.497000000000000330,-0.663824565082269613
0.498000000000000331,-0.723018976590770412
0.499000000000000332,-0.781780241806521614
0.500000000000000333,-0.840089950479496417
0.501000000000000334,-0.897930289597236864
0.502000000000000335,-0.955284038065324359
0.503000000000000336,-1.012134561155663137
0.504000000000000337,-1.068465804735452052
0.505000000000000338,-1.124262289289176930
0.506000000000000338,-1.179509103745819631
0.507000000000000339,-1.234191899123100455
0.508000000000000340,-1.288296882000189880
0.509000000000000341,-1.341810807830071450
0.510000000000000342,-1.394720974102445110
0.511000000000000343,-1.447015213367701003
0.512000000000000344,-1.498681886132196217
0.513000000000000345,-1.549709873634744772
0.514000000000000346,-1.600088570514066832
0.515000000000000346,-1.649807877376379794
0.516000000000000347,-1.698858193272311023
0.517000000000000348,-1.747230408091829279
0.518000000000000349,-1.794915894885712904
0.519000000000000350,-1.841906502121683165
0.520000000000000351,-1.888194545883238984
0.521000000000000352,-1.933772802018750125
0.522000000000000353,-1.978634498248205364
0.523000000000000353,-2.022773306234854740
0.524000000000000354,-2.066183333628440089
0.525000000000000355,-2.108859116086819974
0.526000000000000356,-2.150795609282204701
0.527000000000000357,-2.191988180898227334
0.528000000000000358,-2.232432602623806606
0.529000000000000359,-2.272125042149244489
0.530000000000000360,-2.311062055170273410
0.531000000000000361,-2.349240577405066865
0.532000000000000361,-2.386657916629350229
0.533000000000000362,-2.423311744734276907
0.534000000000000363,-2.459200089811770074
0.535000000000000364,-2.494321328271653648
0.536000000000000365,-2.528674176994741618
0.537000000000000366,-2.562257685525926476
0.538000000000000367,-2.595071228311028655
0.539000000000000368,-2.627114496981063585
0.540000000000000369,-2.658387492687350750
0.541000000000000369,-2.688890518490745229
0.542000000000000370,-2.718624171808078138
0.543000000000000371,-2.747589336918783154
0.544000000000000372,-2.775787177534453143
0.545000000000000373,-2.803219129433959012
0.546000000000000374,-2.829886893166634998
0.547000000000000375,-2.855792426825809471
0.548000000000000376,-2.880937938894927441
0.549000000000000377,-2.905325881168238311
0.550000000000000377,-2.928958941748072142
0.551000000000000378,-2.951840038120363552
0.552000000000000379,-2.973972310310203149
0.553000000000000380,-2.995359114118869570
0.554000000000000381,-3.016004014443807613
0.555000000000000382,-3.035910778682883837
0.556000000000000383,-3.055083370224036088
0.557000000000000384,-3.073525942021514634
0.558000000000000385,-3.091242830259614216
0.559000000000000385,-3.108238548104864662
0.560000000000000386,-3.124517779547411944
0.561000000000000387,-3.140085373332342833
0.562000000000000388,-3.154946336981526933
0.563000000000000389,-3.169105830906562282
0.564000000000000390,-3.182569162613193559
0.565000000000000391,-3.195341780997638548
0.566000000000000392,-3.207429270735092874
0.567000000000000393,-3.218837346760614615
0.568000000000000393,-3.229571848842546444
0.569000000000000394,-3.239638736248563244
0.570000000000000395,-3.249044082504383368
0.571000000000000396,-3.257794070244998785
0.572000000000000397,-3.265894986158452529
0.573000000000000398,-3.273353216021919199
0.574000000000000399,-3.280175239829846046
0.575000000000000400,-3.286367627013984993
0.576000000000000401,-3.291937031754861742
0.577000000000000401,-3.296890188384460796
0.578000000000000402,-3.301233906879568192
0.579000000000000403,-3.304975068445436648
0.580000000000000404,-3.308120621189198918
0.581000000000000405,-3.310677575882518653
0.582000000000000406,-3.312653001812930320
0.583000000000000407,-3.314054022723178949
0.584000000000000408,-3.314887812838059666
0.585000000000000409,-3.315161592977912797
0.586000000000000409,-3.314882626758202555
0.587000000000000410,-3.314058216874423035
0.588000000000000411,-3.312695701471487730
0.589000000000000412,-3.310802450596975977
0.590000000000000413,-3.308385862737269978
0.591000000000000414,-3.305453361435875426
0.592000000000000415,-3.302012391993033980
0.593000000000000416,-3.298070418245733659
0.594000000000000417,-3.293634919427292918
0.595000000000000417,-3.288713387105603125
0.596000000000000418,-3.283313322199048034
0.597000000000000419,-3.277442232069310624
0.598000000000000420,-3.271107627689973096
0.599000000000000421,-3.264317020890082688
0.600000000000000422,-3.257077921671656107
0.601000000000000423,-3.249397835600151385
0.602000000000000424,-3.241284261266977218
0.603000000000000425,-3.232744687823020602
0.604000000000000425,-3.223786592582164268
0.605000000000000426,-3.214417438693890627
0.606000000000000427,-3.204644672883890877
0.607000000000000428,-3.194475723261681388
0.608000000000000429,-3.183917997194281480
0.609000000000000430,-3.172978879244856998
0.610000000000000431,-3.161665729175398010
0.611000000000000432,-3.149985880012347472
0.612000000000000433,-3.137946636174220760
0.613000000000000433,-3.125555271660192425
0.614000000000000434,-3.112819028298633217
0.615000000000000435,-3.099745114054567985
0.616000000000000436,-3.086340701395102748
0.617000000000000437,-3.072612925711788456
0.618000000000000438,-3.058568883798908455
0.619000000000000439,-3.044215632386706893
0.620000000000000440,-3.029560186728599724
0.621000000000000441,-3.014609519241318036
0.622000000000000441,-2.999370558197090197
0.623000000000000442,-2.983850186466773913
0.624000000000000443,-2.968055240313102416
0.625000000000000444,-2.951992508232992307
0.626000000000000445,-2.935668729847956016
0.627000000000000446,-2.919090594841752484
0.628000000000000447,-2.902264741944262205
0.629000000000000448,-2.885197757960672682
0.630000000000000449,-2.867896176845044831
0.631000000000000449,-2.850366478817385918
0.632000000000000450,-2.832615089523277341
0.633000000000000451,-2.814648379235169973
0.634000000000000452,-2.796472662094476647
0.635000000000000453,-2.778094195393534527
0.636000000000000454,-2.759519178896643332
0.637000000000000455,-2.740753754199248160
0.638000000000000456,-2.721804004124440901
0.639000000000000457,-2.702675952155950689
0.640000000000000457,-2.683375561906780504
0.641000000000000458,-2.663908736622639495
0.642000000000000459,-2.644281318719442275
0.643000000000000460,-2.624499089353963477
0.644000000000000461,-2.604567768026942343
0.645000000000000462,-2.584493012217832675
0.646000000000000463,-2.564280417050376126
0.647000000000000464,-2.543935514988339364
0.648000000000000465,-2.523463775560577549
0.649000000000000465,-2.502870605114717595
0.650000000000000466,-2.482161346598751095
0.651000000000000467,-2.461341279369774870
0.652000000000000468,-2.440415619029223215
0.653000000000000469,-2.419389517283830227
0.654000000000000470,-2.398268061831732467
0.655000000000000471,-2.377056276272925928
0.656000000000000472,-2.355759120043487975
0.657000000000000473,-2.334381488372884395
0.658000000000000473,-2.312928212263719807
0.659000000000000474,-2.291404058493300422
0.660000000000000475,-2.269813729636382060
0.661000000000000476,-2.248161864108478181
0.662000000000000477,-2.226453036229173232
0.663000000000000478,-2.204691756304780537
0.664000000000000479,-2.182882470729821112
0.665000000000000480,-2.161029562106708379
0.666000000000000481,-2.139137349383141373
0.667000000000000481,-2.117210088006536317
0.668000000000000482,-2.095251970095107108
0.669000000000000483,-2.073267124624948998
0.670000000000000484,-2.051259617632628540
0.671000000000000485,-2.029233452432819274
0.672000000000000486,-2.007192569850384967
0.673000000000000487,-1.985140848466561136
0.674000000000000488,-1.963082104878554945
0.675000000000000488,-1.941020093972281702
0.676000000000000489,-1.918958509207673302
0.677000000000000490,-1.896900982916084999
0.678000000000000491,-1.874851086609438111
0.679000000000000492,-1.852812331300586424
0.680000000000000493,-1.830788167834496161
0.681000000000000494,-1.808781987229862720
0.682000000000000495,-1.786797121030669233
0.683000000000000496,-1.764836841667387191
0.684000000000000496,-1.742904362827333076
0.685000000000000497,-1.721002839833861486
0.686000000000000498,-1.699135370033963754
0.687000000000000499,-1.677304993193963423
0.688000000000000500,-1.655514691902887803
0.689000000000000501,-1.633767391983198980
0.690000000000000502,-1.612065962908552752
0.691000000000000503,-1.590413218228187375
0.692000000000000504,-1.568811915997671447
0.693000000000000504,-1.547264759215697616
0.694000000000000505,-1.525774396266514898
0.695000000000000506,-1.504343421367831279
0.696000000000000507,-1.482974375023753399
0.697000000000000508,-1.461669744482555489
0.698000000000000509,-1.440431964198991555
0.699000000000000510,-1.419263416300781344
0.700000000000000511,-1.398166431059145509
0.701000000000000512,-1.377143287362968316
0.702000000000000512,-1.356196213196463551
0.703000000000000513,-1.335327386119996351
0.704000000000000514,-1.314538933753865102
0.705000000000000515,-1.293832934264789625
0.706000000000000516,-1.273211416854879152
0.707000000000000517,-1.252676362252825193
0.708000000000000518,-1.232229703207141425
0.709000000000000519,-1.211873324981225242
0.710000000000000520,-1.191609065849971172
0.711000000000000520,-1.171438717597843793
0.712000000000000521,-1.151364026018095954
0.713000000000000522,-1.131386691413024614
0.714000000000000523,-1.111508369095043802
0.715000000000000524,-1.091730669888372196
0.716000000000000525,-1.072055160631213644
0.717000000000000526,-1.052483364678189925
0.718000000000000527,-1.033016762402927391
0.719000000000000528,-1.013656791700570325
0.720000000000000528,-0.994404848490145099
0.721000000000000529,-0.975262287216502655
0.722000000000000530,-0.956230421351839888
0.723000000000000531,-0.937310523896519143
0.724000000000000532,-0.918503827879146528
0.725000000000000533,-0.899811526855724630
0.726000000000000534,-0.881234775407746973
0.727000000000000535,-0.862774689639142389
0.728000000000000536,-0.844432347671921990
0.729000000000000536,-0.826208790140399274
0.730000000000000537,-0.808105020683931308
0.731000000000000538,-0.790122006437962154
0.732000000000000539,-0.772260678523396527
0.733000000000000540,-0.754521932534068740
0.734000000000000541,-0.736906629022322290
0.735000000000000542,-0.719415593982505763
0.736000000000000543,-0.702049619332405728
0.737000000000000544,-0.684809463392374917
0.738000000000000544,-0.667695851362259396
0.739000000000000545,-0.650709475795850367
0.740000000000000546,-0.633850997072947120
0.741000000000000547,-0.617121043868827157
0.742000000000000548,-0.600520213621165255
0.743000000000000549,-0.584049072994215379
0.744000000000000550,-0.567708158340274105
0.745000000000000551,-0.551497976158349723
0.746000000000000552,-0.535419003549929995
0.747000000000000552,-0.519471688671852450
0.748000000000000553,-0.503656451186171195
0.749000000000000554,-0.487973682706972500
0.750000000000000555,-0.472423747244157366
0.751000000000000556,-0.457006981644022758
0.752000000000000557,-0.441723696026714574
0.753000000000000558,-0.426574174220413771
0.754000000000000559,-0.411558674192300966
0.755000000000000560,-0.396677428476175709
0.756000000000000560,-0.381930644596776669
0.757000000000000561,-0.367318505490677960
0.758000000000000562,-0.352841169923817755
0.759000000000000563,-0.338498772905581224
0.760000000000000564,-0.324291426099408364
0.761000000000000565,-0.310219218229912219
0.762000000000000566,-0.296282215486476541
0.763000000000000567,-0.282480461923337867
0.764000000000000568,-0.268813979856063812
0.765000000000000568,-0.255282770254493752
0.766000000000000569,-0.241886813132054346
0.767000000000000570,-0.228626067931473637
0.768000000000000571,-0.215500473906861723
0.769000000000000572,-0.202509950502146652
0.770000000000000573,-0.189654397725880386
0.771000000000000574,-0.176933696522348416
0.772000000000000575,-0.164347709139042369
0.773000000000000576,-0.151896279490417008
0.774000000000000576,-0.139579233518003248
0.775000000000000577,-0.127396379546816263
0.776000000000000578,-0.115347508638044882
0.777000000000000579,-0.103432394938113709
0.778000000000000580,-0.091650796023975994
0.779000000000000581,-0.080002453244767763
0.780000000000000582,-0.068487092059731913
0.781000000000000583,-0.057104422372495800
0.782000000000000584,-0.045854138861608398
0.783000000000000584,-0.034735921307438244
0.784000000000000585,-0.023749434915387013
0.785000000000000586,-0.012894330635404749
0.786000000000000587,-0.002170245477889754
0.787000000000000588,0.008423197174100899
0.788000000000000589,0.018886387256285320
0.789000000000000590,0.029219727718190987
0.790000000000000591,0.039423634221865171
0.791000000000000592,0.049498534844141247
0.792000000000000592,0.059444869782561430
0.793000000000000593,0.069263091064835552
0.794000000000000594,0.078953662261909405
0.795000000000000595,0.088517058204573854
0.796000000000000596,0.097953764703633026
0.797000000000000597,0.107264278273571503
0.798000000000000598,0.116449105859768309
0.799000000000000599,0.125508764569193743
0.800000000000000600,0.134443781404558538
0.801000000000000600,0.143254693001974326
0.802000000000000601,0.151942045372003454
0.803000000000000602,0.160506393644166329
0.804000000000000603,0.168948301814837332
0.805000000000000604,0.177268342498521803
0.806000000000000605,0.185467096682514626
0.807000000000000606,0.193545153484867394
0.808000000000000607,0.201503109915723566
0.809000000000000608,0.209341570641908170
0.810000000000000608,0.217061147754813610
0.811000000000000609,0.224662460541565301
0.812000000000000610,0.232146135259376940
0.813000000000000611,0.239512804913155020
0.814000000000000612,0.246763109036275546
0.815000000000000613,0.253897693474508745
0.816000000000000614,0.260917210173130465
0.817000000000000615,0.267822316967106844
0.818000000000000616,0.274613677374391685
0.819000000000000616,0.281291960392296203
0.820000000000000617,0.287857840296900980
0.821000000000000618,0.294311996445487278
0.822000000000000619,0.300655113081958469
0.823000000000000620,0.306887879145242182
0.824000000000000621,0.313010988080638541
0.825000000000000622,0.319025137654085467
0.826000000000000623,0.324931029769312985
0.827000000000000624,0.330729370287888069
0.828000000000000624,0.336420868852068511
0.829000000000000625,0.342006238710531318
0.830000000000000626,0.347486196546835768
0.831000000000000627,0.352861462310686824
0.832000000000000628,0.358132759051937200
0.833000000000000629,0.363300812757303526
0.834000000000000630,0.368366352189768542
0.835000000000000631,0.373330108730651922
0.836000000000000631,0.378192816224319939
0.837000000000000632,0.382955210825498382
0.838000000000000633,0.387618030849199269
0.839000000000000634,0.392182016623164931
0.840000000000000635,0.396647910342883603
0.841000000000000636,0.401016455929104343
0.842000000000000637,0.405288398887819590
0.843000000000000638,0.409464486172727404
0.844000000000000639,0.413545466050100174
0.845000000000000639,0.417532087966086318
0.846000000000000640,0.421425102416372432
0.847000000000000641,0.425225260818199502
0.848000000000000642,0.428933315384712188
0.849000000000000643,0.432550019001626929
0.850000000000000644,0.436076125106130141
0.851000000000000645,0.439512387568090468
0.852000000000000646,0.442859560573448607
0.853000000000000647,0.446118398509830816
0.854000000000000647,0.449289655854329673
0.855000000000000648,0.452374087063453723
0.856000000000000649,0.455372446465167446
0.857000000000000650,0.458285488153074128
0.858000000000000651,0.461113965882650412
0.859000000000000652,0.463858632969532003
0.860000000000000653,0.466520242189840340
0.861000000000000654,0.469099545682508889
0.862000000000000655,0.471597294853568105
0.863000000000000655,0.474014240282425559
0.864000000000000656,0.476351131630034508
0.865000000000000657,0.478608717548994700
0.866000000000000658,0.480787745595539107
0.867000000000000659,0.482888962143350475
0.868000000000000660,0.484913112299255988
0.869000000000000661,0.486860939820704719
0.870000000000000662,0.488733187035047034
0.871000000000000663,0.490530594760569927
0.872000000000000663,0.492253902229294826
0.873000000000000664,0.493903847011485209
0.874000000000000665,0.495481164941847407
0.875000000000000666,0.496986590047425014
0.876000000000000667,0.498420854477129194
0.877000000000000668,0.499784688432911461
0.878000000000000669,0.501078820102550337
0.879000000000000670,0.502303975594019070
0.880000000000000671,0.503460878871414774
0.881000000000000671,0.504550251692455265
0.882000000000000672,0.505572813547475297
0.883000000000000673,0.506529281599946590
0.884000000000000674,0.507420370628463013
0.885000000000000675,0.508246792970200034
0.886000000000000676,0.509009258465817682
0.887000000000000677,0.509708474405761280
0.888000000000000678,0.510345145478006357
0.889000000000000679,0.510919973717135045
0.890000000000000679,0.511433658454811702
0.891000000000000680,0.511886896271572800
0.892000000000000681,0.512280380949960090
0.893000000000000682,0.512614803428947718
0.894000000000000683,0.512890851759646660
0.895000000000000684,0.513109211062282355
0.896000000000000685,0.513270563484412023
0.897000000000000686,0.513375588160381979
0.898000000000000687,0.513424961171959238
0.899000000000000687,0.513419355510210673
0.900000000000000688,0.513359441038494957
0.901000000000000689,0.513245884456650425
0.902000000000000690,0.513079349266299944
0.903000000000000691,0.512860495737271771
0.904000000000000692,0.512589980875144402
0.905000000000000693,0.512268458389853909
0.906000000000000694,0.511896578665373525
0.907000000000000695,0.511474988730456714
0.908000000000000695,0.511004332230391656
0.909000000000000696,0.510485249399798779
0.910000000000000697,0.509918377036406190
0.911000000000000698,0.509304348475829061
0.912000000000000699,0.508643793567305158
0.913000000000000700,0.507937338650380044
0.914000000000000701,0.507185606532559841
0.915000000000000702,0.506389216467842962
0.916000000000000703,0.505548784136190088
0.917000000000000703,0.504664921623870777
0.918000000000000704,0.503738237404700029
0.919000000000000705,0.502769336322117066
0.920000000000000706,0.501758819572131864
0.921000000000000707,0.500707284687086362
0.922000000000000708,0.499615325520260001
0.923000000000000709,0.498483532231239479
0.924000000000000710,0.497312491272123736
0.925000000000000711,0.496102785374469668
0.926000000000000711,0.494854993537027554
0.927000000000000712,0.493569691014200007
0.928000000000000713,0.492247449305265594
0.929000000000000714,0.490888836144296570
0.930000000000000715,0.489494415490815349
0.931000000000000716,0.488064747521127607
0.932000000000000717,0.486600388620329116
0.933000000000000718,0.485101891375039174
0.934000000000000719,0.483569804566719275
0.935000000000000719,0.482004673165693120
0.936000000000000720,0.480407038325781688
0.937000000000000721,0.478777437379561799
0.938000000000000722,0.477116403834240976
0.939000000000000723,0.475424467368128489
0.940000000000000724,0.473702153827697536
0.941000000000000725,0.471949985225217805
0.942000000000000726,0.470168479736965683
0.943000000000000727,0.468358151701976422
0.944000000000000727,0.466519511621352911
0.945000000000000728,0.464653066158092209
0.946000000000000729,0.462759318137453080
0.947000000000000730,0.460838766547817635
0.948000000000000731,0.458891906542067018
0.949000000000000732,0.456919229439438468
0.950000000000000733,0.454921222727883490
0.951000000000000734,0.452898370066861233
0.952000000000000735,0.450851151290636576
0.953000000000000735,0.448780042411995761
0.954000000000000736,0.446685515626422003
0.955000000000000737,0.444568039316706631
0.956000000000000738,0.442428078057964747
0.957000000000000739,0.440266092623079697
0.958000000000000740,0.438082539988565389
0.959000000000000741,0.435877873340790756
0.960000000000000742,0.433652542082624659
0.961000000000000743,0.431406991840448673
0.962000000000000743,0.429141664471528128
0.963000000000000744,0.426856998071767801
0.964000000000000745,0.424553426983803495
0.965000000000000746,0.422231381805448724
0.966000000000000747,0.419891289398473533
0.967000000000000748,0.417533572897720084
0.968000000000000749,0.415158651720531569
0.969000000000000750,0.412766941576504898
0.970000000000000751,0.410358854477536006
0.971000000000000751,0.407934798748178007
0.972000000000000752,0.405495179036294062
0.973000000000000753,0.403040396323965044
0.974000000000000754,0.400570847938719332
0.975000000000000755,0.398086927564992754
0.976000000000000756,0.395589025255877302
0.977000000000000757,0.393077527445110708
0.978000000000000758,0.390552816959334526
0.979000000000000759,0.388015273030565100
0.980000000000000759,0.385465271308928270
0.981000000000000760,0.382903183875626330
0.982000000000000761,0.380329379256091893
0.983000000000000762,0.377744222433402110
0.984000000000000763,0.375148074861891556
0.985000000000000764,0.372541294480940033
0.986000000000000765,0.369924235729015449
0.987000000000000766,0.367297249557861916
0.988000000000000766,0.364660683446894396
0.989000000000000767,0.362014881417777379
0.990000000000000768,0.359360184049182130
0.991000000000000769,0.356696928491700593
0.992000000000000770,0.354025448482939153
0.993000000000000771,0.351346074362766492
0.994000000000000772,0.348659133088717932
0.995000000000000773,0.345964948251545723
0.996000000000000774,0.343263840090924366
0.997000000000000774,0.340556125511282559
0.998000000000000775,0.337842118097784971
0.999000000000000776,0.335122128132419039
1.000000000000000666,0.332396462610243026
1.001000000000000778,0.329665425255721956
1.002000000000000668,0.326929316539200543
1.003000000000000780,0.324188433693479883
1.004000000000000670,0.321443070730493885
1.005000000000000782,0.318693518458105340
1.006000000000000671,0.315940064496991191
1.007000000000000783,0.313182993297616341
1.008000000000000673,0.310422586157311886
1.009000000000000785,0.307659121237426336
1.010000000000000675,0.304892873580573098
1.011000000000000787,0.302124115127933246
1.012000000000000677,0.299353114736661097
1.013000000000000789,0.296580138197342691
1.014000000000000679,0.293805448251520773
1.015000000000000790,0.291029304609297435
1.016000000000000680,0.288251963966975333
1.017000000000000792,0.285473680024779519
1.018000000000000682,0.282694703504607958
1.019000000000000794,0.279915282167850998
1.020000000000000684,0.277135660833246200
1.021000000000000796,0.274356081394777573
1.022000000000000686,0.271576782839620834
1.023000000000000798,0.268798001266110698
1.024000000000000687,0.266019969901770348
1.025000000000000799,0.263242919121322583
1.026000000000000689,0.260467076464793557
1.027000000000000801,0.257692666655573555
1.028000000000000691,0.254919911618556372
1.029000000000000803,0.252149030498255100
1.030000000000000693,0.249380239676968568
1.031000000000000805,0.246613752792928492
1.032000000000000695,0.243849780758489565
1.033000000000000806,0.241088531778304638
1.034000000000000696,0.238330211367506151
1.035000000000000808,0.235575022369919923
1.036000000000000698,0.232823164976234509
1.037000000000000810,0.230074836742207328
1.038000000000000700,0.227330232606849675
1.039000000000000812,0.224589544910606648
1.040000000000000702,0.221852963413531029
1.041000000000000814,0.219120675313444646
1.042000000000000703,0.216392865264101175
1.043000000000000815,0.213669715393303067
1.044000000000000705,0.210951405321034346
1.045000000000000817,0.208238112177556278
1.046000000000000707,0.205530010621487014
1.047000000000000819,0.202827272857854013
1.048000000000000709,0.200130068656148075
1.049000000000000821,0.197438565368294405
1.050000000000000711,0.194752927946662407
1.051000000000000822,0.192073318961994116
1.052000000000000712,0.189399898621332829
1.053000000000000824,0.186732824785899726
1.054000000000000714,0.184072252988943780
1.055000000000000826,0.181418336453556817
1.056000000000000716,0.178771226110441883
1.057000000000000828,0.176131070615651919
1.058000000000000718,0.173498016368283464
1.059000000000000830,0.170872207528125319
1.060000000000000719,0.168253786033263408
1.061000000000000831,0.165642891617650528
1.062000000000000721,0.163039661828612376
1.063000000000000833,0.160444232044312907
1.064000000000000723,0.157856735491185785
1.065000000000000835,0.155277303261288691
1.066000000000000725,0.152706064329618973
1.067000000000000837,0.150143145571387582
1.068000000000000727,0.147588671779212227
1.069000000000000838,0.145042765680284319
1.070000000000000728,0.142505547953458073
1.071000000000000840,0.139977137246291267
1.072000000000000730,0.137457650192028463
1.073000000000000842,0.134947201426521085
1.074000000000000732,0.132445903605093479
1.075000000000000844,0.129953867419334651
1.076000000000000734,0.127471201613847979
1.077000000000000846,0.124998013002915576
1.078000000000000735,0.122534406487113223
1.079000000000000847,0.120080485069864087
1.080000000000000737,0.117636349873899620
1.081000000000000849,0.115202100157700910
1.082000000000000739,0.112777833331821606
1.083000000000000851,0.110363644975181210
1.084000000000000741,0.107959628851266906
1.085000000000000853,0.105565876924283847
1.086000000000000743,0.103182479375218336
1.087000000000000854,0.100809524617839250
1.088000000000000744,0.098447099314628889
1.089000000000000856,0.096095288392644418
1.090000000000000746,0.093754175059293357
1.091000000000000858,0.091423840818049149
1.092000000000000748,0.089104365484095102
1.093000000000000860,0.086795827199877065
1.094000000000000750,0.084498302450601928
1.095000000000000862,0.082211866079649989
1.096000000000000751,0.079936591303906970
1.097000000000000863,0.077672549729038115
1.098000000000000753,0.075419811364665426
1.099000000000000865,0.073178444639473886
1.100000000000000755,0.070948516416262958
1.101000000000000867,0.068730092006873661
1.102000000000000757,0.066523235187090274
1.103000000000000869,0.064328008211418611
1.104000000000000759,0.062144471827822775
1.105000000000000870,0.059972685292349934
1.106000000000000760,0.057812706383712997
1.107000000000000872,0.055664591417746004
1.108000000000000762,0.053528395261829599
1.109000000000000874,0.051404171349200278
1.110000000000000764,0.049291971693199439
1.111000000000000876,0.047191846901434881
1.112000000000000766,0.045103846189859485
1.113000000000000878,0.043028017396772457
1.114000000000000767,0.040964406996739353
1.115000000000000879,0.038913060114431325
1.116000000000000769,0.036874020538387800
1.117000000000000881,0.034847330734681860
1.118000000000000771,0.032833031860521555
1.119000000000000883,0.030831163777765586
1.120000000000000773,0.028841765066345875
1.121000000000000885,0.026864873037627673
1.122000000000000774,0.024900523747672484
1.123000000000000886,0.022948752010422412
1.124000000000000776,0.021009591410806550
1.125000000000000888,0.019083074317766603
1.126000000000000778,0.017169231897191706
1.127000000000000890,0.015268094124778381
1.128000000000000780,0.013379689798812669
1.129000000000000892,0.011504046552852764
1.130000000000000782,0.009641190868357621
1.131000000000000894,0.007791148087201846
1.132000000000000783,0.005953942424140745
1.133000000000000895,0.004129596979159361
1.134000000000000785,0.002318133749775678
1.135000000000000897,0.000519573643231863
1.136000000000000787,-0.001266063511378884
1.137000000000000899,-0.003038758951071023
1.138000000000000789,-0.004798494967000111
1.139000000000000901,-0.006545254892607766
1.140000000000000790,-0.008279023091801122
1.141000000000000902,-0.009999784947240662
1.142000000000000792,-0.011707526848714223
1.143000000000000904,-0.013402236181585120
1.144000000000000794,-0.015083901315305136
1.145000000000000906,-0.016752511592028500
1.146000000000000796,-0.018408057315303920
1.147000000000000908,-0.020050529738836372
1.148000000000000798,-0.021679921055335789
1.149000000000000909,-0.023296224385447269
1.150000000000000799,-0.024899433766753260
1.151000000000000689,-0.026489544142866573
1.152000000000000801,-0.028066551352592655
1.153000000000000913,-0.029630452119175893
1.154000000000000803,-0.031181244039619350
1.155000000000000693,-0.032718925574094851
1.156000000000000805,-0.034243496035423510
1.157000000000000917,-0.035754955578623127
1.158000000000000806,-0.037253305190560401
1.159000000000000696,-0.038738546679659328
1.160000000000000808,-0.040210682665694525
1.161000000000000920,-0.041669716569658413
1.162000000000000810,-0.043115652603717192
1.163000000000000700,-0.044548495761220885
1.164000000000000812,-0.045968251806818974
1.165000000000000924,-0.047374927266623658
1.166000000000000814,-0.048768529418468390
1.167000000000000703,-0.050149066282239453
1.168000000000000815,-0.051516546610275514
1.169000000000000927,-0.052870979877844150
1.170000000000000817,-0.054212376273704788
1.171000000000000707,-0.055540746690726325
1.172000000000000819,-0.056856102716598314
1.173000000000000931,-0.058158456624607703
1.174000000000000821,-0.059447821364479035
1.175000000000000711,-0.060724210553315339
1.176000000000000822,-0.061987638466581910
1.177000000000000934,-0.063238120029186162
1.178000000000000824,-0.064475670806610610
1.179000000000000714,-0.065700306996132454
1.180000000000000826,-0.066912045418120319
1.181000000000000938,-0.068110903507374143
1.182000000000000828,-0.069296899304571349
1.183000000000000718,-0.070470051447757878
1.184000000000000830,-0.071630379163925562
1.185000000000000941,-0.072777902260647634
1.186000000000000831,-0.073912641117802644
1.187000000000000721,-0.075034616679340971
1.188000000000000833,-0.076143850445148778
1.189000000000000945,-0.077240364462958927
1.190000000000000835,-0.078324181320348366
1.191000000000000725,-0.079395324136780021
1.192000000000000837,-0.080453816555755703
1.193000000000000949,-0.081499682736974513
1.194000000000000838,-0.082532947348621336
1.195000000000000728,-0.083553635559679124
1.196000000000000840,-0.084561773032324858
1.197000000000000952,-0.085557385914399348
1.198000000000000842,-0.086540500831916556
1.199000000000000732,-0.087511144881675218
1.200000000000000844,-0.088469345623892873
1.201000000000000956,-0.089415131074954066
1.202000000000000846,-0.090348529700177552
1.203000000000000735,-0.091269570406673106
1.204000000000000847,-0.092178282536259121
1.205000000000000959,-0.093074695858438861
1.206000000000000849,-0.093958840563440255
1.207000000000000739,-0.094830747255326045
1.208000000000000851,-0.095690446945152760
1.209000000000000963,-0.096537971044208581
1.210000000000000853,-0.097373351357296606
1.211000000000000743,-0.098196620076092894
1.212000000000000854,-0.099007809772555216
1.213000000000000966,-0.099806953392400449
1.214000000000000856,-0.100594084248638777
1.215000000000000746,-0.101369236015166383
1.216000000000000858,-0.102132442720422878
1.217000000000000970,-0.102883738741101322
1.218000000000000860,-0.103623158795917700
1.219000000000000750,-0.104350737939455443
1.220000000000000862,-0.105066511556039216
1.221000000000000973,-0.105770515353688616
1.222000000000000863,-0.106462785358124673
1.223000000000000753,-0.107143357906828413
1.224000000000000865,-0.107812269643157529
1.225000000000000977,-0.108469557510530029
1.226000000000000867,-0.109115258746647667
1.227000000000000757,-0.109749410877786155
1.228000000000000869,-0.110372051713130026
1.229000000000000981,-0.110983219339185063
1.230000000000000870,-0.111582952114216608
1.231000000000000760,-0.112171288662761423
1.232000000000000872,-0.112748267870192612
1.233000000000000984,-0.113313928877315354
1.234000000000000874,-0.113868311075066231
1.235000000000000764,-0.114411454099198215
1.236000000000000876,-0.114943397825078591
1.237000000000000988,-0.115464182362501527
1.238000000000000878,-0.115973848050568276
1.239000000000000767,-0.116472435452618428
1.240000000000000879,-0.116959985351206913
1.241000000000000991,-0.117436538743128954
1.242000000000000881,-0.117902136834512561
1.243000000000000771,-0.118356821035942222
1.244000000000000883,-0.118800632957636348
1.245000000000000995,-0.119233614404683830
1.246000000000000885,-0.119655807372325701
1.247000000000000774,-0.120067254041275856
1.248000000000000886,-0.120467996773099537
1.249000000000000998,-0.120858078105641975
1.250000000000000888,-0.121237540748499600
1.251000000000000778,-0.121606427578533086
1.252000000000000890,-0.121964781635447245
1.253000000000001002,-0.122312646117389651
1.254000000000000892,-0.122650064376624179
1.255000000000000782,-0.122977079915226023
1.256000000000000894,-0.123293736380844982
1.257000000000001005,-0.123600077562491098
1.258000000000000895,-0.123896147386386851
1.259000000000000785,-0.124181989911844662
1.260000000000000897,-0.124457649327210013
1.261000000000001009,-0.124723169945825135
1.262000000000000899,-0.124978596202056452
1.263000000000000789,-0.125223972647353715
1.264000000000000901,-0.125459343946361657
1.265000000000001013,-0.125684754873059273
1.266000000000000902,-0.125900250306955452
1.267000000000000792,-0.126105875229326592
1.268000000000000904,-0.126301674719485529
1.269000000000001016,-0.126487693951103264
1.270000000000000906,-0.126663978188561815
1.271000000000000796,-0.126830572783359546
1.272000000000000908,-0.126987523170540434
1.273000000000001020,-0.127134874865187070
1.274000000000000909,-0.127272673458929730
1.275000000000000799,-0.127400964616507240
1.276000000000000911,-0.127519794072372600
1.277000000000001023,-0.127629207627322272
1.278000000000000913,-0.127729251145176248
1.279000000000000803,-0.127819970549491763
1.280000000000000915,-0.127901411820323219
1.281000000000001027,-0.127973620990994796
1.282000000000000917,-0.128036644144951195
1.283000000000000806,-0.128090527412606736
1.284000000000000918,-0.128135316968254864
1.285000000000001030,-0.128171059027005541
1.286000000000000920,-0.128197799841764215
1.287000000000000810,-0.128215585700232948
1.288000000000000922,-0.128224462921971788
1.289000000000001034,-0.128224477855469893
1.290000000000000924,-0.128215676875265833
1.291000000000000814,-0.128198106379109722
1.292000000000000925,-0.128171812785130790
1.293000000000001037,-0.128136842529083472
1.294000000000000927,-0.128093242061582679
1.295000000000000817,-0.128041057845403705
1.296000000000000929,-0.127980336352803564
1.297000000000001041,-0.127911124062868642
1.298000000000000931,-0.127833467458923933
1.299000000000000821,-0.127747413025933454
1.300000000000000933,-0.127653007247961164
1.301000000000001044,-0.127550296605664942
1.302000000000000934,-0.127439327573804384
1.303000000000000824,-0.127320146618796037
1.304000000000000936,-0.127192800196286621
1.305000000000001048,-0.127057334748781725
1.306000000000000938,-0.126913796703268911
1.307000000000000828,-0.126762232468902447
1.308000000000000940,-0.126602688434702182
1.309000000000001052,-0.126435210967289602
1.310000000000000941,-0.126259846408653453
1.311000000000000831,-0.126076641073932599
1.312000000000000943,-0.125885641249242564
1.313000000000001055,-0.125686893189536936
1.314000000000000945,-0.125480443116473522
1.315000000000000835,-0.125266337216319718
1.316000000000000947,-0.125044621637904335
1.317000000000001059,-0.124815342490569289
1.318000000000000949,-0.124578545842161548
1.319000000000000838,-0.124334277717060446
1.320000000000000950,-0.124082584094219642
1.321000000000001062,-0.123823510905237064
1.322000000000000952,-0.123557104032459258
1.323000000000000842,-0.123283409307108932
1.324000000000000954,-0.123002472507436650
1.325000000000001066,-0.122714339356896934
1.326000000000000956,-0.122419055522359876
1.327000000000000846,-0.122116666612335556
1.328000000000000957,-0.121807218175230436
1.329000000000001069,-0.121490755697630792
1.330000000000000959,-0.121167324602611898
1.331000000000000849,-0.120836970248057882
1.332000000000000961,-0.120499737925024664
1.333000000000001073,-0.120155672856116988
1.334000000000000963,-0.119804820193893338
1.335000000000000853,-0.119447225019285438
1.336000000000000965,-0.119082932340060912
1.337000000000001076,-0.118711987089284945
1.338000000000000966,-0.118334434123823967
1.339000000000000856,-0.117950318222866418
1.340000000000000968,-0.117559684086454452
1.341000000000001080,-0.117162576334061949
1.342000000000000970,-0.116759039503174872
1.343000000000000860,-0.116349118047900824
1.344000000000000972,-0.115932856337597617
1.345000000000001084,-0.115510298655537386
1.346000000000000973,-0.115081489197561851
1.347000000000000863,-0.114646472070794883
1.348000000000000975,-0.114205291292345162
1.349000000000001087,-0.113757990788052779
1.350000000000000977,-0.113304614391243619
1.351000000000000867,-0.112845205841507618
1.352000000000000979,-0.112379808783493226
1.353000000000001091,-0.111908466765730713
1.354000000000000981,-0.111431223239474714
1.355000000000000870,-0.110948121557544480
1.356000000000000982,-0.110459204973221856
1.357000000000001094,-0.109964516639136339
1.358000000000000984,-0.109464099606177867
1.359000000000000874,-0.108957996822444489
1.360000000000000986,-0.108446251132178345
1.361000000000001098,-0.107928905274757042
1.362000000000000988,-0.107406001883658717
1.363000000000000878,-0.106877583485496877
1.364000000000000989,-0.106343692499030862
1.365000000000001101,-0.105804371234204053
1.366000000000000991,-0.105259661891224571
1.367000000000000881,-0.104709606559630103
1.368000000000000993,-0.104154247217386781
1.369000000000001105,-0.103593625730000791
1.370000000000000995,-0.103027783849655274
1.371000000000000885,-0.102456763214353819
1.372000000000000997,-0.101880605347077408
1.373000000000001108,-0.101299351654979941
1.374000000000000998,-0.100713043428558316
1.375000000000000888,-0.100121721840897987
1.376000000000001000,-0.099525427946874717
1.377000000000001112,-0.098924202682408605
1.378000000000001002,-0.098318086863723092
1.379000000000000892,-0.097707121186622267
1.380000000000001004,-0.097091346225770953
1.381000000000001116,-0.096470802434013264
1.382000000000001005,-0.095845530141684815
1.383000000000000895,-0.095215569555943763
1.384000000000001007,-0.094580960760135904
1.385000000000001119,-0.093941743713138265
1.386000000000001009,-0.093297958248757043
1.387000000000000899,-0.092649644075099208
1.388000000000001011,-0.091996840774005356
1.389000000000001123,-0.091339587800442337
1.390000000000001013,-0.090677924481958189
1.391000000000000902,-0.090011890018116214
1.392000000000001014,-0.089341523479966725
1.393000000000001126,-0.088666863809515148
1.394000000000001016,-0.087987949819210959
1.395000000000000906,-0.087304820191449126
1.396000000000001018,-0.086617513478079083
1.397000000000001130,-0.085926068099939856
1.398000000000001020,-0.085230522346392765
1.399000000000000909,-0.084530914374868205
1.400000000000001021,-0.083827282210438087
1.401000000000001133,-0.083119663745390038
1.402000000000001023,-0.082408096738809930
1.403000000000000913,-0.081692618816181090
1.404000000000001025,-0.080973267469002838
1.405000000000001137,-0.080250080054411366
1.406000000000001027,-0.079523093794800992
1.407000000000000917,-0.078792345777500578
1.408000000000001029,-0.078057872954391622
1.409000000000001140,-0.077319712141606087
1.410000000000001030,-0.076577900019198480
1.411000000000000920,-0.075832473130828332
1.412000000000001032,-0.075083467883461860
1.413000000000001144,-0.074330920547100221
1.414000000000001034,-0.073574867254478898
1.415000000000000924,-0.072815344000809898
1.416000000000001036,-0.072052386643531197
1.417000000000001148,-0.071286030902049463
1.418000000000001037,-0.070516312357506744
1.419000000000000927,-0.069743266452551925
1.420000000000001039,-0.068966928491124652
1.421000000000001151,-0.068187333638250983
1.422000000000001041,-0.067404516919837190
1.423000000000000931,-0.066618513222487311
1.424000000000001043,-0.065829357293318846
1.425000000000001155,-0.065037083739799134
1.426000000000001044,-0.064241727029579976
1.427000000000000934,-0.063443321490346899
1.428000000000001046,-0.062641901309675396
1.429000000000001158,-0.061837500534893675
1.430000000000001048,-0.061030153072962702
1.431000000000000938,-0.060219892690357248
1.432000000000001050,-0.059406753012955879
1.433000000000001162,-0.058590767525944665
1.434000000000001052,-0.057771969573713930
1.435000000000000941,-0.056950392359793503
1.436000000000001053,-0.056126068946758499
1.437000000000001165,-0.055299032256172630
1.438000000000001055,-0.054469315068528958
1.439000000000000945,-0.053636950023188731
1.440000000000001057,-0.052801969618347842
1.441000000000001169,-0.051964406210990619
1.442000000000001059,-0.051124292016864838
1.443000000000000949,-0.050281659110468890
1.444000000000001060,-0.049436539425018217
1.445000000000001172,-0.048588964752450517
1.446000000000001062,-0.047738966743430943
1.447000000000000952,-0.046886576907340709
1.448000000000001064,-0.046031826612307800
1.449000000000001176,-0.045174747085222247
1.450000000000001066,-0.044315369411758641
1.451000000000000956,-0.043453724536416063
1.452000000000001068,-0.042589843262555348
1.453000000000001180,-0.041723756252450790
1.454000000000001069,-0.040855494027338700
1.455000000000000959,-0.039985086967478121
1.456000000000001071,-0.039112565312217150
1.457000000000001183,-0.038237959160070785
1.458000000000001073,-0.037361298468788849
1.459000000000000963,-0.036482613055447900
1.460000000000001075,-0.035601932596541416
1.461000000000001187,-0.034719286628070022
1.462000000000001076,-0.033834704545653127
1.463000000000000966,-0.032948215604622313
1.464000000000001078,-0.032059848920148563
1.465000000000001190,-0.031169633467358310
1.466000000000001080,-0.030277598081442609
1.467000000000000970,-0.029383771457808228
1.468000000000001082,-0.028488182152199715
1.469000000000001194,-0.027590858580839445
1.470000000000001084,-0.026691829020577141
1.471000000000000973,-0.025791121609035860
1.472000000000001085,-0.024888764344773960
1.473000000000001197,-0.023984785087437205
1.474000000000001087,-0.023079211557925701
1.475000000000000977,-0.022172071338566558
1.476000000000001089,-0.021263391873288733
1.477000000000001201,-0.020353200467797289
1.478000000000001091,-0.019441524289759538
1.479000000000000981,-0.018528390368996086
1.480000000000001092,-0.017613825597665927
1.481000000000001204,-0.016697856730476017
1.482000000000001094,-0.015780510384865498
1.483000000000000984,-0.014861813041229860
1.484000000000001096,-0.013941791043117496
1.485000000000001208,-0.013020470597442824
1.486000000000001098,-0.012097877774716412
1.487000000000000988,-0.011174038509256023
1.488000000000001100,-0.010248978599414208
1.489000000000001211,-0.009322723707809785
1.490000000000001101,-0.008395299361566836
1.491000000000000991,-0.007466730952536224
1.492000000000001103,-0.006537043737555955
1.493000000000001215,-0.005606262838679756
1.494000000000001105,-0.004674413243433470
1.495000000000000995,-0.003741519805064936
1.496000000000001107,-0.002807607242802651
1.497000000000001219,-0.001872700142105006
1.498000000000001108,-0.000936822954932101
1.499000000000000998,0.000000000000000000
