# AuFCC100-Ablate0_BSAI4
# h[nm],U(h)[kJ/mol]
0.149999999999999994,117.260359798615439786
0.150999999999999995,113.512585018697450323
0.151999999999999996,109.513748562712109447
0.152999999999999997,105.506163183614489753
0.153999999999999998,101.606061134587875472
0.154999999999999999,97.853172917889452265
0.156000000000000000,94.245701738607152720
0.157000000000000001,90.763359450319654798
0.158000000000000002,87.381343949805383886
0.159000000000000002,84.077868635669290143
0.160000000000000003,80.837390751643809494
0.161000000000000004,77.651185845470820368
0.162000000000000005,74.516459623210934637
0.163000000000000006,71.434809128282736879
0.164000000000000007,68.410549490139288764
0.165000000000000008,65.449204265222405752
0.166000000000000009,62.556304661656767507
0.167000000000000010,59.736542216129620897
0.168000000000000010,56.993258022743063407
0.169000000000000011,54.328218402204846882
0.170000000000000012,51.741613031324448002
0.171000000000000013,49.232210141919772184
0.172000000000000014,46.797609349909016885
0.173000000000000015,44.434542378140029939
0.174000000000000016,42.139182951712747638
0.175000000000000017,39.907437924210555025
0.176000000000000018,37.735201340831316941
0.177000000000000018,35.618561221262368122
0.178000000000000019,33.553955219884770145
0.179000000000000020,31.538276056065654984
0.180000000000000021,29.568930877043850813
0.181000000000000022,27.643860748208766154
0.182000000000000023,25.761527503541486794
0.183000000000000024,23.920875466376479324
0.184000000000000025,22.121275277662601155
0.185000000000000026,20.362456425263040671
0.186000000000000026,18.644434200693641657
0.187000000000000027,16.967435834704023279
0.188000000000000028,15.331829567259635638
0.189000000000000029,13.738059452964909823
0.190000000000000030,12.186587831237506663
0.191000000000000031,10.677846626392637930
0.192000000000000032,9.212197998061091297
0.193000000000000033,7.789904339203104655
0.194000000000000034,6.411107212665029920
0.195000000000000034,5.075814518407036680
0.196000000000000035,3.783894980091867755
0.197000000000000036,2.535078918165491579
0.198000000000000037,1.328964223066007921
0.199000000000000038,0.165026443385060256
0.200000000000000039,-0.957368052763980515
0.201000000000000040,-2.038946810430035672
0.202000000000000041,-3.080514786038972552
0.203000000000000042,-4.082937373834518269
0.204000000000000042,-5.047123608307360065
0.205000000000000043,-5.974010074776825441
0.206000000000000044,-6.864545948287259947
0.207000000000000045,-7.719679475723763673
0.208000000000000046,-8.540346119750147125
0.209000000000000047,-9.327458497225078915
0.210000000000000048,-10.081898169903103835
0.211000000000000049,-10.804509281680866550
0.212000000000000050,-11.496093984201564808
0.213000000000000050,-12.157409550756538508
0.214000000000000051,-12.789167046383136395
0.215000000000000052,-13.392031398955333898
0.216000000000000053,-13.966622700918316369
0.217000000000000054,-14.513518563113104065
0.218000000000000055,-15.033257339855293111
0.219000000000000056,-15.526342047089386256
0.220000000000000057,-15.993244802110572422
0.221000000000000058,-16.434411623163445171
0.222000000000000058,-16.850267439420946403
0.223000000000000059,-17.241221175712563962
0.224000000000000060,-17.607670791305803704
0.225000000000000061,-17.950008167523371583
0.226000000000000062,-18.268623754557065553
0.227000000000000063,-18.563910903155491638
0.228000000000000064,-18.836269821619179510
0.229000000000000065,-19.086111112507428089
0.230000000000000066,-19.313858856469664715
0.231000000000000066,-19.519953222543502847
0.232000000000000067,-19.704852595030651230
0.233000000000000068,-19.869035216633712082
0.234000000000000069,-20.013000355901027660
0.235000000000000070,-20.137269014202523465
0.236000000000000071,-20.242384193483740518
0.237000000000000072,-20.328910750974937827
0.238000000000000073,-20.397434870931910211
0.239000000000000073,-20.448563186432412664
0.240000000000000074,-20.482921586328153296
0.241000000000000075,-20.501153743741230784
0.242000000000000076,-20.503919403081233952
0.243000000000000077,-20.491892462530564956
0.244000000000000078,-20.465758888382886482
0.245000000000000079,-20.426214496600699988
0.246000000000000080,-20.373962635560719292
0.247000000000000081,-20.309711802246777523
0.248000000000000081,-20.234173222196169206
0.249000000000000082,-20.148058421364602566
0.250000000000000111,-20.052076815801967768
0.251000000000000112,-19.946933342672060974
0.252000000000000113,-19.833326153749212040
0.253000000000000114,-19.711944390116816095
0.254000000000000115,-19.583466054413669610
0.255000000000000115,-19.448555994646255840
0.256000000000000116,-19.307864011335304610
0.257000000000000117,-19.162023097609313993
0.258000000000000118,-19.011647819811905435
0.259000000000000119,-18.857332844265666694
0.260000000000000120,-18.699651614040362801
0.261000000000000121,-18.539155177913389849
0.262000000000000122,-18.376371172189692516
0.263000000000000123,-18.211802954666005405
0.264000000000000123,-18.045928888781787691
0.265000000000000124,-17.879201774892223398
0.266000000000000125,-17.712048424625493226
0.267000000000000126,-17.544869373440654670
0.268000000000000127,-17.378038725780008633
0.269000000000000128,-17.211904126603645437
0.270000000000000129,-17.046786852597552553
0.271000000000000130,-16.882982015952897825
0.272000000000000131,-16.720758873316537318
0.273000000000000131,-16.560361232302366119
0.274000000000000132,-16.402007947824269962
0.275000000000000133,-16.245893500455679259
0.276000000000000134,-16.092188649030724434
0.277000000000000135,-15.941041149772280150
0.278000000000000136,-15.792576534353736761
0.279000000000000137,-15.646898939469744860
0.280000000000000138,-15.504091980699602260
0.281000000000000139,-15.364219663688635009
0.282000000000000139,-15.227327325944532532
0.283000000000000140,-15.093442602839909128
0.284000000000000141,-14.962576411726100645
0.285000000000000142,-14.834723948391618009
0.286000000000000143,-14.709865690437567309
0.287000000000000144,-14.587968402488206365
0.288000000000000145,-14.468986138505098182
0.289000000000000146,-14.352861236823619251
0.290000000000000147,-14.239525303879641882
0.291000000000000147,-14.128900182939279517
0.292000000000000148,-14.020898904483066971
0.293000000000000149,-13.915426615227252327
0.294000000000000150,-13.812381483085857781
0.295000000000000151,-13.711655575688888931
0.296000000000000152,-13.613135710370244169
0.297000000000000153,-13.516704273826613658
0.298000000000000154,-13.422240009920937354
0.299000000000000155,-13.329618774364584866
0.300000000000000155,-13.238714255257161057
0.301000000000000156,-13.149398658694670061
0.302000000000000157,-13.061543358872921061
0.303000000000000158,-12.975019512315947523
0.304000000000000159,-12.889698636046968971
0.305000000000000160,-12.805453149693253323
0.306000000000000161,-12.722156881676630391
0.307000000000000162,-12.639685539787759438
0.308000000000000163,-12.557917146575633183
0.309000000000000163,-12.476732440104770561
0.310000000000000164,-12.396015240740858587
0.311000000000000165,-12.315652784722363577
0.312000000000000166,-12.235536025361351875
0.313000000000000167,-12.155559902791420512
0.314000000000000168,-12.075623583245441495
0.315000000000000169,-11.995630668900984617
0.316000000000000170,-11.915489379377376622
0.317000000000000171,-11.835112706006004402
0.318000000000000171,-11.754418540025023177
0.319000000000000172,-11.673329775872350211
0.320000000000000173,-11.591774390765811731
0.321000000000000174,-11.509685501768766258
0.322000000000000175,-11.427001401542707271
0.323000000000000176,-11.343665573986347894
0.324000000000000177,-11.259626690953654204
0.325000000000000178,-11.174838591231939233
0.326000000000000179,-11.089260242945952584
0.327000000000000179,-11.002855690534570243
0.328000000000000180,-10.915593987424760059
0.329000000000000181,-10.827449115502679078
0.330000000000000182,-10.738399892453593054
0.331000000000000183,-10.648429868013646882
0.332000000000000184,-10.557527210144177943
0.333000000000000185,-10.465684582106725031
0.334000000000000186,-10.372899011382532564
0.335000000000000187,-10.279171751344801322
0.336000000000000187,-10.184508136556186031
0.337000000000000188,-10.088917432526921303
0.338000000000000189,-9.992412680732343233
0.339000000000000190,-9.895010539651021730
0.340000000000000191,-9.796731122547337023
0.341000000000000192,-9.697597832685824315
0.342000000000000193,-9.597637196626738643
0.343000000000000194,-9.496878696216811022
0.344000000000000195,-9.395354599852343114
0.345000000000000195,-9.293099793557114907
0.346000000000000196,-9.190151612382267743
0.347000000000000197,-9.086549672601909933
0.348000000000000198,-8.982335705144807392
0.349000000000000199,-8.877553390670360756
0.350000000000000200,-8.772248196666096121
0.351000000000000201,-8.666467216913201099
0.352000000000000202,-8.560259013637780967
0.353000000000000203,-8.453673462637189218
0.354000000000000203,-8.346761601643484241
0.355000000000000204,-8.239575482160294229
0.356000000000000205,-8.132168024984249399
0.357000000000000206,-8.024592879598284156
0.358000000000000207,-7.916904287601241208
0.359000000000000208,-7.809156950316731738
0.360000000000000209,-7.701405900703337970
0.361000000000000210,-7.593706379668782702
0.362000000000000210,-7.486113716872130119
0.363000000000000211,-7.378683216080650809
0.364000000000000212,-7.271470045131427362
0.365000000000000213,-7.164529130532239165
0.366000000000000214,-7.057915056721881797
0.367000000000000215,-6.951681969996225341
0.368000000000000216,-6.845883487093926689
0.369000000000000217,-6.740572608423543777
0.370000000000000218,-6.635801635903163742
0.371000000000000218,-6.531622095373281311
0.372000000000000219,-6.428084663534404442
0.373000000000000220,-6.325239099352330641
0.374000000000000221,-6.223134179866088189
0.375000000000000222,-6.121817640326416843
0.376000000000000223,-6.021336118586271269
0.377000000000000224,-5.921735103658802402
0.378000000000000225,-5.823058888353325635
0.379000000000000226,-5.725350525894833176
0.380000000000000226,-5.628651790428847335
0.381000000000000227,-5.533003141309512429
0.382000000000000228,-5.438443691066104257
0.383000000000000229,-5.345011176940309916
0.384000000000000230,-5.252741935884485791
0.385000000000000231,-5.161670882909620062
0.386000000000000232,-5.071831492670074049
0.387000000000000233,-4.983255784171417346
0.388000000000000234,-4.895974308486955806
0.389000000000000234,-4.810016139368405774
0.390000000000000235,-4.725408866635849137
0.391000000000000236,-4.642178592232849788
0.392000000000000237,-4.560349928832630795
0.393000000000000238,-4.479946000882505608
0.394000000000000239,-4.400988447974317985
0.395000000000000240,-4.323497430430118804
0.396000000000000241,-4.247491636993632191
0.397000000000000242,-4.172988294519510255
0.398000000000000242,-4.100003179554290611
0.399000000000000243,-4.028550631704613139
0.400000000000000244,-3.958643568690243253
0.401000000000000245,-3.890293502981812424
0.402000000000000246,-3.823510559924907959
0.403000000000000247,-3.758303497254723347
0.404000000000000248,-3.694679725907773271
0.405000000000000249,-3.632645332039493358
0.406000000000000250,-3.572205100159037361
0.407000000000000250,-3.513362537295096732
0.408000000000000251,-3.456119898109041522
0.409000000000000252,-3.400478210874395391
0.410000000000000253,-3.346437304243926825
0.411000000000000254,-3.293995834728628669
0.412000000000000255,-3.243151314815030162
0.413000000000000256,-3.193900141650301006
0.414000000000000257,-3.146237626226719097
0.415000000000000258,-3.100158023000120444
0.416000000000000258,-3.055654559879119603
0.417000000000000259,-3.012719468524624578
0.418000000000000260,-2.971344014901628139
0.419000000000000261,-2.931518530027643621
0.420000000000000262,-2.893232440864733412
0.421000000000000263,-2.856474301304412933
0.422000000000000264,-2.821231823196936439
0.423000000000000265,-2.787491907379052503
0.424000000000000266,-2.755240674656400213
0.425000000000000266,-2.724463496698971809
0.426000000000000267,-2.695145026810253697
0.427000000000000268,-2.667269230532847146
0.428000000000000269,-2.640819416055357305
0.429000000000000270,-2.615778264387360608
0.430000000000000271,-2.592127859271359469
0.431000000000000272,-2.569849716802352635
0.432000000000000273,-2.548924814727684840
0.433000000000000274,-2.529333621401538501
0.434000000000000274,-2.511056124370264264
0.435000000000000275,-2.494071858566327737
0.436000000000000276,-2.478359934090451411
0.437000000000000277,-2.463899063562951852
0.438000000000000278,-2.450667589026927828
0.439000000000000279,-2.438643508387414283
0.440000000000000280,-2.427804501371956913
0.441000000000000281,-2.418127954999520490
0.442000000000000282,-2.409590988546000290
0.443000000000000282,-2.402170477995701603
0.444000000000000283,-2.395843079969600886
0.445000000000000284,-2.390585255122169794
0.446000000000000285,-2.386373290999741936
0.447000000000000286,-2.383183324354575028
0.448000000000000287,-2.380991362909528508
0.449000000000000288,-2.379773306569521463
0.450000000000000289,-2.379504968076720850
0.451000000000000290,-2.380162093107288435
0.452000000000000290,-2.381720379808441201
0.453000000000000291,-2.384155497775303889
0.454000000000000292,-2.387443106467849852
0.455000000000000293,-2.391558873068874824
0.456000000000000294,-2.396478489784738208
0.457000000000000295,-2.402177690591084769
0.458000000000000296,-2.408632267426588314
0.459000000000000297,-2.415818085838073337
0.460000000000000298,-2.423711100081171299
0.461000000000000298,-2.432287367680888046
0.462000000000000299,-2.441523063457243570
0.463000000000000300,-2.451394493021261667
0.464000000000000301,-2.461878105747287382
0.465000000000000302,-2.472950507227736683
0.466000000000000303,-2.484588471216979233
0.467000000000000304,-2.496768951071121290
0.468000000000000305,-2.509469090691007764
0.469000000000000306,-2.522666234975837973
0.470000000000000306,-2.536337939795155538
0.471000000000000307,-2.550461981487131879
0.472000000000000308,-2.565016365891350070
0.473000000000000309,-2.579979336924385969
0.474000000000000310,-2.595329384706641207
0.475000000000000311,-2.611045253249243192
0.476000000000000312,-2.627105947709543088
0.477000000000000313,-2.643490741224308938
0.478000000000000314,-2.660179181329432208
0.479000000000000314,-2.677151095975294215
0.480000000000000315,-2.694386599146800343
0.481000000000000316,-2.711866096097327095
0.482000000000000317,-2.729570288205684481
0.483000000000000318,-2.747480177465336570
0.484000000000000319,-2.765577070615051980
0.485000000000000320,-2.783842582920209807
0.486000000000000321,-2.802258641613922130
0.487000000000000322,-2.820807489007125746
0.488000000000000322,-2.839471685276771851
0.489000000000000323,-2.858234110941137551
0.490000000000000324,-2.877077969031341720
0.491000000000000325,-2.895986786967954085
0.492000000000000326,-2.914944418151590444
0.493000000000000327,-2.933935043276302945
0.494000000000000328,-2.952943171374449172
0.495000000000000329,-2.971953640601721514
0.496000000000000330,-2.990951618770764320
0.497000000000000330,-3.009922603641912442
0.498000000000000331,-3.028852422979285031
0.499000000000000332,-3.047727234380435135
0.500000000000000333,-3.066533524887713913
0.501000000000000334,-3.085258110389249797
0.502000000000000335,-3.103888134817407440
0.503000000000000336,-3.122411069152431828
0.504000000000000337,-3.140814710238920338
0.505000000000000338,-3.159087179422487512
0.506000000000000338,-3.177216921014033080
0.507000000000000339,-3.195192700588768808
0.508000000000000340,-3.213003603127048358
0.509000000000000341,-3.230639031003922579
0.510000000000000342,-3.248088701834202396
0.511000000000000343,-3.265342646179665742
0.512000000000000344,-3.282391205124891798
0.513000000000000345,-3.299225027728064141
0.514000000000000346,-3.315835068353023551
0.515000000000000346,-3.332212583888538582
0.516000000000000347,-3.348349130860792222
0.517000000000000348,-3.364236562444881340
0.518000000000000349,-3.379867025380918655
0.519000000000000350,-3.395232956800287916
0.520000000000000351,-3.410327080967435087
0.521000000000000352,-3.425142405942382506
0.522000000000000353,-3.439672220169050831
0.523000000000000353,-3.453910088994436300
0.524000000000000354,-3.467849851123336435
0.525000000000000355,-3.481485615013417689
0.526000000000000356,-3.494811755215098792
0.527000000000000357,-3.507822908660719996
0.528000000000000358,-3.520513970907308110
0.529000000000000359,-3.532880092337006950
0.530000000000000360,-3.544916674319328109
0.531000000000000361,-3.556619365339059868
0.532000000000000361,-3.567984057093648520
0.533000000000000362,-3.579006880563706972
0.534000000000000363,-3.589684202060225537
0.535000000000000364,-3.600012619251888424
0.536000000000000365,-3.609988957175823465
0.537000000000000366,-3.619610264234990105
0.538000000000000367,-3.628873808185276495
0.539000000000000368,-3.637777072115324195
0.540000000000000369,-3.646317750421912418
0.541000000000000369,-3.654493744783692044
0.542000000000000370,-3.662303160135919278
0.543000000000000371,-3.669744300648768665
0.544000000000000372,-3.676815665711671066
0.545000000000000373,-3.683515945926042257
0.546000000000000374,-3.689844019108700302
0.547000000000000375,-3.695798946308076260
0.548000000000000376,-3.701379967835411122
0.549000000000000377,-3.706586499312830796
0.550000000000000377,-3.711418127740274464
0.551000000000000378,-3.715874607583059763
0.552000000000000379,-3.719955856881871803
0.553000000000000380,-3.723661953386774748
0.554000000000000381,-3.726993130716873104
0.555000000000000382,-3.729949774547138386
0.556000000000000383,-3.732532418823742315
0.557000000000000384,-3.734741742009386023
0.558000000000000385,-3.736578563359772343
0.559000000000000385,-3.738043839232552124
0.560000000000000386,-3.739138659429798395
0.561000000000000387,-3.739864243575165226
0.562000000000000388,-3.740221937526696738
0.563000000000000389,-3.740213209826276142
0.564000000000000390,-3.739839648186578103
0.565000000000000391,-3.739102956016401968
0.566000000000000392,-3.738004948985136799
0.567000000000000393,-3.736547551627103392
0.568000000000000393,-3.734732793986415889
0.569000000000000394,-3.732562808303021562
0.570000000000000395,-3.730039825740495196
0.571000000000000396,-3.727166173156032158
0.572000000000000397,-3.723944269913235239
0.573000000000000398,-3.720376624738040761
0.574000000000000399,-3.716465832618175646
0.575000000000000400,-3.712214571746563330
0.576000000000000401,-3.707625600508857922
0.577000000000000401,-3.702701754515516974
0.578000000000000402,-3.697445943678509650
0.579000000000000403,-3.691861149332932968
0.580000000000000404,-3.685950421403661803
0.581000000000000405,-3.679716875617143224
0.582000000000000406,-3.673163690758448841
0.583000000000000407,-3.666294105973605610
0.584000000000000408,-3.659111418117284131
0.585000000000000409,-3.651618979145779154
0.586000000000000409,-3.643820193555279197
0.587000000000000410,-3.635718515865407507
0.588000000000000411,-3.627317448147857171
0.589000000000000412,-3.618620537600114595
0.590000000000000413,-3.609631374164050222
0.591000000000000414,-3.600353588189286747
0.592000000000000415,-3.590790848141144131
0.593000000000000416,-3.580946858352939355
0.594000000000000417,-3.570825356822473484
0.595000000000000417,-3.560430113052446277
0.596000000000000418,-3.549764925934503879
0.597000000000000419,-3.538833621676766850
0.598000000000000420,-3.527640051774378893
0.599000000000000421,-3.516188091022956375
0.600000000000000422,-3.504481635574485665
0.601000000000000423,-3.492524601035396081
0.602000000000000424,-3.480320920606475799
0.603000000000000425,-3.467874543264252818
0.604000000000000425,-3.455189431983451520
0.605000000000000426,-3.442269562000215721
0.606000000000000427,-3.429118919115657693
0.607000000000000428,-3.415741498039314372
0.608000000000000429,-3.402141300772188348
0.609000000000000430,-3.388322335028870036
0.610000000000000431,-3.374288612698388867
0.611000000000000432,-3.360044148343293013
0.612000000000000433,-3.345592957736591266
0.613000000000000433,-3.330939056436082346
0.614000000000000434,-3.316086458395618219
0.615000000000000435,-3.301039174612844018
0.616000000000000436,-3.285801211812988676
0.617000000000000437,-3.270376571168228885
0.618000000000000438,-3.254769247052145431
0.619000000000000439,-3.238983225828806489
0.620000000000000440,-3.223022484676049348
0.621000000000000441,-3.206890990442412992
0.622000000000000441,-3.190592698537332073
0.623000000000000442,-3.174131551854021627
0.624000000000000443,-3.157511479724657733
0.625000000000000444,-3.140736396907328754
0.626000000000000445,-3.123810202604272224
0.627000000000000446,-3.106736779510948843
0.628000000000000447,-3.089519992895457090
0.629000000000000448,-3.072163689707793299
0.630000000000000449,-3.054671697718486012
0.631000000000000449,-3.037047824686145425
0.632000000000000450,-3.019295857553433216
0.633000000000000451,-3.001419561670964242
0.634000000000000452,-2.983422680048694708
0.635000000000000453,-2.965308932634280747
0.636000000000000454,-2.947082015617992656
0.637000000000000455,-2.928745600763662082
0.638000000000000456,-2.910303334765228733
0.639000000000000457,-2.891758838628406547
0.640000000000000457,-2.873115707077018577
0.641000000000000458,-2.854377507983514306
0.642000000000000459,-2.835547781823277713
0.643000000000000460,-2.816630041152184738
0.644000000000000461,-2.797627770107035339
0.645000000000000462,-2.778544423928385410
0.646000000000000463,-2.759383428505314484
0.647000000000000464,-2.740148179941743756
0.648000000000000465,-2.720842044143824801
0.649000000000000465,-2.701468356427978446
0.650000000000000466,-2.682030421149177446
0.651000000000000467,-2.662531511349023106
0.652000000000000468,-2.642974868423218382
0.653000000000000469,-2.623363701807992499
0.654000000000000470,-2.603701188685132450
0.655000000000000471,-2.583990473705135127
0.656000000000000472,-2.564234668728129218
0.657000000000000473,-2.544436852582163677
0.658000000000000473,-2.524600070838464383
0.659000000000000474,-2.504727335603269101
0.660000000000000475,-2.484821625325877470
0.661000000000000476,-2.464885884622497692
0.662000000000000477,-2.444923024115576382
0.663000000000000478,-2.424935920288186164
0.664000000000000479,-2.404927415353145470
0.665000000000000480,-2.384900317136481096
0.666000000000000481,-2.364857398974938185
0.667000000000000481,-2.344801399627086447
0.668000000000000482,-2.324735023197800121
0.669000000000000483,-2.304660939075682258
0.670000000000000484,-2.284581781883129104
0.671000000000000485,-2.264500151438723297
0.672000000000000486,-2.244418612731583718
0.673000000000000487,-2.224339695907438408
0.674000000000000488,-2.204265896265981794
0.675000000000000488,-2.184199674269313718
0.676000000000000489,-2.164143455561135632
0.677000000000000490,-2.144099630996325168
0.678000000000000491,-2.124070556680714095
0.679000000000000492,-2.104058554020684202
0.680000000000000493,-2.084065909782337300
0.681000000000000494,-2.064094876159948910
0.682000000000000495,-2.044147670853427634
0.683000000000000496,-2.024226477154529302
0.684000000000000496,-2.004333444041511036
0.685000000000000497,-1.984470686282027385
0.686000000000000498,-1.964640284543939242
0.687000000000000499,-1.944844285513855242
0.688000000000000500,-1.925084702023088568
0.689000000000000501,-1.905363513180841739
0.690000000000000502,-1.885682664514350293
0.691000000000000503,-1.866044068115741750
0.692000000000000504,-1.846449602795399825
0.693000000000000504,-1.826901114241623159
0.694000000000000505,-1.807400415186282583
0.695000000000000506,-1.787949285576365899
0.696000000000000507,-1.768549472751094864
0.697000000000000508,-1.749202691624469619
0.698000000000000509,-1.729910624873036484
0.699000000000000510,-1.710674923128593594
0.700000000000000511,-1.691497205175785279
0.701000000000000512,-1.672379058154229714
0.702000000000000512,-1.653322037765119434
0.703000000000000513,-1.634327668482032481
0.704000000000000514,-1.615397443765807184
0.705000000000000515,-1.596532826283290740
0.706000000000000516,-1.577735248129795709
0.707000000000000517,-1.559006111055076360
0.708000000000000518,-1.540346786692681436
0.709000000000000519,-1.521758616792524332
0.710000000000000520,-1.503242913456458663
0.711000000000000520,-1.484800959376781693
0.712000000000000521,-1.466434008077450057
0.713000000000000522,-1.448143284157887178
0.714000000000000523,-1.429929983539251159
0.715000000000000524,-1.411795273712966203
0.716000000000000525,-1.393740293991455825
0.717000000000000526,-1.375766155760868026
0.718000000000000527,-1.357873942735716044
0.719000000000000528,-1.340064711215264381
0.720000000000000528,-1.322339490341590595
0.721000000000000529,-1.304699282359099266
0.722000000000000530,-1.287145062875501456
0.723000000000000531,-1.269677781124014748
0.724000000000000532,-1.252298360226767659
0.725000000000000533,-1.235007697459244103
0.726000000000000534,-1.217806664515655557
0.727000000000000535,-1.200696107775184318
0.728000000000000536,-1.183676848568936846
0.729000000000000536,-1.166749683447545483
0.730000000000000537,-1.149915384449320621
0.731000000000000538,-1.133174699368810767
0.732000000000000539,-1.116528352025765614
0.733000000000000540,-1.099977042534313609
0.734000000000000541,-1.083521447572347141
0.735000000000000542,-1.067162220650969218
0.736000000000000543,-1.050899992383997894
0.737000000000000544,-1.034735370757319917
0.738000000000000544,-1.018668941398182204
0.739000000000000545,-1.002701267844180677
0.740000000000000546,-0.986832891812004731
0.741000000000000547,-0.971064333465773144
0.742000000000000548,-0.955396091684968751
0.743000000000000549,-0.939828644331829777
0.744000000000000550,-0.924362448518181390
0.745000000000000551,-0.908997940871655863
0.746000000000000552,-0.893735537801179425
0.747000000000000552,-0.878575635761745688
0.748000000000000553,-0.863518611518347412
0.749000000000000554,-0.848564822409043629
0.750000000000000555,-0.833714606607138586
0.751000000000000556,-0.818968283382349838
0.752000000000000557,-0.804326153360987228
0.753000000000000558,-0.789788498785034543
0.754000000000000559,-0.775355583770152901
0.755000000000000560,-0.761027654562484890
0.756000000000000560,-0.746804939794293965
0.757000000000000561,-0.732687650738321095
0.758000000000000562,-0.718675981560883526
0.759000000000000563,-0.704770109573652270
0.760000000000000564,-0.690970195484057137
0.761000000000000565,-0.677276383644299207
0.762000000000000566,-0.663688802298934233
0.763000000000000567,-0.650207563831015856
0.764000000000000568,-0.636832765006699608
0.765000000000000568,-0.623564487218376762
0.766000000000000569,-0.610402796726218222
0.767000000000000570,-0.597347744898159450
0.768000000000000571,-0.584399368448267120
0.769000000000000572,-0.571557689673485636
0.770000000000000573,-0.558822716688733068
0.771000000000000574,-0.546194443660304563
0.772000000000000575,-0.533672851037603424
0.773000000000000576,-0.521257905783115150
0.774000000000000576,-0.508949561600687272
0.775000000000000577,-0.496747759162035785
0.776000000000000578,-0.484652426331452779
0.777000000000000579,-0.472663478388786029
0.778000000000000580,-0.460780818250547175
0.779000000000000581,-0.449004336689251660
0.780000000000000582,-0.437333912550891379
0.781000000000000583,-0.425769412970605221
0.782000000000000584,-0.414310693586441126
0.783000000000000584,-0.402957598751296664
0.784000000000000585,-0.391709961742970347
0.785000000000000586,-0.380567604972304574
0.786000000000000587,-0.369530340189480611
0.787000000000000588,-0.358597968688375790
0.788000000000000589,-0.347770281509018786
0.789000000000000590,-0.337047059638158175
0.790000000000000591,-0.326428074207873287
0.791000000000000592,-0.315913086692305112
0.792000000000000592,-0.305501849102416290
0.793000000000000593,-0.295194104178859440
0.794000000000000594,-0.284989585582895000
0.795000000000000595,-0.274888018085374275
0.796000000000000596,-0.264889117753787762
0.797000000000000597,-0.254992592137394725
0.798000000000000598,-0.245198140450389707
0.799000000000000599,-0.235505453753144856
0.800000000000000600,-0.225914215131535201
0.801000000000000600,-0.216424099874295672
0.802000000000000601,-0.207034775648476665
0.803000000000000602,-0.197745902672959412
0.804000000000000603,-0.188557133890044110
0.805000000000000604,-0.179468115135122674
0.806000000000000605,-0.170478485304418698
0.807000000000000606,-0.161587876520840529
0.808000000000000607,-0.152795914297884666
0.809000000000000608,-0.144102217701679386
0.810000000000000608,-0.135506399511104908
0.811000000000000609,-0.127008066376009809
0.812000000000000610,-0.118606818973576278
0.813000000000000611,-0.110302252162769274
0.814000000000000612,-0.102093955136931050
0.815000000000000613,-0.093981511574524765
0.816000000000000614,-0.085964499787976101
0.817000000000000615,-0.078042492870708635
0.818000000000000616,-0.070215058842324735
0.819000000000000616,-0.062481760791936167
0.820000000000000617,-0.054842157019689267
0.821000000000000618,-0.047295801176464133
0.822000000000000619,-0.039842242401785459
0.823000000000000620,-0.032481025459910141
0.824000000000000621,-0.025211690874143593
0.825000000000000622,-0.018033775059379958
0.826000000000000623,-0.010946810452871209
0.827000000000000624,-0.003950325643239244
0.828000000000000624,0.002956154502246744
0.829000000000000625,0.009773108712154078
0.830000000000000626,0.016501019187063391
0.831000000000000627,0.023140371477473907
0.832000000000000628,0.029691654363408197
0.833000000000000629,0.036155359735713120
0.834000000000000630,0.042531982479026564
0.835000000000000631,0.048822020356420234
0.836000000000000631,0.055025973895695371
0.837000000000000632,0.061144346277311488
0.838000000000000633,0.067177643223975653
0.839000000000000634,0.073126372891807206
0.840000000000000635,0.078991045763141449
0.841000000000000636,0.084772174540922118
0.842000000000000637,0.090470274044656157
0.843000000000000638,0.096085861107966991
0.844000000000000639,0.101619454477670873
0.845000000000000639,0.107071574714426770
0.846000000000000640,0.112442744094902805
0.847000000000000641,0.117733486515451832
0.848000000000000642,0.122944327397305542
0.849000000000000643,0.128075793593268372
0.850000000000000644,0.133128413295848153
0.851000000000000645,0.138102715946914284
0.852000000000000646,0.142999232148756317
0.853000000000000647,0.147818493576605259
0.854000000000000647,0.152561032892579745
0.855000000000000648,0.157227383661047326
0.856000000000000649,0.161818080265368536
0.857000000000000650,0.166333657826053388
0.858000000000000651,0.170774652120274956
0.859000000000000652,0.175141599502742940
0.860000000000000653,0.179435036827929884
0.861000000000000654,0.183655501373637342
0.862000000000000655,0.187803530765856957
0.863000000000000655,0.191879662904977488
0.864000000000000656,0.195884435893250414
0.865000000000000657,0.199818387963555721
0.866000000000000658,0.203682057409437844
0.867000000000000659,0.207475982516374058
0.868000000000000660,0.211200701494317300
0.869000000000000661,0.214856752411439811
0.870000000000000662,0.218444673129109285
0.871000000000000663,0.221965001238049187
0.872000000000000663,0.225418273995714513
0.873000000000000664,0.228805028264821297
0.874000000000000665,0.232125800453047842
0.875000000000000666,0.235381126453894141
0.876000000000000667,0.238571541588662089
0.877000000000000668,0.241697580549575936
0.878000000000000669,0.244759777344011109
0.879000000000000670,0.247758665239821319
0.880000000000000671,0.250694776711746559
0.881000000000000671,0.253568643388912274
0.882000000000000672,0.256380796003370937
0.883000000000000673,0.259131764339712134
0.884000000000000674,0.261822077185691726
0.885000000000000675,0.264452262283899009
0.886000000000000676,0.267022846284434734
0.887000000000000677,0.269534354698576339
0.888000000000000678,0.271987311853461200
0.889000000000000679,0.274382240847708625
0.890000000000000679,0.276719663508036784
0.891000000000000680,0.279000100346810331
0.892000000000000681,0.281224070520545599
0.893000000000000682,0.283392091789338940
0.894000000000000683,0.285504680477202677
0.895000000000000684,0.287562351433321484
0.896000000000000685,0.289565617994188729
0.897000000000000686,0.291514991946643709
0.898000000000000687,0.293410983491748822
0.899000000000000687,0.295254101209566744
0.900000000000000688,0.297044852024755390
0.901000000000000689,0.298783741173010875
0.902000000000000690,0.300471272168338910
0.903000000000000691,0.302107946771129399
0.904000000000000692,0.303694264957060311
0.905000000000000693,0.305230724886769500
0.906000000000000694,0.306717822876319490
0.907000000000000695,0.308156053368443206
0.908000000000000695,0.309545908904529266
0.909000000000000696,0.310887880097386493
0.910000000000000697,0.312182455604721965
0.911000000000000698,0.313430122103373343
0.912000000000000699,0.314631364264243707
0.913000000000000700,0.315786664727947808
0.914000000000000701,0.316896504081179475
0.915000000000000702,0.317961360833739937
0.916000000000000703,0.318981711396263523
0.917000000000000703,0.319958030058608567
0.918000000000000704,0.320890788968913487
0.919000000000000705,0.321780458113299139
0.920000000000000706,0.322627505296212258
0.921000000000000707,0.323432396121400123
0.922000000000000708,0.324195593973525931
0.923000000000000709,0.324917560000358541
0.924000000000000710,0.325598753095611704
0.925000000000000711,0.326239629882341231
0.926000000000000711,0.326840644696956950
0.927000000000000712,0.327402249573787885
0.928000000000000713,0.327924894230236408
0.929000000000000714,0.328409026052469410
0.930000000000000715,0.328855090081690171
0.931000000000000716,0.329263529000926591
0.932000000000000717,0.329634783122351671
0.933000000000000718,0.329969290375167146
0.934000000000000719,0.330267486293952583
0.935000000000000719,0.330529804007559214
0.936000000000000720,0.330756674228491532
0.937000000000000721,0.330948525242783620
0.938000000000000722,0.331105782900360746
0.939000000000000723,0.331228870605874026
0.940000000000000724,0.331318209310013323
0.941000000000000725,0.331374217501266610
0.942000000000000726,0.331397311198148969
0.943000000000000727,0.331387903941865347
0.944000000000000727,0.331346406789419790
0.945000000000000728,0.331273228307150169
0.946000000000000729,0.331168774564692125
0.947000000000000730,0.331033449129354618
0.948000000000000731,0.330867653060907929
0.949000000000000732,0.330671784906770017
0.950000000000000733,0.330446240697602200
0.951000000000000734,0.330191413943265455
0.952000000000000735,0.329907695629190589
0.953000000000000735,0.329595474213100648
0.954000000000000736,0.329255135622110895
0.955000000000000737,0.328887063250192402
0.956000000000000738,0.328491637955978799
0.957000000000000739,0.328069238060931856
0.958000000000000740,0.327620239347856779
0.959000000000000741,0.327145015059731592
0.960000000000000742,0.326643935898881133
0.961000000000000743,0.326117370026482667
0.962000000000000743,0.325565683062364331
0.963000000000000744,0.324989238085138410
0.964000000000000745,0.324388395632626225
0.965000000000000746,0.323763513702590600
0.966000000000000747,0.323114947753760429
0.967000000000000748,0.322443050707139633
0.968000000000000749,0.321748172947602606
0.969000000000000750,0.321030662325770155
0.970000000000000751,0.320290864160145405
0.971000000000000751,0.319529121239526204
0.972000000000000752,0.318745773825686307
0.973000000000000753,0.317941159656279948
0.974000000000000754,0.317115613948038610
0.975000000000000755,0.316269469400179137
0.976000000000000756,0.315403056198074405
0.977000000000000757,0.314516702017142324
0.978000000000000758,0.313610732026984640
0.979000000000000759,0.312685468895724072
0.980000000000000759,0.311741232794584600
0.981000000000000760,0.310778341402688674
0.982000000000000761,0.309797109912039015
0.983000000000000762,0.308797851032735216
0.984000000000000763,0.307780874998387965
0.985000000000000764,0.306746489571703751
0.986000000000000765,0.305695000050304422
0.987000000000000766,0.304626709272702967
0.988000000000000766,0.303541917624475410
0.989000000000000767,0.302440923044607346
0.990000000000000768,0.301324021032032818
0.991000000000000769,0.300191504652318697
0.992000000000000770,0.299043664544538457
0.993000000000000771,0.297880788928296503
0.994000000000000772,0.296703163610920306
0.995000000000000773,0.295511071994798424
0.996000000000000774,0.294304795084885717
0.997000000000000774,0.293084611496337633
0.998000000000000775,0.291850797462306577
0.999000000000000776,0.290603626841858920
1.000000000000000666,0.289343371128053806
1.001000000000000778,0.288070299456129664
1.002000000000000668,0.286784678611839483
1.003000000000000780,0.285486773039908381
1.004000000000000670,0.284176844852595534
1.005000000000000782,0.282855153838408813
1.006000000000000671,0.281521957470906081
1.007000000000000783,0.280177510917625106
1.008000000000000673,0.278822067049119937
1.009000000000000785,0.277455876448096439
1.010000000000000675,0.276079187418668770
1.011000000000000787,0.274692245995689366
1.012000000000000677,0.273295295954202044
1.013000000000000789,0.271888578818976989
1.014000000000000679,0.270472333874132442
1.015000000000000790,0.269046798172860591
1.016000000000000680,0.267612206547215681
1.017000000000000792,0.266168791618014544
1.018000000000000682,0.264716783804783973
1.019000000000000794,0.263256411335814788
1.020000000000000684,0.261787900258268480
1.021000000000000796,0.260311474448370606
1.022000000000000686,0.258827355621666366
1.023000000000000798,0.257335763343338964
1.024000000000000687,0.255836915038609669
1.025000000000000799,0.254331026003168315
1.026000000000000689,0.252818309413704589
1.027000000000000801,0.251298976338451996
1.028000000000000691,0.249773235747826117
1.029000000000000803,0.248241294525081452
1.030000000000000693,0.246703357477049412
1.031000000000000805,0.245159627344895270
1.032000000000000695,0.243610304814943474
1.033000000000000806,0.242055588529533156
1.034000000000000696,0.240495675097911560
1.035000000000000808,0.238930759107192803
1.036000000000000698,0.237361033133313887
1.037000000000000810,0.235786687752058466
1.038000000000000700,0.234207911550100178
1.039000000000000812,0.232624891136078288
1.040000000000000702,0.231037811151701078
1.041000000000000814,0.229446854282880308
1.042000000000000703,0.227852201270898391
1.043000000000000815,0.226254030923575600
1.044000000000000705,0.224652520126486094
1.045000000000000817,0.223047843854177641
1.046000000000000707,0.221440175181417065
1.047000000000000819,0.219829685294443078
1.048000000000000709,0.218216543502262633
1.049000000000000821,0.216600917247909669
1.050000000000000711,0.214982972119771049
1.051000000000000822,0.213362871862881776
1.052000000000000712,0.211740778390255791
1.053000000000000824,0.210116851794208331
1.054000000000000714,0.208491250357688063
1.055000000000000826,0.206864130565621085
1.056000000000000716,0.205235647116242786
1.057000000000000828,0.203605952932447570
1.058000000000000718,0.201975199173131476
1.059000000000000830,0.200343535244530024
1.060000000000000719,0.198711108811557097
1.061000000000000831,0.197078065809149938
1.062000000000000721,0.195444550453587385
1.063000000000000833,0.193810705253817661
1.064000000000000723,0.192176671022783685
1.065000000000000835,0.190542586888725690
1.066000000000000725,0.188908590306474444
1.067000000000000837,0.187274817068753430
1.068000000000000727,0.185641401317439059
1.069000000000000838,0.184008475554836876
1.070000000000000728,0.182376170654923259
1.071000000000000840,0.180744615874580183
1.072000000000000730,0.179113938864814054
1.073000000000000842,0.177484265681952635
1.074000000000000732,0.175855720798835075
1.075000000000000844,0.174228427115962259
1.076000000000000734,0.172602505972652948
1.077000000000000846,0.170978077158156216
1.078000000000000735,0.169355258922753438
1.079000000000000847,0.167734167988840499
1.080000000000000737,0.166114919561969249
1.081000000000000849,0.164497627341894409
1.082000000000000739,0.162882403533559400
1.083000000000000851,0.161269358858085882
1.084000000000000741,0.159658602563716279
1.085000000000000853,0.158050242436745148
1.086000000000000743,0.156444384812407383
1.087000000000000854,0.154841134585745194
1.088000000000000744,0.153240595222444403
1.089000000000000856,0.151642868769644001
1.090000000000000746,0.150048055866700975
1.091000000000000858,0.148456255755937960
1.092000000000000748,0.146867566293357676
1.093000000000000860,0.145282083959309360
1.094000000000000750,0.143699903869138501
1.095000000000000862,0.142121119783796102
1.096000000000000751,0.140545824120406670
1.097000000000000863,0.138974107962814258
1.098000000000000753,0.137406061072078145
1.099000000000000865,0.135841771896937052
1.100000000000000755,0.134281327584254234
1.101000000000000867,0.132724813989384460
1.102000000000000757,0.131172315686546220
1.103000000000000869,0.129623915979125981
1.104000000000000759,0.128079696909961710
1.105000000000000870,0.126539739271571194
1.106000000000000760,0.125004122616359903
1.107000000000000872,0.123472925266762165
1.108000000000000762,0.121946224325369584
1.109000000000000874,0.120424095684998900
1.110000000000000764,0.118906614038729069
1.111000000000000876,0.117393852889890529
1.112000000000000766,0.115885884562016650
1.113000000000000878,0.114382780208746926
1.114000000000000767,0.112884609823691390
1.115000000000000879,0.111391442250253991
1.116000000000000769,0.109903345191412621
1.117000000000000881,0.108420385219444679
1.118000000000000771,0.106942627785620609
1.119000000000000883,0.105470137229851296
1.120000000000000773,0.104002976790283475
1.121000000000000885,0.102541208612861826
1.122000000000000774,0.101084893760836042
1.123000000000000886,0.099634092224223633
1.124000000000000776,0.098188862929234164
1.125000000000000888,0.096749263747641784
1.126000000000000778,0.095315351506112339
1.127000000000000890,0.093887181995484542
1.128000000000000780,0.092464809980008861
1.129000000000000892,0.091048289206530714
1.130000000000000782,0.089637672413641178
1.131000000000000894,0.088233011340759407
1.132000000000000783,0.086834356737198359
1.133000000000000895,0.085441758371145371
1.134000000000000785,0.084055265038635710
1.135000000000000897,0.082674924572443895
1.136000000000000787,0.081300783850949007
1.137000000000000899,0.079932888806946489
1.138000000000000789,0.078571284436414285
1.139000000000000901,0.077216014807212741
1.140000000000000790,0.075867123067769632
1.141000000000000902,0.074524651455698060
1.142000000000000792,0.073188641306358909
1.143000000000000904,0.071859133061381628
1.144000000000000794,0.070536166277152465
1.145000000000000906,0.069219779633234974
1.146000000000000796,0.067910010940742019
1.147000000000000908,0.066606897150674138
1.148000000000000798,0.065310474362196419
1.149000000000000909,0.064020777830871983
1.150000000000000799,0.062737841976848313
1.151000000000000689,0.061461700392991682
1.152000000000000801,0.060192385852971965
1.153000000000000913,0.058929930319306788
1.154000000000000803,0.057674364951351011
1.155000000000000693,0.056425720113234157
1.156000000000000805,0.055184025381755278
1.157000000000000917,0.053949309554235381
1.158000000000000806,0.052721600656302339
1.159000000000000696,0.051500925949647079
1.160000000000000808,0.050287311939720136
1.161000000000000920,0.049080784383385007
1.162000000000000810,0.047881368296515438
1.163000000000000700,0.046689087961561772
1.164000000000000812,0.045503966935040850
1.165000000000000924,0.044326028055012005
1.166000000000000814,0.043155293448477017
1.167000000000000703,0.041991784538742083
1.168000000000000815,0.040835522052734670
1.169000000000000927,0.039686526028274195
1.170000000000000817,0.038544815821279332
1.171000000000000707,0.037410410112952944
1.172000000000000819,0.036283326916893593
1.173000000000000931,0.035163583586175433
1.174000000000000821,0.034051196820381796
1.175000000000000711,0.032946182672574972
1.176000000000000822,0.031848556556239471
1.177000000000000934,0.030758333252161634
1.178000000000000824,0.029675526915277899
1.179000000000000714,0.028600151081458559
1.180000000000000826,0.027532218674252373
1.181000000000000938,0.026471742011595967
1.182000000000000828,0.025418732812454731
1.183000000000000718,0.024373202203435949
1.184000000000000830,0.023335160725345971
1.185000000000000941,0.022304618339703212
1.186000000000000831,0.021281584435201843
1.187000000000000721,0.020266067834141775
1.188000000000000833,0.019258076798794259
1.189000000000000945,0.018257619037738610
1.190000000000000835,0.017264701712140975
1.191000000000000725,0.016279331442003560
1.192000000000000837,0.015301514312336378
1.193000000000000949,0.014331255879334263
1.194000000000000838,0.013368561176456101
1.195000000000000728,0.012413434720497302
1.196000000000000840,0.011465880517599650
1.197000000000000952,0.010525902069215540
1.198000000000000842,0.009593502378046685
1.199000000000000732,0.008668683953905928
1.200000000000000844,0.007751448819577863
1.201000000000000956,0.006841798516585659
1.202000000000000846,0.005939734110964023
1.203000000000000735,0.005045256198948906
1.204000000000000847,0.004158364912649493
1.205000000000000959,0.003279059925661909
1.206000000000000849,0.002407340458650367
1.207000000000000739,0.001543205284875879
1.208000000000000851,0.000686652735692966
1.209000000000000963,-0.000162319294008775
1.210000000000000853,-0.001003713340393578
1.211000000000000743,-0.001837532365314926
1.212000000000000854,-0.002663779750997211
1.213000000000000966,-0.003482459294751361
1.214000000000000856,-0.004293575203740752
1.215000000000000746,-0.005097132089776501
1.216000000000000858,-0.005893134964173247
1.217000000000000970,-0.006681589232618854
1.218000000000000860,-0.007462500690108692
1.219000000000000750,-0.008235875515915614
1.220000000000000862,-0.009001720268587685
1.221000000000000973,-0.009760041880999919
1.222000000000000863,-0.010510847655441283
1.223000000000000753,-0.011254145258739485
1.224000000000000865,-0.011989942717429536
1.225000000000000977,-0.012718248412959871
1.226000000000000867,-0.013439071076937651
1.227000000000000757,-0.014152419786413021
1.228000000000000869,-0.014858303959196018
1.229000000000000981,-0.015556733349232531
1.230000000000000870,-0.016247718041992539
1.231000000000000760,-0.016931268449914931
1.232000000000000872,-0.017607395307885538
1.233000000000000984,-0.018276109668739153
1.234000000000000874,-0.018937422898839044
1.235000000000000764,-0.019591346673635667
1.236000000000000876,-0.020237892973319287
1.237000000000000988,-0.020877074078467322
1.238000000000000878,-0.021508902565756917
1.239000000000000767,-0.022133391303700047
1.240000000000000879,-0.022750553448417466
1.241000000000000991,-0.023360402439445829
1.242000000000000881,-0.023962951995594117
1.243000000000000771,-0.024558216110822824
1.244000000000000883,-0.025146209050155112
1.245000000000000995,-0.025726945345642110
1.246000000000000885,-0.026300439792351415
1.247000000000000774,-0.026866707444385796
1.248000000000000886,-0.027425763610946473
1.249000000000000998,-0.027977623852427396
1.250000000000000888,-0.028522303976548181
1.251000000000000778,-0.029059820034507421
1.252000000000000890,-0.029590188317194611
1.253000000000001002,-0.030113425351404249
1.254000000000000892,-0.030629547896116209
1.255000000000000782,-0.031138572938785712
1.256000000000000894,-0.031640517691680088
1.257000000000001005,-0.032135399588239563
1.258000000000000895,-0.032623236279480050
1.259000000000000785,-0.033104045630414608
1.260000000000000897,-0.033577845716532342
1.261000000000001009,-0.034044654820276320
1.262000000000000899,-0.034504491427584022
1.263000000000000789,-0.034957374224438953
1.264000000000000901,-0.035403322093471370
1.265000000000001013,-0.035842354110569255
1.266000000000000902,-0.036274489541539237
1.267000000000000792,-0.036699747838791971
1.268000000000000904,-0.037118148638056590
1.269000000000001016,-0.037529711755129161
1.270000000000000906,-0.037934457182646340
1.271000000000000796,-0.038332405086899314
1.272000000000000908,-0.038723575804664248
1.273000000000001020,-0.039107989840078704
1.274000000000000909,-0.039485667861529350
1.275000000000000799,-0.039856630698586200
1.276000000000000911,-0.040220899338960933
1.277000000000001023,-0.040578494925483669
1.278000000000000913,-0.040929438753126199
1.279000000000000803,-0.041273752266037904
1.280000000000000915,-0.041611457054630610
1.281000000000001027,-0.041942574852659634
1.282000000000000917,-0.042267127534370133
1.283000000000000806,-0.042585137111643523
1.284000000000000918,-0.042896625731186459
1.285000000000001030,-0.043201615671740162
1.286000000000000920,-0.043500129341326382
1.287000000000000810,-0.043792189274501125
1.288000000000000922,-0.044077818129664895
1.289000000000001034,-0.044357038686369657
1.290000000000000924,-0.044629873842672307
1.291000000000000814,-0.044896346612515070
1.292000000000000925,-0.045156480123106649
1.293000000000001037,-0.045410297612374528
1.294000000000000927,-0.045657822426394302
1.295000000000000817,-0.045899078016884323
1.296000000000000929,-0.046134087938698290
1.297000000000001041,-0.046362875847356912
1.298000000000000931,-0.046585465496612299
1.299000000000000821,-0.046801880736014538
1.300000000000000933,-0.047012145508519114
1.301000000000001044,-0.047216283848123410
1.302000000000000934,-0.047414319877511546
1.303000000000000824,-0.047606277805736376
1.304000000000000936,-0.047792181925917068
1.305000000000001048,-0.047972056612976724
1.306000000000000938,-0.048145926321379783
1.307000000000000828,-0.048313815582909835
1.308000000000000940,-0.048475749004466592
1.309000000000001052,-0.048631751265888937
1.310000000000000941,-0.048781847117796942
1.311000000000000831,-0.048926061379452997
1.312000000000000943,-0.049064418936652962
1.313000000000001055,-0.049196944739648342
1.314000000000000945,-0.049323663801068576
1.315000000000000835,-0.049444601193875816
1.316000000000000947,-0.049559782049353115
1.317000000000001059,-0.049669231555100682
1.318000000000000949,-0.049772974953052898
1.319000000000000838,-0.049871037537531179
1.320000000000000950,-0.049963444653303747
1.321000000000001062,-0.050050221693669850
1.322000000000000952,-0.050131394098572667
1.323000000000000842,-0.050206987352725239
1.324000000000000954,-0.050277026983760388
1.325000000000001066,-0.050341538560397345
1.326000000000000956,-0.050400547690638821
1.327000000000000846,-0.050454080019975533
1.328000000000000957,-0.050502161229618182
1.329000000000001069,-0.050544817034748078
1.330000000000000959,-0.050582073182795659
1.331000000000000849,-0.050613955451716021
1.332000000000000961,-0.050640489648309230
1.333000000000001073,-0.050661701606546171
1.334000000000000963,-0.050677617185919420
1.335000000000000853,-0.050688262269804073
1.336000000000000965,-0.050693662763853030
1.337000000000001076,-0.050693844594394043
1.338000000000000966,-0.050688833706857096
1.339000000000000856,-0.050678656064221374
1.340000000000000968,-0.050663337645460126
1.341000000000001080,-0.050642904444036962
1.342000000000000970,-0.050617382466391136
1.343000000000000860,-0.050586797730456823
1.344000000000000972,-0.050551176264189965
1.345000000000001084,-0.050510544104130209
1.346000000000000973,-0.050464927293949836
1.347000000000000863,-0.050414351883054244
1.348000000000000975,-0.050358843925171537
1.349000000000001087,-0.050298429476978858
1.350000000000000977,-0.050233134596734397
1.351000000000000867,-0.050162985342932599
1.352000000000000979,-0.050088007772964918
1.353000000000001091,-0.050008227941812103
1.354000000000000981,-0.049923671900748444
1.355000000000000870,-0.049834365696044672
1.356000000000000982,-0.049740335367719206
1.357000000000001094,-0.049641606948276837
1.358000000000000984,-0.049538206461472070
1.359000000000000874,-0.049430159921101877
1.360000000000000986,-0.049317493329786750
1.361000000000001098,-0.049200232677799237
1.362000000000000988,-0.049078403941867604
1.363000000000000878,-0.048952033084043792
1.364000000000000989,-0.048821146050547160
1.365000000000001101,-0.048685768770626761
1.366000000000000991,-0.048545927155469029
1.367000000000000881,-0.048401647097084097
1.368000000000000993,-0.048252954467225419
1.369000000000001105,-0.048099875116316963
1.370000000000000995,-0.047942434872401296
1.371000000000000885,-0.047780659540098976
1.372000000000000997,-0.047614574899572347
1.373000000000001108,-0.047444206705525044
1.374000000000000998,-0.047269580686178071
1.375000000000000888,-0.047090722542315243
1.376000000000001000,-0.046907657946282308
1.377000000000001112,-0.046720412541041229
1.378000000000001002,-0.046529011939218386
1.379000000000000892,-0.046333481722176204
1.380000000000001004,-0.046133847439080521
1.381000000000001116,-0.045930134606010649
1.382000000000001005,-0.045722368705048547
1.383000000000000895,-0.045510575183402548
1.384000000000001007,-0.045294779452543760
1.385000000000001119,-0.045075006887336233
1.386000000000001009,-0.044851282825204834
1.387000000000000899,-0.044623632565286529
1.388000000000001011,-0.044392081367634381
1.389000000000001123,-0.044156654452378860
1.390000000000001013,-0.043917376998955732
1.391000000000000902,-0.043674274145304115
1.392000000000001014,-0.043427370987106403
1.393000000000001126,-0.043176692577016604
1.394000000000001016,-0.042922263923914850
1.395000000000000906,-0.042664109992167007
1.396000000000001018,-0.042402255700893419
1.397000000000001130,-0.042136725923259767
1.398000000000001020,-0.041867545485767224
1.399000000000000909,-0.041594739167552068
1.400000000000001021,-0.041318331699712010
1.401000000000001133,-0.041038347764627781
1.402000000000001023,-0.040754811995300677
1.403000000000000913,-0.040467748974697862
1.404000000000001025,-0.040177183235114294
1.405000000000001137,-0.039883139257545351
1.406000000000001027,-0.039585641471050349
1.407000000000000917,-0.039284714252166827
1.408000000000001029,-0.038980381924279980
1.409000000000001140,-0.038672668757054170
1.410000000000001030,-0.038361598965845178
1.411000000000000920,-0.038047196711123242
1.412000000000001032,-0.037729486097914176
1.413000000000001144,-0.037408491175255139
1.414000000000001034,-0.037084235935640669
1.415000000000000924,-0.036756744314489498
1.416000000000001036,-0.036426040189632393
1.417000000000001148,-0.036092147380786074
1.418000000000001037,-0.035755089649049027
1.419000000000000927,-0.035414890696408664
1.420000000000001039,-0.035071574165246942
1.421000000000001151,-0.034725163637872800
1.422000000000001041,-0.034375682636037096
1.423000000000000931,-0.034023154620481375
1.424000000000001043,-0.033667602990479849
1.425000000000001155,-0.033309051083398322
1.426000000000001044,-0.032947522174254812
1.427000000000000934,-0.032583039475296678
1.428000000000001046,-0.032215626135574028
1.429000000000001158,-0.031845305240530419
1.430000000000001048,-0.031472099811601831
1.431000000000000938,-0.031096032805822106
1.432000000000001050,-0.030717127115432119
1.433000000000001162,-0.030335405567502482
1.434000000000001052,-0.029950890923555899
1.435000000000000941,-0.029563605879214378
1.436000000000001053,-0.029173573063831826
1.437000000000001165,-0.028780815040147466
1.438000000000001055,-0.028385354303952347
1.439000000000000945,-0.027987213283742408
1.440000000000001057,-0.027586414340400760
1.441000000000001169,-0.027182979766870497
1.442000000000001059,-0.026776931787848245
1.443000000000000949,-0.026368292559480921
1.444000000000001060,-0.025957084169055684
1.445000000000001172,-0.025543328634717515
1.446000000000001062,-0.025127047905186977
1.447000000000000952,-0.024708263859469008
1.448000000000001064,-0.024286998306595038
1.449000000000001176,-0.023863272985355510
1.450000000000001066,-0.023437109564032291
1.451000000000000956,-0.023008529640158509
1.452000000000001068,-0.022577554740267812
1.453000000000001180,-0.022144206319658140
1.454000000000001069,-0.021708505762154849
1.455000000000000959,-0.021270474379888653
1.456000000000001071,-0.020830133413070683
1.457000000000001183,-0.020387504029787340
1.458000000000001073,-0.019942607325780438
1.459000000000000963,-0.019495464324252816
1.460000000000001075,-0.019046095975670578
1.461000000000001187,-0.018594523157570670
1.462000000000001076,-0.018140766674381310
1.463000000000000966,-0.017684847257233412
1.464000000000001078,-0.017226785563795990
1.465000000000001190,-0.016766602178111926
1.466000000000001080,-0.016304317610415248
1.467000000000000970,-0.015839952297000113
1.468000000000001082,-0.015373526600055157
1.469000000000001194,-0.014905060807516324
1.470000000000001084,-0.014434575132932333
1.471000000000000973,-0.013962089715324460
1.472000000000001085,-0.013487624619061483
1.473000000000001197,-0.013011199833728910
1.474000000000001087,-0.012532835274009998
1.475000000000000977,-0.012052550779569224
1.476000000000001089,-0.011570366114948858
1.477000000000001201,-0.011086300969454864
1.478000000000001091,-0.010600374957058404
1.479000000000000981,-0.010112607616304597
1.480000000000001092,-0.009623018410212156
1.481000000000001204,-0.009131626726198846
1.482000000000001094,-0.008638451875986240
1.483000000000000984,-0.008143513095535165
1.484000000000001096,-0.007646829544963710
1.485000000000001208,-0.007148420308477110
1.486000000000001098,-0.006648304394314852
1.487000000000000988,-0.006146500734679301
1.488000000000001100,-0.005643028185685635
1.489000000000001211,-0.005137905527306754
1.490000000000001101,-0.004631151463336331
1.491000000000000991,-0.004122784621327639
1.492000000000001103,-0.003612823552575184
1.493000000000001215,-0.003101286732062876
1.494000000000001105,-0.002588192558442079
1.495000000000000995,-0.002073559354001238
1.496000000000001107,-0.001557405364648057
1.497000000000001219,-0.001039748759881234
1.498000000000001108,-0.000520607632783710
1.499000000000000998,0.000000000000000000
