# Ag100_MAMM-JS
# h[nm],U(h)[kJ/mol]
0.149999999999999994,146.746908638827932236
0.150999999999999995,146.430942956784718945
0.151999999999999996,143.303063582570416656
0.152999999999999997,139.631603855807895798
0.153999999999999998,136.258361804166895581
0.154999999999999999,133.347257586830664877
0.156000000000000000,130.791949357797136599
0.157000000000000001,128.421363520801207869
0.158000000000000002,126.090256351992508144
0.159000000000000002,123.708122228804953124
0.160000000000000003,121.238058952145792091
0.161000000000000004,118.683526218537011232
0.162000000000000005,116.072524780331633565
0.163000000000000006,113.443717471338999303
0.164000000000000007,110.836164677266424405
0.165000000000000008,108.282834719940595392
0.166000000000000009,105.807339568698054677
0.167000000000000010,103.423096562888574113
0.168000000000000010,101.134113765453122369
0.169000000000000011,98.936710510979395394
0.170000000000000012,96.821640214972177318
0.171000000000000013,94.776238394122145792
0.172000000000000014,92.786355006491959330
0.173000000000000015,90.837939032064042522
0.174000000000000016,88.918224035583790510
0.175000000000000017,87.016519191662013100
0.176000000000000018,85.124645290198600378
0.177000000000000018,83.237074247427329965
0.178000000000000019,81.350837945514427929
0.179000000000000020,79.465271495334022234
0.180000000000000021,77.581650222287862562
0.181000000000000022,75.702771075315496319
0.182000000000000023,73.832519400319313263
0.183000000000000024,71.975452235093285935
0.184000000000000025,70.136420201466606272
0.185000000000000026,68.320242110666157487
0.186000000000000026,66.531439753073996712
0.187000000000000027,64.774035049500383820
0.188000000000000028,63.051407730343456137
0.189000000000000029,61.366208851912574573
0.190000000000000030,59.720323594159957281
0.191000000000000031,58.114875738976344621
0.192000000000000032,56.550265834835421686
0.193000000000000033,55.026235156622171019
0.194000000000000034,53.541948031711591227
0.195000000000000034,52.096085807775217802
0.196000000000000035,50.686946587939203823
0.197000000000000036,49.312545777852520246
0.198000000000000037,47.970713417730067363
0.199000000000000038,46.659185166819881374
0.200000000000000039,45.375684637503681529
0.201000000000000040,44.117995521767767286
0.202000000000000041,42.884022603215953495
0.203000000000000042,41.671841299092456268
0.204000000000000042,40.479735830019144771
0.205000000000000043,39.306226475116901042
0.206000000000000044,38.150086644155486226
0.207000000000000045,37.010350695209751848
0.208000000000000046,35.886313555618073678
0.209000000000000047,34.777523275690001014
0.210000000000000048,33.683767668214514401
0.211000000000000049,32.605056171483326466
0.212000000000000050,31.541598027632584689
0.213000000000000050,30.493777799151864372
0.214000000000000051,29.462129161023966617
0.215000000000000052,28.447307809847416138
0.216000000000000053,27.450064229266480709
0.217000000000000054,26.471216947060487001
0.218000000000000055,25.511626816523609307
0.219000000000000056,24.572172755799346788
0.220000000000000057,23.653729285498350521
0.221000000000000058,22.757146118581488281
0.222000000000000058,21.883229978009239858
0.223000000000000059,21.032728747562256189
0.224000000000000060,20.206317999709508371
0.225000000000000061,19.404589891382244105
0.226000000000000062,18.628044373743328777
0.227000000000000063,17.877082625111579972
0.228000000000000064,17.152002586593987132
0.229000000000000065,16.452996457098429062
0.230000000000000066,15.780149987617056340
0.231000000000000066,15.133443403323781240
0.232000000000000067,14.512753775468729245
0.233000000000000068,13.917858662633681988
0.234000000000000069,13.348440842024468012
0.235000000000000070,12.804093955539437744
0.236000000000000071,12.284328901831532477
0.237000000000000072,11.788580813981493378
0.238000000000000073,11.316216472278181726
0.239000000000000073,10.866542012560914898
0.240000000000000074,10.438810802264640643
0.241000000000000075,10.032231368420269746
0.242000000000000076,9.645975274133338218
0.243000000000000077,9.279184852273308692
0.244000000000000078,8.930980717068027985
0.245000000000000079,8.600468985862448790
0.246000000000000080,8.286748154346691209
0.247000000000000081,7.988915578994175704
0.248000000000000081,7.706073530207754985
0.249000000000000082,7.437334788704029975
0.250000000000000111,7.181827765945018704
0.251000000000000112,6.938701136940882641
0.252000000000000113,6.707127980497365805
0.253000000000000114,6.486309427982464015
0.254000000000000115,6.275477826955838445
0.255000000000000115,6.073899430575606218
0.256000000000000116,5.880876627600439832
0.257000000000000117,5.695749731082185185
0.258000000000000118,5.517898346536032506
0.259000000000000119,5.346742342524650304
0.260000000000000120,5.181742448244780697
0.261000000000000121,5.022400503904383307
0.262000000000000122,4.868259390468199221
0.263000000000000123,4.718902665774444394
0.264000000000000123,4.573953934124583398
0.265000000000000124,4.433075976263898710
0.266000000000000125,4.295969666237661855
0.267000000000000126,4.162372700964608541
0.268000000000000127,4.032058167545971017
0.269000000000000128,3.904832972357874077
0.270000000000000129,3.780536154883622491
0.271000000000000130,3.659037108056898635
0.272000000000000131,3.540233725630279160
0.273000000000000131,3.424050495776802983
0.274000000000000132,3.310436558793869555
0.275000000000000133,3.199363745425793937
0.276000000000000134,3.090824610967940256
0.277000000000000135,2.984830478974572987
0.278000000000000136,2.881409507074796483
0.279000000000000137,2.780604786116275484
0.280000000000000138,2.682472482611799158
0.281000000000000139,2.587080033266091927
0.282000000000000139,2.494504399214574342
0.283000000000000140,2.404830386515773633
0.284000000000000141,2.318149038408400031
0.285000000000000142,2.234556103873766464
0.286000000000000143,2.154150586136555745
0.287000000000000144,2.077033373891887802
0.288000000000000145,2.003305957263647574
0.289000000000000146,1.933069229779023512
0.290000000000000147,1.866422376983814191
0.291000000000000147,1.803461851723221487
0.292000000000000148,1.744280435569510956
0.293000000000000149,1.688966385390832770
0.294000000000000150,1.637602663621234855
0.295000000000000151,1.590266250408133519
0.296000000000000152,1.547027535478529892
0.297000000000000153,1.507949787274933673
0.298000000000000154,1.473088696665148412
0.299000000000000155,1.442491992322771699
0.300000000000000155,1.416199124705468382
0.301000000000000156,1.394241015423058672
0.302000000000000157,1.376639868684051082
0.303000000000000158,1.363409041435611924
0.304000000000000159,1.354552968764805687
0.305000000000000160,1.350067141106841229
0.306000000000000161,1.349938129805275056
0.307000000000000162,1.354143657588971816
0.308000000000000163,1.362652710568035941
0.309000000000000163,1.375425688403847158
0.310000000000000164,1.392414589375583045
0.311000000000000165,1.413563227144820411
0.312000000000000166,1.438807476109216665
0.313000000000000167,1.468075542335014472
0.314000000000000168,1.501288257163956086
0.315000000000000169,1.538359390702333185
0.316000000000000170,1.579195982516708563
0.317000000000000171,1.623698686981666750
0.318000000000000171,1.671762130848244876
0.319000000000000172,1.723275280726822345
0.320000000000000173,1.778121818304179369
0.321000000000000174,1.836180521240792007
0.322000000000000175,1.897325647819709360
0.323000000000000176,1.961427323542899170
0.324000000000000177,2.028351927993564896
0.325000000000000178,2.097962480403348540
0.326000000000000179,2.170119022480986981
0.327000000000000179,2.244678997173932267
0.328000000000000180,2.321497622146026174
0.329000000000000181,2.400428256861625975
0.330000000000000182,2.481322762271718663
0.331000000000000183,2.564031852196685168
0.332000000000000184,2.648405435597293245
0.333000000000000185,2.734292949017022245
0.334000000000000186,2.821543678566575064
0.335000000000000187,2.910007070904996773
0.336000000000000187,2.999533032750751893
0.337000000000000188,3.089972218531165105
0.338000000000000189,3.181176305849037877
0.339000000000000190,3.272998258511823799
0.340000000000000191,3.365292576931097734
0.341000000000000192,3.457915535757959624
0.342000000000000193,3.550725408674918704
0.343000000000000194,3.643582680314535249
0.344000000000000195,3.736350245322561214
0.345000000000000195,3.828893594625801367
0.346000000000000196,3.921080989004967599
0.347000000000000197,4.012783620108891114
0.348000000000000198,4.103875759079439689
0.349000000000000199,4.194234892986641761
0.350000000000000200,4.283741849300214177
0.351000000000000201,4.372280908648231268
0.352000000000000202,4.459739906134822185
0.353000000000000203,4.546010321507947260
0.354000000000000203,4.630987358484873972
0.355000000000000204,4.714570013557105810
0.356000000000000205,4.796661134608768862
0.357000000000000206,4.877167469692560431
0.358000000000000207,4.955999706315601827
0.359000000000000208,5.033072501594002546
0.360000000000000209,5.108304503639738314
0.361000000000000210,5.181618364546845434
0.362000000000000210,5.252940745345621387
0.363000000000000211,5.322202313294288167
0.364000000000000212,5.389337731876724824
0.365000000000000213,5.454285643873249434
0.366000000000000214,5.516988647868514839
0.367000000000000215,5.577393268556995132
0.368000000000000216,5.635449921201806767
0.369000000000000217,5.691112870597416773
0.370000000000000218,5.744340184880702083
0.371000000000000218,5.795093684528243472
0.372000000000000219,5.843338886870435900
0.373000000000000220,5.889044946445546991
0.374000000000000221,5.932184591508566918
0.375000000000000222,5.972734057001487962
0.376000000000000223,6.010673014282670756
0.377000000000000224,6.045984497904249189
0.378000000000000225,6.078654829717041963
0.379000000000000226,6.108673540573351879
0.380000000000000226,6.136033289888354503
0.381000000000000227,6.160729783311344576
0.382000000000000228,6.182761688748505513
0.383000000000000229,6.202130550969073397
0.384000000000000230,6.218840705017504078
0.385000000000000231,6.232899188644288380
0.386000000000000232,6.244315653958894430
0.387000000000000233,6.253102278498730904
0.388000000000000234,6.259273675898826994
0.389000000000000234,6.262846806337631911
0.390000000000000235,6.263840886925579277
0.391000000000000236,6.262277302193803408
0.392000000000000237,6.258179514832193036
0.393000000000000238,6.251572976817039162
0.394000000000000239,6.242485041060523265
0.395000000000000240,6.230944873706054210
0.396000000000000241,6.216983367185668463
0.397000000000000242,6.200633054147921541
0.398000000000000242,6.181928022357401353
0.399000000000000243,6.160903830659663072
0.400000000000000244,6.137597426098556852
0.401000000000000245,6.112047062265821395
0.402000000000000246,6.084292218956847798
0.403000000000000247,6.054373523199663154
0.404000000000000248,6.022332671718549690
0.405000000000000249,5.988212354887638256
0.406000000000000250,5.952056182224417569
0.407000000000000250,5.913908609467576127
0.408000000000000251,5.873814867278587926
0.409000000000000252,5.831820891601462442
0.410000000000000253,5.787973255710486598
0.411000000000000254,5.742319103971156302
0.412000000000000255,5.694906087335491307
0.413000000000000256,5.645782300588541247
0.414000000000000257,5.594996221359414434
0.415000000000000258,5.542596650906167710
0.416000000000000258,5.488632656680779931
0.417000000000000259,5.433153516676819450
0.418000000000000260,5.376208665559692790
0.419000000000000261,5.317847642576163381
0.420000000000000262,5.258120041237330788
0.421000000000000263,5.197075460766473753
0.422000000000000264,5.134763459301119326
0.423000000000000265,5.071233508836021642
0.424000000000000266,5.006534951892010810
0.425000000000000266,4.940716959893582505
0.426000000000000267,4.873828493236329606
0.427000000000000268,4.805918263023593262
0.428000000000000269,4.737034694450351857
0.429000000000000270,4.667225891810805827
0.430000000000000271,4.596539605104851489
0.431000000000000272,4.525023198217590803
0.432000000000000273,4.452723618644832904
0.433000000000000274,4.379687368736698616
0.434000000000000274,4.305960478430443494
0.435000000000000275,4.231588479443098905
0.436000000000000276,4.156616380893665585
0.437000000000000277,4.081088646324037228
0.438000000000000278,4.005049172087526088
0.439000000000000279,3.928541267073208054
0.440000000000000280,3.851607633734109193
0.441000000000000281,3.774290350387056403
0.442000000000000282,3.696630854751528084
0.443000000000000282,3.618669928695148919
0.444000000000000283,3.540447684152894681
0.445000000000000284,3.462003550187533474
0.446000000000000285,3.383376261158468346
0.447000000000000286,3.304603845966480602
0.448000000000000287,3.225723618341906018
0.449000000000000288,3.146772168143935566
0.450000000000000289,3.067785353638973866
0.451000000000000290,2.988798294726251470
0.452000000000000290,2.909845367079110012
0.453000000000000291,2.830960197170771409
0.454000000000000292,2.752175658153694915
0.455000000000000293,2.673523866561985152
0.456000000000000294,2.595036179806806675
0.457000000000000295,2.516743194435063113
0.458000000000000296,2.438674745122094034
0.459000000000000297,2.360859904369670303
0.460000000000000298,2.283326982880832468
0.461000000000000298,2.206103530583984895
0.462000000000000299,2.129216338278675735
0.463000000000000300,2.052691439876480839
0.464000000000000301,1.976554115210590989
0.465000000000000302,1.900828893388518237
0.466000000000000303,1.825539556662538532
0.467000000000000304,1.750709144793453520
0.468000000000000305,1.676359959883465978
0.469000000000000306,1.602513571654687441
0.470000000000000306,1.529190823150360812
0.471000000000000307,1.456411836836363660
0.472000000000000308,1.384196021081206762
0.473000000000000309,1.312562076993226245
0.474000000000000310,1.241528005594402018
0.475000000000000311,1.171111115310408790
0.476000000000000312,1.101328029757745020
0.477000000000000313,1.032194695808429374
0.478000000000000314,0.963726391914250025
0.479000000000000314,0.895937736672354545
0.480000000000000315,0.828842697614965651
0.481000000000000316,0.762454600206304511
0.482000000000000317,0.696786137030492525
0.483000000000000318,0.631849377154587888
0.484000000000000319,0.567655775651534134
0.485000000000000320,0.504216183268284546
0.486000000000000321,0.441540856224807210
0.487000000000000322,0.379639466130278713
0.488000000000000322,0.318521110003147256
0.489000000000000323,0.258194320382371056
0.490000000000000324,0.198667075517388853
0.491000000000000325,0.139946809625104113
0.492000000000000326,0.082040423202394325
0.493000000000000327,0.024954293383239835
0.494000000000000328,-0.031305715670058798
0.495000000000000329,-0.086734242351688848
0.496000000000000330,-0.141326417182763564
0.497000000000000330,-0.195077852376794481
0.498000000000000331,-0.247984631408902700
0.499000000000000332,-0.300043298597342134
0.500000000000000333,-0.351250848705477459
0.501000000000000334,-0.401604716571835940
0.502000000000000335,-0.451102766775705100
0.503000000000000336,-0.499743283345211509
0.504000000000000337,-0.547524959514665843
0.505000000000000338,-0.594446887537389612
0.506000000000000338,-0.640508548560135171
0.507000000000000339,-0.685709802564808069
0.508000000000000340,-0.730050878382804691
0.509000000000000341,-0.773532363787181820
0.510000000000000342,-0.816155195667355393
0.511000000000000343,-0.857920650290990627
0.512000000000000344,-0.898830333657220537
0.513000000000000345,-0.938886171945257919
0.514000000000000346,-0.978090402062192998
0.515000000000000346,-1.016445562293345262
0.516000000000000347,-1.053954483058545666
0.517000000000000348,-1.090620277777339719
0.518000000000000349,-1.126446333845911196
0.519000000000000350,-1.161436303728316632
0.520000000000000351,-1.195594096164423581
0.521000000000000352,-1.228923867496771960
0.522000000000000353,-1.261430013118230553
0.523000000000000353,-1.293117159042424413
0.524000000000000354,-1.323990153598401331
0.525000000000000355,-1.354054059251100117
0.526000000000000356,-1.383314144548814850
0.527000000000000357,-1.411775876198853474
0.528000000000000358,-1.439444911272369954
0.529000000000000359,-1.466327089539090966
0.530000000000000360,-1.492428425932743385
0.531000000000000361,-1.517755103147666818
0.532000000000000361,-1.542313464367061293
0.533000000000000362,-1.566110006123110798
0.534000000000000363,-1.589151371289227122
0.535000000000000364,-1.611444342204445324
0.536000000000000365,-1.632995833929899776
0.537000000000000366,-1.653812887637293061
0.538000000000000367,-1.673902664129016005
0.539000000000000368,-1.693272437489704796
0.540000000000000369,-1.711929588868669416
0.541000000000000369,-1.729881600392786378
0.542000000000000370,-1.747136049209170761
0.543000000000000371,-1.763700601657023359
0.544000000000000372,-1.779583007567865582
0.545000000000000373,-1.794791094693361400
0.546000000000000374,-1.809332763259853039
0.547000000000000375,-1.823215980648635881
0.548000000000000376,-1.836448776201040856
0.549000000000000377,-1.849039236147181908
0.550000000000000377,-1.860995498657375791
0.551000000000000378,-1.872325749014940088
0.552000000000000379,-1.883038214909346308
0.553000000000000380,-1.893141161848334919
0.554000000000000381,-1.902642888687794853
0.555000000000000382,-1.911551723278132275
0.556000000000000383,-1.919876018225650238
0.557000000000000384,-1.927624146767746627
0.558000000000000385,-1.934804498760341662
0.559000000000000385,-1.941425476776265313
0.560000000000000386,-1.947495492313046084
0.561000000000000387,-1.953022962108673211
0.562000000000000388,-1.958016304563818366
0.563000000000000389,-1.962483936269068918
0.564000000000000390,-1.966434268635531168
0.565000000000000391,-1.969875704627384705
0.566000000000000392,-1.972816635594776269
0.567000000000000393,-1.975265438205513480
0.568000000000000393,-1.977230471473972129
0.569000000000000394,-1.978720073885669395
0.570000000000000395,-1.979742560615945113
0.571000000000000396,-1.980306220841073994
0.572000000000000397,-1.980419315140365955
0.573000000000000398,-1.980090072987566341
0.574000000000000399,-1.979326690330003746
0.575000000000000400,-1.978137327253917332
0.576000000000000401,-1.976530105734366272
0.577000000000000401,-1.974513107468186535
0.578000000000000402,-1.972094371788357892
0.579000000000000403,-1.969281893658281657
0.580000000000000404,-1.966083621744398879
0.581000000000000405,-1.962507456565559805
0.582000000000000406,-1.958561248717697323
0.583000000000000407,-1.954252797172126410
0.584000000000000408,-1.949589847646147067
0.585000000000000409,-1.944580091044252557
0.586000000000000409,-1.939231161968554940
0.587000000000000410,-1.933550637296959751
0.588000000000000411,-1.927546034827487542
0.589000000000000412,-1.921224811987479741
0.590000000000000413,-1.914594364606048149
0.591000000000000414,-1.907662025748465551
0.592000000000000415,-1.900435064611069036
0.593000000000000416,-1.892920685475196318
0.594000000000000417,-1.885126026718852543
0.595000000000000417,-1.877058159884740673
0.596000000000000418,-1.868724088803191519
0.597000000000000419,-1.860130748768852316
0.598000000000000420,-1.851285005769583991
0.599000000000000421,-1.842193655766477089
0.600000000000000422,-1.832863424023544185
0.601000000000000423,-1.823300964485907727
0.602000000000000424,-1.813512859205201666
0.603000000000000425,-1.803505617810984507
0.604000000000000425,-1.793285677026871472
0.605000000000000426,-1.782859400230291769
0.606000000000000427,-1.772233077054638839
0.607000000000000428,-1.761412923032604994
0.608000000000000429,-1.750405079279699239
0.609000000000000430,-1.739215612216629125
0.610000000000000431,-1.727850513329651339
0.611000000000000432,-1.716315698967610270
0.612000000000000433,-1.704617010174727998
0.613000000000000433,-1.692760212558043209
0.614000000000000434,-1.680750996188469459
0.615000000000000435,-1.668594975534432034
0.616000000000000436,-1.656297689427138620
0.617000000000000437,-1.643864601056493679
0.618000000000000438,-1.631301097996646021
0.619000000000000439,-1.618612492260253166
0.620000000000000440,-1.605804020380581232
0.621000000000000441,-1.592880843520459333
0.622000000000000441,-1.579848047607264716
0.623000000000000442,-1.566710643492972288
0.624000000000000443,-1.553473567138533129
0.625000000000000444,-1.540141679821665388
0.626000000000000445,-1.526719768367204244
0.627000000000000446,-1.513212545399321041
0.628000000000000447,-1.499624649614706540
0.629000000000000448,-1.485960646076013969
0.630000000000000449,-1.472225026524751845
0.631000000000000449,-1.458422209712961326
0.632000000000000450,-1.444556541752884060
0.633000000000000451,-1.430632296483950849
0.634000000000000452,-1.416653675856377914
0.635000000000000453,-1.402624810330698635
0.636000000000000454,-1.388549759292585062
0.637000000000000455,-1.374432511482301944
0.638000000000000456,-1.360276985438131359
0.639000000000000457,-1.346087029953201730
0.640000000000000457,-1.331866424545101513
0.641000000000000458,-1.317618879937631160
0.642000000000000459,-1.303348038554242860
0.643000000000000460,-1.289057475022463484
0.644000000000000461,-1.274750696688861096
0.645000000000000462,-1.260431144143983939
0.646000000000000463,-1.246102191756710553
0.647000000000000464,-1.231767148217588703
0.648000000000000465,-1.217429257090605121
0.649000000000000465,-1.203091697372907110
0.650000000000000466,-1.188757584062050343
0.651000000000000467,-1.174429968730249518
0.652000000000000468,-1.160111840105269687
0.653000000000000469,-1.145806124657404279
0.654000000000000470,-1.131515687192289343
0.655000000000000471,-1.117243331448962040
0.656000000000000472,-1.102991800702890046
0.657000000000000473,-1.088763778373525559
0.658000000000000473,-1.074561888636033968
0.659000000000000474,-1.060388697036816819
0.660000000000000475,-1.046246711112468919
0.661000000000000476,-1.032138381011829642
0.662000000000000477,-1.018066100120808892
0.663000000000000478,-1.004032205689621815
0.664000000000000479,-0.990038979462168234
0.665000000000000480,-0.976088648307185225
0.666000000000000481,-0.962183384850962886
0.667000000000000481,-0.948325308111219067
0.668000000000000482,-0.934516484131983960
0.669000000000000483,-0.920758926619117068
0.670000000000000484,-0.907054597576242072
0.671000000000000485,-0.893405407940862650
0.672000000000000486,-0.879813218220342974
0.673000000000000487,-0.866279839127642837
0.674000000000000488,-0.852807032216404970
0.675000000000000488,-0.839396510515332261
0.676000000000000489,-0.826049939161565883
0.677000000000000490,-0.812768936032835621
0.678000000000000491,-0.799555072378254184
0.679000000000000492,-0.786409873447498908
0.680000000000000493,-0.773334819118220107
0.681000000000000494,-0.760331344521517627
0.682000000000000495,-0.747400840665253474
0.683000000000000496,-0.734544655055124673
0.684000000000000496,-0.721764092313247452
0.685000000000000497,-0.709060414794155269
0.686000000000000498,-0.696434843198043385
0.687000000000000499,-0.683888557181128620
0.688000000000000500,-0.671422695962964555
0.689000000000000501,-0.659038358930619461
0.690000000000000502,-0.646736606239582068
0.691000000000000503,-0.634518459411228086
0.692000000000000504,-0.622384901926804512
0.693000000000000504,-0.610336879817804046
0.694000000000000505,-0.598375302252559860
0.695000000000000506,-0.586501042119078941
0.696000000000000507,-0.574714936603910931
0.697000000000000508,-0.563017787767013722
0.698000000000000509,-0.551410363112556534
0.699000000000000510,-0.539893396155500582
0.700000000000000511,-0.528467586983962567
0.701000000000000512,-0.517133602817234750
0.702000000000000512,-0.505892078559421754
0.703000000000000513,-0.494743617348612830
0.704000000000000514,-0.483688791101538951
0.705000000000000515,-0.472728141053649353
0.706000000000000516,-0.461862178294567549
0.707000000000000517,-0.451091384298858533
0.708000000000000518,-0.440416211452059947
0.709000000000000519,-0.429837083571988909
0.710000000000000520,-0.419354396425165254
0.711000000000000520,-0.408968518238465806
0.712000000000000521,-0.398679790205834828
0.713000000000000522,-0.388488526990118765
0.714000000000000523,-0.378395017219954721
0.715000000000000524,-0.368399523981676691
0.716000000000000525,-0.358502285306259827
0.717000000000000526,-0.348703514651231672
0.718000000000000527,-0.339003401377573454
0.719000000000000528,-0.329402111221559768
0.720000000000000528,-0.319899786761587701
0.721000000000000529,-0.310496547879874296
0.722000000000000530,-0.301192492219145624
0.723000000000000531,-0.291987695634200128
0.724000000000000532,-0.282882212638414843
0.725000000000000533,-0.273876076845163241
0.726000000000000534,-0.264969301404126722
0.727000000000000535,-0.256161879432547090
0.728000000000000536,-0.247453784441386382
0.729000000000000536,-0.238844970756400349
0.730000000000000537,-0.230335373934180604
0.731000000000000538,-0.221924911173084716
0.732000000000000539,-0.213613481719166998
0.733000000000000540,-0.205400967267028278
0.734000000000000541,-0.197287232355684156
0.735000000000000542,-0.189272124759362836
0.736000000000000543,-0.181355475873392846
0.737000000000000544,-0.173537101095016244
0.738000000000000544,-0.165816800199338255
0.739000000000000545,-0.158194357710251476
0.740000000000000546,-0.150669543266515188
0.741000000000000547,-0.143242111982867709
0.742000000000000548,-0.135911804806354009
0.743000000000000549,-0.128678348867705211
0.744000000000000550,-0.121541457827957403
0.745000000000000551,-0.114500832220262597
0.746000000000000552,-0.107556159786905400
0.747000000000000552,-0.100707115811605324
0.748000000000000553,-0.093953363447083188
0.749000000000000554,-0.087294554037928934
0.750000000000000555,-0.080730327438859731
0.751000000000000556,-0.074260312328293568
0.752000000000000557,-0.067884126517383958
0.753000000000000558,-0.061601377254429733
0.754000000000000559,-0.055411661524824553
0.755000000000000560,-0.049314566346452933
0.756000000000000560,-0.043309669060660076
0.757000000000000561,-0.037396537618759683
0.758000000000000562,-0.031574730864171827
0.759000000000000563,-0.025843798810197001
0.760000000000000564,-0.020203282913462534
0.761000000000000565,-0.014652716343077712
0.762000000000000566,-0.009191624245545113
0.763000000000000567,-0.003819524005449612
0.764000000000000568,0.001464074498027648
0.765000000000000568,0.006659668638730248
0.766000000000000569,0.011767762795266567
0.767000000000000570,0.016788868106796782
0.768000000000000571,0.021723502232865739
0.769000000000000572,0.026572189117214363
0.770000000000000573,0.031335458755537587
0.771000000000000574,0.036013846967175286
0.772000000000000575,0.040607895170649333
0.773000000000000576,0.045118150163066938
0.774000000000000576,0.049545163903299258
0.775000000000000577,0.053889493298912981
0.776000000000000578,0.058151699996854968
0.777000000000000579,0.062332350177761398
0.778000000000000580,0.066432014353965563
0.779000000000000581,0.070451267171063800
0.780000000000000582,0.074390687213071988
0.781000000000000583,0.078250856811075048
0.782000000000000584,0.082032361855394947
0.783000000000000584,0.085735791611181708
0.784000000000000585,0.089361738537403465
0.785000000000000586,0.092910798109234333
0.786000000000000587,0.096383568643736650
0.787000000000000588,0.099780651128844128
0.788000000000000589,0.103102649055614198
0.789000000000000590,0.106350168253654107
0.790000000000000591,0.109523816729759041
0.791000000000000592,0.112624204509653561
0.792000000000000592,0.115651943482856123
0.793000000000000593,0.118607647250575640
0.794000000000000594,0.121491930976656268
0.795000000000000595,0.124305411241473124
0.796000000000000596,0.127048705898818781
0.797000000000000597,0.129722433935638037
0.798000000000000598,0.132327215334681558
0.799000000000000599,0.134863670939982749
0.800000000000000600,0.137332422325096654
0.801000000000000600,0.139734091664160787
0.802000000000000601,0.142069301605617593
0.803000000000000602,0.144338675148667411
0.804000000000000603,0.146542835522345621
0.805000000000000604,0.148682406067224354
0.806000000000000605,0.150758010119714236
0.807000000000000606,0.152770270898861471
0.808000000000000607,0.154719811395711837
0.809000000000000608,0.156607254265108020
0.810000000000000608,0.158433221719928963
0.811000000000000609,0.160198335427777228
0.812000000000000610,0.161903216409973238
0.813000000000000611,0.163548484942944411
0.814000000000000612,0.165134760461889268
0.815000000000000613,0.166662661466701723
0.816000000000000614,0.168132805430174448
0.817000000000000615,0.169545808708366080
0.818000000000000616,0.170902286453161190
0.819000000000000616,0.172202852526966849
0.820000000000000617,0.173448119419521762
0.821000000000000618,0.174638698166776879
0.822000000000000619,0.175775198271818145
0.823000000000000620,0.176858227627812670
0.824000000000000621,0.177888392442939913
0.825000000000000622,0.178866297167263849
0.826000000000000623,0.179792544421538525
0.827000000000000624,0.180667734927910717
0.828000000000000624,0.181492467442460614
0.829000000000000625,0.182267338689629133
0.830000000000000626,0.182992943298385058
0.831000000000000627,0.183669873740216871
0.832000000000000628,0.184298720268855576
0.833000000000000629,0.184880070861716594
0.834000000000000630,0.185414511163041029
0.835000000000000631,0.185902624428691710
0.836000000000000631,0.186344991472594090
0.837000000000000632,0.186742190614779840
0.838000000000000633,0.187094797631033954
0.839000000000000634,0.187403385704067726
0.840000000000000635,0.187668525376244982
0.841000000000000636,0.187890784503815716
0.842000000000000637,0.188070728212612781
0.843000000000000638,0.188208918855217844
0.844000000000000639,0.188305915969543353
0.845000000000000639,0.188362276238841719
0.846000000000000640,0.188378553453072778
0.847000000000000641,0.188355298471633847
0.848000000000000642,0.188293059187426948
0.849000000000000643,0.188192380492245487
0.850000000000000644,0.188053804243404898
0.851000000000000645,0.187877869231697969
0.852000000000000646,0.187665111150540215
0.853000000000000647,0.187416062566357289
0.854000000000000647,0.187131252890159500
0.855000000000000648,0.186811208350300573
0.856000000000000649,0.186456451966366898
0.857000000000000650,0.186067503524225547
0.858000000000000651,0.185644879552170017
0.859000000000000652,0.185189093298140761
0.860000000000000653,0.184700654708041284
0.861000000000000654,0.184180070405089630
0.862000000000000655,0.183627843670183755
0.863000000000000655,0.183044474423313341
0.864000000000000656,0.182430459205917883
0.865000000000000657,0.181786291164248964
0.866000000000000658,0.181112460033669598
0.867000000000000659,0.180409452123872882
0.868000000000000660,0.179677750305047401
0.869000000000000661,0.178917833994915954
0.870000000000000662,0.178130179146653161
0.871000000000000663,0.177315258237662560
0.872000000000000663,0.176473540259213302
0.873000000000000664,0.175605490706887524
0.874000000000000665,0.174711571571834562
0.875000000000000666,0.173792241332830000
0.876000000000000667,0.172847954949099852
0.877000000000000668,0.171879163853907502
0.878000000000000669,0.170886315948885315
0.879000000000000670,0.169869855599100034
0.880000000000000671,0.168830223628805787
0.881000000000000671,0.167767857317934560
0.882000000000000672,0.166683190399226216
0.883000000000000673,0.165576653056057926
0.884000000000000674,0.164448671920903011
0.885000000000000675,0.163299670074438630
0.886000000000000676,0.162130067045285958
0.887000000000000677,0.160940278810330184
0.888000000000000678,0.159730717795678323
0.889000000000000679,0.158501792878155912
0.890000000000000679,0.157253909387405938
0.891000000000000680,0.155987469108520710
0.892000000000000681,0.154702870285231719
0.893000000000000682,0.153400507623624005
0.894000000000000683,0.152080772296364408
0.895000000000000684,0.150744051947435898
0.896000000000000685,0.149390730697367358
0.897000000000000686,0.148021189148951571
0.898000000000000687,0.146635804393396130
0.899000000000000687,0.145234950016993936
0.900000000000000688,0.143818996108177000
0.901000000000000689,0.142388309265046309
0.902000000000000690,0.140943252603305480
0.903000000000000691,0.139484185764605334
0.904000000000000692,0.138011464925309579
0.905000000000000693,0.136525442805632113
0.906000000000000694,0.135026468679158546
0.907000000000000695,0.133514888382753882
0.908000000000000695,0.131991044326804807
0.909000000000000696,0.130455275505841101
0.910000000000000697,0.128907917509471448
0.911000000000000698,0.127349302533672493
0.912000000000000699,0.125779759392388779
0.913000000000000700,0.124199613529439271
0.914000000000000701,0.122609187030758404
0.915000000000000702,0.121008798636884379
0.916000000000000703,0.119398763755780429
0.917000000000000703,0.117779394475898400
0.918000000000000704,0.116150999579539366
0.919000000000000705,0.114513884556450105
0.920000000000000706,0.112868351617692417
0.921000000000000707,0.111214699709743112
0.922000000000000708,0.109553224528849344
0.923000000000000709,0.107884218535578308
0.924000000000000710,0.106207970969635593
0.925000000000000711,0.104524767864855456
0.926000000000000711,0.102834892064427613
0.927000000000000712,0.101138623236298436
0.928000000000000713,0.099436237888792273
0.929000000000000714,0.097728009386388814
0.930000000000000715,0.096014207965710016
0.931000000000000716,0.094295100751654731
0.932000000000000717,0.092570951773696966
0.933000000000000718,0.090842021982383586
0.934000000000000719,0.089108569265926210
0.935000000000000719,0.087370848466979845
0.936000000000000720,0.085629111399556382
0.937000000000000721,0.083883606866059141
0.938000000000000722,0.082134580674457516
0.939000000000000723,0.080382275655584451
0.940000000000000724,0.078626931680545589
0.941000000000000725,0.076868785678243526
0.942000000000000726,0.075108071653007882
0.943000000000000727,0.073345020702329788
0.944000000000000727,0.071579861034689607
0.945000000000000728,0.069812817987469022
0.946000000000000729,0.068044114044968601
0.947000000000000730,0.066273968856480861
0.948000000000000731,0.064502599254461335
0.949000000000000732,0.062730219272755058
0.950000000000000733,0.060957040164910090
0.951000000000000734,0.059183270422518607
0.952000000000000735,0.057409115793662292
0.953000000000000735,0.055634779301371930
0.954000000000000736,0.053860461262156226
0.955000000000000737,0.052086359304578146
0.956000000000000738,0.050312668387856994
0.957000000000000739,0.048539580820516584
0.958000000000000740,0.046767286279079792
0.959000000000000741,0.044995971826767768
0.960000000000000742,0.043225821932243065
0.961000000000000743,0.041457018488373076
0.962000000000000743,0.039689740831002504
0.963000000000000744,0.037924165757755215
0.964000000000000745,0.036160467546833185
0.965000000000000746,0.034398817975839914
0.966000000000000747,0.032639386340590097
0.967000000000000748,0.030882339473947341
0.968000000000000749,0.029127841764628827
0.969000000000000750,0.027376055176042201
0.970000000000000751,0.025627139265074657
0.971000000000000751,0.023881251200912133
0.972000000000000752,0.022138545783827745
0.973000000000000753,0.020399175463936315
0.974000000000000754,0.018663290359972037
0.975000000000000755,0.016931038278009913
0.976000000000000756,0.015202564730180732
0.977000000000000757,0.013478012953357165
0.978000000000000758,0.011757523927817700
0.979000000000000759,0.010041236395855422
0.980000000000000759,0.008329286880389423
0.981000000000000760,0.006621809703524897
0.982000000000000761,0.004918937005057300
0.983000000000000762,0.003220798760968385
0.984000000000000763,0.001527522801875661
0.985000000000000764,-0.000160765168599278
0.986000000000000765,-0.001843941555449014
0.987000000000000766,-0.003521884853989993
0.988000000000000766,-0.005194475631608622
0.989000000000000767,-0.006861596509554771
0.990000000000000768,-0.008523132144790547
0.991000000000000769,-0.010178969211893357
0.992000000000000770,-0.011828996385017800
0.993000000000000771,-0.013473104319916867
0.994000000000000772,-0.015111185636011045
0.995000000000000773,-0.016743134898539284
0.996000000000000774,-0.018368848600747716
0.997000000000000774,-0.019988225146164294
0.998000000000000775,-0.021601164830923104
0.999000000000000776,-0.023207569826170820
1.000000000000000666,-0.024807344160521216
1.001000000000000778,-0.026400393702600500
1.002000000000000668,-0.027986626143646422
1.003000000000000780,-0.029565950980185728
1.004000000000000670,-0.031138279496791692
1.005000000000000782,-0.032703524748902514
1.006000000000000671,-0.034261601545720541
1.007000000000000783,-0.035812426433194502
1.008000000000000673,-0.037355917677065954
1.009000000000000785,-0.038891995246005381
1.010000000000000675,-0.040420580794816155
1.011000000000000787,-0.041941597647735133
1.012000000000000677,-0.043454970781797976
1.013000000000000789,-0.044960626810294425
1.014000000000000679,-0.046458493966299974
1.015000000000000790,-0.047948502086299881
1.016000000000000680,-0.049430582593892811
1.017000000000000792,-0.050904668483577373
1.018000000000000682,-0.052370694304621060
1.019000000000000794,-0.053828596145027885
1.020000000000000684,-0.055278311615581402
1.021000000000000796,-0.056719779833975539
1.022000000000000686,-0.058152941409042549
1.023000000000000798,-0.059577738425058736
1.024000000000000687,-0.060994114426138293
1.025000000000000799,-0.062402014400739073
1.026000000000000689,-0.063801384766219660
1.027000000000000801,-0.065192173353525409
1.028000000000000691,-0.066574329391937997
1.029000000000000803,-0.067947803493933243
1.030000000000000693,-0.069312547640111757
1.031000000000000805,-0.070668515164252918
1.032000000000000695,-0.072015660738419932
1.033000000000000806,-0.073353940358190997
1.034000000000000696,-0.074683311327974622
1.035000000000000808,-0.076003732246399336
1.036000000000000698,-0.077315162991826350
1.037000000000000810,-0.078617564707936419
1.038000000000000700,-0.079910899789412931
1.039000000000000812,-0.081195131867719761
1.040000000000000702,-0.082470225796983182
1.041000000000000814,-0.083736147639953948
1.042000000000000703,-0.084992864654060002
1.043000000000000815,-0.086240345277578664
1.044000000000000705,-0.087478559115881024
1.045000000000000817,-0.088707476927768369
1.046000000000000707,-0.089927070611925730
1.047000000000000819,-0.091137313193452599
1.048000000000000709,-0.092338178810480301
1.049000000000000821,-0.093529642700914586
1.050000000000000711,-0.094711681189238200
1.051000000000000822,-0.095884271673436966
1.052000000000000712,-0.097047392611994535
1.053000000000000824,-0.098201023511007984
1.054000000000000714,-0.099345144911373667
1.055000000000000826,-0.100479738376086924
1.056000000000000716,-0.101604786477622028
1.057000000000000828,-0.102720272785415540
1.058000000000000718,-0.103826181853439545
1.059000000000000830,-0.104922499207866560
1.060000000000000719,-0.106009211334837164
1.061000000000000831,-0.107086305668312412
1.062000000000000721,-0.108153770578019198
1.063000000000000833,-0.109211595357506491
1.064000000000000723,-0.110259770212260966
1.065000000000000835,-0.111298286247952086
1.066000000000000725,-0.112327135458751975
1.067000000000000837,-0.113346310715735060
1.068000000000000727,-0.114355805755405757
1.069000000000000838,-0.115355615168277748
1.070000000000000728,-0.116345734387579294
1.071000000000000840,-0.117326159678025774
1.072000000000000730,-0.118296888124701141
1.073000000000000842,-0.119257917622015569
1.074000000000000732,-0.120209246862760882
1.075000000000000844,-0.121150875327263846
1.076000000000000734,-0.122082803272616530
1.077000000000000846,-0.123005031722000197
1.078000000000000735,-0.123917562454114380
1.079000000000000847,-0.124820397992657955
1.080000000000000737,-0.125713541595956407
1.081000000000000849,-0.126596997246611137
1.082000000000000739,-0.127470769641293696
1.083000000000000851,-0.128334864180596586
1.084000000000000741,-0.129189286958983296
1.085000000000000853,-0.130034044754817196
1.086000000000000743,-0.130869145020488187
1.087000000000000854,-0.131694595872622056
1.088000000000000744,-0.132510406082372356
1.089000000000000856,-0.133316585065794413
1.090000000000000746,-0.134113142874321412
1.091000000000000858,-0.134900090185314347
1.092000000000000748,-0.135677438292684360
1.093000000000000860,-0.136445199097635667
1.094000000000000750,-0.137203385099443187
1.095000000000000862,-0.137952009386360180
1.096000000000000751,-0.138691085626585414
1.097000000000000863,-0.139420628059303164
1.098000000000000753,-0.140140651485835405
1.099000000000000865,-0.140851171260858637
1.100000000000000755,-0.141552203283685646
1.101000000000000867,-0.142243763989666983
1.102000000000000757,-0.142925870341638367
1.103000000000000869,-0.143598539821472665
1.104000000000000759,-0.144261790421687741
1.105000000000000870,-0.144915640637164223
1.106000000000000760,-0.145560109456901426
1.107000000000000872,-0.146195216355903851
1.108000000000000762,-0.146820981287096253
1.109000000000000874,-0.147437424673348749
1.110000000000000764,-0.148044567399561094
1.111000000000000876,-0.148642430804830361
1.112000000000000766,-0.149231036674704165
1.113000000000000878,-0.149810407233493426
1.114000000000000767,-0.150380565136669891
1.115000000000000879,-0.150941533463338246
1.116000000000000769,-0.151493335708776045
1.117000000000000881,-0.152035995777059979
1.118000000000000771,-0.152569537973755387
1.119000000000000883,-0.153093986998683346
1.120000000000000773,-0.153609367938761066
1.121000000000000885,-0.154115706260909424
1.122000000000000774,-0.154613027805037662
1.123000000000000886,-0.155101358777099463
1.124000000000000776,-0.155580725742221482
1.125000000000000888,-0.156051155617887322
1.126000000000000778,-0.156512675667214218
1.127000000000000890,-0.156965313492292008
1.128000000000000780,-0.157409097027570555
1.129000000000000892,-0.157844054533352651
1.130000000000000782,-0.158270214589322750
1.131000000000000894,-0.158687606088158767
1.132000000000000783,-0.159096258229208143
1.133000000000000895,-0.159496200512238312
1.134000000000000785,-0.159887462731231722
1.135000000000000897,-0.160270074968276582
1.136000000000000787,-0.160644067587496719
1.137000000000000899,-0.161009471229063950
1.138000000000000789,-0.161366316803255111
1.139000000000000901,-0.161714635484613539
1.140000000000000790,-0.162054458706123006
1.141000000000000902,-0.162385818153465727
1.142000000000000792,-0.162708745759367807
1.143000000000000904,-0.163023273697970178
1.144000000000000794,-0.163329434379283933
1.145000000000000906,-0.163627260443683420
1.146000000000000796,-0.163916784756499123
1.147000000000000908,-0.164198040402630807
1.148000000000000798,-0.164471060681245701
1.149000000000000909,-0.164735879100526672
1.150000000000000799,-0.164992529372474717
1.151000000000000689,-0.165241045407789860
1.152000000000000801,-0.165481461310783701
1.153000000000000913,-0.165713811374372522
1.154000000000000803,-0.165938130075109658
1.155000000000000693,-0.166154452068285996
1.156000000000000805,-0.166362812183096065
1.157000000000000917,-0.166563245417819278
1.158000000000000806,-0.166755786935115974
1.159000000000000696,-0.166940472057328954
1.160000000000000808,-0.167117336261866978
1.161000000000000920,-0.167286415176626541
1.162000000000000810,-0.167447744575489776
1.163000000000000700,-0.167601360373842156
1.164000000000000812,-0.167747298624175395
1.165000000000000924,-0.167885595511721997
1.166000000000000814,-0.168016287350156224
1.167000000000000703,-0.168139410577330978
1.168000000000000815,-0.168255001751085709
1.169000000000000927,-0.168363097545081747
1.170000000000000817,-0.168463734744711158
1.171000000000000707,-0.168556950243035325
1.172000000000000819,-0.168642781036792921
1.173000000000000931,-0.168721264222440215
1.174000000000000821,-0.168792436992240613
1.175000000000000711,-0.168856336630422682
1.176000000000000822,-0.168913000509361838
1.177000000000000934,-0.168962466085823770
1.178000000000000824,-0.169004770897247025
1.179000000000000714,-0.169039952558074191
1.180000000000000826,-0.169068048756144840
1.181000000000000938,-0.169089097249100373
1.182000000000000828,-0.169103135860870168
1.183000000000000718,-0.169110202478183147
1.184000000000000830,-0.169110335047126303
1.185000000000000941,-0.169103571569743372
1.186000000000000831,-0.169089950100703434
1.187000000000000721,-0.169069508743968061
1.188000000000000833,-0.169042285649547291
1.189000000000000945,-0.169008319010262226
1.190000000000000835,-0.168967647058581305
1.191000000000000725,-0.168920308063458618
1.192000000000000837,-0.168866340327275571
1.193000000000000949,-0.168805782182743447
1.194000000000000838,-0.168738671989923011
1.195000000000000728,-0.168665048133233325
1.196000000000000840,-0.168584949018521169
1.197000000000000952,-0.168498413070182707
1.198000000000000842,-0.168405478728283736
1.199000000000000732,-0.168306184445770807
1.200000000000000844,-0.168200568685669488
1.201000000000000956,-0.168088669918371764
1.202000000000000846,-0.167970526618921590
1.203000000000000735,-0.167846177264353164
1.204000000000000847,-0.167715660331067717
1.205000000000000959,-0.167579014292251166
1.206000000000000849,-0.167436277615314572
1.207000000000000739,-0.167287488759382236
1.208000000000000851,-0.167132686172813655
1.209000000000000963,-0.166971908290756921
1.210000000000000853,-0.166805193532743395
1.211000000000000743,-0.166632580300312305
1.212000000000000854,-0.166454106974670502
1.213000000000000966,-0.166269811914387694
1.214000000000000856,-0.166079733453131595
1.215000000000000746,-0.165883909897418247
1.216000000000000858,-0.165682379524420331
1.217000000000000970,-0.165475180579789605
1.218000000000000860,-0.165262351275512309
1.219000000000000750,-0.165043929787818289
1.220000000000000862,-0.164819954255091661
1.221000000000000973,-0.164590462775833724
1.222000000000000863,-0.164355493406653952
1.223000000000000753,-0.164115084160281310
1.224000000000000865,-0.163869273003620808
1.225000000000000977,-0.163618097855834616
1.226000000000000867,-0.163361596586450192
1.227000000000000757,-0.163099807013499909
1.228000000000000869,-0.162832766901686438
1.229000000000000981,-0.162560513960597758
1.230000000000000870,-0.162283085842914288
1.231000000000000760,-0.162000520142677296
1.232000000000000872,-0.161712854393579769
1.233000000000000984,-0.161420126067255032
1.234000000000000874,-0.161122372571650047
1.235000000000000764,-0.160819631249367490
1.236000000000000876,-0.160511939376068724
1.237000000000000988,-0.160199334158902418
1.238000000000000878,-0.159881852734942764
1.239000000000000767,-0.159559532169672613
1.240000000000000879,-0.159232409455481005
1.241000000000000991,-0.158900521510188242
1.242000000000000881,-0.158563905175601760
1.243000000000000771,-0.158222597216091415
1.244000000000000883,-0.157876634317190651
1.245000000000000995,-0.157526053084227513
1.246000000000000885,-0.157170890040976147
1.247000000000000774,-0.156811181628326551
1.248000000000000886,-0.156446964202990701
1.249000000000000998,-0.156078274036224068
1.250000000000000888,-0.155705147312573872
1.251000000000000778,-0.155327620128642402
1.252000000000000890,-0.154945728491891338
1.253000000000001002,-0.154559508319445760
1.254000000000000892,-0.154168995436942791
1.255000000000000782,-0.153774225577379464
1.256000000000000894,-0.153375234380010300
1.257000000000001005,-0.152972057389236638
1.258000000000000895,-0.152564730053541070
1.259000000000000785,-0.152153287724429209
1.260000000000000897,-0.151737765655401063
1.261000000000001009,-0.151318199000935349
1.262000000000000899,-0.150894622815502477
1.263000000000000789,-0.150467072052587858
1.264000000000000901,-0.150035581563750325
1.265000000000001013,-0.149600186097679971
1.266000000000000902,-0.149160920299294730
1.267000000000000792,-0.148717818708843263
1.268000000000000904,-0.148270915761038541
1.269000000000001016,-0.147820245784197779
1.270000000000000906,-0.147365842999412078
1.271000000000000796,-0.146907741519726687
1.272000000000000908,-0.146445975349340451
1.273000000000001020,-0.145980578382833265
1.274000000000000909,-0.145511584404399541
1.275000000000000799,-0.145039027087097455
1.276000000000000911,-0.144562939992136263
1.277000000000001023,-0.144083356568153242
1.278000000000000913,-0.143600310150526933
1.279000000000000803,-0.143113833960700099
1.280000000000000915,-0.142623961105528024
1.281000000000001027,-0.142130724576613798
1.282000000000000917,-0.141634157249712872
1.283000000000000806,-0.141134291884096014
1.284000000000000918,-0.140631161121971909
1.285000000000001030,-0.140124797487900882
1.286000000000000920,-0.139615233388234450
1.287000000000000810,-0.139102501110562771
1.288000000000000922,-0.138586632823193862
1.289000000000001034,-0.138067660574621554
1.290000000000000924,-0.137545616293029110
1.291000000000000814,-0.137020531785809030
1.292000000000000925,-0.136492438739069383
1.293000000000001037,-0.135961368717199160
1.294000000000000927,-0.135427353162403646
1.295000000000000817,-0.134890423394278924
1.296000000000000929,-0.134350610609400178
1.297000000000001041,-0.133807945880903195
1.298000000000000931,-0.133262460158114326
1.299000000000000821,-0.132714184266154445
1.300000000000000933,-0.132163148905579203
1.301000000000001044,-0.131609384652035977
1.302000000000000934,-0.131052921955915280
1.303000000000000824,-0.130493791142032356
1.304000000000000936,-0.129932022409299464
1.305000000000001048,-0.129367645830446243
1.306000000000000938,-0.128800691351711072
1.307000000000000828,-0.128231188792573614
1.308000000000000940,-0.127659167845483340
1.309000000000001052,-0.127084658075612034
1.310000000000000941,-0.126507688920609290
1.311000000000000831,-0.125928289690365180
1.312000000000000943,-0.125346489566794395
1.313000000000001055,-0.124762317603636944
1.314000000000000945,-0.124175802726246398
1.315000000000000835,-0.123586973731401775
1.316000000000000947,-0.122995859287145889
1.317000000000001059,-0.122402487932608842
1.318000000000000949,-0.121806888077846648
1.319000000000000838,-0.121209088003711551
1.320000000000000950,-0.120609115861705266
1.321000000000001062,-0.120006999673853573
1.322000000000000952,-0.119402767332595888
1.323000000000000842,-0.118796446600673261
1.324000000000000954,-0.118188065111038784
1.325000000000001066,-0.117577650366762626
1.326000000000000956,-0.116965229740962642
1.327000000000000846,-0.116350830476726091
1.328000000000000957,-0.115734479687059230
1.329000000000001069,-0.115116204354828083
1.330000000000000959,-0.114496031332727705
1.331000000000000849,-0.113873987343236643
1.332000000000000961,-0.113250098978595656
1.333000000000001073,-0.112624392700795051
1.334000000000000963,-0.111996894841567080
1.335000000000000853,-0.111367631602376616
1.336000000000000965,-0.110736629054441704
1.337000000000001076,-0.110103913138740905
1.338000000000000966,-0.109469509666040257
1.339000000000000856,-0.108833444316926167
1.340000000000000968,-0.108195742641838399
1.341000000000001080,-0.107556430061123726
1.342000000000000970,-0.106915531865087038
1.343000000000000860,-0.106273073214052619
1.344000000000000972,-0.105629079138429741
1.345000000000001084,-0.104983574538798280
1.346000000000000973,-0.104336584185975217
1.347000000000000863,-0.103688132721120901
1.348000000000000975,-0.103038244655817415
1.349000000000001087,-0.102386944372184277
1.350000000000000977,-0.101734256122987504
1.351000000000000867,-0.101080204031748222
1.352000000000000979,-0.100424812092863247
1.353000000000001091,-0.099768104171743782
1.354000000000000981,-0.099110104004945188
1.355000000000000870,-0.098450835200296183
1.356000000000000982,-0.097790321237063577
1.357000000000001094,-0.097128585466093584
1.358000000000000984,-0.096465651109967493
1.359000000000000874,-0.095801541263173251
1.360000000000000986,-0.095136278892266668
1.361000000000001098,-0.094469886836058115
1.362000000000000988,-0.093802387805773130
1.363000000000000878,-0.093133804385258367
1.364000000000000989,-0.092464159031161092
1.365000000000001101,-0.091793474073120898
1.366000000000000991,-0.091121771713980115
1.367000000000000881,-0.090449074029990251
1.368000000000000993,-0.089775402971009791
1.369000000000001105,-0.089100780360730519
1.370000000000000995,-0.088425227896896552
1.371000000000000885,-0.087748767151527615
1.372000000000000997,-0.087071419571144892
1.373000000000001108,-0.086393206477014567
1.374000000000000998,-0.085714149065365869
1.375000000000000888,-0.085034268407663857
1.376000000000001000,-0.084353585450830534
1.377000000000001112,-0.083672121017503667
1.378000000000001002,-0.082989895806297828
1.379000000000000892,-0.082306930392055680
1.380000000000001004,-0.081623245226112875
1.381000000000001116,-0.080938860636568868
1.382000000000001005,-0.080253796828553048
1.383000000000000895,-0.079568073884498033
1.384000000000001007,-0.078881711764427528
1.385000000000001119,-0.078194730306221455
1.386000000000001009,-0.077507149225921876
1.387000000000000899,-0.076818988117996784
1.388000000000001011,-0.076130266455661261
1.389000000000001123,-0.075441003591144959
1.390000000000001013,-0.074751218756009430
1.391000000000000902,-0.074060931061440211
1.392000000000001014,-0.073370159498557491
1.393000000000001126,-0.072678922938721288
1.394000000000001016,-0.071987240133846109
1.395000000000000906,-0.071295129716708136
1.396000000000001018,-0.070602610201265542
1.397000000000001130,-0.069909699982980911
1.398000000000001020,-0.069216417339144506
1.399000000000000909,-0.068522780429188038
1.400000000000001021,-0.067828807295026591
1.401000000000001133,-0.067134515861386496
1.402000000000001023,-0.066439923936128714
1.403000000000000913,-0.065745049210589365
1.404000000000001025,-0.065049909259926680
1.405000000000001137,-0.064354521543448687
1.406000000000001027,-0.063658903404955364
1.407000000000000917,-0.062963072073102894
1.408000000000001029,-0.062267044661719284
1.409000000000001140,-0.061570838170180955
1.410000000000001030,-0.060874469483753003
1.411000000000000920,-0.060177955373940419
1.412000000000001032,-0.059481312498842497
1.413000000000001144,-0.058784557403523105
1.414000000000001034,-0.058087706520352181
1.415000000000000924,-0.057390776169374623
1.416000000000001036,-0.056693782558679406
1.417000000000001148,-0.055996741784755291
1.418000000000001037,-0.055299669832858958
1.419000000000000927,-0.054602582577382285
1.420000000000001039,-0.053905495782225851
1.421000000000001151,-0.053208425101170201
1.422000000000001041,-0.052511386078241462
1.423000000000000931,-0.051814394148090859
1.424000000000001043,-0.051117464636372088
1.425000000000001155,-0.050420612760112039
1.426000000000001044,-0.049723853628097517
1.427000000000000934,-0.049027202241247167
1.428000000000001046,-0.048330673492997370
1.429000000000001158,-0.047634282169678660
1.430000000000001048,-0.046938042950907650
1.431000000000000938,-0.046241970409963210
1.432000000000001050,-0.045546079014178634
1.433000000000001162,-0.044850383125327464
1.434000000000001052,-0.044154896999999818
1.435000000000000941,-0.043459634790013711
1.436000000000001053,-0.042764610542779920
1.437000000000001165,-0.042069838201710202
1.438000000000001055,-0.041375331606605337
1.439000000000000945,-0.040681104494038098
1.440000000000001057,-0.039987170497760474
1.441000000000001169,-0.039293543149085584
1.442000000000001059,-0.038600235877287711
1.443000000000000949,-0.037907262010003800
1.444000000000001060,-0.037214634773613690
1.445000000000001172,-0.036522367293650784
1.446000000000001062,-0.035830472595200183
1.447000000000000952,-0.035138963603282163
1.448000000000001064,-0.034447853143265601
1.449000000000001176,-0.033757153941262406
1.450000000000001066,-0.033066878624523892
1.451000000000000956,-0.032377039721840521
1.452000000000001068,-0.031687649663949199
1.453000000000001180,-0.030998720783927448
1.454000000000001069,-0.030310265317596723
1.455000000000000959,-0.029622295403924526
1.456000000000001071,-0.028934823085424367
1.457000000000001183,-0.028247860308560691
1.458000000000001073,-0.027561418924149761
1.459000000000000963,-0.026875510687757169
1.460000000000001075,-0.026190147260115017
1.461000000000001187,-0.025505340207505101
1.462000000000001076,-0.024821101002182676
1.463000000000000966,-0.024137441022758825
1.464000000000001078,-0.023454371554622339
1.465000000000001190,-0.022771903790333208
1.466000000000001080,-0.022090048830024939
1.467000000000000970,-0.021408817681814137
1.468000000000001082,-0.020728221262201672
1.469000000000001194,-0.020048270396470870
1.470000000000001084,-0.019368975819100749
1.471000000000000973,-0.018690348174157996
1.472000000000001085,-0.018012398015713894
1.473000000000001197,-0.017335135808233877
1.474000000000001087,-0.016658571926988653
1.475000000000000977,-0.015982716658452849
1.476000000000001089,-0.015307580200713117
1.477000000000001201,-0.014633172663865279
1.478000000000001091,-0.013959504070416396
1.479000000000000981,-0.013286584355692138
1.480000000000001092,-0.012614423368230109
1.481000000000001204,-0.011943030870193333
1.482000000000001094,-0.011272416537755866
1.483000000000000984,-0.010602589961520912
1.484000000000001096,-0.009933560646907782
1.485000000000001208,-0.009265338014551931
1.486000000000001098,-0.008597931400718285
1.487000000000000988,-0.007931350057687320
1.488000000000001100,-0.007265603154155728
1.489000000000001211,-0.006600699775641644
1.490000000000001101,-0.005936648924880181
1.491000000000000991,-0.005273459522210873
1.492000000000001103,-0.004611140405993131
1.493000000000001215,-0.003949700332987795
1.494000000000001105,-0.003289147978758030
1.495000000000000995,-0.002629491938066057
1.496000000000001107,-0.001970740725270971
1.497000000000001219,-0.001312902774716039
1.498000000000001108,-0.000655986441126801
1.499000000000000998,0.000000000000000000
