# ZnO10m10NBDry_THRSCA-AC
# h[nm],U(h)[kJ/mol]
0.149999999999999994,93.402713471730891115
0.150999999999999995,92.030477739848549845
0.151999999999999996,90.413012243704756088
0.152999999999999997,88.747586140321942594
0.153999999999999998,87.113046452948466936
0.154999999999999999,85.529852833929354006
0.156000000000000000,83.993602273829850446
0.157000000000000001,82.492508378740097896
0.158000000000000002,81.015525263572897074
0.159000000000000002,79.555298281403736382
0.160000000000000003,78.108481315741002504
0.161000000000000004,76.674903349135789199
0.162000000000000005,75.256401667757813811
0.163000000000000006,73.855732157467386401
0.164000000000000007,72.475727954699593170
0.165000000000000008,71.118745078701522289
0.166000000000000009,69.786366892338847379
0.167000000000000010,68.479311652119548626
0.168000000000000010,67.197481882683717913
0.169000000000000011,65.940100116488537196
0.170000000000000012,64.705886183388187760
0.171000000000000013,63.493242981363721356
0.172000000000000014,62.300428525520828771
0.173000000000000015,61.125701155204367865
0.174000000000000016,59.967431814581708238
0.175000000000000017,58.824182398756214241
0.176000000000000018,57.694752536550637956
0.177000000000000018,56.578199187363303224
0.178000000000000019,55.473834388670638873
0.179000000000000020,54.381206696501578790
0.180000000000000021,53.300071560700040152
0.181000000000000022,52.230355267275058395
0.182000000000000023,51.172116311736360217
0.183000000000000024,50.125507248869382693
0.184000000000000025,49.090739270468887412
0.185000000000000026,48.068051040398998452
0.186000000000000026,47.057682692398159929
0.187000000000000027,46.059855381402954322
0.188000000000000028,45.074756374196667252
0.189000000000000029,44.102529363190548395
0.190000000000000030,43.143269477144158941
0.191000000000000031,42.197022331485570135
0.192000000000000032,41.263786394799225832
0.193000000000000033,40.343517933564399414
0.194000000000000034,39.436137821936007697
0.195000000000000034,38.541539556240721254
0.196000000000000035,37.659597885479243473
0.197000000000000036,36.790177551643026277
0.198000000000000037,35.933141720782998618
0.199000000000000038,35.088359772625196342
0.200000000000000039,34.255714199491286820
0.201000000000000040,33.435106441796946797
0.202000000000000041,32.626461555819687987
0.203000000000000042,31.829731668834448044
0.204000000000000042,31.044898226771369565
0.205000000000000043,30.271973080366812781
0.206000000000000044,29.510998487786878286
0.207000000000000045,28.762046135567430838
0.208000000000000046,28.025215296241036356
0.209000000000000047,27.300630251097828705
0.210000000000000048,26.588437111068486729
0.211000000000000049,25.888800168627774667
0.212000000000000050,25.201897909758152139
0.213000000000000050,24.527918808191270017
0.214000000000000051,23.867057015086924565
0.215000000000000052,23.219508046666550882
0.216000000000000053,22.585464560657140254
0.217000000000000054,21.965112300205536400
0.218000000000000055,21.358626271597437096
0.219000000000000056,20.766167209992527631
0.220000000000000057,20.187878375725912150
0.221000000000000058,19.623882712734975087
0.222000000000000058,19.074280390489114723
0.223000000000000059,18.539146741536448815
0.224000000000000060,18.018530598490990258
0.225000000000000061,17.512453026995906669
0.226000000000000062,17.020906444911254596
0.227000000000000063,16.543854112664771350
0.228000000000000064,16.081229975331925885
0.229000000000000065,15.632938833520864108
0.230000000000000066,15.198856817468501035
0.231000000000000066,14.778832136833182531
0.232000000000000067,14.372686077426811480
0.233000000000000068,13.980214215488354412
0.234000000000000069,13.601187819988890482
0.235000000000000070,13.235355413802841085
0.236000000000000071,12.882444465312513415
0.237000000000000072,12.542163183067463805
0.238000000000000073,12.214202387436898789
0.239000000000000073,11.898237434716653738
0.240000000000000074,11.593930170829546356
0.241000000000000075,11.300930893546661693
0.242000000000000076,11.018880304014446736
0.243000000000000077,10.747411430263445808
0.244000000000000078,10.486151507269097394
0.245000000000000079,10.234723800005898653
0.246000000000000080,9.992749357762082951
0.247000000000000081,9.759848689743751748
0.248000000000000081,9.535643353681265921
0.249000000000000082,9.319757450744910798
0.250000000000000111,9.111819021572014066
0.251000000000000112,8.911461339599400233
0.252000000000000113,8.718324099177429787
0.253000000000000114,8.532054497115668212
0.254000000000000115,8.352308207372225013
0.255000000000000115,8.178750249553418783
0.256000000000000116,8.011055752737403779
0.257000000000000117,7.848910616880219848
0.258000000000000118,7.692012074708569180
0.259000000000000119,7.540069157555484125
0.260000000000000120,7.392803069058382803
0.261000000000000121,7.249947471019687839
0.262000000000000122,7.111248686033239785
0.263000000000000123,6.976465821712267257
0.264000000000000123,6.845370821521275850
0.265000000000000124,6.717748447322257732
0.266000000000000125,6.593396198799295505
0.267000000000000126,6.472124174932176288
0.268000000000000127,6.353754882652675740
0.269000000000000128,6.238122997743698050
0.270000000000000129,6.125075082934601234
0.271000000000000130,6.014469268011618297
0.272000000000000131,5.906174896604010627
0.273000000000000131,5.800072144128608720
0.274000000000000132,5.696051611181251140
0.275000000000000133,5.594013896456930368
0.276000000000000134,5.493869153064087740
0.277000000000000135,5.395536631875355482
0.278000000000000136,5.298944215329590257
0.279000000000000137,5.204027944870544431
0.280000000000000138,5.110731544978150964
0.281000000000000139,5.019005946520533890
0.282000000000000139,4.928808811930496248
0.283000000000000140,4.840104064490319935
0.284000000000000141,4.752861423794732865
0.285000000000000142,4.667055949254459435
0.286000000000000143,4.582667593302853781
0.287000000000000144,4.499680765776618685
0.288000000000000145,4.418083910758143773
0.289000000000000146,4.337869096993411944
0.290000000000000147,4.259031622834206665
0.291000000000000147,4.181569636498377207
0.292000000000000148,4.105483772295807299
0.293000000000000149,4.030776803331746372
0.294000000000000150,3.957453311072090862
0.295000000000000151,3.885519372037713026
0.296000000000000152,3.814982261786635576
0.297000000000000153,3.745850176243135543
0.298000000000000154,3.678131970342108481
0.299000000000000155,3.611836913874372446
0.300000000000000155,3.546974464343986888
0.301000000000000156,3.483554056581881220
0.302000000000000157,3.421584908800268554
0.303000000000000158,3.361075844719907391
0.304000000000000159,3.302035131355913311
0.305000000000000160,3.244470332008189128
0.306000000000000161,3.188388173968289330
0.307000000000000162,3.133794430425935307
0.308000000000000163,3.080693816034992594
0.309000000000000163,3.029089895579762270
0.310000000000000164,2.978985005168095945
0.311000000000000165,2.930380185367491119
0.312000000000000166,2.883275125693539831
0.313000000000000167,2.837668119856955773
0.314000000000000168,2.793556031175129295
0.315000000000000169,2.750934267556846446
0.316000000000000170,2.709796765473863278
0.317000000000000171,2.670135982340505976
0.318000000000000171,2.631942896731903403
0.319000000000000172,2.595207015882557311
0.320000000000000173,2.559916389919797641
0.321000000000000174,2.526057632300819034
0.322000000000000175,2.493615945937136757
0.323000000000000176,2.462575154506677855
0.324000000000000177,2.432917738470728342
0.325000000000000178,2.404624875330731548
0.326000000000000179,2.377676483678052399
0.327000000000000179,2.352051270608607414
0.328000000000000180,2.327726782093061608
0.329000000000000181,2.304679455912233443
0.330000000000000182,2.282884676786703704
0.331000000000000183,2.262316833348339884
0.332000000000000184,2.242949376620675839
0.333000000000000185,2.224754879693652043
0.334000000000000186,2.207705098296756763
0.335000000000000187,2.191771031992806318
0.336000000000000187,2.176922985732332450
0.337000000000000188,2.163130631526053893
0.338000000000000189,2.150363070009735367
0.339000000000000190,2.138588891692252414
0.340000000000000191,2.127776237693749461
0.341000000000000192,2.117892859795974303
0.342000000000000193,2.108906179642038303
0.343000000000000194,2.100783346936919482
0.344000000000000195,2.093491296514073952
0.345000000000000195,2.086996804146362017
0.346000000000000196,2.081266540992436909
0.347000000000000197,2.076267126581561762
0.348000000000000198,2.071965180251304606
0.349000000000000199,2.068327370963555900
0.350000000000000200,2.065320465434426822
0.351000000000000201,2.062911374523536789
0.352000000000000202,2.061067197837290532
0.353000000000000203,2.059755266509421645
0.354000000000000203,2.058943184130270332
0.355000000000000204,2.058598865803869860
0.356000000000000205,2.058690575319041649
0.357000000000000206,2.059186960427330071
0.358000000000000207,2.060057086226898981
0.359000000000000208,2.061270466657114664
0.360000000000000209,2.062797094113883123
0.361000000000000210,2.064607467200778146
0.362000000000000210,2.066672616635329973
0.363000000000000211,2.068964129334073476
0.364000000000000212,2.071454170703571851
0.365000000000000213,2.074115505168109941
0.366000000000000214,2.076921514967714266
0.367000000000000215,2.079846217262937280
0.368000000000000216,2.082864279585187273
0.369000000000000217,2.085951033673640431
0.370000000000000218,2.089082487741490191
0.371000000000000218,2.092235337216057367
0.372000000000000219,2.095386973998464519
0.373000000000000220,2.098515494289897365
0.374000000000000221,2.101599705032261678
0.375000000000000222,2.104619129011898959
0.376000000000000223,2.107554008675396773
0.377000000000000224,2.110385308707085183
0.378000000000000225,2.113094717417860924
0.379000000000000226,2.115664646995139009
0.380000000000000226,2.118078232663545446
0.381000000000000227,2.120319330805885194
0.382000000000000228,2.122372516093432804
0.383000000000000229,2.124223077674279203
0.384000000000000230,2.125857014467885442
0.385000000000000231,2.127261029613308985
0.386000000000000232,2.128422524117976167
0.387000000000000233,2.129329589752959162
0.388000000000000234,2.129971001240005712
0.389000000000000234,2.130336207774498725
0.390000000000000235,2.130415323927727922
0.391000000000000236,2.130199119970714428
0.392000000000000237,2.129679011660888133
0.393000000000000238,2.128847049531751967
0.394000000000000239,2.127695907724626245
0.395000000000000240,2.126218872400400084
0.396000000000000241,2.124409829768078239
0.397000000000000242,2.122263253765750868
0.398000000000000242,2.119774193428416442
0.399000000000000243,2.116938259975953862
0.400000000000000244,2.113751613653338524
0.401000000000000245,2.110210950353931025
0.402000000000000246,2.106313488055664873
0.403000000000000247,2.102056953098613956
0.404000000000000248,2.097439566331341432
0.405000000000000249,2.092460029152253487
0.406000000000000250,2.087117509471069887
0.407000000000000250,2.081411627614333959
0.408000000000000251,2.075342442197856574
0.409000000000000252,2.068910435987801666
0.410000000000000253,2.062116501771150023
0.411000000000000254,2.054961928255140347
0.412000000000000255,2.047448386014318888
0.413000000000000256,2.039577913502740536
0.414000000000000257,2.031352903148035072
0.415000000000000258,2.022776087542855983
0.416000000000000258,2.013850525748565268
0.417000000000000259,2.004579589724850841
0.418000000000000260,1.994966950898281244
0.419000000000000261,1.985016566881810274
0.420000000000000262,1.974732668356503185
0.421000000000000263,1.964119746125864596
0.422000000000000264,1.953182538352487230
0.423000000000000265,1.941926017985855069
0.424000000000000266,1.930355380389479070
0.425000000000000266,1.918476031174871421
0.426000000000000267,1.906293574249101841
0.427000000000000268,1.893813800082109200
0.428000000000000269,1.881042674199272069
0.429000000000000270,1.867986325904165579
0.430000000000000271,1.854651037235843347
0.431000000000000272,1.841043232164430776
0.432000000000000273,1.827169466028321310
0.433000000000000274,1.813036415215709907
0.434000000000000274,1.798650867092759897
0.435000000000000275,1.784019710180233531
0.436000000000000276,1.769149924579970889
0.437000000000000277,1.754048572652185722
0.438000000000000278,1.738722789944172176
0.439000000000000279,1.723179776370618921
0.440000000000000280,1.707426787645382138
0.441000000000000281,1.691471126964271932
0.442000000000000282,1.675320136937984428
0.443000000000000282,1.658981191774179909
0.444000000000000283,1.642461689707249040
0.445000000000000284,1.625769045674181346
0.446000000000000285,1.608910684234660327
0.447000000000000286,1.591894032733218056
0.448000000000000287,1.574726514701195512
0.449000000000000288,1.557415543495922039
0.450000000000000289,1.539968516174438973
0.451000000000000290,1.522392807598869968
0.452000000000000290,1.504695764770382915
0.453000000000000291,1.486884701388589303
0.454000000000000292,1.468966892633019938
0.455000000000000293,1.450949570163260427
0.456000000000000294,1.432839917334180146
0.457000000000000295,1.414645064622607862
0.458000000000000296,1.396372085261700535
0.459000000000000297,1.378027991079202597
0.460000000000000298,1.359619728535670591
0.461000000000000298,1.341154174958755885
0.462000000000000299,1.322638134969490675
0.463000000000000300,1.304078337096568507
0.464000000000000301,1.285481430574501482
0.465000000000000302,1.266853982321572092
0.466000000000000303,1.248202474093406344
0.467000000000000304,1.229533299808047930
0.468000000000000305,1.210852763038351876
0.469000000000000306,1.192167074667549009
0.470000000000000306,1.173482350703797916
0.471000000000000307,1.154804610249605457
0.472000000000000308,1.136139773621938520
0.473000000000000309,1.117493660618920970
0.474000000000000310,1.098871988929038590
0.475000000000000311,1.080280372678709577
0.476000000000000312,1.061724321114275948
0.477000000000000313,1.043209237414292501
0.478000000000000314,1.024740417628244860
0.479000000000000314,1.006323049737678277
0.480000000000000315,0.987962212835906017
0.481000000000000316,0.969662876422409781
0.482000000000000317,0.951429899808170942
0.483000000000000318,0.933268031628149530
0.484000000000000319,0.915181909457250975
0.485000000000000320,0.897176059526117564
0.486000000000000321,0.879254896533164354
0.487000000000000322,0.861422723549336800
0.488000000000000322,0.843683732012128429
0.489000000000000323,0.826042001805438408
0.490000000000000324,0.808501501421918456
0.491000000000000325,0.791066088204546602
0.492000000000000326,0.773739508664187725
0.493000000000000327,0.756525398869981158
0.494000000000000328,0.739427284909476290
0.495000000000000329,0.722448583415464474
0.496000000000000330,0.705592602156577042
0.497000000000000330,0.688862540688687353
0.498000000000000331,0.672261491064365280
0.499000000000000332,0.655792438597547322
0.500000000000000333,0.639458262680730583
0.501000000000000334,0.623261737652090253
0.502000000000000335,0.607205533709885281
0.503000000000000336,0.591292217871701498
0.504000000000000337,0.575524254976031546
0.505000000000000338,0.559904008723856594
0.506000000000000338,0.544433742757880035
0.507000000000000339,0.529115621777160094
0.508000000000000340,0.513951712684973194
0.509000000000000341,0.498943985767731302
0.510000000000000342,0.484094315902934169
0.511000000000000343,0.469404483794090610
0.512000000000000344,0.454876177230707834
0.513000000000000345,0.440510992371431154
0.514000000000000346,0.426310435048475767
0.515000000000000346,0.412275922091635938
0.516000000000000347,0.398408782670095829
0.517000000000000348,0.384710259650386854
0.518000000000000349,0.371181510968904449
0.519000000000000350,0.357823611017400622
0.520000000000000351,0.344637552039965378
0.521000000000000352,0.331624245540021012
0.522000000000000353,0.318784523695972322
0.523000000000000353,0.306119140784098964
0.524000000000000354,0.293628774607448961
0.525000000000000355,0.281314027929425448
0.526000000000000356,0.269175429910910258
0.527000000000000357,0.257213437549715374
0.528000000000000358,0.245428437121267301
0.529000000000000359,0.233820745619464976
0.530000000000000360,0.222390612196661147
0.531000000000000361,0.211138219601782945
0.532000000000000361,0.200063685615654074
0.533000000000000362,0.189167064482608366
0.534000000000000363,0.178448348337535395
0.535000000000000364,0.167907468627505219
0.536000000000000365,0.157544297527226235
0.537000000000000366,0.147358649347526349
0.538000000000000367,0.137350281936205632
0.539000000000000368,0.127518898070491937
0.540000000000000369,0.117864146840539058
0.541000000000000369,0.108385625023272383
0.542000000000000370,0.099082878446055428
0.543000000000000371,0.089955403339582879
0.544000000000000372,0.081002647679486964
0.545000000000000373,0.072224012516176148
0.546000000000000374,0.063618853292407698
0.547000000000000375,0.055186481148196354
0.548000000000000376,0.046926164212595343
0.549000000000000377,0.038837128882016944
0.550000000000000377,0.030918561084675368
0.551000000000000378,0.023169607530871585
0.552000000000000379,0.015589376948751154
0.553000000000000380,0.008176941305283158
0.554000000000000381,0.000931337012181943
0.555000000000000382,-0.006148433883505078
0.556000000000000383,-0.013063402524310975
0.557000000000000384,-0.019814632083045534
0.558000000000000385,-0.026403216619388548
0.559000000000000385,-0.032830279952611216
0.560000000000000386,-0.039096974550537712
0.561000000000000387,-0.045204480434898844
0.562000000000000388,-0.051154004103183090
0.563000000000000389,-0.056946777467112707
0.564000000000000390,-0.062584056807788516
0.565000000000000391,-0.068067121747618725
0.566000000000000392,-0.073397274239054386
0.567000000000000393,-0.078575837570204185
0.568000000000000393,-0.083604155387324797
0.569000000000000394,-0.088483590734236908
0.570000000000000395,-0.093215525108659228
0.571000000000000396,-0.097801357535432051
0.572000000000000397,-0.102242503656667205
0.573000000000000398,-0.106540394838730679
0.574000000000000399,-0.110696477296075416
0.575000000000000400,-0.114712211231837197
0.576000000000000401,-0.118589069995149815
0.577000000000000401,-0.122328539255136315
0.578000000000000402,-0.125932116191456084
0.579000000000000403,-0.129401308701352885
0.580000000000000404,-0.132737634623127293
0.581000000000000405,-0.135942620975893103
0.582000000000000406,-0.139017803215560398
0.583000000000000407,-0.141964724506891127
0.584000000000000408,-0.144784935011551374
0.585000000000000409,-0.147479991191999449
0.586000000000000409,-0.150051455131100575
0.587000000000000410,-0.152500893867351328
0.588000000000000411,-0.154829878745516819
0.589000000000000412,-0.157039984782623682
0.590000000000000413,-0.159132790049069439
0.591000000000000414,-0.161109875064768093
0.592000000000000415,-0.162972822210142976
0.593000000000000416,-0.164723215151807656
0.594000000000000417,-0.166362638282778530
0.595000000000000417,-0.167892676177075761
0.596000000000000418,-0.169314913058484479
0.597000000000000419,-0.170630932283388714
0.598000000000000420,-0.171842315837420795
0.599000000000000421,-0.172950643845825924
0.600000000000000422,-0.173957494097308873
0.601000000000000423,-0.174864441581210645
0.602000000000000424,-0.175673058037835089
0.603000000000000425,-0.176384911521751786
0.604000000000000425,-0.177001565977849218
0.605000000000000426,-0.177524580830015266
0.606000000000000427,-0.177955510582233550
0.607000000000000428,-0.178295904431870600
0.608000000000000429,-0.178547305895073199
0.609000000000000430,-0.178711252443948893
0.610000000000000431,-0.178789275155485733
0.611000000000000432,-0.178782898371914023
0.612000000000000433,-0.178693639372380364
0.613000000000000433,-0.178523008055750360
0.614000000000000434,-0.178272506634322536
0.615000000000000435,-0.177943629338284753
0.616000000000000436,-0.177537862130733026
0.617000000000000437,-0.177056682433078455
0.618000000000000438,-0.176501558860620966
0.619000000000000439,-0.175873950968134352
0.620000000000000440,-0.175175309005291435
0.621000000000000441,-0.174407073681716984
0.622000000000000441,-0.173570675941519259
0.623000000000000442,-0.172667536747081463
0.624000000000000443,-0.171699066871986078
0.625000000000000444,-0.170666666702861125
0.626000000000000445,-0.169571726049967009
0.627000000000000446,-0.168415623966379380
0.628000000000000447,-0.167199728575581658
0.629000000000000448,-0.165925396907279865
0.630000000000000449,-0.164593974741285509
0.631000000000000449,-0.163206796459311826
0.632000000000000450,-0.161765184904483661
0.633000000000000451,-0.160270451248428786
0.634000000000000452,-0.158723894865758830
0.635000000000000453,-0.157126803215800137
0.636000000000000454,-0.155480451731399127
0.637000000000000455,-0.153786103714663863
0.638000000000000456,-0.152045010239453798
0.639000000000000457,-0.150258410060490677
0.640000000000000457,-0.148427529528941698
0.641000000000000458,-0.146553582514275971
0.642000000000000459,-0.144637770332323584
0.643000000000000460,-0.142681281679308325
0.644000000000000461,-0.140685292571771814
0.645000000000000462,-0.138650966292213962
0.646000000000000463,-0.136579453340303220
0.647000000000000464,-0.134471891389544407
0.648000000000000465,-0.132329405249249077
0.649000000000000465,-0.130153106831663423
0.650000000000000466,-0.127944095124147450
0.651000000000000467,-0.125703456166239153
0.652000000000000468,-0.123432263031514181
0.653000000000000469,-0.121131575814060644
0.654000000000000470,-0.118802441619509966
0.655000000000000471,-0.116445894560437566
0.656000000000000472,-0.114062955756046192
0.657000000000000473,-0.111654633335996192
0.658000000000000473,-0.109221922448285907
0.659000000000000474,-0.106765805271041042
0.660000000000000475,-0.104287251028109318
0.661000000000000476,-0.101787216008346476
0.662000000000000477,-0.099266643588496684
0.663000000000000478,-0.096726464259528813
0.664000000000000479,-0.094167595656361763
0.665000000000000480,-0.091590942590822150
0.666000000000000481,-0.088997397087804214
0.667000000000000481,-0.086387838424436425
0.668000000000000482,-0.083763133172258641
0.669000000000000483,-0.081124135242224837
0.670000000000000484,-0.078471685932488017
0.671000000000000485,-0.075806613978859391
0.672000000000000486,-0.073129735607831856
0.673000000000000487,-0.070441854592127331
0.674000000000000488,-0.067743762308604946
0.675000000000000488,-0.065036237798510338
0.676000000000000489,-0.062320047829961145
0.677000000000000490,-0.059595946962551369
0.678000000000000491,-0.056864677614048675
0.679000000000000492,-0.054126970129065290
0.680000000000000493,-0.051383542849629940
0.681000000000000494,-0.048635102187608206
0.682000000000000495,-0.045882342698853863
0.683000000000000496,-0.043125947159065897
0.684000000000000496,-0.040366586641240557
0.685000000000000497,-0.037604920594664949
0.686000000000000498,-0.034841596925386534
0.687000000000000499,-0.032077252078079564
0.688000000000000500,-0.029312511119248551
0.689000000000000501,-0.026547987821709799
0.690000000000000502,-0.023784284750284147
0.691000000000000503,-0.021021993348630551
0.692000000000000504,-0.018261694027163183
0.693000000000000504,-0.015503956252027490
0.694000000000000505,-0.012749338635001901
0.695000000000000506,-0.009998389024362776
0.696000000000000507,-0.007251644596579209
0.697000000000000508,-0.004509631948823816
0.698000000000000509,-0.001772867192250693
0.699000000000000510,0.000958143954034368
0.700000000000000511,0.003682906068344372
0.701000000000000512,0.006400933931168274
0.702000000000000512,0.009111752429376624
0.703000000000000513,0.011814896459904783
0.704000000000000514,0.014509910832968431
0.705000000000000515,0.017196350174857183
0.706000000000000516,0.019873778830336770
0.707000000000000517,0.022541770764710568
0.708000000000000518,0.025199909465593272
0.709000000000000519,0.027847787844383472
0.710000000000000520,0.030485008137561470
0.711000000000000520,0.033111181807752736
0.712000000000000521,0.035725929444668771
0.713000000000000522,0.038328880665921113
0.714000000000000523,0.040919674017744018
0.715000000000000524,0.043497956875683301
0.716000000000000525,0.046063385345246503
0.717000000000000526,0.048615624162584081
0.718000000000000527,0.051154346595204112
0.719000000000000528,0.053679234342767113
0.720000000000000528,0.056189977437954897
0.721000000000000529,0.058686274147517259
0.722000000000000530,0.061167830873419204
0.723000000000000531,0.063634362054211885
0.724000000000000532,0.066085590066580394
0.725000000000000533,0.068521245127131647
0.726000000000000534,0.070941065194447150
0.727000000000000535,0.073344795871390672
0.728000000000000536,0.075732190307729680
0.729000000000000536,0.078103009103074689
0.730000000000000537,0.080457020210141880
0.731000000000000538,0.082793998838403438
0.732000000000000539,0.085113727358087934
0.733000000000000540,0.087415995204599722
0.734000000000000541,0.089700598783333335
0.735000000000000542,0.091967341374947553
0.736000000000000543,0.094216033041045977
0.737000000000000544,0.096446490530370813
0.738000000000000544,0.098658537185426054
0.739000000000000545,0.100852002849639494
0.740000000000000546,0.103026723774997331
0.741000000000000547,0.105182542530229073
0.742000000000000548,0.107319307909486183
0.743000000000000549,0.109436874841621193
0.744000000000000550,0.111535104299981591
0.745000000000000551,0.113613863212787852
0.746000000000000552,0.115673024374097946
0.747000000000000552,0.117712466355346448
0.748000000000000553,0.119732073417502180
0.749000000000000554,0.121731735423828175
0.750000000000000555,0.123711347753249185
0.751000000000000556,0.125670811214368239
0.752000000000000557,0.127610031960088827
0.753000000000000558,0.129528921402921687
0.754000000000000559,0.131427396130889773
0.755000000000000560,0.133305377824131849
0.756000000000000560,0.135162793172141027
0.757000000000000561,0.136999573791692558
0.758000000000000562,0.138815656145437338
0.759000000000000563,0.140610981461162077
0.760000000000000564,0.142385495651752347
0.761000000000000565,0.144139149235837427
0.762000000000000566,0.145871897259122862
0.763000000000000567,0.147583699216425723
0.764000000000000568,0.149274518974411075
0.765000000000000568,0.150944324695017479
0.766000000000000569,0.152593088759610362
0.767000000000000570,0.154220787693823302
0.768000000000000571,0.155827402093126816
0.769000000000000572,0.157412916549097559
0.770000000000000573,0.158977319576405735
0.771000000000000574,0.160520603540522111
0.772000000000000575,0.162042764586133675
0.773000000000000576,0.163543802566290836
0.774000000000000576,0.165023720972260562
0.775000000000000577,0.166482526864099561
0.776000000000000578,0.167920230801961556
0.777000000000000579,0.169336846778096434
0.778000000000000580,0.170732392149602008
0.779000000000000581,0.172106887571865569
0.780000000000000582,0.173460356932746473
0.781000000000000583,0.174792827287451019
0.782000000000000584,0.176104328794150139
0.783000000000000584,0.177394894650297896
0.784000000000000585,0.178664561029656721
0.785000000000000586,0.179913367020057724
0.786000000000000587,0.181141354561847351
0.787000000000000588,0.182348568387055043
0.788000000000000589,0.183535055959273607
0.789000000000000590,0.184700867414222591
0.790000000000000591,0.185846055501039220
0.791000000000000592,0.186970675524249896
0.792000000000000592,0.188074785286449969
0.793000000000000593,0.189158445031672118
0.794000000000000594,0.190221717389449374
0.795000000000000595,0.191264667319560322
0.796000000000000596,0.192287362057476624
0.797000000000000597,0.193289871060468965
0.798000000000000598,0.194272265954407997
0.799000000000000599,0.195234620481244237
0.800000000000000600,0.196177010447138811
0.801000000000000600,0.197099513671290083
0.802000000000000601,0.198002209935405210
0.803000000000000602,0.198885180933842054
0.804000000000000603,0.199748510224402098
0.805000000000000604,0.200592283179779118
0.806000000000000605,0.201416586939668463
0.807000000000000606,0.202221510363495810
0.808000000000000607,0.203007143983814670
0.809000000000000608,0.203773579960324025
0.810000000000000608,0.204520912034511282
0.811000000000000609,0.205249235484959630
0.812000000000000610,0.205958647083225699
0.813000000000000611,0.206649245050387009
0.814000000000000612,0.207321129014173572
0.815000000000000613,0.207974399966709633
0.816000000000000614,0.208609160222885504
0.817000000000000615,0.209225513379306033
0.818000000000000616,0.209823564273842578
0.819000000000000616,0.210403418945778853
0.820000000000000617,0.210965184596548477
0.821000000000000618,0.211508969551044868
0.822000000000000619,0.212034883219505754
0.823000000000000620,0.212543036059986173
0.824000000000000621,0.213033539541389677
0.825000000000000622,0.213506506107055516
0.826000000000000623,0.213962049138913868
0.827000000000000624,0.214400282922192986
0.828000000000000624,0.214821322610663751
0.829000000000000625,0.215225284192450295
0.830000000000000626,0.215612284456347364
0.831000000000000627,0.215982440958697619
0.832000000000000628,0.216335871990779444
0.833000000000000629,0.216672696546731103
0.834000000000000630,0.216993034291984299
0.835000000000000631,0.217297005532212900
0.836000000000000631,0.217584731182791147
0.837000000000000632,0.217856332738750380
0.838000000000000633,0.218111932245245915
0.839000000000000634,0.218351652268501756
0.840000000000000635,0.218575615867248801
0.841000000000000636,0.218783946564658438
0.842000000000000637,0.218976768320729265
0.843000000000000638,0.219154205505173783
0.844000000000000639,0.219316382870751031
0.845000000000000639,0.219463425527079620
0.846000000000000640,0.219595458914901454
0.847000000000000641,0.219712608780790408
0.848000000000000642,0.219815001152327605
0.849000000000000643,0.219902762313712863
0.850000000000000644,0.219976018781796290
0.851000000000000645,0.220034897282579328
0.852000000000000646,0.220079524728115677
0.853000000000000647,0.220110028193844842
0.854000000000000647,0.220126534896352727
0.855000000000000648,0.220129172171536686
0.856000000000000649,0.220118067453180855
0.857000000000000650,0.220093348251940851
0.858000000000000651,0.220055142134732679
0.859000000000000652,0.220003576704505044
0.860000000000000653,0.219938779580407168
0.861000000000000654,0.219860878378354968
0.862000000000000655,0.219770000691953016
0.863000000000000655,0.219666274073823720
0.864000000000000656,0.219549826017281097
0.865000000000000657,0.219420783938393649
0.866000000000000658,0.219279275158398651
0.867000000000000659,0.219125426886469743
0.868000000000000660,0.218959366202859995
0.869000000000000661,0.218781220042375851
0.870000000000000662,0.218591115178201761
0.871000000000000663,0.218389178206059492
0.872000000000000663,0.218175535528722625
0.873000000000000664,0.217950313340843527
0.874000000000000665,0.217713637614115774
0.875000000000000666,0.217465634082762260
0.876000000000000667,0.217206428229338611
0.877000000000000668,0.216936145270855807
0.878000000000000669,0.216654910145206492
0.879000000000000670,0.216362847497912625
0.880000000000000671,0.216060081669152387
0.881000000000000671,0.215746736681116269
0.882000000000000672,0.215422936225625333
0.883000000000000673,0.215088803652066979
0.884000000000000674,0.214744461955598043
0.885000000000000675,0.214390033765644084
0.886000000000000676,0.214025641334669448
0.887000000000000677,0.213651406527220866
0.888000000000000678,0.213267450809254910
0.889000000000000679,0.212873895237711219
0.890000000000000679,0.212470860450369947
0.891000000000000680,0.212058466655952627
0.892000000000000681,0.211636833624488707
0.893000000000000682,0.211206080677933894
0.894000000000000683,0.210766326681032512
0.895000000000000684,0.210317690032422261
0.896000000000000685,0.209860288655989630
0.897000000000000686,0.209394239992458653
0.898000000000000687,0.208919660991204653
0.899000000000000687,0.208436668102318201
0.900000000000000688,0.207945377268877213
0.901000000000000689,0.207445903919455027
0.902000000000000690,0.206938362960841504
0.903000000000000691,0.206422868770984730
0.904000000000000692,0.205899535192148819
0.905000000000000693,0.205368475524277450
0.906000000000000694,0.204829802518564474
0.907000000000000695,0.204283628371236231
0.908000000000000695,0.203730064717521892
0.909000000000000696,0.203169222625836643
0.910000000000000697,0.202601212592142088
0.911000000000000698,0.202026144534516672
0.912000000000000699,0.201444127787899996
0.913000000000000700,0.200855271099021959
0.914000000000000701,0.200259682621536678
0.915000000000000702,0.199657469911301566
0.916000000000000703,0.199048739921861451
0.917000000000000703,0.198433599000087807
0.918000000000000704,0.197812152882003683
0.919000000000000705,0.197184506688763944
0.920000000000000706,0.196550764922806293
0.921000000000000707,0.195911031464164775
0.922000000000000708,0.195265409566947212
0.923000000000000709,0.194614001855951152
0.924000000000000710,0.193956910323462628
0.925000000000000711,0.193294236326182090
0.926000000000000711,0.192626080582312648
0.927000000000000712,0.191952543168786932
0.928000000000000713,0.191273723518648187
0.929000000000000714,0.190589720418553987
0.930000000000000715,0.189900632006444969
0.931000000000000716,0.189206555769330764
0.932000000000000717,0.188507588541205251
0.933000000000000718,0.187803826501120874
0.934000000000000719,0.187095365171359412
0.935000000000000719,0.186382299415750491
0.936000000000000720,0.185664723438110940
0.937000000000000721,0.184942730780800757
0.938000000000000722,0.184216414323400690
0.939000000000000723,0.183485866281515086
0.940000000000000724,0.182751178205681181
0.941000000000000725,0.182012440980395207
0.942000000000000726,0.181269744823249285
0.943000000000000727,0.180523179284180435
0.944000000000000727,0.179772833244822461
0.945000000000000728,0.179018794917961216
0.946000000000000729,0.178261151847104976
0.947000000000000730,0.177499990906136190
0.948000000000000731,0.176735398299083218
0.949000000000000732,0.175967459559967010
0.950000000000000733,0.175196259552771100
0.951000000000000734,0.174421882471466144
0.952000000000000735,0.173644411840166546
0.953000000000000735,0.172863930513351999
0.954000000000000736,0.172080520676177351
0.955000000000000737,0.171294263844881861
0.956000000000000738,0.170505240867266816
0.957000000000000739,0.169713531923264327
0.958000000000000740,0.168919216525587307
0.959000000000000741,0.168122373520453783
0.960000000000000742,0.167323081088388614
0.961000000000000743,0.166521416745106066
0.962000000000000743,0.165717457342459407
0.963000000000000744,0.164911279069469646
0.964000000000000745,0.164102957453413245
0.965000000000000746,0.163292567360996010
0.966000000000000747,0.162480182999577061
0.967000000000000748,0.161665877918475753
0.968000000000000749,0.160849725010322547
0.969000000000000750,0.160031796512496161
0.970000000000000751,0.159212164008599250
0.971000000000000751,0.158390898430014054
0.972000000000000752,0.157568070057509418
0.973000000000000753,0.156743748522890580
0.974000000000000754,0.155918002810732897
0.975000000000000755,0.155090901260145880
0.976000000000000756,0.154262511566603644
0.977000000000000757,0.153432900783821768
0.978000000000000758,0.152602135325690086
0.979000000000000759,0.151770280968240245
0.980000000000000759,0.150937402851685387
0.981000000000000760,0.150103565482486545
0.982000000000000761,0.149268832735466844
0.983000000000000762,0.148433267855981266
0.984000000000000763,0.147596933462124602
0.985000000000000764,0.146759891546968640
0.986000000000000765,0.145922203480862100
0.987000000000000766,0.145083930013755413
0.988000000000000766,0.144245131277568051
0.989000000000000767,0.143405866788590991
0.990000000000000768,0.142566195449930211
0.991000000000000769,0.141726175553985978
0.992000000000000770,0.140885864784962345
0.993000000000000771,0.140045320221403979
0.994000000000000772,0.139204598338787983
0.995000000000000773,0.138363755012115730
0.996000000000000774,0.137522845518563502
0.997000000000000774,0.136681924540143079
0.998000000000000775,0.135841046166401719
0.999000000000000776,0.135000263897141926
1.000000000000000666,0.134159630645176525
1.001000000000000778,0.133319198739099282
1.002000000000000668,0.132479019926089708
1.003000000000000780,0.131639145374735783
1.004000000000000670,0.130799625677882836
1.005000000000000782,0.129960510855499783
1.006000000000000671,0.129121850357573870
1.007000000000000783,0.128283693067021670
1.008000000000000673,0.127446087302621358
1.009000000000000785,0.126609080821959902
1.010000000000000675,0.125772720824407769
1.011000000000000787,0.124937053954099847
1.012000000000000677,0.124102126302939195
1.013000000000000789,0.123267983413618082
1.014000000000000679,0.122434670282653132
1.015000000000000790,0.121602231363429250
1.016000000000000680,0.120770710569265513
1.017000000000000792,0.119940151276490409
1.018000000000000682,0.119110596327532375
1.019000000000000794,0.118282088034016047
1.020000000000000684,0.117454668179874461
1.021000000000000796,0.116628378024472387
1.022000000000000686,0.115803258305738094
1.023000000000000798,0.114979349243302414
1.024000000000000687,0.114156690541652756
1.025000000000000799,0.113335321393286240
1.026000000000000689,0.112515280481878283
1.027000000000000801,0.111696605985453307
1.028000000000000691,0.110879335579567306
1.029000000000000803,0.110063506440486306
1.030000000000000693,0.109249155248387048
1.031000000000000805,0.108436318190537076
1.032000000000000695,0.107625030964510898
1.033000000000000806,0.106815328781380184
1.034000000000000696,0.106007246368924640
1.035000000000000808,0.105200817974845928
1.036000000000000698,0.104396077369973916
1.037000000000000810,0.103593057851476988
1.038000000000000700,0.102791792246087393
1.039000000000000812,0.101992312913311151
1.040000000000000702,0.101194651748641951
1.041000000000000814,0.100398840186780497
1.042000000000000703,0.099604909204856484
1.043000000000000815,0.098812889325635145
1.044000000000000705,0.098022810620734396
1.045000000000000817,0.097234702713843491
1.046000000000000707,0.096448594783926450
1.047000000000000819,0.095664515568432945
1.048000000000000709,0.094882493366509640
1.049000000000000821,0.094102556042194238
1.050000000000000711,0.093324731027625757
1.051000000000000822,0.092549045326228943
1.052000000000000712,0.091775525515916417
1.053000000000000824,0.091004197752270893
1.054000000000000714,0.090235087771728048
1.055000000000000826,0.089468220894756742
1.056000000000000716,0.088703622029028373
1.057000000000000828,0.087941315672585521
1.058000000000000718,0.087181325917004088
1.059000000000000830,0.086423676450545342
1.060000000000000719,0.085668390561304403
1.061000000000000831,0.084915491140352767
1.062000000000000721,0.084165000684873037
1.063000000000000833,0.083416941301279440
1.064000000000000723,0.082671334708347727
1.065000000000000835,0.081928202240319409
1.066000000000000725,0.081187564850002364
1.067000000000000837,0.080449443111878918
1.068000000000000727,0.079713857225173809
1.069000000000000838,0.078980827016948946
1.070000000000000728,0.078250371945161476
1.071000000000000840,0.077522511101727115
1.072000000000000730,0.076797263215568831
1.073000000000000842,0.076074646655656289
1.074000000000000732,0.075354679434044392
1.075000000000000844,0.074637379208881124
1.076000000000000734,0.073922763287425391
1.077000000000000846,0.073210848629049780
1.078000000000000735,0.072501651848219842
1.079000000000000847,0.071795189217486219
1.080000000000000737,0.071091476670436277
1.081000000000000849,0.070390529804666396
1.082000000000000739,0.069692363884718098
1.083000000000000851,0.068996993845014343
1.084000000000000741,0.068304434292780380
1.085000000000000853,0.067614699510959025
1.086000000000000743,0.066927803461106855
1.087000000000000854,0.066243759786278153
1.088000000000000744,0.065562581813903759
1.089000000000000856,0.064884282558655360
1.090000000000000746,0.064208874725292270
1.091000000000000858,0.063536370711498091
1.092000000000000748,0.062866782610713004
1.093000000000000860,0.062200122214935892
1.094000000000000750,0.061536401017537323
1.095000000000000862,0.060875630216034551
1.096000000000000751,0.060217820714870494
1.097000000000000863,0.059562983128179182
1.098000000000000753,0.058911127782524483
1.099000000000000865,0.058262264719638301
1.100000000000000755,0.057616403699147778
1.101000000000000867,0.056973554201273077
1.102000000000000757,0.056333725429528560
1.103000000000000869,0.055696926313398246
1.104000000000000759,0.055063165511009912
1.105000000000000870,0.054432451411778514
1.106000000000000760,0.053804792139058609
1.107000000000000872,0.053180195552755397
1.108000000000000762,0.052558669251946299
1.109000000000000874,0.051940220577474029
1.110000000000000764,0.051324856614534467
1.111000000000000876,0.050712584195243847
1.112000000000000766,0.050103409901192442
1.113000000000000878,0.049497340065988826
1.114000000000000767,0.048894380777784109
1.115000000000000879,0.048294537881789099
1.116000000000000769,0.047697816982769189
1.117000000000000881,0.047104223447530479
1.118000000000000771,0.046513762407389025
1.119000000000000883,0.045926438760625986
1.120000000000000773,0.045342257174928645
1.121000000000000885,0.044761222089818878
1.122000000000000774,0.044183337719065081
1.123000000000000886,0.043608608053078868
1.124000000000000776,0.043037036861295772
1.125000000000000888,0.042468627694552785
1.126000000000000778,0.041903383887434587
1.127000000000000890,0.041341308560612258
1.128000000000000780,0.040782404623178295
1.129000000000000892,0.040226674774946292
1.130000000000000782,0.039674121508753726
1.131000000000000894,0.039124747112742018
1.132000000000000783,0.038578553672624943
1.133000000000000895,0.038035543073934142
1.134000000000000785,0.037495717004270339
1.135000000000000897,0.036959076955511351
1.136000000000000787,0.036425624226034105
1.137000000000000899,0.035895359922899231
1.138000000000000789,0.035368284964041964
1.139000000000000901,0.034844400080420362
1.140000000000000790,0.034323705818182428
1.141000000000000902,0.033806202540798719
1.142000000000000792,0.033291890431178271
1.143000000000000904,0.032780769493779824
1.144000000000000794,0.032272839556702605
1.145000000000000906,0.031768100273773456
1.146000000000000796,0.031266551126597139
1.147000000000000908,0.030768191426617464
1.148000000000000798,0.030273020317147088
1.149000000000000909,0.029781036775389697
1.150000000000000799,0.029292239614450221
1.151000000000000689,0.028806627485322235
1.152000000000000801,0.028324198878868563
1.153000000000000913,0.027844952127785188
1.154000000000000803,0.027368885408552562
1.155000000000000693,0.026895996743371103
1.156000000000000805,0.026426284002077128
1.157000000000000917,0.025959744904062602
1.158000000000000806,0.025496377020155843
1.159000000000000696,0.025036177774509293
1.160000000000000808,0.024579144446462177
1.161000000000000920,0.024125274172393824
1.162000000000000810,0.023674563947556394
1.163000000000000700,0.023227010627907260
1.164000000000000812,0.022782610931910648
1.165000000000000924,0.022341361442342295
1.166000000000000814,0.021903258608063712
1.167000000000000703,0.021468298745798215
1.168000000000000815,0.021036478041880035
1.169000000000000927,0.020607792554003374
1.170000000000000817,0.020182238212942950
1.171000000000000707,0.019759810824276424
1.172000000000000819,0.019340506070077073
1.173000000000000931,0.018924319510608401
1.174000000000000821,0.018511246585999459
1.175000000000000711,0.018101282617899499
1.176000000000000822,0.017694422811130695
1.177000000000000934,0.017290662255322241
1.178000000000000824,0.016889995926531849
1.179000000000000714,0.016492418688856970
1.180000000000000826,0.016097925296021963
1.181000000000000938,0.015706510392972054
1.182000000000000828,0.015318168517434777
1.183000000000000718,0.014932894101479105
1.184000000000000830,0.014550681473059403
1.185000000000000941,0.014171524857549783
1.186000000000000831,0.013795418379254631
1.187000000000000721,0.013422356062924939
1.188000000000000833,0.013052331835241576
1.189000000000000945,0.012685339526302627
1.190000000000000835,0.012321372871086648
1.191000000000000725,0.011960425510917354
1.192000000000000837,0.011602490994890417
1.193000000000000949,0.011247562781326595
1.194000000000000838,0.010895634239169392
1.195000000000000728,0.010546698649407271
1.196000000000000840,0.010200749206460654
1.197000000000000952,0.009857779019561549
1.198000000000000842,0.009517781114135985
1.199000000000000732,0.009180748433144937
1.200000000000000844,0.008846673838452127
1.201000000000000956,0.008515550112137862
1.202000000000000846,0.008187369957835608
1.203000000000000735,0.007862126002039064
1.204000000000000847,0.007539810795403229
1.205000000000000959,0.007220416814027239
1.206000000000000849,0.006903936460737966
1.207000000000000739,0.006590362066352366
1.208000000000000851,0.006279685890928148
1.209000000000000963,0.005971900125011345
1.210000000000000853,0.005666996890862163
1.211000000000000743,0.005364968243679819
1.212000000000000854,0.005065806172806780
1.213000000000000966,0.004769502602931663
1.214000000000000856,0.004476049395267077
1.215000000000000746,0.004185438348737153
1.216000000000000858,0.003897661201129776
1.217000000000000970,0.003612709630260085
1.218000000000000860,0.003330575255111341
1.219000000000000750,0.003051249636962418
1.220000000000000862,0.002774724280514740
1.221000000000000973,0.002500990635002700
1.222000000000000863,0.002230040095292234
1.223000000000000753,0.001961864002973865
1.224000000000000865,0.001696453647440285
1.225000000000000977,0.001433800266956065
1.226000000000000867,0.001173895049716677
1.227000000000000757,0.000916729134899404
1.228000000000000869,0.000662293613703421
1.229000000000000981,0.000410579530369182
1.230000000000000870,0.000161577883211514
1.231000000000000760,-0.000084720374380967
1.232000000000000872,-0.000328324332950823
1.233000000000000984,-0.000569243125965296
1.234000000000000874,-0.000807485928859673
1.235000000000000764,-0.001043061958049126
1.236000000000000876,-0.001275980469978963
1.237000000000000988,-0.001506250760169632
1.238000000000000878,-0.001733882162278270
1.239000000000000767,-0.001958884047165490
1.240000000000000879,-0.002181265821975575
1.241000000000000991,-0.002401036929220251
1.242000000000000881,-0.002618206845877832
1.243000000000000771,-0.002832785082498836
1.244000000000000883,-0.003044781182318019
1.245000000000000995,-0.003254204720382668
1.246000000000000885,-0.003461065302683189
1.247000000000000774,-0.003665372565293357
1.248000000000000886,-0.003867136173523971
1.249000000000000998,-0.004066365821080581
1.250000000000000888,-0.004263071229234696
1.251000000000000778,-0.004457262145995287
1.252000000000000890,-0.004648948345302020
1.253000000000001002,-0.004838139626210215
1.254000000000000892,-0.005024845812105069
1.255000000000000782,-0.005209076749901885
1.256000000000000894,-0.005390842309273714
1.257000000000001005,-0.005570152381875438
1.258000000000000895,-0.005747016880581907
1.259000000000000785,-0.005921445738730472
1.260000000000000897,-0.006093448909376365
1.261000000000001009,-0.006263036364552658
1.262000000000000899,-0.006430218094537558
1.263000000000000789,-0.006595004107132194
1.264000000000000901,-0.006757404426949347
1.265000000000001013,-0.006917429094698291
1.266000000000000902,-0.007075088166492670
1.267000000000000792,-0.007230391713153481
1.268000000000000904,-0.007383349819529328
1.269000000000001016,-0.007533972583817945
1.270000000000000906,-0.007682270116897700
1.271000000000000796,-0.007828252541666417
1.272000000000000908,-0.007971929992385803
1.273000000000001020,-0.008113312614039657
1.274000000000000909,-0.008252410561690734
1.275000000000000799,-0.008389233999848292
1.276000000000000911,-0.008523793101850188
1.277000000000001023,-0.008656098049237691
1.278000000000000913,-0.008786159031149510
1.279000000000000803,-0.008913986243718832
1.280000000000000915,-0.009039589889479839
1.281000000000001027,-0.009162980176767794
1.282000000000000917,-0.009284167319152332
1.283000000000000806,-0.009403161534849314
1.284000000000000918,-0.009519973046161440
1.285000000000001030,-0.009634612078910141
1.286000000000000920,-0.009747088861885588
1.287000000000000810,-0.009857413626292773
1.288000000000000922,-0.009965596605217990
1.289000000000001034,-0.010071648033085306
1.290000000000000924,-0.010175578145129739
1.291000000000000814,-0.010277397176882936
1.292000000000000925,-0.010377115363642218
1.293000000000001037,-0.010474742939978274
1.294000000000000927,-0.010570290139219935
1.295000000000000817,-0.010663767192958676
1.296000000000000929,-0.010755184330564363
1.297000000000001041,-0.010844551778690726
1.298000000000000931,-0.010931879760807575
1.299000000000000821,-0.011017178496720962
1.300000000000000933,-0.011100458202104918
1.301000000000001044,-0.011181729088049361
1.302000000000000934,-0.011261001360596655
1.303000000000000824,-0.011338285220300146
1.304000000000000936,-0.011413590861770963
1.305000000000001048,-0.011486928473252851
1.306000000000000938,-0.011558308236181808
1.307000000000000828,-0.011627740324762357
1.308000000000000940,-0.011695234905546038
1.309000000000001052,-0.011760802137020694
1.310000000000000941,-0.011824452169196559
1.311000000000000831,-0.011886195143203165
1.312000000000000943,-0.011946041190888119
1.313000000000001055,-0.012004000434434819
1.314000000000000945,-0.012060082985960639
1.315000000000000835,-0.012114298947139512
1.316000000000000947,-0.012166658408828936
1.317000000000001059,-0.012217171450693435
1.318000000000000949,-0.012265848140833223
1.319000000000000838,-0.012312698535433455
1.320000000000000950,-0.012357732678397177
1.321000000000001062,-0.012400960600996169
1.322000000000000952,-0.012442392321526514
1.323000000000000842,-0.012482037844961723
1.324000000000000954,-0.012519907162620964
1.325000000000001066,-0.012556010251830164
1.326000000000000956,-0.012590357075601319
1.327000000000000846,-0.012622957582303035
1.328000000000000957,-0.012653821705348112
1.329000000000001069,-0.012682959362872625
1.330000000000000959,-0.012710380457436535
1.331000000000000849,-0.012736094875711748
1.332000000000000961,-0.012760112488182068
1.333000000000001073,-0.012782443148851696
1.334000000000000963,-0.012803096694954561
1.335000000000000853,-0.012822082946662525
1.336000000000000965,-0.012839411706808754
1.337000000000001076,-0.012855092760606262
1.338000000000000966,-0.012869135875375410
1.339000000000000856,-0.012881550800276110
1.340000000000000968,-0.012892347266038990
1.341000000000001080,-0.012901534984706944
1.342000000000000970,-0.012909123649378134
1.343000000000000860,-0.012915122933953338
1.344000000000000972,-0.012919542492884340
1.345000000000001084,-0.012922391960935892
1.346000000000000973,-0.012923680952935843
1.347000000000000863,-0.012923419063547326
1.348000000000000975,-0.012921615867026698
1.349000000000001087,-0.012918280917001984
1.350000000000000977,-0.012913423746245923
1.351000000000000867,-0.012907053866453402
1.352000000000000979,-0.012899180768019302
1.353000000000001091,-0.012889813919834892
1.354000000000000981,-0.012878962769069937
1.355000000000000870,-0.012866636740965243
1.356000000000000982,-0.012852845238634461
1.357000000000001094,-0.012837597642863552
1.358000000000000984,-0.012820903311909822
1.359000000000000874,-0.012802771581316102
1.360000000000000986,-0.012783211763716528
1.361000000000001098,-0.012762233148658509
1.362000000000000988,-0.012739845002408485
1.363000000000000878,-0.012716056567783934
1.364000000000000989,-0.012690877063977363
1.365000000000001101,-0.012664315686373712
1.366000000000000991,-0.012636381606393654
1.367000000000000881,-0.012607083971323194
1.368000000000000993,-0.012576431904150347
1.369000000000001105,-0.012544434503406088
1.370000000000000995,-0.012511100843009593
1.371000000000000885,-0.012476439972115845
1.372000000000000997,-0.012440460914962525
1.373000000000001108,-0.012403172670729351
1.374000000000000998,-0.012364584213381805
1.375000000000000888,-0.012324704491548190
1.376000000000001000,-0.012283542428367503
1.377000000000001112,-0.012241106921357997
1.378000000000001002,-0.012197406842289463
1.379000000000000892,-0.012152451037049063
1.380000000000001004,-0.012106248325515948
1.381000000000001116,-0.012058807501441818
1.382000000000001005,-0.012010137332323029
1.383000000000000895,-0.011960246559288203
1.384000000000001007,-0.011909143896981682
1.385000000000001119,-0.011856838033448790
1.386000000000001009,-0.011803337630030528
1.387000000000000899,-0.011748651321246358
1.388000000000001011,-0.011692787714706540
1.389000000000001123,-0.011635755390990921
1.390000000000001013,-0.011577562903562790
1.391000000000000902,-0.011518218778665022
1.392000000000001014,-0.011457731515228404
1.393000000000001126,-0.011396109584779563
1.394000000000001016,-0.011333361431351384
1.395000000000000906,-0.011269495471393267
1.396000000000001018,-0.011204520093688469
1.397000000000001130,-0.011138443659271916
1.398000000000001020,-0.011071274501350292
1.399000000000000909,-0.011003020925221410
1.400000000000001021,-0.010933691208201413
1.401000000000001133,-0.010863293599553318
1.402000000000001023,-0.010791836320410593
1.403000000000000913,-0.010719327563710317
1.404000000000001025,-0.010645775494131652
1.405000000000001137,-0.010571188248024489
1.406000000000001027,-0.010495573933348743
1.407000000000000917,-0.010418940629621561
1.408000000000001029,-0.010341296387845082
1.409000000000001140,-0.010262649230463721
1.410000000000001030,-0.010183007151304409
1.411000000000000920,-0.010102378115524627
1.412000000000001032,-0.010020770059560690
1.413000000000001144,-0.009938190891087537
1.414000000000001034,-0.009854648488963013
1.415000000000000924,-0.009770150703187977
1.416000000000001036,-0.009684705354868029
1.417000000000001148,-0.009598320236167844
1.418000000000001037,-0.009511003110274183
1.419000000000000927,-0.009422761711358717
1.420000000000001039,-0.009333603744545393
1.421000000000001151,-0.009243536885879047
1.422000000000001041,-0.009152568782286928
1.423000000000000931,-0.009060707051556677
1.424000000000001043,-0.008967959282307069
1.425000000000001155,-0.008874333033958150
1.426000000000001044,-0.008779835836713032
1.427000000000000934,-0.008684475191531182
1.428000000000001046,-0.008588258570109666
1.429000000000001158,-0.008491193414859837
1.430000000000001048,-0.008393287138897650
1.431000000000000938,-0.008294547126018305
1.432000000000001050,-0.008194980730689758
1.433000000000001162,-0.008094595278036817
1.434000000000001052,-0.007993398063824944
1.435000000000000941,-0.007891396354461828
1.436000000000001053,-0.007788597386976617
1.437000000000001165,-0.007685008369020398
1.438000000000001055,-0.007580636478861862
1.439000000000000945,-0.007475488865378148
1.440000000000001057,-0.007369572648056905
1.441000000000001169,-0.007262894916990935
1.442000000000001059,-0.007155462732882303
1.443000000000000949,-0.007047283127045295
1.444000000000001060,-0.006938363101403331
1.445000000000001172,-0.006828709628497423
1.446000000000001062,-0.006718329651496407
1.447000000000000952,-0.006607230084192589
1.448000000000001064,-0.006495417811021429
1.449000000000001176,-0.006382899687066183
1.450000000000001066,-0.006269682538067517
1.451000000000000956,-0.006155773160437262
1.452000000000001068,-0.006041178321273565
1.453000000000001180,-0.005925904758373544
1.454000000000001069,-0.005809959180247180
1.455000000000000959,-0.005693348266139411
1.456000000000001071,-0.005576078666042403
1.457000000000001183,-0.005458157000720758
1.458000000000001073,-0.005339589861726965
1.459000000000000963,-0.005220383811423790
1.460000000000001075,-0.005100545383011156
1.461000000000001187,-0.004980081080542224
1.462000000000001076,-0.004858997378958621
1.463000000000000966,-0.004737300724104259
1.464000000000001078,-0.004614997532761300
1.465000000000001190,-0.004492094192676263
1.466000000000001080,-0.004368597062583768
1.467000000000000970,-0.004244512472243793
1.468000000000001082,-0.004119846722469106
1.469000000000001194,-0.003994606085154282
1.470000000000001084,-0.003868796803314911
1.471000000000000973,-0.003742425091115219
1.472000000000001085,-0.003615497133909418
1.473000000000001197,-0.003488019088269574
1.474000000000001087,-0.003359997082029080
1.475000000000000977,-0.003231437214314098
1.476000000000001089,-0.003102345555588021
1.477000000000001201,-0.002972728147686941
1.478000000000001091,-0.002842591003858803
1.479000000000000981,-0.002711940108807306
1.480000000000001092,-0.002580781418730700
1.481000000000001204,-0.002449120861367502
1.482000000000001094,-0.002316964336036314
1.483000000000000984,-0.002184317713684659
1.484000000000001096,-0.002051186836928281
1.485000000000001208,-0.001917577520098330
1.486000000000001098,-0.001783495549293116
1.487000000000000988,-0.001648946682418340
1.488000000000001100,-0.001513936649236391
1.489000000000001211,-0.001378471151419508
1.490000000000001101,-0.001242555862595073
1.491000000000000991,-0.001106196428394361
1.492000000000001103,-0.000969398466508032
1.493000000000001215,-0.000832167566734693
1.494000000000001105,-0.000694509291030678
1.495000000000000995,-0.000556429173566904
1.496000000000001107,-0.000417932720781792
1.497000000000001219,-0.000279025411432757
1.498000000000001108,-0.000139712696651787
1.499000000000000998,0.000000000000000000
