# ZnO10m10NBDry_CS-7021-AC
# h[nm],U(h)[kJ/mol]
0.149999999999999994,129.821179329679296188
0.150999999999999995,128.356124106029369614
0.151999999999999996,126.154492418428048950
0.152999999999999997,123.813966723253741975
0.153999999999999998,121.564410088066750859
0.154999999999999999,119.457107831217541616
0.156000000000000000,117.469302890285987928
0.157000000000000001,115.557990089511534393
0.158000000000000002,113.684452008034483583
0.159000000000000002,111.822818363165694677
0.160000000000000003,109.960620782435398723
0.161000000000000004,108.095937595367601602
0.162000000000000005,106.233623481866018778
0.163000000000000006,104.381851609292041871
0.164000000000000007,102.549462046517803060
0.165000000000000008,100.744210666548724475
0.166000000000000009,98.971816701971391694
0.167000000000000010,97.235630130968587537
0.168000000000000010,95.536728682694487702
0.169000000000000011,93.874275522182173859
0.170000000000000012,92.246003056622384975
0.171000000000000013,90.648724815153400414
0.172000000000000014,89.078810362943286805
0.173000000000000015,87.532585319392609335
0.174000000000000016,86.006639221879154888
0.175000000000000017,84.498038663113888447
0.176000000000000018,83.004452739470593770
0.177000000000000018,81.524203426082436863
0.178000000000000019,80.056256052221471009
0.179000000000000020,78.600165474437616808
0.180000000000000021,77.155992565604876177
0.181000000000000022,75.724203826957278807
0.182000000000000023,74.305564713962581891
0.183000000000000024,72.901034948339685116
0.184000000000000025,71.511671870057242018
0.185000000000000026,70.138545888908623738
0.186000000000000026,68.782670390807240324
0.187000000000000027,67.444947062824354589
0.188000000000000028,66.126126518054491044
0.189000000000000029,64.826783303210987697
0.190000000000000030,63.547303824566974129
0.191000000000000031,62.287885392865952383
0.192000000000000032,61.048544425772966804
0.193000000000000033,59.829131819831886219
0.194000000000000034,58.629353578723886642
0.195000000000000034,57.448794931182803225
0.196000000000000035,56.286946365150114957
0.197000000000000036,55.143230224145611373
0.198000000000000037,54.017026741166944248
0.199000000000000038,52.907698612338592170
0.200000000000000039,51.814613427976063065
0.201000000000000040,50.737163476512314730
0.202000000000000041,49.674782612976748908
0.203000000000000042,48.626960036413137800
0.204000000000000042,47.593250949203479649
0.205000000000000043,46.573284176260187905
0.206000000000000044,45.566766904754686607
0.207000000000000045,44.573486767300103395
0.208000000000000046,43.593311535443305615
0.209000000000000047,42.626186718253435970
0.210000000000000048,41.672131375055087688
0.211000000000000049,40.731232454223423645
0.212000000000000050,39.803637963578665904
0.213000000000000050,38.889549264275025564
0.214000000000000051,37.989212760947616232
0.215000000000000052,37.102911237835186853
0.216000000000000053,36.230955064995590931
0.217000000000000054,35.373673471725552986
0.218000000000000055,34.531406056844097918
0.219000000000000056,33.704494678378722483
0.220000000000000057,32.893275839011650419
0.221000000000000058,32.098073658877574132
0.222000000000000058,31.319193504281390261
0.223000000000000059,30.556916319867355014
0.224000000000000060,29.811493692847932380
0.225000000000000061,29.083143661157485838
0.226000000000000062,28.372047262829322989
0.227000000000000063,27.678345811451993796
0.228000000000000064,27.002138872154709759
0.229000000000000065,26.343482904079600360
0.230000000000000066,25.702390528586477103
0.231000000000000066,25.078830377347333780
0.232000000000000067,24.472727470868683497
0.233000000000000068,23.883964075665463866
0.234000000000000069,23.312380987145193245
0.235000000000000070,22.757779185088605090
0.236000000000000071,22.219921809288088355
0.237000000000000072,21.698536404288574886
0.238000000000000073,21.193317384140012649
0.239000000000000073,20.703928670499429643
0.240000000000000074,20.230006460204794649
0.241000000000000075,19.771162081491745255
0.242000000000000076,19.326984901249623761
0.243000000000000077,18.897045249043209481
0.244000000000000078,18.480897326997340002
0.245000000000000079,18.078082077998249844
0.246000000000000080,17.688129987963257861
0.247000000000000081,17.310563801130079753
0.248000000000000081,16.944901130390519484
0.249000000000000082,16.590656947614579764
0.250000000000000111,16.247345941663503766
0.251000000000000112,15.914484734360485163
0.252000000000000113,15.591593947067298842
0.253000000000000114,15.278200112700554669
0.254000000000000115,14.973837430009471205
0.255000000000000115,14.678049358732172536
0.256000000000000116,14.390390055851289830
0.257000000000000117,14.110425654589302980
0.258000000000000118,13.837735389027333355
0.259000000000000119,13.571912568304734137
0.260000000000000120,13.312565405272545505
0.261000000000000121,13.059317705240221841
0.262000000000000122,12.811809421083031779
0.263000000000000123,12.569697081477833933
0.264000000000000123,12.332654099417753812
0.265000000000000124,12.100370968433114882
0.266000000000000125,11.872555354125475802
0.267000000000000126,11.648932088716106747
0.268000000000000127,11.429243076326320860
0.269000000000000128,11.213247116657004909
0.270000000000000129,11.000719654624585786
0.271000000000000130,10.791452463349648028
0.272000000000000131,10.585253267690500678
0.273000000000000131,10.381945315272997021
0.274000000000000132,10.181366901697394667
0.275000000000000133,9.983370856308056318
0.276000000000000134,9.787823994598296551
0.277000000000000135,9.594606542995595788
0.278000000000000136,9.403611541435095589
0.279000000000000137,9.214744228787241198
0.280000000000000138,9.027921415860856058
0.281000000000000139,8.843070850359254109
0.282000000000000139,8.660130577827187537
0.283000000000000140,8.479048302292239825
0.284000000000000141,8.299780749978101113
0.285000000000000142,8.122293039150408234
0.286000000000000143,7.946558058849812589
0.287000000000000144,7.772555858973356990
0.288000000000000145,7.600273053883472407
0.289000000000000146,7.429702241457070144
0.290000000000000147,7.260841439232697425
0.291000000000000147,7.093693539074950039
0.292000000000000148,6.928265781549713509
0.293000000000000149,6.764569250993585747
0.294000000000000150,6.602618392064274921
0.295000000000000151,6.442430548376631982
0.296000000000000152,6.284025523660636381
0.297000000000000153,6.127425165722888423
0.298000000000000154,5.972652973351264549
0.299000000000000155,5.819733726173471844
0.300000000000000155,5.668693137363121970
0.301000000000000156,5.519557528981829719
0.302000000000000157,5.372353529651279658
0.303000000000000158,5.227107794165820387
0.304000000000000159,5.083846744582014132
0.305000000000000160,4.942596332257421565
0.306000000000000161,4.803381820255117951
0.307000000000000162,4.666227585483002649
0.308000000000000163,4.531156939897441838
0.309000000000000163,4.398191970067953704
0.310000000000000164,4.267353394373807340
0.311000000000000165,4.138660437083389709
0.312000000000000166,4.012130718552945119
0.313000000000000167,3.887780160771918680
0.314000000000000168,3.765622907477761405
0.315000000000000169,3.645671258062494591
0.316000000000000170,3.527935614496814587
0.317000000000000171,3.412424440504423728
0.318000000000000171,3.299144232229112905
0.319000000000000172,3.188099499649556634
0.320000000000000173,3.079292758011900943
0.321000000000000174,2.972724528567091795
0.322000000000000175,2.868393347918573699
0.323000000000000176,2.766295785306374544
0.324000000000000177,2.666426467174939141
0.325000000000000178,2.568778108394803805
0.326000000000000179,2.473341549531231642
0.327000000000000179,2.380105799577326930
0.328000000000000180,2.289058083593217496
0.329000000000000181,2.200183894717771427
0.330000000000000182,2.113467050044300688
0.331000000000000183,2.028889749876291670
0.332000000000000184,1.946432639904321915
0.333000000000000185,1.866074875869755179
0.334000000000000186,1.787794190305022735
0.335000000000000187,1.711566960964440387
0.336000000000000187,1.637368280582634839
0.337000000000000188,1.565172027621024364
0.338000000000000189,1.494950937684718983
0.339000000000000190,1.426676675314247245
0.340000000000000191,1.360319905877623858
0.341000000000000192,1.295850367308465589
0.342000000000000193,1.233236941455857494
0.343000000000000194,1.172447724830317117
0.344000000000000195,1.113450098548912859
0.345000000000000195,1.056210797299439008
0.346000000000000196,1.000695977160902750
0.347000000000000197,0.946871282133121661
0.348000000000000198,0.894701909243586613
0.349000000000000199,0.844152672114262037
0.350000000000000200,0.795188062884548130
0.351000000000000201,0.747772312399799244
0.352000000000000202,0.701869448586933897
0.353000000000000203,0.657443352950288551
0.354000000000000203,0.614457815131706386
0.355000000000000204,0.572876585489186296
0.356000000000000205,0.532663425657811329
0.357000000000000206,0.493782157065641769
0.358000000000000207,0.456196707385785882
0.359000000000000208,0.419871154913309730
0.360000000000000209,0.384769770862933347
0.361000000000000210,0.350857059590233888
0.362000000000000210,0.318097796744907013
0.363000000000000211,0.286457065370486486
0.364000000000000212,0.255900289969880901
0.365000000000000213,0.226393268560888261
0.366000000000000214,0.197902202749985878
0.367000000000000215,0.170393725856623574
0.368000000000000216,0.143834929123514310
0.369000000000000217,0.118193386051742524
0.370000000000000218,0.093437174901923825
0.371000000000000218,0.069534899405337081
0.372000000000000219,0.046455707730742105
0.373000000000000220,0.024169309754575118
0.374000000000000221,0.002645992683614695
0.375000000000000222,-0.018143364919404891
0.376000000000000223,-0.038227280656037269
0.377000000000000224,-0.057633657305872485
0.378000000000000225,-0.076389773281166473
0.379000000000000226,-0.094522274469143491
0.380000000000000226,-0.112057167408776470
0.381000000000000227,-0.129019813748529277
0.382000000000000228,-0.145434925931966996
0.383000000000000229,-0.161326564058180300
0.384000000000000230,-0.176718133864419258
0.385000000000000231,-0.191632385778944481
0.386000000000000232,-0.206091414992485955
0.387000000000000233,-0.220116662497680776
0.388000000000000234,-0.233728917046371276
0.389000000000000234,-0.246948317975804965
0.390000000000000235,-0.259794358855448659
0.391000000000000236,-0.272285891907339150
0.392000000000000237,-0.284441133153810477
0.393000000000000238,-0.296277668247639570
0.394000000000000239,-0.307812458940681766
0.395000000000000240,-0.319061850148363413
0.396000000000000241,-0.330041577568515709
0.397000000000000242,-0.340766775814255740
0.398000000000000242,-0.351251987021961143
0.399000000000000243,-0.361511169896466367
0.400000000000000244,-0.371557709157027793
0.401000000000000245,-0.381404425348848608
0.402000000000000246,-0.391063584986039714
0.403000000000000247,-0.400546910993452521
0.404000000000000248,-0.409865593415809637
0.405000000000000249,-0.419030300363974706
0.406000000000000250,-0.428051189169324053
0.407000000000000250,-0.436937917718504543
0.408000000000000251,-0.445699655941984407
0.409000000000000252,-0.454345097431047062
0.410000000000000253,-0.462882471159003495
0.411000000000000254,-0.471319553283584713
0.412000000000000255,-0.479663679008532740
0.413000000000000256,-0.487921754483650438
0.414000000000000257,-0.496100268723396909
0.415000000000000258,-0.504205305525491143
0.416000000000000258,-0.512242555371675845
0.417000000000000259,-0.520217327294062337
0.418000000000000260,-0.528134560691255195
0.419000000000000261,-0.535998837079531110
0.420000000000000262,-0.543814391765134908
0.421000000000000263,-0.551585125424796430
0.422000000000000264,-0.559314615582222063
0.423000000000000265,-0.567006127969338136
0.424000000000000266,-0.574662627761797440
0.425000000000000266,-0.582286790678919086
0.426000000000000267,-0.589881013939176468
0.427000000000000268,-0.597447427062904546
0.428000000000000269,-0.604987902514637299
0.429000000000000270,-0.612504066178199746
0.430000000000000271,-0.619997307658194274
0.431000000000000272,-0.627468790402280985
0.432000000000000273,-0.634919461639070759
0.433000000000000274,-0.642350062127167165
0.434000000000000274,-0.649761135711299898
0.435000000000000275,-0.657153038682055768
0.436000000000000276,-0.664525948936224742
0.437000000000000277,-0.671879874935166876
0.438000000000000278,-0.679214664459095951
0.439000000000000279,-0.686530013155620678
0.440000000000000280,-0.693825472881182348
0.441000000000000281,-0.701100459834478107
0.442000000000000282,-0.708354262481365238
0.443000000000000282,-0.715586049270873770
0.444000000000000283,-0.722794876142551557
0.445000000000000284,-0.729979693825417053
0.446000000000000285,-0.737139354929185586
0.447000000000000286,-0.744272620828780873
0.448000000000000287,-0.751378168343139419
0.449000000000000288,-0.758454596209864884
0.450000000000000289,-0.765500431357215794
0.451000000000000290,-0.772514134975296640
0.452000000000000290,-0.779494108388470330
0.453000000000000291,-0.786438698731078967
0.454000000000000292,-0.793346204428880597
0.455000000000000293,-0.800214880488632985
0.456000000000000294,-0.807042943598427542
0.457000000000000295,-0.813828577041539658
0.458000000000000296,-0.820569935426582076
0.459000000000000297,-0.827265149236954267
0.460000000000000298,-0.833912329202590952
0.461000000000000298,-0.840509570497124159
0.462000000000000299,-0.847054956763670042
0.463000000000000300,-0.853546563972443328
0.464000000000000301,-0.859982464113556055
0.465000000000000302,-0.866360728728311380
0.466000000000000303,-0.872679432282398304
0.467000000000000304,-0.878936655384419119
0.468000000000000305,-0.885130487853171166
0.469000000000000306,-0.891259031637169130
0.470000000000000306,-0.897320403589915494
0.471000000000000307,-0.903312738104321333
0.472000000000000308,-0.909234189609877008
0.473000000000000309,-0.915082934935984915
0.474000000000000310,-0.920857175544946616
0.475000000000000311,-0.926555139638103542
0.476000000000000312,-0.932175084138542998
0.477000000000000313,-0.937715296553844668
0.478000000000000314,-0.943174096722205868
0.479000000000000314,-0.948549838445429616
0.480000000000000315,-0.953840911012010517
0.481000000000000316,-0.959045740613742259
0.482000000000000317,-0.964162791659041729
0.483000000000000318,-0.969190567986291329
0.484000000000000319,-0.974127613980382612
0.485000000000000320,-0.978972515595607717
0.486000000000000321,-0.983723901288045210
0.487000000000000322,-0.988380442860499642
0.488000000000000322,-0.992940856222968349
0.489000000000000323,-0.997403902071711812
0.490000000000000324,-1.001768386489749307
0.491000000000000325,-1.006033161471715953
0.492000000000000326,-1.010197125375850380
0.493000000000000327,-1.014259223305939539
0.494000000000000328,-1.018218447425869089
0.495000000000000329,-1.022073837209495739
0.496000000000000330,-1.025824479628371755
0.497000000000000330,-1.029469509279987705
0.498000000000000331,-1.033008108458852270
0.499000000000000332,-1.036439507173025465
0.500000000000000333,-1.039762983108378336
0.501000000000000334,-1.042977861542899953
0.502000000000000335,-1.046083515213392268
0.503000000000000336,-1.049079364136694448
0.504000000000000337,-1.051964875387640053
0.505000000000000338,-1.054739562835814493
0.506000000000000338,-1.057402986843189341
0.507000000000000339,-1.059954753924626791
0.508000000000000340,-1.062394516373137421
0.509000000000000341,-1.064721971851888327
0.510000000000000342,-1.066936862954661391
0.511000000000000343,-1.069038976736659041
0.512000000000000344,-1.071028144217300859
0.513000000000000345,-1.072904239856720343
0.514000000000000346,-1.074667181007637140
0.515000000000000346,-1.076316927344071361
0.516000000000000347,-1.077853480268518238
0.517000000000000348,-1.079276882299060825
0.518000000000000349,-1.080587216437768561
0.519000000000000350,-1.081784605521885378
0.520000000000000351,-1.082869211559026379
0.521000000000000352,-1.083841235047799501
0.522000000000000353,-1.084700914284973949
0.523000000000000353,-1.085448524660503233
0.524000000000000354,-1.086084377941521684
0.525000000000000355,-1.086608821546440229
0.526000000000000356,-1.087022237810198133
0.527000000000000357,-1.087325043241776701
0.528000000000000358,-1.087517687774899766
0.529000000000000359,-1.087600654012942147
0.530000000000000360,-1.087574456468913819
0.531000000000000361,-1.087439640801472596
0.532000000000000361,-1.087196783047770676
0.533000000000000362,-1.086846488853960402
0.534000000000000363,-1.086389392704150580
0.535000000000000364,-1.085826157148579885
0.536000000000000365,-1.085157472031664572
0.537000000000000366,-1.084384053720698571
0.538000000000000367,-1.083506644335742397
0.539000000000000368,-1.082526010981469833
0.540000000000000369,-1.081442944981414467
0.541000000000000369,-1.080258261115328633
0.542000000000000370,-1.078972796860060646
0.543000000000000371,-1.077587411634572945
0.544000000000000372,-1.076102986049517041
0.545000000000000373,-1.074520421161872630
0.546000000000000374,-1.072840637735045899
0.547000000000000375,-1.071064575504863781
0.548000000000000376,-1.069193192451872720
0.549000000000000377,-1.067227464080260813
0.550000000000000377,-1.065168382703802985
0.551000000000000378,-1.063016956739092578
0.552000000000000379,-1.060774210006445895
0.553000000000000380,-1.058441181038680901
0.554000000000000381,-1.056018922398072490
0.555000000000000382,-1.053508500001781867
0.556000000000000383,-1.050910992455859505
0.557000000000000384,-1.048227490398203177
0.558000000000000385,-1.045459095850504339
0.559000000000000385,-1.042606921579487089
0.560000000000000386,-1.039672090467536725
0.561000000000000387,-1.036655734892890646
0.562000000000000388,-1.033558996119511075
0.563000000000000389,-1.030383023696800571
0.564000000000000390,-1.027128974869211175
0.565000000000000391,-1.023798013995899092
0.566000000000000392,-1.020391311980457738
0.567000000000000393,-1.016910045710865518
0.568000000000000393,-1.013355397509622779
0.569000000000000394,-1.009728554594206074
0.570000000000000395,-1.006030708547853703
0.571000000000000396,-1.002263054800665021
0.572000000000000397,-0.998426792121134055
0.573000000000000398,-0.994523122118013303
0.574000000000000399,-0.990553248752613746
0.575000000000000400,-0.986518377861447804
0.576000000000000401,-0.982419716689248879
0.577000000000000401,-0.978258473432370934
0.578000000000000402,-0.974035856792462296
0.579000000000000403,-0.969753075540425002
0.580000000000000404,-0.965411338090655158
0.581000000000000405,-0.961011852085418838
0.582000000000000406,-0.956555823989407528
0.583000000000000407,-0.952044458694337292
0.584000000000000408,-0.947478959133586707
0.585000000000000409,-0.942860525906755953
0.586000000000000409,-0.938190356914091139
0.587000000000000410,-0.933469647000723102
0.588000000000000411,-0.928699587610555932
0.589000000000000412,-0.923881366449834651
0.590000000000000413,-0.919016167160180308
0.591000000000000414,-0.914105169001080853
0.592000000000000415,-0.909149546541722642
0.593000000000000416,-0.904150469362022036
0.594000000000000417,-0.899109101762793017
0.595000000000000417,-0.894026602484976451
0.596000000000000418,-0.888904124437691734
0.597000000000000419,-0.883742814435189317
0.598000000000000420,-0.878543812942399804
0.599000000000000421,-0.873308253829127024
0.600000000000000422,-0.868037264132646591
0.601000000000000423,-0.862731963828659354
0.602000000000000424,-0.857393465610465810
0.603000000000000425,-0.852022874676242603
0.604000000000000425,-0.846621288524265103
0.605000000000000426,-0.841189796756008912
0.606000000000000427,-0.835729480886997500
0.607000000000000428,-0.830241414165171165
0.608000000000000429,-0.824726661396865568
0.609000000000000430,-0.819186278780008825
0.610000000000000431,-0.813621313744654961
0.611000000000000432,-0.808032804800560056
0.612000000000000433,-0.802421781391746469
0.613000000000000433,-0.796789263757940680
0.614000000000000434,-0.791136262802720869
0.615000000000000435,-0.785463779968253339
0.616000000000000436,-0.779772807116512978
0.617000000000000437,-0.774064326416879611
0.618000000000000438,-0.768339310239929185
0.619000000000000439,-0.762598721057314410
0.620000000000000440,-0.756843511347667364
0.621000000000000441,-0.751074623508323436
0.622000000000000441,-0.745292989772794789
0.623000000000000442,-0.739499532133836235
0.624000000000000443,-0.733695162272018364
0.625000000000000444,-0.727880781489678497
0.626000000000000445,-0.722057280650092226
0.627000000000000446,-0.716225540121814053
0.628000000000000447,-0.710386429728017021
0.629000000000000448,-0.704540808700739207
0.630000000000000449,-0.698689525639902831
0.631000000000000449,-0.692833418477026841
0.632000000000000450,-0.686973314443485306
0.633000000000000451,-0.681110030043231118
0.634000000000000452,-0.675244371029825041
0.635000000000000453,-0.669377132387737439
0.636000000000000454,-0.663509098317727863
0.637000000000000455,-0.657641042226284833
0.638000000000000456,-0.651773726718935298
0.639000000000000457,-0.645907903597377486
0.640000000000000457,-0.640044313860338887
0.641000000000000458,-0.634183687707982502
0.642000000000000459,-0.628326744549887017
0.643000000000000460,-0.622474193016362198
0.644000000000000461,-0.616626730973123260
0.645000000000000462,-0.610785045539156357
0.646000000000000463,-0.604949813107692580
0.647000000000000464,-0.599121699370224636
0.648000000000000465,-0.593301359343453849
0.649000000000000465,-0.587489437399068892
0.650000000000000466,-0.581686567296300749
0.651000000000000467,-0.575893372217117561
0.652000000000000468,-0.570110464804033379
0.653000000000000469,-0.564338447200377180
0.654000000000000470,-0.558577911093021795
0.655000000000000471,-0.552829437757415554
0.656000000000000472,-0.547093598104871792
0.657000000000000473,-0.541370952732033839
0.658000000000000473,-0.535662051972455755
0.659000000000000474,-0.529967435950180477
0.660000000000000475,-0.524287634635286603
0.661000000000000476,-0.518623167901282933
0.662000000000000477,-0.512974545584343855
0.663000000000000478,-0.507342267544237835
0.664000000000000479,-0.501726823726966198
0.665000000000000480,-0.496128694228932854
0.666000000000000481,-0.490548349362728509
0.667000000000000481,-0.484986249724288165
0.668000000000000482,-0.479442846261542432
0.669000000000000483,-0.473918580344329321
0.670000000000000484,-0.468413883835635037
0.671000000000000485,-0.462929179164039251
0.672000000000000486,-0.457464879397302127
0.673000000000000487,-0.452021388317101702
0.674000000000000488,-0.446599100494763923
0.675000000000000488,-0.441198401368013027
0.676000000000000489,-0.435819667318684434
0.677000000000000490,-0.430463265751270474
0.678000000000000491,-0.425129555172348073
0.679000000000000492,-0.419818885270779263
0.680000000000000493,-0.414531596998636342
0.681000000000000494,-0.409268022652841679
0.682000000000000495,-0.404028485957422467
0.683000000000000496,-0.398813302146396764
0.684000000000000496,-0.393622778047186039
0.685000000000000497,-0.388457212164549148
0.686000000000000498,-0.383316894764996752
0.687000000000000499,-0.378202107961613243
0.688000000000000500,-0.373113125799275580
0.689000000000000501,-0.368050214340227499
0.690000000000000502,-0.363013631749965371
0.691000000000000503,-0.358003628383389394
0.692000000000000504,-0.353020446871183280
0.693000000000000504,-0.348064322206448007
0.694000000000000505,-0.343135481831425282
0.695000000000000506,-0.338234145724438884
0.696000000000000507,-0.333360526486885023
0.697000000000000508,-0.328514829430311295
0.698000000000000509,-0.323697252663555701
0.699000000000000510,-0.318907987179872121
0.700000000000000511,-0.314147216944056784
0.701000000000000512,-0.309415118979531001
0.702000000000000512,-0.304711863455344845
0.703000000000000513,-0.300037613773093959
0.704000000000000514,-0.295392526653711796
0.705000000000000515,-0.290776752224112367
0.706000000000000516,-0.286190434103667291
0.707000000000000517,-0.281633709490494710
0.708000000000000518,-0.277106709247502914
0.709000000000000519,-0.272609557988259976
0.710000000000000520,-0.268142374162529673
0.711000000000000520,-0.263705270141588455
0.712000000000000521,-0.259298352303217461
0.713000000000000522,-0.254921721116372790
0.714000000000000523,-0.250575471225555013
0.715000000000000524,-0.246259691534780251
0.716000000000000525,-0.241974465291227292
0.717000000000000526,-0.237719870168472402
0.718000000000000527,-0.233495978349323285
0.719000000000000528,-0.229302856608245870
0.720000000000000528,-0.225140566393384145
0.721000000000000529,-0.221009163908071654
0.722000000000000530,-0.216908700191963760
0.723000000000000531,-0.212839221201632206
0.724000000000000532,-0.208800767890725908
0.725000000000000533,-0.204793376289621631
0.726000000000000534,-0.200817077584547699
0.727000000000000535,-0.196871898196229383
0.728000000000000536,-0.192957859857978781
0.729000000000000536,-0.189074979693258538
0.730000000000000537,-0.185223270292713460
0.731000000000000538,-0.181402739790618245
0.732000000000000539,-0.177613391940790677
0.733000000000000540,-0.173855226191919843
0.734000000000000541,-0.170128237762323359
0.735000000000000542,-0.166432417714099279
0.736000000000000543,-0.162767753026728440
0.737000000000000544,-0.159134226670021806
0.738000000000000544,-0.155531817676520745
0.739000000000000545,-0.151960501213240506
0.740000000000000546,-0.148420248652824938
0.741000000000000547,-0.144911027644061968
0.742000000000000548,-0.141432802181820971
0.743000000000000549,-0.137985532676281220
0.744000000000000550,-0.134569176021596459
0.745000000000000551,-0.131183685663895877
0.746000000000000552,-0.127829011668648962
0.747000000000000552,-0.124505100787387551
0.748000000000000553,-0.121211896523779214
0.749000000000000554,-0.117949339199053926
0.750000000000000555,-0.114717366016792249
0.751000000000000556,-0.111515911127038445
0.752000000000000557,-0.108344905689799639
0.753000000000000558,-0.105204277937827023
0.754000000000000559,-0.102093953238817675
0.755000000000000560,-0.099013854156896550
0.756000000000000560,-0.095963900513490782
0.757000000000000561,-0.092944009447499212
0.758000000000000562,-0.089954095474833504
0.759000000000000563,-0.086994070547310370
0.760000000000000564,-0.084063844110860875
0.761000000000000565,-0.081163323163097087
0.762000000000000566,-0.078292412310220189
0.763000000000000567,-0.075451013823276861
0.764000000000000568,-0.072639027693745820
0.765000000000000568,-0.069856351688506069
0.766000000000000569,-0.067102881404108222
0.767000000000000570,-0.064378510320440341
0.768000000000000571,-0.061683129853697359
0.769000000000000572,-0.059016629408754115
0.770000000000000573,-0.056378896430856494
0.771000000000000574,-0.053769816456689420
0.772000000000000575,-0.051189273164800410
0.773000000000000576,-0.048637148425374706
0.774000000000000576,-0.046113322349391452
0.775000000000000577,-0.043617673337143496
0.776000000000000578,-0.041150078126109269
0.777000000000000579,-0.038710411838235335
0.778000000000000580,-0.036298548026549672
0.779000000000000581,-0.033914358721193041
0.780000000000000582,-0.031557714474800991
0.781000000000000583,-0.029228484407306160
0.782000000000000584,-0.026926536250095091
0.783000000000000584,-0.024651736389576337
0.784000000000000585,-0.022403949910149931
0.785000000000000586,-0.020183040636552400
0.786000000000000587,-0.017988871175638920
0.787000000000000588,-0.015821302957542742
0.788000000000000589,-0.013680196276254867
0.789000000000000590,-0.011565410329638898
0.790000000000000591,-0.009476803258830496
0.791000000000000592,-0.007414232187086306
0.792000000000000592,-0.005377553258051007
0.793000000000000593,-0.003366621673450201
0.794000000000000594,-0.001381291730231884
0.795000000000000595,0.000578583142855313
0.796000000000000596,0.002513150349260940
0.797000000000000597,0.004422558089146061
0.798000000000000598,0.006306955324469596
0.799000000000000599,0.008166491744619286
0.800000000000000600,0.010001317732551782
0.801000000000000600,0.011811584331505384
0.802000000000000601,0.013597443212214941
0.803000000000000602,0.015359046640659832
0.804000000000000603,0.017096547446328516
0.805000000000000604,0.018810098990996151
0.806000000000000605,0.020499855138037842
0.807000000000000606,0.022165970222200269
0.808000000000000607,0.023808599019921429
0.809000000000000608,0.025427896720123022
0.810000000000000608,0.027024018895481096
0.811000000000000609,0.028597121474240161
0.812000000000000610,0.030147360712425648
0.813000000000000611,0.031674893166618021
0.814000000000000612,0.033179875667144546
0.815000000000000613,0.034662465291747636
0.816000000000000614,0.036122819339745683
0.817000000000000615,0.037561095306625221
0.818000000000000616,0.038977450859084280
0.819000000000000616,0.040372043810546883
0.820000000000000617,0.041745032097114332
0.821000000000000618,0.043096573753943421
0.822000000000000619,0.044426826892064189
0.823000000000000620,0.045735949675646946
0.824000000000000621,0.047024100299679870
0.825000000000000622,0.048291436968058238
0.826000000000000623,0.049538117872105769
0.827000000000000624,0.050764301169508322
0.828000000000000624,0.051970144963635702
0.829000000000000625,0.053155807283298863
0.830000000000000626,0.054321446062866117
0.831000000000000627,0.055467219122801462
0.832000000000000628,0.056593284150573533
0.833000000000000629,0.057699798681965855
0.834000000000000630,0.058786920082750757
0.835000000000000631,0.059854805530745805
0.836000000000000631,0.060903611998239481
0.837000000000000632,0.061933496234775363
0.838000000000000633,0.062944614750317707
0.839000000000000634,0.063937123798751383
0.840000000000000635,0.064911179361739096
0.841000000000000636,0.065866937132947126
0.842000000000000637,0.066804552502577594
0.843000000000000638,0.067724180542277371
0.844000000000000639,0.068625975990358218
0.845000000000000639,0.069510093237352674
0.846000000000000640,0.070376686311911810
0.847000000000000641,0.071225908866985585
0.848000000000000642,0.072057914166373416
0.849000000000000643,0.072872855071555762
0.850000000000000644,0.073670884028820730
0.851000000000000645,0.074452153056747156
0.852000000000000646,0.075216813733939528
0.853000000000000647,0.075965017187079070
0.854000000000000647,0.076696914079279171
0.855000000000000648,0.077412654598710468
0.856000000000000649,0.078112388447517667
0.857000000000000650,0.078796264831018342
0.858000000000000651,0.079464432447187622
0.859000000000000652,0.080117039476403001
0.860000000000000653,0.080754233571451950
0.861000000000000654,0.081376161847842285
0.862000000000000655,0.081982970874318342
0.863000000000000655,0.082574806663690478
0.864000000000000656,0.083151814663873530
0.865000000000000657,0.083714139749215821
0.866000000000000658,0.084261926212038277
0.867000000000000659,0.084795317754432886
0.868000000000000660,0.085314457480316394
0.869000000000000661,0.085819487887694071
0.870000000000000662,0.086310550861169594
0.871000000000000663,0.086787787664670060
0.872000000000000663,0.087251338934428727
0.873000000000000664,0.087701344672148934
0.874000000000000665,0.088137944238417185
0.875000000000000666,0.088561276346313181
0.876000000000000667,0.088971479055242997
0.877000000000000668,0.089368689764977693
0.878000000000000669,0.089753045209887888
0.879000000000000670,0.090124681453401162
0.880000000000000671,0.090483733882630146
0.881000000000000671,0.090830337203230763
0.882000000000000672,0.091164625434412477
0.883000000000000673,0.091486731904177471
0.884000000000000674,0.091796789244711657
0.885000000000000675,0.092094929387991104
0.886000000000000676,0.092381283561539490
0.887000000000000677,0.092655982284378852
0.888000000000000678,0.092919155363160838
0.889000000000000679,0.093170931888445885
0.890000000000000679,0.093411440231174120
0.891000000000000680,0.093640808039286400
0.892000000000000681,0.093859162234517332
0.893000000000000682,0.094066629009346842
0.894000000000000683,0.094263333824106926
0.895000000000000684,0.094449401404237826
0.896000000000000685,0.094624955737703478
0.897000000000000686,0.094790120072559686
0.898000000000000687,0.094945016914652236
0.899000000000000687,0.095089768025477833
0.900000000000000688,0.095224494420174360
0.901000000000000689,0.095349316365654427
0.902000000000000690,0.095464353378870895
0.903000000000000691,0.095569724225222433
0.904000000000000692,0.095665546917085481
0.905000000000000693,0.095751938712479279
0.906000000000000694,0.095829016113845686
0.907000000000000695,0.095896894866977361
0.908000000000000695,0.095955689960034965
0.909000000000000696,0.096005515622717585
0.910000000000000697,0.096046485325517988
0.911000000000000698,0.096078711779121806
0.912000000000000699,0.096102306933900164
0.913000000000000700,0.096117381979511696
0.914000000000000701,0.096124047344638988
0.915000000000000702,0.096122412696792531
0.916000000000000703,0.096112586942249334
0.917000000000000703,0.096094678226078548
0.918000000000000704,0.096068793932270483
0.919000000000000705,0.096035040683969813
0.920000000000000706,0.095993524343790021
0.921000000000000707,0.095944350014236540
0.922000000000000708,0.095887622038219905
0.923000000000000709,0.095823443999639768
0.924000000000000710,0.095751918724090057
0.925000000000000711,0.095673148279621659
0.926000000000000711,0.095587233977605698
0.927000000000000712,0.095494276373670833
0.928000000000000713,0.095394375268733247
0.929000000000000714,0.095287629710077856
0.930000000000000715,0.095174137992559943
0.931000000000000716,0.095053997659848566
0.932000000000000717,0.094927305505747100
0.933000000000000718,0.094794157575606830
0.934000000000000719,0.094654649167787208
0.935000000000000719,0.094508874835196641
0.936000000000000720,0.094356928386905903
0.937000000000000721,0.094198902889814556
0.938000000000000722,0.094034890670385951
0.939000000000000723,0.093864983316453501
0.940000000000000724,0.093689271679079769
0.941000000000000725,0.093507845874472695
0.942000000000000726,0.093320795285964792
0.943000000000000727,0.093128208566056830
0.944000000000000727,0.092930173638498134
0.945000000000000728,0.092726777700434179
0.946000000000000729,0.092518107224614690
0.947000000000000730,0.092304247961623065
0.948000000000000731,0.092085284942196144
0.949000000000000732,0.091861302479551932
0.950000000000000733,0.091632384171804970
0.951000000000000734,0.091398612904381490
0.952000000000000735,0.091160070852525393
0.953000000000000735,0.090916839483823217
0.954000000000000736,0.090668999560767488
0.955000000000000737,0.090416631143378945
0.956000000000000738,0.090159813591849686
0.957000000000000739,0.089898625569239263
0.958000000000000740,0.089633145044202236
0.959000000000000741,0.089363449293756753
0.960000000000000742,0.089089614906076031
0.961000000000000743,0.088811717783331245
0.962000000000000743,0.088529833144559242
0.963000000000000744,0.088244035528560263
0.964000000000000745,0.087954398796824318
0.965000000000000746,0.087660996136504993
0.966000000000000747,0.087363900063396185
0.967000000000000748,0.087063182424965593
0.968000000000000749,0.086758914403384430
0.969000000000000750,0.086451166518614939
0.970000000000000751,0.086140008631491849
0.971000000000000751,0.085825509946857642
0.972000000000000752,0.085507739016709217
0.973000000000000753,0.085186763743344635
0.974000000000000754,0.084862651382577786
0.975000000000000755,0.084535468546932488
0.976000000000000756,0.084205281208878394
0.977000000000000757,0.083872154704080576
0.978000000000000758,0.083536153734669494
0.979000000000000759,0.083197342372512667
0.980000000000000759,0.082855784062537310
0.981000000000000760,0.082511541626034038
0.982000000000000761,0.082164677263987837
0.983000000000000762,0.081815252560435772
0.984000000000000763,0.081463328485827352
0.985000000000000764,0.081108965400384786
0.986000000000000765,0.080752223057506456
0.987000000000000766,0.080393160607156774
0.988000000000000766,0.080031836599277859
0.989000000000000767,0.079668308987205144
0.990000000000000768,0.079302635131095006
0.991000000000000769,0.078934871801372514
0.992000000000000770,0.078565075182172581
0.993000000000000771,0.078193300874782573
0.994000000000000772,0.077819603901125897
0.995000000000000773,0.077444038707204704
0.996000000000000774,0.077066659166594997
0.997000000000000774,0.076687518583910055
0.998000000000000775,0.076306669698292515
0.999000000000000776,0.075924164686899137
1.000000000000000666,0.075540055168392420
1.001000000000000778,0.075154392206434412
1.002000000000000668,0.074767226313186080
1.003000000000000780,0.074378607452806667
1.004000000000000670,0.073988585044954105
1.005000000000000782,0.073597207968285241
1.006000000000000671,0.073204524563959872
1.007000000000000783,0.072810582639147414
1.008000000000000673,0.072415429470524942
1.009000000000000785,0.072019111807782338
1.010000000000000675,0.071621675877122912
1.011000000000000787,0.071223167384762823
1.012000000000000677,0.070823631520426505
1.013000000000000789,0.070423112960842790
1.014000000000000679,0.070021655873243521
1.015000000000000790,0.069619303918841940
1.016000000000000680,0.069216100256323285
1.017000000000000792,0.068812087545327943
1.018000000000000682,0.068407307949929594
1.019000000000000794,0.068001803142103218
1.020000000000000684,0.067595614305192925
1.021000000000000796,0.067188782137377306
1.022000000000000686,0.066781346855127599
1.023000000000000798,0.066373348196649265
1.024000000000000687,0.065964825425338325
1.025000000000000799,0.065555817333207811
1.026000000000000689,0.065146362244322048
1.027000000000000801,0.064736498018221997
1.028000000000000691,0.064326262053337718
1.029000000000000803,0.063915691290395676
1.030000000000000693,0.063504822215824597
1.031000000000000805,0.063093690865132904
1.032000000000000695,0.062682332826306864
1.033000000000000806,0.062270783243173235
1.034000000000000696,0.061859076818764701
1.035000000000000808,0.061447247818681119
1.036000000000000698,0.061035330074432091
1.037000000000000810,0.060623356986760038
1.038000000000000700,0.060211361528984632
1.039000000000000812,0.059799376250308622
1.040000000000000702,0.059387433279115942
1.041000000000000814,0.058975564326271976
1.042000000000000703,0.058563800688412160
1.043000000000000815,0.058152173251198945
1.044000000000000705,0.057740712492587346
1.045000000000000817,0.057329448486083776
1.046000000000000707,0.056918410903965322
1.047000000000000819,0.056507629020513483
1.048000000000000709,0.056097131715230383
1.049000000000000821,0.055686947476029848
1.050000000000000711,0.055277104402435127
1.051000000000000822,0.054867630208744279
1.052000000000000712,0.054458552227203472
1.053000000000000824,0.054049897411148448
1.054000000000000714,0.053641692338145287
1.055000000000000826,0.053233963213114376
1.056000000000000716,0.052826735871438123
1.057000000000000828,0.052420035782060538
1.058000000000000718,0.052013888050572901
1.059000000000000830,0.051608317422279518
1.060000000000000719,0.051203348285254822
1.061000000000000831,0.050799004673388812
1.062000000000000721,0.050395310269416002
1.063000000000000833,0.049992288407918396
1.064000000000000723,0.049589962078344194
1.065000000000000835,0.049188353927981973
1.066000000000000725,0.048787486264929056
1.067000000000000837,0.048387381061067505
1.068000000000000727,0.047988059954978832
1.069000000000000838,0.047589544254900529
1.070000000000000728,0.047191854941619149
1.071000000000000840,0.046795012671380393
1.072000000000000730,0.046399037778766049
1.073000000000000842,0.046003950279565962
1.074000000000000732,0.045609769873640273
1.075000000000000844,0.045216515947743931
1.076000000000000734,0.044824207578358602
1.077000000000000846,0.044432863534506185
1.078000000000000735,0.044042502280532587
1.079000000000000847,0.043653141978899378
1.080000000000000737,0.043264800492929245
1.081000000000000849,0.042877495389573882
1.082000000000000739,0.042491243942136762
1.083000000000000851,0.042106063132989771
1.084000000000000741,0.041721969656276968
1.085000000000000853,0.041338979920606089
1.086000000000000743,0.040957110051716664
1.087000000000000854,0.040576375895131134
1.088000000000000744,0.040196793018800567
1.089000000000000856,0.039818376715731407
1.090000000000000746,0.039441142006593564
1.091000000000000858,0.039065103642307697
1.092000000000000748,0.038690276106634898
1.093000000000000860,0.038316673618727079
1.094000000000000750,0.037944310135689482
1.095000000000000862,0.037573199355096148
1.096000000000000751,0.037203354717514507
1.097000000000000863,0.036834789409011637
1.098000000000000753,0.036467516363624948
1.099000000000000865,0.036101548265839764
1.100000000000000755,0.035736897553047875
1.101000000000000867,0.035373576417976185
1.102000000000000757,0.035011596811115653
1.103000000000000869,0.034650970443121577
1.104000000000000759,0.034291708787218433
1.105000000000000870,0.033933823081558144
1.106000000000000760,0.033577324331600544
1.107000000000000872,0.033222223312439902
1.108000000000000762,0.032868530571144847
1.109000000000000874,0.032516256429068011
1.110000000000000764,0.032165410984151176
1.111000000000000876,0.031816004113203726
1.112000000000000766,0.031468045474169488
1.113000000000000878,0.031121544508380932
1.114000000000000767,0.030776510442795425
1.115000000000000879,0.030432952292221753
1.116000000000000769,0.030090878861521030
1.117000000000000881,0.029750298747800739
1.118000000000000771,0.029411220342590794
1.119000000000000883,0.029073651834003421
1.120000000000000773,0.028737601208878839
1.121000000000000885,0.028403076254917798
1.122000000000000774,0.028070084562798740
1.123000000000000886,0.027738633528275731
1.124000000000000776,0.027408730354257903
1.125000000000000888,0.027080382052897277
1.126000000000000778,0.026753595447629924
1.127000000000000890,0.026428377175215224
1.128000000000000780,0.026104733687777930
1.129000000000000892,0.025782671254803335
1.130000000000000782,0.025462195965139767
1.131000000000000894,0.025143313728984717
1.132000000000000783,0.024826030279846992
1.133000000000000895,0.024510351176494763
1.134000000000000785,0.024196281804912019
1.135000000000000897,0.023883827380196156
1.136000000000000787,0.023572992948490905
1.137000000000000899,0.023263783388864586
1.138000000000000789,0.022956203415205743
1.139000000000000901,0.022650257578069426
1.140000000000000790,0.022345950266545407
1.141000000000000902,0.022043285710096627
1.142000000000000792,0.021742267980370884
1.143000000000000904,0.021442900993020219
1.144000000000000794,0.021145188509486820
1.145000000000000906,0.020849134138803703
1.146000000000000796,0.020554741339337247
1.147000000000000908,0.020262013420559603
1.148000000000000798,0.019970953544783294
1.149000000000000909,0.019681564728883487
1.150000000000000799,0.019393849846021601
1.151000000000000689,0.019107811627332012
1.152000000000000801,0.018823452663614147
1.153000000000000913,0.018540775407002753
1.154000000000000803,0.018259782172629670
1.155000000000000693,0.017980475140267370
1.156000000000000805,0.017702856355955181
1.157000000000000917,0.017426927733632816
1.158000000000000806,0.017152691056728023
1.159000000000000696,0.016880147979762415
1.160000000000000808,0.016609300029927047
1.161000000000000920,0.016340148608647343
1.162000000000000810,0.016072694993135135
1.163000000000000700,0.015806940337936590
1.164000000000000812,0.015542885676450759
1.165000000000000924,0.015280531922456939
1.166000000000000814,0.015019879871601968
1.167000000000000703,0.014760930202905490
1.168000000000000815,0.014503683480222606
1.169000000000000927,0.014248140153724725
1.170000000000000817,0.013994300561337764
1.171000000000000707,0.013742164930194719
1.172000000000000819,0.013491733378050538
1.173000000000000931,0.013243005914710004
1.174000000000000821,0.012995982443427182
1.175000000000000711,0.012750662762294232
1.176000000000000822,0.012507046565623098
1.177000000000000934,0.012265133445315948
1.178000000000000824,0.012024922892214568
1.179000000000000714,0.011786414297455302
1.180000000000000826,0.011549606953785476
1.181000000000000938,0.011314500056901969
1.182000000000000828,0.011081092706747555
1.183000000000000718,0.010849383908809693
1.184000000000000830,0.010619372575412855
1.185000000000000941,0.010391057526991519
1.186000000000000831,0.010164437493346768
1.187000000000000721,0.009939511114909602
1.188000000000000833,0.009716276943970306
1.189000000000000945,0.009494733445917631
1.190000000000000835,0.009274879000449565
1.191000000000000725,0.009056711902794213
1.192000000000000837,0.008840230364883721
1.193000000000000949,0.008625432516569932
1.194000000000000838,0.008412316406772286
1.195000000000000728,0.008200880004661723
1.196000000000000840,0.007991121200805362
1.197000000000000952,0.007783037808306773
1.198000000000000842,0.007576627563952595
1.199000000000000732,0.007371888129313111
1.200000000000000844,0.007168817091883564
1.201000000000000956,0.006967411966155418
1.202000000000000846,0.006767670194727443
1.203000000000000735,0.006569589149380084
1.204000000000000847,0.006373166132152145
1.205000000000000959,0.006178398376388361
1.206000000000000849,0.005985283047806678
1.207000000000000739,0.005793817245531319
1.208000000000000851,0.005603998003122871
1.209000000000000963,0.005415822289605046
1.210000000000000853,0.005229287010469499
1.211000000000000743,0.005044389008687056
1.212000000000000854,0.004861125065690555
1.213000000000000966,0.004679491902369543
1.214000000000000856,0.004499486180027901
1.215000000000000746,0.004321104501367007
1.216000000000000858,0.004144343411422008
1.217000000000000970,0.003969199398522721
1.218000000000000860,0.003795668895222979
1.219000000000000750,0.003623748279227204
1.220000000000000862,0.003453433874309656
1.221000000000000973,0.003284721951227248
1.222000000000000863,0.003117608728613397
1.223000000000000753,0.002952090373877150
1.224000000000000865,0.002788163004078587
1.225000000000000977,0.002625822686806348
1.226000000000000867,0.002465065441041206
1.227000000000000757,0.002305887238015691
1.228000000000000869,0.002148284002062589
1.229000000000000981,0.001992251611442278
1.230000000000000870,0.001837785899195496
1.231000000000000760,0.001684882653947944
1.232000000000000872,0.001533537620724343
1.233000000000000984,0.001383746501776451
1.234000000000000874,0.001235504957349465
1.235000000000000764,0.001088808606497721
1.236000000000000876,0.000943653027851568
1.237000000000000988,0.000800033760399166
1.238000000000000878,0.000657946304244711
1.239000000000000767,0.000517386121374858
1.240000000000000879,0.000378348636400538
1.241000000000000991,0.000240829237304868
1.242000000000000881,0.000104823276175658
1.243000000000000771,-0.000029673930068544
1.244000000000000883,-0.000162667098955199
1.245000000000000995,-0.000294160981754063
1.246000000000000885,-0.000424160362765946
1.247000000000000774,-0.000552670058626203
1.248000000000000886,-0.000679694917619753
1.249000000000000998,-0.000805239818993847
1.250000000000000888,-0.000929309672289380
1.251000000000000778,-0.001051909416665668
1.252000000000000890,-0.001173044020247799
1.253000000000001002,-0.001292718479463179
1.254000000000000892,-0.001410937818408697
1.255000000000000782,-0.001527707088197600
1.256000000000000894,-0.001643031366335700
1.257000000000001005,-0.001756915756092928
1.258000000000000895,-0.001869365385885438
1.259000000000000785,-0.001980385408660709
1.260000000000000897,-0.002089981001295854
1.261000000000001009,-0.002198157363997971
1.262000000000000899,-0.002304919719709259
1.263000000000000789,-0.002410273313523287
1.264000000000000901,-0.002514223412110077
1.265000000000001013,-0.002616775303134028
1.266000000000000902,-0.002717934294696643
1.267000000000000792,-0.002817705714770352
1.268000000000000904,-0.002916094910649877
1.269000000000001016,-0.003013107248399849
1.270000000000000906,-0.003108748112319200
1.271000000000000796,-0.003203022904400904
1.272000000000000908,-0.003295937043802830
1.273000000000001020,-0.003387495966330681
1.274000000000000909,-0.003477705123914403
1.275000000000000799,-0.003566569984097739
1.276000000000000911,-0.003654096029540049
1.277000000000001023,-0.003740288757506599
1.278000000000000913,-0.003825153679381002
1.279000000000000803,-0.003908696320176579
1.280000000000000915,-0.003990922218058546
1.281000000000001027,-0.004071836923851433
1.282000000000000917,-0.004151446000588995
1.283000000000000806,-0.004229755023032593
1.284000000000000918,-0.004306769577222845
1.285000000000001030,-0.004382495260013991
1.286000000000000920,-0.004456937678635055
1.287000000000000810,-0.004530102450236296
1.288000000000000922,-0.004601995201462115
1.289000000000001034,-0.004672621568006409
1.290000000000000924,-0.004741987194187891
1.291000000000000814,-0.004810097732536950
1.292000000000000925,-0.004876958843356652
1.293000000000001037,-0.004942576194336984
1.294000000000000927,-0.005006955460126314
1.295000000000000817,-0.005070102321933378
1.296000000000000929,-0.005132022467138136
1.297000000000001041,-0.005192721588886420
1.298000000000000931,-0.005252205385713219
1.299000000000000821,-0.005310479561153739
1.300000000000000933,-0.005367549823362583
1.301000000000001044,-0.005423421884747565
1.302000000000000934,-0.005478101461592888
1.303000000000000824,-0.005531594273704801
1.304000000000000936,-0.005583906044036574
1.305000000000001048,-0.005635042498350079
1.306000000000000938,-0.005685009364855553
1.307000000000000828,-0.005733812373866570
1.308000000000000940,-0.005781457257457448
1.309000000000001052,-0.005827949749134096
1.310000000000000941,-0.005873295583489038
1.311000000000000831,-0.005917500495882905
1.312000000000000943,-0.005960570222108347
1.313000000000001055,-0.006002510498089422
1.314000000000000945,-0.006043327059544082
1.315000000000000835,-0.006083025641684750
1.316000000000000947,-0.006121611978910024
1.317000000000001059,-0.006159091804499864
1.318000000000000949,-0.006195470850309720
1.319000000000000838,-0.006230754846490205
1.320000000000000950,-0.006264949521181682
1.321000000000001062,-0.006298060600230043
1.322000000000000952,-0.006330093806908960
1.323000000000000842,-0.006361054861632462
1.324000000000000954,-0.006390949481685856
1.325000000000001066,-0.006419783380945970
1.326000000000000956,-0.006447562269622423
1.327000000000000846,-0.006474291853984496
1.328000000000000957,-0.006499977836105553
1.329000000000001069,-0.006524625913599968
1.330000000000000959,-0.006548241779380087
1.331000000000000849,-0.006570831121395721
1.332000000000000961,-0.006592399622389111
1.333000000000001073,-0.006612952959655499
1.334000000000000963,-0.006632496804805823
1.335000000000000853,-0.006651036823523282
1.336000000000000965,-0.006668578675336287
1.337000000000001076,-0.006685128013388136
1.338000000000000966,-0.006700690484208094
1.339000000000000856,-0.006715271727495311
1.340000000000000968,-0.006728877375892112
1.341000000000001080,-0.006741513054771986
1.342000000000000970,-0.006753184382026845
1.343000000000000860,-0.006763896967857374
1.344000000000000972,-0.006773656414562959
1.345000000000001084,-0.006782468316346574
1.346000000000000973,-0.006790338259104564
1.347000000000000863,-0.006797271820238290
1.348000000000000975,-0.006803274568451131
1.349000000000001087,-0.006808352063565307
1.350000000000000977,-0.006812509856331253
1.351000000000000867,-0.006815753488243833
1.352000000000000979,-0.006818088491349236
1.353000000000001091,-0.006819520388084565
1.354000000000000981,-0.006820054691088542
1.355000000000000870,-0.006819696903026118
1.356000000000000982,-0.006818452516427442
1.357000000000001094,-0.006816327013513537
1.358000000000000984,-0.006813325866028924
1.359000000000000874,-0.006809454535084939
1.360000000000000986,-0.006804718470992979
1.361000000000001098,-0.006799123113119127
1.362000000000000988,-0.006792673889711001
1.363000000000000878,-0.006785376217761918
1.364000000000000989,-0.006777235502859619
1.365000000000001101,-0.006768257139026262
1.366000000000000991,-0.006758446508589274
1.367000000000000881,-0.006747808982033565
1.368000000000000993,-0.006736349917860904
1.369000000000001105,-0.006724074662454446
1.370000000000000995,-0.006710988549944582
1.371000000000000885,-0.006697096902076691
1.372000000000000997,-0.006682405028079236
1.373000000000001108,-0.006666918224544893
1.374000000000000998,-0.006650641775287516
1.375000000000000888,-0.006633580951242390
1.376000000000001000,-0.006615741010330256
1.377000000000001112,-0.006597127197340879
1.378000000000001002,-0.006577744743824008
1.379000000000000892,-0.006557598867968206
1.380000000000001004,-0.006536694774492338
1.381000000000001116,-0.006515037654540132
1.382000000000001005,-0.006492632685565128
1.383000000000000895,-0.006469485031229441
1.384000000000001007,-0.006445599841304284
1.385000000000001119,-0.006420982251561963
1.386000000000001009,-0.006395637383685648
1.387000000000000899,-0.006369570345156958
1.388000000000001011,-0.006342786229187361
1.389000000000001123,-0.006315290114596614
1.390000000000001013,-0.006287087065740058
1.391000000000000902,-0.006258182132413826
1.392000000000001014,-0.006228580349767410
1.393000000000001126,-0.006198286738219898
1.394000000000001016,-0.006167306303378839
1.395000000000000906,-0.006135644035953566
1.396000000000001018,-0.006103304911677412
1.397000000000001130,-0.006070293891233499
1.398000000000001020,-0.006036615920175058
1.399000000000000909,-0.006002275928852028
1.400000000000001021,-0.005967278832338511
1.401000000000001133,-0.005931629530365076
1.402000000000001023,-0.005895332907244686
1.403000000000000913,-0.005858393831805744
1.404000000000001025,-0.005820817157334512
1.405000000000001137,-0.005782607721500555
1.406000000000001027,-0.005743770346298424
1.407000000000000917,-0.005704309837995377
1.408000000000001029,-0.005664230987054790
1.409000000000001140,-0.005623538568094479
1.410000000000001030,-0.005582237339823929
1.411000000000000920,-0.005540332044989519
1.412000000000001032,-0.005497827410323146
1.413000000000001144,-0.005454728146493542
1.414000000000001034,-0.005411038948049363
1.415000000000000924,-0.005366764493375236
1.416000000000001036,-0.005321909444649806
1.417000000000001148,-0.005276478447792331
1.418000000000001037,-0.005230476132420029
1.419000000000000927,-0.005183907111807807
1.420000000000001039,-0.005136775982845742
1.421000000000001151,-0.005089087326003999
1.422000000000001041,-0.005040845705283969
1.423000000000000931,-0.004992055668190319
1.424000000000001043,-0.004942721745693704
1.425000000000001155,-0.004892848452190362
1.426000000000001044,-0.004842440285477408
1.427000000000000934,-0.004791501726715796
1.428000000000001046,-0.004740037240401337
1.429000000000001158,-0.004688051274330618
1.430000000000001048,-0.004635548259583450
1.431000000000000938,-0.004582532610483262
1.432000000000001050,-0.004529008724581964
1.433000000000001162,-0.004474980982630634
1.434000000000001052,-0.004420453748552922
1.435000000000000941,-0.004365431369432630
1.436000000000001053,-0.004309918175480753
1.437000000000001165,-0.004253918480022972
1.438000000000001055,-0.004197436579482647
1.439000000000000945,-0.004140476753356300
1.440000000000001057,-0.004083043264203707
1.441000000000001169,-0.004025140357624855
1.442000000000001059,-0.003966772262252063
1.443000000000000949,-0.003907943189737520
1.444000000000001060,-0.003848657334733356
1.445000000000001172,-0.003788918874884815
1.446000000000001062,-0.003728731970826613
1.447000000000000952,-0.003668100766158385
1.448000000000001064,-0.003607029387449755
1.449000000000001176,-0.003545521944230278
1.450000000000001066,-0.003483582528976151
1.451000000000000956,-0.003421215217111430
1.452000000000001068,-0.003358424067003182
1.453000000000001180,-0.003295213119956376
1.454000000000001069,-0.003231586400208509
1.455000000000000959,-0.003167547914934152
1.456000000000001071,-0.003103101654238229
1.457000000000001183,-0.003038251591160899
1.458000000000001073,-0.002973001681675355
1.459000000000000963,-0.002907355864687427
1.460000000000001075,-0.002841318062043637
1.461000000000001187,-0.002774892178530434
1.462000000000001076,-0.002708082101883061
1.463000000000000966,-0.002640891702782192
1.464000000000001078,-0.002573324834868863
1.465000000000001190,-0.002505385334746992
1.466000000000001080,-0.002437077021988338
1.467000000000000970,-0.002368403699145716
1.468000000000001082,-0.002299369151759844
1.469000000000001194,-0.002229977148364876
1.470000000000001084,-0.002160231440506674
1.471000000000000973,-0.002090135762746566
1.472000000000001085,-0.002019693832680616
1.473000000000001197,-0.001948909350943033
1.474000000000001087,-0.001877786001229197
1.475000000000000977,-0.001806327450298473
1.476000000000001089,-0.001734537348000157
1.477000000000001201,-0.001662419327283123
1.478000000000001091,-0.001589977004209576
1.479000000000000981,-0.001517213977975236
1.480000000000001092,-0.001444133830925620
1.481000000000001204,-0.001370740128573235
1.482000000000001094,-0.001297036419616314
1.483000000000000984,-0.001223026235961723
1.484000000000001096,-0.001148713092734487
1.485000000000001208,-0.001074100488306803
1.486000000000001098,-0.000999191904319375
1.487000000000000988,-0.000923990805695377
1.488000000000001100,-0.000848500640668293
1.489000000000001211,-0.000772724840803853
1.490000000000001101,-0.000696666821022336
1.491000000000000991,-0.000620329979619100
1.492000000000001103,-0.000543717698294609
1.493000000000001215,-0.000466833342175957
1.494000000000001105,-0.000389680259838876
1.495000000000000995,-0.000312261783338454
1.496000000000001107,-0.000234581228234098
1.497000000000001219,-0.000156641893614994
1.498000000000001108,-0.000078447062127287
1.499000000000000998,0.000000000000000000
