# ZnO10m10NBDry_BSAIV11
# h[nm],U(h)[kJ/mol]
0.149999999999999994,141.302323408371734104
0.150999999999999995,139.327943613044624271
0.151999999999999996,137.673425692323064595
0.152999999999999997,136.072592271673840969
0.153999999999999998,134.434774197692632924
0.154999999999999999,132.751464772956353499
0.156000000000000000,131.045276269806720393
0.157000000000000001,129.344229771068938817
0.158000000000000002,127.670605491478269755
0.159000000000000002,126.037673143549426413
0.160000000000000003,124.450285745825766526
0.161000000000000004,122.907023211451928546
0.162000000000000005,121.402635989747182066
0.163000000000000006,119.930183843652002906
0.164000000000000007,118.482639405465150162
0.165000000000000008,117.053930201534996058
0.166000000000000009,115.639492347235972147
0.167000000000000010,114.236447043631798692
0.168000000000000010,112.843514774298142811
0.169000000000000011,111.460768752218285726
0.170000000000000012,110.089308927030032237
0.171000000000000013,108.730916547460537913
0.172000000000000014,107.387729913629257794
0.173000000000000015,106.061965876443153434
0.174000000000000016,104.755699177474937756
0.175000000000000017,103.470702660556369779
0.176000000000000018,102.208345254302116700
0.177000000000000018,100.969540862214927301
0.178000000000000019,99.754739350999258818
0.179000000000000020,98.563950203186621479
0.180000000000000021,97.396789681205049760
0.181000000000000022,96.252543203830299490
0.182000000000000023,95.130235807630327827
0.183000000000000024,94.028704868596904021
0.184000000000000025,92.946670562134272586
0.185000000000000026,91.882800757442680606
0.186000000000000026,90.835768124246953903
0.187000000000000027,89.804298150613817597
0.188000000000000028,88.787207523429245271
0.189000000000000029,87.783432913514701568
0.190000000000000030,86.792050648727339990
0.191000000000000031,85.812288068478622449
0.192000000000000032,84.843527551588451274
0.193000000000000033,83.885304316080649301
0.194000000000000034,82.937299123249957233
0.195000000000000034,81.999326996206747253
0.196000000000000035,81.071323000173336482
0.197000000000000036,80.153326040892778792
0.198000000000000037,79.245461529245190491
0.199000000000000038,78.347923643117951542
0.200000000000000039,77.460957798445946310
0.201000000000000040,76.584843825179547139
0.202000000000000041,75.719880234403888153
0.203000000000000042,74.866369862394122947
0.204000000000000042,74.024607087558450758
0.205000000000000043,73.194866737744035845
0.206000000000000044,72.377394738408824537
0.207000000000000045,71.572400496412043935
0.208000000000000046,70.780050969030781971
0.209000000000000047,70.000466332451509288
0.210000000000000048,69.233717137451051826
0.211000000000000049,68.479822821253748089
0.212000000000000050,67.738751432586354895
0.213000000000000050,67.010420420741439784
0.214000000000000051,66.294698338033441587
0.215000000000000052,65.591407307497775037
0.216000000000000053,64.900326113227293945
0.217000000000000054,64.221193778633050897
0.218000000000000055,63.553713507521102599
0.219000000000000056,62.897556873639146602
0.220000000000000057,62.252368155799331362
0.221000000000000058,61.617768727434267362
0.222000000000000058,60.993361421170526171
0.223000000000000059,60.378734800455845289
0.224000000000000060,59.773467281249068606
0.225000000000000061,59.177131057130225145
0.226000000000000062,58.589295790805202557
0.227000000000000063,58.009532043795559275
0.228000000000000064,57.437414424082056996
0.229000000000000065,56.872524438595199570
0.230000000000000066,56.314453043728100567
0.231000000000000066,55.762802892506101671
0.232000000000000067,55.217190281722068335
0.233000000000000068,54.677246806281132763
0.234000000000000069,54.142620731242388388
0.235000000000000070,53.612978094657890438
0.236000000000000071,53.088003556342627576
0.237000000000000072,52.567401009227481268
0.238000000000000073,52.050893971000888882
0.239000000000000073,51.538225774397389500
0.240000000000000074,51.029159574785879272
0.241000000000000075,50.523478193708193373
0.242000000000000076,50.020983816756761087
0.243000000000000077,49.521497563706589062
0.244000000000000078,49.024858948171626594
0.245000000000000079,48.530925243269649627
0.246000000000000080,48.039570768891273644
0.247000000000000081,47.550686115199724213
0.248000000000000081,47.064177315968699133
0.249000000000000082,46.579964984313569687
0.250000000000000111,46.097983422308104196
0.251000000000000112,45.618179714918412060
0.252000000000000113,45.140512817641933907
0.253000000000000114,44.664952646224094224
0.254000000000000115,44.191479175845550742
0.255000000000000115,43.720081556237232689
0.256000000000000116,43.250757248292785562
0.257000000000000117,42.783511186914459756
0.258000000000000118,42.318354974047899475
0.259000000000000119,41.855306105139810313
0.260000000000000120,41.394387231585525910
0.261000000000000121,40.935625461125646041
0.262000000000000122,40.479051697597185466
0.263000000000000123,40.024700020946710310
0.264000000000000123,39.572607107966064177
0.265000000000000124,39.122811693815904732
0.266000000000000125,38.675354074053601039
0.267000000000000126,38.230275646578924409
0.268000000000000127,37.787618492649187374
0.269000000000000128,37.347424995894293431
0.270000000000000129,36.909737498075699591
0.271000000000000130,36.474597990181109708
0.272000000000000131,36.042047837325355886
0.273000000000000131,35.612127535833323577
0.274000000000000132,35.184876500812109157
0.275000000000000133,34.760332882473448990
0.276000000000000134,34.338533409440209709
0.277000000000000135,33.919513257263453454
0.278000000000000136,33.503305940382247741
0.279000000000000137,33.089943225779720137
0.280000000000000138,32.679455066621088122
0.281000000000000139,32.271869554200762309
0.282000000000000139,31.867212886577210185
0.283000000000000140,31.465509352330304438
0.284000000000000141,31.066781327939946067
0.285000000000000142,30.671049287350740542
0.286000000000000143,30.278331822358769188
0.287000000000000144,29.888645672528348030
0.288000000000000145,29.502005763421198736
0.289000000000000146,29.118425251994722203
0.290000000000000147,28.737915578100761138
0.291000000000000147,28.360486521089882217
0.292000000000000148,27.986146260599337410
0.293000000000000149,27.614901440673691013
0.294000000000000150,27.246757236436621952
0.295000000000000151,26.881717422599251677
0.296000000000000152,26.519784443154929221
0.297000000000000153,26.160959481672517057
0.298000000000000154,25.805242531659047245
0.299000000000000155,25.452632466518842591
0.300000000000000155,25.103127108689566427
0.301000000000000156,24.756723297585786270
0.302000000000000157,24.413416956027582216
0.303000000000000158,24.073203154876203769
0.304000000000000159,23.736076175639748698
0.305000000000000160,23.402029570850196194
0.306000000000000161,23.071056222048422768
0.307000000000000162,22.743148395246524984
0.308000000000000163,22.418297793766832626
0.309000000000000163,22.096495608384135068
0.310000000000000164,21.777732564722935393
0.311000000000000165,21.461998967883587852
0.312000000000000166,21.149284744292049965
0.313000000000000167,20.839579480785786814
0.314000000000000168,20.532872460964757266
0.315000000000000169,20.229152698850562331
0.316000000000000170,19.928408969909558124
0.317000000000000171,19.630629839506436696
0.318000000000000171,19.335803688864238836
0.319000000000000172,19.043918738614575403
0.320000000000000173,18.754963070028477290
0.321000000000000174,18.468924644023669401
0.322000000000000175,18.185791318048199372
0.323000000000000176,17.905550860943662883
0.324000000000000177,17.628190965893452358
0.325000000000000178,17.353699261563029665
0.326000000000000179,17.082063321539596501
0.327000000000000179,16.813270672178866505
0.328000000000000180,16.547308798965559617
0.329000000000000181,16.284165151493571244
0.330000000000000182,16.023827147169477314
0.331000000000000183,15.766282173741387851
0.332000000000000184,15.511517590752522011
0.333000000000000185,15.259520730015969647
0.334000000000000186,15.010278895204345773
0.335000000000000187,14.763779360644335270
0.336000000000000187,14.520009369403032551
0.337000000000000188,14.278956130749211439
0.338000000000000189,14.040606817068939094
0.339000000000000190,13.804948560311089523
0.340000000000000191,13.571968448034615662
0.341000000000000192,13.341653519125523886
0.342000000000000193,13.113990759247396767
0.343000000000000194,12.888967096085773179
0.344000000000000195,12.666569394442742436
0.345000000000000195,12.446784451234188751
0.346000000000000196,12.229598990438715234
0.347000000000000197,12.014999658043377551
0.348000000000000198,11.802973017028090652
0.349000000000000199,11.593505542426859378
0.350000000000000200,11.386583616500955074
0.351000000000000201,11.182193524055675127
0.352000000000000202,10.980321447929497936
0.353000000000000203,10.780953464681267917
0.354000000000000203,10.584075540498279366
0.355000000000000204,10.389673527345527404
0.356000000000000205,10.197733159373658651
0.357000000000000206,10.008240049600615862
0.358000000000000207,9.821179686880075366
0.359000000000000208,9.636537433167065458
0.360000000000000209,9.454298521089317120
0.361000000000000210,9.274448051831122086
0.362000000000000210,9.096970993334270617
0.363000000000000211,8.921852178819291268
0.364000000000000212,8.749076305628411987
0.365000000000000213,8.578627934390306464
0.366000000000000214,8.410491488505263291
0.367000000000000215,8.244651253948259040
0.368000000000000216,8.081091379386025508
0.369000000000000217,7.919795876603579643
0.370000000000000218,7.760748621234209388
0.371000000000000218,7.603933353786551663
0.372000000000000219,7.449333680961174764
0.373000000000000220,7.296933077248669797
0.374000000000000221,7.146714886800580757
0.375000000000000222,6.998662325563993925
0.376000000000000223,6.852758483669868284
0.377000000000000224,6.708986328065255300
0.378000000000000225,6.567328705378810305
0.379000000000000226,6.427768345009004847
0.380000000000000226,6.290287862423928900
0.381000000000000227,6.154869762661772548
0.382000000000000228,6.021496444020590033
0.383000000000000229,5.890150201926180884
0.384000000000000230,5.760813232966672359
0.385000000000000231,5.633467639082473610
0.386000000000000232,5.508095431900422057
0.387000000000000233,5.384678537200735526
0.388000000000000234,5.263198799505879322
0.389000000000000234,5.143637986780244198
0.390000000000000235,5.025977795229865208
0.391000000000000236,4.910199854191645841
0.392000000000000237,4.796285731101543881
0.393000000000000238,4.684216936531635511
0.394000000000000239,4.573974929286114488
0.395000000000000240,4.465541121546444003
0.396000000000000241,4.358896884056335352
0.397000000000000242,4.254023551337380304
0.398000000000000242,4.150902426926411870
0.399000000000000243,4.049514788626218831
0.400000000000000244,3.949841893761071532
0.401000000000000245,3.851864984429359318
0.402000000000000246,3.755565292745639994
0.403000000000000247,3.660924046064624626
0.404000000000000248,3.567922472180290239
0.405000000000000249,3.476541804493272103
0.406000000000000250,3.386763287140261980
0.407000000000000250,3.298568180079244794
0.408000000000000251,3.211937764124864536
0.409000000000000252,3.126853345928484629
0.410000000000000253,3.043296262897734472
0.411000000000000254,2.961247888050761112
0.412000000000000255,2.880689634800630117
0.413000000000000256,2.801602961665516478
0.414000000000000257,2.723969376900909456
0.415000000000000258,2.647770443049889622
0.416000000000000258,2.572987781408297980
0.417000000000000259,2.499603076401450075
0.418000000000000260,2.427598079869647485
0.419000000000000261,2.356954615259694297
0.420000000000000262,2.287654581720199864
0.421000000000000263,2.219679958098315531
0.422000000000000264,2.153012806836168469
0.423000000000000265,2.087635277765114594
0.424000000000000266,2.023529611796427208
0.425000000000000266,1.960678144507135512
0.426000000000000267,1.899063309619843709
0.427000000000000268,1.838667642375741540
0.428000000000000269,1.779473782800051751
0.429000000000000270,1.721464478859369818
0.430000000000000271,1.664622589510586392
0.431000000000000272,1.608931087641117585
0.432000000000000273,1.554373062900492375
0.433000000000000274,1.500931724423332891
0.434000000000000274,1.448590403443964503
0.435000000000000275,1.397332555803109999
0.436000000000000276,1.347141764347070447
0.437000000000000277,1.298001741220087268
0.438000000000000278,1.249896330050593640
0.439000000000000279,1.202809508032173014
0.440000000000000280,1.156725387900214175
0.441000000000000281,1.111628219805280482
0.442000000000000282,1.067502393084246437
0.443000000000000282,1.024332437930542294
0.444000000000000283,0.982103026964641801
0.445000000000000284,0.940798976706256562
0.446000000000000285,0.900405248949597725
0.447000000000000286,0.860906952043149487
0.448000000000000287,0.822289342075603336
0.449000000000000288,0.784537823969383874
0.450000000000000289,0.747637952483522716
0.451000000000000290,0.711575433127497936
0.452000000000000290,0.676336122987690969
0.453000000000000291,0.641906031468337024
0.454000000000000292,0.608271320948604699
0.455000000000000293,0.575418307357666747
0.456000000000000294,0.543333460669600088
0.457000000000000295,0.512003405319851446
0.458000000000000296,0.481414920545261693
0.459000000000000297,0.451554940649373460
0.460000000000000298,0.422410555194999371
0.461000000000000298,0.393969009125854863
0.462000000000000299,0.366217702819171653
0.463000000000000300,0.339144192071190731
0.464000000000000301,0.312736188017352701
0.465000000000000302,0.286981556989131636
0.466000000000000303,0.261868320309351477
0.467000000000000304,0.237384654027795072
0.468000000000000305,0.213518888599084328
0.469000000000000306,0.190259508504552421
0.470000000000000306,0.167595151819940835
0.471000000000000307,0.145514609730845207
0.472000000000000308,0.124006825997574399
0.473000000000000309,0.103060896371230060
0.474000000000000310,0.082666067962831671
0.475000000000000311,0.062811738567126379
0.476000000000000312,0.043487455942879817
0.477000000000000313,0.024682917051243571
0.478000000000000314,0.006387967253988514
0.479000000000000314,-0.011407400526883205
0.480000000000000315,-0.028713046686416676
0.481000000000000316,-0.045538685849380922
0.482000000000000317,-0.061893887816696136
0.483000000000000318,-0.077788078544135303
0.484000000000000319,-0.093230541151776730
0.485000000000000320,-0.108230416962681278
0.486000000000000321,-0.122796706569434283
0.487000000000000322,-0.136938270927050743
0.488000000000000322,-0.150663832470848330
0.489000000000000323,-0.163981976258015333
0.490000000000000324,-0.176901151131424100
0.491000000000000325,-0.189429670904462666
0.492000000000000326,-0.201575715565565250
0.493000000000000327,-0.213347332501247461
0.494000000000000328,-0.224752437736352034
0.495000000000000329,-0.235798817190432997
0.496000000000000330,-0.246494127948958891
0.497000000000000330,-0.256845899548447110
0.498000000000000331,-0.266861535274122486
0.499000000000000332,-0.276548313469346274
0.500000000000000333,-0.285913388855583706
0.501000000000000334,-0.294963793861894918
0.502000000000000335,-0.303706439963124186
0.503000000000000336,-0.312148119025656201
0.504000000000000337,-0.320295504659938335
0.505000000000000338,-0.328155153578807923
0.506000000000000338,-0.335733506960779526
0.507000000000000339,-0.343036891817468770
0.508000000000000340,-0.350071522364259202
0.509000000000000341,-0.356843501393564133
0.510000000000000342,-0.363358821649749530
0.511000000000000343,-0.369623367205151598
0.512000000000000344,-0.375642914836327446
0.513000000000000345,-0.381423135399936553
0.514000000000000346,-0.386969595207620920
0.515000000000000346,-0.392287757399122750
0.516000000000000347,-0.397382983313148919
0.517000000000000348,-0.402260533855334224
0.518000000000000349,-0.406925570862719965
0.519000000000000350,-0.411383158464269094
0.520000000000000351,-0.415638264436762328
0.521000000000000352,-0.419695761555776037
0.522000000000000353,-0.423560428941014422
0.523000000000000353,-0.427236953395745911
0.524000000000000354,-0.430729930739777611
0.525000000000000355,-0.434043867135592898
0.526000000000000356,-0.437183180407212657
0.527000000000000357,-0.440152201351466321
0.528000000000000358,-0.442955175041200633
0.529000000000000359,-0.445596262120210529
0.530000000000000360,-0.448079540089399042
0.531000000000000361,-0.450409004584009953
0.532000000000000361,-0.452588570641534127
0.533000000000000362,-0.454622073960043838
0.534000000000000363,-0.456513272146658822
0.535000000000000364,-0.458265845955977802
0.536000000000000365,-0.459883400518094565
0.537000000000000366,-0.461369466556146524
0.538000000000000367,-0.462727501593003410
0.539000000000000368,-0.463960891147104704
0.540000000000000369,-0.465072949917067047
0.541000000000000369,-0.466066922955068907
0.542000000000000370,-0.466945986828675941
0.543000000000000371,-0.467713250771153000
0.544000000000000372,-0.468371757819974033
0.545000000000000373,-0.468924485943504776
0.546000000000000374,-0.469374349155700976
0.547000000000000375,-0.469724198618737376
0.548000000000000376,-0.469976823733478710
0.549000000000000377,-0.470134953217706708
0.550000000000000377,-0.470201256172068149
0.551000000000000378,-0.470178343133586807
0.552000000000000379,-0.470068767116844921
0.553000000000000380,-0.469875024642614381
0.554000000000000381,-0.469599556754032033
0.555000000000000382,-0.469244750020266888
0.556000000000000383,-0.468812937527572526
0.557000000000000384,-0.468306399857886468
0.558000000000000385,-0.467727366054752569
0.559000000000000385,-0.467078014576760403
0.560000000000000386,-0.466360474238428968
0.561000000000000387,-0.465576825138523553
0.562000000000000388,-0.464729099575860005
0.563000000000000389,-0.463819282952658785
0.564000000000000390,-0.462849314665409128
0.565000000000000391,-0.461821088983323969
0.566000000000000392,-0.460736455914407927
0.567000000000000393,-0.459597222059255184
0.568000000000000393,-0.458405151452487281
0.569000000000000394,-0.457161966392032493
0.570000000000000395,-0.455869348256252138
0.571000000000000396,-0.454528938308922992
0.572000000000000397,-0.453142338492267371
0.573000000000000398,-0.451711112207975163
0.574000000000000399,-0.450236785086393365
0.575000000000000400,-0.448720845743900643
0.576000000000000401,-0.447164746528554313
0.577000000000000401,-0.445569904254173366
0.578000000000000402,-0.443937700922816425
0.579000000000000403,-0.442269484435819205
0.580000000000000404,-0.440566569293551313
0.581000000000000405,-0.438830237283805491
0.582000000000000406,-0.437061738159120972
0.583000000000000407,-0.435262290302977140
0.584000000000000408,-0.433433081385070751
0.585000000000000409,-0.431575269005729012
0.586000000000000409,-0.429689981329529735
0.587000000000000410,-0.427778317708362388
0.588000000000000411,-0.425841349293838156
0.589000000000000412,-0.423880119639387321
0.590000000000000413,-0.421895645291942345
0.591000000000000414,-0.419888916373473087
0.592000000000000415,-0.417860897152406541
0.593000000000000416,-0.415812526605056298
0.594000000000000417,-0.413744718967176350
0.595000000000000417,-0.411658364275819033
0.596000000000000418,-0.409554328901449605
0.597000000000000419,-0.407433456070646627
0.598000000000000420,-0.405296566379295453
0.599000000000000421,-0.403144458296561314
0.600000000000000422,-0.400977908659656990
0.601000000000000423,-0.398797673159518751
0.602000000000000424,-0.396604486817599966
0.603000000000000425,-0.394399064453797965
0.604000000000000425,-0.392182101145654827
0.605000000000000426,-0.389954272678998015
0.606000000000000427,-0.387716235990104352
0.607000000000000428,-0.385468629599420964
0.608000000000000429,-0.383212074037171724
0.609000000000000430,-0.380947172260696409
0.610000000000000431,-0.378674510063861935
0.611000000000000432,-0.376394656478532874
0.612000000000000433,-0.374108164168240553
0.613000000000000433,-0.371815569814209490
0.614000000000000434,-0.369517394493794171
0.615000000000000435,-0.367214144051476399
0.616000000000000436,-0.364906309462478928
0.617000000000000437,-0.362594367189234323
0.618000000000000438,-0.360278779530668114
0.619000000000000439,-0.357959994964459127
0.620000000000000440,-0.355638448482468839
0.621000000000000441,-0.353314561919300107
0.622000000000000441,-0.350988744274231823
0.623000000000000442,-0.348661392026519024
0.624000000000000443,-0.346332889444246284
0.625000000000000444,-0.344003608886818746
0.626000000000000445,-0.341673911101153138
0.627000000000000446,-0.339344145511732975
0.628000000000000447,-0.337014650504586455
0.629000000000000448,-0.334685753705299405
0.630000000000000449,-0.332357772251165584
0.631000000000000449,-0.330031013057577371
0.632000000000000450,-0.327705773078745377
0.633000000000000451,-0.325382339562856449
0.634000000000000452,-0.323060990301718198
0.635000000000000453,-0.320741993875097442
0.636000000000000454,-0.318425609889671446
0.637000000000000455,-0.316112089212894243
0.638000000000000456,-0.313801674201656666
0.639000000000000457,-0.311494598926001398
0.640000000000000457,-0.309191089387903351
0.641000000000000458,-0.306891363735170619
0.642000000000000459,-0.304595632470668454
0.643000000000000460,-0.302304098656812292
0.644000000000000461,-0.300016958115521259
0.645000000000000462,-0.297734399623678592
0.646000000000000463,-0.295456605104151948
0.647000000000000464,-0.293183749812508498
0.648000000000000465,-0.290916002519488681
0.649000000000000465,-0.288653525689271162
0.650000000000000466,-0.286396475653704574
0.651000000000000467,-0.284145002782456690
0.652000000000000468,-0.281899251649293525
0.653000000000000469,-0.279659361194432965
0.654000000000000470,-0.277425464883170658
0.655000000000000471,-0.275197690860752520
0.656000000000000472,-0.272976162103596320
0.657000000000000473,-0.270760996566974999
0.658000000000000473,-0.268552307329178230
0.659000000000000474,-0.266350202732228591
0.660000000000000475,-0.264154786519270268
0.661000000000000476,-0.261966157968601010
0.662000000000000477,-0.259784412024533395
0.663000000000000478,-0.257609639425029902
0.664000000000000479,-0.255441926826300847
0.665000000000000480,-0.253281356924267675
0.666000000000000481,-0.251128008573153705
0.667000000000000481,-0.248981956901045021
0.668000000000000482,-0.246843273422706538
0.669000000000000483,-0.244712026149488004
0.670000000000000484,-0.242588279696564907
0.671000000000000485,-0.240472095387462032
0.672000000000000486,-0.238363531355936631
0.673000000000000487,-0.236262642645326426
0.674000000000000488,-0.234169481305327359
0.675000000000000488,-0.232084096486329633
0.676000000000000489,-0.230006534531365270
0.677000000000000490,-0.227936839065624813
0.678000000000000491,-0.225875051083723383
0.679000000000000492,-0.223821209034672008
0.680000000000000493,-0.221775348904642788
0.681000000000000494,-0.219737504297567415
0.682000000000000495,-0.217707706513605437
0.683000000000000496,-0.215685984625559268
0.684000000000000496,-0.213672365553255583
0.685000000000000497,-0.211666874135914979
0.686000000000000498,-0.209669533202634900
0.687000000000000499,-0.207680363640927096
0.688000000000000500,-0.205699384463424340
0.689000000000000501,-0.203726612872774521
0.690000000000000502,-0.201762064324762791
0.691000000000000503,-0.199805752589704427
0.692000000000000504,-0.197857689812109633
0.693000000000000504,-0.195917886568772015
0.694000000000000505,-0.193986351925143602
0.695000000000000506,-0.192063093490221243
0.696000000000000507,-0.190148117469830402
0.697000000000000508,-0.188241428718417092
0.698000000000000509,-0.186343030789385578
0.699000000000000510,-0.184452925983974975
0.700000000000000511,-0.182571115398737188
0.701000000000000512,-0.180697598971666901
0.702000000000000512,-0.178832375526952664
0.703000000000000513,-0.176975442818449541
0.704000000000000514,-0.175126797571879572
0.705000000000000515,-0.173286435525756899
0.706000000000000516,-0.171454351471129779
0.707000000000000517,-0.169630539290132915
0.708000000000000518,-0.167814991993331664
0.709000000000000519,-0.166007701756037768
0.710000000000000520,-0.164208659953417907
0.711000000000000520,-0.162417857194589621
0.712000000000000521,-0.160635283355663405
0.713000000000000522,-0.158860927611722713
0.714000000000000523,-0.157094778467873147
0.715000000000000524,-0.155336823789254924
0.716000000000000525,-0.153587050830145427
0.717000000000000526,-0.151845446262147021
0.718000000000000527,-0.150111996201416298
0.719000000000000528,-0.148386686235078474
0.720000000000000528,-0.146669501446780093
0.721000000000000529,-0.144960426441352458
0.722000000000000530,-0.143259445368740274
0.723000000000000531,-0.141566541947063335
0.724000000000000532,-0.139881699484982247
0.725000000000000533,-0.138204900903263816
0.726000000000000534,-0.136536128755616548
0.727000000000000535,-0.134875365248845108
0.728000000000000536,-0.133222592262290634
0.729000000000000536,-0.131577791366587149
0.730000000000000537,-0.129940943841804490
0.731000000000000538,-0.128312030694891860
0.732000000000000539,-0.126691032676556459
0.733000000000000540,-0.125077930297501416
0.734000000000000541,-0.123472703844097434
0.735000000000000542,-0.121875333393448401
0.736000000000000543,-0.120285798827962462
0.737000000000000544,-0.118704079849308947
0.738000000000000544,-0.117130155991910095
0.739000000000000545,-0.115564006635888505
0.740000000000000546,-0.114005611019521474
0.741000000000000547,-0.112454948251214007
0.742000000000000548,-0.110911997321040262
0.743000000000000549,-0.109376737111744227
0.744000000000000550,-0.107849146409384616
0.745000000000000551,-0.106329203913494902
0.746000000000000552,-0.104816888246865456
0.747000000000000552,-0.103312177964887716
0.748000000000000553,-0.101815051564515535
0.749000000000000554,-0.100325487492851820
0.750000000000000555,-0.098843464155363561
0.751000000000000556,-0.097368959923721354
0.752000000000000557,-0.095901953143337382
0.753000000000000558,-0.094442422140476989
0.754000000000000559,-0.092990345229152629
0.755000000000000560,-0.091545700717604359
0.756000000000000560,-0.090108466914555124
0.757000000000000561,-0.088678622135079752
0.758000000000000562,-0.087256144706258074
0.759000000000000563,-0.085841012972520989
0.760000000000000564,-0.084433205300731035
0.761000000000000565,-0.083032700084978275
0.762000000000000566,-0.081639475751159360
0.763000000000000567,-0.080253510761281205
0.764000000000000568,-0.078874783617534000
0.765000000000000568,-0.077503272866160933
0.766000000000000569,-0.076138957101055962
0.767000000000000570,-0.074781814967200488
0.768000000000000571,-0.073431825163843473
0.769000000000000572,-0.072088966447516070
0.770000000000000573,-0.070753217634840188
0.771000000000000574,-0.069424557605152523
0.772000000000000575,-0.068102965302947294
0.773000000000000576,-0.066788419740137273
0.774000000000000576,-0.065480899998161063
0.775000000000000577,-0.064180385229921907
0.776000000000000578,-0.062886854661564476
0.777000000000000579,-0.061600287594121637
0.778000000000000580,-0.060320663404983113
0.779000000000000581,-0.059047961549257830
0.780000000000000582,-0.057782161560980594
0.781000000000000583,-0.056523243054210470
0.782000000000000584,-0.055271185723978281
0.783000000000000584,-0.054025969347131539
0.784000000000000585,-0.052787573783077232
0.785000000000000586,-0.051555978974375472
0.786000000000000587,-0.050331164947278073
0.787000000000000588,-0.049113111812124521
0.788000000000000589,-0.047901799763652261
0.789000000000000590,-0.046697209081240719
0.790000000000000591,-0.045499320129026667
0.791000000000000592,-0.044308113355952840
0.792000000000000592,-0.043123569295748565
0.793000000000000593,-0.041945668566795838
0.794000000000000594,-0.040774391871966999
0.795000000000000595,-0.039609719998364636
0.796000000000000596,-0.038451633816985256
0.797000000000000597,-0.037300114282344518
0.798000000000000598,-0.036155142432029830
0.799000000000000599,-0.035016699386175666
0.800000000000000600,-0.033884766346935082
0.801000000000000600,-0.032759324597837945
0.802000000000000601,-0.031640355503131101
0.803000000000000602,-0.030527840507082526
0.804000000000000603,-0.029421761133211766
0.805000000000000604,-0.028322098983512622
0.806000000000000605,-0.027228835737591661
0.807000000000000606,-0.026141953151816121
0.808000000000000607,-0.025061433058401184
0.809000000000000608,-0.023987257364465008
0.810000000000000608,-0.022919408051083012
0.811000000000000609,-0.021857867172235590
0.812000000000000610,-0.020802616853859847
0.813000000000000611,-0.019753639292730309
0.814000000000000612,-0.018710916755426153
0.815000000000000613,-0.017674431577238015
0.816000000000000614,-0.016644166161046425
0.817000000000000615,-0.015620102976190531
0.818000000000000616,-0.014602224557340459
0.819000000000000616,-0.013590513503328705
0.820000000000000617,-0.012584952475975209
0.821000000000000618,-0.011585524198913611
0.822000000000000619,-0.010592211456410072
0.823000000000000620,-0.009604997092143098
0.824000000000000621,-0.008623864007998517
0.825000000000000622,-0.007648795162876665
0.826000000000000623,-0.006679773571461189
0.827000000000000624,-0.005716782302996826
0.828000000000000624,-0.004759804480076113
0.829000000000000625,-0.003808823277401285
0.830000000000000626,-0.002863821920572640
0.831000000000000627,-0.001924783684860321
0.832000000000000628,-0.000991691893986124
0.833000000000000629,-0.000064529918895651
0.834000000000000630,0.000856718823447566
0.835000000000000631,0.001772070871282872
0.836000000000000631,0.002681542719255836
0.837000000000000632,0.003585150819608185
0.838000000000000633,0.004482911583385718
0.839000000000000634,0.005374841381624795
0.840000000000000635,0.006260956546517737
0.841000000000000636,0.007141273372596457
0.842000000000000637,0.008015808117885692
0.843000000000000638,0.008884577005055138
0.844000000000000639,0.009747596222564880
0.845000000000000639,0.010604881925783505
0.846000000000000640,0.011456450238130056
0.847000000000000641,0.012302317252144080
0.848000000000000642,0.013142499030619537
0.849000000000000643,0.013977011607666090
0.850000000000000644,0.014805870989769010
0.851000000000000645,0.015629093156864428
0.852000000000000646,0.016446694063373690
0.853000000000000647,0.017258689639221871
0.854000000000000647,0.018065095790864995
0.855000000000000648,0.018865928402282739
0.856000000000000649,0.019661203335956935
0.857000000000000650,0.020450936433844890
0.858000000000000651,0.021235143518330925
0.859000000000000652,0.022013840393174101
0.860000000000000653,0.022787042844397653
0.861000000000000654,0.023554766641239944
0.862000000000000655,0.024317027537004841
0.863000000000000655,0.025073841269957119
0.864000000000000656,0.025825223564163124
0.865000000000000657,0.026571190130354593
0.866000000000000658,0.027311756666726195
0.867000000000000659,0.028046938859746830
0.868000000000000660,0.028776752384965056
0.869000000000000661,0.029501212907769525
0.870000000000000662,0.030220336084152789
0.871000000000000663,0.030934137561425223
0.872000000000000663,0.031642632978981712
0.873000000000000664,0.032345837968962510
0.874000000000000665,0.033043768156972055
0.875000000000000666,0.033736439162727616
0.876000000000000667,0.034423866600729658
0.877000000000000668,0.035106066080895573
0.878000000000000669,0.035783053209166069
0.879000000000000670,0.036454843588129116
0.880000000000000671,0.037121452817586852
0.881000000000000671,0.037782896495145532
0.882000000000000672,0.038439190216743767
0.883000000000000673,0.039090349577211157
0.884000000000000674,0.039736390170770894
0.885000000000000675,0.040377327591554969
0.886000000000000676,0.041013177434081269
0.887000000000000677,0.041643955293729149
0.888000000000000678,0.042269676767196084
0.889000000000000679,0.042890357452928983
0.890000000000000679,0.043506012951546436
0.891000000000000680,0.044116658866249089
0.892000000000000681,0.044722310803207634
0.893000000000000682,0.045322984371937457
0.894000000000000683,0.045918695185661475
0.895000000000000684,0.046509458861648777
0.896000000000000685,0.047095291021540954
0.897000000000000686,0.047676207291674447
0.898000000000000687,0.048252223303377292
0.899000000000000687,0.048823354693244544
0.900000000000000688,0.049389617103417806
0.901000000000000689,0.049951026181835806
0.902000000000000690,0.050507597582471753
0.903000000000000691,0.051059346965566542
0.904000000000000692,0.051606289997834585
0.905000000000000693,0.052148442352673720
0.906000000000000694,0.052685819710330851
0.907000000000000695,0.053218437758093165
0.908000000000000695,0.053746312190434832
0.909000000000000696,0.054269458709171770
0.910000000000000697,0.054787893023580024
0.911000000000000698,0.055301630850530373
0.912000000000000699,0.055810687914584781
0.913000000000000700,0.056315079948091450
0.914000000000000701,0.056814822691280728
0.915000000000000702,0.057309931892315216
0.916000000000000703,0.057800423307363048
0.917000000000000703,0.058286312700641621
0.918000000000000704,0.058767615844441567
0.919000000000000705,0.059244348519175358
0.920000000000000706,0.059716526513362733
0.921000000000000707,0.060184165623652232
0.922000000000000708,0.060647281654807005
0.923000000000000709,0.061105890419677025
0.924000000000000710,0.061560007739182090
0.925000000000000711,0.062009649442264128
0.926000000000000711,0.062454831365838979
0.927000000000000712,0.062895569354739694
0.928000000000000713,0.063331879261649959
0.929000000000000714,0.063763776947003331
0.930000000000000715,0.064191278278923763
0.931000000000000716,0.064614399133118117
0.932000000000000717,0.065033155392762942
0.933000000000000718,0.065447562948396681
0.934000000000000719,0.065857637697793181
0.935000000000000719,0.066263395545828038
0.936000000000000720,0.066664852404348371
0.937000000000000721,0.067062024192015374
0.938000000000000722,0.067454926834145085
0.939000000000000723,0.067843576262554522
0.940000000000000724,0.068227988415390017
0.941000000000000725,0.068608179236940833
0.942000000000000726,0.068984164677453080
0.943000000000000727,0.069355960692950552
0.944000000000000727,0.069723583245019580
0.945000000000000728,0.070087048300607940
0.946000000000000729,0.070446371831825422
0.947000000000000730,0.070801569815693799
0.948000000000000731,0.071152658233959970
0.949000000000000732,0.071499653072831307
0.950000000000000733,0.071842570322765961
0.951000000000000734,0.072181425978204108
0.952000000000000735,0.072516236037335383
0.953000000000000735,0.072847016501848688
0.954000000000000736,0.073173783376660875
0.955000000000000737,0.073496552669663998
0.956000000000000738,0.073815340391444467
0.957000000000000739,0.074130162555024054
0.958000000000000740,0.074441035175563358
0.959000000000000741,0.074747974270103462
0.960000000000000742,0.075050995857251446
0.961000000000000743,0.075350115956908187
0.962000000000000743,0.075645350589969851
0.963000000000000744,0.075936715778022121
0.964000000000000745,0.076224227543040216
0.965000000000000746,0.076507901907088546
0.966000000000000747,0.076787754891998863
0.967000000000000748,0.077063802519071453
0.968000000000000749,0.077336060808740809
0.969000000000000750,0.077604545780274731
0.970000000000000751,0.077869273451431381
0.971000000000000751,0.078130259838150556
0.972000000000000752,0.078387520954224355
0.973000000000000753,0.078641072810950008
0.974000000000000754,0.078890931416812388
0.975000000000000755,0.079137112777143109
0.976000000000000756,0.079379632893781443
0.977000000000000757,0.079618507764739999
0.978000000000000758,0.079853753383854198
0.979000000000000759,0.080085385740437998
0.980000000000000759,0.080313420818950376
0.981000000000000760,0.080537874598635664
0.982000000000000761,0.080758763053174254
0.983000000000000762,0.080976102150340318
0.984000000000000763,0.081189907851648799
0.985000000000000764,0.081400196111991938
0.986000000000000765,0.081606982879297546
0.987000000000000766,0.081810284094166782
0.988000000000000766,0.082010115689520852
0.989000000000000767,0.082206493590245705
0.990000000000000768,0.082399433712818812
0.991000000000000769,0.082588951964975177
0.992000000000000770,0.082775064245337732
0.993000000000000771,0.082957786443040943
0.994000000000000772,0.083137134437404697
0.995000000000000773,0.083313124097541200
0.996000000000000774,0.083485771282016480
0.997000000000000774,0.083655091838477830
0.998000000000000775,0.083821101603298004
0.999000000000000776,0.083983816401216202
1.000000000000000666,0.084143252044974109
1.001000000000000778,0.084299424334952702
1.002000000000000668,0.084452349058821943
1.003000000000000780,0.084602041991169941
1.004000000000000670,0.084748518893154517
1.005000000000000782,0.084891795512135243
1.006000000000000671,0.085031887581314219
1.007000000000000783,0.085168810819392288
1.008000000000000673,0.085302580930193939
1.009000000000000785,0.085433213602325406
1.010000000000000675,0.085560724508809999
1.011000000000000787,0.085685129306739480
1.012000000000000677,0.085806443636917543
1.013000000000000789,0.085924683123503959
1.014000000000000679,0.086039863373677958
1.015000000000000790,0.086151999977266053
1.016000000000000680,0.086261108506408599
1.017000000000000792,0.086367204515200843
1.018000000000000682,0.086470303539367591
1.019000000000000794,0.086570421095890665
1.020000000000000684,0.086667572682676913
1.021000000000000796,0.086761773778222223
1.022000000000000686,0.086853039841262789
1.023000000000000798,0.086941386310435367
1.024000000000000687,0.087026828603946144
1.025000000000000799,0.087109382119230208
1.026000000000000689,0.087189062232610387
1.027000000000000801,0.087265884298979260
1.028000000000000691,0.087339863651457933
1.029000000000000803,0.087411015601068426
1.030000000000000693,0.087479355436413761
1.031000000000000805,0.087544898423336820
1.032000000000000695,0.087607659804612936
1.033000000000000806,0.087667654799623920
1.034000000000000696,0.087724898604028878
1.035000000000000808,0.087779406389463493
1.036000000000000698,0.087831193303218383
1.037000000000000810,0.087880274467911065
1.038000000000000700,0.087926664981196931
1.039000000000000812,0.087970379915455144
1.040000000000000702,0.088011434317467371
1.041000000000000814,0.088049843208131445
1.042000000000000703,0.088085621582151580
1.043000000000000815,0.088118784407737433
1.044000000000000705,0.088149346626303457
1.045000000000000817,0.088177323152190748
1.046000000000000707,0.088202728872350658
1.047000000000000819,0.088225578646070446
1.048000000000000709,0.088245887304674531
1.049000000000000821,0.088263669651252263
1.050000000000000711,0.088278940460364580
1.051000000000000822,0.088291714477762878
1.052000000000000712,0.088302006420119900
1.053000000000000824,0.088309830974742043
1.054000000000000714,0.088315202799306589
1.055000000000000826,0.088318136521585253
1.056000000000000716,0.088318646739177428
1.057000000000000828,0.088316748019244135
1.058000000000000718,0.088312454898249543
1.059000000000000830,0.088305781881695078
1.060000000000000719,0.088296743443866649
1.061000000000000831,0.088285354027569166
1.062000000000000721,0.088271628043896502
1.063000000000000833,0.088255579871952122
1.064000000000000723,0.088237223858626132
1.065000000000000835,0.088216574318342122
1.066000000000000725,0.088193645532809672
1.067000000000000837,0.088168451750803858
1.068000000000000727,0.088141007187899814
1.069000000000000838,0.088111326026269948
1.070000000000000728,0.088079422414431535
1.071000000000000840,0.088045310467029805
1.072000000000000730,0.088009004264605964
1.073000000000000842,0.087970517853374008
1.074000000000000732,0.087929865245017752
1.075000000000000844,0.087887060416448698
1.076000000000000734,0.087842117309602355
1.077000000000000846,0.087795049831235067
1.078000000000000735,0.087745871852698346
1.079000000000000847,0.087694597209755906
1.080000000000000737,0.087641239702348314
1.081000000000000849,0.087585813094418902
1.082000000000000739,0.087528331113710972
1.083000000000000851,0.087468807451562963
1.084000000000000741,0.087407255762719349
1.085000000000000853,0.087343689665149632
1.086000000000000743,0.087278122739856051
1.087000000000000854,0.087210568530679933
1.088000000000000744,0.087141040544135170
1.089000000000000856,0.087069552249219875
1.090000000000000746,0.086996117077250704
1.091000000000000858,0.086920748421673355
1.092000000000000748,0.086843459637909154
1.093000000000000860,0.086764264043171349
1.094000000000000750,0.086683174916320702
1.095000000000000862,0.086600205497678495
1.096000000000000751,0.086515368988881319
1.097000000000000863,0.086428678552731494
1.098000000000000753,0.086340147313023335
1.099000000000000865,0.086249788354405305
1.100000000000000755,0.086157614722227702
1.101000000000000867,0.086063639422398003
1.102000000000000757,0.085967875421232243
1.103000000000000869,0.085870335645317847
1.104000000000000759,0.085771032981381820
1.105000000000000870,0.085669980276138771
1.106000000000000760,0.085567190336180238
1.107000000000000872,0.085462675927821155
1.108000000000000762,0.085356449776990514
1.109000000000000874,0.085248524569091461
1.110000000000000764,0.085138912948892795
1.111000000000000876,0.085027627520406032
1.112000000000000766,0.084914680846757837
1.113000000000000878,0.084800085450084231
1.114000000000000767,0.084683853811416840
1.115000000000000879,0.084565998370575476
1.116000000000000769,0.084446531526055815
1.117000000000000881,0.084325465634930735
1.118000000000000771,0.084202813012744737
1.119000000000000883,0.084078585933411734
1.120000000000000773,0.083952796629125886
1.121000000000000885,0.083825457290255048
1.122000000000000774,0.083696580065266049
1.123000000000000886,0.083566177060621388
1.124000000000000776,0.083434260340688404
1.125000000000000888,0.083300841927673494
1.126000000000000778,0.083165933801524233
1.127000000000000890,0.083029547899845402
1.128000000000000780,0.082891696117840336
1.129000000000000892,0.082752390308218335
1.130000000000000782,0.082611642281126468
1.131000000000000894,0.082469463804088330
1.132000000000000783,0.082325866601921996
1.133000000000000895,0.082180862356677695
1.134000000000000785,0.082034462707586700
1.135000000000000897,0.081886679250980601
1.136000000000000787,0.081737523540248477
1.137000000000000899,0.081587007085768048
1.138000000000000789,0.081435141354863502
1.139000000000000901,0.081281937771737894
1.140000000000000790,0.081127407717437636
1.141000000000000902,0.080971562529797356
1.142000000000000792,0.080814413503395022
1.143000000000000904,0.080655971889513636
1.144000000000000794,0.080496248896082284
1.145000000000000906,0.080335255687666418
1.146000000000000796,0.080173003385400954
1.147000000000000908,0.080009503066974449
1.148000000000000798,0.079844765766589304
1.149000000000000909,0.079678802474929505
1.150000000000000799,0.079511624139140549
1.151000000000000689,0.079343241662791594
1.152000000000000801,0.079173665905857921
1.153000000000000913,0.079002907684689733
1.154000000000000803,0.078830977772005456
1.155000000000000693,0.078657886896864454
1.156000000000000805,0.078483645744645697
1.157000000000000917,0.078308264957047818
1.158000000000000806,0.078131755132057321
1.159000000000000696,0.077954126823951239
1.160000000000000808,0.077775390543289219
1.161000000000000920,0.077595556756897124
1.162000000000000810,0.077414635887864486
1.163000000000000700,0.077232638315543639
1.164000000000000812,0.077049574375550975
1.165000000000000924,0.076865454359764690
1.166000000000000814,0.076680288516316822
1.167000000000000703,0.076494087049619380
1.168000000000000815,0.076306860120342976
1.169000000000000927,0.076118617845449862
1.170000000000000817,0.075929370298186180
1.171000000000000707,0.075739127508102008
1.172000000000000819,0.075547899461052087
1.173000000000000931,0.075355696099226183
1.174000000000000821,0.075162527321154471
1.175000000000000711,0.074968402981730339
1.176000000000000822,0.074773332892221545
1.177000000000000934,0.074577326820303491
1.178000000000000824,0.074380394490067878
1.179000000000000714,0.074182545582065024
1.180000000000000826,0.073983789733305355
1.181000000000000938,0.073784136537314443
1.182000000000000828,0.073583595544140470
1.183000000000000718,0.073382176260387899
1.184000000000000830,0.073179888149258937
1.185000000000000941,0.072976740630583209
1.186000000000000831,0.072772743080846025
1.187000000000000721,0.072567904833234914
1.188000000000000833,0.072362235177669681
1.189000000000000945,0.072155743360844821
1.190000000000000835,0.071948438586268315
1.191000000000000725,0.071740330014310516
1.192000000000000837,0.071531426762235867
1.193000000000000949,0.071321737904262078
1.194000000000000838,0.071111272471594114
1.195000000000000728,0.070900039452479871
1.196000000000000840,0.070688047792255945
1.197000000000000952,0.070475306393394888
1.198000000000000842,0.070261824115567736
1.199000000000000732,0.070047609775677241
1.200000000000000844,0.069832672147940769
1.201000000000000956,0.069617019963917032
1.202000000000000846,0.069400661912577113
1.203000000000000735,0.069183606640365894
1.204000000000000847,0.068965862751256740
1.205000000000000959,0.068747438806801800
1.206000000000000849,0.068528343326210633
1.207000000000000739,0.068308584786405890
1.208000000000000851,0.068088171622082388
1.209000000000000963,0.067867112225782941
1.210000000000000853,0.067645414947947929
1.211000000000000743,0.067423088097005868
1.212000000000000854,0.067200139939415676
1.213000000000000966,0.066976578699765282
1.214000000000000856,0.066752412560810853
1.215000000000000746,0.066527649663572955
1.216000000000000858,0.066302298107398155
1.217000000000000970,0.066076365950033383
1.218000000000000860,0.065849861207706278
1.219000000000000750,0.065622791855196580
1.220000000000000862,0.065395165825907250
1.221000000000000973,0.065166991011956416
1.222000000000000863,0.064938275264242395
1.223000000000000753,0.064709026392532815
1.224000000000000865,0.064479252165539472
1.225000000000000977,0.064248960311000775
1.226000000000000867,0.064018158515766393
1.227000000000000757,0.063786854425881320
1.228000000000000869,0.063555055646667746
1.229000000000000981,0.063322769742803625
1.230000000000000870,0.063090004238429476
1.231000000000000760,0.062856766617211859
1.232000000000000872,0.062623064322435820
1.233000000000000984,0.062388904757113915
1.234000000000000874,0.062154295284045112
1.235000000000000764,0.061919243225927199
1.236000000000000876,0.061683755865437138
1.237000000000000988,0.061447840445327917
1.238000000000000878,0.061211504168514119
1.239000000000000767,0.060974754198174885
1.240000000000000879,0.060737597657838947
1.241000000000000991,0.060500041631484480
1.242000000000000881,0.060262093163631847
1.243000000000000771,0.060023759259443178
1.244000000000000883,0.059785046884811267
1.245000000000000995,0.059545962966466581
1.246000000000000885,0.059306514392066544
1.247000000000000774,0.059066708010304801
1.248000000000000886,0.058826550630998772
1.249000000000000998,0.058586049025200128
1.250000000000000888,0.058345209925284601
1.251000000000000778,0.058104040025064717
1.252000000000000890,0.057862545979880373
1.253000000000001002,0.057620734406713184
1.254000000000000892,0.057378611884277064
1.255000000000000782,0.057136184953131178
1.256000000000000894,0.056893460115782044
1.257000000000001005,0.056650443836783693
1.258000000000000895,0.056407142542848163
1.259000000000000785,0.056163562622945598
1.260000000000000897,0.055919710428419811
1.261000000000001009,0.055675592273081519
1.262000000000000899,0.055431214433330545
1.263000000000000789,0.055186583148249958
1.264000000000000901,0.054941704619722406
1.265000000000001013,0.054696585012540801
1.266000000000000902,0.054451230454503993
1.267000000000000792,0.054205647036545554
1.268000000000000904,0.053959840812825843
1.269000000000001016,0.053713817800854956
1.270000000000000906,0.053467583981594416
1.271000000000000796,0.053221145299575542
1.272000000000000908,0.052974507663009332
1.273000000000001020,0.052727676943892812
1.274000000000000909,0.052480658978127370
1.275000000000000799,0.052233459565634112
1.276000000000000911,0.051986084470454295
1.277000000000001023,0.051738539420876514
1.278000000000000913,0.051490830109547928
1.279000000000000803,0.051242962193576581
1.280000000000000915,0.050994941294656718
1.281000000000001027,0.050746772999187915
1.282000000000000917,0.050498462858375857
1.283000000000000806,0.050250016388360144
1.284000000000000918,0.050001439070318329
1.285000000000001030,0.049752736350595142
1.286000000000000920,0.049503913640807987
1.287000000000000810,0.049254976317967256
1.288000000000000922,0.049005929724591897
1.289000000000001034,0.048756779168828465
1.290000000000000924,0.048507529924569137
1.291000000000000814,0.048258187231558593
1.292000000000000925,0.048008756295532591
1.293000000000001037,0.047759242288308773
1.294000000000000927,0.047509650347923336
1.295000000000000817,0.047259985578753758
1.296000000000000929,0.047010253051613840
1.297000000000001041,0.046760457803894526
1.298000000000000931,0.046510604839673786
1.299000000000000821,0.046260699129830364
1.300000000000000933,0.046010745612176447
1.301000000000001044,0.045760749191564004
1.302000000000000934,0.045510714740011712
1.303000000000000824,0.045260647096814197
1.304000000000000936,0.045010551068680821
1.305000000000001048,0.044760431429834151
1.306000000000000938,0.044510292922144493
1.307000000000000828,0.044260140255240443
1.308000000000000940,0.044009978106639112
1.309000000000001052,0.043759811121851865
1.310000000000000941,0.043509643914523180
1.311000000000000831,0.043259481066528958
1.312000000000000943,0.043009327128120264
1.313000000000001055,0.042759186618021985
1.314000000000000945,0.042509064023572254
1.315000000000000835,0.042258963800829205
1.316000000000000947,0.042008890374697079
1.317000000000001059,0.041758848139046054
1.318000000000000949,0.041508841456840896
1.319000000000000838,0.041258874660240988
1.320000000000000950,0.041008952050744348
1.321000000000001062,0.040759077899297017
1.322000000000000952,0.040509256446410145
1.323000000000000842,0.040259491902292395
1.324000000000000954,0.040009788446961347
1.325000000000001066,0.039760150230368344
1.326000000000000956,0.039510581372517131
1.327000000000000846,0.039261085963585407
1.328000000000000957,0.039011668064046753
1.329000000000001069,0.038762331704793873
1.330000000000000959,0.038513080887250029
1.331000000000000849,0.038263919583496335
1.332000000000000961,0.038014851736399083
1.333000000000001073,0.037765881259719622
1.334000000000000963,0.037517012038235056
1.335000000000000853,0.037268247927864248
1.336000000000000965,0.037019592755789539
1.337000000000001076,0.036771050320568363
1.338000000000000966,0.036522624392263732
1.339000000000000856,0.036274318712557360
1.340000000000000968,0.036026136994871880
1.341000000000001080,0.035778082924494789
1.342000000000000970,0.035530160158693223
1.343000000000000860,0.035282372326831200
1.344000000000000972,0.035034723030503694
1.345000000000001084,0.034787215843637358
1.346000000000000973,0.034539854312623283
1.347000000000000863,0.034292641956431794
1.348000000000000975,0.034045582266735097
1.349000000000001087,0.033798678708024013
1.350000000000000977,0.033551934717722089
1.351000000000000867,0.033305353706310638
1.352000000000000979,0.033058939057457659
1.353000000000001091,0.032812694128110956
1.354000000000000981,0.032566622248640223
1.355000000000000870,0.032320726722944643
1.356000000000000982,0.032075010828573697
1.357000000000001094,0.031829477816843747
1.358000000000000984,0.031584130912958974
1.359000000000000874,0.031338973316126395
1.360000000000000986,0.031094008199680244
1.361000000000001098,0.030849238711183235
1.362000000000000988,0.030604667972564996
1.363000000000000878,0.030360299080226583
1.364000000000000989,0.030116135105154124
1.365000000000001101,0.029872179093052946
1.366000000000000991,0.029628434064443432
1.367000000000000881,0.029384903014791582
1.368000000000000993,0.029141588914619133
1.369000000000001105,0.028898494709622392
1.370000000000000995,0.028655623320785674
1.371000000000000885,0.028412977644501063
1.372000000000000997,0.028170560552681283
1.373000000000001108,0.027928374892871137
1.374000000000000998,0.027686423488372885
1.375000000000000888,0.027444709138351554
1.376000000000001000,0.027203234617949001
1.377000000000001112,0.026962002678412467
1.378000000000001002,0.026721016047190314
1.379000000000000892,0.026480277428058269
1.380000000000001004,0.026239789501231885
1.381000000000001116,0.025999554923470232
1.382000000000001005,0.025759576328204081
1.383000000000000895,0.025519856325640477
1.384000000000001007,0.025280397502876022
1.385000000000001119,0.025041202424012039
1.386000000000001009,0.024802273630260968
1.387000000000000899,0.024563613640075584
1.388000000000001011,0.024325224949231287
1.389000000000001123,0.024087110030968212
1.390000000000001013,0.023849271336086962
1.391000000000000902,0.023611711293058519
1.392000000000001014,0.023374432308145524
1.393000000000001126,0.023137436765502811
1.394000000000001016,0.022900727027291578
1.395000000000000906,0.022664305433790388
1.396000000000001018,0.022428174303507419
1.397000000000001130,0.022192335933283562
1.398000000000001020,0.021956792598408374
1.399000000000000909,0.021721546552724964
1.400000000000001021,0.021486600028741150
1.401000000000001133,0.021251955237736108
1.402000000000001023,0.021017614369872425
1.403000000000000913,0.020783579594302246
1.404000000000001025,0.020549853059269249
1.405000000000001137,0.020316436892229759
1.406000000000001027,0.020083333199946481
1.407000000000000917,0.019850544068598548
1.408000000000001029,0.019618071563896316
1.409000000000001140,0.019385917731180469
1.410000000000001030,0.019154084595525971
1.411000000000000920,0.018922574161857379
1.412000000000001032,0.018691388415043333
1.413000000000001144,0.018460529320008828
1.414000000000001034,0.018229998821841426
1.415000000000000924,0.017999798845892721
1.416000000000001036,0.017769931297874981
1.417000000000001148,0.017540398063980507
1.418000000000001037,0.017311201010980333
1.419000000000000927,0.017082341986321064
1.420000000000001039,0.016853822818232885
1.421000000000001151,0.016625645315832167
1.422000000000001041,0.016397811269229963
1.423000000000000931,0.016170322449620515
1.424000000000001043,0.015943180609393620
1.425000000000001155,0.015716387482238525
1.426000000000001044,0.015489944783235010
1.427000000000000934,0.015263854208963252
1.428000000000001046,0.015038117437600340
1.429000000000001158,0.014812736129024987
1.430000000000001048,0.014587711924908858
1.431000000000000938,0.014363046448831008
1.432000000000001050,0.014138741306361649
1.433000000000001162,0.013914798085168956
1.434000000000001052,0.013691218355122606
1.435000000000000941,0.013468003668380335
1.436000000000001053,0.013245155559501679
1.437000000000001165,0.013022675545530771
1.438000000000001055,0.012800565126103553
1.439000000000000945,0.012578825783540915
1.440000000000001057,0.012357458982948381
1.441000000000001169,0.012136466172313041
1.442000000000001059,0.011915848782596010
1.443000000000000949,0.011695608227831968
1.444000000000001060,0.011475745905224604
1.445000000000001172,0.011256263195243272
1.446000000000001062,0.011037161461711015
1.447000000000000952,0.010818442051909457
1.448000000000001064,0.010600106296667286
1.449000000000001176,0.010382155510454145
1.450000000000001066,0.010164590991477825
1.451000000000000956,0.009947414021775351
1.452000000000001068,0.009730625867308029
1.453000000000001180,0.009514227778048971
1.454000000000001069,0.009298220988086889
1.455000000000000959,0.009082606715704504
1.456000000000001071,0.008867386163479362
1.457000000000001183,0.008652560518373733
1.458000000000001073,0.008438130951823747
1.459000000000000963,0.008224098619832896
1.460000000000001075,0.008010464663064192
1.461000000000001187,0.007797230206923028
1.462000000000001076,0.007584396361653874
1.463000000000000966,0.007371964222429851
1.464000000000001078,0.007159934869436087
1.465000000000001190,0.006948309367967774
1.466000000000001080,0.006737088768507234
1.467000000000000970,0.006526274106824678
1.468000000000001082,0.006315866404054828
1.469000000000001194,0.006105866666797431
1.470000000000001084,0.005896275887190103
1.471000000000000973,0.005687095043005215
1.472000000000001085,0.005478325097729779
1.473000000000001197,0.005269967000663951
1.474000000000001087,0.005062021686989241
1.475000000000000977,0.004854490077870076
1.476000000000001089,0.004647373080531967
1.477000000000001201,0.004440671588343128
1.478000000000001091,0.004234386480906491
1.479000000000000981,0.004028518624143820
1.480000000000001092,0.003823068870370431
1.481000000000001204,0.003618038058391231
1.482000000000001094,0.003413427013573984
1.483000000000000984,0.003209236547934743
1.484000000000001096,0.003005467460232299
1.485000000000001208,0.002802120536029420
1.486000000000001098,0.002599196547792519
1.487000000000000988,0.002396696254965606
1.488000000000001100,0.002194620404053567
1.489000000000001211,0.001992969728700867
1.490000000000001101,0.001791744949776853
1.491000000000000991,0.001590946775450474
1.492000000000001103,0.001390575901280163
1.493000000000001215,0.001190633010276318
1.494000000000001105,0.000991118773001393
1.495000000000000995,0.000792033847635885
1.496000000000001107,0.000593378880058602
1.497000000000001219,0.000395154503927328
1.498000000000001108,0.000197361340758018
1.499000000000000998,0.000000000000000000
