# TiO2-ana-100_TYRSCA-JS
# h[nm],U(h)[kJ/mol]
0.149999999999999994,121.441381196787716590
0.150999999999999995,119.528612120594630142
0.151999999999999996,117.185935372876969041
0.152999999999999997,114.799936874442138901
0.153999999999999998,112.507629877148858100
0.154999999999999999,110.330342165740674432
0.156000000000000000,108.245341143374886883
0.157000000000000001,106.221059212455912757
0.158000000000000002,104.231961567351234521
0.159000000000000002,102.262750040328953105
0.160000000000000003,100.307560244964506069
0.161000000000000004,98.367295626043741663
0.162000000000000005,96.446718035863909790
0.163000000000000006,94.552023245872732105
0.164000000000000007,92.689134999557566630
0.165000000000000008,90.862698239907999209
0.166000000000000009,89.075641480498063629
0.167000000000000010,87.329147102175042505
0.168000000000000010,85.622877977899150892
0.169000000000000011,83.955336266138630208
0.170000000000000012,82.324262467838053681
0.171000000000000013,80.727013128214153426
0.172000000000000014,79.160880842523084766
0.173000000000000015,77.623339609857808341
0.174000000000000016,76.112212340420086321
0.175000000000000017,74.625766270396113100
0.176000000000000018,73.162747166765171869
0.177000000000000018,71.722365486940205415
0.178000000000000019,70.304247954065075987
0.179000000000000020,68.908367022893941112
0.180000000000000021,67.534958990167069715
0.181000000000000022,66.184439449871931060
0.182000000000000023,64.857322688191743509
0.183000000000000024,63.554149637563043029
0.184000000000000025,62.275427270961458248
0.185000000000000026,61.021580867724004804
0.186000000000000026,59.792919433454038369
0.187000000000000027,58.589613695725027753
0.188000000000000028,57.411685495719417816
0.189000000000000029,56.259007016833699311
0.190000000000000030,55.131308095056866136
0.191000000000000031,54.028189803749604891
0.192000000000000032,52.949142561469820123
0.193000000000000033,51.893567144108445177
0.194000000000000034,50.860797165030497524
0.195000000000000034,49.850121797229867582
0.196000000000000035,48.860807732403628734
0.197000000000000036,47.892119590205069812
0.198000000000000037,46.943338197264424139
0.199000000000000038,46.013776343465636387
0.200000000000000039,45.102791788553012964
0.201000000000000040,44.209797433519526066
0.202000000000000041,43.334268688054201846
0.203000000000000042,42.475748158379069253
0.204000000000000042,41.633847850664487567
0.205000000000000043,40.808249135974286048
0.206000000000000044,39.998700755741140256
0.207000000000000045,39.205015164622807333
0.208000000000000046,38.427063512733717232
0.209000000000000047,37.664769564078248720
0.210000000000000048,36.918102834751650221
0.211000000000000049,36.187071215132029067
0.212000000000000050,35.471713316636929392
0.213000000000000050,34.772090757199123345
0.214000000000000051,34.088280571721320200
0.215000000000000052,33.420367905476815906
0.216000000000000053,32.768439120589654578
0.217000000000000054,32.132575419030807495
0.218000000000000055,31.512847060507290564
0.219000000000000056,30.909308230559634723
0.220000000000000057,30.321992593347903977
0.221000000000000058,29.750909545130262757
0.222000000000000058,29.196041168354572193
0.223000000000000059,28.657339872571021999
0.224000000000000060,28.134726696945044466
0.225000000000000061,27.628090239884066648
0.226000000000000062,27.137286174035654795
0.227000000000000063,26.662137299497619125
0.228000000000000064,26.202434084320127994
0.229000000000000065,25.757935639087016000
0.230000000000000066,25.328371071355221034
0.231000000000000066,24.913441165823737578
0.232000000000000067,24.512820337125866388
0.233000000000000068,24.126158803927928886
0.234000000000000069,23.753084935424517710
0.235000000000000070,23.393207724208430420
0.236000000000000071,23.046119342739206814
0.237000000000000072,22.711397744128380083
0.238000000000000073,22.388609271606959794
0.239000000000000073,22.077311244757972020
0.240000000000000074,21.777054494312622523
0.241000000000000075,21.487385820965165806
0.242000000000000076,21.207850357208933190
0.243000000000000077,20.937993814595024844
0.244000000000000078,20.677364602036277574
0.245000000000000079,20.425515803798571568
0.246000000000000080,20.182007008623852329
0.247000000000000081,19.946405984003995115
0.248000000000000081,19.718290191966769243
0.249000000000000082,19.497248144844647300
0.250000000000000111,19.282880601375484986
0.251000000000000112,19.074801605138553384
0.252000000000000113,18.872639368767217150
0.253000000000000114,18.676037008611398704
0.254000000000000115,18.484653135559753423
0.255000000000000115,18.298162308586650937
0.256000000000000116,18.116255358274521825
0.257000000000000117,17.938639588092446076
0.258000000000000118,17.765038861600583431
0.259000000000000119,17.595193584009660270
0.260000000000000120,17.428860586669937760
0.261000000000000121,17.265812923106704346
0.262000000000000122,17.105839585172006423
0.263000000000000123,16.948745147756877572
0.264000000000000123,16.794349350315350478
0.265000000000000124,16.642486623201968143
0.266000000000000125,16.493005566527024541
0.267000000000000126,16.345768388898470391
0.268000000000000127,16.200650313052403106
0.269000000000000128,16.057538954985396629
0.270000000000000129,15.916333682794924442
0.271000000000000130,15.776944961017900226
0.272000000000000131,15.639293685834541492
0.273000000000000131,15.503310516081949544
0.274000000000000132,15.368935204601418931
0.275000000000000133,15.236115934030172170
0.276000000000000134,15.104808660744527771
0.277000000000000135,14.974976470269499629
0.278000000000000136,14.846588947092357103
0.279000000000000137,14.719621561455690895
0.280000000000000138,14.594055075360838458
0.281000000000000139,14.469874969685625032
0.282000000000000139,14.347070894012560416
0.283000000000000140,14.225636140474353653
0.284000000000000141,14.105567142654638957
0.285000000000000142,13.986863000331140938
0.286000000000000143,13.869525030617802841
0.287000000000000144,13.753556345850288523
0.288000000000000145,13.638961458365551849
0.289000000000000146,13.525745912150634709
0.290000000000000147,13.413915941177029012
0.291000000000000147,13.303478154095660813
0.292000000000000148,13.194439244840875602
0.293000000000000149,13.086805728581472508
0.294000000000000150,12.980583702359648868
0.295000000000000151,12.875778629675727061
0.296000000000000152,12.772395148205664128
0.297000000000000153,12.670436899779407014
0.298000000000000154,12.569906381700088005
0.299000000000000155,12.470804818446175943
0.300000000000000155,12.373132052769745926
0.301000000000000156,12.276886455184309099
0.302000000000000157,12.182064850822841962
0.303000000000000158,12.088662462641645234
0.304000000000000159,11.996672869946497286
0.305000000000000160,11.906087981224526828
0.306000000000000161,11.816898020276886072
0.307000000000000162,11.729091524663767032
0.308000000000000163,11.642655355493587876
0.309000000000000163,11.557574717611876380
0.310000000000000164,11.473833189272051314
0.311000000000000165,11.391412760399495241
0.312000000000000166,11.310293878591496153
0.313000000000000167,11.230455502028593884
0.314000000000000168,11.151875158507156272
0.315000000000000169,11.074529009838199656
0.316000000000000170,10.998391920893537232
0.317000000000000171,10.923437532616617318
0.318000000000000171,10.849638338352288969
0.319000000000000172,10.776965762886007383
0.320000000000000173,10.705390243619614665
0.321000000000000174,10.634881313346779663
0.322000000000000175,10.565407684126491006
0.323000000000000176,10.496937331787972170
0.324000000000000177,10.429437580634246530
0.325000000000000178,10.362875187944631250
0.326000000000000179,10.297216427908654879
0.327000000000000179,10.232427174654862512
0.328000000000000180,10.168472984067999931
0.329000000000000181,10.105319174116733194
0.330000000000000182,10.042930903441877888
0.331000000000000183,9.981273247981302887
0.332000000000000184,9.920311275432979414
0.333000000000000185,9.860010117381609263
0.334000000000000186,9.800335038936822230
0.335000000000000187,9.741251505752600792
0.336000000000000187,9.682725248317685995
0.337000000000000188,9.624722323425952908
0.338000000000000189,9.567209172753418756
0.339000000000000190,9.510152678485429334
0.340000000000000191,9.453520215953208350
0.341000000000000192,9.397279703253223815
0.342000000000000193,9.341399647836583497
0.343000000000000194,9.285849190067768433
0.344000000000000195,9.230598143763817376
0.345000000000000195,9.175617033735113282
0.346000000000000196,9.120877130358888252
0.347000000000000197,9.066350481224947799
0.348000000000000198,9.012009939901222566
0.349000000000000199,8.957829191873567964
0.350000000000000200,8.903782777720731900
0.351000000000000201,8.849846113590881913
0.352000000000000202,8.795995509051085293
0.353000000000000203,8.742208182385251547
0.354000000000000203,8.688462273419933268
0.355000000000000204,8.634736853960266245
0.356000000000000205,8.581011935921074141
0.357000000000000206,8.527268477240067313
0.358000000000000207,8.473488385661884337
0.359000000000000208,8.419654520482717786
0.360000000000000209,8.365750692346114903
0.361000000000000210,8.311761661181105154
0.362000000000000210,8.257673132373538394
0.363000000000000211,8.203471751261716349
0.364000000000000212,8.149145096046478187
0.365000000000000213,8.094681669205398222
0.366000000000000214,8.040070887499611629
0.367000000000000215,7.985303070660563662
0.368000000000000216,7.930369428842507951
0.369000000000000217,7.875262048925160130
0.370000000000000218,7.819973879748880918
0.371000000000000218,7.764498716363166686
0.372000000000000219,7.708831183367001572
0.373000000000000220,7.652966717417635678
0.374000000000000221,7.596901548982110342
0.375000000000000222,7.540632683403723391
0.376000000000000223,7.484157881352987651
0.377000000000000224,7.427475638730710372
0.378000000000000225,7.370585166087991524
0.379000000000000226,7.313486367625834816
0.380000000000000226,7.256179819834374989
0.381000000000000227,7.198666749829490286
0.382000000000000228,7.140949013441920457
0.383000000000000229,7.083029073111714702
0.384000000000000230,7.024909975638360393
0.385000000000000231,6.966595329834473382
0.386000000000000232,6.908089284128722696
0.387000000000000233,6.849396504161108901
0.388000000000000234,6.790522150411614000
0.389000000000000234,6.731471855900812429
0.390000000000000235,6.672251703998921535
0.391000000000000236,6.612868206377584102
0.392000000000000237,6.553328281136482580
0.393000000000000238,6.493639231134940459
0.394000000000000239,6.433808722556546122
0.395000000000000240,6.373844763732929408
0.396000000000000241,6.313755684250998534
0.397000000000000242,6.253550114365904022
0.398000000000000242,6.193236964740478356
0.399000000000000243,6.132825406530011847
0.400000000000000244,6.072324851829622006
0.401000000000000245,6.011744934499849258
0.402000000000000246,5.951095491384730707
0.403000000000000247,5.890386543934856611
0.404000000000000248,5.829628280246800465
0.405000000000000249,5.768831037528748595
0.406000000000000250,5.708005285000985474
0.407000000000000250,5.647161607238596837
0.408000000000000251,5.586310687962611432
0.409000000000000252,5.525463294284657323
0.410000000000000253,5.464630261409176626
0.411000000000000254,5.403822477796188295
0.412000000000000255,5.343050870786734130
0.413000000000000256,5.282326392692029415
0.414000000000000257,5.221660007346796917
0.415000000000000258,5.161062677126103893
0.416000000000000258,5.100545350424614099
0.417000000000000259,5.040118949596143594
0.418000000000000260,4.979794359350992572
0.419000000000000261,4.919582415607719028
0.420000000000000262,4.859493894795595459
0.421000000000000263,4.799539503603255319
0.422000000000000264,4.739729869168820109
0.423000000000000265,4.680075529705986170
0.424000000000000266,4.620586925560436597
0.425000000000000266,4.561274390690359226
0.426000000000000267,4.502148144564552368
0.427000000000000268,4.443218284471296187
0.428000000000000269,4.384494778230830114
0.429000000000000270,4.325987457304053763
0.430000000000000271,4.267706010289758822
0.431000000000000272,4.209659976802582193
0.432000000000000273,4.151858741723617463
0.433000000000000274,4.094311529815492179
0.434000000000000274,4.037027400693501633
0.435000000000000275,3.980015244144472497
0.436000000000000276,3.923283775784651706
0.437000000000000277,3.866841533048075430
0.438000000000000278,3.810696871496714433
0.439000000000000279,3.754857961443641923
0.440000000000000280,3.699332784880478897
0.441000000000000281,3.644129132700379525
0.442000000000000282,3.589254602207734735
0.443000000000000282,3.534716594905957798
0.444000000000000283,3.480522314554536756
0.445000000000000284,3.426678765486790290
0.446000000000000285,3.373192751179679760
0.447000000000000286,3.320070873067135775
0.448000000000000287,3.267319529588481597
0.449000000000000288,3.214944915463552100
0.450000000000000289,3.162953021186225122
0.451000000000000290,3.111349632728235726
0.452000000000000290,3.060140331445130979
0.453000000000000291,3.009330494176489790
0.454000000000000292,2.958925293532532308
0.455000000000000293,2.908929698359404181
0.456000000000000294,2.859348474375614124
0.457000000000000295,2.810186184972112144
0.458000000000000296,2.761447192168775544
0.459000000000000297,2.713135657720098681
0.460000000000000298,2.665255544363067663
0.461000000000000298,2.617810617200418299
0.462000000000000299,2.570804445212455214
0.463000000000000300,2.524240402890958190
0.464000000000000301,2.478121671988696928
0.465000000000000302,2.432451243378360939
0.466000000000000303,2.387231919014701109
0.467000000000000304,2.342466313994015614
0.468000000000000305,2.298156858705160399
0.469000000000000306,2.254305801066409209
0.470000000000000306,2.210915208842703983
0.471000000000000307,2.167986972037968307
0.472000000000000308,2.125522805357278777
0.473000000000000309,2.083524250733850725
0.474000000000000310,2.041992679916049269
0.475000000000000311,2.000929297109526939
0.476000000000000312,1.960335141670145775
0.477000000000000313,1.920211090842973478
0.478000000000000314,1.880557862543329239
0.479000000000000314,1.841376018175533646
0.480000000000000315,1.802665965485479305
0.481000000000000316,1.764427961443097104
0.482000000000000317,1.726662115151027965
0.483000000000000318,1.689368390775871420
0.484000000000000319,1.652546610498581092
0.485000000000000320,1.616196457480680193
0.486000000000000321,1.580317478843058066
0.487000000000000322,1.544909088654313978
0.488000000000000322,1.509970570925684541
0.489000000000000323,1.475501082609711689
0.490000000000000324,1.441499656599948276
0.491000000000000325,1.407965204729096031
0.492000000000000326,1.374896520763109420
0.493000000000000327,1.342292283388854868
0.494000000000000328,1.310151059193116252
0.495000000000000329,1.278471305630699772
0.496000000000000330,1.247251373979701095
0.497000000000000330,1.216489512281811569
0.498000000000000331,1.186183868265985097
0.499000000000000332,1.156332492253561606
0.500000000000000333,1.126933340043210663
0.501000000000000334,1.097984275774162688
0.502000000000000335,1.069483074766135910
0.503000000000000336,1.041427426334645912
0.504000000000000337,1.013814936580275328
0.505000000000000338,0.986643131150726327
0.506000000000000338,0.959909457974444380
0.507000000000000339,0.933611289964701663
0.508000000000000340,0.907745927693168086
0.509000000000000341,0.882310602031946778
0.510000000000000342,0.857302476763253218
0.511000000000000343,0.832718651155840872
0.512000000000000344,0.808556162507491849
0.513000000000000345,0.784811988652833636
0.514000000000000346,0.761483050435815101
0.515000000000000346,0.738566214146339162
0.516000000000000347,0.716058293920460054
0.517000000000000348,0.693956054103693321
0.518000000000000349,0.672256211577018981
0.519000000000000350,0.650955438045202728
0.520000000000000351,0.630050362287122523
0.521000000000000352,0.609537572367768843
0.522000000000000353,0.589413617811791579
0.523000000000000353,0.569675011738244086
0.524000000000000354,0.550318232956521602
0.525000000000000355,0.531339728023269453
0.526000000000000356,0.512735913260249587
0.527000000000000357,0.494503176733084193
0.528000000000000358,0.476637880190856122
0.529000000000000359,0.459136360966642176
0.530000000000000360,0.441994933838983695
0.531000000000000361,0.425209892854377602
0.532000000000000361,0.408777513110922253
0.533000000000000362,0.392694052503239188
0.534000000000000363,0.376955753428840024
0.535000000000000364,0.361558844456089712
0.536000000000000365,0.346499541954046975
0.537000000000000366,0.331774051684317506
0.538000000000000367,0.317378570355267009
0.539000000000000368,0.303309287138763761
0.540000000000000369,0.289562385149829016
0.541000000000000369,0.276134042889418230
0.542000000000000370,0.263020435650743345
0.543000000000000371,0.250217736889361997
0.544000000000000372,0.237722119557488787
0.545000000000000373,0.225529757402811531
0.546000000000000374,0.213636826232228877
0.547000000000000375,0.202039505140892472
0.548000000000000376,0.190733977706921853
0.549000000000000377,0.179716433152247806
0.550000000000000377,0.168983067469921061
0.551000000000000378,0.158530084518426567
0.552000000000000379,0.148353697083294878
0.553000000000000380,0.138450127906572046
0.554000000000000381,0.128815610684524462
0.555000000000000382,0.119446391034017357
0.556000000000000383,0.110338727428102398
0.557000000000000384,0.101488892101152334
0.558000000000000385,0.092893171924132850
0.559000000000000385,0.084547869250378077
0.560000000000000386,0.076449302732383789
0.561000000000000387,0.068593808110088056
0.562000000000000388,0.060977738971114429
0.563000000000000389,0.053597467483413652
0.564000000000000390,0.046449385100840110
0.565000000000000391,0.039529903242089048
0.566000000000000392,0.032835453943499938
0.567000000000000393,0.026362490486161572
0.568000000000000393,0.020107487997861596
0.569000000000000394,0.014066944030283413
0.570000000000000395,0.008237379111946530
0.571000000000000396,0.002615337277406327
0.572000000000000397,-0.002802613426909439
0.573000000000000398,-0.008019880459671835
0.574000000000000399,-0.013039846324023708
0.575000000000000400,-0.017865868128864260
0.576000000000000401,-0.022501277171586766
0.577000000000000401,-0.026949378541856417
0.578000000000000402,-0.031213450745906045
0.579000000000000403,-0.035296745350949975
0.580000000000000404,-0.039202486649287049
0.581000000000000405,-0.042933871341577980
0.582000000000000406,-0.046494068238959851
0.583000000000000407,-0.049886217983466798
0.584000000000000408,-0.053113432786419688
0.585000000000000409,-0.056178796184290072
0.586000000000000409,-0.059085362811646315
0.587000000000000410,-0.061836158190810231
0.588000000000000411,-0.064434178537706915
0.589000000000000412,-0.066882390583649087
0.590000000000000413,-0.069183731412514299
0.591000000000000414,-0.071341108313021512
0.592000000000000415,-0.073357398645681512
0.593000000000000416,-0.075235449724023781
0.594000000000000417,-0.076978078709736691
0.595000000000000417,-0.078588072521384139
0.596000000000000418,-0.080068187756230841
0.597000000000000419,-0.081421150624949853
0.598000000000000420,-0.082649656898713522
0.599000000000000421,-0.083756371868451127
0.600000000000000422,-0.084743930315821739
0.601000000000000423,-0.085614936495604338
0.602000000000000424,-0.086371964129190015
0.603000000000000425,-0.087017556408828967
0.604000000000000425,-0.087554226012262634
0.605000000000000426,-0.087984455127517264
0.606000000000000427,-0.088310695487476346
0.607000000000000428,-0.088535368413913393
0.608000000000000429,-0.088660864870773501
0.609000000000000430,-0.088689545526278793
0.610000000000000431,-0.088623740823689956
0.611000000000000432,-0.088465751060348735
0.612000000000000433,-0.088217846474762204
0.613000000000000433,-0.087882267341463718
0.614000000000000434,-0.087461224073341712
0.615000000000000435,-0.086956897331204916
0.616000000000000436,-0.086371438140301821
0.617000000000000437,-0.085706968013587764
0.618000000000000438,-0.084965579081418094
0.619000000000000439,-0.084149334227473505
0.620000000000000440,-0.083260267230677643
0.621000000000000441,-0.082300382912851175
0.622000000000000441,-0.081271657291906066
0.623000000000000442,-0.080176037740293915
0.624000000000000443,-0.079015443148582304
0.625000000000000444,-0.077791764093866789
0.626000000000000445,-0.076506863012830911
0.627000000000000446,-0.075162574379278466
0.628000000000000447,-0.073760704885906331
0.629000000000000448,-0.072303033630124539
0.630000000000000449,-0.070791312303739917
0.631000000000000449,-0.069227265386332656
0.632000000000000450,-0.067612590342112505
0.633000000000000451,-0.065948957820109344
0.634000000000000452,-0.064238011857481750
0.635000000000000453,-0.062481370085834008
0.636000000000000454,-0.060680623940310131
0.637000000000000455,-0.058837338871376786
0.638000000000000456,-0.056953054559057546
0.639000000000000457,-0.055029285129536046
0.640000000000000457,-0.053067519373948956
0.641000000000000458,-0.051069220969200232
0.642000000000000459,-0.049035828700721470
0.643000000000000460,-0.046968756686962675
0.644000000000000461,-0.044869394605535781
0.645000000000000462,-0.042739107920867325
0.646000000000000463,-0.040579238113203520
0.647000000000000464,-0.038391102908895046
0.648000000000000465,-0.036175996511808139
0.649000000000000465,-0.033935189835744770
0.650000000000000466,-0.031669930737785922
0.651000000000000467,-0.029381444252405096
0.652000000000000468,-0.027070932826301509
0.653000000000000469,-0.024739576553777030
0.654000000000000470,-0.022388533412646305
0.655000000000000471,-0.020018939500498843
0.656000000000000472,-0.017631909271262392
0.657000000000000473,-0.015228535771968454
0.658000000000000473,-0.012809890879637419
0.659000000000000474,-0.010377025538183381
0.660000000000000475,-0.007930969995260839
0.661000000000000476,-0.005472734038971394
0.662000000000000477,-0.003003307234371277
0.663000000000000478,-0.000523659159667900
0.664000000000000479,0.001965260357927811
0.665000000000000480,0.004462521006809684
0.666000000000000481,0.006967211756040670
0.667000000000000481,0.009478440621046103
0.668000000000000482,0.011995334429874304
0.669000000000000483,0.014517038590198927
0.670000000000000484,0.017042716857042107
0.671000000000000485,0.019571551101308971
0.672000000000000486,0.022102741079210175
0.673000000000000487,0.024635504202546010
0.674000000000000488,0.027169075310012846
0.675000000000000488,0.029702706439490533
0.676000000000000489,0.032235666601381038
0.677000000000000490,0.034767241553087171
0.678000000000000491,0.037296733574604946
0.679000000000000492,0.039823461245320657
0.680000000000000493,0.042346759222036234
0.681000000000000494,0.044865978018249764
0.682000000000000495,0.047380483784758544
0.683000000000000496,0.049889658091569353
0.684000000000000496,0.052392897711196970
0.685000000000000497,0.054889614403365705
0.686000000000000498,0.057379234701124424
0.687000000000000499,0.059861199698431865
0.688000000000000500,0.062334964839226868
0.689000000000000501,0.064799999708005387
0.690000000000000502,0.067255787821923915
0.691000000000000503,0.069701826424471869
0.692000000000000504,0.072137626280735126
0.693000000000000504,0.074562711474212479
0.694000000000000505,0.076976619205310182
0.695000000000000506,0.079378899591421775
0.696000000000000507,0.081769115468687634
0.697000000000000508,0.084146842195420873
0.698000000000000509,0.086511667457201763
0.699000000000000510,0.088863191073680792
0.700000000000000511,0.091201024807088998
0.701000000000000512,0.093524792172458390
0.702000000000000512,0.095834128249584288
0.703000000000000513,0.098128679496722146
0.704000000000000514,0.100408103566027168
0.705000000000000515,0.102672069120759143
0.706000000000000516,0.104920255654244038
0.707000000000000517,0.107152353310601620
0.708000000000000518,0.109368062707267469
0.709000000000000519,0.111567094759242397
0.710000000000000520,0.113749170505193203
0.711000000000000520,0.115914020935278445
0.712000000000000521,0.118061386820791064
0.713000000000000522,0.120191018545588266
0.714000000000000523,0.122302675939293490
0.715000000000000524,0.124396128112305895
0.716000000000000525,0.126471153292586735
0.717000000000000526,0.128527538664235219
0.718000000000000527,0.130565080207859230
0.719000000000000528,0.132583582542724787
0.720000000000000528,0.134582858770660063
0.721000000000000529,0.136562730321796083
0.722000000000000530,0.138523026802016946
0.723000000000000531,0.140463585842228234
0.724000000000000532,0.142384252949359635
0.725000000000000533,0.144284881359132033
0.726000000000000534,0.146165331890602185
0.727000000000000535,0.148025472802420732
0.728000000000000536,0.149865179650852387
0.729000000000000536,0.151684335149533778
0.730000000000000537,0.153482829030933215
0.731000000000000538,0.155260557909564112
0.732000000000000539,0.157017425146880468
0.733000000000000540,0.158753340717895097
0.734000000000000541,0.160468221079476919
0.735000000000000542,0.162161989040360888
0.736000000000000543,0.163834573632788916
0.737000000000000544,0.165485909985873481
0.738000000000000544,0.167115939200566388
0.739000000000000545,0.168724608226314243
0.740000000000000546,0.170311869739329824
0.741000000000000547,0.171877682022507139
0.742000000000000548,0.173422008846912140
0.743000000000000549,0.174944819354946851
0.744000000000000550,0.176446087945045738
0.745000000000000551,0.177925794157986067
0.746000000000000552,0.179383922564762432
0.747000000000000552,0.180820462656015923
0.748000000000000553,0.182235408733025211
0.749000000000000554,0.183628759800225583
0.750000000000000555,0.185000519459247198
0.751000000000000556,0.186350695804479216
0.752000000000000557,0.187679301320110237
0.753000000000000558,0.188986352778704847
0.754000000000000559,0.190271871141185211
0.755000000000000560,0.191535881458339441
0.756000000000000560,0.192778412773734420
0.757000000000000561,0.193999498028104733
0.758000000000000562,0.195199173965136169
0.759000000000000563,0.196377481038669588
0.760000000000000564,0.197534463321303810
0.761000000000000565,0.198670168414394721
0.762000000000000566,0.199784647359405237
0.763000000000000567,0.200877954550637478
0.764000000000000568,0.201950147649297973
0.765000000000000568,0.203001287498892180
0.766000000000000569,0.204031438041956614
0.767000000000000570,0.205040666238079178
0.768000000000000571,0.206029041983226968
0.769000000000000572,0.206996638030351399
0.770000000000000573,0.207943529911249841
0.771000000000000574,0.208869795859698393
0.772000000000000575,0.209775516735809131
0.773000000000000576,0.210660775951633183
0.774000000000000576,0.211525659397965304
0.775000000000000577,0.212370255372346384
0.776000000000000578,0.213194654508274850
0.777000000000000579,0.213998949705561881
0.778000000000000580,0.214783236061882432
0.779000000000000581,0.215547610805452539
0.780000000000000582,0.216292173228851942
0.781000000000000583,0.217017024623961247
0.782000000000000584,0.217722268218023485
0.783000000000000584,0.218408009110796192
0.784000000000000585,0.219074354212773492
0.785000000000000586,0.219721412184513742
0.786000000000000587,0.220349293376986999
0.787000000000000588,0.220958109772998623
0.788000000000000589,0.221547974929636876
0.789000000000000590,0.222119003921731173
0.790000000000000591,0.222671313286337741
0.791000000000000592,0.223205020968207629
0.792000000000000592,0.223720246266246120
0.793000000000000593,0.224217109780940060
0.794000000000000594,0.224695733362745231
0.795000000000000595,0.225156240061420432
0.796000000000000596,0.225598754076306113
0.797000000000000597,0.226023400707507344
0.798000000000000598,0.226430306308003898
0.799000000000000599,0.226819598236665587
0.800000000000000600,0.227191404812121689
0.801000000000000600,0.227545855267554969
0.802000000000000601,0.227883079706322045
0.803000000000000602,0.228203209058445738
0.804000000000000603,0.228506375037940662
0.805000000000000604,0.228792710100969854
0.806000000000000605,0.229062347404836775
0.807000000000000606,0.229315420767755906
0.808000000000000607,0.229552064629448604
0.809000000000000608,0.229772414012508808
0.810000000000000608,0.229976604484536745
0.811000000000000609,0.230164772121079608
0.812000000000000610,0.230337053469255648
0.813000000000000611,0.230493585512191679
0.814000000000000612,0.230634505634153053
0.815000000000000613,0.230759951586392564
0.816000000000000614,0.230870061453740949
0.817000000000000615,0.230964973621881287
0.818000000000000616,0.231044826745302245
0.819000000000000616,0.231109759715957652
0.820000000000000617,0.231159911632588061
0.821000000000000618,0.231195421770700016
0.822000000000000619,0.231216429553193770
0.823000000000000620,0.231223074521649335
0.824000000000000621,0.231215496308237289
0.825000000000000622,0.231193834608241555
0.826000000000000623,0.231158229153215045
0.827000000000000624,0.231108819684731459
0.828000000000000624,0.231045745928723900
0.829000000000000625,0.230969147570439182
0.830000000000000626,0.230879164229928657
0.831000000000000627,0.230775935438138374
0.832000000000000628,0.230659600613551563
0.833000000000000629,0.230530299039375525
0.834000000000000630,0.230388169841282686
0.835000000000000631,0.230233351965675626
0.836000000000000631,0.230065984158482228
0.837000000000000632,0.229886204944464018
0.838000000000000633,0.229694152607048230
0.839000000000000634,0.229489965168641563
0.840000000000000635,0.229273780371446106
0.841000000000000636,0.229045735658765237
0.842000000000000637,0.228805968156776535
0.843000000000000638,0.228554614656783922
0.844000000000000639,0.228291811597921696
0.845000000000000639,0.228017695050322239
0.846000000000000640,0.227732400698730769
0.847000000000000641,0.227436063826541413
0.848000000000000642,0.227128819300294271
0.849000000000000643,0.226810801554579500
0.850000000000000644,0.226482144577347999
0.851000000000000645,0.226142981895663786
0.852000000000000646,0.225793446561838806
0.853000000000000647,0.225433671139961600
0.854000000000000647,0.225063787692830475
0.855000000000000648,0.224683927769263964
0.856000000000000649,0.224294222391778153
0.857000000000000650,0.223894802044649927
0.858000000000000651,0.223485796662339531
0.859000000000000652,0.223067335618261142
0.860000000000000653,0.222639547713911867
0.861000000000000654,0.222202561168355878
0.862000000000000655,0.221756503608019184
0.863000000000000655,0.221301502056851701
0.864000000000000656,0.220837682926787210
0.865000000000000657,0.220365172008544358
0.866000000000000658,0.219884094462731300
0.867000000000000659,0.219394574811254767
0.868000000000000660,0.218896736929056590
0.869000000000000661,0.218390704036123984
0.870000000000000662,0.217876598689805301
0.871000000000000663,0.217354542777395243
0.872000000000000663,0.216824657509038760
0.873000000000000664,0.216287063410871644
0.874000000000000665,0.215741880318454704
0.875000000000000666,0.215189227370469915
0.876000000000000667,0.214629223002673841
0.877000000000000668,0.214061984942116368
0.878000000000000669,0.213487630201594752
0.879000000000000670,0.212906275074377316
0.880000000000000671,0.212318035129140270
0.881000000000000671,0.211723025205174442
0.882000000000000672,0.211121359407789422
0.883000000000000673,0.210513151103977336
0.884000000000000674,0.209898512918274799
0.885000000000000675,0.209277556728858338
0.886000000000000676,0.208650393663853823
0.887000000000000677,0.208017134097844891
0.888000000000000678,0.207377887648604403
0.889000000000000679,0.206732763174008960
0.890000000000000679,0.206081868769164622
0.891000000000000680,0.205425311763719531
0.892000000000000681,0.204763198719368267
0.893000000000000682,0.204095635427544220
0.894000000000000683,0.203422726907289186
0.895000000000000684,0.202744577403300485
0.896000000000000685,0.202061290384154491
0.897000000000000686,0.201372968540706410
0.898000000000000687,0.200679713784639502
0.899000000000000687,0.199981627247197896
0.900000000000000688,0.199278809278065488
0.901000000000000689,0.198571359444406792
0.902000000000000690,0.197859376530057030
0.903000000000000691,0.197142958534860913
0.904000000000000692,0.196422202674164381
0.905000000000000693,0.195697205378442596
0.906000000000000694,0.194968062293065486
0.907000000000000695,0.194234868278208433
0.908000000000000695,0.193497717408885189
0.909000000000000696,0.192756702975123623
0.910000000000000697,0.192011917482250799
0.911000000000000698,0.191263452651325050
0.912000000000000699,0.190511399419667937
0.913000000000000700,0.189755847941520561
0.914000000000000701,0.188996887588834317
0.915000000000000702,0.188234606952138978
0.916000000000000703,0.187469093841552165
0.917000000000000703,0.186700435287879191
0.918000000000000704,0.185928717543822369
0.919000000000000705,0.185154026085295020
0.920000000000000706,0.184376445612826817
0.921000000000000707,0.183596060053074661
0.922000000000000708,0.182812952560429398
0.923000000000000709,0.182027205518694557
0.924000000000000710,0.181238900542888381
0.925000000000000711,0.180448118481100733
0.926000000000000711,0.179654939416455939
0.927000000000000712,0.178859442669148494
0.928000000000000713,0.178061706798567088
0.929000000000000714,0.177261809605476744
0.930000000000000715,0.176459828134311214
0.931000000000000716,0.175655838675512571
0.932000000000000717,0.174849916767940039
0.933000000000000718,0.174042137201377289
0.934000000000000719,0.173232574019075936
0.935000000000000719,0.172421300520379239
0.936000000000000720,0.171608389263416344
0.937000000000000721,0.170793912067844333
0.938000000000000722,0.169977940017655954
0.939000000000000723,0.169160543464051766
0.940000000000000724,0.168341792028362691
0.941000000000000725,0.167521754605023887
0.942000000000000726,0.166700499364607929
0.943000000000000727,0.165878093756910788
0.944000000000000727,0.165054604514080799
0.945000000000000728,0.164230097653795176
0.946000000000000729,0.163404638482500003
0.947000000000000730,0.162578291598661884
0.948000000000000731,0.161751120896100553
0.949000000000000732,0.160923189567331981
0.950000000000000733,0.160094560106976064
0.951000000000000734,0.159265294315178441
0.952000000000000735,0.158435453301092821
0.953000000000000735,0.157605097486388485
0.954000000000000736,0.156774286608787533
0.955000000000000737,0.155943079725648553
0.956000000000000738,0.155111535217567292
0.957000000000000739,0.154279710792014385
0.958000000000000740,0.153447663487009528
0.959000000000000741,0.152615449674813303
0.960000000000000742,0.151783125065643676
0.961000000000000743,0.150950744711432383
0.962000000000000743,0.150118363009592415
0.963000000000000744,0.149286033706811982
0.964000000000000745,0.148453809902872103
0.965000000000000746,0.147621744054485943
0.966000000000000747,0.146789887979153710
0.967000000000000748,0.145958292859043964
0.968000000000000749,0.145127009244880367
0.969000000000000750,0.144296087059860939
0.970000000000000751,0.143465575603575146
0.971000000000000751,0.142635523555950272
0.972000000000000752,0.141805978981214331
0.973000000000000753,0.140976989331841551
0.974000000000000754,0.140148601452554894
0.975000000000000755,0.139320861584301597
0.976000000000000756,0.138493815368259915
0.977000000000000757,0.137667507849849352
0.978000000000000758,0.136841983482746565
0.979000000000000759,0.136017286132906229
0.980000000000000759,0.135193459082601525
0.981000000000000760,0.134370545034460054
0.982000000000000761,0.133548586115500134
0.983000000000000762,0.132727623881184364
0.984000000000000763,0.131907699319477184
0.985000000000000764,0.131088852854880616
0.986000000000000765,0.130271124352509898
0.987000000000000766,0.129454553122139299
0.988000000000000766,0.128639177922266063
0.989000000000000767,0.127825036964166833
0.990000000000000768,0.127012167915953655
0.991000000000000769,0.126200607906639506
0.992000000000000770,0.125390393530186467
0.993000000000000771,0.124581560849556877
0.994000000000000772,0.123774145400774166
0.995000000000000773,0.122968182196956113
0.996000000000000774,0.122163705732369704
0.997000000000000774,0.121360749986460820
0.998000000000000775,0.120559348427892551
0.999000000000000776,0.119759534018567287
1.000000000000000666,0.118961339217655060
1.001000000000000778,0.118164795985599994
1.002000000000000668,0.117369935788134622
1.003000000000000780,0.116576789600276329
1.004000000000000670,0.115785387910320628
1.005000000000000782,0.114995760723821644
1.006000000000000671,0.114207937567570944
1.007000000000000783,0.113421947493558051
1.008000000000000673,0.112637819082929996
1.009000000000000785,0.111855580449934378
1.010000000000000675,0.111075259245855068
1.011000000000000787,0.110296882662934054
1.012000000000000677,0.109520477438285260
1.013000000000000789,0.108746069857794586
1.014000000000000679,0.107973685760012067
1.015000000000000790,0.107203350540024320
1.016000000000000680,0.106435089153317675
1.017000000000000792,0.105668926119632522
1.018000000000000682,0.104904885526803882
1.019000000000000794,0.104142991034577026
1.020000000000000684,0.103383265878420547
1.021000000000000796,0.102625732873328906
1.022000000000000686,0.101870414417595229
1.023000000000000798,0.101117332496583140
1.024000000000000687,0.100366508686480047
1.025000000000000799,0.099617964158029620
1.026000000000000689,0.098871719680255502
1.027000000000000801,0.098127795624166320
1.028000000000000691,0.097386211966450489
1.029000000000000803,0.096646988293139335
1.030000000000000693,0.095910143803280584
1.031000000000000805,0.095175697312559010
1.032000000000000695,0.094443667256939756
1.033000000000000806,0.093714071696268303
1.034000000000000696,0.092986928317852505
1.035000000000000808,0.092262254440053315
1.036000000000000698,0.091540067015828230
1.037000000000000810,0.090820382636268654
1.038000000000000700,0.090103217534127436
1.039000000000000812,0.089388587587321447
1.040000000000000702,0.088676508322406852
1.041000000000000814,0.087966994918053834
1.042000000000000703,0.087260062208497968
1.043000000000000815,0.086555724686961433
1.044000000000000705,0.085853996509065986
1.045000000000000817,0.085154891496235605
1.046000000000000707,0.084458423139056660
1.047000000000000819,0.083764604600640641
1.048000000000000709,0.083073448719962625
1.049000000000000821,0.082384968015173130
1.050000000000000711,0.081699174686901438
1.051000000000000822,0.081016080621528333
1.052000000000000712,0.080335697394455591
1.053000000000000824,0.079658036273335481
1.054000000000000714,0.078983108221301709
1.055000000000000826,0.078310923900163740
1.056000000000000716,0.077641493673594381
1.057000000000000828,0.076974827610287525
1.058000000000000718,0.076310935487107601
1.059000000000000830,0.075649826792207969
1.060000000000000719,0.074991510728137020
1.061000000000000831,0.074335996214918140
1.062000000000000721,0.073683291893124503
1.063000000000000833,0.073033406126905967
1.064000000000000723,0.072386347007033183
1.065000000000000835,0.071742122353890339
1.066000000000000725,0.071100739720459591
1.067000000000000837,0.070462206395298446
1.068000000000000727,0.069826529405466950
1.069000000000000838,0.069193715519469179
1.070000000000000728,0.068563771250150035
1.071000000000000840,0.067936702857582770
1.072000000000000730,0.067312516351934401
1.073000000000000842,0.066691217496309990
1.074000000000000732,0.066072811809587642
1.075000000000000844,0.065457304569210908
1.076000000000000734,0.064844700813982026
1.077000000000000846,0.064235005346832297
1.078000000000000735,0.063628222737558290
1.079000000000000847,0.063024357325562747
1.080000000000000737,0.062423413222542121
1.081000000000000849,0.061825394315193682
1.082000000000000739,0.061230304267872092
1.083000000000000851,0.060638146525239932
1.084000000000000741,0.060048924314891283
1.085000000000000853,0.059462640649970165
1.086000000000000743,0.058879298331751463
1.087000000000000854,0.058298899952210104
1.088000000000000744,0.057721447896574775
1.089000000000000856,0.057146944345858056
1.090000000000000746,0.056575391279366102
1.091000000000000858,0.056006790477187395
1.092000000000000748,0.055441143522673639
1.093000000000000860,0.054878451804879255
1.094000000000000750,0.054318716521012222
1.095000000000000862,0.053761938678833054
1.096000000000000751,0.053208119099057240
1.097000000000000863,0.052657258417736941
1.098000000000000753,0.052109357088607380
1.099000000000000865,0.051564415385431141
1.100000000000000755,0.051022433404323123
1.101000000000000867,0.050483411066040040
1.102000000000000757,0.049947348118272471
1.103000000000000869,0.049414244137901429
1.104000000000000759,0.048884098533250320
1.105000000000000870,0.048356910546302444
1.106000000000000760,0.047832679254922558
1.107000000000000872,0.047311403575027569
1.108000000000000762,0.046793082262774011
1.109000000000000874,0.046277713916699721
1.110000000000000764,0.045765296979869127
1.111000000000000876,0.045255829741984180
1.112000000000000766,0.044749310341479928
1.113000000000000878,0.044245736767610587
1.114000000000000767,0.043745106862508765
1.115000000000000879,0.043247418323233408
1.116000000000000769,0.042752668703797223
1.117000000000000881,0.042260855417174205
1.118000000000000771,0.041771975737292709
1.119000000000000883,0.041286026801009082
1.120000000000000773,0.040803005610067736
1.121000000000000885,0.040322909033036605
1.122000000000000774,0.039845733807238083
1.123000000000000886,0.039371476540647952
1.124000000000000776,0.038900133713781190
1.125000000000000888,0.038431701681575801
1.126000000000000778,0.037966176675238071
1.127000000000000890,0.037503554804077556
1.128000000000000780,0.037043832057341707
1.129000000000000892,0.036587004306007878
1.130000000000000782,0.036133067304577590
1.131000000000000894,0.035682016692849573
1.132000000000000783,0.035233847997673359
1.133000000000000895,0.034788556634684588
1.134000000000000785,0.034346137910038446
1.135000000000000897,0.033906587022104653
1.136000000000000787,0.033469899063169176
1.137000000000000899,0.033036069021102066
1.138000000000000789,0.032605091781025365
1.139000000000000901,0.032176962126942682
1.140000000000000790,0.031751674743381232
1.141000000000000902,0.031329224217003106
1.142000000000000792,0.030909605038195766
1.143000000000000904,0.030492811602657755
1.144000000000000794,0.030078838212961402
1.145000000000000906,0.029667679080117804
1.146000000000000796,0.029259328325095774
1.147000000000000908,0.028853779980355355
1.148000000000000798,0.028451027991350748
1.149000000000000909,0.028051066218021226
1.150000000000000799,0.027653888436274476
1.151000000000000689,0.027259488339441595
1.152000000000000801,0.026867859539730449
1.153000000000000913,0.026478995569655484
1.154000000000000803,0.026092889883465743
1.155000000000000693,0.025709535858542319
1.156000000000000805,0.025328926796788075
1.157000000000000917,0.024951055926019088
1.158000000000000806,0.024575916401310592
1.159000000000000696,0.024203501306358240
1.160000000000000808,0.023833803654810450
1.161000000000000920,0.023466816391592295
1.162000000000000810,0.023102532394209098
1.163000000000000700,0.022740944474048098
1.164000000000000812,0.022382045377658807
1.165000000000000924,0.022025827788022801
1.166000000000000814,0.021672284325803665
1.167000000000000703,0.021321407550598553
1.168000000000000815,0.020973189962156538
1.169000000000000927,0.020627624001609335
1.170000000000000817,0.020284702052662897
1.171000000000000707,0.019944416442796504
1.172000000000000819,0.019606759444435039
1.173000000000000931,0.019271723276120541
1.174000000000000821,0.018939300103665326
1.175000000000000711,0.018609482041290565
1.176000000000000822,0.018282261152755181
1.177000000000000934,0.017957629452476778
1.178000000000000824,0.017635578906632296
1.179000000000000714,0.017316101434257675
1.180000000000000826,0.016999188908316868
1.181000000000000938,0.016684833156786368
1.182000000000000828,0.016373025963699869
1.183000000000000718,0.016063759070199784
1.184000000000000830,0.015757024175572849
1.185000000000000941,0.015452812938273303
1.186000000000000831,0.015151116976927708
1.187000000000000721,0.014851927871347847
1.188000000000000833,0.014555237163506415
1.189000000000000945,0.014261036358527024
1.190000000000000835,0.013969316925640190
1.191000000000000725,0.013680070299154082
1.192000000000000837,0.013393287879381006
1.193000000000000949,0.013108961033592215
1.194000000000000838,0.012827081096927350
1.195000000000000728,0.012547639373315003
1.196000000000000840,0.012270627136376149
1.197000000000000952,0.011996035630306731
1.198000000000000842,0.011723856070780334
1.199000000000000732,0.011454079645793249
1.200000000000000844,0.011186697516557449
1.201000000000000956,0.010921700818324396
1.202000000000000846,0.010659080661242125
1.203000000000000735,0.010398828131187901
1.204000000000000847,0.010140934290584406
1.205000000000000959,0.009885390179213568
1.206000000000000849,0.009632186815021940
1.207000000000000739,0.009381315194914709
1.208000000000000851,0.009132766295534146
1.209000000000000963,0.008886531074042468
1.210000000000000853,0.008642600468875914
1.211000000000000743,0.008400965400512763
1.212000000000000854,0.008161616772209541
1.213000000000000966,0.007924545470750003
1.214000000000000856,0.007689742367158617
1.215000000000000746,0.007457198317435345
1.216000000000000858,0.007226904163255940
1.217000000000000970,0.006998850732679356
1.218000000000000860,0.006773028840841505
1.219000000000000750,0.006549429290635987
1.220000000000000862,0.006328042873391873
1.221000000000000973,0.006108860369544026
1.222000000000000863,0.005891872549287645
1.223000000000000753,0.005677070173236268
1.224000000000000865,0.005464443993056077
1.225000000000000977,0.005253984752106667
1.226000000000000867,0.005045683186063578
1.227000000000000757,0.004839530023538369
1.228000000000000869,0.004635515986693452
1.229000000000000981,0.004433631791832255
1.230000000000000870,0.004233868150010417
1.231000000000000760,0.004036215767609866
1.232000000000000872,0.003840665346917961
1.233000000000000984,0.003647207586715916
1.234000000000000874,0.003455833182816963
1.235000000000000764,0.003266532828645705
1.236000000000000876,0.003079297215774310
1.237000000000000988,0.002894117034470764
1.238000000000000878,0.002710982974228614
1.239000000000000767,0.002529885724299724
1.240000000000000879,0.002350815974208864
1.241000000000000991,0.002173764414272307
1.242000000000000881,0.001998721736100513
1.243000000000000771,0.001825678633098632
1.244000000000000883,0.001654625800960037
1.245000000000000995,0.001485553938150018
1.246000000000000885,0.001318453746382703
1.247000000000000774,0.001153315931100907
1.248000000000000886,0.000990131201933627
1.249000000000000998,0.000828890273159666
1.250000000000000888,0.000669583864156605
1.251000000000000778,0.000512202699852900
1.252000000000000890,0.000356737511158112
1.253000000000001002,0.000203179035409135
1.254000000000000892,0.000051518016782894
1.255000000000000782,-0.000098254793269112
1.256000000000000894,-0.000246148635615032
1.257000000000001005,-0.000392172743030264
1.258000000000000895,-0.000536336339795546
1.259000000000000785,-0.000678648641299280
1.260000000000000897,-0.000819118853646689
1.261000000000001009,-0.000957756173275975
1.262000000000000899,-0.001094569786576738
1.263000000000000789,-0.001229568869517536
1.264000000000000901,-0.001362762587280723
1.265000000000001013,-0.001494160093892231
1.266000000000000902,-0.001623770531873560
1.267000000000000792,-0.001751603031882425
1.268000000000000904,-0.001877666712375019
1.269000000000001016,-0.002001970679259099
1.270000000000000906,-0.002124524025562136
1.271000000000000796,-0.002245335831099623
1.272000000000000908,-0.002364415162148803
1.273000000000001020,-0.002481771071135267
1.274000000000000909,-0.002597412596311688
1.275000000000000799,-0.002711348761449618
1.276000000000000911,-0.002823588575541034
1.277000000000001023,-0.002934141032492456
1.278000000000000913,-0.003043015110829734
1.279000000000000803,-0.003150219773415020
1.280000000000000915,-0.003255763967161112
1.281000000000001027,-0.003359656622738220
1.282000000000000917,-0.003461906654319040
1.283000000000000806,-0.003562522959290529
1.284000000000000918,-0.003661514418001364
1.285000000000001030,-0.003758889893489176
1.286000000000000920,-0.003854658231232059
1.287000000000000810,-0.003948828258888116
1.288000000000000922,-0.004041408786057383
1.289000000000001034,-0.004132408604028940
1.290000000000000924,-0.004221836485542765
1.291000000000000814,-0.004309701184564479
1.292000000000000925,-0.004396011436035172
1.293000000000001037,-0.004480775955668610
1.294000000000000927,-0.004564003439709719
1.295000000000000817,-0.004645702564721635
1.296000000000000929,-0.004725881987376881
1.297000000000001041,-0.004804550344238259
1.298000000000000931,-0.004881716251560082
1.299000000000000821,-0.004957388305082180
1.300000000000000933,-0.005031575079827010
1.301000000000001044,-0.005104285129915375
1.302000000000000934,-0.005175526988365720
1.303000000000000824,-0.005245309166913651
1.304000000000000936,-0.005313640155819871
1.305000000000001048,-0.005380528423703105
1.306000000000000938,-0.005445982417351361
1.307000000000000828,-0.005510010561558869
1.308000000000000940,-0.005572621258948590
1.309000000000001052,-0.005633822889816018
1.310000000000000941,-0.005693623811959122
1.311000000000000831,-0.005752032360525019
1.312000000000000943,-0.005809056847848312
1.313000000000001055,-0.005864705563310843
1.314000000000000945,-0.005918986773182064
1.315000000000000835,-0.005971908720474569
1.316000000000000947,-0.006023479624812193
1.317000000000001059,-0.006073707682282372
1.318000000000000949,-0.006122601065296713
1.319000000000000838,-0.006170167922474041
1.320000000000000950,-0.006216416378496130
1.321000000000001062,-0.006261354533987011
1.322000000000000952,-0.006304990465392740
1.323000000000000842,-0.006347332224853929
1.324000000000000954,-0.006388387840095855
1.325000000000001066,-0.006428165314309090
1.326000000000000956,-0.006466672626041017
1.327000000000000846,-0.006503917729086863
1.328000000000000957,-0.006539908552381535
1.329000000000001069,-0.006574652999897247
1.330000000000000959,-0.006608158950549772
1.331000000000000849,-0.006640434258092080
1.332000000000000961,-0.006671486751021483
1.333000000000001073,-0.006701324232490239
1.334000000000000963,-0.006729954480217462
1.335000000000000853,-0.006757385246398169
1.336000000000000965,-0.006783624257618919
1.337000000000001076,-0.006808679214780964
1.338000000000000966,-0.006832557793014932
1.339000000000000856,-0.006855267641609935
1.340000000000000968,-0.006876816383932620
1.341000000000001080,-0.006897211617361366
1.342000000000000970,-0.006916460913211546
1.343000000000000860,-0.006934571816675522
1.344000000000000972,-0.006951551846746451
1.345000000000001084,-0.006967408496170213
1.346000000000000973,-0.006982149231372160
1.347000000000000863,-0.006995781492407929
1.348000000000000975,-0.007008312692899696
1.349000000000001087,-0.007019750219988666
1.350000000000000977,-0.007030101434284852
1.351000000000000867,-0.007039373669814458
1.352000000000000979,-0.007047574233966181
1.353000000000001091,-0.007054710407461168
1.354000000000000981,-0.007060789444299184
1.355000000000000870,-0.007065818571716667
1.356000000000000982,-0.007069804990155085
1.357000000000001094,-0.007072755873219269
1.358000000000000984,-0.007074678367640591
1.359000000000000874,-0.007075579593248246
1.360000000000000986,-0.007075466642932249
1.361000000000001098,-0.007074346582625199
1.362000000000000988,-0.007072226451257625
1.363000000000000878,-0.007069113260746304
1.364000000000000989,-0.007065013995969487
1.365000000000001101,-0.007059935614731230
1.366000000000000991,-0.007053885047757752
1.367000000000000881,-0.007046869198671865
1.368000000000000993,-0.007038894943973179
1.369000000000001105,-0.007029969133025031
1.370000000000000995,-0.007020098588043156
1.371000000000000885,-0.007009290104082455
1.372000000000000997,-0.006997550449023934
1.373000000000001108,-0.006984886363571608
1.374000000000000998,-0.006971304561234426
1.375000000000000888,-0.006956811728337182
1.376000000000001000,-0.006941414524004227
1.377000000000001112,-0.006925119580155290
1.378000000000001002,-0.006907933501516238
1.379000000000000892,-0.006889862865608572
1.380000000000001004,-0.006870914222753514
1.381000000000001116,-0.006851094096082427
1.382000000000001005,-0.006830408981531177
1.383000000000000895,-0.006808865347851444
1.384000000000001007,-0.006786469636620246
1.385000000000001119,-0.006763228262243140
1.386000000000001009,-0.006739147611972647
1.387000000000000899,-0.006714234045904458
1.388000000000001011,-0.006688493897013509
1.389000000000001123,-0.006661933471144491
1.390000000000001013,-0.006634559047041552
1.391000000000000902,-0.006606376876359334
1.392000000000001014,-0.006577393183682056
1.393000000000001126,-0.006547614166543136
1.394000000000001016,-0.006517045995445774
1.395000000000000906,-0.006485694813880437
1.396000000000001018,-0.006453566738351039
1.397000000000001130,-0.006420667858397183
1.398000000000001020,-0.006387004236620812
1.399000000000000909,-0.006352581908707046
1.400000000000001021,-0.006317406883456206
1.401000000000001133,-0.006281485142811905
1.402000000000001023,-0.006244822641884407
1.403000000000000913,-0.006207425308983527
1.404000000000001025,-0.006169299045654849
1.405000000000001137,-0.006130449726704422
1.406000000000001027,-0.006090883200231300
1.407000000000000917,-0.006050605287674549
1.408000000000001029,-0.006009621783827974
1.409000000000001140,-0.005967938456891642
1.410000000000001030,-0.005925561048505072
1.411000000000000920,-0.005882495273779769
1.412000000000001032,-0.005838746821342707
1.413000000000001144,-0.005794321353377498
1.414000000000001034,-0.005749224505658309
1.415000000000000924,-0.005703461887593244
1.416000000000001036,-0.005657039082274888
1.417000000000001148,-0.005609961646511860
1.418000000000001037,-0.005562235110875535
1.419000000000000927,-0.005513864979747937
1.420000000000001039,-0.005464856731363406
1.421000000000001151,-0.005415215817860373
1.422000000000001041,-0.005364947665316810
1.423000000000000931,-0.005314057673810829
1.424000000000001043,-0.005262551217462106
1.425000000000001155,-0.005210433644477566
1.426000000000001044,-0.005157710277211306
1.427000000000000934,-0.005104386412205539
1.428000000000001046,-0.005050467320246886
1.429000000000001158,-0.004995958246413466
1.430000000000001048,-0.004940864410133425
1.431000000000000938,-0.004885191005232286
1.432000000000001050,-0.004828943199990650
1.433000000000001162,-0.004772126137198764
1.434000000000001052,-0.004714744934203549
1.435000000000000941,-0.004656804682977825
1.436000000000001053,-0.004598310450161710
1.437000000000001165,-0.004539267277129854
1.438000000000001055,-0.004479680180046708
1.439000000000000945,-0.004419554149919260
1.440000000000001057,-0.004358894152661877
1.441000000000001169,-0.004297705129148535
1.442000000000001059,-0.004235991995278439
1.443000000000000949,-0.004173759642033693
1.444000000000001060,-0.004111012935536209
1.445000000000001172,-0.004047756717113248
1.446000000000001062,-0.003983995803360319
1.447000000000000952,-0.003919734986193672
1.448000000000001064,-0.003854979032923460
1.449000000000001176,-0.003789732686311241
1.450000000000001066,-0.003724000664632112
1.451000000000000956,-0.003657787661739963
1.452000000000001068,-0.003591098347132217
1.453000000000001180,-0.003523937366015678
1.454000000000001069,-0.003456309339363970
1.455000000000000959,-0.003388218863993109
1.456000000000001071,-0.003319670512619447
1.457000000000001183,-0.003250668833930009
1.458000000000001073,-0.003181218352646074
1.459000000000000963,-0.003111323569590227
1.460000000000001075,-0.003040988961756548
1.461000000000001187,-0.002970218982373604
1.462000000000001076,-0.002899018060977297
1.463000000000000966,-0.002827390603471822
1.464000000000001078,-0.002755340992206441
1.465000000000001190,-0.002682873586038409
1.466000000000001080,-0.002609992720402995
1.467000000000000970,-0.002536702707384796
1.468000000000001082,-0.002463007835786871
1.469000000000001194,-0.002388912371195376
1.470000000000001084,-0.002314420556059328
1.471000000000000973,-0.002239536609752145
1.472000000000001085,-0.002164264728651185
1.473000000000001197,-0.002088609086196008
1.474000000000001087,-0.002012573832974638
1.475000000000000977,-0.001936163096781396
1.476000000000001089,-0.001859380982697971
1.477000000000001201,-0.001782231573161811
1.478000000000001091,-0.001704718928037040
1.479000000000000981,-0.001626847084687061
1.480000000000001092,-0.001548620058050153
1.481000000000001204,-0.001470041840707797
1.482000000000001094,-0.001391116402960719
1.483000000000000984,-0.001311847692903392
1.484000000000001096,-0.001232239636489170
1.485000000000001208,-0.001152296137611907
1.486000000000001098,-0.001072021078178176
1.487000000000000988,-0.000991418318177764
1.488000000000001100,-0.000910491695758559
1.489000000000001211,-0.000829245027302733
1.490000000000001101,-0.000747682107500932
1.491000000000000991,-0.000665806709420272
1.492000000000001103,-0.000583622584587757
1.493000000000001215,-0.000501133463060550
1.494000000000001105,-0.000418343053496223
1.495000000000000995,-0.000335255043234739
1.496000000000001107,-0.000251873098371603
1.497000000000001219,-0.000168200863830639
1.498000000000001108,-0.000084241963438285
1.499000000000000998,0.000000000000000000
