# TiO2-ana-100_CS-4945-AC
# h[nm],U(h)[kJ/mol]
0.149999999999999994,108.215749602487719017
0.150999999999999995,107.584190227533696316
0.151999999999999996,105.448352002197069055
0.152999999999999997,103.028670404411428763
0.153999999999999998,100.783940612293662298
0.154999999999999999,98.807156302923417002
0.156000000000000000,97.042797554556827322
0.157000000000000001,95.397642978662716473
0.158000000000000002,93.790522241074512522
0.159000000000000002,92.168970149453173235
0.160000000000000003,90.509482572138054479
0.161000000000000004,88.810941027606432385
0.162000000000000005,87.086357576375917233
0.163000000000000006,85.355441223652491090
0.164000000000000007,83.638962345685285982
0.165000000000000008,81.955069080740983622
0.166000000000000009,80.317312139936092308
0.167000000000000010,78.733983904196037429
0.168000000000000010,77.208361771212835833
0.169000000000000011,75.739495785142125328
0.170000000000000012,74.323256141649352458
0.171000000000000013,72.953434707440635520
0.172000000000000014,71.622764879035884178
0.173000000000000015,70.323781269580265985
0.174000000000000016,69.049484002042490260
0.175000000000000017,67.793802944171559943
0.176000000000000018,66.551877074718746030
0.177000000000000018,65.320175591822888350
0.178000000000000019,64.096492520450922825
0.179000000000000020,62.879847320553793111
0.180000000000000021,61.670321871531200486
0.181000000000000022,60.468860399991363863
0.182000000000000023,59.277054306857792199
0.183000000000000024,58.096929056523698875
0.184000000000000025,56.930745725306465488
0.185000000000000026,55.780825717302171540
0.186000000000000026,54.649403671040602148
0.187000000000000027,53.538510742734409575
0.188000000000000028,52.449888246301043182
0.189000000000000029,51.384930005347122517
0.190000000000000030,50.344650656339261729
0.191000000000000031,49.329676454973913735
0.192000000000000032,48.340254798306943940
0.193000000000000033,47.376278607006469201
0.194000000000000034,46.437321846208114096
0.195000000000000034,45.522682740079588370
0.196000000000000035,44.631431604171524441
0.197000000000000036,43.762460640175184778
0.198000000000000037,42.914533477765083092
0.199000000000000038,42.086332683489921180
0.200000000000000039,41.276503869606862906
0.201000000000000040,40.483695414378715327
0.202000000000000041,39.706593142316492617
0.203000000000000042,38.943949604444796364
0.204000000000000042,38.194607843996379870
0.205000000000000043,37.457519733200619783
0.206000000000000044,36.731759124682064055
0.207000000000000045,36.016530180080437162
0.208000000000000046,35.311171323063561545
0.209000000000000047,34.615155318415261831
0.210000000000000048,33.928086007851625538
0.211000000000000049,33.249692241011679528
0.212000000000000050,32.579819530768595826
0.213000000000000050,31.918419939355761272
0.214000000000000051,31.265540669136463237
0.215000000000000052,30.621311792095916360
0.216000000000000053,29.985933507811544985
0.217000000000000054,29.359663272876140638
0.218000000000000055,28.742803097248476263
0.219000000000000056,28.135687256186237448
0.220000000000000057,27.538670621363614543
0.221000000000000058,26.952117772314657884
0.222000000000000058,26.376393010050644961
0.223000000000000059,25.811851358965697045
0.224000000000000060,25.258830611179966752
0.225000000000000061,24.717644439356238451
0.226000000000000062,24.188576579729556215
0.227000000000000063,23.671876066493364732
0.228000000000000064,23.167753481605803501
0.229000000000000065,22.676378170284458236
0.230000000000000066,22.197876361686077473
0.231000000000000066,21.732330126235801515
0.232000000000000067,21.279777095489912142
0.233000000000000068,20.840210866994759442
0.234000000000000069,20.413582015060544705
0.235000000000000070,19.999799628428593934
0.236000000000000071,19.598733297219006033
0.237000000000000072,19.210215474062898977
0.238000000000000073,18.834044137731183355
0.239000000000000073,18.469985691673024064
0.240000000000000074,18.117778034491017536
0.241000000000000075,17.777133744353644573
0.242000000000000076,17.447743324538688370
0.243000000000000077,17.129278462596566612
0.244000000000000078,16.821395260920045445
0.245000000000000079,16.523737401721341200
0.246000000000000080,16.235939214481138748
0.247000000000000081,15.957628618790201003
0.248000000000000081,15.688429920110854354
0.249000000000000082,15.427966440309848650
0.250000000000000111,15.175862968833271793
0.251000000000000112,14.931748024094218863
0.252000000000000113,14.695255918017002372
0.253000000000000114,14.466028619727916649
0.254000000000000115,14.243717417103439971
0.255000000000000115,14.027984377293325480
0.256000000000000116,13.818503609436485036
0.257000000000000117,13.614962334598544658
0.258000000000000118,13.417061769495598256
0.259000000000000119,13.224517831847231619
0.260000000000000120,13.037061676240989883
0.261000000000000121,12.854440070209841807
0.262000000000000122,12.676415620841671839
0.263000000000000123,12.502766862675175119
0.264000000000000123,12.333288217907599105
0.265000000000000124,12.167789840064994422
0.266000000000000125,12.006097352281461355
0.267000000000000126,11.848051491217677977
0.268000000000000127,11.693507667434882791
0.269000000000000128,11.542335452744394431
0.270000000000000129,11.394418004686604817
0.271000000000000130,11.249651437870744175
0.272000000000000131,11.107944151438180924
0.273000000000000131,10.969216121408383202
0.274000000000000132,10.833398166136850804
0.275000000000000133,10.700431192567084082
0.276000000000000134,10.570265430401006412
0.277000000000000135,10.442859660751441453
0.278000000000000136,10.318180445281004864
0.279000000000000137,10.196201361280149200
0.280000000000000138,10.076902247596713380
0.281000000000000139,9.960268465803782334
0.282000000000000139,9.846290180485450350
0.283000000000000140,9.734961662032926455
0.284000000000000141,9.626280614878879760
0.285000000000000142,9.520247533657194339
0.286000000000000143,9.416865089359225394
0.287000000000000144,9.316137547167659960
0.288000000000000145,9.218070217284497048
0.289000000000000146,9.122668939731797266
0.290000000000000147,9.029939603791351743
0.291000000000000147,8.939887702463018115
0.292000000000000148,8.852517922059748301
0.293000000000000149,8.767833766820306352
0.294000000000000150,8.685837218207085542
0.295000000000000151,8.606528428365345817
0.296000000000000152,8.529905447051268297
0.297000000000000153,8.455963981187323952
0.298000000000000154,8.384697186074635766
0.299000000000000155,8.316095487181261348
0.300000000000000155,8.250146431331916830
0.301000000000000156,8.186834566047707540
0.302000000000000157,8.126141345721917375
0.303000000000000158,8.068045063269867256
0.304000000000000159,8.012520805855182005
0.305000000000000160,7.959540433271252269
0.306000000000000161,7.909072577543378557
0.307000000000000162,7.861082662313902070
0.308000000000000163,7.815532940578054699
0.309000000000000163,7.772382549351394054
0.310000000000000164,7.731587579870023319
0.311000000000000165,7.693101161951268807
0.312000000000000166,7.656873561174075249
0.313000000000000167,7.622852287575128116
0.314000000000000168,7.590982214597024047
0.315000000000000169,7.561205707068685555
0.316000000000000170,7.533462757044857128
0.317000000000000171,7.507691126380391822
0.318000000000000171,7.483826494965668985
0.319000000000000172,7.461802613601352441
0.320000000000000173,7.441551460543467833
0.321000000000000174,7.423003400803165341
0.322000000000000175,7.406087347338797144
0.323000000000000176,7.390730923331341629
0.324000000000000177,7.376860624787042298
0.325000000000000178,7.364401982763256527
0.326000000000000179,7.353279724564873554
0.327000000000000179,7.343417933308811207
0.328000000000000180,7.334740205303245553
0.329000000000000181,7.327169804735565783
0.330000000000000182,7.320629815209551694
0.331000000000000183,7.315043287716403775
0.332000000000000184,7.310333384667458745
0.333000000000000185,7.306423519657366583
0.334000000000000186,7.303237492665926034
0.335000000000000187,7.300699620444338400
0.336000000000000187,7.298734861867342438
0.337000000000000188,7.297268938066639343
0.338000000000000189,7.296228447192939726
0.339000000000000190,7.295540973684333963
0.340000000000000191,7.295135191947098363
0.341000000000000192,7.294940964381550152
0.342000000000000193,7.294889433710724624
0.343000000000000194,7.294913109592504163
0.344000000000000195,7.294945949517826378
0.345000000000000195,7.294923434017010599
0.346000000000000196,7.294782636215008331
0.347000000000000197,7.294462285793014367
0.348000000000000198,7.293902827429301183
0.349000000000000199,7.293046473806221286
0.350000000000000200,7.291837253282783315
0.351000000000000201,7.290221052343833108
0.352000000000000202,7.288145652946742992
0.353000000000000203,7.285560764895686603
0.354000000000000203,7.282418053381394252
0.355000000000000204,7.278671161831075764
0.356000000000000205,7.274275730219089908
0.357000000000000206,7.269189408993826262
0.358000000000000207,7.263371868780306606
0.359000000000000208,7.256784806021267187
0.360000000000000209,7.249391944721810255
0.361000000000000210,7.241159034464651256
0.362000000000000210,7.232053844863827408
0.363000000000000211,7.222046156625362201
0.364000000000000212,7.211107749383185883
0.365000000000000213,7.199212386477929826
0.366000000000000214,7.186335796845204626
0.367000000000000215,7.172455654178276241
0.368000000000000216,7.157551553528131549
0.369000000000000217,7.141604985501632363
0.370000000000000218,7.124599308215756821
0.371000000000000218,7.106519717162937511
0.372000000000000219,7.087353213139358843
0.373000000000000220,7.067088568384545688
0.374000000000000221,7.045716291077013693
0.375000000000000222,7.023228588326861477
0.376000000000000223,6.999619327802145463
0.377000000000000224,6.974883998121970130
0.378000000000000225,6.949019668144768680
0.379000000000000226,6.922024945276161745
0.380000000000000226,6.893899932916274231
0.381000000000000227,6.864646187162091628
0.382000000000000228,6.834266672875981108
0.383000000000000229,6.802765719226966823
0.384000000000000230,6.770148974807089992
0.385000000000000231,6.736423362420536520
0.386000000000000232,6.701597033639018264
0.387000000000000233,6.665679323212327922
0.388000000000000234,6.628680703418882381
0.389000000000000234,6.590612738436568918
0.390000000000000235,6.551488038810259873
0.391000000000000236,6.511320216087989721
0.392000000000000237,6.470123837693937396
0.393000000000000238,6.427914382102274615
0.394000000000000239,6.384708194372075596
0.395000000000000240,6.340522442099785216
0.396000000000000241,6.295375071841935011
0.397000000000000242,6.249284766057266793
0.398000000000000242,6.202270900613963356
0.399000000000000243,6.154353502904285733
0.400000000000000244,6.105553210605595638
0.401000000000000245,6.055891231123612606
0.402000000000000246,6.005389301750815534
0.403000000000000247,5.954069650569623562
0.404000000000000248,5.901954958127587858
0.405000000000000249,5.849068319908692359
0.406000000000000250,5.795433209622529169
0.407000000000000250,5.741073443330401815
0.408000000000000251,5.686013144425132282
0.409000000000000252,5.630276709478964747
0.410000000000000253,5.573888774971782034
0.411000000000000254,5.516874184909750234
0.412000000000000255,5.459257959342538769
0.413000000000000256,5.401065263785260306
0.414000000000000257,5.342321379549629157
0.415000000000000258,5.283051674986937840
0.416000000000000258,5.223281577644033113
0.417000000000000259,5.163036547331750548
0.418000000000000260,5.102342050103977122
0.419000000000000261,5.041223533144041369
0.420000000000000262,4.979706400553976842
0.421000000000000263,4.917815990040795171
0.422000000000000264,4.855577550493150873
0.423000000000000265,4.793016220440273756
0.424000000000000266,4.730157007384482526
0.425000000000000266,4.667024767997462575
0.426000000000000267,4.603644189169711964
0.427000000000000268,4.540039769901817124
0.428000000000000269,4.476235804025479936
0.429000000000000270,4.412256363741614784
0.430000000000000271,4.348125283962158250
0.431000000000000272,4.283866147441801608
0.432000000000000273,4.219502270685326906
0.433000000000000274,4.155056690615802850
0.434000000000000274,4.090552151988434915
0.435000000000000275,4.026011095534743234
0.436000000000000276,3.961455646821195664
0.437000000000000277,3.896907605806305241
0.438000000000000278,3.832388437080016530
0.439000000000000279,3.767919260768935796
0.440000000000000280,3.703520844090876007
0.441000000000000281,3.639213593542133474
0.442000000000000282,3.575017547700671372
0.443000000000000282,3.510952370628592778
0.444000000000000283,3.447037345857013602
0.445000000000000284,3.383291370936679421
0.446000000000000285,3.319732952537516546
0.447000000000000286,3.256380202080548347
0.448000000000000287,3.193250831885541263
0.449000000000000288,3.130362151817949190
0.450000000000000289,3.067731066418783126
0.451000000000000290,3.005374072501246108
0.452000000000000290,2.943307257198021443
0.453000000000000291,2.881546296443418420
0.454000000000000292,2.820106453874641428
0.455000000000000293,2.759002580136690419
0.456000000000000294,2.698249112575667574
0.457000000000000295,2.637860075305400898
0.458000000000000296,2.577849079632576146
0.459000000000000297,2.518229324825825621
0.460000000000000298,2.459013599214387558
0.461000000000000298,2.400214281602377930
0.462000000000000299,2.341843342984737397
0.463000000000000300,2.283912348551423666
0.464000000000000301,2.226432459966516397
0.465000000000000302,2.169414437909334303
0.466000000000000303,2.112868644864735579
0.467000000000000304,2.056805048150293747
0.468000000000000305,2.001233223168181752
0.469000000000000306,1.946162356869878707
0.470000000000000306,1.891601251422201813
0.471000000000000307,1.837558328063347179
0.472000000000000308,1.784041631138005402
0.473000000000000309,1.731058832300787387
0.474000000000000310,1.678617234877683995
0.475000000000000311,1.626723778375261942
0.476000000000000312,1.575385043128020746
0.477000000000000313,1.524607255074055701
0.478000000000000314,1.474396290650058727
0.479000000000000314,1.424757681796470443
0.480000000000000315,1.375696621064174119
0.481000000000000316,1.327217966814262295
0.482000000000000317,1.279326248502729912
0.483000000000000318,1.232025672042188047
0.484000000000000319,1.185320125232952160
0.485000000000000320,1.139213183256191364
0.486000000000000321,1.093708114221927152
0.487000000000000322,1.048807884765106779
0.488000000000000322,1.004515165683072642
0.489000000000000323,0.960832337608107823
0.490000000000000324,0.917761496708858759
0.491000000000000325,0.875304460414800589
0.492000000000000326,0.833462773158028747
0.493000000000000327,0.792237712126952154
0.494000000000000328,0.751630293026676499
0.495000000000000329,0.711641275841028653
0.496000000000000330,0.672271170591501543
0.497000000000000330,0.633520243088411150
0.498000000000000331,0.595388520670027122
0.499000000000000332,0.557875797925378336
0.500000000000000333,0.520981642396751155
0.501000000000000334,0.484705400258124197
0.502000000000000335,0.449046201965848713
0.503000000000000336,0.414002967878190575
0.504000000000000337,0.379574413840370162
0.505000000000000338,0.345759056732102388
0.506000000000000338,0.312555219974613774
0.507000000000000339,0.279961038994365974
0.508000000000000340,0.247974466640908553
0.509000000000000341,0.216593278556311830
0.510000000000000342,0.185815078493922009
0.511000000000000343,0.155637303584173686
0.512000000000000344,0.126057229545476268
0.513000000000000345,0.097071975838235375
0.514000000000000346,0.068678510760162181
0.515000000000000346,0.040873656481314136
0.516000000000000347,0.013654094017229968
0.517000000000000348,-0.012983631861224065
0.518000000000000349,-0.039043107782632799
0.519000000000000350,-0.064528046995618205
0.520000000000000351,-0.089442284656343185
0.521000000000000352,-0.113789773183970100
0.522000000000000353,-0.137574577684882238
0.523000000000000353,-0.160800871446602350
0.524000000000000354,-0.183472931502012104
0.525000000000000355,-0.205595134264579732
0.526000000000000356,-0.227171951235084879
0.527000000000000357,-0.248207944780353629
0.528000000000000358,-0.268707763984387449
0.529000000000000359,-0.288676140572148465
0.530000000000000360,-0.308117884906307815
0.531000000000000361,-0.327037882057097495
0.532000000000000361,-0.345441087945403347
0.533000000000000362,-0.363332525559091457
0.534000000000000363,-0.380717281242617167
0.535000000000000364,-0.397600501059829026
0.536000000000000365,-0.413987387229804771
0.537000000000000366,-0.429883194635613475
0.538000000000000367,-0.445293227405693770
0.539000000000000368,-0.460222835567677069
0.540000000000000369,-0.474677411774232560
0.541000000000000369,-0.488662388100677081
0.542000000000000370,-0.502183232913838040
0.543000000000000371,-0.515245447811852775
0.544000000000000372,-0.527854564634327117
0.545000000000000373,-0.540016142542411481
0.546000000000000374,-0.551735765168226644
0.547000000000000375,-0.563019037833058511
0.548000000000000376,-0.573871584833762771
0.549000000000000377,-0.584299046796695420
0.550000000000000377,-0.594307078098601282
0.551000000000000378,-0.603901344353666714
0.552000000000000379,-0.613087519966182604
0.553000000000000380,-0.621871285747980673
0.554000000000000381,-0.630258326599962171
0.555000000000000382,-0.638254329256998765
0.556000000000000383,-0.645864980095338104
0.557000000000000384,-0.653095963001856794
0.558000000000000385,-0.659952957304244747
0.559000000000000385,-0.666441635761400253
0.560000000000000386,-0.672567662613178463
0.561000000000000387,-0.678336691688661730
0.562000000000000388,-0.683754364572106477
0.563000000000000389,-0.688826308825777556
0.564000000000000390,-0.693558136268719871
0.565000000000000391,-0.697955441310696534
0.566000000000000392,-0.702023799340383725
0.567000000000000393,-0.705768765166975398
0.568000000000000393,-0.709195871514298970
0.569000000000000394,-0.712310627566602017
0.570000000000000395,-0.715118517565132339
0.571000000000000396,-0.717624999454586354
0.572000000000000397,-0.719835503578633906
0.573000000000000398,-0.721755431423572125
0.574000000000000399,-0.723390154409268238
0.575000000000000400,-0.724745012726513260
0.576000000000000401,-0.725825314219902706
0.577000000000000401,-0.726636333315433092
0.578000000000000402,-0.727183309991853100
0.579000000000000403,-0.727471448794999698
0.580000000000000404,-0.727505917894241350
0.581000000000000405,-0.727291848180127931
0.582000000000000406,-0.726834332402492622
0.583000000000000407,-0.726138424348062861
0.584000000000000408,-0.725209138056858715
0.585000000000000409,-0.724051447076454302
0.586000000000000409,-0.722670283753329867
0.587000000000000410,-0.721070538560529162
0.588000000000000411,-0.719257059460725157
0.589000000000000412,-0.717234651304025084
0.590000000000000413,-0.715008075259593978
0.591000000000000414,-0.712582048280406610
0.592000000000000415,-0.709961242600340436
0.593000000000000416,-0.707150285262788558
0.594000000000000417,-0.704153757680100911
0.595000000000000417,-0.700976195223108944
0.596000000000000418,-0.697622086839906563
0.597000000000000419,-0.694095874703300697
0.598000000000000420,-0.690401953886062514
0.599000000000000421,-0.686544672063400085
0.600000000000000422,-0.682528329241859244
0.601000000000000423,-0.678357177513999487
0.602000000000000424,-0.674035420838175248
0.603000000000000425,-0.669567214842741953
0.604000000000000425,-0.664956666653983897
0.605000000000000426,-0.660207834747194577
0.606000000000000427,-0.655324728820211200
0.607000000000000428,-0.650311309688747952
0.608000000000000429,-0.645171489203015480
0.609000000000000430,-0.639909130184858288
0.610000000000000431,-0.634528046384970068
0.611000000000000432,-0.629032002459465889
0.612000000000000433,-0.623424713965300414
0.613000000000000433,-0.617709847373954846
0.614000000000000434,-0.611891020102807826
0.615000000000000435,-0.605971800563641638
0.616000000000000436,-0.599955708227756679
0.617000000000000437,-0.593846213707181603
0.618000000000000438,-0.587646738851400063
0.619000000000000439,-0.581360656859113312
0.620000000000000440,-0.574991292404564036
0.621000000000000441,-0.568541921777874548
0.622000000000000441,-0.562015773038969213
0.623000000000000442,-0.555416026184538891
0.624000000000000443,-0.548745813327666698
0.625000000000000444,-0.542008218889607152
0.626000000000000445,-0.535206279803252749
0.627000000000000446,-0.528342985727928149
0.628000000000000447,-0.521421279275007810
0.629000000000000448,-0.514444056243979930
0.630000000000000449,-0.507414165868517952
0.631000000000000449,-0.500334411072204888
0.632000000000000450,-0.493207548733467060
0.633000000000000451,-0.486036289959371870
0.634000000000000452,-0.478823300367877291
0.635000000000000453,-0.471571200378210320
0.636000000000000454,-0.464282565508974177
0.637000000000000455,-0.456959926683675466
0.638000000000000456,-0.449605770543279437
0.639000000000000457,-0.442222539765504241
0.640000000000000457,-0.434812633390517678
0.641000000000000458,-0.427378407152673556
0.642000000000000459,-0.419922173818069566
0.643000000000000460,-0.412446203527513489
0.644000000000000461,-0.404952724144690024
0.645000000000000462,-0.397443921609200612
0.646000000000000463,-0.389921940294176594
0.647000000000000464,-0.382388883368245724
0.648000000000000465,-0.374846813161542058
0.649000000000000465,-0.367297751535500705
0.650000000000000466,-0.359743680256218501
0.651000000000000467,-0.352186541371077189
0.652000000000000468,-0.344628237588458120
0.653000000000000469,-0.337070632660232572
0.654000000000000470,-0.329515551766898729
0.655000000000000471,-0.321964781905048458
0.656000000000000472,-0.314420072277007856
0.657000000000000473,-0.306883134682422509
0.658000000000000473,-0.299355643911593972
0.659000000000000474,-0.291839238140354340
0.660000000000000475,-0.284335519326307351
0.661000000000000476,-0.276846053606220222
0.662000000000000477,-0.269372371694433288
0.663000000000000478,-0.261915969282050243
0.664000000000000479,-0.254478307436810991
0.665000000000000480,-0.247060813003394081
0.666000000000000481,-0.239664879004100329
0.667000000000000481,-0.232291865039633200
0.668000000000000482,-0.224943097689956517
0.669000000000000483,-0.217619870914980584
0.670000000000000484,-0.210323446454994401
0.671000000000000485,-0.203055054230695975
0.672000000000000486,-0.195815892742660924
0.673000000000000487,-0.188607129470191787
0.674000000000000488,-0.181429901269329674
0.675000000000000488,-0.174285314769991345
0.676000000000000489,-0.167174446772092866
0.677000000000000490,-0.160098344640509843
0.678000000000000491,-0.153058026698841221
0.679000000000000492,-0.146054482621810172
0.680000000000000493,-0.139088673826232523
0.681000000000000494,-0.132161533860466751
0.682000000000000495,-0.125273968792213475
0.683000000000000496,-0.118426857594638640
0.684000000000000496,-0.111621052530679749
0.685000000000000497,-0.104857379535476219
0.686000000000000498,-0.098136638596859088
0.687000000000000499,-0.091459604133802913
0.688000000000000500,-0.084827025372775450
0.689000000000000501,-0.078239626721927275
0.690000000000000502,-0.071698108143055689
0.691000000000000503,-0.065203145521253725
0.692000000000000504,-0.058755391032210134
0.693000000000000504,-0.052355473507123572
0.694000000000000505,-0.046003998795102731
0.695000000000000506,-0.039701550123101947
0.696000000000000507,-0.033448688453252794
0.697000000000000508,-0.027245952837594435
0.698000000000000509,-0.021093860770163616
0.699000000000000510,-0.014992908536361852
0.700000000000000511,-0.008943571559604898
0.701000000000000512,-0.002946304745187098
0.702000000000000512,0.002998457178653444
0.703000000000000513,0.008890299322521431
0.704000000000000514,0.014728826300512457
0.705000000000000515,0.020513661897768206
0.706000000000000516,0.026244448740955013
0.707000000000000517,0.031920847971694345
0.708000000000000518,0.037542538922981719
0.709000000000000519,0.043109218798561257
0.710000000000000520,0.048620602355371342
0.711000000000000520,0.054076421588972211
0.712000000000000521,0.059476425422055654
0.713000000000000522,0.064820379396000410
0.714000000000000523,0.070108065365504374
0.715000000000000524,0.075339281196314875
0.716000000000000525,0.080513840466038100
0.717000000000000526,0.085631572168066078
0.718000000000000527,0.090692320418613678
0.719000000000000528,0.095695944166878474
0.720000000000000528,0.100642316908292881
0.721000000000000529,0.105531326400954223
0.722000000000000530,0.110362874385129733
0.723000000000000531,0.115136876305928199
0.724000000000000532,0.119853261039072498
0.725000000000000533,0.124511970619807566
0.726000000000000534,0.129112959974944208
0.727000000000000535,0.133656196658005433
0.728000000000000536,0.138141660587490722
0.729000000000000536,0.142569343788270991
0.730000000000000537,0.146939250136047972
0.731000000000000538,0.151251395104956693
0.732000000000000539,0.155505805518213358
0.733000000000000540,0.159702519301878815
0.734000000000000541,0.163841585241656179
0.735000000000000542,0.167923062742795309
0.736000000000000543,0.171947021592979615
0.737000000000000544,0.175913541728324130
0.738000000000000544,0.179822713002324136
0.739000000000000545,0.183674634957875449
0.740000000000000546,0.187469416602245614
0.741000000000000547,0.191207176185064970
0.742000000000000548,0.194888040979233235
0.743000000000000549,0.198512147064840799
0.744000000000000550,0.202079639115977955
0.745000000000000551,0.205590670190477498
0.746000000000000552,0.209045401522560015
0.747000000000000552,0.212444002318357889
0.748000000000000553,0.215786649554308319
0.749000000000000554,0.219073527778403415
0.750000000000000555,0.222304828914239389
0.751000000000000556,0.225480752067913459
0.752000000000000557,0.228601503337665768
0.753000000000000558,0.231667295626349967
0.754000000000000559,0.234678348456584251
0.755000000000000560,0.237634887788689075
0.756000000000000560,0.240537145841291322
0.757000000000000561,0.243385360914651516
0.758000000000000562,0.246179777216631701
0.759000000000000563,0.248920644691311421
0.760000000000000564,0.251608218850231435
0.761000000000000565,0.254242760606238183
0.762000000000000566,0.256824536109900137
0.763000000000000567,0.259353816588487940
0.764000000000000568,0.261830878187481575
0.765000000000000568,0.264256001814587027
0.766000000000000569,0.266629472986249616
0.767000000000000570,0.268951581676622142
0.768000000000000571,0.271222622168982075
0.769000000000000572,0.273442892909566804
0.770000000000000573,0.275612696363796317
0.771000000000000574,0.277732338874879248
0.772000000000000575,0.279802130524756554
0.773000000000000576,0.281822384997386155
0.774000000000000576,0.283793419444315131
0.775000000000000577,0.285715554352529877
0.776000000000000578,0.287589113414578823
0.777000000000000579,0.289414423400898735
0.778000000000000580,0.291191814034377716
0.779000000000000581,0.292921617867081763
0.780000000000000582,0.294604170159153800
0.781000000000000583,0.296239808759837520
0.782000000000000584,0.297828873990627851
0.783000000000000584,0.299371708530509983
0.784000000000000585,0.300868657303247522
0.785000000000000586,0.302320067366743828
0.786000000000000587,0.303726287804394091
0.787000000000000588,0.305087669618449797
0.788000000000000589,0.306404565625360337
0.789000000000000590,0.307677330353044176
0.790000000000000591,0.308906319940114305
0.791000000000000592,0.310091892036984063
0.792000000000000592,0.311234405708869122
0.793000000000000593,0.312334221340640317
0.794000000000000594,0.313391700543516061
0.795000000000000595,0.314407206063559375
0.796000000000000596,0.315381101691986132
0.797000000000000597,0.316313752177210528
0.798000000000000598,0.317205523138658907
0.799000000000000599,0.318056780982309717
0.800000000000000600,0.318867892817903398
0.801000000000000600,0.319639226377878560
0.802000000000000601,0.320371149937924593
0.803000000000000602,0.321064032239194830
0.804000000000000603,0.321718242412120881
0.805000000000000604,0.322334149901822631
0.806000000000000605,0.322912124395105526
0.807000000000000606,0.323452535748976311
0.808000000000000607,0.323955753920721734
0.809000000000000608,0.324422148899474960
0.810000000000000608,0.324852090639267177
0.811000000000000609,0.325245948993579004
0.812000000000000610,0.325604093651285953
0.813000000000000611,0.325926894074084372
0.814000000000000612,0.326214719435290734
0.815000000000000613,0.326467938560027704
0.816000000000000614,0.326686919866801095
0.817000000000000615,0.326872031310404043
0.818000000000000616,0.327023640326151777
0.819000000000000616,0.327142113775429455
0.820000000000000617,0.327227817892532857
0.821000000000000618,0.327281118232773172
0.822000000000000619,0.327302379621831008
0.823000000000000620,0.327291966106352361
0.824000000000000621,0.327250240905761824
0.825000000000000622,0.327177566365256911
0.826000000000000623,0.327074303909995479
0.827000000000000624,0.326940814000442892
0.828000000000000624,0.326777456088845231
0.829000000000000625,0.326584588576864343
0.830000000000000626,0.326362568774275219
0.831000000000000627,0.326111752858786297
0.832000000000000628,0.325832495836925695
0.833000000000000629,0.325525151505978272
0.834000000000000630,0.325190072416971454
0.835000000000000631,0.324827609838677089
0.836000000000000631,0.324438113722626653
0.837000000000000632,0.324021932669109280
0.838000000000000633,0.323579413894160839
0.839000000000000634,0.323110903197492805
0.840000000000000635,0.322616744931375432
0.841000000000000636,0.322097281970451177
0.842000000000000637,0.321552855682455729
0.843000000000000638,0.320983805899834329
0.844000000000000639,0.320390470892247370
0.845000000000000639,0.319773187339940979
0.846000000000000640,0.319132290307974575
0.847000000000000641,0.318468113221270499
0.848000000000000642,0.317780987840513784
0.849000000000000643,0.317071244238848915
0.850000000000000644,0.316339210779356450
0.851000000000000645,0.315585214093347388
0.852000000000000646,0.314809579059398492
0.853000000000000647,0.314012628783154113
0.854000000000000647,0.313194684577864979
0.855000000000000648,0.312356065945664008
0.856000000000000649,0.311497090559543888
0.857000000000000650,0.310618074246053755
0.858000000000000651,0.309719330968677820
0.859000000000000652,0.308801172811887847
0.860000000000000653,0.307863909965868321
0.861000000000000654,0.306907850711897301
0.862000000000000655,0.305933301408351566
0.863000000000000655,0.304940566477367558
0.864000000000000656,0.303929948392091365
0.865000000000000657,0.302901747664560017
0.866000000000000658,0.301856262834161615
0.867000000000000659,0.300793790456674259
0.868000000000000660,0.299714625093900788
0.869000000000000661,0.298619059303842083
0.870000000000000662,0.297507383631429978
0.871000000000000663,0.296379886599788478
0.872000000000000663,0.295236854702048579
0.873000000000000664,0.294078572393659587
0.874000000000000665,0.292905322085212805
0.875000000000000666,0.291717384135770197
0.876000000000000667,0.290515036846678065
0.877000000000000668,0.289298556455855782
0.878000000000000669,0.288068217132556703
0.879000000000000670,0.286824290972592988
0.880000000000000671,0.285567047993993239
0.881000000000000671,0.284296756133125883
0.882000000000000672,0.283013681241227943
0.883000000000000673,0.281718087081376578
0.884000000000000674,0.280410235325858959
0.885000000000000675,0.279090385553954101
0.886000000000000676,0.277758795250115376
0.887000000000000677,0.276415719802523330
0.888000000000000678,0.275061412502041136
0.889000000000000679,0.273696124541517982
0.890000000000000679,0.272320105015468994
0.891000000000000680,0.270933600920104711
0.892000000000000681,0.269536857153706011
0.893000000000000682,0.268130116517344919
0.894000000000000683,0.266713619715927497
0.895000000000000684,0.265287605359561807
0.896000000000000685,0.263852309965248777
0.897000000000000686,0.262407967958877497
0.898000000000000687,0.260954811677510334
0.899000000000000687,0.259493071371992012
0.900000000000000688,0.258022975209812433
0.901000000000000689,0.256544749278274531
0.902000000000000690,0.255058617587923697
0.903000000000000691,0.253564802076243212
0.904000000000000692,0.252063522611620683
0.905000000000000693,0.250554996997562507
0.906000000000000694,0.249039440977146753
0.907000000000000695,0.247517068237737392
0.908000000000000695,0.245988090415915461
0.909000000000000696,0.244452717102652178
0.910000000000000697,0.242911155848693022
0.911000000000000698,0.241363612170173353
0.912000000000000699,0.239810289554433897
0.913000000000000700,0.238251389466043850
0.914000000000000701,0.236687111353038937
0.915000000000000702,0.235117652653328235
0.916000000000000703,0.233543208801315405
0.917000000000000703,0.231963973234686538
0.918000000000000704,0.230380137401391488
0.919000000000000705,0.228791890766783468
0.920000000000000706,0.227199420820941439
0.921000000000000707,0.225602913086146550
0.922000000000000708,0.224002551124529964
0.923000000000000709,0.222398516545851160
0.924000000000000710,0.220790989015457850
0.925000000000000711,0.219180146262362902
0.926000000000000711,0.217566164087478781
0.927000000000000712,0.215949216371976893
0.928000000000000713,0.214329475085791754
0.929000000000000714,0.212707110296230295
0.930000000000000715,0.211082290176734494
0.931000000000000716,0.209455181015737735
0.932000000000000717,0.207825947225637020
0.933000000000000718,0.206194751351903127
0.934000000000000719,0.204561754082260711
0.935000000000000719,0.202927114255992608
0.936000000000000720,0.201290988873347787
0.937000000000000721,0.199653533105025288
0.938000000000000722,0.198014900301766772
0.939000000000000723,0.196375242004032696
0.940000000000000724,0.194734707951760205
0.941000000000000725,0.193093446094202648
0.942000000000000726,0.191451602599851223
0.943000000000000727,0.189809321866429043
0.944000000000000727,0.188166746530954276
0.945000000000000728,0.186524017479871740
0.946000000000000729,0.184881273859257844
0.947000000000000730,0.183238653085070979
0.948000000000000731,0.181596290853479669
0.949000000000000732,0.179954321151228447
0.950000000000000733,0.178312876266078169
0.951000000000000734,0.176672086797267147
0.952000000000000735,0.175032081666052192
0.953000000000000735,0.173392988126271019
0.954000000000000736,0.171754931774954739
0.955000000000000737,0.170118036562986130
0.956000000000000738,0.168482424805780073
0.957000000000000739,0.166848217194007553
0.958000000000000740,0.165215532804356913
0.959000000000000741,0.163584489110311704
0.960000000000000742,0.161955201992964148
0.961000000000000743,0.160327785751852220
0.962000000000000743,0.158702353115817013
0.963000000000000744,0.157079015253883292
0.964000000000000745,0.155457881786153607
0.965000000000000746,0.153839060794725924
0.966000000000000747,0.152222658834614111
0.967000000000000748,0.150608780944696929
0.968000000000000749,0.148997530658655591
0.969000000000000750,0.147389010015941124
0.970000000000000751,0.145783319572726833
0.971000000000000751,0.144180558412883991
0.972000000000000752,0.142580824158952957
0.973000000000000753,0.140984212983099350
0.974000000000000754,0.139390819618099626
0.975000000000000755,0.137800737368297982
0.976000000000000756,0.136214058120570025
0.977000000000000757,0.134630872355280318
0.978000000000000758,0.133051269157231256
0.979000000000000759,0.131475336226594214
0.980000000000000759,0.129903159889845327
0.981000000000000760,0.128334825110683448
0.982000000000000761,0.126770415500920886
0.983000000000000762,0.125210013331380127
0.984000000000000763,0.123653699542768128
0.985000000000000764,0.122101553756512923
0.986000000000000765,0.120553654285616402
0.987000000000000766,0.119010078145457276
0.988000000000000766,0.117470901064584271
0.989000000000000767,0.115936197495488780
0.990000000000000768,0.114406040625344513
0.991000000000000769,0.112880502386735942
0.992000000000000770,0.111359653468346975
0.993000000000000771,0.109843563325625615
0.994000000000000772,0.108332300191430170
0.995000000000000773,0.106825931086629008
0.996000000000000774,0.105324521830688189
0.997000000000000774,0.103828137052212416
0.998000000000000775,0.102336840199465678
0.999000000000000776,0.100850693550844944
1.000000000000000666,0.099369758225338750
1.001000000000000778,0.097894094192929187
1.002000000000000668,0.096423760284978968
1.003000000000000780,0.094958814204563952
1.004000000000000670,0.093499312536781370
1.005000000000000782,0.092045310759010221
1.006000000000000671,0.090596863251142232
1.007000000000000783,0.089154023305761734
1.008000000000000673,0.087716843138298001
1.009000000000000785,0.086285373897126066
1.010000000000000675,0.084859665673632567
1.011000000000000787,0.083439767512232477
1.012000000000000677,0.082025727420350775
1.013000000000000789,0.080617592378353017
1.014000000000000679,0.079215408349442892
1.015000000000000790,0.077819220289497240
1.016000000000000680,0.076429072156874417
1.017000000000000792,0.075045006922163315
1.018000000000000682,0.073667066577899509
1.019000000000000794,0.072295292148218726
1.020000000000000684,0.070929723698472849
1.021000000000000796,0.069570400344802469
1.022000000000000686,0.068217360263648302
1.023000000000000798,0.066870640701225420
1.024000000000000687,0.065530277982948540
1.025000000000000799,0.064196307522794593
1.026000000000000689,0.062868763832635594
1.027000000000000801,0.061547680531503592
1.028000000000000691,0.060233090354821307
1.029000000000000803,0.058925025163564758
1.030000000000000693,0.057623515953397653
1.031000000000000805,0.056328592863722826
1.032000000000000695,0.055040285186721084
1.033000000000000806,0.053758621376307138
1.034000000000000696,0.052483629057041334
1.035000000000000808,0.051215335033005918
1.036000000000000698,0.049953765296604127
1.037000000000000810,0.048698945037321383
1.038000000000000700,0.047450898650433074
1.039000000000000812,0.046209649745658020
1.040000000000000702,0.044975221155751900
1.041000000000000814,0.043747634945057491
1.042000000000000703,0.042526912418001980
1.043000000000000815,0.041313074127528028
1.044000000000000705,0.040106139883482467
1.045000000000000817,0.038906128760954381
1.046000000000000707,0.037713059108543584
1.047000000000000819,0.036526948556589167
1.048000000000000709,0.035347814025344690
1.049000000000000821,0.034175671733085652
1.050000000000000711,0.033010537204179326
1.051000000000000822,0.031852425277085525
1.052000000000000712,0.030701350112320336
1.053000000000000824,0.029557325200343276
1.054000000000000714,0.028420363369413070
1.055000000000000826,0.027290476793372997
1.056000000000000716,0.026167676999390460
1.057000000000000828,0.025051974875635919
1.058000000000000718,0.023943380678916024
1.059000000000000830,0.022841904042244881
1.060000000000000719,0.021747553982363971
1.061000000000000831,0.020660338907206807
1.062000000000000721,0.019580266623316234
1.063000000000000833,0.018507344343189316
1.064000000000000723,0.017441578692597281
1.065000000000000835,0.016382975717822195
1.066000000000000725,0.015331540892855216
1.067000000000000837,0.014287279126547297
1.068000000000000727,0.013250194769682182
1.069000000000000838,0.012220291622025897
1.070000000000000728,0.011197572939296640
1.071000000000000840,0.010182041440098582
1.072000000000000730,0.009173699312792060
1.073000000000000842,0.008172548222316046
1.074000000000000732,0.007178589316962058
1.075000000000000844,0.006191823235078409
1.076000000000000734,0.005212250111738248
1.077000000000000846,0.004239869585351269
1.078000000000000735,0.003274680804212898
1.079000000000000847,0.002316682433022288
1.080000000000000737,0.001365872659313938
1.081000000000000849,0.000422249199879410
1.082000000000000739,-0.000514190692897532
1.083000000000000851,-0.001443450224741610
1.084000000000000741,-0.002365533053241625
1.085000000000000853,-0.003280443281654283
1.086000000000000743,-0.004188185452763726
1.087000000000000854,-0.005088764542795149
1.088000000000000744,-0.005982185955369129
1.089000000000000856,-0.006868455515512106
1.090000000000000746,-0.007747579463720716
1.091000000000000858,-0.008619564450076462
1.092000000000000748,-0.009484417528395701
1.093000000000000860,-0.010342146150458670
1.094000000000000750,-0.011192758160252569
1.095000000000000862,-0.012036261788297132
1.096000000000000751,-0.012872665646000892
1.097000000000000863,-0.013701978720062975
1.098000000000000753,-0.014524210366943291
1.099000000000000865,-0.015339370307366696
1.100000000000000755,-0.016147468620869222
1.101000000000000867,-0.016948515740417603
1.102000000000000757,-0.017742522447045939
1.103000000000000869,-0.018529499864569150
1.104000000000000759,-0.019309459454319590
1.105000000000000870,-0.020082413009952428
1.106000000000000760,-0.020848372652269836
1.107000000000000872,-0.021607350824135018
1.108000000000000762,-0.022359360285386543
1.109000000000000874,-0.023104414107834141
1.110000000000000764,-0.023842525670276855
1.111000000000000876,-0.024573708653579801
1.112000000000000766,-0.025297977035800813
1.113000000000000878,-0.026015345087348891
1.114000000000000767,-0.026725827366197868
1.115000000000000879,-0.027429438713140152
1.116000000000000769,-0.028126194247087215
1.117000000000000881,-0.028816109360416231
1.118000000000000771,-0.029499199714358649
1.119000000000000883,-0.030175481234433189
1.120000000000000773,-0.030844970105923214
1.121000000000000885,-0.031507682769397374
1.122000000000000774,-0.032163635916268897
1.123000000000000886,-0.032812846484408922
1.124000000000000776,-0.033455331653795550
1.125000000000000888,-0.034091108842197321
1.126000000000000778,-0.034720195700915862
1.127000000000000890,-0.035342610110564353
1.128000000000000780,-0.035958370176872943
1.129000000000000892,-0.036567494226561428
1.130000000000000782,-0.037170000803233426
1.131000000000000894,-0.037765908663317048
1.132000000000000783,-0.038355236772048037
1.133000000000000895,-0.038938004299499195
1.134000000000000785,-0.039514230616629745
1.135000000000000897,-0.040083935291402938
1.136000000000000787,-0.040647138084916712
1.137000000000000899,-0.041203858947595200
1.138000000000000789,-0.041754118015395983
1.139000000000000901,-0.042297935606091477
1.140000000000000790,-0.042835332215550324
1.141000000000000902,-0.043366328514073557
1.142000000000000792,-0.043890945342781901
1.143000000000000904,-0.044409203710020453
1.144000000000000794,-0.044921124787815465
1.145000000000000906,-0.045426729908349325
1.146000000000000796,-0.045926040560501771
1.147000000000000908,-0.046419078386402558
1.148000000000000798,-0.046905865178029596
1.149000000000000909,-0.047386422873850198
1.150000000000000799,-0.047860773555481059
1.151000000000000689,-0.048328939444407464
1.152000000000000801,-0.048790942898715571
1.153000000000000913,-0.049246806409877927
1.154000000000000803,-0.049696552599558096
1.155000000000000693,-0.050140204216461114
1.156000000000000805,-0.050577784133224002
1.157000000000000917,-0.051009315343311858
1.158000000000000806,-0.051434820957989590
1.159000000000000696,-0.051854324203292487
1.160000000000000808,-0.052267848417048922
1.161000000000000920,-0.052675417045927306
1.162000000000000810,-0.053077053642527829
1.163000000000000700,-0.053472781862488564
1.164000000000000812,-0.053862625461642909
1.165000000000000924,-0.054246608293193957
1.166000000000000814,-0.054624754304936206
1.167000000000000703,-0.054997087536492281
1.168000000000000815,-0.055363632116597318
1.169000000000000927,-0.055724412260400001
1.170000000000000817,-0.056079452266806919
1.171000000000000707,-0.056428776515848066
1.172000000000000819,-0.056772409466083515
1.173000000000000931,-0.057110375652028790
1.174000000000000821,-0.057442699681613821
1.175000000000000711,-0.057769406233681389
1.176000000000000822,-0.058090520055501881
1.177000000000000934,-0.058406065960325340
1.178000000000000824,-0.058716068824958154
1.179000000000000714,-0.059020553587369039
1.180000000000000826,-0.059319545244334880
1.181000000000000938,-0.059613068849091434
1.182000000000000828,-0.059901149509038153
1.183000000000000718,-0.060183812383455305
1.184000000000000830,-0.060461082681249979
1.185000000000000941,-0.060732985658732176
1.186000000000000831,-0.060999546617426327
1.187000000000000721,-0.061260790901889663
1.188000000000000833,-0.061516743897580342
1.189000000000000945,-0.061767431028732021
1.190000000000000835,-0.062012877756275377
1.191000000000000725,-0.062253109575757429
1.192000000000000837,-0.062488152015328167
1.193000000000000949,-0.062718030633701433
1.194000000000000838,-0.062942771018189403
1.195000000000000728,-0.063162398782730819
1.196000000000000840,-0.063376939565955095
1.197000000000000952,-0.063586419029281013
1.198000000000000842,-0.063790862855012342
1.199000000000000732,-0.063990296744495384
1.200000000000000844,-0.064184746416259500
1.201000000000000956,-0.064374237604222631
1.202000000000000846,-0.064558796055890683
1.203000000000000735,-0.064738447530587911
1.204000000000000847,-0.064913217797719344
1.205000000000000959,-0.065083132635050847
1.206000000000000849,-0.065248217827005600
1.207000000000000739,-0.065408499162993183
1.208000000000000851,-0.065564002435758356
1.209000000000000963,-0.065714753439746129
1.210000000000000853,-0.065860777969500545
1.211000000000000743,-0.066002101818071396
1.212000000000000854,-0.066138750775456320
1.213000000000000966,-0.066270750627050956
1.214000000000000856,-0.066398127152136804
1.215000000000000746,-0.066520906122370868
1.216000000000000858,-0.066639113300312941
1.217000000000000970,-0.066752774437965734
1.218000000000000860,-0.066861915275330253
1.219000000000000750,-0.066966561538998812
1.220000000000000862,-0.067066738940748910
1.221000000000000973,-0.067162473176167609
1.222000000000000863,-0.067253789923296434
1.223000000000000753,-0.067340714841286009
1.224000000000000865,-0.067423273569083356
1.225000000000000977,-0.067501491724131280
1.226000000000000867,-0.067575394901085786
1.227000000000000757,-0.067645008670554452
1.228000000000000869,-0.067710358577849822
1.229000000000000981,-0.067771470141775161
1.230000000000000870,-0.067828368853403848
1.231000000000000760,-0.067881080174900257
1.232000000000000872,-0.067929629538352451
1.233000000000000984,-0.067974042344602859
1.234000000000000874,-0.068014343962136709
1.235000000000000764,-0.068050559725945592
1.236000000000000876,-0.068082714936435196
1.237000000000000988,-0.068110834858341684
1.238000000000000878,-0.068134944719663776
1.239000000000000767,-0.068155069710615385
1.240000000000000879,-0.068171234982590589
1.241000000000000991,-0.068183465647148458
1.242000000000000881,-0.068191786775012406
1.243000000000000771,-0.068196223395086186
1.244000000000000883,-0.068196800493485005
1.245000000000000995,-0.068193543012584401
1.246000000000000885,-0.068186475850085013
1.247000000000000774,-0.068175623858084969
1.248000000000000886,-0.068161011842181901
1.249000000000000998,-0.068142664560576244
1.250000000000000888,-0.068120606723199667
1.251000000000000778,-0.068094862990848631
1.252000000000000890,-0.068065457974346183
1.253000000000001002,-0.068032416233700474
1.254000000000000892,-0.067995762277297353
1.255000000000000782,-0.067955520561087071
1.256000000000000894,-0.067911715487805835
1.257000000000001005,-0.067864371406191254
1.258000000000000895,-0.067813512610227306
1.259000000000000785,-0.067759163338393880
1.260000000000000897,-0.067701347772933365
1.261000000000001009,-0.067640090039130935
1.262000000000000899,-0.067575414204604931
1.263000000000000789,-0.067507344278612685
1.264000000000000901,-0.067435904211373549
1.265000000000001013,-0.067361117893392705
1.266000000000000902,-0.067283009154811044
1.267000000000000792,-0.067201601764757160
1.268000000000000904,-0.067116919430722261
1.269000000000001016,-0.067028985797936272
1.270000000000000906,-0.066937824448763728
1.271000000000000796,-0.066843458902107827
1.272000000000000908,-0.066745912612826516
1.273000000000001020,-0.066645208971165812
1.274000000000000909,-0.066541371302197658
1.275000000000000799,-0.066434422865267934
1.276000000000000911,-0.066324386853469072
1.277000000000001023,-0.066211286393107194
1.278000000000000913,-0.066095144543190015
1.279000000000000803,-0.065975984294924420
1.280000000000000915,-0.065853828571228401
1.281000000000001027,-0.065728700226234588
1.282000000000000917,-0.065600622044839296
1.283000000000000806,-0.065469616742226650
1.284000000000000918,-0.065335706963427123
1.285000000000001030,-0.065198915282872541
1.286000000000000920,-0.065059264203971026
1.287000000000000810,-0.064916776158681674
1.288000000000000922,-0.064771473507112348
1.289000000000001034,-0.064623378537113585
1.290000000000000924,-0.064472513463887465
1.291000000000000814,-0.064318900429617618
1.292000000000000925,-0.064162561503080764
1.293000000000001037,-0.064003518679304566
1.294000000000000927,-0.063841793879200637
1.295000000000000817,-0.063677408949223607
1.296000000000000929,-0.063510385661045124
1.297000000000001041,-0.063340745711216034
1.298000000000000931,-0.063168510720863102
1.299000000000000821,-0.062993702235371374
1.300000000000000933,-0.062816341724085234
1.301000000000001044,-0.062636450580026065
1.302000000000000934,-0.062454050119601923
1.303000000000000824,-0.062269161582339139
1.304000000000000936,-0.062081806130608194
1.305000000000001048,-0.061892004849379144
1.306000000000000938,-0.061699778745959742
1.307000000000000828,-0.061505148749763094
1.308000000000000940,-0.061308135712065538
1.309000000000001052,-0.061108760405789074
1.310000000000000941,-0.060907043525277572
1.311000000000000831,-0.060703005686087039
1.312000000000000943,-0.060496667424780472
1.313000000000001055,-0.060288049198739521
1.314000000000000945,-0.060077171385967090
1.315000000000000835,-0.059864054284905287
1.316000000000000947,-0.059648718114271616
1.317000000000001059,-0.059431183012881528
1.318000000000000949,-0.059211469039486944
1.319000000000000838,-0.058989596172634197
1.320000000000000950,-0.058765584310505582
1.321000000000001062,-0.058539453270782263
1.322000000000000952,-0.058311222790514074
1.323000000000000842,-0.058080912525986482
1.324000000000000954,-0.057848542052605881
1.325000000000001066,-0.057614130864779921
1.326000000000000956,-0.057377698375813344
1.327000000000000846,-0.057139263917803398
1.328000000000000957,-0.056898846741544787
1.329000000000001069,-0.056656466016438513
1.330000000000000959,-0.056412140830411885
1.331000000000000849,-0.056165890189836365
1.332000000000000961,-0.055917733019452777
1.333000000000001073,-0.055667688162311268
1.334000000000000963,-0.055415774379707392
1.335000000000000853,-0.055162010351123558
1.336000000000000965,-0.054906414674183654
1.337000000000001076,-0.054649005864606047
1.338000000000000966,-0.054389802356163405
1.339000000000000856,-0.054128822500651763
1.340000000000000968,-0.053866084567856777
1.341000000000001080,-0.053601606745534339
1.342000000000000970,-0.053335407139388905
1.343000000000000860,-0.053067503773063865
1.344000000000000972,-0.052797914588124863
1.345000000000001084,-0.052526657444066704
1.346000000000000973,-0.052253750118302765
1.347000000000000863,-0.051979210306181398
1.348000000000000975,-0.051703055620983450
1.349000000000001087,-0.051425303593946890
1.350000000000000977,-0.051145971674285681
1.351000000000000867,-0.050865077229209202
1.352000000000000979,-0.050582637543946665
1.353000000000001091,-0.050298669821790598
1.354000000000000981,-0.050013191184126712
1.355000000000000870,-0.049726218670469960
1.356000000000000982,-0.049437769238520321
1.357000000000001094,-0.049147859764203411
1.358000000000000984,-0.048856507041725936
1.359000000000000874,-0.048563727783633527
1.360000000000000986,-0.048269538620867816
1.361000000000001098,-0.047973956102841178
1.362000000000000988,-0.047676996697489482
1.363000000000000878,-0.047378676791358584
1.364000000000000989,-0.047079012689674009
1.365000000000001101,-0.046778020616416630
1.366000000000000991,-0.046475716714412474
1.367000000000000881,-0.046172117045420027
1.368000000000000993,-0.045867237590210795
1.369000000000001105,-0.045561094248671039
1.370000000000000995,-0.045253702839896659
1.371000000000000885,-0.044945079102293131
1.372000000000000997,-0.044635238693675992
1.373000000000001108,-0.044324197191383113
1.374000000000000998,-0.044011970092372954
1.375000000000000888,-0.043698572813353972
1.376000000000001000,-0.043384020690887572
1.377000000000001112,-0.043068328981506851
1.378000000000001002,-0.042751512861847564
1.379000000000000892,-0.042433587428763700
1.380000000000001004,-0.042114567699456519
1.381000000000001116,-0.041794468611610090
1.382000000000001005,-0.041473305023517523
1.383000000000000895,-0.041151091714218727
1.384000000000001007,-0.040827843383642273
1.385000000000001119,-0.040503574652738683
1.386000000000001009,-0.040178300063635250
1.387000000000000899,-0.039852034079765938
1.388000000000001011,-0.039524791086039554
1.389000000000001123,-0.039196585388972610
1.390000000000001013,-0.038867431216853057
1.391000000000000902,-0.038537342719893106
1.392000000000001014,-0.038206333970386218
1.393000000000001126,-0.037874418962869513
1.394000000000001016,-0.037541611614287075
1.395000000000000906,-0.037207925764149039
1.396000000000001018,-0.036873375174703599
1.397000000000001130,-0.036537973531105286
1.398000000000001020,-0.036201734441585323
1.399000000000000909,-0.035864671437622536
1.400000000000001021,-0.035526797974121394
1.401000000000001133,-0.035188127429591279
1.402000000000001023,-0.034848673106317771
1.403000000000000913,-0.034508448230547287
1.404000000000001025,-0.034167465952675675
1.405000000000001137,-0.033825739347423077
1.406000000000001027,-0.033483281414023236
1.407000000000000917,-0.033140105076419908
1.408000000000001029,-0.032796223183440568
1.409000000000001140,-0.032451648509001500
1.410000000000001030,-0.032106393752296944
1.411000000000000920,-0.031760471537990026
1.412000000000001032,-0.031413894416410140
1.413000000000001144,-0.031066674863758342
1.414000000000001034,-0.030718825282294443
1.415000000000000924,-0.030370358000543655
1.416000000000001036,-0.030021285273504405
1.417000000000001148,-0.029671619282842225
1.418000000000001037,-0.029321372137098935
1.419000000000000927,-0.028970555871898236
1.420000000000001039,-0.028619182450154525
1.421000000000001151,-0.028267263762283369
1.422000000000001041,-0.027914811626405339
1.423000000000000931,-0.027561837788563043
1.424000000000001043,-0.027208353922933682
1.425000000000001155,-0.026854371632037209
1.426000000000001044,-0.026499902446960405
1.427000000000000934,-0.026144957827564253
1.428000000000001046,-0.025789549162706250
1.429000000000001158,-0.025433687770453378
1.430000000000001048,-0.025077384898309490
1.431000000000000938,-0.024720651723426489
1.432000000000001050,-0.024363499352832448
1.433000000000001162,-0.024005938823652241
1.434000000000001052,-0.023647981103323092
1.435000000000000941,-0.023289637089833719
1.436000000000001053,-0.022930917611932427
1.437000000000001165,-0.022571833429364526
1.438000000000001055,-0.022212395233095494
1.439000000000000945,-0.021852613645535705
1.440000000000001057,-0.021492499220772680
1.441000000000001169,-0.021132062444796436
1.442000000000001059,-0.020771313735729689
1.443000000000000949,-0.020410263444063097
1.444000000000001060,-0.020048921852877315
1.445000000000001172,-0.019687299178080868
1.446000000000001062,-0.019325405568644274
1.447000000000000952,-0.018963251106825490
1.448000000000001064,-0.018600845808410666
1.449000000000001176,-0.018238199622944800
1.450000000000001066,-0.017875322433966740
1.451000000000000956,-0.017512224059243284
1.452000000000001068,-0.017148914251007508
1.453000000000001180,-0.016785402696194947
1.454000000000001069,-0.016421699016675784
1.455000000000000959,-0.016057812769498171
1.456000000000001071,-0.015693753447121817
1.457000000000001183,-0.015329530477656787
1.458000000000001073,-0.014965153225102506
1.459000000000000963,-0.014600630989584612
1.460000000000001075,-0.014235973007599087
1.461000000000001187,-0.013871188452244484
1.462000000000001076,-0.013506286433469541
1.463000000000000966,-0.013141275998304275
1.464000000000001078,-0.012776166131110545
1.465000000000001190,-0.012410965753814356
1.466000000000001080,-0.012045683726151422
1.467000000000000970,-0.011680328845905846
1.468000000000001082,-0.011314909849154375
1.469000000000001194,-0.010949435410503288
1.470000000000001084,-0.010583914143336221
1.471000000000000973,-0.010218354600049597
1.472000000000001085,-0.009852765272303481
1.473000000000001197,-0.009487154591252597
1.474000000000001087,-0.009121530927798124
1.475000000000000977,-0.008755902592824782
1.476000000000001089,-0.008390277837447032
1.477000000000001201,-0.008024664853249970
1.478000000000001091,-0.007659071772530309
1.479000000000000981,-0.007293506668541493
1.480000000000001092,-0.006927977555736692
1.481000000000001204,-0.006562492390011027
1.482000000000001094,-0.006197059068942924
1.483000000000000984,-0.005831685432041838
1.484000000000001096,-0.005466379260983763
1.485000000000001208,-0.005101148279858083
1.486000000000001098,-0.004736000155413281
1.487000000000000988,-0.004370942497294130
1.488000000000001100,-0.004005982858286763
1.489000000000001211,-0.003641128734561941
1.490000000000001101,-0.003276387565918475
1.491000000000000991,-0.002911766736019490
1.492000000000001103,-0.002547273572643387
1.493000000000001215,-0.002182915347920616
1.494000000000001105,-0.001818699278574471
1.495000000000000995,-0.001454632526166999
1.496000000000001107,-0.001090722197340666
1.497000000000001219,-0.000726975344056240
1.498000000000001108,-0.000363398963834706
1.499000000000000998,0.000000000000000000
