# TiO2-ana-100_BSAI10
# h[nm],U(h)[kJ/mol]
0.149999999999999994,102.664799784670051963
0.150999999999999995,101.104299935181913384
0.151999999999999996,99.422845255477369619
0.152999999999999997,97.743236636384864369
0.153999999999999998,96.115440042025880985
0.154999999999999999,94.550832048901639837
0.156000000000000000,93.042836703419879996
0.157000000000000001,91.578705519673533786
0.158000000000000002,90.145695925176099195
0.159000000000000002,88.733839510850955890
0.160000000000000003,87.336744080077693297
0.161000000000000004,85.951355701786695818
0.162000000000000005,84.577253989256377054
0.163000000000000006,83.215817845831423938
0.164000000000000007,81.869444963364443879
0.165000000000000008,80.540911073114813234
0.166000000000000009,79.232896138141626352
0.167000000000000010,77.947671433747203196
0.168000000000000010,76.686924750262704720
0.169000000000000011,75.451694537788327466
0.170000000000000012,74.242383476090978434
0.171000000000000013,73.058824903699800757
0.172000000000000014,71.900379987171277207
0.173000000000000015,70.766048352372365571
0.174000000000000016,69.654579498035687379
0.175000000000000017,68.564576338590342175
0.176000000000000018,67.494585545348087408
0.177000000000000018,66.443171959153971784
0.178000000000000019,65.408976288091452034
0.179000000000000020,64.390756669041337545
0.180000000000000021,63.387415562137576330
0.181000000000000022,62.398013961594685384
0.182000000000000023,61.421775135582187488
0.183000000000000024,60.458080130221254933
0.184000000000000025,59.506457153504058510
0.185000000000000026,58.566566746118169817
0.186000000000000026,57.638184388119803714
0.187000000000000027,56.721181913169822053
0.188000000000000028,55.815508827066686592
0.189000000000000029,54.921174369041025898
0.190000000000000030,54.038230921693596542
0.191000000000000031,53.166759173351202605
0.192000000000000032,52.306855266684223693
0.193000000000000033,51.458620029183613553
0.194000000000000034,50.622150272584427455
0.195000000000000034,49.797532066681334584
0.196000000000000035,48.984835834872960447
0.197000000000000036,48.184113080685712305
0.198000000000000037,47.395394533010929194
0.199000000000000038,46.618689489589868913
0.200000000000000039,45.853986140441818975
0.201000000000000040,45.101252662837389096
0.202000000000000041,44.360438894822394218
0.203000000000000042,43.631478413302481556
0.204000000000000042,42.914290863754146699
0.205000000000000043,42.208784410491929862
0.206000000000000044,41.514858198128294475
0.207000000000000045,40.832404735694566966
0.208000000000000046,40.161312134328952084
0.209000000000000047,39.501466147141798047
0.210000000000000048,38.852751975635598569
0.211000000000000049,38.215055820801097752
0.212000000000000050,37.588266168726804040
0.213000000000000050,36.972274810317927063
0.214000000000000051,36.366977602629191324
0.215000000000000052,35.772274985524312285
0.216000000000000053,35.188072272045516797
0.217000000000000054,34.614279734186382598
0.218000000000000055,34.050812507887705749
0.219000000000000056,33.497590342192026469
0.220000000000000057,32.954537217764091395
0.221000000000000058,32.421580859567953325
0.222000000000000058,31.898652167523238177
0.223000000000000059,31.385684587576577087
0.224000000000000060,30.882613443926260288
0.225000000000000061,30.389375251230262620
0.226000000000000062,29.905907023591076666
0.227000000000000063,29.432145595018010198
0.228000000000000064,28.968026963975411547
0.229000000000000065,28.513485672581005304
0.230000000000000066,28.068454229059717875
0.231000000000000066,27.632862580212094628
0.232000000000000067,27.206637638944066282
0.233000000000000068,26.789702870338647500
0.234000000000000069,26.381977938339211676
0.235000000000000070,25.983378413860997114
0.236000000000000071,25.593815544051430777
0.237000000000000072,25.213196081477427413
0.238000000000000073,24.841422171222426130
0.239000000000000073,24.478391293219878833
0.240000000000000074,24.123996256622707079
0.241000000000000075,23.778125242601497291
0.242000000000000076,23.440661891665072858
0.243000000000000077,23.111485431395870194
0.244000000000000078,22.790470840378006301
0.245000000000000079,22.477489044056920164
0.246000000000000080,22.172407138296694740
0.247000000000000081,21.875088636483280169
0.248000000000000081,21.585393736151633703
0.249000000000000082,21.303179601282113964
0.250000000000000111,21.028300656609694386
0.251000000000000112,20.760608890510784619
0.252000000000000113,20.499954163270878382
0.253000000000000114,20.246184517786559809
0.254000000000000115,19.999146490011327160
0.255000000000000115,19.758685416713756666
0.256000000000000116,19.524645738373223480
0.257000000000000117,19.296871295291161630
0.258000000000000118,19.075205615241028312
0.259000000000000119,18.859492191215984747
0.260000000000000120,18.649574748058203255
0.261000000000000121,18.445297496966230000
0.262000000000000122,18.246505377076132959
0.263000000000000123,18.053044283497442279
0.264000000000000123,17.864761281355960421
0.265000000000000124,17.681504805552162196
0.266000000000000125,17.503124846086070221
0.267000000000000126,17.329473118927815278
0.268000000000000127,17.160403222526987577
0.269000000000000128,16.995770780155503132
0.270000000000000129,16.835433568366450885
0.271000000000000130,16.679251631928096344
0.272000000000000131,16.527087385656589191
0.273000000000000131,16.378805703625523904
0.274000000000000132,16.234273996274350083
0.275000000000000133,16.093362275972985742
0.276000000000000134,15.955943211626518519
0.277000000000000135,15.821892172922890296
0.278000000000000136,15.691087264838566639
0.279000000000000137,15.563409353023050841
0.280000000000000138,15.438742080683265812
0.281000000000000139,15.316971877584441231
0.282000000000000139,15.197987961775018206
0.283000000000000140,15.081682334630604814
0.284000000000000141,14.967949769796202730
0.285000000000000142,14.856687796587459971
0.286000000000000143,14.747796678391022596
0.287000000000000144,14.641179386581686828
0.288000000000000145,14.536741570450075756
0.289000000000000146,14.434391523609926722
0.290000000000000147,14.334040147328229509
0.291000000000000147,14.235600911195675167
0.292000000000000148,14.138989811528478668
0.293000000000000149,14.044125327866685993
0.294000000000000150,13.950928377908144995
0.295000000000000151,13.859322271191667042
0.296000000000000152,13.769232661818389118
0.297000000000000153,13.680587500475747120
0.298000000000000154,13.593316986005362423
0.299000000000000155,13.507353516733482834
0.300000000000000155,13.422631641761034516
0.301000000000000156,13.339088012389940019
0.302000000000000157,13.256661333842600925
0.303000000000000158,13.175292317413195065
0.304000000000000159,13.094923633171893229
0.305000000000000160,13.015499863326979835
0.306000000000000161,12.936967456334514281
0.307000000000000162,12.859274681830999754
0.308000000000000163,12.782371586451665380
0.309000000000000163,12.706209950584517188
0.310000000000000164,12.630743246099639165
0.311000000000000165,12.555926595082757657
0.312000000000000166,12.481716729593113513
0.313000000000000167,12.408071952457286002
0.314000000000000168,12.334952099103118073
0.315000000000000169,12.262318500431369728
0.316000000000000170,12.190133946716562363
0.317000000000000171,12.118362652523586576
0.318000000000000171,12.046970222621899538
0.319000000000000172,11.975923618875354393
0.320000000000000173,11.905191128082337926
0.321000000000000174,11.834742330738238891
0.322000000000000175,11.764548070689809123
0.323000000000000176,11.694580425649411026
0.324000000000000177,11.624812678535629829
0.325000000000000178,11.555219289605714650
0.326000000000000179,11.485775869344825750
0.327000000000000179,11.416459152076555483
0.328000000000000180,11.347246970259346810
0.329000000000000181,11.278118229433470532
0.330000000000000182,11.209052883783835242
0.331000000000000183,11.140031912284419136
0.332000000000000184,11.071037295390963706
0.333000000000000185,11.002051992249651136
0.334000000000000186,10.933059918390352294
0.335000000000000187,10.864045923874481758
0.336000000000000187,10.794995771868535428
0.337000000000000188,10.725896117616063208
0.338000000000000189,10.656734487781822196
0.339000000000000190,10.587499260143719226
0.340000000000000191,10.518179643609347096
0.341000000000000192,10.448765658535526413
0.342000000000000193,10.379248117330762469
0.343000000000000194,10.309618605321885454
0.344000000000000195,10.239869461867868949
0.345000000000000195,10.169993761704942514
0.346000000000000196,10.099985296508750210
0.347000000000000197,10.029838556660678250
0.348000000000000198,9.959548713206647363
0.349000000000000199,9.889111599998162916
0.350000000000000200,9.818523696006476342
0.351000000000000201,9.747782107802020590
0.352000000000000202,9.676884552192372979
0.353000000000000203,9.605829339013045143
0.354000000000000203,9.534615354066454884
0.355000000000000204,9.463242042205418869
0.356000000000000205,9.391709390558345305
0.357000000000000206,9.320017911894119322
0.358000000000000207,9.248168628125604585
0.359000000000000208,9.176163053951276183
0.360000000000000209,9.104003180635123371
0.361000000000000210,9.031691459925800913
0.362000000000000210,8.959230788116238742
0.363000000000000211,8.886624490245711883
0.364000000000000212,8.813876304446640830
0.365000000000000213,8.740990366438870396
0.366000000000000214,8.667971194174473482
0.367000000000000215,8.594823672636518808
0.368000000000000216,8.521553038795312673
0.369000000000000217,8.448164866726129318
0.370000000000000218,8.374665052892336092
0.371000000000000218,8.301059801598139387
0.372000000000000219,8.227355610615173731
0.373000000000000220,8.153559256987291448
0.374000000000000221,8.079677783017928050
0.375000000000000222,8.005718482444441619
0.376000000000000223,7.931688886803662797
0.377000000000000224,7.857596751993128237
0.378000000000000225,7.783450045032083153
0.379000000000000226,7.709256931026494897
0.380000000000000226,7.635025760342021961
0.381000000000000227,7.560765055988885486
0.382000000000000228,7.486483501222378045
0.383000000000000229,7.412189927362554442
0.384000000000000230,7.337893301836581728
0.385000000000000231,7.263602716446865948
0.386000000000000232,7.189327375868086456
0.387000000000000233,7.115076586375840506
0.388000000000000234,7.040859744809575993
0.389000000000000234,6.966686327772166010
0.390000000000000235,6.892565881068227540
0.391000000000000236,6.818508009383213775
0.392000000000000237,6.744522366204836139
0.393000000000000238,6.670618643988395213
0.394000000000000239,6.596806564567138764
0.395000000000000240,6.523095869808726022
0.396000000000000241,6.449496312518485652
0.397000000000000242,6.376017647589987014
0.398000000000000242,6.302669623403277299
0.399000000000000243,6.229461973470796110
0.400000000000000244,6.156404408330804046
0.401000000000000245,6.083506607687958478
0.402000000000000246,6.010778212800515163
0.403000000000000247,5.938228819113192003
0.404000000000000248,5.865867969134840543
0.405000000000000249,5.793705145559648884
0.406000000000000250,5.721749764630496671
0.407000000000000250,5.650011169742848338
0.408000000000000251,5.578498625287462431
0.409000000000000252,5.507221310729967456
0.410000000000000253,5.436188314925149534
0.411000000000000254,5.365408630663781153
0.412000000000000255,5.294891149449510337
0.413000000000000256,5.224644656503248719
0.414000000000000257,5.154677825992424189
0.415000000000000258,5.084999216482160023
0.416000000000000258,5.015617266605569391
0.417000000000000259,4.946540290949967833
0.418000000000000260,4.877776476155927909
0.419000000000000261,4.809333877225805409
0.420000000000000262,4.741220414038498809
0.421000000000000263,4.673443868066790685
0.422000000000000264,4.606011879293960831
0.423000000000000265,4.538931943325849261
0.424000000000000266,4.472211408694814594
0.425000000000000266,4.405857474351828174
0.426000000000000267,4.339877187342851883
0.427000000000000268,4.274277440665719574
0.428000000000000269,4.209064971303600800
0.429000000000000270,4.144246358431153965
0.430000000000000271,4.079828021789376535
0.431000000000000272,4.015816220225195465
0.432000000000000273,3.952217050391817033
0.433000000000000274,3.889036445605817960
0.434000000000000274,3.826280174856887761
0.435000000000000275,3.763953841966337421
0.436000000000000276,3.702062884890222172
0.437000000000000277,3.640612575163093112
0.438000000000000278,3.579608017478410176
0.439000000000000279,3.519054149401567688
0.440000000000000280,3.458955741211539703
0.441000000000000281,3.399317395867264224
0.442000000000000282,3.340143549094706010
0.443000000000000282,3.281438469590808094
0.444000000000000283,3.223206259340358315
0.445000000000000284,3.165450854041995221
0.446000000000000285,3.108176023639480423
0.447000000000000286,3.051385372954515063
0.448000000000000287,2.995082342417341614
0.449000000000000288,2.939270208891475278
0.450000000000000289,2.883952086588874586
0.451000000000000290,2.829130928072028262
0.452000000000000290,2.774809525339345218
0.453000000000000291,2.720990510990423772
0.454000000000000292,2.667676359467721969
0.455000000000000293,2.614869388371245496
0.456000000000000294,2.562571759842982466
0.457000000000000295,2.510785482017733106
0.458000000000000296,2.459512410537211036
0.459000000000000297,2.408754250124209850
0.460000000000000298,2.358512556213756106
0.461000000000000298,2.308788736638260453
0.462000000000000299,2.259584053363641765
0.463000000000000300,2.210899624273567898
0.464000000000000301,2.162736424998942475
0.465000000000000302,2.115095290789904769
0.466000000000000303,2.067976918427562705
0.467000000000000304,2.021381868172855256
0.468000000000000305,1.975310565749966774
0.469000000000000306,1.929763304361733489
0.470000000000000306,1.884740246734601499
0.471000000000000307,1.840241427190749235
0.472000000000000308,1.796266753745044298
0.473000000000000309,1.752816010224511389
0.474000000000000310,1.709888858408222134
0.475000000000000311,1.667484840185292638
0.476000000000000312,1.625603379729130493
0.477000000000000313,1.584243785685645722
0.478000000000000314,1.543405253373713037
0.479000000000000314,1.503086866995821946
0.480000000000000315,1.463287601857146569
0.481000000000000316,1.424006326591237270
0.482000000000000317,1.385241805390613479
0.483000000000000318,1.346992700240592367
0.484000000000000319,1.309257573154734233
0.485000000000000320,1.272034888410396247
0.486000000000000321,1.235323014782827356
0.487000000000000322,1.199120227776421022
0.488000000000000322,1.163424711851718252
0.489000000000000323,1.128234562646824646
0.490000000000000324,1.093547789191941622
0.491000000000000325,1.059362316115817437
0.492000000000000326,1.025675985842896321
0.493000000000000327,0.992486560780042160
0.494000000000000328,0.959791725491781933
0.495000000000000329,0.927589088862961653
0.496000000000000330,0.895876186247924755
0.497000000000000330,0.864650481605120036
0.498000000000000331,0.833909369616406715
0.499000000000000332,0.803650177790068199
0.500000000000000333,0.773870168546746173
0.501000000000000334,0.744566541287574601
0.502000000000000335,0.715736434443689395
0.503000000000000336,0.687376927506511470
0.504000000000000337,0.659485043038044116
0.505000000000000338,0.632057748660663110
0.506000000000000338,0.605091959025751081
0.507000000000000339,0.578584537760627904
0.508000000000000340,0.552532299393324711
0.509000000000000341,0.526932011254624633
0.510000000000000342,0.501780395357035558
0.511000000000000343,0.477074130250158379
0.512000000000000344,0.452809852852174566
0.513000000000000345,0.428984160257047609
0.514000000000000346,0.405593611517075625
0.515000000000000346,0.382634729400589513
0.516000000000000347,0.360104002124457423
0.517000000000000348,0.337997885061163961
0.518000000000000349,0.316312802420263717
0.519000000000000350,0.295045148904001409
0.520000000000000351,0.274191291336954746
0.521000000000000352,0.253747570269491518
0.522000000000000353,0.233710301555032668
0.523000000000000353,0.214075777900870179
0.524000000000000354,0.194840270392604820
0.525000000000000355,0.176000029992033930
0.526000000000000356,0.157551289008524498
0.527000000000000357,0.139490262543807669
0.528000000000000358,0.121813149910178067
0.529000000000000359,0.104516136022170622
0.530000000000000360,0.087595392761694396
0.531000000000000361,0.071047080316680014
0.532000000000000361,0.054867348493300994
0.533000000000000362,0.039052338001870024
0.534000000000000363,0.023598181716470389
0.535000000000000364,0.008501005908418425
0.536000000000000365,-0.006243068546271546
0.537000000000000366,-0.020637924985368140
0.538000000000000367,-0.034687449804624702
0.539000000000000368,-0.048395531327640628
0.540000000000000369,-0.061766058701137827
0.541000000000000369,-0.074802920815549886
0.542000000000000370,-0.087510005250656955
0.543000000000000371,-0.099891197246183491
0.544000000000000372,-0.111950378697061176
0.545000000000000373,-0.123691427173202140
0.546000000000000374,-0.135118214963565991
0.547000000000000375,-0.146234608144259759
0.548000000000000376,-0.157044465670490269
0.549000000000000377,-0.167551638492086152
0.550000000000000377,-0.177759968692410647
0.551000000000000378,-0.187673288650313935
0.552000000000000379,-0.197295420225003931
0.553000000000000380,-0.206630173963456787
0.554000000000000381,-0.215681348330169970
0.555000000000000382,-0.224452728959008946
0.556000000000000383,-0.232948087926783842
0.557000000000000384,-0.241171183048415477
0.558000000000000385,-0.249125757193278730
0.559000000000000385,-0.256815537622545109
0.560000000000000386,-0.264244235347197987
0.561000000000000387,-0.271415544506433959
0.562000000000000388,-0.278333141766157144
0.563000000000000389,-0.285000685737334059
0.564000000000000390,-0.291421816413827361
0.565000000000000391,-0.297600154629496905
0.566000000000000392,-0.303539301534228423
0.567000000000000393,-0.309242838088632344
0.568000000000000393,-0.314714324577069549
0.569000000000000394,-0.319957300138758949
0.570000000000000395,-0.324975282316665670
0.571000000000000396,-0.329771766623818352
0.572000000000000397,-0.334350226126858108
0.573000000000000398,-0.338714111046436506
0.574000000000000399,-0.342866848374222710
0.575000000000000400,-0.346811841506204588
0.576000000000000401,-0.350552469891987406
0.577000000000000401,-0.354092088699843599
0.578000000000000402,-0.357434028497151224
0.579000000000000403,-0.360581594945983297
0.580000000000000404,-0.363538068513580614
0.581000000000000405,-0.366306704197338073
0.582000000000000406,-0.368890731264132299
0.583000000000000407,-0.371293353003596227
0.584000000000000408,-0.373517746495168057
0.585000000000000409,-0.375567062388552864
0.586000000000000409,-0.377444424697348568
0.587000000000000410,-0.379152930605611893
0.588000000000000411,-0.380695650286976217
0.589000000000000412,-0.382075626736204765
0.590000000000000413,-0.383295875612767234
0.591000000000000414,-0.384359385096270323
0.592000000000000415,-0.385269115753460178
0.593000000000000416,-0.386028000416500816
0.594000000000000417,-0.386638944072309476
0.595000000000000417,-0.387104823762718320
0.596000000000000418,-0.387428488495113299
0.597000000000000419,-0.387612759163440845
0.598000000000000420,-0.387660428479197461
0.599000000000000421,-0.387574260912283919
0.600000000000000422,-0.387356992641390785
0.601000000000000423,-0.387011331513715306
0.602000000000000424,-0.386539957013798841
0.603000000000000425,-0.385945520241226803
0.604000000000000425,-0.385230643896939451
0.605000000000000426,-0.384397922277992521
0.606000000000000427,-0.383449921280511863
0.607000000000000428,-0.382389178410576236
0.608000000000000429,-0.381218202802941108
0.609000000000000430,-0.379939475247226155
0.610000000000000431,-0.378555448221511270
0.611000000000000432,-0.377068545933024246
0.612000000000000433,-0.375481164365772724
0.613000000000000433,-0.373795671334914537
0.614000000000000434,-0.372014406547660326
0.615000000000000435,-0.370139681670505261
0.616000000000000436,-0.368173780402611672
0.617000000000000437,-0.366118958555194385
0.618000000000000438,-0.363977444136637740
0.619000000000000439,-0.361751437443226520
0.620000000000000440,-0.359443111155311690
0.621000000000000441,-0.357054610438706677
0.622000000000000441,-0.354588053051176411
0.623000000000000442,-0.352045529453793027
0.624000000000000443,-0.349429102927076407
0.625000000000000444,-0.346740809691690743
0.626000000000000445,-0.343982659033542304
0.627000000000000446,-0.341156633433167378
0.628000000000000447,-0.338264688699205507
0.629000000000000448,-0.335308754105835494
0.630000000000000449,-0.332290732533999489
0.631000000000000449,-0.329212500616319848
0.632000000000000450,-0.326075908885502308
0.633000000000000451,-0.322882781926148721
0.634000000000000452,-0.319634918529769996
0.635000000000000453,-0.316334091852953692
0.636000000000000454,-0.312982049578459098
0.637000000000000455,-0.309580514079209113
0.638000000000000456,-0.306131182584954864
0.639000000000000457,-0.302635727351565520
0.640000000000000457,-0.299095795832799827
0.641000000000000458,-0.295513010854398905
0.642000000000000459,-0.291888970790472990
0.643000000000000460,-0.288225249741971390
0.644000000000000461,-0.284523397717193038
0.645000000000000462,-0.280784940814214512
0.646000000000000463,-0.277011381405090629
0.647000000000000464,-0.273204198321788216
0.648000000000000465,-0.269364847043708111
0.649000000000000465,-0.265494759886697962
0.650000000000000466,-0.261595346193491340
0.651000000000000467,-0.257667992525428269
0.652000000000000468,-0.253714062855428413
0.653000000000000469,-0.249734898762047741
0.654000000000000470,-0.245731819624633807
0.655000000000000471,-0.241706122819386415
0.656000000000000472,-0.237659083916315378
0.657000000000000473,-0.233591956876982199
0.658000000000000473,-0.229505974252961126
0.659000000000000474,-0.225402347384928869
0.660000000000000475,-0.221282266602317090
0.661000000000000476,-0.217146901423444533
0.662000000000000477,-0.212997400756083255
0.663000000000000478,-0.208834893098343549
0.664000000000000479,-0.204660486739875358
0.665000000000000480,-0.200475269963232089
0.666000000000000481,-0.196280311245445815
0.667000000000000481,-0.192076659459621268
0.668000000000000482,-0.187865344076625529
0.669000000000000483,-0.183647375366692428
0.670000000000000484,-0.179423744600964580
0.671000000000000485,-0.175195424252893167
0.672000000000000486,-0.170963368199416460
0.673000000000000487,-0.166728511921930778
0.674000000000000488,-0.162491772706915227
0.675000000000000488,-0.158254049846233119
0.676000000000000489,-0.154016224837049909
0.677000000000000490,-0.149779161581267445
0.678000000000000491,-0.145543706584513710
0.679000000000000492,-0.141310689154581504
0.680000000000000493,-0.137080921599292471
0.681000000000000494,-0.132855199423767084
0.682000000000000495,-0.128634301527016659
0.683000000000000496,-0.124418990397878654
0.684000000000000496,-0.120210012310205477
0.685000000000000497,-0.116008097517295281
0.686000000000000498,-0.111813960445537638
0.687000000000000499,-0.107628299887225443
0.688000000000000500,-0.103451799192506438
0.689000000000000501,-0.099285126460454148
0.690000000000000502,-0.095128934729222306
0.691000000000000503,-0.090983862165245205
0.692000000000000504,-0.086850532251457099
0.693000000000000504,-0.082729553974551520
0.694000000000000505,-0.078621522011160905
0.695000000000000506,-0.074527016913041394
0.696000000000000507,-0.070446605291157191
0.697000000000000508,-0.066380839998672919
0.698000000000000509,-0.062330260312854935
0.699000000000000510,-0.058295392115813457
0.700000000000000511,-0.054276748074111224
0.701000000000000512,-0.050274827817194070
0.702000000000000512,-0.046290118114636576
0.703000000000000513,-0.042323093052177747
0.704000000000000514,-0.038374214206551155
0.705000000000000515,-0.034443930819061913
0.706000000000000516,-0.030532679967933525
0.707000000000000517,-0.026640886739383619
0.708000000000000518,-0.022768964397408976
0.709000000000000519,-0.018917314552337944
0.710000000000000520,-0.015086327328014845
0.711000000000000520,-0.011276381527732606
0.712000000000000521,-0.007487844798823940
0.713000000000000522,-0.003721073795921716
0.714000000000000523,0.000023585657090680
0.715000000000000524,0.003745798406498801
0.716000000000000525,0.007445239809509352
0.717000000000000526,0.011121595576354055
0.718000000000000527,0.014774561613779963
0.719000000000000528,0.018403843869883696
0.720000000000000528,0.022009158180307263
0.721000000000000529,0.025590230115854529
0.722000000000000530,0.029146794831437284
0.723000000000000531,0.032678596916445209
0.724000000000000532,0.036185390246465804
0.725000000000000533,0.039666937836418073
0.726000000000000534,0.043123011695071295
0.727000000000000535,0.046553392680947894
0.728000000000000536,0.049957870359619537
0.729000000000000536,0.053336242862411676
0.730000000000000537,0.056688316746467168
0.731000000000000538,0.060013906856245282
0.732000000000000539,0.063312836186373761
0.733000000000000540,0.066584935745919629
0.734000000000000541,0.069830044424021825
0.735000000000000542,0.073048008856956989
0.736000000000000543,0.076238683296520879
0.737000000000000544,0.079401929479870972
0.738000000000000544,0.082537616500676703
0.739000000000000545,0.085645620681704421
0.740000000000000546,0.088725825448737305
0.741000000000000547,0.091778121205893709
0.742000000000000548,0.094802405212263977
0.743000000000000549,0.097798581459979619
0.744000000000000550,0.100766560553577425
0.745000000000000551,0.103706259590745378
0.746000000000000552,0.106617602044405041
0.747000000000000552,0.109500517646137968
0.748000000000000553,0.112354942270954744
0.749000000000000554,0.115180817823389695
0.750000000000000555,0.117978092124910089
0.751000000000000556,0.120746718802667810
0.752000000000000557,0.123486657179525935
0.753000000000000558,0.126197872165447478
0.754000000000000559,0.128880334150114156
0.755000000000000560,0.131534018896896143
0.756000000000000560,0.134158907438061414
0.757000000000000561,0.136754985971306475
0.758000000000000562,0.139322245757524443
0.759000000000000563,0.141860683019845418
0.760000000000000564,0.144370298843930878
0.761000000000000565,0.146851099079529895
0.762000000000000566,0.149303094243251444
0.763000000000000567,0.151726299422588223
0.764000000000000568,0.154120734181156877
0.765000000000000568,0.156486422465144520
0.766000000000000569,0.158823392510981404
0.767000000000000570,0.161131676754194486
0.768000000000000571,0.163411311739464049
0.769000000000000572,0.165662338031858147
0.770000000000000573,0.167884800129230266
0.771000000000000574,0.170078746375797174
0.772000000000000575,0.172244228876856142
0.773000000000000576,0.174381303414668953
0.774000000000000576,0.176490029365463374
0.775000000000000577,0.178570469617569200
0.776000000000000578,0.180622690490686522
0.777000000000000579,0.182646761656238665
0.778000000000000580,0.184642756058856106
0.779000000000000581,0.186610749838929002
0.780000000000000582,0.188550822256258466
0.781000000000000583,0.190463055614764343
0.782000000000000584,0.192347535188277907
0.783000000000000584,0.194204349147377248
0.784000000000000585,0.196033588487262128
0.785000000000000586,0.197835346956687252
0.786000000000000587,0.199609720987896144
0.787000000000000588,0.201356809627589561
0.788000000000000589,0.203076714468905795
0.789000000000000590,0.204769539584376770
0.790000000000000591,0.206435391459900697
0.791000000000000592,0.208074378929677117
0.792000000000000592,0.209686613112121278
0.793000000000000593,0.211272207346734298
0.794000000000000594,0.212831277131928343
0.795000000000000595,0.214363940063790753
0.796000000000000596,0.215870315775793020
0.797000000000000597,0.217350525879404788
0.798000000000000598,0.218804693905632730
0.799000000000000599,0.220232945247477829
0.800000000000000600,0.221635407103249082
0.801000000000000600,0.223012208420816899
0.802000000000000601,0.224363479842697888
0.803000000000000602,0.225689353652034574
0.804000000000000603,0.226989963719423760
0.805000000000000604,0.228265445450589605
0.806000000000000605,0.229515935734920712
0.807000000000000606,0.230741572894806346
0.808000000000000607,0.231942496635820727
0.809000000000000608,0.233118847997709544
0.810000000000000608,0.234270769306171994
0.811000000000000609,0.235398404125475830
0.812000000000000610,0.236501897211798096
0.813000000000000611,0.237581394467405616
0.814000000000000612,0.238637042895567891
0.815000000000000613,0.239668990556229644
0.816000000000000614,0.240677386522456793
0.817000000000000615,0.241662380837612378
0.818000000000000616,0.242624124473257485
0.819000000000000616,0.243562769287794911
0.820000000000000617,0.244478467985824566
0.821000000000000618,0.245371374078198812
0.822000000000000619,0.246241641842787129
0.823000000000000620,0.247089426285927422
0.824000000000000621,0.247914883104573214
0.825000000000000622,0.248718168649091659
0.826000000000000623,0.249499439886750884
0.827000000000000624,0.250258854365861150
0.828000000000000624,0.250996570180550826
0.829000000000000625,0.251712745936217897
0.830000000000000626,0.252407540715578471
0.831000000000000627,0.253081114045365041
0.832000000000000628,0.253733625863641954
0.833000000000000629,0.254365236487721968
0.834000000000000630,0.254976106582698814
0.835000000000000631,0.255566397130564560
0.836000000000000631,0.256136269399920291
0.837000000000000632,0.256685884916260876
0.838000000000000633,0.257215405432849820
0.839000000000000634,0.257724992902136463
0.840000000000000635,0.258214809447743332
0.841000000000000636,0.258685017337007550
0.842000000000000637,0.259135778954057483
0.843000000000000638,0.259567256773429955
0.844000000000000639,0.259979613334211324
0.845000000000000639,0.260373011214710459
0.846000000000000640,0.260747613007642209
0.847000000000000641,0.261103581295804688
0.848000000000000642,0.261441078628283419
0.849000000000000643,0.261760267497136545
0.850000000000000644,0.262061310314550489
0.851000000000000645,0.262344369390511034
0.852000000000000646,0.262609606910924775
0.853000000000000647,0.262857184916208908
0.854000000000000647,0.263087265280352089
0.855000000000000648,0.263300009690424219
0.856000000000000649,0.263495579626527143
0.857000000000000650,0.263674136342201382
0.858000000000000651,0.263835840845260405
0.859000000000000652,0.263980853879050237
0.860000000000000653,0.264109335904136322
0.861000000000000654,0.264221447080415506
0.862000000000000655,0.264317347249618861
0.863000000000000655,0.264397195918240846
0.864000000000000656,0.264461152240850150
0.865000000000000657,0.264509375003809111
0.866000000000000658,0.264542022609369432
0.867000000000000659,0.264559253060143940
0.868000000000000660,0.264561223943976853
0.869000000000000661,0.264548092419164937
0.870000000000000662,0.264520015200050196
0.871000000000000663,0.264477148542958507
0.872000000000000663,0.264419648232525284
0.873000000000000664,0.264347669568332222
0.874000000000000665,0.264261367351909970
0.875000000000000666,0.264160895874068380
0.876000000000000667,0.264046408902568142
0.877000000000000668,0.263918059670110061
0.878000000000000669,0.263776000862652071
0.879000000000000670,0.263620384608048375
0.880000000000000671,0.263451362464984740
0.881000000000000671,0.263269085412248305
0.882000000000000672,0.263073703838266393
0.883000000000000673,0.262865367530975558
0.884000000000000674,0.262644225667958864
0.885000000000000675,0.262410426806884201
0.886000000000000676,0.262164118876230201
0.887000000000000677,0.261905449166273396
0.888000000000000678,0.261634564320373630
0.889000000000000679,0.261351610326508166
0.890000000000000679,0.261056732509085787
0.891000000000000680,0.260750075521014979
0.892000000000000681,0.260431783336031786
0.893000000000000682,0.260101999241283355
0.894000000000000683,0.259760865830153898
0.895000000000000684,0.259408524995338730
0.896000000000000685,0.259045117922155399
0.897000000000000686,0.258670785082101784
0.898000000000000687,0.258285666226624744
0.899000000000000687,0.257889900381145343
0.900000000000000688,0.257483625839281305
0.901000000000000689,0.257066980157311220
0.902000000000000690,0.256640100148840866
0.903000000000000691,0.256203121879687135
0.904000000000000692,0.255756180662977173
0.905000000000000693,0.255299411054445258
0.906000000000000694,0.254832946847930120
0.907000000000000695,0.254356921071080933
0.908000000000000695,0.253871465981247602
0.909000000000000696,0.253376713061569447
0.910000000000000697,0.252872793017242969
0.911000000000000698,0.252359835771986452
0.912000000000000699,0.251837970464676264
0.913000000000000700,0.251307325446157137
0.914000000000000701,0.250768028276247779
0.915000000000000702,0.250220205720889932
0.916000000000000703,0.249663983749485396
0.917000000000000703,0.249099487532390640
0.918000000000000704,0.248526841438573787
0.919000000000000705,0.247946169033432279
0.920000000000000706,0.247357593076762333
0.921000000000000707,0.246761235520885330
0.922000000000000708,0.246157217508929632
0.923000000000000709,0.245545659373235692
0.924000000000000710,0.244926680633940741
0.925000000000000711,0.244300399997674778
0.926000000000000711,0.243666935356412040
0.927000000000000712,0.243026403786449491
0.928000000000000713,0.242378921547529463
0.929000000000000714,0.241724604082069139
0.930000000000000715,0.241063566014554725
0.931000000000000716,0.240395921151030312
0.932000000000000717,0.239721782478712564
0.933000000000000718,0.239041262165749613
0.934000000000000719,0.238354471561066289
0.935000000000000719,0.237661521194343889
0.936000000000000720,0.236962520776113517
0.937000000000000721,0.236257579197948930
0.938000000000000722,0.235546804532772741
0.939000000000000723,0.234830304035273774
0.940000000000000724,0.234108184142424680
0.941000000000000725,0.233380550474093618
0.942000000000000726,0.232647507833764505
0.943000000000000727,0.231909160209356230
0.944000000000000727,0.231165610774124758
0.945000000000000728,0.230416961887668276
0.946000000000000729,0.229663315097025617
0.947000000000000730,0.228904771137845936
0.948000000000000731,0.228141429935671047
0.949000000000000732,0.227373390607276488
0.950000000000000733,0.226600751462120525
0.951000000000000734,0.225823610003843822
0.952000000000000735,0.225042062931880421
0.953000000000000735,0.224256206143125691
0.954000000000000736,0.223466134733680877
0.955000000000000737,0.222671943000682576
0.956000000000000738,0.221873724444189568
0.957000000000000739,0.221071571769145603
0.958000000000000740,0.220265576887415937
0.959000000000000741,0.219455830919884770
0.960000000000000742,0.218642424198612323
0.961000000000000743,0.217825446269067996
0.962000000000000743,0.217004985892414848
0.963000000000000744,0.216181131047856689
0.964000000000000745,0.215353968935044937
0.965000000000000746,0.214523585976543030
0.966000000000000747,0.213690067820341861
0.967000000000000748,0.212853499342436470
0.968000000000000749,0.212013964649445275
0.969000000000000750,0.211171547081291766
0.970000000000000751,0.210326329213922719
0.971000000000000751,0.209478392862085083
0.972000000000000752,0.208627819082153915
0.973000000000000753,0.207774688174979960
0.974000000000000754,0.206919079688815566
0.975000000000000755,0.206061072422258990
0.976000000000000756,0.205200744427250503
0.977000000000000757,0.204338173012107660
0.978000000000000758,0.203473434744597614
0.979000000000000759,0.202606605455043443
0.980000000000000759,0.201737760239479480
0.981000000000000760,0.200866973462830167
0.982000000000000761,0.199994318762124201
0.983000000000000762,0.199119869049748127
0.984000000000000763,0.198243696516732265
0.985000000000000764,0.197365872636051903
0.986000000000000765,0.196486468165983114
0.987000000000000766,0.195605553153466699
0.988000000000000766,0.194723196937507087
0.989000000000000767,0.193839468152602584
0.990000000000000768,0.192954434732189373
0.991000000000000769,0.192068163912125139
0.992000000000000770,0.191180722234187944
0.993000000000000771,0.190292175549587494
0.994000000000000772,0.189402589022527101
0.995000000000000773,0.188512027133750842
0.996000000000000774,0.187620553684142960
0.997000000000000774,0.186728231798320821
0.998000000000000775,0.185835123928264956
0.999000000000000776,0.184941291856951462
1.000000000000000666,0.184046796702014098
1.001000000000000778,0.183151698919410577
1.002000000000000668,0.182256058307113389
1.003000000000000780,0.181359934008805623
1.004000000000000670,0.180463384517599690
1.005000000000000782,0.179566467679757646
1.006000000000000671,0.178669240698434484
1.007000000000000783,0.177771760137420382
1.008000000000000673,0.176874081924908527
1.009000000000000785,0.175976261357255692
1.010000000000000675,0.175078353102767759
1.011000000000000787,0.174180411205475616
1.012000000000000677,0.173282489088937730
1.013000000000000789,0.172384639560033220
1.014000000000000679,0.171486914812776281
1.015000000000000790,0.170589366432120138
1.016000000000000680,0.169692045397777463
1.017000000000000792,0.168795002088039825
1.018000000000000682,0.167898286283611531
1.019000000000000794,0.167001947171425857
1.020000000000000684,0.166106033348480397
1.021000000000000796,0.165210592825675795
1.022000000000000686,0.164315673031642157
1.023000000000000798,0.163421320816579119
1.024000000000000687,0.162527582456094472
1.025000000000000799,0.161634503655033457
1.026000000000000689,0.160742129551319335
1.027000000000000801,0.159850504719785291
1.028000000000000691,0.158959673176011951
1.029000000000000803,0.158069678380150735
1.030000000000000693,0.157180563240763987
1.031000000000000805,0.156292370118636004
1.032000000000000695,0.155405140830607275
1.033000000000000806,0.154518916653392291
1.034000000000000696,0.153633738327383501
1.035000000000000808,0.152749646060475419
1.036000000000000698,0.151866679531861892
1.037000000000000810,0.150984877895833453
1.038000000000000700,0.150104279785576472
1.039000000000000812,0.149224923316961938
1.040000000000000702,0.148346846092317491
1.041000000000000814,0.147470085204210954
1.042000000000000703,0.146594677239216820
1.043000000000000815,0.145720658281670717
1.044000000000000705,0.144848063917421332
1.045000000000000817,0.143976929237582929
1.046000000000000707,0.143107288842258568
1.047000000000000819,0.142239176844272341
1.048000000000000709,0.141372626872886459
1.049000000000000821,0.140507672077507639
1.050000000000000711,0.139644345131385628
1.051000000000000822,0.138782678235299051
1.052000000000000712,0.137922703121237916
1.053000000000000824,0.137064451056064740
1.054000000000000714,0.136207952845174896
1.055000000000000826,0.135353238836140199
1.056000000000000716,0.134500338922343782
1.057000000000000828,0.133649282546601744
1.058000000000000718,0.132800098704775021
1.059000000000000830,0.131952815949367697
1.060000000000000719,0.131107462393114410
1.061000000000000831,0.130264065712549920
1.062000000000000721,0.129422653151580580
1.063000000000000833,0.128583251525019260
1.064000000000000723,0.127745887222136506
1.065000000000000835,0.126910586210170290
1.066000000000000725,0.126077374037839557
1.067000000000000837,0.125246275838848398
1.068000000000000727,0.124417316335350400
1.069000000000000838,0.123590519841434029
1.070000000000000728,0.122765910266566511
1.071000000000000840,0.121943511119036410
1.072000000000000730,0.121123345509378269
1.073000000000000842,0.120305436153783307
1.074000000000000732,0.119489805377503241
1.075000000000000844,0.118676475118218439
1.076000000000000734,0.117865466929412951
1.077000000000000846,0.117056801983727476
1.078000000000000735,0.116250501076288426
1.079000000000000847,0.115446584628041138
1.080000000000000737,0.114645072689037592
1.081000000000000849,0.113845984941744763
1.082000000000000739,0.113049340704311649
1.083000000000000851,0.112255158933824539
1.084000000000000741,0.111463458229555529
1.085000000000000853,0.110674256836189630
1.086000000000000743,0.109887572647035567
1.087000000000000854,0.109103423207215375
1.088000000000000744,0.108321825716851755
1.089000000000000856,0.107542797034228005
1.090000000000000746,0.106766353678934833
1.091000000000000858,0.105992511834994807
1.092000000000000748,0.105221287353989015
1.093000000000000860,0.104452695758138467
1.094000000000000750,0.103686752243402180
1.095000000000000862,0.102923471682524539
1.096000000000000751,0.102162868628092943
1.097000000000000863,0.101404957315570379
1.098000000000000753,0.100649751666300372
1.099000000000000865,0.099897265290509990
1.100000000000000755,0.099147511490293244
1.101000000000000867,0.098400503262566552
1.102000000000000757,0.097656253302024404
1.103000000000000869,0.096914774004060858
1.104000000000000759,0.096176077467689497
1.105000000000000870,0.095440175498431923
1.106000000000000760,0.094707079611208861
1.107000000000000872,0.093976801033184107
1.108000000000000762,0.093249350706625614
1.109000000000000874,0.092524739291720823
1.110000000000000764,0.091802977169397532
1.111000000000000876,0.091084074444114774
1.112000000000000766,0.090368040946631242
1.113000000000000878,0.089654886236774464
1.114000000000000767,0.088944619606178346
1.115000000000000879,0.088237250081009258
1.116000000000000769,0.087532786424675588
1.117000000000000881,0.086831237140516160
1.118000000000000771,0.086132610474476207
1.119000000000000883,0.085436914417761259
1.120000000000000773,0.084744156709480697
1.121000000000000885,0.084054344839265507
1.122000000000000774,0.083367486049882020
1.123000000000000886,0.082683587339812584
1.124000000000000776,0.082002655465826899
1.125000000000000888,0.081324696945545796
1.126000000000000778,0.080649718059970940
1.127000000000000890,0.079977724856001950
1.128000000000000780,0.079308723148953014
1.129000000000000892,0.078642718525027619
1.130000000000000782,0.077979716343792554
1.131000000000000894,0.077319721740634714
1.132000000000000783,0.076662739629193857
1.133000000000000895,0.076008774703778231
1.134000000000000785,0.075357831441778045
1.135000000000000897,0.074709914106038569
1.136000000000000787,0.074065026747240789
1.137000000000000899,0.073423173206245848
1.138000000000000789,0.072784357116440740
1.139000000000000901,0.072148581906043271
1.140000000000000790,0.071515850800417988
1.141000000000000902,0.070886166824360691
1.142000000000000792,0.070259532804364394
1.143000000000000904,0.069635951370874152
1.144000000000000794,0.069015424960523625
1.145000000000000906,0.068397955818363942
1.146000000000000796,0.067783546000056788
1.147000000000000908,0.067172197374070458
1.148000000000000798,0.066563911623852112
1.149000000000000909,0.065958690249979718
1.150000000000000799,0.065356534572310346
1.151000000000000689,0.064757445732095367
1.152000000000000801,0.064161424694096636
1.153000000000000913,0.063568472248671015
1.154000000000000803,0.062978589013856001
1.155000000000000693,0.062391775437426335
1.156000000000000805,0.061808031798933807
1.157000000000000917,0.061227358211751529
1.158000000000000806,0.060649754625070995
1.159000000000000696,0.060075220825911699
1.160000000000000808,0.059503756441100598
1.161000000000000920,0.058935360939240969
1.162000000000000810,0.058370033632658691
1.163000000000000700,0.057807773679348397
1.164000000000000812,0.057248580084889353
1.165000000000000924,0.056692451704354198
1.166000000000000814,0.056139387244197071
1.167000000000000703,0.055589385264135524
1.168000000000000815,0.055042444179003926
1.169000000000000927,0.054498562260610096
1.170000000000000817,0.053957737639558245
1.171000000000000707,0.053419968307071852
1.172000000000000819,0.052885252116788538
1.173000000000000931,0.052353586786555793
1.174000000000000821,0.051824969900201093
1.175000000000000711,0.051299398909287752
1.176000000000000822,0.050776871134859868
1.177000000000000934,0.050257383769174060
1.178000000000000824,0.049740933877412886
1.179000000000000714,0.049227518399388714
1.180000000000000826,0.048717134151224514
1.181000000000000938,0.048209777827035352
1.182000000000000828,0.047705446000580180
1.183000000000000718,0.047204135126906993
1.184000000000000830,0.046705841543989324
1.185000000000000941,0.046210561474340175
1.186000000000000831,0.045718291026611624
1.187000000000000721,0.045229026197193815
1.188000000000000833,0.044742762871781180
1.189000000000000945,0.044259496826943232
1.190000000000000835,0.043779223731665831
1.191000000000000725,0.043301939148898169
1.192000000000000837,0.042827638537060259
1.193000000000000949,0.042356317251569131
1.194000000000000838,0.041887970546321304
1.195000000000000728,0.041422593575183256
1.196000000000000840,0.040960181393461789
1.197000000000000952,0.040500728959351515
1.198000000000000842,0.040044231135396804
1.199000000000000732,0.039590682689901589
1.200000000000000844,0.039140078298372724
1.201000000000000956,0.038692412544902785
1.202000000000000846,0.038247679923576541
1.203000000000000735,0.037805874839852795
1.204000000000000847,0.037366991611928857
1.205000000000000959,0.036931024472094155
1.206000000000000849,0.036497967568081921
1.207000000000000739,0.036067814964395969
1.208000000000000851,0.035640560643631018
1.209000000000000963,0.035216198507783243
1.210000000000000853,0.034794722379539358
1.211000000000000743,0.034376126003570075
1.212000000000000854,0.033960403047791431
1.213000000000000966,0.033547547104638524
1.214000000000000856,0.033137551692295222
1.215000000000000746,0.032730410255951019
1.216000000000000858,0.032326116169011501
1.217000000000000970,0.031924662734320063
1.218000000000000860,0.031526043185360383
1.219000000000000750,0.031130250687442705
1.220000000000000862,0.030737278338886988
1.221000000000000973,0.030347119172192662
1.222000000000000863,0.029959766155193513
1.223000000000000753,0.029575212192208315
1.224000000000000865,0.029193450125173021
1.225000000000000977,0.028814472734766026
1.226000000000000867,0.028438272741522753
1.227000000000000757,0.028064842806939133
1.228000000000000869,0.027694175534566913
1.229000000000000981,0.027326263471087475
1.230000000000000870,0.026961099107394838
1.231000000000000760,0.026598674879647382
1.232000000000000872,0.026238983170317653
1.233000000000000984,0.025882016309247396
1.234000000000000874,0.025527766574655518
1.235000000000000764,0.025176226194176431
1.236000000000000876,0.024827387345859531
1.237000000000000988,0.024481242159175225
1.238000000000000878,0.024137782715999263
1.239000000000000767,0.023797001051596739
1.240000000000000879,0.023458889155589926
1.241000000000000991,0.023123438972919734
1.242000000000000881,0.022790642404796366
1.243000000000000771,0.022460491309639567
1.244000000000000883,0.022132977504011782
1.245000000000000995,0.021808092763538286
1.246000000000000885,0.021485828823818828
1.247000000000000774,0.021166177381335902
1.248000000000000886,0.020849130094343277
1.249000000000000998,0.020534678583755541
1.250000000000000888,0.020222814434016832
1.251000000000000778,0.019913529193977014
1.252000000000000890,0.019606814377739246
1.253000000000001002,0.019302661465517686
1.254000000000000892,0.019001061904469162
1.255000000000000782,0.018702007109532154
1.256000000000000894,0.018405488464240383
1.257000000000001005,0.018111497321544229
1.258000000000000895,0.017820025004610374
1.259000000000000785,0.017531062807620641
1.260000000000000897,0.017244601996559448
1.261000000000001009,0.016960633809991413
1.262000000000000899,0.016679149459835674
1.263000000000000789,0.016400140132127681
1.264000000000000901,0.016123596987770224
1.265000000000001013,0.015849511163285541
1.266000000000000902,0.015577873771549369
1.267000000000000792,0.015308675902525867
1.268000000000000904,0.015041908623981970
1.269000000000001016,0.014777562982209258
1.270000000000000906,0.014515630002727781
1.271000000000000796,0.014256100690983080
1.272000000000000908,0.013998966033041701
1.273000000000001020,0.013744216996268785
1.274000000000000909,0.013491844530007652
1.275000000000000799,0.013241839566248820
1.276000000000000911,0.012994193020285446
1.277000000000001023,0.012748895791371753
1.278000000000000913,0.012505938763368214
1.279000000000000803,0.012265312805376728
1.280000000000000915,0.012027008772371886
1.281000000000001027,0.011791017505833687
1.282000000000000917,0.011557329834352511
1.283000000000000806,0.011325936574247191
1.284000000000000918,0.011096828530162656
1.285000000000001030,0.010869996495670001
1.286000000000000920,0.010645431253853300
1.287000000000000810,0.010423123577892763
1.288000000000000922,0.010203064231636883
1.289000000000001034,0.009985243970174775
1.290000000000000924,0.009769653540399739
1.291000000000000814,0.009556283681554251
1.292000000000000925,0.009345125125795464
1.293000000000001037,0.009136168598717213
1.294000000000000927,0.008929404819901687
1.295000000000000817,0.008724824503444995
1.296000000000000929,0.008522418358472774
1.297000000000001041,0.008322177089666991
1.298000000000000931,0.008124091397767968
1.299000000000000821,0.007928151980082088
1.300000000000000933,0.007734349530982984
1.301000000000001044,0.007542674742396252
1.302000000000000934,0.007353118304290207
1.303000000000000824,0.007165670905153338
1.304000000000000936,0.006980323232473581
1.305000000000001048,0.006797065973195890
1.306000000000000938,0.006615889814196294
1.307000000000000828,0.006436785442727186
1.308000000000000940,0.006259743546878624
1.309000000000001052,0.006084754816013191
1.310000000000000941,0.005911809941213539
1.311000000000000831,0.005740899615708334
1.312000000000000943,0.005572014535310784
1.313000000000001055,0.005405145398828214
1.314000000000000945,0.005240282908489048
1.315000000000000835,0.005077417770355022
1.316000000000000947,0.004916540694718355
1.317000000000001059,0.004757642396510281
1.318000000000000949,0.004600713595700797
1.319000000000000838,0.004445745017675456
1.320000000000000950,0.004292727393634397
1.321000000000001062,0.004141651460967092
1.322000000000000952,0.003992507963626644
1.323000000000000842,0.003845287652503280
1.324000000000000954,0.003699981285787236
1.325000000000001066,0.003556579629330011
1.326000000000000956,0.003415073456998807
1.327000000000000846,0.003275453551028224
1.328000000000000957,0.003137710702365149
1.329000000000001069,0.003001835711013514
1.330000000000000959,0.002867819386361871
1.331000000000000849,0.002735652547523182
1.332000000000000961,0.002605326023661863
1.333000000000001073,0.002476830654311359
1.334000000000000963,0.002350157289692502
1.335000000000000853,0.002225296791030265
1.336000000000000965,0.002102240030861218
1.337000000000001076,0.001980977893336139
1.338000000000000966,0.001861501274523300
1.339000000000000856,0.001743801082699843
1.340000000000000968,0.001627868238648461
1.341000000000001080,0.001513693675940554
1.342000000000000970,0.001401268341221996
1.343000000000000860,0.001290583194486365
1.344000000000000972,0.001181629209359976
1.345000000000001084,0.001074397373359606
1.346000000000000973,0.000968878688169076
1.347000000000000863,0.000865064169894706
1.348000000000000975,0.000762944849330945
1.349000000000001087,0.000662511772209688
1.350000000000000977,0.000563755999449340
1.351000000000000867,0.000466668607403713
1.352000000000000979,0.000371240688111424
1.353000000000001091,0.000277463349521754
1.354000000000000981,0.000185327715738989
1.355000000000000870,0.000094824927254187
1.356000000000000982,0.000005946141167548
1.357000000000001094,-0.000081317468583532
1.358000000000000984,-0.000166974711003908
1.359000000000000874,-0.000251034377825172
1.360000000000000986,-0.000333505243288650
1.361000000000001098,-0.000414396063945607
1.362000000000000988,-0.000493715578435092
1.363000000000000878,-0.000571472507294555
1.364000000000000989,-0.000647675552757003
1.365000000000001101,-0.000722333398546009
1.366000000000000991,-0.000795454709695274
1.367000000000000881,-0.000867048132354222
1.368000000000000993,-0.000937122293599230
1.369000000000001105,-0.001005685801252026
1.370000000000000995,-0.001072747243702801
1.371000000000000885,-0.001138315189731445
1.372000000000000997,-0.001202398188331716
1.373000000000001108,-0.001265004768547534
1.374000000000000998,-0.001326143439295099
1.375000000000000888,-0.001385822689212160
1.376000000000001000,-0.001444050986488243
1.377000000000001112,-0.001500836778703370
1.378000000000001002,-0.001556188492684114
1.379000000000000892,-0.001610114534341876
1.380000000000001004,-0.001662623288525737
1.381000000000001116,-0.001713723118880751
1.382000000000001005,-0.001763422367696728
1.383000000000000895,-0.001811729355772544
1.384000000000001007,-0.001858652382278394
1.385000000000001119,-0.001904199724615308
1.386000000000001009,-0.001948379638292439
1.387000000000000899,-0.001991200356782145
1.388000000000001011,-0.002032670091412492
1.389000000000001123,-0.002072797031224509
1.390000000000001013,-0.002111589342860085
1.391000000000000902,-0.002149055170440919
1.392000000000001014,-0.002185202635450369
1.393000000000001126,-0.002220039836621346
1.394000000000001016,-0.002253574849825332
1.395000000000000906,-0.002285815727957641
1.396000000000001018,-0.002316770500837059
1.397000000000001130,-0.002346447175097842
1.398000000000001020,-0.002374853734090834
1.399000000000000909,-0.002401998137778616
1.400000000000001021,-0.002427888322644799
1.401000000000001133,-0.002452532201596858
1.402000000000001023,-0.002475937663870268
1.403000000000000913,-0.002498112574939365
1.404000000000001025,-0.002519064776437107
1.405000000000001137,-0.002538802086057021
1.406000000000001027,-0.002557332297476854
1.407000000000000917,-0.002574663180280799
1.408000000000001029,-0.002590802479868411
1.409000000000001140,-0.002605757917387153
1.410000000000001030,-0.002619537189657391
1.411000000000000920,-0.002632147969093440
1.412000000000001032,-0.002643597903635443
1.413000000000001144,-0.002653894616686062
1.414000000000001034,-0.002663045707033460
1.415000000000000924,-0.002671058748791336
1.416000000000001036,-0.002677941291343004
1.417000000000001148,-0.002683700859269268
1.418000000000001037,-0.002688344952293848
1.419000000000000927,-0.002691881045227820
1.420000000000001039,-0.002694316587912880
1.421000000000001151,-0.002695659005171007
1.422000000000001041,-0.002695915696744952
1.423000000000000931,-0.002695094037259296
1.424000000000001043,-0.002693201376166058
1.425000000000001155,-0.002690245037696189
1.426000000000001044,-0.002686232320824706
1.427000000000000934,-0.002681170499218841
1.428000000000001046,-0.002675066821202659
1.429000000000001158,-0.002667928509712267
1.430000000000001048,-0.002659762762267071
1.431000000000000938,-0.002650576750924251
1.432000000000001050,-0.002640377622251538
1.433000000000001162,-0.002629172497294589
1.434000000000001052,-0.002616968471536784
1.435000000000000941,-0.002603772614885324
1.436000000000001053,-0.002589591971626819
1.437000000000001165,-0.002574433560413330
1.438000000000001055,-0.002558304374234343
1.439000000000000945,-0.002541211380388697
1.440000000000001057,-0.002523161520470051
1.441000000000001169,-0.002504161710340046
1.442000000000001059,-0.002484218840113872
1.443000000000000949,-0.002463339774142149
1.444000000000001060,-0.002441531350992099
1.445000000000001172,-0.002418800383435712
1.446000000000001062,-0.002395153658438687
1.447000000000000952,-0.002370597937141520
1.448000000000001064,-0.002345139954855942
1.449000000000001176,-0.002318786421052621
1.450000000000001066,-0.002291544019352988
1.451000000000000956,-0.002263419407523285
1.452000000000001068,-0.002234419217470426
1.453000000000001180,-0.002204550055237306
1.454000000000001069,-0.002173818500995969
1.455000000000000959,-0.002142231109055182
1.456000000000001071,-0.002109794407851356
1.457000000000001183,-0.002076514899953941
1.458000000000001073,-0.002042399062066671
1.459000000000000963,-0.002007453345027978
1.460000000000001075,-0.001971684173822146
1.461000000000001187,-0.001935097947577159
1.462000000000001076,-0.001897701039577658
1.463000000000000966,-0.001859499797267294
1.464000000000001078,-0.001820500542263157
1.465000000000001190,-0.001780709570360155
1.466000000000001080,-0.001740133151547168
1.467000000000000970,-0.001698777530015404
1.468000000000001082,-0.001656648924174810
1.469000000000001194,-0.001613753526662181
1.470000000000001084,-0.001570097504365167
1.471000000000000973,-0.001525686998430404
1.472000000000001085,-0.001480528124288773
1.473000000000001197,-0.001434626971662388
1.474000000000001087,-0.001387989604596136
1.475000000000000977,-0.001340622061467441
1.476000000000001089,-0.001292530355013633
1.477000000000001201,-0.001243720472353516
1.478000000000001091,-0.001194198375004852
1.479000000000000981,-0.001143969998912958
1.480000000000001092,-0.001093041254475392
1.481000000000001204,-0.001041418026563872
1.482000000000001094,-0.000989106174554103
1.483000000000000984,-0.000936111532353716
1.484000000000001096,-0.000882439908422858
1.485000000000001208,-0.000828097085811672
1.486000000000001098,-0.000773088822187180
1.487000000000000988,-0.000717420849861223
1.488000000000001100,-0.000661098875823003
1.489000000000001211,-0.000604128581773720
1.490000000000001101,-0.000546515624156973
1.491000000000000991,-0.000488265634189549
1.492000000000001103,-0.000429384217901529
1.493000000000001215,-0.000369876956168441
1.494000000000001105,-0.000309749404743838
1.495000000000000995,-0.000249007094299639
1.496000000000001107,-0.000187655530464574
1.497000000000001219,-0.000125700193858889
1.498000000000001108,-0.000063146540130954
1.499000000000000998,0.000000000000000000
