# C-amorph-3_BSAI9
# h[nm],U(h)[kJ/mol]
0.149999999999999994,106.803967253464477949
0.150999999999999995,104.217591548610016616
0.151999999999999996,101.437334971982210163
0.152999999999999997,98.669977129788051684
0.153999999999999998,95.978729394326265378
0.154999999999999999,93.366237520062014710
0.156000000000000000,90.816166712803905625
0.157000000000000001,88.311693662684945139
0.158000000000000002,85.841878965832876247
0.159000000000000002,83.402266712614306243
0.160000000000000003,80.993208288623605995
0.161000000000000004,78.617700348996976345
0.162000000000000005,76.279541976955982818
0.163000000000000006,73.982077601913232456
0.164000000000000007,71.727522151933527539
0.165000000000000008,69.516749905735679249
0.166000000000000009,67.349398148870733394
0.167000000000000010,65.224148428700431168
0.168000000000000010,63.139077164858157687
0.169000000000000011,61.091999999869400995
0.170000000000000012,59.080763780140600261
0.171000000000000013,57.103463660589383721
0.172000000000000014,55.158579977379893933
0.173000000000000015,53.245040816592130284
0.174000000000000016,51.362222685562052504
0.175000000000000017,49.509904539799634904
0.176000000000000018,47.688190717888815584
0.177000000000000018,45.897417003275826630
0.178000000000000019,44.138051782055576666
0.179000000000000020,42.410601628526407580
0.180000000000000021,40.715527991350015213
0.181000000000000022,39.053179206452966810
0.182000000000000023,37.423739960576043018
0.183000000000000024,35.827198629528211882
0.184000000000000025,34.263331624203246406
0.185000000000000026,32.731702968510802521
0.186000000000000026,31.231676760479381016
0.187000000000000027,29.762439875680900769
0.188000000000000028,28.323032203516540051
0.189000000000000029,26.912381807121967370
0.190000000000000030,25.529342617450083708
0.191000000000000031,24.172732569108724476
0.192000000000000032,22.841370424789918303
0.193000000000000033,21.534109888868311344
0.194000000000000034,20.249869957903278817
0.195000000000000034,18.987660781168369084
0.196000000000000035,17.746604597802253522
0.197000000000000036,16.525951572701295333
0.198000000000000037,15.325090568114958955
0.199000000000000038,14.143555061845205501
0.200000000000000039,12.981024557623589644
0.201000000000000040,11.837321931562680533
0.202000000000000041,10.712407224290334540
0.203000000000000042,9.606368425659134402
0.204000000000000042,8.519409812114231428
0.205000000000000043,7.451838390181775296
0.206000000000000044,6.404048977158941724
0.207000000000000045,5.376508415688554088
0.208000000000000046,4.369739375831019679
0.209000000000000047,3.384304149438649656
0.210000000000000048,2.420788789597033031
0.211000000000000049,1.479787894718939345
0.212000000000000050,0.561890284253965255
0.213000000000000050,-0.332334237740755600
0.214000000000000051,-1.202346882726869293
0.215000000000000052,-2.047650537215987221
0.216000000000000053,-2.867799017423112939
0.217000000000000054,-3.662404890347661812
0.218000000000000055,-4.431145863642037774
0.219000000000000056,-5.173769773175835418
0.220000000000000057,-5.890098219386887379
0.221000000000000058,-6.580028921537928177
0.222000000000000058,-7.243536873161803058
0.223000000000000059,-7.880674392586106691
0.224000000000000060,-8.491570169833098092
0.225000000000000061,-9.076427415743781424
0.226000000000000062,-9.635521221232140832
0.227000000000000063,-10.169195234484764256
0.228000000000000064,-10.677857762012600062
0.229000000000000065,-11.161977396051458555
0.230000000000000066,-11.622078266181095074
0.231000000000000066,-12.058735007459070232
0.232000000000000067,-12.472567531079610248
0.233000000000000068,-12.864235676785009233
0.234000000000000069,-13.234433819162720880
0.235000000000000070,-13.583885492717509891
0.236000000000000071,-13.913338093352843217
0.237000000000000072,-14.223557706746040807
0.238000000000000073,-14.515324107151911903
0.239000000000000073,-14.789425963496535488
0.240000000000000074,-15.046656283289655320
0.241000000000000075,-15.287808118931527801
0.242000000000000076,-15.513670555453620281
0.243000000000000077,-15.725024993631867787
0.244000000000000078,-15.922641737756340063
0.245000000000000079,-16.107276893134809370
0.246000000000000080,-16.279669574645364349
0.247000000000000081,-16.440539424324210671
0.248000000000000081,-16.590584433063302328
0.249000000000000082,-16.730479058980240126
0.250000000000000111,-16.860872632888444400
0.251000000000000112,-16.982388039513960365
0.252000000000000113,-17.095620661654308492
0.253000000000000114,-17.201137573324011498
0.254000000000000115,-17.299476967061245603
0.255000000000000115,-17.391147799948072361
0.256000000000000116,-17.476629642503162643
0.257000000000000117,-17.556372714412699310
0.258000000000000118,-17.630798091050085219
0.259000000000000119,-17.700298064876012205
0.260000000000000120,-17.765236646086137284
0.261000000000000121,-17.825950187263071456
0.262000000000000122,-17.882748117276875632
0.263000000000000123,-17.935913770243637089
0.264000000000000123,-17.985705295982761243
0.265000000000000124,-18.032356639093023887
0.266000000000000125,-18.076078574485556771
0.267000000000000126,-18.117059787954460148
0.268000000000000127,-18.155467991125156857
0.269000000000000128,-18.191451060885448499
0.270000000000000129,-18.225138194168934547
0.271000000000000130,-18.256641069716209813
0.272000000000000131,-18.286055009182089037
0.273000000000000131,-18.313460130680212501
0.274000000000000132,-18.338922488557102497
0.275000000000000133,-18.362495193862521603
0.276000000000000134,-18.384219510627975325
0.277000000000000135,-18.404125923679959698
0.278000000000000136,-18.422235174296577753
0.279000000000000137,-18.438559260564456821
0.280000000000000138,-18.453102399807541190
0.281000000000000139,-18.465861950939199687
0.282000000000000139,-18.476829295035177125
0.283000000000000140,-18.485990672836887683
0.284000000000000141,-18.493327978273562451
0.285000000000000142,-18.498819507438604148
0.286000000000000143,-18.502440662770577973
0.287000000000000144,-18.504164612474827578
0.288000000000000145,-18.503962905477969514
0.289000000000000146,-18.501806042436232502
0.290000000000000147,-18.497664003521567366
0.291000000000000147,-18.491506733887092651
0.292000000000000148,-18.483304587868524038
0.293000000000000149,-18.473028733110776756
0.294000000000000150,-18.460651515921760790
0.295000000000000151,-18.446146789249038278
0.296000000000000152,-18.429490204750990756
0.297000000000000153,-18.410659470494483259
0.298000000000000154,-18.389634575855978937
0.299000000000000155,-18.366397985235046519
0.300000000000000155,-18.340934802208415988
0.301000000000000156,-18.313232905761388736
0.302000000000000157,-18.283283060231291017
0.303000000000000158,-18.251079000587729695
0.304000000000000159,-18.216617494655238829
0.305000000000000160,-18.179898383858880351
0.306000000000000161,-18.140924604041305912
0.307000000000000162,-18.099702187863435654
0.308000000000000163,-18.056240250258735358
0.309000000000000163,-18.010550958366394525
0.310000000000000164,-17.962649487319971797
0.311000000000000165,-17.912553963216904407
0.312000000000000166,-17.860285394541655535
0.313000000000000167,-17.805867593260266801
0.314000000000000168,-17.749327086748628801
0.315000000000000169,-17.690693021660500506
0.316000000000000170,-17.629997060784749152
0.317000000000000171,-17.567273273884712381
0.318000000000000171,-17.502558023456380454
0.319000000000000172,-17.435889846286748650
0.320000000000000173,-17.367309331638786318
0.321000000000000174,-17.296858996835773326
0.322000000000000175,-17.224583160965657669
0.323000000000000176,-17.150527817374548789
0.324000000000000177,-17.074740505569305782
0.325000000000000178,-16.997270183100820162
0.326000000000000179,-16.918167097953741518
0.327000000000000179,-16.837482661923377947
0.328000000000000180,-16.755269325417916804
0.329000000000000181,-16.671580454083642309
0.330000000000000182,-16.586470207610684469
0.331000000000000183,-16.499993421040883845
0.332000000000000184,-16.412205488863051528
0.333000000000000185,-16.323162252147803031
0.334000000000000186,-16.232919888942539899
0.335000000000000187,-16.141534808116951183
0.336000000000000187,-16.049063546821784598
0.337000000000000188,-15.955562671696736032
0.338000000000000189,-15.861088683939081889
0.339000000000000190,-15.765697928321491972
0.340000000000000191,-15.669446506225714444
0.341000000000000192,-15.572390192739664627
0.342000000000000193,-15.474584357846143945
0.343000000000000194,-15.376083891715129681
0.344000000000000195,-15.276943134095532173
0.345000000000000195,-15.177215807788263291
0.346000000000000196,-15.076954956169240418
0.347000000000000197,-14.976212884719155127
0.348000000000000198,-14.875041106506188271
0.349000000000000199,-14.773490291557930476
0.350000000000000200,-14.671610220050613549
0.351000000000000201,-14.569449739235526664
0.352000000000000202,-14.467056724016231328
0.353000000000000203,-14.364478041083980742
0.354000000000000203,-14.261759516513819790
0.355000000000000204,-14.158945906719329955
0.356000000000000205,-14.056080872660611902
0.357000000000000206,-13.953206957196869098
0.358000000000000207,-13.850365565472595009
0.359000000000000208,-13.747596948224835245
0.360000000000000209,-13.644940187897372397
0.361000000000000210,-13.542433187447059595
0.362000000000000210,-13.440112661727241061
0.363000000000000211,-13.338014131333014944
0.364000000000000212,-13.236171918793894875
0.365000000000000213,-13.134619146999762407
0.366000000000000214,-13.033387739747519518
0.367000000000000215,-12.932508424296813132
0.368000000000000216,-12.832010735825193137
0.369000000000000217,-12.731923023674569961
0.370000000000000218,-12.632272459283118593
0.371000000000000218,-12.533085045698820537
0.372000000000000219,-12.434385628573345173
0.373000000000000220,-12.336197908537316792
0.374000000000000221,-12.238544454860829092
0.375000000000000222,-12.141446720305472340
0.376000000000000223,-12.044925057077350061
0.377000000000000224,-11.948998733792922877
0.378000000000000225,-11.853685953372892214
0.379000000000000226,-11.759003871781867900
0.380000000000000226,-11.664968617534862361
0.381000000000000227,-11.571595311894290248
0.382000000000000228,-11.478898089684497208
0.383000000000000229,-11.386890120653493597
0.384000000000000230,-11.295583631314560336
0.385000000000000231,-11.204989927203675038
0.386000000000000232,-11.115119415490994470
0.387000000000000233,-11.025981627888052472
0.388000000000000234,-10.937585243794753609
0.389000000000000234,-10.849938113633344372
0.390000000000000235,-10.763047282318826348
0.391000000000000236,-10.676919012818494537
0.392000000000000237,-10.591558809755250437
0.393000000000000238,-10.506971443012496081
0.394000000000000239,-10.423160971300339028
0.395000000000000240,-10.340130765645657362
0.396000000000000241,-10.257883532770676993
0.397000000000000242,-10.176421338326985477
0.398000000000000242,-10.095745629954283373
0.399000000000000243,-10.015857260135062390
0.400000000000000244,-9.936756508818497480
0.401000000000000245,-9.858443105789072902
0.402000000000000246,-9.780916252756966855
0.403000000000000247,-9.704174645149290512
0.404000000000000248,-9.628216493583046542
0.405000000000000249,-9.553039545002285138
0.406000000000000250,-9.478641103463530726
0.407000000000000250,-9.405018050555202791
0.408000000000000251,-9.332166865438125569
0.409000000000000252,-9.260083644495784583
0.410000000000000253,-9.188764120584101747
0.411000000000000254,-9.118203681872058652
0.412000000000000255,-9.048397390265503049
0.413000000000000256,-8.979339999407795148
0.414000000000000257,-8.911025972251822580
0.415000000000000258,-8.843449498199317915
0.416000000000000258,-8.776604509804013077
0.417000000000000259,-8.710484699036319611
0.418000000000000260,-8.645083533108110174
0.419000000000000261,-8.580394269856800094
0.420000000000000262,-8.516409972689011454
0.421000000000000263,-8.453123525084565770
0.422000000000000264,-8.390527644662272522
0.423000000000000265,-8.328614896809799717
0.424000000000000266,-8.267377707880333659
0.425000000000000266,-8.206808377959243117
0.426000000000000267,-8.146899093204662989
0.427000000000000268,-8.087641937766255396
0.428000000000000269,-8.029028905286812900
0.429000000000000270,-7.971051909991915707
0.430000000000000271,-7.913702797373025177
0.431000000000000272,-7.856973354469938720
0.432000000000000273,-7.800855319758611017
0.433000000000000274,-7.745340392650881256
0.434000000000000274,-7.690420242612607815
0.435000000000000275,-7.636086517907163973
0.436000000000000276,-7.582330853971376072
0.437000000000000277,-7.529144881430982927
0.438000000000000278,-7.476520233763179313
0.439000000000000279,-7.424448554613656270
0.440000000000000280,-7.372921504775699297
0.441000000000000281,-7.321930768839132853
0.442000000000000282,-7.271468061516850767
0.443000000000000282,-7.221525133656667705
0.444000000000000283,-7.172093777946457749
0.445000000000000284,-7.123165834320391632
0.446000000000000285,-7.074733195074069947
0.447000000000000286,-7.026787809696647180
0.448000000000000287,-6.979321689427486319
0.449000000000000288,-6.932326911545453996
0.450000000000000289,-6.885795623398415444
0.451000000000000290,-6.839720046180761237
0.452000000000000290,-6.794092478466616569
0.453000000000000291,-6.748905299506269273
0.454000000000000292,-6.704150972293410504
0.455000000000000293,-6.659822046410534213
0.456000000000000294,-6.615911160659893930
0.457000000000000295,-6.572411045487230652
0.458000000000000296,-6.529314525205387909
0.459000000000000297,-6.486614520024898134
0.460000000000000298,-6.444304047898370413
0.461000000000000298,-6.402376226185571007
0.462000000000000299,-6.360824273145798458
0.463000000000000300,-6.319641509264135593
0.464000000000000301,-6.278821358418027465
0.465000000000000302,-6.238357348890441578
0.466000000000000303,-6.198243114235834739
0.467000000000000304,-6.158472394004876449
0.468000000000000305,-6.119039034333949800
0.469000000000000306,-6.079936988405076903
0.470000000000000306,-6.041160316782045570
0.471000000000000307,-6.002703187628040560
0.472000000000000308,-5.964559876810371364
0.473000000000000309,-5.926724767897345814
0.474000000000000310,-5.889192352052446289
0.475000000000000311,-5.851957227830775210
0.476000000000000312,-5.815014100882626380
0.477000000000000313,-5.778357783568744743
0.478000000000000314,-5.741983194491974807
0.479000000000000314,-5.705885357949666670
0.480000000000000315,-5.670059403311076274
0.481000000000000316,-5.634500564324053329
0.482000000000000317,-5.599204178354932893
0.483000000000000318,-5.564165685565620301
0.484000000000000319,-5.529380628031605127
0.485000000000000320,-5.494844648804644294
0.486000000000000321,-5.460553490923582665
0.487000000000000322,-5.426502996376786569
0.488000000000000322,-5.392689105019451645
0.489000000000000323,-5.359107853449083692
0.490000000000000324,-5.325755373842113727
0.491000000000000325,-5.292627892754719454
0.492000000000000326,-5.259721729890623365
0.493000000000000327,-5.227033296838756726
0.494000000000000328,-5.194559095783304770
0.495000000000000329,-5.162295718188806504
0.496000000000000330,-5.130239843462684135
0.497000000000000330,-5.098388237597598405
0.498000000000000331,-5.066737751795893807
0.499000000000000332,-5.035285321078296406
0.500000000000000333,-5.004027962878955904
0.501000000000000334,-4.972962775628802845
0.502000000000000335,-4.942086937329157159
0.503000000000000336,-4.911397704117410612
0.504000000000000337,-4.880892408826508877
0.505000000000000338,-4.850568459539897681
0.506000000000000338,-4.820423338143564607
0.507000000000000339,-4.790454598876620729
0.508000000000000340,-4.760659866881916891
0.509000000000000341,-4.731036836758064190
0.510000000000000342,-4.701583271114116336
0.511000000000000343,-4.672296999128211503
0.512000000000000344,-4.643175915111287466
0.513000000000000345,-4.614217977077010424
0.514000000000000346,-4.585421205319006432
0.515000000000000346,-4.556783680996286279
0.516000000000000347,-4.528303544727885210
0.517000000000000348,-4.499978995197613685
0.518000000000000349,-4.471808287769612811
0.519000000000000350,-4.443789733115677265
0.520000000000000351,-4.415921695854929219
0.521000000000000352,-4.388202593206603552
0.522000000000000353,-4.360630893656542106
0.523000000000000353,-4.333205115637983162
0.524000000000000354,-4.305923826227266105
0.525000000000000355,-4.278785639854836731
0.526000000000000356,-4.251789217032135859
0.527000000000000357,-4.224933263094760250
0.528000000000000358,-4.198216526962250228
0.529000000000000359,-4.171637799914934774
0.530000000000000360,-4.145195914388114744
0.531000000000000361,-4.118889742783891528
0.532000000000000361,-4.092718196300901390
0.533000000000000362,-4.066680223782187298
0.534000000000000363,-4.040774810581434728
0.535000000000000364,-4.015000977447711783
0.536000000000000365,-3.989357779428892137
0.537000000000000366,-3.963844304793906481
0.538000000000000367,-3.938459673973841113
0.539000000000000368,-3.913203038522129695
0.540000000000000369,-3.888073580093677428
0.541000000000000369,-3.863070509443171208
0.542000000000000370,-3.838193065442449203
0.543000000000000371,-3.813440514117000024
0.544000000000000372,-3.788812147701541733
0.545000000000000373,-3.764307283714700247
0.546000000000000374,-3.739925264052652132
0.547000000000000375,-3.715665454101735321
0.548000000000000376,-3.691527241869966502
0.549000000000000377,-3.667510037137299062
0.550000000000000377,-3.643613270624553202
0.551000000000000378,-3.619836393180934753
0.552000000000000379,-3.596178874989974794
0.553000000000000380,-3.572640204793758212
0.554000000000000381,-3.549219889135288408
0.555000000000000382,-3.525917451618901133
0.556000000000000383,-3.502732432188395251
0.557000000000000384,-3.479664386422929745
0.558000000000000385,-3.456712884850301926
0.559000000000000385,-3.433877512277552224
0.560000000000000386,-3.411157867138637556
0.561000000000000387,-3.388553560858990288
0.562000000000000388,-3.366064217236757194
0.563000000000000389,-3.343689471840505689
0.564000000000000390,-3.321428971423173060
0.565000000000000391,-3.299282373352057984
0.566000000000000392,-3.277249345054597196
0.567000000000000393,-3.255329563479762989
0.568000000000000393,-3.233522714574750268
0.569000000000000394,-3.211828492776827915
0.570000000000000395,-3.190246600520057818
0.571000000000000396,-3.168776747756633760
0.572000000000000397,-3.147418651492667863
0.573000000000000398,-3.126172035338099953
0.574000000000000399,-3.105036629070563770
0.575000000000000400,-3.084012168212908023
0.576000000000000401,-3.063098393624160476
0.577000000000000401,-3.042295051103717896
0.578000000000000402,-3.021601891008444341
0.579000000000000403,-3.001018667882501934
0.580000000000000404,-2.980545140099655210
0.581000000000000405,-2.960181069517787478
0.582000000000000406,-2.939926221145410246
0.583000000000000407,-2.919780362819902830
0.584000000000000408,-2.899743264897284067
0.585000000000000409,-2.879814699953215928
0.586000000000000409,-2.859994442495060518
0.587000000000000410,-2.840282268684735101
0.588000000000000411,-2.820677956072107584
0.589000000000000412,-2.801181283338749939
0.590000000000000413,-2.781792030051762676
0.591000000000000414,-2.762509976427491409
0.592000000000000415,-2.743334903104901024
0.593000000000000416,-2.724266590928338783
0.594000000000000417,-2.705304820739523830
0.595000000000000417,-2.686449373178545930
0.596000000000000418,-2.667700028493555031
0.597000000000000419,-2.649056566359107912
0.598000000000000420,-2.630518765702766437
0.599000000000000421,-2.612086404539888829
0.600000000000000422,-2.593759259816320828
0.601000000000000423,-2.575537107258829117
0.602000000000000424,-2.557419721233042509
0.603000000000000425,-2.539406874608748588
0.604000000000000425,-2.521498338632289560
0.605000000000000426,-2.503693882805918314
0.606000000000000427,-2.485993274773933059
0.607000000000000428,-2.468396280215302774
0.608000000000000429,-2.450902662742777238
0.609000000000000430,-2.433512183808101526
0.610000000000000431,-2.416224602613341599
0.611000000000000432,-2.399039676028009715
0.612000000000000433,-2.381957158511874617
0.613000000000000433,-2.364976802043318838
0.614000000000000434,-2.348098356053017088
0.615000000000000435,-2.331321567362791392
0.616000000000000436,-2.314646180129517283
0.617000000000000437,-2.298071935793890130
0.618000000000000438,-2.281598573033918775
0.619000000000000439,-2.265225827722949337
0.620000000000000440,-2.248953432892156989
0.621000000000000441,-2.232781118697284128
0.622000000000000441,-2.216708612389517885
0.623000000000000442,-2.200735638290360008
0.624000000000000443,-2.184861917770353656
0.625000000000000444,-2.169087169231551648
0.626000000000000445,-2.153411108093548521
0.627000000000000446,-2.137833446783015567
0.628000000000000447,-2.122353894726552337
0.629000000000000448,-2.106972158346777313
0.630000000000000449,-2.091687941061502798
0.631000000000000449,-2.076500943285903400
0.632000000000000450,-2.061410862437562219
0.633000000000000451,-2.046417392944268610
0.634000000000000452,-2.031520226254468486
0.635000000000000453,-2.016719050850255712
0.636000000000000454,-2.002013552262812190
0.637000000000000455,-1.987403413090182980
0.638000000000000456,-1.972888313017291839
0.639000000000000457,-1.958467928838102612
0.640000000000000457,-1.944141934479837186
0.641000000000000458,-1.929910001029130573
0.642000000000000459,-1.915771796760099122
0.643000000000000460,-1.901726987164132465
0.644000000000000461,-1.887775234981441397
0.645000000000000462,-1.873916200234186480
0.646000000000000463,-1.860149540261142764
0.647000000000000464,-1.846474909753836657
0.648000000000000465,-1.832891960794059916
0.649000000000000465,-1.819400342892672828
0.650000000000000466,-1.805999703029671055
0.651000000000000467,-1.792689685695391777
0.652000000000000468,-1.779469932932830956
0.653000000000000469,-1.766340084380976894
0.654000000000000470,-1.753299777319131447
0.655000000000000471,-1.740348646712116976
0.656000000000000472,-1.727486325256333943
0.657000000000000473,-1.714712443426591904
0.658000000000000473,-1.702026629523692325
0.659000000000000474,-1.689428509722657124
0.660000000000000475,-1.676917708121594242
0.661000000000000476,-1.664493846791113896
0.662000000000000477,-1.652156545824277512
0.663000000000000478,-1.639905423386997185
0.664000000000000479,-1.627740095768879680
0.665000000000000480,-1.615660177434404599
0.666000000000000481,-1.603665281074490023
0.667000000000000481,-1.591755017658275317
0.668000000000000482,-1.579928996485224113
0.669000000000000483,-1.568186825237374737
0.670000000000000484,-1.556528110031788703
0.671000000000000485,-1.544952455473126429
0.672000000000000486,-1.533459464706300457
0.673000000000000487,-1.522048739469223921
0.674000000000000488,-1.510719880145545257
0.675000000000000488,-1.499472485817393563
0.676000000000000489,-1.488306154318112640
0.677000000000000490,-1.477220482284878900
0.678000000000000491,-1.466215065211266211
0.679000000000000492,-1.455289497499676177
0.680000000000000493,-1.444443372513600554
0.681000000000000494,-1.433676282629740228
0.682000000000000495,-1.422987819289895928
0.683000000000000496,-1.412377573052665536
0.684000000000000496,-1.401845133644863406
0.685000000000000497,-1.391390090012705860
0.686000000000000498,-1.381012030372686494
0.687000000000000499,-1.370710542262158160
0.688000000000000500,-1.360485212589574333
0.689000000000000501,-1.350335627684406736
0.690000000000000502,-1.340261373346693041
0.691000000000000503,-1.330262034896198653
0.692000000000000504,-1.320337197221197023
0.693000000000000504,-1.310486444826856056
0.694000000000000505,-1.300709361883160442
0.695000000000000506,-1.291005532272453404
0.696000000000000507,-1.281374539636492615
0.697000000000000508,-1.271815967423056026
0.698000000000000509,-1.262329398932098723
0.699000000000000510,-1.252914417361394417
0.700000000000000511,-1.243570605851717747
0.701000000000000512,-1.234297547531505890
0.702000000000000512,-1.225094825561024114
0.703000000000000513,-1.215962023176007989
0.704000000000000514,-1.206898723730784884
0.705000000000000515,-1.197904510740863238
0.706000000000000516,-1.188978967924982033
0.707000000000000517,-1.180121679246624034
0.708000000000000518,-1.171332228954960808
0.709000000000000519,-1.162610201625276618
0.710000000000000520,-1.153955182198793228
0.711000000000000520,-1.145366756021967358
0.712000000000000521,-1.136844508885198390
0.713000000000000522,-1.128388027060969412
0.714000000000000523,-1.119996897341435149
0.715000000000000524,-1.111670707075393505
0.716000000000000525,-1.103409044204734624
0.717000000000000526,-1.095211497300258463
0.718000000000000527,-1.087077655596944137
0.719000000000000528,-1.079007109028617739
0.720000000000000528,-1.070999448262069942
0.721000000000000529,-1.063054264730534770
0.722000000000000530,-1.055171150666652347
0.723000000000000531,-1.047349699134792589
0.724000000000000532,-1.039589504062822689
0.725000000000000533,-1.031890160273307933
0.726000000000000534,-1.024251263514087018
0.727000000000000535,-1.016672410488316913
0.728000000000000536,-1.009153198883900426
0.729000000000000536,-1.001693227402366881
0.730000000000000537,-0.994292095787166041
0.731000000000000538,-0.986949404851381606
0.732000000000000539,-0.979664756504895040
0.733000000000000540,-0.972437753780968306
0.734000000000000541,-0.965268000862261943
0.735000000000000542,-0.958155103106296147
0.736000000000000543,-0.951098667070362724
0.737000000000000544,-0.944098300535853752
0.738000000000000544,-0.937153612532079849
0.739000000000000545,-0.930264213359498826
0.740000000000000546,-0.923429714612429620
0.741000000000000547,-0.916649729201203578
0.742000000000000548,-0.909923871373816362
0.743000000000000549,-0.903251756736994538
0.744000000000000550,-0.896633002276770119
0.745000000000000551,-0.890067226378535414
0.746000000000000552,-0.883554048846544426
0.747000000000000552,-0.877093090922943852
0.748000000000000553,-0.870683975306255298
0.749000000000000554,-0.864326326169368997
0.750000000000000555,-0.858019769177045921
0.751000000000000556,-0.851763931502897309
0.752000000000000557,-0.845558441845908781
0.753000000000000558,-0.839402930446437656
0.754000000000000559,-0.833297029101769282
0.755000000000000560,-0.827240371181167555
0.756000000000000560,-0.821232591640476906
0.757000000000000561,-0.815273327036238449
0.758000000000000562,-0.809362215539353280
0.759000000000000563,-0.803498896948308228
0.760000000000000564,-0.797683012701922545
0.761000000000000565,-0.791914205891673828
0.762000000000000566,-0.786192121273571631
0.763000000000000567,-0.780516405279607417
0.764000000000000568,-0.774886706028759753
0.765000000000000568,-0.769302673337607157
0.766000000000000569,-0.763763958730488302
0.767000000000000570,-0.758270215449283524
0.768000000000000571,-0.752821098462752691
0.769000000000000572,-0.747416264475519787
0.770000000000000573,-0.742055371936617192
0.771000000000000574,-0.736738081047672466
0.772000000000000575,-0.731464053770693123
0.773000000000000576,-0.726232953835477479
0.774000000000000576,-0.721044446746653245
0.775000000000000577,-0.715898199790359846
0.776000000000000578,-0.710793882040532510
0.777000000000000579,-0.705731164364885033
0.778000000000000580,-0.700709719430485101
0.779000000000000581,-0.695729221709024848
0.780000000000000582,-0.690789347481722715
0.781000000000000583,-0.685889774843918110
0.782000000000000584,-0.681030183709309234
0.783000000000000584,-0.676210255813879058
0.784000000000000585,-0.671429674719511427
0.785000000000000586,-0.666688125817268329
0.786000000000000587,-0.661985296330387496
0.787000000000000588,-0.657320875316959929
0.788000000000000589,-0.652694553672299227
0.789000000000000590,-0.648106024131051561
0.790000000000000591,-0.643554981268982251
0.791000000000000592,-0.639041121504501874
0.792000000000000592,-0.634564143099905276
0.793000000000000593,-0.630123746162338350
0.794000000000000594,-0.625719632644498924
0.795000000000000595,-0.621351506345087179
0.796000000000000596,-0.617019072908958632
0.797000000000000597,-0.612722039827082621
0.798000000000000598,-0.608460116436200016
0.799000000000000599,-0.604233013918266337
0.800000000000000600,-0.600040445299651504
0.801000000000000600,-0.595882125450100442
0.802000000000000601,-0.591757771081464767
0.803000000000000602,-0.587667100746213977
0.804000000000000603,-0.583609834835728813
0.805000000000000604,-0.579585695578374471
0.806000000000000605,-0.575594407037350320
0.807000000000000606,-0.571635695108368980
0.808000000000000607,-0.567709287517089711
0.809000000000000608,-0.563814913816380270
0.810000000000000608,-0.559952305383392912
0.811000000000000609,-0.556121195416413472
0.812000000000000610,-0.552321318931572325
0.813000000000000611,-0.548552412759331753
0.814000000000000612,-0.544814215540825764
0.815000000000000613,-0.541106467724026485
0.816000000000000614,-0.537428911559709510
0.817000000000000615,-0.533781291097293442
0.818000000000000616,-0.530163352180504477
0.819000000000000616,-0.526574842442873559
0.820000000000000617,-0.523015511303086433
0.821000000000000618,-0.519485109960191371
0.822000000000000619,-0.515983391388664225
0.823000000000000620,-0.512510110333307178
0.824000000000000621,-0.509065023304032027
0.825000000000000622,-0.505647888570503468
0.826000000000000623,-0.502258466156648931
0.827000000000000624,-0.498896517835038356
0.828000000000000624,-0.495561807121145392
0.829000000000000625,-0.492254099267477485
0.830000000000000626,-0.488973161257600819
0.831000000000000627,-0.485718761800042476
0.832000000000000628,-0.482490671322092002
0.833000000000000629,-0.479288661963471418
0.834000000000000630,-0.476112507569927679
0.835000000000000631,-0.472961983686710774
0.836000000000000631,-0.469836867551949866
0.837000000000000632,-0.466736938089946485
0.838000000000000633,-0.463661975904353096
0.839000000000000634,-0.460611763271288499
0.840000000000000635,-0.457586084132354576
0.841000000000000636,-0.454584724087551906
0.842000000000000637,-0.451607470388157406
0.843000000000000638,-0.448654111929468968
0.844000000000000639,-0.445724439243523729
0.845000000000000639,-0.442818244491711366
0.846000000000000640,-0.439935321457326167
0.847000000000000641,-0.437075465538064645
0.848000000000000642,-0.434238473738434216
0.849000000000000643,-0.431424144662111320
0.850000000000000644,-0.428632278504254338
0.851000000000000645,-0.425862677043718940
0.852000000000000646,-0.423115143635264146
0.853000000000000647,-0.420389483201673464
0.854000000000000647,-0.417685502225832672
0.855000000000000648,-0.415003008742766410
0.856000000000000649,-0.412341812331623814
0.857000000000000650,-0.409701724107618848
0.858000000000000651,-0.407082556713923349
0.859000000000000652,-0.404484124313533866
0.860000000000000653,-0.401906242581091810
0.861000000000000654,-0.399348728694660315
0.862000000000000655,-0.396811401327490931
0.863000000000000655,-0.394294080639724653
0.864000000000000656,-0.391796588270098556
0.865000000000000657,-0.389318747327593029
0.866000000000000658,-0.386860382383073964
0.867000000000000659,-0.384421319460907129
0.868000000000000660,-0.382001386030535073
0.869000000000000661,-0.379600410998050919
0.870000000000000662,-0.377218224697742355
0.871000000000000663,-0.374854658883630010
0.872000000000000663,-0.372509546720969975
0.873000000000000664,-0.370182722777760875
0.874000000000000665,-0.367874023016227070
0.875000000000000666,-0.365583284784295526
0.876000000000000667,-0.363310346807064199
0.877000000000000668,-0.361055049178254817
0.878000000000000669,-0.358817233351670539
0.879000000000000670,-0.356596742132632372
0.880000000000000671,-0.354393419669431275
0.881000000000000671,-0.352207111444757026
0.882000000000000672,-0.350037664267145388
0.883000000000000673,-0.347884926262407634
0.884000000000000674,-0.345748746865078505
0.885000000000000675,-0.343628976809846498
0.886000000000000676,-0.341525468123012377
0.887000000000000677,-0.339438074113932398
0.888000000000000678,-0.337366649366468652
0.889000000000000679,-0.335311049730466215
0.890000000000000679,-0.333271132313215590
0.891000000000000680,-0.331246755470941734
0.892000000000000681,-0.329237778800290981
0.893000000000000682,-0.327244063129835117
0.894000000000000683,-0.325265470511588217
0.895000000000000684,-0.323301864212539702
0.896000000000000685,-0.321353108706195489
0.897000000000000686,-0.319419069664136579
0.898000000000000687,-0.317499613947605563
0.899000000000000687,-0.315594609599085696
0.900000000000000688,-0.313703925833922093
0.901000000000000689,-0.311827433031947765
0.902000000000000690,-0.309965002729140404
0.903000000000000691,-0.308116507609290768
0.904000000000000692,-0.306281821495691831
0.905000000000000693,-0.304460819342857181
0.906000000000000694,-0.302653377228263465
0.907000000000000695,-0.300859372344097487
0.908000000000000695,-0.299078682989062705
0.909000000000000696,-0.297311188560170747
0.910000000000000697,-0.295556769544591758
0.911000000000000698,-0.293815307511510582
0.912000000000000699,-0.292086685104015586
0.913000000000000700,-0.290370786031029504
0.914000000000000701,-0.288667495059230894
0.915000000000000702,-0.286976698005054209
0.916000000000000703,-0.285298281726676650
0.917000000000000703,-0.283632134116062473
0.918000000000000704,-0.281978144091018956
0.919000000000000705,-0.280336201587294664
0.920000000000000706,-0.278706197550710189
0.921000000000000707,-0.277088023929309479
0.922000000000000708,-0.275481573665550594
0.923000000000000709,-0.273886740688540853
0.924000000000000710,-0.272303419906274879
0.925000000000000711,-0.270731507197941146
0.926000000000000711,-0.269170899406234065
0.927000000000000712,-0.267621494329720933
0.928000000000000713,-0.266083190715227957
0.929000000000000714,-0.264555888250278814
0.930000000000000715,-0.263039487555546292
0.931000000000000716,-0.261533890177356509
0.932000000000000717,-0.260038998580231107
0.933000000000000718,-0.258554716139447360
0.934000000000000719,-0.257080947133654036
0.935000000000000719,-0.255617596737519381
0.936000000000000720,-0.254164571014406260
0.937000000000000721,-0.252721776909096030
0.938000000000000722,-0.251289122240550888
0.939000000000000723,-0.249866515694701613
0.940000000000000724,-0.248453866817286567
0.941000000000000725,-0.247051086006723042
0.942000000000000726,-0.245658084507020424
0.943000000000000727,-0.244274774400723260
0.944000000000000727,-0.242901068601907744
0.945000000000000728,-0.241536880849208574
0.946000000000000729,-0.240182125698878091
0.947000000000000730,-0.238836718517901891
0.948000000000000731,-0.237500575477136960
0.949000000000000732,-0.236173613544507610
0.950000000000000733,-0.234855750478214359
0.951000000000000734,-0.233546904820021023
0.952000000000000735,-0.232246995888543806
0.953000000000000735,-0.230955943772596151
0.954000000000000736,-0.229673669324584273
0.955000000000000737,-0.228400094153925648
0.956000000000000738,-0.227135140620518206
0.957000000000000739,-0.225878731828246165
0.958000000000000740,-0.224630791618524256
0.959000000000000741,-0.223391244563887426
0.960000000000000742,-0.222160015961622298
0.961000000000000743,-0.220937031827426911
0.962000000000000743,-0.219722218889125742
0.963000000000000744,-0.218515504580414521
0.964000000000000745,-0.217316817034659909
0.965000000000000746,-0.216126085078720331
0.966000000000000747,-0.214943238226818462
0.967000000000000748,-0.213768206674454675
0.968000000000000749,-0.212600921292364742
0.969000000000000750,-0.211441313620501059
0.970000000000000751,-0.210289315862079995
0.971000000000000751,-0.209144860877642447
0.972000000000000752,-0.208007882179170295
0.973000000000000753,-0.206878313924255014
0.974000000000000754,-0.205756090910274109
0.975000000000000755,-0.204641148568636744
0.976000000000000756,-0.203533422959058269
0.977000000000000757,-0.202432850763873462
0.978000000000000758,-0.201339369282388991
0.979000000000000759,-0.200252916425292360
0.980000000000000759,-0.199173430709070343
0.981000000000000760,-0.198100851250492815
0.982000000000000761,-0.197035117761134776
0.983000000000000762,-0.195976170541919265
0.984000000000000763,-0.194923950477713964
0.985000000000000764,-0.193878399031974596
0.986000000000000765,-0.192839458241409328
0.987000000000000766,-0.191807070710690308
0.988000000000000766,-0.190781179607209112
0.989000000000000767,-0.189761728655872902
0.990000000000000768,-0.188748662133923994
0.991000000000000769,-0.187741924865812204
0.992000000000000770,-0.186741462218101367
0.993000000000000771,-0.185747220094420101
0.994000000000000772,-0.184759144930436353
0.995000000000000773,-0.183777183688892204
0.996000000000000774,-0.182801283854650332
0.997000000000000774,-0.181831393429803367
0.998000000000000775,-0.180867460928805762
0.999000000000000776,-0.179909435373647730
1.000000000000000666,-0.178957266289066635
1.001000000000000778,-0.178010903697800205
1.002000000000000668,-0.177070298115867553
1.003000000000000780,-0.176135400547891285
1.004000000000000670,-0.175206162482466621
1.005000000000000782,-0.174282535887549050
1.006000000000000671,-0.173364473205897984
1.007000000000000783,-0.172451927350534190
1.008000000000000673,-0.171544851700256212
1.009000000000000785,-0.170643200095182884
1.010000000000000675,-0.169746926832325784
1.011000000000000787,-0.168855986661206658
1.012000000000000677,-0.167970334779511454
1.013000000000000789,-0.167089926828772245
1.014000000000000679,-0.166214718890084545
1.015000000000000790,-0.165344667479869367
1.016000000000000680,-0.164479729545666337
1.017000000000000792,-0.163619862461945875
1.018000000000000682,-0.162765024025986582
1.019000000000000794,-0.161915172453755946
1.020000000000000684,-0.161070266375848564
1.021000000000000796,-0.160230264833444408
1.022000000000000686,-0.159395127274305104
1.023000000000000798,-0.158564813548807498
1.024000000000000687,-0.157739283906002253
1.025000000000000799,-0.156918498989718380
1.026000000000000689,-0.156102419834685396
1.027000000000000801,-0.155291007862703168
1.028000000000000691,-0.154484224878834120
1.029000000000000803,-0.153682033067631563
1.030000000000000693,-0.152884394989400818
1.031000000000000805,-0.152091273576495711
1.032000000000000695,-0.151302632129632686
1.033000000000000806,-0.150518434314263261
1.034000000000000696,-0.149738644156950873
1.035000000000000808,-0.148963226041789965
1.036000000000000698,-0.148192144706858875
1.037000000000000810,-0.147425365240713230
1.038000000000000700,-0.146662853078875888
1.039000000000000812,-0.145904574000396609
1.040000000000000702,-0.145150494124421464
1.041000000000000814,-0.144400579906799942
1.042000000000000703,-0.143654798136705175
1.043000000000000815,-0.142913115933313850
1.044000000000000705,-0.142175500742495103
1.045000000000000817,-0.141441920333523874
1.046000000000000707,-0.140712342795844991
1.047000000000000819,-0.139986736535852724
1.048000000000000709,-0.139265070273686481
1.049000000000000821,-0.138547313040091186
1.050000000000000711,-0.137833434173263547
1.051000000000000822,-0.137123403315765308
1.052000000000000712,-0.136417190411435074
1.053000000000000824,-0.135714765702338591
1.054000000000000714,-0.135016099725758315
1.055000000000000826,-0.134321163311187874
1.056000000000000716,-0.133629927577377683
1.057000000000000828,-0.132942363929384494
1.058000000000000718,-0.132258444055664864
1.059000000000000830,-0.131578139925190324
1.060000000000000719,-0.130901423784589799
1.061000000000000831,-0.130228268155308025
1.062000000000000721,-0.129558645830809949
1.063000000000000833,-0.128892529873799178
1.064000000000000723,-0.128229893613455076
1.065000000000000835,-0.127570710642708168
1.066000000000000725,-0.126914954815546571
1.067000000000000837,-0.126262600244315737
1.068000000000000727,-0.125613621297089084
1.069000000000000838,-0.124967992595019700
1.070000000000000728,-0.124325689009749760
1.071000000000000840,-0.123686685660824275
1.072000000000000730,-0.123050957913139844
1.073000000000000842,-0.122418481374412136
1.074000000000000732,-0.121789231892664856
1.075000000000000844,-0.121163185553754091
1.076000000000000734,-0.120540318678904135
1.077000000000000846,-0.119920607822267655
1.078000000000000735,-0.119304029768522030
1.079000000000000847,-0.118690561530468114
1.080000000000000737,-0.118080180346675181
1.081000000000000849,-0.117472863679120534
1.082000000000000739,-0.116868589210881613
1.083000000000000851,-0.116267334843827758
1.084000000000000741,-0.115669078696347863
1.085000000000000853,-0.115073799101088545
1.086000000000000743,-0.114481474602723593
1.087000000000000854,-0.113892083955740159
1.088000000000000744,-0.113305606122253127
1.089000000000000856,-0.112722020269822670
1.090000000000000746,-0.112141305769317134
1.091000000000000858,-0.111563442192782844
1.092000000000000748,-0.110988409311330846
1.093000000000000860,-0.110416187093058421
1.094000000000000750,-0.109846755700976753
1.095000000000000862,-0.109280095490966483
1.096000000000000751,-0.108716187009756160
1.097000000000000863,-0.108155010992906447
1.098000000000000753,-0.107596548362834915
1.099000000000000865,-0.107040780226844531
1.100000000000000755,-0.106487687875170850
1.101000000000000867,-0.105937252779060659
1.102000000000000757,-0.105389456588864269
1.103000000000000869,-0.104844281132141767
1.104000000000000759,-0.104301708411785654
1.105000000000000870,-0.103761720604183344
1.106000000000000760,-0.103224300057365131
1.107000000000000872,-0.102689429289201467
1.108000000000000762,-0.102157090985602245
1.109000000000000874,-0.101627267998730633
1.110000000000000764,-0.101099943345247884
1.111000000000000876,-0.100575100204562645
1.112000000000000766,-0.100052721917108983
1.113000000000000878,-0.099532791982634650
1.114000000000000767,-0.099015294058510575
1.115000000000000879,-0.098500211958050893
1.116000000000000769,-0.097987529648857402
1.117000000000000881,-0.097477231251177285
1.118000000000000771,-0.096969301036278946
1.119000000000000883,-0.096463723424841594
1.120000000000000773,-0.095960482985366802
1.121000000000000885,-0.095459564432593486
1.122000000000000774,-0.094960952625946352
1.123000000000000886,-0.094464632567987428
1.124000000000000776,-0.093970589402892185
1.125000000000000888,-0.093478808414925979
1.126000000000000778,-0.092989275026957113
1.127000000000000890,-0.092501974798974734
1.128000000000000780,-0.092016893426609486
1.129000000000000892,-0.091534016739696716
1.130000000000000782,-0.091053330700829646
1.131000000000000894,-0.090574821403941602
1.132000000000000783,-0.090098475072893675
1.133000000000000895,-0.089624278060093002
1.134000000000000785,-0.089152216845092308
1.135000000000000897,-0.088682278033252765
1.136000000000000787,-0.088214448354370534
1.137000000000000899,-0.087748714661354379
1.138000000000000789,-0.087285063928891710
1.139000000000000901,-0.086823483252156289
1.140000000000000790,-0.086363959845499813
1.141000000000000902,-0.085906481041164134
1.142000000000000792,-0.085451034288033009
1.143000000000000904,-0.084997607150362628
1.144000000000000794,-0.084546187306545909
1.145000000000000906,-0.084096762547871337
1.146000000000000796,-0.083649320777326883
1.147000000000000908,-0.083203850008379363
1.148000000000000798,-0.082760338363792291
1.149000000000000909,-0.082318774074445683
1.150000000000000799,-0.081879145478165744
1.151000000000000689,-0.081441441018577823
1.152000000000000801,-0.081005649243964112
1.153000000000000913,-0.080571758806128699
1.154000000000000803,-0.080139758459284380
1.155000000000000693,-0.079709637058945251
1.156000000000000805,-0.079281383560837984
1.157000000000000917,-0.078854987019807005
1.158000000000000806,-0.078430436588758548
1.159000000000000696,-0.078007721517589487
1.160000000000000808,-0.077586831152144153
1.161000000000000920,-0.077167754933175847
1.162000000000000810,-0.076750482395324726
1.163000000000000700,-0.076335003166092125
1.164000000000000812,-0.075921306964851012
1.165000000000000924,-0.075509383601836025
1.166000000000000814,-0.075099222977174890
1.167000000000000703,-0.074690815079905687
1.168000000000000815,-0.074284149987022541
1.169000000000000927,-0.073879217862514737
1.170000000000000817,-0.073476008956437855
1.171000000000000707,-0.073074513603965593
1.172000000000000819,-0.072674722224484678
1.173000000000000931,-0.072276625320675053
1.174000000000000821,-0.071880213477605648
1.175000000000000711,-0.071485477361850153
1.176000000000000822,-0.071092407720599174
1.177000000000000934,-0.070700995380788598
1.178000000000000824,-0.070311231248236711
1.179000000000000714,-0.069923106306786859
1.180000000000000826,-0.069536611617473224
1.181000000000000938,-0.069151738317670380
1.182000000000000828,-0.068768477620276602
1.183000000000000718,-0.068386820812896085
1.184000000000000830,-0.068006759257025581
1.185000000000000941,-0.067628284387254545
1.186000000000000831,-0.067251387710482696
1.187000000000000721,-0.066876060805123885
1.188000000000000833,-0.066502295320346169
1.189000000000000945,-0.066130082975295282
1.190000000000000835,-0.065759415558345941
1.191000000000000725,-0.065390284926339831
1.192000000000000837,-0.065022683003867571
1.193000000000000949,-0.064656601782508677
1.194000000000000838,-0.064292033320131600
1.195000000000000728,-0.063928969740159977
1.196000000000000840,-0.063567403230872135
1.197000000000000952,-0.063207326044702333
1.198000000000000842,-0.062848730497537267
1.199000000000000732,-0.062491608968046508
1.200000000000000844,-0.062135953896983190
1.201000000000000956,-0.061781757786536731
1.202000000000000846,-0.061429013199651085
1.203000000000000735,-0.061077712759383597
1.204000000000000847,-0.060727849148240906
1.205000000000000959,-0.060379415107556254
1.206000000000000849,-0.060032403436838210
1.207000000000000739,-0.059686806993152666
1.208000000000000851,-0.059342618690501892
1.209000000000000963,-0.058999831499210231
1.210000000000000853,-0.058658438445317450
1.211000000000000743,-0.058318432609978023
1.212000000000000854,-0.057979807128871075
1.213000000000000966,-0.057642555191609282
1.214000000000000856,-0.057306670041168704
1.215000000000000746,-0.056972144973298021
1.216000000000000858,-0.056638973335974771
1.217000000000000970,-0.056307148528822529
1.218000000000000860,-0.055976664002568996
1.219000000000000750,-0.055647513258498274
1.220000000000000862,-0.055319689847901844
1.221000000000000973,-0.054993187371547389
1.222000000000000863,-0.054667999479150312
1.223000000000000753,-0.054344119868843112
1.224000000000000865,-0.054021542286665926
1.225000000000000977,-0.053700260526048760
1.226000000000000867,-0.053380268427306164
1.227000000000000757,-0.053061559877138044
1.228000000000000869,-0.052744128808127219
1.229000000000000981,-0.052427969198267046
1.230000000000000870,-0.052113075070456580
1.231000000000000760,-0.051799440492035310
1.232000000000000872,-0.051487059574309726
1.233000000000000984,-0.051175926472074397
1.234000000000000874,-0.050866035383168418
1.235000000000000764,-0.050557380547997632
1.236000000000000876,-0.050249956249098525
1.237000000000000988,-0.049943756810680369
1.238000000000000878,-0.049638776598193615
1.239000000000000767,-0.049335010017884165
1.240000000000000879,-0.049032451516367044
1.241000000000000991,-0.048731095580195935
1.242000000000000881,-0.048430936735443839
1.243000000000000771,-0.048131969547286366
1.244000000000000883,-0.047834188619581983
1.245000000000000995,-0.047537588594477584
1.246000000000000885,-0.047242164151993019
1.247000000000000774,-0.046947910009629876
1.248000000000000886,-0.046654820921972498
1.249000000000000998,-0.046362891680302463
1.250000000000000888,-0.046072117112215302
1.251000000000000778,-0.045782492081231800
1.252000000000000890,-0.045494011486431937
1.253000000000001002,-0.045206670262071216
1.254000000000000892,-0.044920463377227375
1.255000000000000782,-0.044635385835425506
1.256000000000000894,-0.044351432674281849
1.257000000000001005,-0.044068598965153249
1.258000000000000895,-0.043786879812782245
1.259000000000000785,-0.043506270354945406
1.260000000000000897,-0.043226765762121963
1.261000000000001009,-0.042948361237144989
1.262000000000000899,-0.042671052014870384
1.263000000000000789,-0.042394833361842202
1.264000000000000901,-0.042119700575974375
1.265000000000001013,-0.041845648986214935
1.266000000000000902,-0.041572673952233671
1.267000000000000792,-0.041300770864104462
1.268000000000000904,-0.041029935141992740
1.269000000000001016,-0.040760162235845200
1.270000000000000906,-0.040491447625088203
1.271000000000000796,-0.040223786818321915
1.272000000000000908,-0.039957175353021811
1.273000000000001020,-0.039691608795248932
1.274000000000000909,-0.039427082739353789
1.275000000000000799,-0.039163592807687830
1.276000000000000911,-0.038901134650325471
1.277000000000001023,-0.038639703944772771
1.278000000000000913,-0.038379296395699015
1.279000000000000803,-0.038119907734653111
1.280000000000000915,-0.037861533719804871
1.281000000000001027,-0.037604170135655798
1.282000000000000917,-0.037347812792796378
1.283000000000000806,-0.037092457527627305
1.284000000000000918,-0.036838100202110854
1.285000000000001030,-0.036584736703506052
1.286000000000000920,-0.036332362944125063
1.287000000000000810,-0.036080974861071459
1.288000000000000922,-0.035830568416006840
1.289000000000001034,-0.035581139594893244
1.290000000000000924,-0.035332684407756713
1.291000000000000814,-0.035085198888455821
1.292000000000000925,-0.034838679094429961
1.293000000000001037,-0.034593121106483708
1.294000000000000927,-0.034348521028543293
1.295000000000000817,-0.034104874987436883
1.296000000000000929,-0.033862179132663976
1.297000000000001041,-0.033620429636173212
1.298000000000000931,-0.033379622692151605
1.299000000000000821,-0.033139754516796814
1.300000000000000933,-0.032900821348104931
1.301000000000001044,-0.032662819445663085
1.302000000000000934,-0.032425745090433361
1.303000000000000824,-0.032189594584552353
1.304000000000000936,-0.031954364251117764
1.305000000000001048,-0.031720050433995971
1.306000000000000938,-0.031486649497619056
1.307000000000000828,-0.031254157826779108
1.308000000000000940,-0.031022571826441657
1.309000000000001052,-0.030791887921554732
1.310000000000000941,-0.030562102556852367
1.311000000000000831,-0.030333212196664648
1.312000000000000943,-0.030105213324733059
1.313000000000001055,-0.029878102444038178
1.314000000000000945,-0.029651876076600293
1.315000000000000835,-0.029426530763307444
1.316000000000000947,-0.029202063063738147
1.317000000000001059,-0.028978469555990045
1.318000000000000949,-0.028755746836494768
1.319000000000000838,-0.028533891519860782
1.320000000000000950,-0.028312900238694864
1.321000000000001062,-0.028092769643434445
1.322000000000000952,-0.027873496402188440
1.323000000000000842,-0.027655077200568534
1.324000000000000954,-0.027437508741533518
1.325000000000001066,-0.027220787745218928
1.326000000000000956,-0.027004910948794703
1.327000000000000846,-0.026789875106294714
1.328000000000000957,-0.026575676988473889
1.329000000000001069,-0.026362313382646375
1.330000000000000959,-0.026149781092548220
1.331000000000000849,-0.025938076938175819
1.332000000000000961,-0.025727197755644145
1.333000000000001073,-0.025517140397043520
1.334000000000000963,-0.025307901730297466
1.335000000000000853,-0.025099478639012317
1.336000000000000965,-0.024891868022350168
1.337000000000001076,-0.024685066794880334
1.338000000000000966,-0.024479071886446432
1.339000000000000856,-0.024273880242036260
1.340000000000000968,-0.024069488821636405
1.341000000000001080,-0.023865894600112014
1.342000000000000970,-0.023663094567071746
1.343000000000000860,-0.023461085726737781
1.344000000000000972,-0.023259865097819823
1.345000000000001084,-0.023059429713397143
1.346000000000000973,-0.022859776620778330
1.347000000000000863,-0.022660902881393025
1.348000000000000975,-0.022462805570660965
1.349000000000001087,-0.022265481777880840
1.350000000000000977,-0.022068928606104283
1.351000000000000867,-0.021873143172026585
1.352000000000000979,-0.021678122605859301
1.353000000000001091,-0.021483864051228624
1.354000000000000981,-0.021290364665060187
1.355000000000000870,-0.021097621617455896
1.356000000000000982,-0.020905632091599298
1.357000000000001094,-0.020714393283639571
1.358000000000000984,-0.020523902402580681
1.359000000000000874,-0.020334156670181052
1.360000000000000986,-0.020145153320845096
1.361000000000001098,-0.019956889601524627
1.362000000000000988,-0.019769362771603811
1.363000000000000878,-0.019582570102810788
1.364000000000000989,-0.019396508879117137
1.365000000000001101,-0.019211176396625961
1.366000000000000991,-0.019026569963486513
1.367000000000000881,-0.018842686899794757
1.368000000000000993,-0.018659524537495469
1.369000000000001105,-0.018477080220289495
1.370000000000000995,-0.018295351303537884
1.371000000000000885,-0.018114335154175046
1.372000000000000997,-0.017934029150612339
1.373000000000001108,-0.017754430682656360
1.374000000000000998,-0.017575537151399277
1.375000000000000888,-0.017397345969162849
1.376000000000001000,-0.017219854559382759
1.377000000000001112,-0.017043060356539595
1.378000000000001002,-0.016866960806066696
1.379000000000000892,-0.016691553364269460
1.380000000000001004,-0.016516835498238954
1.381000000000001116,-0.016342804685778083
1.382000000000001005,-0.016169458415309170
1.383000000000000895,-0.015996794185801987
1.384000000000001007,-0.015824809506694772
1.385000000000001119,-0.015653501897811999
1.386000000000001009,-0.015482868889292054
1.387000000000000899,-0.015312908021500921
1.388000000000001011,-0.015143616844977947
1.389000000000001123,-0.014974992920333743
1.390000000000001013,-0.014807033818198890
1.391000000000000902,-0.014639737119137668
1.392000000000001014,-0.014473100413585443
1.393000000000001126,-0.014307121301770748
1.394000000000001016,-0.014141797393650795
1.395000000000000906,-0.013977126308837087
1.396000000000001018,-0.013813105676526317
1.397000000000001130,-0.013649733135439476
1.398000000000001020,-0.013487006333750004
1.399000000000000909,-0.013324922929015118
1.400000000000001021,-0.013163480588114448
1.401000000000001133,-0.013002676987186806
1.402000000000001023,-0.012842509811561200
1.403000000000000913,-0.012682976755695335
1.404000000000001025,-0.012524075523114844
1.405000000000001137,-0.012365803826351900
1.406000000000001027,-0.012208159386878440
1.407000000000000917,-0.012051139935058649
1.408000000000001029,-0.011894743210070797
1.409000000000001140,-0.011738966959866924
1.410000000000001030,-0.011583808941101396
1.411000000000000920,-0.011429266919079768
1.412000000000001032,-0.011275338667698583
1.413000000000001144,-0.011122021969393254
1.414000000000001034,-0.010969314615078527
1.415000000000000924,-0.010817214404091596
1.416000000000001036,-0.010665719144145987
1.417000000000001148,-0.010514826651271864
1.418000000000001037,-0.010364534749761848
1.419000000000000927,-0.010214841272121130
1.420000000000001039,-0.010065744059013266
1.421000000000001151,-0.009917240959215017
1.422000000000001041,-0.009769329829557720
1.423000000000000931,-0.009622008534879748
1.424000000000001043,-0.009475274947979144
1.425000000000001155,-0.009329126949562335
1.426000000000001044,-0.009183562428195999
1.427000000000000934,-0.009038579280262263
1.428000000000001046,-0.008894175409906318
1.429000000000001158,-0.008750348728988902
1.430000000000001048,-0.008607097157046857
1.431000000000000938,-0.008464418621241952
1.432000000000001050,-0.008322311056317321
1.433000000000001162,-0.008180772404551244
1.434000000000001052,-0.008039800615712449
1.435000000000000941,-0.007899393647021734
1.436000000000001053,-0.007759549463101654
1.437000000000001165,-0.007620266035932566
1.438000000000001055,-0.007481541344823544
1.439000000000000945,-0.007343373376354522
1.440000000000001057,-0.007205760124344639
1.441000000000001169,-0.007068699589802195
1.442000000000001059,-0.006932189780895661
1.443000000000000949,-0.006796228712908856
1.444000000000001060,-0.006660814408195981
1.445000000000001172,-0.006525944896147365
1.446000000000001062,-0.006391618213155224
1.447000000000000952,-0.006257832402562698
1.448000000000001064,-0.006124585514637229
1.449000000000001176,-0.005991875606533241
1.450000000000001066,-0.005859700742242323
1.451000000000000956,-0.005728058992569746
1.452000000000001068,-0.005596948435095120
1.453000000000001180,-0.005466367154130799
1.454000000000001069,-0.005336313240693157
1.455000000000000959,-0.005206784792463661
1.456000000000001071,-0.005077779913751633
1.457000000000001183,-0.004949296715470033
1.458000000000001073,-0.004821333315090663
1.459000000000000963,-0.004693887836611512
1.460000000000001075,-0.004566958410530961
1.461000000000001187,-0.004440543173804353
1.462000000000001076,-0.004314640269825609
1.463000000000000966,-0.004189247848377678
1.464000000000001078,-0.004064364065610606
1.465000000000001190,-0.003939987084016268
1.466000000000001080,-0.003816115072376448
1.467000000000000970,-0.003692746205754298
1.468000000000001082,-0.003569878665451149
1.469000000000001194,-0.003447510638977245
1.470000000000001084,-0.003325640320025127
1.471000000000000973,-0.003204265908435360
1.472000000000001085,-0.003083385610174572
1.473000000000001197,-0.002962997637298506
1.474000000000001087,-0.002843100207927630
1.475000000000000977,-0.002723691546213178
1.476000000000001089,-0.002604769882319018
1.477000000000001201,-0.002486333452385168
1.478000000000001091,-0.002368380498499648
1.479000000000000981,-0.002250909268679535
1.480000000000001092,-0.002133918016831320
1.481000000000001204,-0.002017405002737044
1.482000000000001094,-0.001901368492016596
1.483000000000000984,-0.001785806756111249
1.484000000000001096,-0.001670718072252007
1.485000000000001208,-0.001556100723426741
1.486000000000001098,-0.001441952998372844
1.487000000000000988,-0.001328273191535695
1.488000000000001100,-0.001215059603047529
1.489000000000001211,-0.001102310538707789
1.490000000000001101,-0.000990024309955649
1.491000000000000991,-0.000878199233838374
1.492000000000001103,-0.000766833633002931
1.493000000000001215,-0.000655925835656524
1.494000000000001105,-0.000545474175550485
1.495000000000000995,-0.000435476991955620
1.496000000000001107,-0.000325932629640340
1.497000000000001219,-0.000216839438843810
1.498000000000001108,-0.000108195775259144
1.499000000000000998,0.000000000000000000
