# TungstenDisulfide-001_CS-10309795-AC
# h[nm],U(h)[kJ/mol]
0.149999999999999994,90.485097064502397757
0.150999999999999995,88.056021997333601803
0.151999999999999996,85.911298892156196416
0.152999999999999997,83.865549533101415136
0.153999999999999998,81.839095546709899054
0.154999999999999999,79.808832303593320034
0.156000000000000000,77.778396130200889047
0.157000000000000001,75.761043711921587374
0.158000000000000002,73.770649090036201301
0.159000000000000002,71.817674851115853585
0.160000000000000003,69.908018058732480426
0.161000000000000004,68.043369997280350958
0.162000000000000005,66.222241464040052961
0.163000000000000006,64.441153422100271086
0.164000000000000007,62.695722815849592280
0.165000000000000008,60.981520069050873190
0.166000000000000009,59.294663942147643354
0.167000000000000010,57.632169731869531404
0.168000000000000010,55.992091659047517282
0.169000000000000011,54.373509147802131736
0.170000000000000012,52.776406059553607975
0.171000000000000013,51.201486185513168437
0.172000000000000014,49.649960271029236480
0.173000000000000015,48.123331318820348201
0.174000000000000016,46.623196928995639610
0.175000000000000017,45.151080517184773555
0.176000000000000018,43.708297619955231994
0.177000000000000018,42.295859160442411451
0.178000000000000019,40.914410402723611071
0.179000000000000020,39.564202208553034268
0.180000000000000021,38.245089941145806733
0.181000000000000022,36.956554756170405085
0.182000000000000023,35.697741913631823252
0.183000000000000024,34.467510991434366474
0.184000000000000025,33.264493361885023148
0.185000000000000026,32.087152909908681409
0.186000000000000026,30.933846651944964634
0.187000000000000027,29.802882602292879000
0.188000000000000028,28.692572890215860326
0.189000000000000029,27.601280730837963517
0.190000000000000030,26.527460380662425621
0.191000000000000031,25.469689657381081815
0.192000000000000032,24.426694972415123885
0.193000000000000033,23.397369116428585301
0.194000000000000034,22.380782258776616089
0.195000000000000034,21.376186779060958543
0.196000000000000035,20.383016651072871639
0.197000000000000036,19.400882155024724796
0.198000000000000037,18.429560711478508495
0.199000000000000038,17.468984617605322285
0.200000000000000039,16.519226430456875221
0.201000000000000040,15.580482689065849655
0.202000000000000041,14.653056602822712051
0.203000000000000042,13.737340262250111067
0.204000000000000042,12.833796853750049749
0.205000000000000043,11.942943285127739728
0.206000000000000044,11.065333556019213646
0.207000000000000045,10.201543138507432218
0.208000000000000046,9.352154569431490927
0.209000000000000047,8.517744397984355231
0.210000000000000048,7.698871580609592868
0.211000000000000049,6.896067370121104823
0.212000000000000050,6.109826707327043138
0.213000000000000050,5.340601091023591707
0.214000000000000051,4.588792875683909145
0.215000000000000052,3.854750925073025858
0.216000000000000053,3.138767533880371108
0.217000000000000054,2.441076517760301989
0.218000000000000055,1.761852364380949165
0.219000000000000056,1.101210333685537668
0.220000000000000057,0.459207394063394836
0.221000000000000058,-0.164156117952396347
0.222000000000000058,-0.768934223945808126
0.223000000000000059,-1.355232520833977494
0.224000000000000060,-1.923204988324439313
0.225000000000000061,-2.473050479280332947
0.226000000000000062,-3.005008978413751919
0.227000000000000063,-3.519357707095084997
0.228000000000000064,-4.016407144251887829
0.229000000000000065,-4.496497025509384571
0.230000000000000066,-4.959992375033435152
0.231000000000000066,-5.407279617094142843
0.232000000000000067,-5.838762807258953913
0.233000000000000068,-6.254860016418657409
0.234000000000000069,-6.655999894594172517
0.235000000000000070,-7.042618435699455226
0.236000000000000071,-7.415155959162611055
0.237000000000000072,-7.774054319541887637
0.238000000000000073,-8.119754351009170534
0.239000000000000073,-8.452693549800560646
0.240000000000000074,-8.773303994436009390
0.241000000000000075,-9.082010500660844698
0.242000000000000076,-9.379229005639528438
0.243000000000000077,-9.665365173905691165
0.244000000000000078,-9.940813215912317702
0.245000000000000079,-10.205954908701981410
0.246000000000000080,-10.461158807197257659
0.247000000000000081,-10.706779633866918999
0.248000000000000081,-10.943157834022679609
0.249000000000000082,-11.170619283716920478
0.250000000000000111,-11.389475137116537695
0.251000000000000112,-11.600021800295607477
0.252000000000000113,-11.802541018597846545
0.253000000000000114,-11.997300065043139838
0.254000000000000115,-12.184552017675894575
0.255000000000000115,-12.364536114252009824
0.256000000000000116,-12.537478173224386069
0.257000000000000117,-12.703591070595660284
0.258000000000000118,-12.863075262849097413
0.259000000000000119,-13.016119346832837778
0.260000000000000120,-13.162900648148283977
0.261000000000000121,-13.303585830270439061
0.262000000000000122,-13.438331517300966311
0.263000000000000123,-13.567284923914565198
0.264000000000000123,-13.690584486702652711
0.265000000000000124,-13.808360491739495757
0.266000000000000125,-13.920735693791845833
0.267000000000000126,-14.027825923160927246
0.268000000000000127,-14.129740676683326228
0.269000000000000128,-14.226583689922971843
0.270000000000000129,-14.318453488059788015
0.271000000000000130,-14.405443913421109414
0.272000000000000131,-14.487644628008689907
0.273000000000000131,-14.565141589748957784
0.274000000000000132,-14.638017501536214837
0.275000000000000133,-14.706352232449656725
0.276000000000000134,-14.770223210805852432
0.277000000000000135,-14.829705788959703483
0.278000000000000136,-14.884873579991459991
0.279000000000000137,-14.935798766614691857
0.280000000000000138,-14.982552382813045355
0.281000000000000139,-15.025204568863543386
0.282000000000000139,-15.063824800531666170
0.283000000000000140,-15.098482093331393017
0.284000000000000141,-15.129245182832296024
0.285000000000000142,-15.156182682067449008
0.286000000000000143,-15.179363217152204157
0.287000000000000144,-15.198855542265102159
0.288000000000000145,-15.214728635171704596
0.289000000000000146,-15.227051774488183256
0.290000000000000147,-15.235894599888959888
0.291000000000000147,-15.241327156459210102
0.292000000000000148,-15.243419924382816788
0.293000000000000149,-15.242243835137511354
0.294000000000000150,-15.237870275345127169
0.295000000000000151,-15.230371079394995348
0.296000000000000152,-15.219818511924231075
0.297000000000000153,-15.206285241200905745
0.298000000000000154,-15.189844304414842568
0.299000000000000155,-15.170569065837563372
0.300000000000000155,-15.148533168767400525
0.301000000000000156,-15.123810482129300681
0.302000000000000157,-15.096475042551208645
0.303000000000000158,-15.066600992691183691
0.304000000000000159,-15.034262516541199162
0.305000000000000160,-14.999533772385840180
0.306000000000000161,-14.962488824047005309
0.307000000000000162,-14.923201570999342636
0.308000000000000163,-14.881745677895432678
0.309000000000000163,-14.838194503995975282
0.310000000000000164,-14.792621032957095295
0.311000000000000165,-14.745097803385496249
0.312000000000000166,-14.695696840532695759
0.313000000000000167,-14.644489589461064938
0.314000000000000168,-14.591546849978254130
0.315000000000000169,-14.536938713601831097
0.316000000000000170,-14.480734502783226603
0.317000000000000171,-14.423002712588871788
0.318000000000000171,-14.363810955007233261
0.319000000000000172,-14.303225906023124381
0.320000000000000173,-14.241313255574713281
0.321000000000000174,-14.178137660484949834
0.322000000000000175,-14.113762700436666364
0.323000000000000176,-14.048250837040134442
0.324000000000000177,-13.981663376022789080
0.325000000000000178,-13.914060432553293722
0.326000000000000179,-13.845500899696329355
0.327000000000000179,-13.776042419979793507
0.328000000000000180,-13.705741360042825505
0.329000000000000181,-13.634652788321650618
0.330000000000000182,-13.562830455718899003
0.331000000000000183,-13.490326779193352991
0.332000000000000184,-13.417192828198087895
0.333000000000000185,-13.343478313888192943
0.334000000000000186,-13.269231581012576271
0.335000000000000187,-13.194499602399186955
0.336000000000000187,-13.119327975938475106
0.337000000000000188,-13.043760923965994181
0.338000000000000189,-12.967841294942383357
0.339000000000000190,-12.891610567326514669
0.340000000000000191,-12.815108855535868315
0.341000000000000192,-12.738374917887558269
0.342000000000000193,-12.661446166412355652
0.343000000000000194,-12.584358678434679035
0.344000000000000195,-12.507147209811350308
0.345000000000000195,-12.429845209723314525
0.346000000000000196,-12.352484836915335720
0.347000000000000197,-12.275096977280458788
0.348000000000000198,-12.197711262687745304
0.349000000000000199,-12.120356090953929851
0.350000000000000200,-12.043058646862007777
0.351000000000000201,-11.965844924132193583
0.352000000000000202,-11.888739748253366102
0.353000000000000203,-11.811766800086159535
0.354000000000000203,-11.734948640151497301
0.355000000000000204,-11.658306733521571985
0.356000000000000205,-11.581861475233461434
0.357000000000000206,-11.505632216148667268
0.358000000000000207,-11.429637289184915616
0.359000000000000208,-11.353894035850178312
0.360000000000000209,-11.278418833011773614
0.361000000000000210,-11.203227119836792980
0.362000000000000210,-11.128333424843319222
0.363000000000000211,-11.053751393005086356
0.364000000000000212,-10.979493812855405821
0.365000000000000213,-10.905572643539224842
0.366000000000000214,-10.831999041765367764
0.367000000000000215,-10.758783388613839094
0.368000000000000216,-10.685935316156244923
0.369000000000000217,-10.613463733849902937
0.370000000000000218,-10.541376854669376684
0.371000000000000218,-10.469682220941512796
0.372000000000000219,-10.398386729852948207
0.373000000000000220,-10.327496658601456048
0.374000000000000221,-10.257017689164957375
0.375000000000000222,-10.186954932664360030
0.376000000000000223,-10.117312953298782219
0.377000000000000224,-10.048095791833643986
0.378000000000000225,-9.979306988624497166
0.379000000000000226,-9.910949606161123526
0.380000000000000226,-9.843026251118754288
0.381000000000000227,-9.775539095904493436
0.382000000000000228,-9.708489899689457303
0.383000000000000229,-9.641880028918157208
0.384000000000000230,-9.575710477288513545
0.385000000000000231,-9.509981885197404949
0.386000000000000232,-9.444694558647842797
0.387000000000000233,-9.379848487615316088
0.388000000000000234,-9.315443363871946048
0.389000000000000234,-9.251478598268525033
0.390000000000000235,-9.187953337475155635
0.391000000000000236,-9.124866480182646455
0.392000000000000237,-9.062216692767417925
0.393000000000000238,-9.000002424423865222
0.394000000000000239,-8.938221921768537470
0.395000000000000240,-8.876873242921679008
0.396000000000000241,-8.815954271071992920
0.397000000000000242,-8.755462727531305944
0.398000000000000242,-8.695396184286419583
0.399000000000000243,-8.635752076055766224
0.400000000000000244,-8.576527711859110781
0.401000000000000245,-8.517720286109049965
0.402000000000000246,-8.459326889233107494
0.403000000000000247,-8.401344517835912740
0.404000000000000248,-8.343770084411056942
0.405000000000000249,-8.286600426612533710
0.406000000000000250,-8.229832316095819778
0.407000000000000250,-8.173462466938946847
0.408000000000000251,-8.117487543653957971
0.409000000000000252,-8.061904168799362225
0.410000000000000253,-8.006708930204167629
0.411000000000000254,-7.951898387814250846
0.412000000000000255,-7.897469080171804379
0.413000000000000256,-7.843417530538623339
0.414000000000000257,-7.789740252673962750
0.415000000000000258,-7.736433756277705243
0.416000000000000258,-7.683494552109533693
0.417000000000000259,-7.630919156794647051
0.418000000000000260,-7.578704097326628641
0.419000000000000261,-7.526845915277791121
0.420000000000000262,-7.475341170727388018
0.421000000000000263,-7.424186445917875687
0.422000000000000264,-7.373378348649164415
0.423000000000000265,-7.322913515420860442
0.424000000000000266,-7.272788614332261758
0.425000000000000266,-7.223000347749549022
0.426000000000000267,-7.173545454749694628
0.427000000000000268,-7.124420713350255951
0.428000000000000269,-7.075622942534084636
0.429000000000000270,-7.027149004077830163
0.430000000000000271,-6.978995804192813068
0.431000000000000272,-6.931160294986796089
0.432000000000000273,-6.883639475754828929
0.433000000000000274,-6.836430394107251729
0.434000000000000274,-6.789530146942652777
0.435000000000000275,-6.742935881273427690
0.436000000000000276,-6.696644794911357224
0.437000000000000277,-6.650654137020365120
0.438000000000000278,-6.604961208543508988
0.439000000000000279,-6.559563362510971274
0.440000000000000280,-6.514458004235604172
0.441000000000000281,-6.469642591402407383
0.442000000000000282,-6.425114634058180840
0.443000000000000282,-6.380871694507176173
0.444000000000000283,-6.336911387118648875
0.445000000000000284,-6.293231378051805436
0.446000000000000285,-6.249829384903464735
0.447000000000000286,-6.206703176283794754
0.448000000000000287,-6.163850571324847927
0.449000000000000288,-6.121269439126932888
0.450000000000000289,-6.078957698147293698
0.451000000000000290,-6.036913315535560542
0.452000000000000290,-5.995134306420280446
0.453000000000000291,-5.953618733150536357
0.454000000000000292,-5.912364704496646084
0.455000000000000293,-5.871370374813600357
0.456000000000000294,-5.830633943170930422
0.457000000000000295,-5.790153652452357136
0.458000000000000296,-5.749927788428509601
0.459000000000000297,-5.709954678805893025
0.460000000000000298,-5.670232692255003926
0.461000000000000298,-5.630760237420490810
0.462000000000000299,-5.591535761916055058
0.463000000000000300,-5.552557751306588685
0.464000000000000301,-5.513824728080094495
0.465000000000000302,-5.475335250611625071
0.466000000000000303,-5.437087912121418398
0.467000000000000304,-5.399081339629338672
0.468000000000000305,-5.361314192907562060
0.469000000000000306,-5.323785163433319312
0.470000000000000306,-5.286492973343518642
0.471000000000000307,-5.249436374392713489
0.472000000000000308,-5.212614146916161317
0.473000000000000309,-5.176025098799220459
0.474000000000000310,-5.139668064454541607
0.475000000000000311,-5.103541903808227254
0.476000000000000312,-5.067645501296253130
0.477000000000000313,-5.031977764872043402
0.478000000000000314,-4.996537625026375551
0.479000000000000314,-4.961324033820484480
0.480000000000000315,-4.926335963933151874
0.481000000000000316,-4.891572407722706295
0.482000000000000317,-4.857032376304512233
0.483000000000000318,-4.822714898644690606
0.484000000000000319,-4.788619020670602744
0.485000000000000320,-4.754743804398704476
0.486000000000000321,-4.721088327080161129
0.487000000000000322,-4.687651680364714579
0.488000000000000322,-4.654432969483092819
0.489000000000000323,-4.621431312448401663
0.490000000000000324,-4.588645839276669136
0.491000000000000325,-4.556075691226832092
0.492000000000000326,-4.523720020060302716
0.493000000000000327,-4.491577987320345855
0.494000000000000328,-4.459648763631296475
0.495000000000000329,-4.427931528017759355
0.496000000000000330,-4.396425467243774143
0.497000000000000330,-4.365129775172031046
0.498000000000000331,-4.334043652143017233
0.499000000000000332,-4.303166304374174800
0.500000000000000333,-4.272496943378891743
0.501000000000000334,-4.242034785405255803
0.502000000000000335,-4.211779050894476129
0.503000000000000336,-4.181728963958823542
0.504000000000000337,-4.151883751878894913
0.505000000000000338,-4.122242644620033758
0.506000000000000338,-4.092804874367745427
0.507000000000000339,-4.063569675081817323
0.508000000000000340,-4.034536282068961199
0.509000000000000341,-4.005703931573748378
0.510000000000000342,-3.977071860387524360
0.511000000000000343,-3.948639305475063477
0.512000000000000344,-3.920405503618691334
0.513000000000000345,-3.892369691079552219
0.514000000000000346,-3.864531103275774537
0.515000000000000346,-3.836888974477167924
0.516000000000000347,-3.809442537516145144
0.517000000000000348,-3.782191023514638317
0.518000000000000349,-3.755133661626526731
0.519000000000000350,-3.728269678795380404
0.520000000000000351,-3.701598299527117497
0.521000000000000352,-3.675118745677272702
0.522000000000000353,-3.648830236252492032
0.523000000000000353,-3.622731987225934258
0.524000000000000354,-3.596823211366290796
0.525000000000000355,-3.571103118079947958
0.526000000000000356,-3.545570913266073099
0.527000000000000357,-3.520225799184234283
0.528000000000000358,-3.495066974334161358
0.529000000000000359,-3.470093633347393958
0.530000000000000360,-3.445304966890392340
0.531000000000000361,-3.420700161578825060
0.532000000000000361,-3.396278399902661338
0.533000000000000362,-3.372038860161754137
0.534000000000000363,-3.347980716411561808
0.535000000000000364,-3.324103138418689873
0.536000000000000365,-3.300405291625919002
0.537000000000000366,-3.276886337126413196
0.538000000000000367,-3.253545431646729380
0.539000000000000368,-3.230381727538426784
0.540000000000000369,-3.207394372777806701
0.541000000000000369,-3.184582510973639646
0.542000000000000370,-3.161945281382450013
0.543000000000000371,-3.139481818931110446
0.544000000000000372,-3.117191254246473697
0.545000000000000373,-3.095072713691714661
0.546000000000000374,-3.073125319409093059
0.547000000000000375,-3.051348189368902730
0.548000000000000376,-3.029740437424302435
0.549000000000000377,-3.008301173371770609
0.550000000000000377,-2.987029503016890963
0.551000000000000378,-2.965924528245252212
0.552000000000000379,-2.944985347098211470
0.553000000000000380,-2.924211053853221998
0.554000000000000381,-2.903600739108529005
0.555000000000000382,-2.883153489872019026
0.556000000000000383,-2.862868389653888901
0.557000000000000384,-2.842744518563057987
0.558000000000000385,-2.822780953406969662
0.559000000000000385,-2.802976767794656876
0.560000000000000386,-2.783331032242806202
0.561000000000000387,-2.763842814284660943
0.562000000000000388,-2.744511178581537258
0.563000000000000389,-2.725335187036768136
0.564000000000000390,-2.706313898911889559
0.565000000000000391,-2.687446370944892138
0.566000000000000392,-2.668731657470340135
0.567000000000000393,-2.650168810541233988
0.568000000000000393,-2.631756880052378289
0.569000000000000394,-2.613494913865150870
0.570000000000000395,-2.595381957933524664
0.571000000000000396,-2.577417056431104747
0.572000000000000397,-2.559599251879164594
0.573000000000000398,-2.541927585275413737
0.574000000000000399,-2.524401096223455987
0.575000000000000400,-2.507018823062733048
0.576000000000000401,-2.489779802998876690
0.577000000000000401,-2.472683072234336699
0.578000000000000402,-2.455727666099134954
0.579000000000000403,-2.438912619181658137
0.580000000000000404,-2.422236965459393598
0.581000000000000405,-2.405699738429460055
0.582000000000000406,-2.389299971238866060
0.583000000000000407,-2.373036696814377677
0.584000000000000408,-2.356908947991925629
0.585000000000000409,-2.340915757645425366
0.586000000000000409,-2.325056158814960305
0.587000000000000410,-2.309329184834230109
0.588000000000000411,-2.293733869457172947
0.589000000000000412,-2.278269246983721352
0.590000000000000413,-2.262934352384568637
0.591000000000000414,-2.247728221424929007
0.592000000000000415,-2.232649890787202107
0.593000000000000416,-2.217698398192467835
0.594000000000000417,-2.202872782520766570
0.595000000000000417,-2.188172083930149281
0.596000000000000418,-2.173595343974327854
0.597000000000000419,-2.159141605719040680
0.598000000000000420,-2.144809913856925654
0.599000000000000421,-2.130599314820978307
0.600000000000000422,-2.116508856896473834
0.601000000000000423,-2.102537590331369444
0.602000000000000424,-2.088684567445104001
0.603000000000000425,-2.074948842735806487
0.604000000000000425,-2.061329472985838240
0.605000000000000426,-2.047825517365670756
0.606000000000000427,-2.034436037536079489
0.607000000000000428,-2.021160097748559537
0.608000000000000429,-2.007996764944071089
0.609000000000000430,-1.994945108849927040
0.610000000000000431,-1.982004202074977073
0.611000000000000432,-1.969173120202933003
0.612000000000000433,-1.956450941883884909
0.613000000000000433,-1.943836748924009372
0.614000000000000434,-1.931329626373419428
0.615000000000000435,-1.918928662612143565
0.616000000000000436,-1.906632949434277746
0.617000000000000437,-1.894441582130260260
0.618000000000000438,-1.882353659567269633
0.619000000000000439,-1.870368284267742709
0.620000000000000440,-1.858484562486037550
0.621000000000000441,-1.846701604283200737
0.622000000000000441,-1.835018523599871942
0.623000000000000442,-1.823434438327299123
0.624000000000000443,-1.811948470376496090
0.625000000000000444,-1.800559745745534013
0.626000000000000445,-1.789267394584955539
0.627000000000000446,-1.778070551261356824
0.628000000000000447,-1.766968354419104825
0.629000000000000448,-1.755959947040225178
0.630000000000000449,-1.745044476502455755
0.631000000000000449,-1.734221094635477245
0.632000000000000450,-1.723488957775347830
0.633000000000000451,-1.712847226817133306
0.634000000000000452,-1.702295067265750417
0.635000000000000453,-1.691831649285046923
0.636000000000000454,-1.681456147745118201
0.637000000000000455,-1.671167742267889667
0.638000000000000456,-1.660965617270965256
0.639000000000000457,-1.650848962009767051
0.640000000000000457,-1.640816970617992920
0.641000000000000458,-1.630868842146364184
0.642000000000000459,-1.621003780599763244
0.643000000000000460,-1.611220994972672571
0.644000000000000461,-1.601519699283041831
0.645000000000000462,-1.591899112604514777
0.646000000000000463,-1.582358459097080061
0.647000000000000464,-1.572896968036160636
0.648000000000000465,-1.563513873840158164
0.649000000000000465,-1.554208416096452883
0.650000000000000466,-1.544979839585921777
0.651000000000000467,-1.535827394305952165
0.652000000000000468,-1.526750335491997790
0.653000000000000469,-1.517747923637681851
0.654000000000000470,-1.508819424513498486
0.655000000000000471,-1.499964109184086736
0.656000000000000472,-1.491181254024143588
0.657000000000000473,-1.482470140732958797
0.658000000000000473,-1.473830056347636308
0.659000000000000474,-1.465260293254984969
0.660000000000000475,-1.456760149202118715
0.661000000000000476,-1.448328927305781999
0.662000000000000477,-1.439965936060436880
0.663000000000000478,-1.431670489345108876
0.664000000000000479,-1.423441906429045778
0.665000000000000480,-1.415279511976157201
0.666000000000000481,-1.407182636048349034
0.667000000000000481,-1.399150614107649293
0.668000000000000482,-1.391182787017285483
0.669000000000000483,-1.383278501041609987
0.670000000000000484,-1.375437107844985629
0.671000000000000485,-1.367657964489604305
0.672000000000000486,-1.359940433432270668
0.673000000000000487,-1.352283882520200375
0.674000000000000488,-1.344687684985798937
0.675000000000000488,-1.337151219440486205
0.676000000000000489,-1.329673869867595837
0.677000000000000490,-1.322255025614310187
0.678000000000000491,-1.314894081382728785
0.679000000000000492,-1.307590437220035984
0.680000000000000493,-1.300343498507799733
0.681000000000000494,-1.293152675950452579
0.682000000000000495,-1.286017385562920445
0.683000000000000496,-1.278937048657482922
0.684000000000000496,-1.271911091829818874
0.685000000000000497,-1.264938946944319742
0.686000000000000498,-1.258020051118640348
0.687000000000000499,-1.251153846707538930
0.688000000000000500,-1.244339781285999980
0.689000000000000501,-1.237577307631689383
0.690000000000000502,-1.230865883706732777
0.691000000000000503,-1.224204972638847977
0.692000000000000504,-1.217594042701845236
0.693000000000000504,-1.211032567295534879
0.694000000000000505,-1.204520024925005206
0.695000000000000506,-1.198055899179368611
0.696000000000000507,-1.191639678709917050
0.697000000000000508,-1.185270857207746387
0.698000000000000509,-1.178948933380873143
0.699000000000000510,-1.172673410930811011
0.700000000000000511,-1.166443798528694176
0.701000000000000512,-1.160259609790897262
0.702000000000000512,-1.154120363254213188
0.703000000000000513,-1.148025582350586715
0.704000000000000514,-1.141974795381417884
0.705000000000000515,-1.135967535491458014
0.706000000000000516,-1.130003340642307785
0.707000000000000517,-1.124081753585538079
0.708000000000000518,-1.118202321835434221
0.709000000000000519,-1.112364597641412711
0.710000000000000520,-1.106568137960064702
0.711000000000000520,-1.100812504426912586
0.712000000000000521,-1.095097263327833526
0.713000000000000522,-1.089421985570187656
0.714000000000000523,-1.083786246653689611
0.715000000000000524,-1.078189626640961185
0.716000000000000525,-1.072631710127890159
0.717000000000000526,-1.067112086213688027
0.718000000000000527,-1.061630348470749663
0.719000000000000528,-1.056186094914276286
0.720000000000000528,-1.050778927971717236
0.721000000000000529,-1.045408454451967506
0.722000000000000530,-1.040074285514441588
0.723000000000000531,-1.034776036637920615
0.724000000000000532,-1.029513327589267835
0.725000000000000533,-1.024285782391996191
0.726000000000000534,-1.019093029294665609
0.727000000000000535,-1.013934700739187900
0.728000000000000536,-1.008810433328976242
0.729000000000000536,-1.003719867797015386
0.730000000000000537,-0.998662648973819622
0.731000000000000538,-0.993638425755285604
0.732000000000000539,-0.988646851070493105
0.733000000000000540,-0.983687581849412629
0.734000000000000541,-0.978760278990557175
0.735000000000000542,-0.973864607328575382
0.736000000000000543,-0.969000235601812476
0.737000000000000544,-0.964166836419813600
0.738000000000000544,-0.959364086230824142
0.739000000000000545,-0.954591665289236779
0.740000000000000546,-0.949849257623061383
0.741000000000000547,-0.945136551001347969
0.742000000000000548,-0.940453236901670486
0.743000000000000549,-0.935799010477552429
0.744000000000000550,-0.931173570525951733
0.745000000000000551,-0.926576619454766215
0.746000000000000552,-0.922007863250350113
0.747000000000000552,-0.917467011445089908
0.748000000000000553,-0.912953777085004248
0.749000000000000554,-0.908467876697398147
0.750000000000000555,-0.904009030258589030
0.751000000000000556,-0.899576961161663191
0.752000000000000557,-0.895171396184335832
0.753000000000000558,-0.890792065456842197
0.754000000000000559,-0.886438702429950931
0.755000000000000560,-0.882111043843024412
0.756000000000000560,-0.877808829692193426
0.757000000000000561,-0.873531803198606793
0.758000000000000562,-0.869279710776784453
0.759000000000000563,-0.865052302003086693
0.760000000000000564,-0.860849329584270628
0.761000000000000565,-0.856670549326174369
0.762000000000000566,-0.852515720102510755
0.763000000000000567,-0.848384603823781225
0.764000000000000568,-0.844276965406310032
0.765000000000000568,-0.840192572741426780
0.766000000000000569,-0.836131196664750442
0.767000000000000570,-0.832092610925641685
0.768000000000000571,-0.828076592156754332
0.769000000000000572,-0.824082919843780681
0.770000000000000573,-0.820111376295293626
0.771000000000000574,-0.816161746612772299
0.772000000000000575,-0.812233818660759832
0.773000000000000576,-0.808327383037186209
0.774000000000000576,-0.804442233043840438
0.775000000000000577,-0.800578164657022584
0.776000000000000578,-0.796734976498321812
0.777000000000000579,-0.792912469805608922
0.778000000000000580,-0.789110448404150011
0.779000000000000581,-0.785328718677924420
0.780000000000000582,-0.781567089541091553
0.781000000000000583,-0.777825372409653881
0.782000000000000584,-0.774103381173279037
0.783000000000000584,-0.770400932167300878
0.784000000000000585,-0.766717844144921723
0.785000000000000586,-0.763053938249563357
0.786000000000000587,-0.759409037987432312
0.787000000000000588,-0.755782969200256227
0.788000000000000589,-0.752175560038194857
0.789000000000000590,-0.748586640932970893
0.790000000000000591,-0.745016044571157887
0.791000000000000592,-0.741463605867676456
0.792000000000000592,-0.737929161939479550
0.793000000000000593,-0.734412552079422576
0.794000000000000594,-0.730913617730337584
0.795000000000000595,-0.727432202459303956
0.796000000000000596,-0.723968151932088078
0.797000000000000597,-0.720521313887823367
0.798000000000000598,-0.717091538113845628
0.799000000000000599,-0.713678676420751890
0.800000000000000600,-0.710282582617649871
0.801000000000000600,-0.706903112487601071
0.802000000000000601,-0.703540123763269798
0.803000000000000602,-0.700193476102767054
0.804000000000000603,-0.696863031065702243
0.805000000000000604,-0.693548652089431616
0.806000000000000605,-0.690250204465487238
0.807000000000000606,-0.686967555316251532
0.808000000000000607,-0.683700573571784931
0.809000000000000608,-0.680449129946880893
0.810000000000000608,-0.677213096918328761
0.811000000000000609,-0.673992348702341926
0.812000000000000610,-0.670786761232233575
0.813000000000000611,-0.667596212136249978
0.814000000000000612,-0.664420580715633813
0.815000000000000613,-0.661259747922885777
0.816000000000000614,-0.658113596340197948
0.817000000000000615,-0.654982010158123518
0.818000000000000616,-0.651864875154429702
0.819000000000000616,-0.648762078673144726
0.820000000000000617,-0.645673509603806428
0.821000000000000618,-0.642599058360917574
0.822000000000000619,-0.639538616863598586
0.823000000000000620,-0.636492078515422888
0.824000000000000621,-0.633459338184457321
0.825000000000000622,-0.630440292183510498
0.826000000000000623,-0.627434838250558347
0.827000000000000624,-0.624442875529376495
0.828000000000000624,-0.621464304550363833
0.829000000000000625,-0.618499027211553587
0.830000000000000626,-0.615546946759829905
0.831000000000000627,-0.612607967772323070
0.832000000000000628,-0.609681996138016657
0.833000000000000629,-0.606768939039512234
0.834000000000000630,-0.603868704935016321
0.835000000000000631,-0.600981203540502662
0.836000000000000631,-0.598106345812056350
0.837000000000000632,-0.595244043928423006
0.838000000000000633,-0.592394211273720717
0.839000000000000634,-0.589556762420358149
0.840000000000000635,-0.586731613112132289
0.841000000000000636,-0.583918680247493160
0.842000000000000637,-0.581117881863024488
0.843000000000000638,-0.578329137117066017
0.844000000000000639,-0.575552366273549998
0.845000000000000639,-0.572787490685997547
0.846000000000000640,-0.570034432781696521
0.847000000000000641,-0.567293116046071244
0.848000000000000642,-0.564563465007205223
0.849000000000000643,-0.561845405220550376
0.850000000000000644,-0.559138863253829332
0.851000000000000645,-0.556443766672062634
0.852000000000000646,-0.553760044022825526
0.853000000000000647,-0.551087624821633093
0.854000000000000647,-0.548426439537508581
0.855000000000000648,-0.545776419578727134
0.856000000000000649,-0.543137497278720183
0.857000000000000650,-0.540509605882147137
0.858000000000000651,-0.537892679531124962
0.859000000000000652,-0.535286653251635158
0.860000000000000653,-0.532691462940089622
0.861000000000000654,-0.530107045350041939
0.862000000000000655,-0.527533338079089642
0.863000000000000655,-0.524970279555900143
0.864000000000000656,-0.522417809027425073
0.865000000000000657,-0.519875866546251619
0.866000000000000658,-0.517344392958115518
0.867000000000000659,-0.514823329889576797
0.868000000000000660,-0.512312619735828867
0.869000000000000661,-0.509812205648675909
0.870000000000000662,-0.507322031524655381
0.871000000000000663,-0.504842041993313728
0.872000000000000663,-0.502372182405616985
0.873000000000000664,-0.499912398822526416
0.874000000000000665,-0.497462638003703439
0.875000000000000666,-0.495022847396372145
0.876000000000000667,-0.492592975124313159
0.877000000000000668,-0.490172969977007267
0.878000000000000669,-0.487762781398921264
0.879000000000000670,-0.485362359478917704
0.880000000000000671,-0.482971654939828188
0.881000000000000671,-0.480590619128135443
0.882000000000000672,-0.478219204003815235
0.883000000000000673,-0.475857362130295503
0.884000000000000674,-0.473505046664561668
0.885000000000000675,-0.471162211347378179
0.886000000000000676,-0.468828810493660320
0.887000000000000677,-0.466504798982959101
0.888000000000000678,-0.464190132250075216
0.889000000000000679,-0.461884766275816872
0.890000000000000679,-0.459588657577861770
0.891000000000000680,-0.457301763201760192
0.892000000000000681,-0.455024040712048883
0.893000000000000682,-0.452755448183495723
0.894000000000000683,-0.450495944192459141
0.895000000000000684,-0.448245487808375587
0.896000000000000685,-0.446004038585355644
0.897000000000000686,-0.443771556553900492
0.898000000000000687,-0.441548002212747037
0.899000000000000687,-0.439333336520801754
0.900000000000000688,-0.437127520889212751
0.901000000000000689,-0.434930517173541031
0.902000000000000690,-0.432742287666052938
0.903000000000000691,-0.430562795088112071
0.904000000000000692,-0.428392002582684950
0.905000000000000693,-0.426229873706957529
0.906000000000000694,-0.424076372425059689
0.907000000000000695,-0.421931463100877813
0.908000000000000695,-0.419795110491005707
0.909000000000000696,-0.417667279737760466
0.910000000000000697,-0.415547936362333281
0.911000000000000698,-0.413437046258016749
0.912000000000000699,-0.411334575683546977
0.913000000000000700,-0.409240491256547489
0.914000000000000701,-0.407154759947046252
0.915000000000000702,-0.405077349071125969
0.916000000000000703,-0.403008226284638227
0.917000000000000703,-0.400947359577033258
0.918000000000000704,-0.398894717265268983
0.919000000000000705,-0.396850267987819971
0.920000000000000706,-0.394813980698783373
0.921000000000000707,-0.392785824662056360
0.922000000000000708,-0.390765769445621303
0.923000000000000709,-0.388753784915919443
0.924000000000000710,-0.386749841232289338
0.925000000000000711,-0.384753908841522718
0.926000000000000711,-0.382765958472479739
0.927000000000000712,-0.380785961130803763
0.928000000000000713,-0.378813888093713080
0.929000000000000714,-0.376849710904879953
0.930000000000000715,-0.374893401369380208
0.931000000000000716,-0.372944931548732650
0.932000000000000717,-0.371004273756021685
0.933000000000000718,-0.369071400551081008
0.934000000000000719,-0.367146284735772543
0.935000000000000719,-0.365228899349336111
0.936000000000000720,-0.363319217663807148
0.937000000000000721,-0.361417213179517582
0.938000000000000722,-0.359522859620673763
0.939000000000000723,-0.357636130930989948
0.940000000000000724,-0.355757001269415674
0.941000000000000725,-0.353885445005915233
0.942000000000000726,-0.352021436717333103
0.943000000000000727,-0.350164951183311202
0.944000000000000727,-0.348315963382291871
0.945000000000000728,-0.346474448487580688
0.946000000000000729,-0.344640381863467016
0.947000000000000730,-0.342813739061427702
0.948000000000000731,-0.340994495816379140
0.949000000000000732,-0.339182628043008694
0.950000000000000733,-0.337378111832151828
0.951000000000000734,-0.335580923447253709
0.952000000000000735,-0.333791039320869509
0.953000000000000735,-0.332008436051235756
0.954000000000000736,-0.330233090398907414
0.955000000000000737,-0.328464979283445258
0.956000000000000738,-0.326704079780166301
0.957000000000000739,-0.324950369116945081
0.958000000000000740,-0.323203824671083495
0.959000000000000741,-0.321464423966222990
0.960000000000000742,-0.319732144669328200
0.961000000000000743,-0.318006964587706498
0.962000000000000743,-0.316288861666093213
0.963000000000000744,-0.314577813983788479
0.964000000000000745,-0.312873799751850812
0.965000000000000746,-0.311176797310326381
0.966000000000000747,-0.309486785125545505
0.967000000000000748,-0.307803741787460228
0.968000000000000749,-0.306127646007042675
0.969000000000000750,-0.304458476613711282
0.970000000000000751,-0.302796212552832733
0.971000000000000751,-0.301140832883242504
0.972000000000000752,-0.299492316774829348
0.973000000000000753,-0.297850643506175738
0.974000000000000754,-0.296215792462212690
0.975000000000000755,-0.294587743131947799
0.976000000000000756,-0.292966475106227142
0.977000000000000757,-0.291351968075536316
0.978000000000000758,-0.289744201827846937
0.979000000000000759,-0.288143156246520538
0.980000000000000759,-0.286548811308222240
0.981000000000000760,-0.284961147080904531
0.982000000000000761,-0.283380143721824906
0.983000000000000762,-0.281805781475590211
0.984000000000000763,-0.280238040672249999
0.985000000000000764,-0.278676901725438297
0.986000000000000765,-0.277122345130532743
0.987000000000000766,-0.275574351462864020
0.988000000000000766,-0.274032901375959648
0.989000000000000767,-0.272497975599832576
0.990000000000000768,-0.270969554939287982
0.991000000000000769,-0.269447620272276422
0.992000000000000770,-0.267932152548282176
0.993000000000000771,-0.266423132786748396
0.994000000000000772,-0.264920542075521237
0.995000000000000773,-0.263424361569350229
0.996000000000000774,-0.261934572488398021
0.997000000000000774,-0.260451156116798366
0.998000000000000775,-0.258974093801241090
0.999000000000000776,-0.257503366949583867
1.000000000000000666,-0.256038957029501524
1.001000000000000778,-0.254580845567163039
1.002000000000000668,-0.253129014145936027
1.003000000000000780,-0.251683444405120194
1.004000000000000670,-0.250244118038717878
1.005000000000000782,-0.248811016794221185
1.006000000000000671,-0.247384122471438817
1.007000000000000783,-0.245963416921334582
1.008000000000000673,-0.244548882044911237
1.009000000000000785,-0.243140499792108805
1.010000000000000675,-0.241738252160732914
1.011000000000000787,-0.240342121195404795
1.012000000000000677,-0.238952088986547462
1.013000000000000789,-0.237568137669384477
1.014000000000000679,-0.236190249422964793
1.015000000000000790,-0.234818406469221974
1.016000000000000680,-0.233452591072050797
1.017000000000000792,-0.232092785536394508
1.018000000000000682,-0.230738972207381376
1.019000000000000794,-0.229391133469458192
1.020000000000000684,-0.228049251745564840
1.021000000000000796,-0.226713309496317017
1.022000000000000686,-0.225383289219217881
1.023000000000000798,-0.224059173447888949
1.024000000000000687,-0.222740944751319503
1.025000000000000799,-0.221428585733140476
1.026000000000000689,-0.220122079030914464
1.027000000000000801,-0.218821407315446692
1.028000000000000691,-0.217526553290115915
1.029000000000000803,-0.216237499690222629
1.030000000000000693,-0.214954229282355469
1.031000000000000805,-0.213676724863781059
1.032000000000000695,-0.212404969261840604
1.033000000000000806,-0.211138945333380817
1.034000000000000696,-0.209878635964184657
1.035000000000000808,-0.208624024068427755
1.036000000000000698,-0.207375092588149762
1.037000000000000810,-0.206131824492754440
1.038000000000000700,-0.204894202778494405
1.039000000000000812,-0.203662210468003757
1.040000000000000702,-0.202435830609832917
1.041000000000000814,-0.201215046277999965
1.042000000000000703,-0.199999840571545795
1.043000000000000815,-0.198790196614127945
1.044000000000000705,-0.197586097553610729
1.045000000000000817,-0.196387526561665526
1.046000000000000707,-0.195194466833405494
1.047000000000000819,-0.194006901587016500
1.048000000000000709,-0.192824814063398631
1.049000000000000821,-0.191648187525842617
1.050000000000000711,-0.190477005259688303
1.051000000000000822,-0.189311250572028300
1.052000000000000712,-0.188150906791395706
1.053000000000000824,-0.186995957267476282
1.054000000000000714,-0.185846385370838668
1.055000000000000826,-0.184702174492662324
1.056000000000000716,-0.183563308044488754
1.057000000000000828,-0.182429769457972402
1.058000000000000718,-0.181301542184653053
1.059000000000000830,-0.180178609695732461
1.060000000000000719,-0.179060955481867012
1.061000000000000831,-0.177948563052956726
1.062000000000000721,-0.176841415937965485
1.063000000000000833,-0.175739497684736540
1.064000000000000723,-0.174642791859814711
1.065000000000000835,-0.173551282048289762
1.066000000000000725,-0.172464951853647325
1.067000000000000837,-0.171383784897608749
1.068000000000000727,-0.170307764820016139
1.069000000000000838,-0.169236875278686555
1.070000000000000728,-0.168171099949306846
1.071000000000000840,-0.167110422525314745
1.072000000000000730,-0.166054826717802362
1.073000000000000842,-0.165004296255417460
1.074000000000000732,-0.163958814884275161
1.075000000000000844,-0.162918366367883205
1.076000000000000734,-0.161882934487067365
1.077000000000000846,-0.160852503039901673
1.078000000000000735,-0.159827055841660015
1.079000000000000847,-0.158806576724753123
1.080000000000000737,-0.157791049538696576
1.081000000000000849,-0.156780458150057894
1.082000000000000739,-0.155774786442436197
1.083000000000000851,-0.154774018316429840
1.084000000000000741,-0.153778137689621952
1.085000000000000853,-0.152787128496559094
1.086000000000000743,-0.151800974688749313
1.087000000000000854,-0.150819660234653957
1.088000000000000744,-0.149843169119700803
1.089000000000000856,-0.148871485346274257
1.090000000000000746,-0.147904592933744305
1.091000000000000858,-0.146942475918479643
1.092000000000000748,-0.145985118353867294
1.093000000000000860,-0.145032504310345145
1.094000000000000750,-0.144084617875429782
1.095000000000000862,-0.143141443153756320
1.096000000000000751,-0.142202964267121812
1.097000000000000863,-0.141269165354521553
1.098000000000000753,-0.140340030572210950
1.099000000000000865,-0.139415544093752064
1.100000000000000755,-0.138495690110068514
1.101000000000000867,-0.137580452829511451
1.102000000000000757,-0.136669816477925699
1.103000000000000869,-0.135763765298715866
1.104000000000000759,-0.134862283552913548
1.105000000000000870,-0.133965355519262835
1.106000000000000760,-0.133072965494287765
1.107000000000000872,-0.132185097792382134
1.108000000000000762,-0.131301736745894015
1.109000000000000874,-0.130422866705206641
1.110000000000000764,-0.129548472038835405
1.111000000000000876,-0.128678537133516346
1.112000000000000766,-0.127813046394305019
1.113000000000000878,-0.126951984244674215
1.114000000000000767,-0.126095335126616359
1.115000000000000879,-0.125243083500741481
1.116000000000000769,-0.124395213846387770
1.117000000000000881,-0.123551710661727168
1.118000000000000771,-0.122712558463875562
1.119000000000000883,-0.121877741789004818
1.120000000000000773,-0.121047245192458575
1.121000000000000885,-0.120221053248861495
1.122000000000000774,-0.119399150552242747
1.123000000000000886,-0.118581521716153396
1.124000000000000776,-0.117768151373789418
1.125000000000000888,-0.116959024178106469
1.126000000000000778,-0.116154124801951128
1.127000000000000890,-0.115353437938189016
1.128000000000000780,-0.114556948299818620
1.129000000000000892,-0.113764640620111268
1.130000000000000782,-0.112976499652735846
1.131000000000000894,-0.112192510171888360
1.132000000000000783,-0.111412656972423391
1.133000000000000895,-0.110636924869992506
1.134000000000000785,-0.109865298701162323
1.135000000000000897,-0.109097763323569658
1.136000000000000787,-0.108334303616038352
1.137000000000000899,-0.107574904478726446
1.138000000000000789,-0.106819550833253424
1.139000000000000901,-0.106068227622851979
1.140000000000000790,-0.105320919812492517
1.141000000000000902,-0.104577612389020233
1.142000000000000792,-0.103838290361307359
1.143000000000000904,-0.103102938760382304
1.144000000000000794,-0.102371542639575305
1.145000000000000906,-0.101644087074646602
1.146000000000000796,-0.100920557163945906
1.147000000000000908,-0.100200938028536496
1.148000000000000798,-0.099485214812346012
1.149000000000000909,-0.098773372682303989
1.150000000000000799,-0.098065396828480089
1.151000000000000689,-0.097361272464231055
1.152000000000000801,-0.096660984826341445
1.153000000000000913,-0.095964519175160287
1.154000000000000803,-0.095271860794747296
1.155000000000000693,-0.094582994993008887
1.156000000000000805,-0.093897907101849171
1.157000000000000917,-0.093216582477296320
1.158000000000000806,-0.092539006499658363
1.159000000000000696,-0.091865164573652111
1.160000000000000808,-0.091195042128549592
1.161000000000000920,-0.090528624618315498
1.162000000000000810,-0.089865897521751920
1.163000000000000700,-0.089206846342626434
1.164000000000000812,-0.088551456609825441
1.165000000000000924,-0.087899713877478622
1.166000000000000814,-0.087251603725108096
1.167000000000000703,-0.086607111757757996
1.168000000000000815,-0.085966223606138620
1.169000000000000927,-0.085328924926753105
1.170000000000000817,-0.084695201402047018
1.171000000000000707,-0.084065038740526760
1.172000000000000819,-0.083438422676909596
1.173000000000000931,-0.082815338972249603
1.174000000000000821,-0.082195773414069917
1.175000000000000711,-0.081579711816500713
1.176000000000000822,-0.080967140020407641
1.177000000000000934,-0.080358043893522496
1.178000000000000824,-0.079752409330575397
1.179000000000000714,-0.079150222253420985
1.180000000000000826,-0.078551468611174680
1.181000000000000938,-0.077956134380330680
1.182000000000000828,-0.077364205564895344
1.183000000000000718,-0.076775668196513658
1.184000000000000830,-0.076190508334591941
1.185000000000000941,-0.075608712066418921
1.186000000000000831,-0.075030265507300145
1.187000000000000721,-0.074455154800667361
1.188000000000000833,-0.073883366118210336
1.189000000000000945,-0.073314885659991919
1.190000000000000835,-0.072749699654571814
1.191000000000000725,-0.072187794359113905
1.192000000000000837,-0.071629156059525939
1.193000000000000949,-0.071073771070548769
1.194000000000000838,-0.070521625735896029
1.195000000000000728,-0.069972706428351322
1.196000000000000840,-0.069426999549890442
1.197000000000000952,-0.068884491531794767
1.198000000000000842,-0.068345168834753126
1.199000000000000732,-0.067809017948986208
1.200000000000000844,-0.067276025394336997
1.201000000000000956,-0.066746177720397842
1.202000000000000846,-0.066219461506601976
1.203000000000000735,-0.065695863362341692
1.204000000000000847,-0.065175369927057886
1.205000000000000959,-0.064657967870360850
1.206000000000000849,-0.064143643892117755
1.207000000000000739,-0.063632384722558916
1.208000000000000851,-0.063124177122379194
1.209000000000000963,-0.062619007882835878
1.210000000000000853,-0.062116863825843749
1.211000000000000743,-0.061617731804071561
1.212000000000000854,-0.061121598701039802
1.213000000000000966,-0.060628451431209332
1.214000000000000856,-0.060138276940083432
1.215000000000000746,-0.059651062204282110
1.216000000000000858,-0.059166794231654406
1.217000000000000970,-0.058685460061346062
1.218000000000000860,-0.058207046763899518
1.219000000000000750,-0.057731541441339032
1.220000000000000862,-0.057258931227249989
1.221000000000000973,-0.056789203286866839
1.222000000000000863,-0.056322344817158435
1.223000000000000753,-0.055858343046900114
1.224000000000000865,-0.055397185236764457
1.225000000000000977,-0.054938858679393208
1.226000000000000867,-0.054483350699476629
1.227000000000000757,-0.054030648653830761
1.228000000000000869,-0.053580739931465657
1.229000000000000981,-0.053133611953675566
1.230000000000000870,-0.052689252174089707
1.231000000000000760,-0.052247648078758924
1.232000000000000872,-0.051808787186223851
1.233000000000000984,-0.051372657047571921
1.234000000000000874,-0.050939245246523379
1.235000000000000764,-0.050508539399479468
1.236000000000000876,-0.050080527155599255
1.237000000000000988,-0.049655196196854878
1.238000000000000878,-0.049232534238103830
1.239000000000000767,-0.048812529027138826
1.240000000000000879,-0.048395168344755463
1.241000000000000991,-0.047980440004807376
1.242000000000000881,-0.047568331854262888
1.243000000000000771,-0.047158831773265179
1.244000000000000883,-0.046751927675178023
1.245000000000000995,-0.046347607506652226
1.246000000000000885,-0.045945859247666351
1.247000000000000774,-0.045546670911583799
1.248000000000000886,-0.045150030545199484
1.249000000000000998,-0.044755926228790065
1.250000000000000888,-0.044364346076163623
1.251000000000000778,-0.043975278234698177
1.252000000000000890,-0.043588710885394830
1.253000000000001002,-0.043204632242912523
1.254000000000000892,-0.042823030555621644
1.255000000000000782,-0.042443894105634275
1.256000000000000894,-0.042067211208848612
1.257000000000001005,-0.041692970214989994
1.258000000000000895,-0.041321159507645491
1.259000000000000785,-0.040951767504297153
1.260000000000000897,-0.040584782656363873
1.261000000000001009,-0.040220193449230404
1.262000000000000899,-0.039857988402281198
1.263000000000000789,-0.039498156068930243
1.264000000000000901,-0.039140685036656624
1.265000000000001013,-0.038785563927026846
1.266000000000000902,-0.038432781395726395
1.267000000000000792,-0.038082326132586754
1.268000000000000904,-0.037734186861608829
1.269000000000001016,-0.037388352340988737
1.270000000000000906,-0.037044811363143040
1.271000000000000796,-0.036703552754726546
1.272000000000000908,-0.036364565376655417
1.273000000000001020,-0.036027838124127590
1.274000000000000909,-0.035693359926642111
1.275000000000000799,-0.035361119748011448
1.276000000000000911,-0.035031106586388028
1.277000000000001023,-0.034703309474267155
1.278000000000000913,-0.034377717478513023
1.279000000000000803,-0.034054319700361088
1.280000000000000915,-0.033733105275443508
1.281000000000001027,-0.033414063373781458
1.282000000000000917,-0.033097183199814105
1.283000000000000806,-0.032782453992393816
1.284000000000000918,-0.032469865024802168
1.285000000000001030,-0.032159405604750349
1.286000000000000920,-0.031851065074390582
1.287000000000000810,-0.031544832810313908
1.288000000000000922,-0.031240698223563217
1.289000000000001034,-0.030938650759625715
1.290000000000000924,-0.030638679898437066
1.291000000000000814,-0.030340775154390275
1.292000000000000925,-0.030044926076319412
1.293000000000001037,-0.029751122247514548
1.294000000000000927,-0.029459353285706542
1.295000000000000817,-0.029169608843070967
1.296000000000000929,-0.028881878606219092
1.297000000000001041,-0.028596152296192161
1.298000000000000931,-0.028312419668460792
1.299000000000000821,-0.028030670512911721
1.300000000000000933,-0.027750894653838287
1.301000000000001044,-0.027473081949936549
1.302000000000000934,-0.027197222294289301
1.303000000000000824,-0.026923305614360949
1.304000000000000936,-0.026651321871975213
1.305000000000001048,-0.026381261063313521
1.306000000000000938,-0.026113113218896457
1.307000000000000828,-0.025846868403562047
1.308000000000000940,-0.025582516716457549
1.309000000000001052,-0.025320048291024449
1.310000000000000941,-0.025059453294974499
1.311000000000000831,-0.024800721930271483
1.312000000000000943,-0.024543844433111080
1.313000000000001055,-0.024288811073912963
1.314000000000000945,-0.024035612157282057
1.315000000000000835,-0.023784238021993899
1.316000000000000947,-0.023534679040972922
1.317000000000001059,-0.023286925621270847
1.318000000000000949,-0.023040968204032234
1.319000000000000838,-0.022796797264482398
1.320000000000000950,-0.022554403311890861
1.321000000000001062,-0.022313776889545583
1.322000000000000952,-0.022074908574731451
1.323000000000000842,-0.021837788978693689
1.324000000000000954,-0.021602408746616387
1.325000000000001066,-0.021368758557581802
1.326000000000000956,-0.021136829124551774
1.327000000000000846,-0.020906611194323750
1.328000000000000957,-0.020678095547509542
1.329000000000001069,-0.020451272998490123
1.330000000000000959,-0.020226134395394720
1.331000000000000849,-0.020002670620055486
1.332000000000000961,-0.019780872587974962
1.333000000000001073,-0.019560731248291042
1.334000000000000963,-0.019342237583742261
1.335000000000000853,-0.019125382610621779
1.336000000000000965,-0.018910157378749799
1.337000000000001076,-0.018696552971426361
1.338000000000000966,-0.018484560505394015
1.339000000000000856,-0.018274171130801060
1.340000000000000968,-0.018065376031152436
1.341000000000001080,-0.017858166423274580
1.342000000000000970,-0.017652533557270873
1.343000000000000860,-0.017448468716477698
1.344000000000000972,-0.017245963217420047
1.345000000000001084,-0.017045008409774139
1.346000000000000973,-0.016845595676309919
1.347000000000000863,-0.016647716432856188
1.348000000000000975,-0.016451362128246608
1.349000000000001087,-0.016256524244280014
1.350000000000000977,-0.016063194295666234
1.351000000000000867,-0.015871363829984889
1.352000000000000979,-0.015681024427626193
1.353000000000001091,-0.015492167701753217
1.354000000000000981,-0.015304785298247881
1.355000000000000870,-0.015118868895653902
1.356000000000000982,-0.014934410205135243
1.357000000000001094,-0.014751400970421397
1.358000000000000984,-0.014569832967751389
1.359000000000000874,-0.014389698005825369
1.360000000000000986,-0.014210987925750452
1.361000000000001098,-0.014033694600988675
1.362000000000000988,-0.013857809937295185
1.363000000000000878,-0.013683325872672181
1.364000000000000989,-0.013510234377313426
1.365000000000001101,-0.013338527453539356
1.366000000000000991,-0.013168197135748674
1.367000000000000881,-0.012999235490361494
1.368000000000000993,-0.012831634615757573
1.369000000000001105,-0.012665386642222349
1.370000000000000995,-0.012500483731885611
1.371000000000000885,-0.012336918078665007
1.372000000000000997,-0.012174681908207110
1.373000000000001108,-0.012013767477828830
1.374000000000000998,-0.011854167076445200
1.375000000000000888,-0.011695873024532667
1.376000000000001000,-0.011538877674044289
1.377000000000001112,-0.011383173408362788
1.378000000000001002,-0.011228752642232375
1.379000000000000892,-0.011075607821699314
1.380000000000001004,-0.010923731424045508
1.381000000000001116,-0.010773115957733195
1.382000000000001005,-0.010623753962330276
1.383000000000000895,-0.010475638008455569
1.384000000000001007,-0.010328760697710887
1.385000000000001119,-0.010183114662616771
1.386000000000001009,-0.010038692566548341
1.387000000000000899,-0.009895487103663472
1.388000000000001011,-0.009753490998853316
1.389000000000001123,-0.009612697007653602
1.390000000000001013,-0.009473097916197604
1.391000000000000902,-0.009334686541136046
1.392000000000001014,-0.009197455729578899
1.393000000000001126,-0.009061398359021748
1.394000000000001016,-0.008926507337283680
1.395000000000000906,-0.008792775602432794
1.396000000000001018,-0.008660196122718896
1.397000000000001130,-0.008528761896509677
1.398000000000001020,-0.008398465952218147
1.399000000000000909,-0.008269301348230531
1.400000000000001021,-0.008141261172839528
1.401000000000001133,-0.008014338544176478
1.402000000000001023,-0.007888526610135345
1.403000000000000913,-0.007763818548304815
1.404000000000001025,-0.007640207565899571
1.405000000000001137,-0.007517686899685652
1.406000000000001027,-0.007396249815908697
1.407000000000000917,-0.007275889610229134
1.408000000000001029,-0.007156599607637334
1.409000000000001140,-0.007038373162395891
1.410000000000001030,-0.006921203657954919
1.411000000000000920,-0.006805084506887387
1.412000000000001032,-0.006690009150810613
1.413000000000001144,-0.006575971060317878
1.414000000000001034,-0.006462963734902108
1.415000000000000924,-0.006350980702879480
1.416000000000001036,-0.006240015521322632
1.417000000000001148,-0.006130061775982146
1.418000000000001037,-0.006021113081210816
1.419000000000000927,-0.005913163079891500
1.420000000000001039,-0.005806205443359793
1.421000000000001151,-0.005700233871335514
1.422000000000001041,-0.005595242091839964
1.423000000000000931,-0.005491223861123056
1.424000000000001043,-0.005388172963589333
1.425000000000001155,-0.005286083211721524
1.426000000000001044,-0.005184948446003231
1.427000000000000934,-0.005084762534846736
1.428000000000001046,-0.004985519374512202
1.429000000000001158,-0.004887212889030738
1.430000000000001048,-0.004789837030134610
1.431000000000000938,-0.004693385777173727
1.432000000000001050,-0.004597853137042074
1.433000000000001162,-0.004503233144100048
1.434000000000001052,-0.004409519860095022
1.435000000000000941,-0.004316707374090352
1.436000000000001053,-0.004224789802380941
1.437000000000001165,-0.004133761288415606
1.438000000000001055,-0.004043616002730494
1.439000000000000945,-0.003954348142856269
1.440000000000001057,-0.003865951933251498
1.441000000000001169,-0.003778421625214701
1.442000000000001059,-0.003691751496816138
1.443000000000000949,-0.003605935852815650
1.444000000000001060,-0.003520969024581826
1.445000000000001172,-0.003436845370014647
1.446000000000001062,-0.003353559273472491
1.447000000000000952,-0.003271105145682626
1.448000000000001064,-0.003189477423673523
1.449000000000001176,-0.003108670570691796
1.450000000000001066,-0.003028679076118790
1.451000000000000956,-0.002949497455397700
1.452000000000001068,-0.002871120249954544
1.453000000000001180,-0.002793542027114009
1.454000000000001069,-0.002716757380025147
1.455000000000000959,-0.002640760927580039
1.456000000000001071,-0.002565547314332436
1.457000000000001183,-0.002491111210425533
1.458000000000001073,-0.002417447311506285
1.459000000000000963,-0.002344550338643300
1.460000000000001075,-0.002272415038257797
1.461000000000001187,-0.002201036182031002
1.462000000000001076,-0.002130408566840495
1.463000000000000966,-0.002060527014664169
1.464000000000001078,-0.001991386372508299
1.465000000000001190,-0.001922981512334298
1.466000000000001080,-0.001855307330962667
1.467000000000000970,-0.001788358750010283
1.468000000000001082,-0.001722130715801147
1.469000000000001194,-0.001656618199287250
1.470000000000001084,-0.001591816195971787
1.471000000000000973,-0.001527719725825934
1.472000000000001085,-0.001464323833214310
1.473000000000001197,-0.001401623586809741
1.474000000000001087,-0.001339614079516425
1.475000000000000977,-0.001278290428386516
1.476000000000001089,-0.001217647774547039
1.477000000000001201,-0.001157681283115615
1.478000000000001091,-0.001098386143117715
1.479000000000000981,-0.001039757567415131
1.480000000000001092,-0.000981790792616595
1.481000000000001204,-0.000924481079006752
1.482000000000001094,-0.000867823710459543
1.483000000000000984,-0.000811813994365177
1.484000000000001096,-0.000756447261546522
1.485000000000001208,-0.000701718866173110
1.486000000000001098,-0.000647624185697296
1.487000000000000988,-0.000594158620760383
1.488000000000001100,-0.000541317595117449
1.489000000000001211,-0.000489096555561404
1.490000000000001101,-0.000437490971840684
1.491000000000000991,-0.000386496336574959
1.492000000000001103,-0.000336108165188366
1.493000000000001215,-0.000286321995816990
1.494000000000001105,-0.000237133389235423
1.495000000000000995,-0.000188537928777995
1.496000000000001107,-0.000140531220259164
1.497000000000001219,-0.000093108891892141
1.498000000000001108,-0.000046266594214256
1.499000000000000998,0.000000000000000000
