# CNT15-NH3+-4_CS-66578-AC
# h[nm],U(h)[kJ/mol]
0.149999999999999994,104.332861447550754974
0.150999999999999995,102.022625791546985852
0.151999999999999996,100.695499137957625635
0.152999999999999997,99.551233480125816300
0.153999999999999998,98.309276972623521829
0.154999999999999999,96.928068521113829092
0.156000000000000000,95.455515348700757272
0.157000000000000001,93.955958035375516602
0.158000000000000002,92.479766792534846331
0.159000000000000002,91.055158279161133805
0.160000000000000003,89.690353734444130396
0.161000000000000004,88.379500727252320758
0.162000000000000005,87.108987517175904713
0.163000000000000006,85.862649125306504061
0.164000000000000007,84.625398868450176337
0.165000000000000008,83.385345330940566555
0.166000000000000009,82.134682600506963013
0.167000000000000010,80.869703386039915927
0.168000000000000010,79.590261586973042540
0.169000000000000011,78.298951146495326725
0.170000000000000012,77.000198726966360141
0.171000000000000013,75.699402988186463404
0.172000000000000014,74.402199286431425662
0.173000000000000015,73.113887211468096439
0.174000000000000016,71.839028913913239194
0.175000000000000017,70.581206906601195783
0.176000000000000018,69.342918846926991705
0.177000000000000018,68.125581665219897332
0.178000000000000019,66.929616489094613030
0.179000000000000020,65.754587643804782715
0.180000000000000021,64.599372434907991192
0.181000000000000022,63.462342595051346450
0.182000000000000023,62.341542609820137955
0.183000000000000024,61.234854241690491961
0.184000000000000025,60.140140216823205321
0.185000000000000026,59.055363113023148003
0.186000000000000026,57.978677956155216577
0.187000000000000027,56.908498917962141661
0.188000000000000028,55.843541864760524618
0.189000000000000029,54.782845405524575710
0.190000000000000030,53.725773607525823650
0.191000000000000031,52.672003765217098703
0.192000000000000032,51.621502595124866275
0.193000000000000033,50.574494049649302951
0.194000000000000034,49.531421650007615654
0.195000000000000034,48.492907877650843318
0.196000000000000035,47.459712769789405229
0.197000000000000036,46.432693465348094719
0.198000000000000037,45.412766062674826628
0.199000000000000038,44.400870793465202269
0.200000000000000039,43.397941197423989479
0.201000000000000040,42.404877703936385558
0.202000000000000041,41.422525792141222212
0.203000000000000042,40.451658708646498042
0.204000000000000042,39.492964570422159909
0.205000000000000043,38.547037565774623147
0.206000000000000044,37.614372884716303247
0.207000000000000045,36.695364957155405250
0.208000000000000046,35.790308548751006867
0.209000000000000047,34.899402255750459290
0.210000000000000048,34.022753947666927843
0.211000000000000049,33.160387726629238614
0.212000000000000050,32.312252001412524294
0.213000000000000050,31.478228309726535628
0.214000000000000051,30.658140561899919874
0.215000000000000052,29.851764420662988186
0.216000000000000053,29.058836573674369674
0.217000000000000054,28.279063696477983569
0.218000000000000055,27.512130942733570294
0.219000000000000056,26.757709835122945208
0.220000000000000057,26.015465463798211232
0.221000000000000058,25.285062929314634061
0.222000000000000058,24.566172993524478585
0.223000000000000059,23.858476924889497894
0.224000000000000060,23.161670544171904851
0.225000000000000061,22.475467492645567091
0.226000000000000062,21.799601758039138133
0.227000000000000063,21.133829503628369650
0.228000000000000064,20.477930253507260261
0.229000000000000065,19.831707492365410417
0.230000000000000066,19.194988741368991469
0.231000000000000066,18.567625173257393811
0.232000000000000067,17.949490829796289404
0.233000000000000068,17.340481503517683137
0.234000000000000069,16.740513343460918350
0.235000000000000070,16.149521241616675127
0.236000000000000071,15.567457053158884506
0.237000000000000072,14.994287699494645238
0.238000000000000073,14.429993198819493827
0.239000000000000073,13.874564664361836108
0.240000000000000074,13.328002305942181493
0.241000000000000075,12.790313465955950534
0.242000000000000076,12.261510716482796113
0.243000000000000077,11.741610039992787407
0.244000000000000078,11.230629112107500589
0.245000000000000079,10.728585701114118578
0.246000000000000080,10.235496195451631252
0.247000000000000081,9.751374267200432655
0.248000000000000081,9.276229676722982376
0.249000000000000082,8.810067221021824935
0.250000000000000111,8.352885826099109678
0.251000000000000112,7.904677781611501253
0.252000000000000113,7.465428114402214987
0.253000000000000114,7.035114096047138332
0.254000000000000115,6.613704878353412475
0.255000000000000115,6.201161249783846863
0.256000000000000116,5.797435505026840019
0.257000000000000117,5.402471419372249173
0.258000000000000118,5.016204319169992765
0.259000000000000119,4.638561239420193161
0.260000000000000120,4.269461159454396082
0.261000000000000121,3.908815307699797792
0.262000000000000122,3.556527526654345017
0.263000000000000123,3.212494689426672601
0.264000000000000123,2.876607159494522392
0.265000000000000124,2.548749285696964684
0.266000000000000125,2.228799924885752848
0.267000000000000126,1.916632985109323339
0.268000000000000127,1.612117982678169970
0.269000000000000128,1.315120606954992111
0.270000000000000129,1.025503287217697901
0.271000000000000130,0.743125756451551767
0.272000000000000131,0.467845607433168831
0.273000000000000131,0.199518836966899593
0.274000000000000132,-0.061999625379545197
0.275000000000000133,-0.316855407223357699
0.276000000000000134,-0.565194204730811167
0.277000000000000135,-0.807161317698904091
0.278000000000000136,-1.042901210249985500
0.279000000000000137,-1.272557098652294716
0.280000000000000138,-1.496270567422459674
0.281000000000000139,-1.714181214535754005
0.282000000000000139,-1.926426326264852662
0.283000000000000140,-2.133140581889710674
0.284000000000000141,-2.334455788268173571
0.285000000000000142,-2.530500644029507473
0.286000000000000143,-2.721400532949704854
0.287000000000000144,-2.907277345887587572
0.288000000000000145,-3.088249330503882284
0.289000000000000146,-3.264430967848926279
0.290000000000000147,-3.435932874789686231
0.291000000000000147,-3.602861731149469726
0.292000000000000148,-3.765320230355392539
0.293000000000000149,-3.923407052325612820
0.294000000000000150,-4.077216857281619866
0.295000000000000151,-4.226840299137423429
0.296000000000000152,-4.372364057097136048
0.297000000000000153,-4.513870884083596380
0.298000000000000154,-4.651439670622378841
0.299000000000000155,-4.785145522816499408
0.300000000000000155,-4.915059853066425788
0.301000000000000156,-5.041250482216624640
0.302000000000000157,-5.163781751843006695
0.303000000000000158,-5.282714645433861378
0.304000000000000159,-5.398106917260344417
0.305000000000000160,-5.510013227779257505
0.306000000000000161,-5.618485284461351981
0.307000000000000162,-5.723571986990970473
0.308000000000000163,-5.825319575837371033
0.309000000000000163,-5.923771783254163203
0.310000000000000164,-6.018969985820040947
0.311000000000000165,-6.110953357691076171
0.312000000000000166,-6.199759023792186241
0.313000000000000167,-6.285422212232044892
0.314000000000000168,-6.367976405281750019
0.315000000000000169,-6.447453488312743453
0.316000000000000170,-6.523883896143369832
0.317000000000000171,-6.597296756295643938
0.318000000000000171,-6.667720028714780867
0.319000000000000172,-6.735180641553045078
0.320000000000000173,-6.799704622666401299
0.321000000000000174,-6.861317226517664736
0.322000000000000175,-6.920043056222927369
0.323000000000000176,-6.975906180518788524
0.324000000000000177,-7.028930245466786353
0.325000000000000178,-7.079138580747793341
0.326000000000000179,-7.126554300433793898
0.327000000000000179,-7.171200398156311273
0.328000000000000180,-7.213099836620946448
0.329000000000000181,-7.252275631445554538
0.330000000000000182,-7.288750929324947947
0.331000000000000183,-7.322549080549421774
0.332000000000000184,-7.353693705925669732
0.333000000000000185,-7.382208758168916418
0.334000000000000186,-7.408118577852992992
0.335000000000000187,-7.431447944021455143
0.336000000000000187,-7.452222119577436743
0.337000000000000188,-7.470466891582691282
0.338000000000000189,-7.486208606608061089
0.339000000000000190,-7.499474201287279485
0.340000000000000191,-7.510291228234494909
0.341000000000000192,-7.518687877493507976
0.342000000000000193,-7.524692993692274179
0.343000000000000194,-7.528336089081480331
0.344000000000000195,-7.529647352639250002
0.345000000000000195,-7.528657655427440254
0.346000000000000196,-7.525398552386083573
0.347000000000000197,-7.519902280754012125
0.348000000000000198,-7.512201755303552275
0.349000000000000199,-7.502330560576586649
0.350000000000000200,-7.490322940308186794
0.351000000000000201,-7.476213784221805270
0.352000000000000202,-7.460038612377895006
0.353000000000000203,-7.441833557254615705
0.354000000000000203,-7.421635343736130430
0.355000000000000204,-7.399481267179831789
0.356000000000000205,-7.375409169730110293
0.357000000000000206,-7.349457415041595887
0.358000000000000207,-7.321664861569923133
0.359000000000000208,-7.292070834583524785
0.360000000000000209,-7.260715097044465161
0.361000000000000210,-7.227637819501152805
0.362000000000000210,-7.192879549130450023
0.363000000000000211,-7.156481178060952075
0.364000000000000212,-7.118483911103996142
0.365000000000000213,-7.078929233012895672
0.366000000000000214,-7.037858875385721191
0.367000000000000215,-6.995314783320928598
0.368000000000000216,-6.951339081929923225
0.369000000000000217,-6.905974042804698065
0.370000000000000218,-6.859262050533589949
0.371000000000000218,-6.811245569352408324
0.372000000000000219,-6.761967110013136661
0.373000000000000220,-6.711469196947101423
0.374000000000000221,-6.659794335794297027
0.375000000000000222,-6.606984981365599197
0.376000000000000223,-6.553083506099858013
0.377000000000000224,-6.498132169072900588
0.378000000000000225,-6.442173085611011984
0.379000000000000226,-6.385248197556972372
0.380000000000000226,-6.327399244232474906
0.381000000000000227,-6.268667734136393221
0.382000000000000228,-6.209094917414683223
0.383000000000000229,-6.148721759133570330
0.384000000000000230,-6.087588913384033518
0.385000000000000231,-6.025736698242293521
0.386000000000000232,-5.963205071607229790
0.387000000000000233,-5.900033607932806845
0.388000000000000234,-5.836261475870193394
0.389000000000000234,-5.771927416831653446
0.390000000000000235,-5.707069724485157813
0.391000000000000236,-5.641726225186411980
0.392000000000000237,-5.575934259352134603
0.393000000000000238,-5.509730663776478465
0.394000000000000239,-5.443151754889846927
0.395000000000000240,-5.376233312957713117
0.396000000000000241,-5.309010567214846432
0.397000000000000242,-5.241518181928525699
0.398000000000000242,-5.173790243382910603
0.399000000000000243,-5.105860247774835159
0.400000000000000244,-5.037761090010007159
0.401000000000000245,-4.969525053387385150
0.402000000000000246,-4.901183800157978609
0.403000000000000247,-4.832768362943420826
0.404000000000000248,-4.764309136998617689
0.405000000000000249,-4.695835873301762220
0.406000000000000250,-4.627377672454189295
0.407000000000000250,-4.558962979371917967
0.408000000000000251,-4.490619578749851293
0.409000000000000252,-4.422374591279256251
0.410000000000000253,-4.354254470598428739
0.411000000000000254,-4.286285000956188362
0.412000000000000255,-4.218491295567352140
0.413000000000000256,-4.150897795639134635
0.414000000000000257,-4.083528270047086295
0.415000000000000258,-4.016405815639123134
0.416000000000000258,-3.949552858145942480
0.417000000000000259,-3.882991153676180751
0.418000000000000260,-3.816741790774530241
0.419000000000000261,-3.750825193021111836
0.420000000000000262,-3.685261122150473856
0.421000000000000263,-3.620068681668676014
0.422000000000000264,-3.555266320947025438
0.423000000000000265,-3.490871839771208407
0.424000000000000266,-3.426902393324954055
0.425000000000000266,-3.363374497587206857
0.426000000000000267,-3.300304035122496149
0.427000000000000268,-3.237706261244137629
0.428000000000000269,-3.175595810530386309
0.429000000000000270,-3.113986703674009426
0.430000000000000271,-3.052892354645883266
0.431000000000000272,-2.992325578153905763
0.432000000000000273,-2.932298597378602434
0.433000000000000274,-2.872823051967414276
0.434000000000000274,-2.813910006269872532
0.435000000000000275,-2.755569957796473624
0.436000000000000276,-2.697812845884361543
0.437000000000000277,-2.640648060553325571
0.438000000000000278,-2.584084451536232674
0.439000000000000279,-2.528130337468283528
0.440000000000000280,-2.472793515219970040
0.441000000000000281,-2.418081269359111829
0.442000000000000282,-2.364000381727791922
0.443000000000000282,-2.310557141120319624
0.444000000000000283,-2.257757353049051119
0.445000000000000284,-2.205606349585136350
0.446000000000000285,-2.154108999261679980
0.447000000000000286,-2.103269717027587582
0.448000000000000287,-2.053092474240258536
0.449000000000000288,-2.003580808686300063
0.450000000000000289,-1.954737834619369563
0.451000000000000290,-1.906566252805051764
0.452000000000000290,-1.859068360562871947
0.453000000000000291,-1.812246061796042529
0.454000000000000292,-1.766100876999967983
0.455000000000000293,-1.720633953240850333
0.456000000000000294,-1.675846074096239535
0.457000000000000295,-1.631737669549680136
0.458000000000000296,-1.588308825831990401
0.459000000000000297,-1.545559295202142414
0.460000000000000298,-1.503488505660973029
0.461000000000000298,-1.462095570591434690
0.462000000000000299,-1.421379298319327189
0.463000000000000300,-1.381338201588822034
0.464000000000000301,-1.341970506947497865
0.465000000000000302,-1.303274164035830740
0.466000000000000303,-1.265246854776385099
0.467000000000000304,-1.227886002458360437
0.468000000000000305,-1.191188780713369644
0.469000000000000306,-1.155152122378567459
0.470000000000000306,-1.119772728243681570
0.471000000000000307,-1.085047075678534645
0.472000000000000308,-1.050971427138172931
0.473000000000000309,-1.017541838542715960
0.474000000000000310,-0.984754167529502289
0.475000000000000311,-0.952604081575126549
0.476000000000000312,-0.921087065985487952
0.477000000000000313,-0.890198431751774266
0.478000000000000314,-0.859933323270933636
0.479000000000000314,-0.830286725929152203
0.480000000000000315,-0.801253473547041239
0.481000000000000316,-0.772828255685599985
0.482000000000000317,-0.745005624811982181
0.483000000000000318,-0.717780003324453686
0.484000000000000319,-0.691145690435947202
0.485000000000000320,-0.665096868915924899
0.486000000000000321,-0.639627611690247511
0.487000000000000322,-0.614731888299051343
0.488000000000000322,-0.590403571212612777
0.489000000000000323,-0.566636442005526542
0.490000000000000324,-0.543424197389386299
0.491000000000000325,-0.520760455104512521
0.492000000000000326,-0.498638759671201748
0.493000000000000327,-0.477052588001239453
0.494000000000000328,-0.455995354870400493
0.495000000000000329,-0.435460418252782866
0.496000000000000330,-0.415441084517977288
0.497000000000000330,-0.395930613492080030
0.498000000000000331,-0.376922223383646948
0.499000000000000332,-0.358409095575859538
0.500000000000000333,-0.340384379286100103
0.501000000000000334,-0.322841196094276250
0.502000000000000335,-0.305772644341336830
0.503000000000000336,-0.289171803399399074
0.504000000000000337,-0.273031737814983411
0.505000000000000338,-0.257345501326950110
0.506000000000000338,-0.242106140760719596
0.507000000000000339,-0.227306699800410295
0.508000000000000340,-0.212940222640597143
0.509000000000000341,-0.198999757519427389
0.510000000000000342,-0.185478360134790049
0.511000000000000343,-0.172369096945378913
0.512000000000000344,-0.159665048358406170
0.513000000000000345,-0.147359311805826065
0.514000000000000346,-0.135445004710918887
0.515000000000000346,-0.123915267347067773
0.516000000000000347,-0.112763265590622330
0.517000000000000348,-0.101982193569797125
0.518000000000000349,-0.091565276211385174
0.519000000000000350,-0.081505771687316000
0.520000000000000351,-0.071796973762902810
0.521000000000000352,-0.062432214048721034
0.522000000000000353,-0.053404864158033263
0.523000000000000353,-0.044708337771655768
0.524000000000000354,-0.036336092612233292
0.525000000000000355,-0.028281632329780714
0.526000000000000356,-0.020538508300410162
0.527000000000000357,-0.013100321340192933
0.528000000000000358,-0.005960723335932827
0.529000000000000359,0.000886581205123205
0.530000000000000360,0.007447833684908966
0.531000000000000361,0.013729220021533484
0.532000000000000361,0.019736869331885998
0.533000000000000362,0.025476852687943773
0.534000000000000363,0.030955181945057197
0.535000000000000364,0.036177808640342569
0.536000000000000365,0.041150622959453619
0.537000000000000366,0.045879452769939377
0.538000000000000367,0.050370062719492292
0.539000000000000368,0.054628153397291282
0.540000000000000369,0.058659360556839478
0.541000000000000369,0.062469254398518026
0.542000000000000370,0.066063338910268860
0.543000000000000371,0.069447051264750675
0.544000000000000372,0.072625761271328637
0.545000000000000373,0.075604770881342265
0.546000000000000374,0.078389313745083442
0.547000000000000375,0.080984554818915491
0.548000000000000376,0.083395590021023897
0.549000000000000377,0.085627445934317897
0.550000000000000377,0.087685079555009135
0.551000000000000378,0.089573378085391592
0.552000000000000379,0.091297158769446926
0.553000000000000380,0.092861168769829847
0.554000000000000381,0.094270085084914551
0.555000000000000382,0.095528514504492845
0.556000000000000383,0.096640993602869832
0.557000000000000384,0.097611988767992375
0.558000000000000385,0.098445896265399707
0.559000000000000385,0.099147042335692034
0.560000000000000386,0.099719683324348232
0.561000000000000387,0.100168005842647692
0.562000000000000388,0.100496126958562290
0.563000000000000389,0.100708094416432775
0.564000000000000390,0.100807886884342238
0.565000000000000391,0.100799414228057452
0.566000000000000392,0.100686517810486056
0.567000000000000393,0.100472970815567608
0.568000000000000393,0.100162478595611781
0.569000000000000394,0.099758679041036608
0.570000000000000395,0.099265142971558126
0.571000000000000396,0.098685374547865454
0.572000000000000397,0.098022811702812504
0.573000000000000398,0.097280826591289907
0.574000000000000399,0.096462726057791201
0.575000000000000400,0.095571752120896344
0.576000000000000401,0.094611082473763070
0.577000000000000401,0.093583830999821038
0.578000000000000402,0.092493048302870931
0.579000000000000403,0.091341722250826221
0.580000000000000404,0.090132778532268670
0.581000000000000405,0.088869081225161212
0.582000000000000406,0.087553433376937190
0.583000000000000407,0.086188577595282076
0.584000000000000408,0.084777196648945188
0.585000000000000409,0.083321914077889414
0.586000000000000409,0.081825294812148591
0.587000000000000410,0.080289845798772713
0.588000000000000411,0.078718016636253635
0.589000000000000412,0.077112200215815788
0.590000000000000413,0.075474733369055330
0.591000000000000414,0.073807897521317584
0.592000000000000415,0.072113919350307643
0.593000000000000416,0.070394971449410176
0.594000000000000417,0.068653172995211204
0.595000000000000417,0.066890590418718324
0.596000000000000418,0.065109238079854609
0.597000000000000419,0.063311078944705113
0.598000000000000420,0.061498025265131574
0.599000000000000421,0.059671939260297666
0.600000000000000422,0.057834633799695091
0.601000000000000423,0.055987873087291216
0.602000000000000424,0.054133373346390179
0.603000000000000425,0.052272803504849488
0.604000000000000425,0.050407785880300190
0.605000000000000426,0.048539896865027667
0.606000000000000427,0.046670667610133464
0.607000000000000428,0.044801584708785445
0.608000000000000429,0.042934090878047192
0.609000000000000430,0.041069585639238793
0.610000000000000431,0.039209425996308132
0.611000000000000432,0.037354927112108138
0.612000000000000433,0.035507362982265270
0.613000000000000433,0.033667967106339722
0.614000000000000434,0.031837933156122579
0.615000000000000435,0.030018415640796003
0.616000000000000436,0.028210530568731185
0.617000000000000437,0.026415356105723108
0.618000000000000438,0.024633933229477843
0.619000000000000439,0.022867266380147733
0.620000000000000440,0.021116324106721162
0.621000000000000441,0.019382039709116995
0.622000000000000441,0.017665311875802427
0.623000000000000442,0.015967005316794979
0.624000000000000443,0.014287951391882348
0.625000000000000444,0.012628948733916578
0.626000000000000445,0.010990763867086407
0.627000000000000446,0.009374131820000142
0.628000000000000447,0.007779756733470910
0.629000000000000448,0.006208312462923460
0.630000000000000449,0.004660443175275031
0.631000000000000449,0.003136763940227006
0.632000000000000450,0.001637861315856137
0.633000000000000451,0.000164293928418302
0.634000000000000452,-0.001283406953687294
0.635000000000000453,-0.002704736851901745
0.636000000000000454,-0.004099217515477238
0.637000000000000455,-0.005466396365520243
0.638000000000000456,-0.006805845945135452
0.639000000000000457,-0.008117163375752256
0.640000000000000457,-0.009399969819673537
0.641000000000000458,-0.010653909948849988
0.642000000000000459,-0.011878651419990949
0.643000000000000460,-0.013073884355960292
0.644000000000000461,-0.014239320833567142
0.645000000000000462,-0.015374694377705399
0.646000000000000463,-0.016479759461905170
0.647000000000000464,-0.017554291015297950
0.648000000000000465,-0.018598083936015676
0.649000000000000465,-0.019610952611010913
0.650000000000000466,-0.020592730442344102
0.651000000000000467,-0.021543269379881668
0.652000000000000468,-0.022462439460469125
0.653000000000000469,-0.023350128353512960
0.654000000000000470,-0.024206240913020260
0.655000000000000471,-0.025030698736038182
0.656000000000000472,-0.025823439727512072
0.657000000000000473,-0.026584417671518389
0.658000000000000473,-0.027313601808895426
0.659000000000000474,-0.028010976421208221
0.660000000000000475,-0.028676540421048065
0.661000000000000476,-0.029310306948625981
0.662000000000000477,-0.029912302974662693
0.663000000000000478,-0.030482568909498887
0.664000000000000479,-0.031021158218456708
0.665000000000000480,-0.031528137043326750
0.666000000000000481,-0.032003583830073991
0.667000000000000481,-0.032447588962571577
0.668000000000000482,-0.032860254402490192
0.669000000000000483,-0.033241693335143568
0.670000000000000484,-0.033592029821376039
0.671000000000000485,-0.033911398455366192
0.672000000000000486,-0.034199944028340208
0.673000000000000487,-0.034457821198163555
0.674000000000000488,-0.034685194164706813
0.675000000000000488,-0.034882236350992565
0.676000000000000489,-0.035049130090074002
0.677000000000000490,-0.035186066317538338
0.678000000000000491,-0.035293244269660212
0.679000000000000492,-0.035370871187101374
0.680000000000000493,-0.035419162024108254
0.681000000000000494,-0.035438339163203776
0.682000000000000495,-0.035428632135235991
0.683000000000000496,-0.035390277344816271
0.684000000000000496,-0.035323517801026112
0.685000000000000497,-0.035228602853369331
0.686000000000000498,-0.035105787932924119
0.687000000000000499,-0.034955334298588311
0.688000000000000500,-0.034777508788422208
0.689000000000000501,-0.034572583575994208
0.690000000000000502,-0.034340835931686485
0.691000000000000503,-0.034082547988891890
0.692000000000000504,-0.033798006515047455
0.693000000000000504,-0.033487502687475176
0.694000000000000505,-0.033151331873898279
0.695000000000000506,-0.032789793417682546
0.696000000000000507,-0.032403190427633052
0.697000000000000508,-0.031991829572363559
0.698000000000000509,-0.031556020879155551
0.699000000000000510,-0.031096077537243184
0.700000000000000511,-0.030612315705466596
0.701000000000000512,-0.030105054324250945
0.702000000000000512,-0.029574614931826327
0.703000000000000513,-0.029021321484660596
0.704000000000000514,-0.028445500182018614
0.705000000000000515,-0.027847479294607548
0.706000000000000516,-0.027227588997244007
0.707000000000000517,-0.026586161205497970
0.708000000000000518,-0.025923529416210400
0.709000000000000519,-0.025240028551917058
0.710000000000000520,-0.024535994809007460
0.711000000000000520,-0.023811765509665853
0.712000000000000521,-0.023067678957470500
0.713000000000000522,-0.022304074296614632
0.714000000000000523,-0.021521291374722151
0.715000000000000524,-0.020719670609135963
0.716000000000000525,-0.019899552856713701
0.717000000000000526,-0.019061279286982445
0.718000000000000527,-0.018205191258670778
0.719000000000000528,-0.017331630199516314
0.720000000000000528,-0.016440937489352641
0.721000000000000529,-0.015533454346315529
0.722000000000000530,-0.014609521716275709
0.723000000000000531,-0.013669480165267428
0.724000000000000532,-0.012713669775011113
0.725000000000000533,-0.011742430041394344
0.726000000000000534,-0.010756099775867504
0.727000000000000535,-0.009755017009748849
0.728000000000000536,-0.008739518901326831
0.729000000000000536,-0.007709941645766572
0.730000000000000537,-0.006666620387738747
0.731000000000000538,-0.005609889136717066
0.732000000000000539,-0.004540080684929770
0.733000000000000540,-0.003457526527881916
0.734000000000000541,-0.002362556787425896
0.735000000000000542,-0.001255500137308346
0.736000000000000543,-0.000136683731187248
0.737000000000000544,0.000993566866979534
0.738000000000000544,0.002134927750157450
0.739000000000000545,0.003287076733185884
0.740000000000000546,0.004449693415431178
0.741000000000000547,0.005622459241244493
0.742000000000000548,0.006805057558190319
0.743000000000000549,0.007997173673214869
0.744000000000000550,0.009198494906654042
0.745000000000000551,0.010408710644214291
0.746000000000000552,0.011627512386941864
0.747000000000000552,0.012854593799206938
0.748000000000000553,0.014089650754778532
0.749000000000000554,0.015332381380988313
0.750000000000000555,0.016582486101038858
0.751000000000000556,0.017839667674521255
0.752000000000000557,0.019103631236113260
0.753000000000000558,0.020374084332593335
0.754000000000000559,0.021650736958096668
0.755000000000000560,0.022933301587745637
0.756000000000000560,0.024221493209615839
0.757000000000000561,0.025515029355142060
0.758000000000000562,0.026813630127945520
0.759000000000000563,0.028117018231123236
0.760000000000000564,0.029424918993067328
0.761000000000000565,0.030737060391815008
0.762000000000000566,0.032053173077972584
0.763000000000000567,0.033372990396247672
0.764000000000000568,0.034696248405628904
0.765000000000000568,0.036022685898206917
0.766000000000000569,0.037352044416737007
0.767000000000000570,0.038684068270889119
0.768000000000000571,0.040018504552312963
0.769000000000000572,0.041355103148431140
0.770000000000000573,0.042693616755107022
0.771000000000000574,0.044033800888121054
0.772000000000000575,0.045375413893556336
0.773000000000000576,0.046718216957063019
0.774000000000000576,0.048061974112072435
0.775000000000000577,0.049406452246950686
0.776000000000000578,0.050751421111166484
0.777000000000000579,0.052096653320429433
0.778000000000000580,0.053441924360908125
0.779000000000000581,0.054787012592470805
0.780000000000000582,0.056131699251048786
0.781000000000000583,0.057475768450068652
0.782000000000000584,0.058819007181055941
0.783000000000000584,0.060161205313381802
0.784000000000000585,0.061502155593176309
0.785000000000000586,0.062841653641472692
0.786000000000000587,0.064179497951552228
0.787000000000000588,0.065515489885544065
0.788000000000000589,0.066849433670311237
0.789000000000000590,0.068181136392584371
0.790000000000000591,0.069510407993450943
0.791000000000000592,0.070837061262145673
0.792000000000000592,0.072160911829200258
0.793000000000000593,0.073481778158965477
0.794000000000000594,0.074799481541520468
0.795000000000000595,0.076113846083971509
0.796000000000000596,0.077424698701221817
0.797000000000000597,0.078731869106131974
0.798000000000000598,0.080035189799179701
0.799000000000000599,0.081334496057583958
0.800000000000000600,0.082629625923922728
0.801000000000000600,0.083920420194276132
0.802000000000000601,0.085206722405886642
0.803000000000000602,0.086488378824376849
0.804000000000000603,0.087765238430510026
0.805000000000000604,0.089037152906541114
0.806000000000000605,0.090303976622175486
0.807000000000000606,0.091565566620087385
0.808000000000000607,0.092821782601109640
0.809000000000000608,0.094072486909036135
0.810000000000000608,0.095317544515054170
0.811000000000000609,0.096556823001895511
0.812000000000000610,0.097790192547594246
0.813000000000000611,0.099017525908997955
0.814000000000000612,0.100238698404936516
0.815000000000000613,0.101453587899117043
0.816000000000000614,0.102662074782767759
0.817000000000000615,0.103864041956992059
0.818000000000000616,0.105059374814882520
0.819000000000000616,0.106247961223407322
0.820000000000000617,0.107429691505063957
0.821000000000000618,0.108604458419311461
0.822000000000000619,0.109772157143796692
0.823000000000000620,0.110932685255401925
0.824000000000000621,0.112085942711101949
0.825000000000000622,0.113231831828635915
0.826000000000000623,0.114370257267022921
0.827000000000000624,0.115501126006930563
0.828000000000000624,0.116624347330883296
0.829000000000000625,0.117739832803354649
0.830000000000000626,0.118847496250705939
0.831000000000000627,0.119947253741037277
0.832000000000000628,0.121039023563888695
0.833000000000000629,0.122122726209890065
0.834000000000000630,0.123198284350275425
0.835000000000000631,0.124265622816325999
0.836000000000000631,0.125324668578745524
0.837000000000000632,0.126375350726943420
0.838000000000000633,0.127417600448281043
0.839000000000000634,0.128451351007239090
0.840000000000000635,0.129476537724541096
0.841000000000000636,0.130493097956255966
0.842000000000000637,0.131500971072821854
0.843000000000000638,0.132500098438089853
0.844000000000000639,0.133490423388306217
0.845000000000000639,0.134471891211099065
0.846000000000000640,0.135444449124453442
0.847000000000000641,0.136408046255654225
0.848000000000000642,0.137362633620276009
0.849000000000000643,0.138308164101145992
0.850000000000000644,0.139244592427306968
0.851000000000000645,0.140171875153048520
0.852000000000000646,0.141089970636897766
0.853000000000000647,0.141998839020677975
0.854000000000000647,0.142898442208590160
0.855000000000000648,0.143788743846314626
0.856000000000000649,0.144669709300171256
0.857000000000000650,0.145541305636306434
0.858000000000000651,0.146403501599952746
0.859000000000000652,0.147256267594722018
0.860000000000000653,0.148099575661948840
0.861000000000000654,0.148933399460126986
0.862000000000000655,0.149757714244364959
0.863000000000000655,0.150572496845956166
0.864000000000000656,0.151377725651977130
0.865000000000000657,0.152173380584999934
0.866000000000000658,0.152959443082847063
0.867000000000000659,0.153735896078445233
0.868000000000000660,0.154502723979769913
0.869000000000000661,0.155259912649865522
0.870000000000000662,0.156007449386953045
0.871000000000000663,0.156745322904631779
0.872000000000000663,0.157473523312193164
0.873000000000000664,0.158192042095004426
0.874000000000000665,0.158900872095017076
0.875000000000000666,0.159600007491355167
0.876000000000000667,0.160289443781033464
0.877000000000000668,0.160969177759763327
0.878000000000000669,0.161639207502865145
0.879000000000000670,0.162299532346317166
0.880000000000000671,0.162950152867882947
0.881000000000000671,0.163591070868387617
0.882000000000000672,0.164222289353076506
0.883000000000000673,0.164843812513120969
0.884000000000000674,0.165455645707225873
0.885000000000000675,0.166057795443371126
0.886000000000000676,0.166650269360660047
0.887000000000000677,0.167233076211307952
0.888000000000000678,0.167806225842752732
0.889000000000000679,0.168369729179879635
0.890000000000000679,0.168923598207391834
0.891000000000000680,0.169467845952292778
0.892000000000000681,0.170002486466514391
0.893000000000000682,0.170527534809666814
0.894000000000000683,0.171043007031930039
0.895000000000000684,0.171548920157054252
0.896000000000000685,0.172045292165529051
0.897000000000000686,0.172532141977858267
0.898000000000000687,0.173009489437983277
0.899000000000000687,0.173477355296843022
0.900000000000000688,0.173935761196062272
0.901000000000000689,0.174384729651789472
0.902000000000000690,0.174824284038653216
0.903000000000000691,0.175254448573881783
0.904000000000000692,0.175675248301536663
0.905000000000000693,0.176086709076905878
0.906000000000000694,0.176488857551014428
0.907000000000000695,0.176881721155304372
0.908000000000000695,0.177265328086414597
0.909000000000000696,0.177639707291144616
0.910000000000000697,0.178004888451519849
0.911000000000000698,0.178360901970024632
0.912000000000000699,0.178707778954961732
0.913000000000000700,0.179045551205944953
0.914000000000000701,0.179374251199567680
0.915000000000000702,0.179693912075158169
0.916000000000000703,0.180004567620722700
0.917000000000000703,0.180306252259000654
0.918000000000000704,0.180599001033671713
0.919000000000000705,0.180882849595705275
0.920000000000000706,0.181157834189831668
0.921000000000000707,0.181423991641181143
0.922000000000000708,0.181681359342038801
0.923000000000000709,0.181929975238741382
0.924000000000000710,0.182169877818731896
0.925000000000000711,0.182401106097728472
0.926000000000000711,0.182623699607045137
0.927000000000000712,0.182837698381048214
0.928000000000000713,0.183043142944747800
0.929000000000000714,0.183240074301524392
0.930000000000000715,0.183428533921000780
0.931000000000000716,0.183608563727044372
0.932000000000000717,0.183780206085896708
0.933000000000000718,0.183943503794458479
0.934000000000000719,0.184098500068685139
0.935000000000000719,0.184245238532136008
0.936000000000000720,0.184383763204648610
0.937000000000000721,0.184514118491147627
0.938000000000000722,0.184636349170575254
0.939000000000000723,0.184750500384980393
0.940000000000000724,0.184856617628706199
0.941000000000000725,0.184954746737737985
0.942000000000000726,0.185044933879149498
0.943000000000000727,0.185127225540716672
0.944000000000000727,0.185201668520620699
0.945000000000000728,0.185268309917300783
0.946000000000000729,0.185327197119445702
0.947000000000000730,0.185378377796071553
0.948000000000000731,0.185421899886776542
0.949000000000000732,0.185457811592069588
0.950000000000000733,0.185486161363871499
0.951000000000000734,0.185506997896089626
0.952000000000000735,0.185520370115363042
0.953000000000000735,0.185526327171904870
0.954000000000000736,0.185524918430460983
0.955000000000000737,0.185516193461400719
0.956000000000000738,0.185500202031925215
0.957000000000000739,0.185476994097393294
0.958000000000000740,0.185446619792760919
0.959000000000000741,0.185409129424148528
0.960000000000000742,0.185364573460507720
0.961000000000000743,0.185313002525423376
0.962000000000000743,0.185254467389017768
0.963000000000000744,0.185189018959970669
0.964000000000000745,0.185116708277648284
0.965000000000000746,0.185037586504358337
0.966000000000000747,0.184951704917699966
0.967000000000000748,0.184859114903039468
0.968000000000000749,0.184759867946073075
0.969000000000000750,0.184654015625530243
0.970000000000000751,0.184541609605947093
0.971000000000000751,0.184422701630588465
0.972000000000000752,0.184297343514445683
0.973000000000000753,0.184165587137335329
0.974000000000000754,0.184027484437138400
0.975000000000000755,0.183883087403101386
0.976000000000000756,0.183732448069267251
0.977000000000000757,0.183575618507997834
0.978000000000000758,0.183412650823601864
0.979000000000000759,0.183243597146043491
0.980000000000000759,0.183068509624792874
0.981000000000000760,0.182887440422726616
0.982000000000000761,0.182700441710147932
0.983000000000000762,0.182507565658914128
0.984000000000000763,0.182308864436641238
0.985000000000000764,0.182104390201003413
0.986000000000000765,0.181894195094140926
0.987000000000000766,0.181678331237151797
0.988000000000000766,0.181456850724674185
0.989000000000000767,0.181229805619557621
0.990000000000000768,0.180997247947629669
0.991000000000000769,0.180759229692561696
0.992000000000000770,0.180515802790803287
0.993000000000000771,0.180267019126606809
0.994000000000000772,0.180012930527164022
0.995000000000000773,0.179753588757789601
0.996000000000000774,0.179489045517225249
0.997000000000000774,0.179219352433006268
0.998000000000000775,0.178944561056916640
0.999000000000000776,0.178664722860534669
1.000000000000000666,0.178379889230846411
1.001000000000000778,0.178090111465949635
1.002000000000000668,0.177795440770838475
1.003000000000000780,0.177495928253257523
1.004000000000000670,0.177191624919650709
1.005000000000000782,0.176882581671162720
1.006000000000000671,0.176568849299741093
1.007000000000000783,0.176250478484309969
1.008000000000000673,0.175927519787000997
1.009000000000000785,0.175600023649477882
1.010000000000000675,0.175268040389328000
1.011000000000000787,0.174931620196527388
1.012000000000000677,0.174590813129966632
1.013000000000000789,0.174245669114063334
1.014000000000000679,0.173896237935448256
1.015000000000000790,0.173542569239688665
1.016000000000000680,0.173184712528118456
1.017000000000000792,0.172822717154716698
1.018000000000000682,0.172456632323053388
1.019000000000000794,0.172086507083309137
1.020000000000000684,0.171712390329347736
1.021000000000000796,0.171334330795865103
1.022000000000000686,0.170952377055603788
1.023000000000000798,0.170566577516611917
1.024000000000000687,0.170176980419590895
1.025000000000000799,0.169783633835281333
1.026000000000000689,0.169386585661921774
1.027000000000000801,0.168985883622770727
1.028000000000000691,0.168581575263673400
1.029000000000000803,0.168173707950705520
1.030000000000000693,0.167762328867863048
1.031000000000000805,0.167347485014804814
1.032000000000000695,0.166929223204676430
1.033000000000000806,0.166507590061948485
1.034000000000000696,0.166082632020354726
1.035000000000000808,0.165654395320853826
1.036000000000000698,0.165222926009662374
1.037000000000000810,0.164788269936311571
1.038000000000000700,0.164350472751811444
1.039000000000000812,0.163909579906807878
1.040000000000000702,0.163465636649825330
1.041000000000000814,0.163018688025543479
1.042000000000000703,0.162568778873146719
1.043000000000000815,0.162115953824689379
1.044000000000000705,0.161660257303530119
1.045000000000000817,0.161201733522821772
1.046000000000000707,0.160740426484021731
1.047000000000000819,0.160276379975470867
1.048000000000000709,0.159809637571013130
1.049000000000000821,0.159340242628650847
1.050000000000000711,0.158868238289266855
1.051000000000000822,0.158393667475355382
1.052000000000000712,0.157916572889831491
1.053000000000000824,0.157436997014868962
1.054000000000000714,0.156954982110767499
1.055000000000000826,0.156470570214888721
1.056000000000000716,0.155983803140604921
1.057000000000000828,0.155494722476310965
1.058000000000000718,0.155003369584463285
1.059000000000000830,0.154509785600660920
1.060000000000000719,0.154014011432761999
1.061000000000000831,0.153516087760051073
1.062000000000000721,0.153016055032427933
1.063000000000000833,0.152513953469636643
1.064000000000000723,0.152009823060546057
1.065000000000000835,0.151503703562446079
1.066000000000000725,0.150995634500384585
1.067000000000000837,0.150485655166561261
1.068000000000000727,0.149973804619708911
1.069000000000000838,0.149460121684564184
1.070000000000000728,0.148944644951325783
1.071000000000000840,0.148427412775171963
1.072000000000000730,0.147908463275797486
1.073000000000000842,0.147387834336990070
1.074000000000000732,0.146865563606238925
1.075000000000000844,0.146341688494360411
1.076000000000000734,0.145816246175169917
1.077000000000000846,0.145289273585180012
1.078000000000000735,0.144760807423316318
1.079000000000000847,0.144230884150680833
1.080000000000000737,0.143699539990324976
1.081000000000000849,0.143166810927068761
1.082000000000000739,0.142632732707332760
1.083000000000000851,0.142097340839002995
1.084000000000000741,0.141560670591320326
1.085000000000000853,0.141022756994804183
1.086000000000000743,0.140483634841190808
1.087000000000000854,0.139943338683402391
1.088000000000000744,0.139401902835533525
1.089000000000000856,0.138859361372885071
1.090000000000000746,0.138315748131991489
1.091000000000000858,0.137771096710689017
1.092000000000000748,0.137225440468207338
1.093000000000000860,0.136678812525276694
1.094000000000000750,0.136131245764266912
1.095000000000000862,0.135582772829337228
1.096000000000000751,0.135033426126612621
1.097000000000000863,0.134483237824392476
1.098000000000000753,0.133932239853356894
1.099000000000000865,0.133380463906810159
1.100000000000000755,0.132827941440947533
1.101000000000000867,0.132274703675125893
1.102000000000000757,0.131720781592167241
1.103000000000000869,0.131166205938669761
1.104000000000000759,0.130611007225359010
1.105000000000000870,0.130055215727420681
1.106000000000000760,0.129498861484898031
1.107000000000000872,0.128941974303060897
1.108000000000000762,0.128384583752821857
1.109000000000000874,0.127826719171162978
1.110000000000000764,0.127268409661571991
1.111000000000000876,0.126709684094503311
1.112000000000000766,0.126150571107846415
1.113000000000000878,0.125591099107420112
1.114000000000000767,0.125031296267468284
1.115000000000000879,0.124471190531190518
1.116000000000000769,0.123910809611265299
1.117000000000000881,0.123350180990402292
1.118000000000000771,0.122789331921906358
1.119000000000000883,0.122228289430247591
1.120000000000000773,0.121667080311653561
1.121000000000000885,0.121105731134715192
1.122000000000000774,0.120544268240997704
1.123000000000000886,0.119982717745670556
1.124000000000000776,0.119421105538141697
1.125000000000000888,0.118859457282724248
1.126000000000000778,0.118297798419288738
1.127000000000000890,0.117736154163933723
1.128000000000000780,0.117174549509692236
1.129000000000000892,0.116613009227211073
1.130000000000000782,0.116051557865468905
1.131000000000000894,0.115490219752492337
1.132000000000000783,0.114929018996087581
1.133000000000000895,0.114367979484572266
1.134000000000000785,0.113807124887542216
1.135000000000000897,0.113246478656604505
1.136000000000000787,0.112686064026170901
1.137000000000000899,0.112125904014213656
1.138000000000000789,0.111566021423070677
1.139000000000000901,0.111006438840216520
1.140000000000000790,0.110447178639087512
1.141000000000000902,0.109888262979882703
1.142000000000000792,0.109329713810378010
1.143000000000000904,0.108771552866761656
1.144000000000000794,0.108213801674457114
1.145000000000000906,0.107656481548981137
1.146000000000000796,0.107099613596769005
1.147000000000000908,0.106543218716049284
1.148000000000000798,0.105987317597694489
1.149000000000000909,0.105431930726091361
1.150000000000000799,0.104877078380019667
1.151000000000000689,0.104322780633525319
1.152000000000000801,0.103769057356809830
1.153000000000000913,0.103215928217123887
1.154000000000000803,0.102663412679659394
1.155000000000000693,0.102111530008462292
1.156000000000000805,0.101560299267324572
1.157000000000000917,0.101009739320713471
1.158000000000000806,0.100459868834676766
1.159000000000000696,0.099910706277770836
1.160000000000000808,0.099362269921987531
1.161000000000000920,0.098814577843681597
1.162000000000000810,0.098267647924505791
1.163000000000000700,0.097721497852355149
1.164000000000000812,0.097176145122298802
1.165000000000000924,0.096631607037541548
1.166000000000000814,0.096087900710357416
1.167000000000000703,0.095545043063054669
1.168000000000000815,0.095003050828924046
1.169000000000000927,0.094461940553205198
1.170000000000000817,0.093921728594040299
1.171000000000000707,0.093382431123450335
1.172000000000000819,0.092844064128286941
1.173000000000000931,0.092306643411215680
1.174000000000000821,0.091770184591686260
1.175000000000000711,0.091234703106899018
1.176000000000000822,0.090700214212787289
1.177000000000000934,0.090166732984996972
1.178000000000000824,0.089634274319861859
1.179000000000000714,0.089102852935391635
1.180000000000000826,0.088572483372245436
1.181000000000000938,0.088043179994728132
1.182000000000000828,0.087514956991769144
1.183000000000000718,0.086987828377909956
1.184000000000000830,0.086461807994291859
1.185000000000000941,0.085936909509653964
1.186000000000000831,0.085413146421308664
1.187000000000000721,0.084890532056145079
1.188000000000000833,0.084369079571612632
1.189000000000000945,0.083848801956715457
1.190000000000000835,0.083329712033003517
1.191000000000000725,0.082811822455574197
1.192000000000000837,0.082295145714043588
1.193000000000000949,0.081779694133568781
1.194000000000000838,0.081265479875811175
1.195000000000000728,0.080752514939953862
1.196000000000000840,0.080240811163678483
1.197000000000000952,0.079730380224162248
1.198000000000000842,0.079221233639074268
1.199000000000000732,0.078713382767554907
1.200000000000000844,0.078206838811227725
1.201000000000000956,0.077701612815165008
1.202000000000000846,0.077197715668898104
1.203000000000000735,0.076695158107390263
1.204000000000000847,0.076193950712041159
1.205000000000000959,0.075694103911653557
1.206000000000000849,0.075195627983438207
1.207000000000000739,0.074698533053989630
1.208000000000000851,0.074202829100268208
1.209000000000000963,0.073708525950587189
1.210000000000000853,0.073215633285589624
1.211000000000000743,0.072724160639233593
1.212000000000000854,0.072234117399763306
1.213000000000000966,0.071745512810692094
1.214000000000000856,0.071258355971768661
1.215000000000000746,0.070772655839965753
1.216000000000000858,0.070288421230429859
1.217000000000000970,0.069805660817472887
1.218000000000000860,0.069324383135527037
1.219000000000000750,0.068844596580111703
1.220000000000000862,0.068366309408799827
1.221000000000000973,0.067889529742183902
1.222000000000000863,0.067414265564823897
1.223000000000000753,0.066940524726218670
1.224000000000000865,0.066468314941752066
1.225000000000000977,0.065997643793645172
1.226000000000000867,0.065528518731916188
1.227000000000000757,0.065060947075319925
1.228000000000000869,0.064594936012302581
1.229000000000000981,0.064130492601926950
1.230000000000000870,0.063667623774841559
1.231000000000000760,0.063206336334194271
1.232000000000000872,0.062746636956576035
1.233000000000000984,0.062288532192964027
1.234000000000000874,0.061832028469633746
1.235000000000000764,0.061377132089104322
1.236000000000000876,0.060923849231049113
1.237000000000000988,0.060472185953229882
1.238000000000000878,0.060022148192404222
1.239000000000000767,0.059573741765253083
1.240000000000000879,0.059126972369284568
1.241000000000000991,0.058681845583750267
1.242000000000000881,0.058238366870553240
1.243000000000000771,0.057796541575145230
1.244000000000000883,0.057356374927437503
1.245000000000000995,0.056917872042690484
1.246000000000000885,0.056481037922413289
1.247000000000000774,0.056045877455254925
1.248000000000000886,0.055612395417892535
1.249000000000000998,0.055180596475916312
1.250000000000000888,0.054750485184709652
1.251000000000000778,0.054322065990333256
1.252000000000000890,0.053895343230394147
1.253000000000001002,0.053470321134927536
1.254000000000000892,0.053047003827249195
1.255000000000000782,0.052625395324837176
1.256000000000000894,0.052205499540186204
1.257000000000001005,0.051787320281665050
1.258000000000000895,0.051370861254373089
1.259000000000000785,0.050956126060994110
1.260000000000000897,0.050543118202641658
1.261000000000001009,0.050131841079699722
1.262000000000000899,0.049722297992675343
1.263000000000000789,0.049314492143022880
1.264000000000000901,0.048908426633982649
1.265000000000001013,0.048504104471415371
1.266000000000000902,0.048101528564622256
1.267000000000000792,0.047700701727169788
1.268000000000000904,0.047301626677711643
1.269000000000001016,0.046904306040800862
1.270000000000000906,0.046508742347701026
1.271000000000000796,0.046114938037197392
1.272000000000000908,0.045722895456401541
1.273000000000001020,0.045332616861547957
1.274000000000000909,0.044944104418793637
1.275000000000000799,0.044557360205014877
1.276000000000000911,0.044172386208585157
1.277000000000001023,0.043789184330176395
1.278000000000000913,0.043407756383528742
1.279000000000000803,0.043028104096233311
1.280000000000000915,0.042650229110501911
1.281000000000001027,0.042274132983951329
1.282000000000000917,0.041899817190349679
1.283000000000000806,0.041527283120396122
1.284000000000000918,0.041156532082468125
1.285000000000001030,0.040787565303386959
1.286000000000000920,0.040420383929160135
1.287000000000000810,0.040054989025734844
1.288000000000000922,0.039691381579734675
1.289000000000001034,0.039329562499206897
1.290000000000000924,0.038969532614358898
1.291000000000000814,0.038611292678278120
1.292000000000000925,0.038254843367676858
1.293000000000001037,0.037900185283601624
1.294000000000000927,0.037547318952162768
1.295000000000000817,0.037196244825249095
1.296000000000000929,0.036846963281237308
1.297000000000001041,0.036499474625706504
1.298000000000000931,0.036153779092136767
1.299000000000000821,0.035809876842611471
1.300000000000000933,0.035467767968520206
1.301000000000001044,0.035127452491244451
1.302000000000000934,0.034788930362853347
1.303000000000000824,0.034452201466779055
1.304000000000000936,0.034117265618513734
1.305000000000001048,0.033784122566273403
1.306000000000000938,0.033452771991674249
1.307000000000000828,0.033123213510413321
1.308000000000000940,0.032795446672923272
1.309000000000001052,0.032469470965032519
1.310000000000000941,0.032145285808635002
1.311000000000000831,0.031822890562335907
1.312000000000000943,0.031502284522110582
1.313000000000001055,0.031183466921933800
1.314000000000000945,0.030866436934445695
1.315000000000000835,0.030551193671575549
1.316000000000000947,0.030237736185181708
1.317000000000001059,0.029926063467679443
1.318000000000000949,0.029616174452678258
1.319000000000000838,0.029308068015591670
1.320000000000000950,0.029001742974266841
1.321000000000001062,0.028697198089601795
1.322000000000000952,0.028394432066149798
1.323000000000000842,0.028093443552735353
1.324000000000000954,0.027794231143052593
1.325000000000001066,0.027496793376274708
1.326000000000000956,0.027201128737639069
1.327000000000000846,0.026907235659055933
1.328000000000000957,0.026615112519680729
1.329000000000001069,0.026324757646517798
1.330000000000000959,0.026036169314986719
1.331000000000000849,0.025749345749509885
1.332000000000000961,0.025464285124087393
1.333000000000001073,0.025180985562865847
1.334000000000000963,0.024899445140700745
1.335000000000000853,0.024619661883731724
1.336000000000000965,0.024341633769929309
1.337000000000001076,0.024065358729660733
1.338000000000000966,0.023790834646240312
1.339000000000000856,0.023518059356473813
1.340000000000000968,0.023247030651209123
1.341000000000001080,0.022977746275877411
1.342000000000000970,0.022710203931026584
1.343000000000000860,0.022444401272861438
1.344000000000000972,0.022180335913770353
1.345000000000001084,0.021918005422851217
1.346000000000000973,0.021657407326441579
1.347000000000000863,0.021398539108631688
1.348000000000000975,0.021141398211787173
1.349000000000001087,0.020885982037055308
1.350000000000000977,0.020632287944878484
1.351000000000000867,0.020380313255497554
1.352000000000000979,0.020130055249462556
1.353000000000001091,0.019881511168116178
1.354000000000000981,0.019634678214100511
1.355000000000000870,0.019389553551848560
1.356000000000000982,0.019146134308069111
1.357000000000001094,0.018904417572227626
1.358000000000000984,0.018664400397039052
1.359000000000000874,0.018426079798937876
1.360000000000000986,0.018189452758551800
1.361000000000001098,0.017954516221175772
1.362000000000000988,0.017721267097241988
1.363000000000000878,0.017489702262782018
1.364000000000000989,0.017259818559881710
1.365000000000001101,0.017031612797151457
1.366000000000000991,0.016805081750172431
1.367000000000000881,0.016580222161947940
1.368000000000000993,0.016357030743351750
1.369000000000001105,0.016135504173574615
1.370000000000000995,0.015915639100563327
1.371000000000000885,0.015697432141460476
1.372000000000000997,0.015480879883036831
1.373000000000001108,0.015265978882119859
1.374000000000000998,0.015052725666036779
1.375000000000000888,0.014841116733015225
1.376000000000001000,0.014631148552626507
1.377000000000001112,0.014422817566193052
1.378000000000001002,0.014216120187206849
1.379000000000000892,0.014011052801741964
1.380000000000001004,0.013807611768863168
1.381000000000001116,0.013605793421027490
1.382000000000001005,0.013405594064496729
1.383000000000000895,0.013207009979729211
1.384000000000001007,0.013010037421778023
1.385000000000001119,0.012814672620685610
1.386000000000001009,0.012620911781872978
1.387000000000000899,0.012428751086533301
1.388000000000001011,0.012238186691998873
1.389000000000001123,0.012049214732146814
1.390000000000001013,0.011861831317758179
1.391000000000000902,0.011676032536902775
1.392000000000001014,0.011491814455308443
1.393000000000001126,0.011309173116731467
1.394000000000001016,0.011128104543319531
1.395000000000000906,0.010948604735980029
1.396000000000001018,0.010770669674741672
1.397000000000001130,0.010594295319104583
1.398000000000001020,0.010419477608402433
1.399000000000000909,0.010246212462150234
1.400000000000001021,0.010074495780398238
1.401000000000001133,0.009904323444069251
1.402000000000001023,0.009735691315312925
1.403000000000000913,0.009568595237839077
1.404000000000001025,0.009403031037255653
1.405000000000001137,0.009238994521408927
1.406000000000001027,0.009076481480711034
1.407000000000000917,0.008915487688465734
1.408000000000001029,0.008756008901208284
1.409000000000001140,0.008598040859014335
1.410000000000001030,0.008441579285831726
1.411000000000000920,0.008286619889792518
1.412000000000001032,0.008133158363534676
1.413000000000001144,0.007981190384508860
1.414000000000001034,0.007830711615294136
1.415000000000000924,0.007681717703905283
1.416000000000001036,0.007534204284093718
1.417000000000001148,0.007388166975652801
1.418000000000001037,0.007243601384721243
1.419000000000000927,0.007100503104076047
1.420000000000001039,0.006958867713430625
1.421000000000001151,0.006818690779721549
1.422000000000001041,0.006679967857404425
1.423000000000000931,0.006542694488739872
1.424000000000001043,0.006406866204076054
1.425000000000001155,0.006272478522131751
1.426000000000001044,0.006139526950278379
1.427000000000000934,0.006008006984812668
1.428000000000001046,0.005877914111236201
1.429000000000001158,0.005749243804527392
1.430000000000001048,0.005621991529404131
1.431000000000000938,0.005496152740605378
1.432000000000001050,0.005371722883141663
1.433000000000001162,0.005248697392565770
1.434000000000001052,0.005127071695234383
1.435000000000000941,0.005006841208558652
1.436000000000001053,0.004888001341267957
1.437000000000001165,0.004770547493662096
1.438000000000001055,0.004654475057853674
1.439000000000000945,0.004539779418028209
1.440000000000001057,0.004426455950682852
1.441000000000001169,0.004314500024878304
1.442000000000001059,0.004203907002473630
1.443000000000000949,0.004094672238363841
1.444000000000001060,0.003986791080725388
1.445000000000001172,0.003880258871252723
1.446000000000001062,0.003775070945375850
1.447000000000000952,0.003671222632511618
1.448000000000001064,0.003568709256276690
1.449000000000001176,0.003467526134719545
1.450000000000001066,0.003367668580549380
1.451000000000000956,0.003269131901350947
1.452000000000001068,0.003171911399808448
1.453000000000001180,0.003076002373923219
1.454000000000001069,0.002981400117229990
1.455000000000000959,0.002888099919007076
1.456000000000001071,0.002796097064496956
1.457000000000001183,0.002705386835102879
1.458000000000001073,0.002615964508606741
1.459000000000000963,0.002527825359374229
1.460000000000001075,0.002440964658552342
1.461000000000001187,0.002355377674278795
1.462000000000001076,0.002271059671869308
1.463000000000000966,0.002188005914031768
1.464000000000001078,0.002106211661050280
1.465000000000001190,0.002025672170978650
1.466000000000001080,0.001946382699841667
1.467000000000000970,0.001868338501815356
1.468000000000001082,0.001791534829417034
1.469000000000001194,0.001715966933695940
1.470000000000001084,0.001641630064412802
1.471000000000000973,0.001568519470225042
1.472000000000001085,0.001496630398861236
1.473000000000001197,0.001425958097308394
1.474000000000001087,0.001356497811982164
1.475000000000000977,0.001288244788907247
1.476000000000001089,0.001221194273883236
1.477000000000001201,0.001155341512661082
1.478000000000001091,0.001090681751113243
1.479000000000000981,0.001027210235397734
1.480000000000001092,0.000964922212128193
1.481000000000001204,0.000903812928533996
1.482000000000001094,0.000843877632625815
1.483000000000000984,0.000785111573353135
1.484000000000001096,0.000727510000767159
1.485000000000001208,0.000671068166179746
1.486000000000001098,0.000615781322309337
1.487000000000000988,0.000561644723445308
1.488000000000001100,0.000508653625598312
1.489000000000001211,0.000456803286643133
1.490000000000001101,0.000406088966479409
1.491000000000000991,0.000356505927171109
1.492000000000001103,0.000308049433092456
1.493000000000001215,0.000260714751075372
1.494000000000001105,0.000214497150552871
1.495000000000000995,0.000169391903695398
1.496000000000001107,0.000125394285553304
1.497000000000001219,0.000082499574194683
1.498000000000001108,0.000040703050839902
1.499000000000000998,0.000000000000000000
