# CNT15-NH3+-4_BSAI2
# h[nm],U(h)[kJ/mol]
0.149999999999999994,107.127611647062650491
0.150999999999999995,107.171908710664482101
0.151999999999999996,105.208142019472646211
0.152999999999999997,102.865350165938366445
0.153999999999999998,100.727235248580626603
0.154999999999999999,98.893756133761883120
0.156000000000000000,97.280775130110015425
0.157000000000000001,95.766940498557573846
0.158000000000000002,94.255373279676291531
0.159000000000000002,92.690885714168103959
0.160000000000000003,91.056433045126325965
0.161000000000000004,89.361924679683070849
0.162000000000000005,87.632126377661506922
0.163000000000000006,85.896657647150760795
0.164000000000000007,84.183027108819004525
0.165000000000000008,82.512600484356070751
0.166000000000000009,80.898941957887075205
0.167000000000000010,79.347846142114178747
0.168000000000000010,77.858422928112062777
0.169000000000000011,76.424715270939046263
0.170000000000000012,75.037466532096587457
0.171000000000000013,73.685781414574847759
0.172000000000000014,72.358530426062259266
0.173000000000000015,71.045428754379713610
0.174000000000000016,69.737777742498707312
0.175000000000000017,68.428894310215724772
0.176000000000000018,67.114274894449238218
0.177000000000000018,65.791549870794924004
0.178000000000000019,64.460285568973716863
0.179000000000000020,63.121686840437178034
0.180000000000000021,61.778245947232491631
0.181000000000000022,60.433374983317357021
0.182000000000000023,59.091050269946848061
0.183000000000000024,57.755488935339677425
0.184000000000000025,56.430870633761500699
0.185000000000000026,55.121111290372027725
0.186000000000000026,53.829690926191958056
0.187000000000000027,52.559533968021717953
0.188000000000000028,51.312937863487000811
0.189000000000000029,50.091544151327710210
0.190000000000000030,48.896345220189772363
0.191000000000000031,47.727719667482425336
0.192000000000000032,46.585489297654262941
0.193000000000000033,45.468991248244627457
0.194000000000000034,44.377159393561456113
0.195000000000000034,43.308609960843270414
0.196000000000000035,42.261727131979718308
0.197000000000000036,41.234745241849637409
0.198000000000000037,40.225824983299716564
0.199000000000000038,39.233121762296562451
0.200000000000000039,38.254844998502932185
0.201000000000000040,37.289307728121727337
0.202000000000000041,36.334966335141402283
0.203000000000000042,35.390450616463922984
0.204000000000000042,34.454584681352500297
0.205000000000000043,33.526399403839278079
0.206000000000000044,32.605137297016213438
0.207000000000000045,31.690250769851843415
0.208000000000000046,30.781394769680741064
0.209000000000000047,29.878414815782385006
0.210000000000000048,28.981331399853168307
0.211000000000000049,28.090321675246723743
0.212000000000000050,27.205699285301676582
0.213000000000000050,26.327893097689447188
0.214000000000000051,25.457425521392998746
0.215000000000000052,24.594890989730004094
0.216000000000000053,23.740935100030277738
0.217000000000000054,22.896234810730348386
0.218000000000000055,22.061480011690271397
0.219000000000000056,21.237356704860189893
0.220000000000000057,20.424531960940697672
0.221000000000000058,19.623640753935298164
0.222000000000000058,18.835274719682246314
0.223000000000000059,18.059972836547956376
0.224000000000000060,17.298213986210651427
0.225000000000000061,16.550411319474413574
0.226000000000000062,15.816908325828169524
0.227000000000000063,15.097976485429944304
0.228000000000000064,14.393814367742200133
0.229000000000000065,13.704548031536257113
0.230000000000000066,13.030232575799184147
0.231000000000000066,12.370854689598878906
0.232000000000000067,11.726336050615460138
0.233000000000000068,11.096537426280258742
0.234000000000000069,10.481263337776869804
0.235000000000000070,9.880267155093566345
0.236000000000000071,9.293256500463360936
0.237000000000000072,8.719898847521728058
0.238000000000000073,8.159827214038312349
0.239000000000000073,7.612645856863146321
0.240000000000000074,7.077935888536609710
0.241000000000000075,6.555260745657420784
0.242000000000000076,6.044171449422593767
0.243000000000000077,5.544211608623983878
0.244000000000000078,5.054922124711963782
0.245000000000000079,4.575845567245251821
0.246000000000000080,4.106530196089941853
0.247000000000000081,3.646533614078381280
0.248000000000000081,3.195426040479277585
0.249000000000000082,2.752793201562906855
0.250000000000000111,2.318238839781936012
0.251000000000000112,1.891386847651349568
0.252000000000000113,1.471883036326325778
0.253000000000000114,1.059396552183370144
0.254000000000000115,0.653620957439298711
0.255000000000000115,0.254274993042361896
0.256000000000000116,-0.138896956222607171
0.257000000000000117,-0.526124673211389116
0.258000000000000118,-0.907612174417555040
0.259000000000000119,-1.283538007930228542
0.260000000000000120,-1.654055760615237514
0.261000000000000121,-2.019294751883831118
0.262000000000000122,-2.379360891758003582
0.263000000000000123,-2.734337681491628924
0.264000000000000123,-3.084287335731763502
0.265000000000000124,-3.429252006071536130
0.266000000000000125,-3.769255086828799506
0.267000000000000126,-4.104302584956029065
0.268000000000000127,-4.434384537125422021
0.269000000000000128,-4.759476458215535111
0.270000000000000129,-5.079540806636378747
0.271000000000000130,-5.394528453150605252
0.272000000000000131,-5.704380141065423793
0.273000000000000131,-6.009027926871610248
0.274000000000000132,-6.308396591580991419
0.275000000000000133,-6.602405014154574481
0.276000000000000134,-6.890967499511761574
0.277000000000000135,-7.173995054661014947
0.278000000000000136,-7.451396607491174606
0.279000000000000137,-7.723080163704257650
0.280000000000000138,-7.988953898254417929
0.281000000000000139,-8.248927178482569289
0.282000000000000139,-8.502911516899374078
0.283000000000000140,-8.750821452273282119
0.284000000000000141,-8.992575358323685819
0.285000000000000142,-9.228096179904285989
0.286000000000000143,-9.457312097089610958
0.287000000000000144,-9.680157118049715237
0.288000000000000145,-9.896571602018036984
0.289000000000000146,-10.106502714024804490
0.290000000000000147,-10.309904813389650258
0.291000000000000147,-10.506739778240747896
0.292000000000000148,-10.696977268560440066
0.293000000000000149,-10.880594930448150848
0.294000000000000150,-11.057578544446625912
0.295000000000000151,-11.227922120897083857
0.296000000000000152,-11.391627945377479136
0.297000000000000153,-11.548706577337208401
0.298000000000000154,-11.699176805074674945
0.299000000000000155,-11.843065560213068110
0.300000000000000155,-11.980407794817448774
0.301000000000000156,-12.111246324264332230
0.302000000000000157,-12.235631638927049636
0.303000000000000158,-12.353621687676197283
0.304000000000000159,-12.465281636118643149
0.305000000000000160,-12.570683602410889890
0.306000000000000161,-12.669906373386075060
0.307000000000000162,-12.763035103629281508
0.308000000000000163,-12.850161000024888480
0.309000000000000163,-12.931380994184021205
0.310000000000000164,-13.006797405040529725
0.311000000000000165,-13.076517593781659343
0.312000000000000166,-13.140653613156047186
0.313000000000000167,-13.199321853077055522
0.314000000000000168,-13.252642684315222965
0.315000000000000169,-13.300740101950305316
0.316000000000000170,-13.343741370131656510
0.317000000000000171,-13.381776669575717875
0.318000000000000171,-13.414978749112581369
0.319000000000000172,-13.443482582479536092
0.320000000000000173,-13.467425031448772899
0.321000000000000174,-13.486944516269577576
0.322000000000000175,-13.502180694302476027
0.323000000000000176,-13.513274147623999255
0.324000000000000177,-13.520366080286269295
0.325000000000000178,-13.523598025825439350
0.326000000000000179,-13.523111565527946354
0.327000000000000179,-13.519048057882063318
0.328000000000000180,-13.511548379565956779
0.329000000000000181,-13.500752678251950911
0.330000000000000182,-13.486800137438518021
0.331000000000000183,-13.469828753459481163
0.332000000000000184,-13.449975124760413792
0.333000000000000185,-13.427374253478443933
0.334000000000000186,-13.402159359311164977
0.335000000000000187,-13.374461705614109519
0.336000000000000187,-13.344410437624144805
0.337000000000000188,-13.312132432667032944
0.338000000000000189,-13.277752162172982153
0.339000000000000190,-13.241391565292095933
0.340000000000000191,-13.203169933873217801
0.341000000000000192,-13.163203808545034690
0.342000000000000193,-13.121606885615500815
0.343000000000000194,-13.078489934486873025
0.344000000000000195,-13.033960725266434011
0.345000000000000195,-12.988123966239328411
0.346000000000000196,-12.941081250857681795
0.347000000000000197,-12.892931013890802205
0.348000000000000198,-12.843768496373716204
0.349000000000000199,-12.793685718985537747
0.350000000000000200,-12.742771463485549788
0.351000000000000201,-12.691111261832448420
0.352000000000000202,-12.638787392611744664
0.353000000000000203,-12.585878884396986876
0.354000000000000203,-12.532461525672465186
0.355000000000000204,-12.478607880948304754
0.356000000000000205,-12.424387312703013109
0.357000000000000206,-12.369866008794016210
0.358000000000000207,-12.315107014982297429
0.359000000000000208,-12.260170272224673482
0.360000000000000209,-12.205112658394293490
0.361000000000000210,-12.149988034098296197
0.362000000000000210,-12.094847292270090477
0.363000000000000211,-12.039738411222767667
0.364000000000000212,-11.984706510859790995
0.365000000000000213,-11.929793911748515001
0.366000000000000214,-11.875040196772463474
0.367000000000000215,-11.820482275088153301
0.368000000000000216,-11.766154448122961185
0.369000000000000217,-11.712088477360570238
0.370000000000000218,-11.658313653671402932
0.371000000000000218,-11.604856867955641420
0.372000000000000219,-11.551742682877117474
0.373000000000000220,-11.498993405476760188
0.374000000000000221,-11.446629160464537378
0.375000000000000222,-11.394667963998998061
0.376000000000000223,-11.343125797773932817
0.377000000000000224,-11.292016683241092423
0.378000000000000225,-11.241352755808062369
0.379000000000000226,-11.191144338859666973
0.380000000000000226,-11.141400017460734162
0.381000000000000227,-11.092126711607045664
0.382000000000000228,-11.043329748900188036
0.383000000000000229,-10.995012936530716985
0.384000000000000230,-10.947178632462033931
0.385000000000000231,-10.899827815716088608
0.386000000000000232,-10.852960155669050479
0.387000000000000233,-10.806574080273332328
0.388000000000000234,-10.760666843129099490
0.389000000000000234,-10.715234589335723925
0.390000000000000235,-10.670272420060092244
0.391000000000000236,-10.625774455765387927
0.392000000000000237,-10.581733898049751730
0.393000000000000238,-10.538143090050596129
0.394000000000000239,-10.494993575375428208
0.395000000000000240,-10.452276155525892065
0.396000000000000241,-10.409980945786461604
0.397000000000000242,-10.368097429554200772
0.398000000000000242,-10.326614511090683735
0.399000000000000243,-10.285520566681256582
0.400000000000000244,-10.244803494191128124
0.401000000000000245,-10.204450761011663928
0.402000000000000246,-10.164449450393567176
0.403000000000000247,-10.124786306167511185
0.404000000000000248,-10.085447775855612917
0.405000000000000249,-10.046420052180325300
0.406000000000000250,-10.007689112979941015
0.407000000000000250,-9.969240759542760344
0.408000000000000251,-9.931060653374059299
0.409000000000000252,-9.893134351412479432
0.410000000000000253,-9.855447339714352495
0.411000000000000254,-9.817985065626427144
0.412000000000000255,-9.780732968469161293
0.413000000000000256,-9.743676508754345988
0.414000000000000257,-9.706801195962166062
0.415000000000000258,-9.670092614904186590
0.416000000000000258,-9.633536450699859088
0.417000000000000259,-9.597118512395095280
0.418000000000000260,-9.560824755252543383
0.419000000000000261,-9.524641301743653088
0.420000000000000262,-9.488554461273739804
0.421000000000000263,-9.452550748671450620
0.422000000000000264,-9.416616901474593959
0.423000000000000265,-9.380739896044836712
0.424000000000000266,-9.344906962543939599
0.425000000000000266,-9.309105598804354287
0.426000000000000267,-9.273323583127281111
0.427000000000000268,-9.237548986041243637
0.428000000000000269,-9.201770181054282460
0.429000000000000270,-9.165975854432817371
0.430000000000000271,-9.130155014039980088
0.431000000000000272,-9.094296997266216209
0.432000000000000273,-9.058391478084594439
0.433000000000000274,-9.022428473263005344
0.434000000000000274,-8.986398347765137018
0.435000000000000275,-8.950291819371717139
0.436000000000000276,-8.914099962553162726
0.437000000000000277,-8.877814211624237117
0.438000000000000278,-8.841426363211002837
0.439000000000000279,-8.804928578059747935
0.440000000000000280,-8.768313382217051810
0.441000000000000281,-8.731573667609692890
0.442000000000000282,-8.694702692052546311
0.443000000000000282,-8.657694078711845265
0.444000000000000283,-8.620541815050929202
0.445000000000000284,-8.583240251284667721
0.446000000000000285,-8.545784098368327975
0.447000000000000286,-8.508168425546056568
0.448000000000000287,-8.470388657483260531
0.449000000000000288,-8.432440571006935670
0.450000000000000289,-8.394320291476947915
0.451000000000000290,-8.356024288810903755
0.452000000000000290,-8.317549373184515815
0.453000000000000291,-8.278892690428683920
0.454000000000000292,-8.240051717143916932
0.455000000000000293,-8.201024255552104236
0.456000000000000294,-8.161808428104894375
0.457000000000000295,-8.122402671867531510
0.458000000000000296,-8.082805732696026979
0.459000000000000297,-8.043016659225331821
0.460000000000000298,-8.003034796685179586
0.461000000000000298,-7.962859780559969458
0.462000000000000299,-7.922491530108243474
0.463000000000000300,-7.881930241756792910
0.464000000000000301,-7.841176382383972410
0.465000000000000302,-7.800230682505983282
0.466000000000000303,-7.759094129379524141
0.467000000000000304,-7.717767960033603103
0.468000000000000305,-7.676253654242714219
0.469000000000000306,-7.634552927453087889
0.470000000000000306,-7.592667723673310221
0.471000000000000307,-7.550600208339794506
0.472000000000000308,-7.508352761167550682
0.473000000000000309,-7.465927968995733188
0.474000000000000310,-7.423328618637372145
0.475000000000000311,-7.380557689741914729
0.476000000000000312,-7.337618347679127240
0.477000000000000313,-7.294513936451968661
0.478000000000000314,-7.251247971646131774
0.479000000000000314,-7.207824133423248902
0.480000000000000315,-7.164246259564331254
0.481000000000000316,-7.120518338569882921
0.482000000000000317,-7.076644502822411198
0.483000000000000318,-7.032629021816987347
0.484000000000000319,-6.988476295464964849
0.485000000000000320,-6.944190847475750772
0.486000000000000321,-6.899777318821085359
0.487000000000000322,-6.855240461286042475
0.488000000000000322,-6.810585131110590495
0.489000000000000323,-6.765816282725398700
0.490000000000000324,-6.720938962585067955
0.491000000000000325,-6.675958303101873881
0.492000000000000326,-6.630879516682732344
0.493000000000000327,-6.585707889871962095
0.494000000000000328,-6.540448777602000163
0.495000000000000329,-6.495107597554179435
0.496000000000000330,-6.449689824631276380
0.497000000000000330,-6.404200985543515579
0.498000000000000331,-6.358646653509206104
0.499000000000000332,-6.313032443071458388
0.500000000000000333,-6.267364005031700103
0.501000000000000334,-6.221647021500893437
0.502000000000000335,-6.175887201069117260
0.503000000000000336,-6.130090274093907610
0.504000000000000337,-6.084261988107686037
0.505000000000000338,-6.038408103344388600
0.506000000000000338,-5.992534388385388766
0.507000000000000339,-5.946646615924480628
0.508000000000000340,-5.900750558651701283
0.509000000000000341,-5.854851985255725921
0.510000000000000342,-5.808956656544126851
0.511000000000000343,-5.763070321681103891
0.512000000000000344,-5.717198714541821047
0.513000000000000345,-5.671347550182663788
0.514000000000000346,-5.625522521426498557
0.515000000000000346,-5.579729295561877578
0.516000000000000347,-5.533973511155226177
0.517000000000000348,-5.488260774974897060
0.518000000000000349,-5.442596659025733530
0.519000000000000350,-5.396986697693103352
0.520000000000000351,-5.351436384994864071
0.521000000000000352,-5.305951171940037625
0.522000000000000353,-5.260536463992677270
0.523000000000000353,-5.215197618639401789
0.524000000000000354,-5.169939943059274512
0.525000000000000355,-5.124768691894188599
0.526000000000000356,-5.079689065118353497
0.527000000000000357,-5.034706206005239437
0.528000000000000358,-4.989825199190168981
0.529000000000000359,-4.945051068827099883
0.530000000000000360,-4.900388776837663052
0.531000000000000361,-4.855843221250919939
0.532000000000000361,-4.811419234631935993
0.533000000000000362,-4.767121582597546592
0.534000000000000363,-4.722954962417452052
0.535000000000000364,-4.678924001698901769
0.536000000000000365,-4.635033257153192032
0.537000000000000366,-4.591287213442168280
0.538000000000000367,-4.547690282102907489
0.539000000000000368,-4.504246800548928675
0.540000000000000369,-4.460961031145901146
0.541000000000000369,-4.417837160360354787
0.542000000000000370,-4.374879297979326509
0.543000000000000371,-4.332091476399390295
0.544000000000000372,-4.289477649983181706
0.545000000000000373,-4.247041694481714202
0.546000000000000374,-4.204787406520689608
0.547000000000000375,-4.162718503149132054
0.548000000000000376,-4.120838621448601913
0.549000000000000377,-4.079151318201277299
0.550000000000000377,-4.037660069615191638
0.551000000000000378,-3.996368271105011249
0.552000000000000379,-3.955279237126678282
0.553000000000000380,-3.914396201064245240
0.554000000000000381,-3.873722315167307251
0.555000000000000382,-3.833260650537519076
0.556000000000000383,-3.793014197162411172
0.557000000000000384,-3.752985863995229376
0.558000000000000385,-3.713178479078996563
0.559000000000000385,-3.673594789713473752
0.560000000000000386,-3.634237462663457929
0.561000000000000387,-3.595109084406946209
0.562000000000000388,-3.556212161421741236
0.563000000000000389,-3.517549120509090077
0.564000000000000390,-3.479122309152939074
0.565000000000000391,-3.440933995913449284
0.566000000000000392,-3.402986370853428699
0.567000000000000393,-3.365281545996376078
0.568000000000000393,-3.327821555814793442
0.569000000000000394,-3.290608357747528689
0.570000000000000395,-3.253643832744960385
0.571000000000000396,-3.216929785840654255
0.572000000000000397,-3.180467946748484653
0.573000000000000398,-3.144259970483874067
0.574000000000000399,-3.108307438008167445
0.575000000000000400,-3.072611856894858384
0.576000000000000401,-3.037174662016707050
0.577000000000000401,-3.001997216252651146
0.578000000000000402,-2.967080811213373970
0.579000000000000403,-2.932426667984610269
0.580000000000000404,-2.898035937887186275
0.581000000000000405,-2.863909703252744077
0.582000000000000406,-2.830048978214296795
0.583000000000000407,-2.796454709510594050
0.584000000000000408,-2.763127777303503230
0.585000000000000409,-2.730068996007434468
0.586000000000000409,-2.697279115129995741
0.587000000000000410,-2.664758820123068084
0.588000000000000411,-2.632508733243430932
0.589000000000000412,-2.600529414422223962
0.590000000000000413,-2.568821362142406528
0.591000000000000414,-2.537385014323516597
0.592000000000000415,-2.506220749213039500
0.593000000000000416,-2.475328886283572949
0.594000000000000417,-2.444709687135208753
0.595000000000000417,-2.414363356402510430
0.596000000000000418,-2.384290042665231812
0.597000000000000419,-2.354489839362472914
0.598000000000000420,-2.324962785709371982
0.599000000000000421,-2.295708867615966042
0.600000000000000422,-2.266728018607542250
0.601000000000000423,-2.238020120745999986
0.602000000000000424,-2.209585005551646386
0.603000000000000425,-2.181422454924970999
0.604000000000000425,-2.153532202067865775
0.605000000000000426,-2.125913932403840523
0.606000000000000427,-2.098567284496822172
0.607000000000000428,-2.071491850967940529
0.608000000000000429,-2.044687179410154876
0.609000000000000430,-2.018152773299973113
0.610000000000000431,-1.991888092906213714
0.611000000000000432,-1.965892556195173224
0.612000000000000433,-1.940165539731950828
0.613000000000000433,-1.914706379577617357
0.614000000000000434,-1.889514372181833490
0.615000000000000435,-1.864588775270579646
0.616000000000000436,-1.839928808728775511
0.617000000000000437,-1.815533655477472141
0.618000000000000438,-1.791402462345289548
0.619000000000000439,-1.767534340933857973
0.620000000000000440,-1.743928368477072777
0.621000000000000441,-1.720583588693835209
0.622000000000000441,-1.697499012634105853
0.623000000000000442,-1.674673619518022516
0.624000000000000443,-1.652106357567894035
0.625000000000000444,-1.629796144832903249
0.626000000000000445,-1.607741870006241358
0.627000000000000446,-1.585942393234642367
0.628000000000000447,-1.564396546920007625
0.629000000000000448,-1.543103136513075624
0.630000000000000449,-1.522060941298940540
0.631000000000000449,-1.501268715174282509
0.632000000000000450,-1.480725187416226607
0.633000000000000451,-1.460429063442667319
0.634000000000000452,-1.440379025563963689
0.635000000000000453,-1.420573733725928989
0.636000000000000454,-1.401011826243969915
0.637000000000000455,-1.381691920528374862
0.638000000000000456,-1.362612613800560979
0.639000000000000457,-1.343772483800328432
0.640000000000000457,-1.325170089483983515
0.641000000000000458,-1.306803971713267565
0.642000000000000459,-1.288672653935145851
0.643000000000000460,-1.270774642852241065
0.644000000000000461,-1.253108429084061282
0.645000000000000462,-1.235672487818861409
0.646000000000000463,-1.218465279456148131
0.647000000000000464,-1.201485250239848090
0.648000000000000465,-1.184730832882085583
0.649000000000000465,-1.168200447177554668
0.650000000000000466,-1.151892500608534542
0.651000000000000467,-1.135805388940479554
0.652000000000000468,-1.119937496808252497
0.653000000000000469,-1.104287198292970285
0.654000000000000470,-1.088852857489509551
0.655000000000000471,-1.073632829064661953
0.656000000000000472,-1.058625458805982245
0.657000000000000473,-1.043829084161341791
0.658000000000000473,-1.029242034769247027
0.659000000000000474,-1.014862632979916190
0.660000000000000475,-1.000689194367197166
0.661000000000000476,-0.986720028231310997
0.662000000000000477,-0.972953438092540757
0.663000000000000478,-0.959387722175830016
0.664000000000000479,-0.946021173886437694
0.665000000000000480,-0.932852082276566796
0.666000000000000481,-0.919878732503200069
0.667000000000000481,-0.907099406277002474
0.668000000000000482,-0.894512382302561138
0.669000000000000483,-0.882115936709812920
0.670000000000000484,-0.869908343476899049
0.671000000000000485,-0.857887874844416642
0.672000000000000486,-0.846052801721152825
0.673000000000000487,-0.834401394081417558
0.674000000000000488,-0.822931921353963425
0.675000000000000488,-0.811642652802633813
0.676000000000000489,-0.800531857898829302
0.677000000000000490,-0.789597806685766734
0.678000000000000491,-0.778838770134736236
0.679000000000000492,-0.768253020493347316
0.680000000000000493,-0.757838831625871068
0.681000000000000494,-0.747594479345783602
0.682000000000000495,-0.737518241740543368
0.683000000000000496,-0.727608399488742785
0.684000000000000496,-0.717863236169669294
0.685000000000000497,-0.708281038565385379
0.686000000000000498,-0.698860096955422505
0.687000000000000499,-0.689598705404148027
0.688000000000000500,-0.680495162040899770
0.689000000000000501,-0.671547769333006306
0.690000000000000502,-0.662754834351740874
0.691000000000000503,-0.654114669031309104
0.692000000000000504,-0.645625590420966122
0.693000000000000504,-0.637285920930371619
0.694000000000000505,-0.629093988568193319
0.695000000000000506,-0.621048127174173681
0.696000000000000507,-0.613146676644623190
0.697000000000000508,-0.605387983151507436
0.698000000000000509,-0.597770399355205262
0.699000000000000510,-0.590292284610993589
0.700000000000000511,-0.582952005169390608
0.701000000000000512,-0.575747934370423153
0.702000000000000512,-0.568678452831905323
0.703000000000000513,-0.561741948631833243
0.704000000000000514,-0.554936817484971256
0.705000000000000515,-0.548261462913718689
0.706000000000000516,-0.541714296413350338
0.707000000000000517,-0.535293737611731268
0.708000000000000518,-0.528998214423534896
0.709000000000000519,-0.522826163199161309
0.710000000000000520,-0.516776028868306314
0.711000000000000520,-0.510846265078392148
0.712000000000000521,-0.505035334327858298
0.713000000000000522,-0.499341708094431236
0.714000000000000523,-0.493763866958489117
0.715000000000000524,-0.488300300721508207
0.716000000000000525,-0.482949508519818771
0.717000000000000526,-0.477709998933610269
0.718000000000000527,-0.472580290091351496
0.719000000000000528,-0.467558909769693831
0.720000000000000528,-0.462644395488945204
0.721000000000000529,-0.457835294604127696
0.722000000000000530,-0.453130164391832679
0.723000000000000531,-0.448527572132797592
0.724000000000000532,-0.444026095190409698
0.725000000000000533,-0.439624321085150982
0.726000000000000534,-0.435320847565048297
0.727000000000000535,-0.431114282672271698
0.728000000000000536,-0.427003244805874371
0.729000000000000536,-0.422986362780825076
0.730000000000000537,-0.419062275883353152
0.731000000000000538,-0.415229633922692520
0.732000000000000539,-0.411487097279323422
0.733000000000000540,-0.407833336949746328
0.734000000000000541,-0.404267034587882990
0.735000000000000542,-0.400786882543157030
0.736000000000000543,-0.397391583895360334
0.737000000000000544,-0.394079852486310778
0.738000000000000544,-0.390850412948447912
0.739000000000000545,-0.387702000730349716
0.740000000000000546,-0.384633362119312483
0.741000000000000547,-0.381643254260992326
0.742000000000000548,-0.378730445176264530
0.743000000000000549,-0.375893713775226235
0.744000000000000550,-0.373131849868544807
0.745000000000000551,-0.370443654176136450
0.746000000000000552,-0.367827938333251558
0.747000000000000552,-0.365283524894038869
0.748000000000000553,-0.362809247332625540
0.749000000000000554,-0.360403950041796262
0.750000000000000555,-0.358066488329327415
0.751000000000000556,-0.355795728411997136
0.752000000000000557,-0.353590547407405142
0.753000000000000558,-0.351449833323542626
0.754000000000000559,-0.349372485046302084
0.755000000000000560,-0.347357412324860060
0.756000000000000560,-0.345403535755079982
0.757000000000000561,-0.343509786760908764
0.758000000000000562,-0.341675107573878700
0.759000000000000563,-0.339898451210746078
0.760000000000000564,-0.338178781449303745
0.761000000000000565,-0.336515072802432869
0.762000000000000566,-0.334906310490436065
0.763000000000000567,-0.333351490411697871
0.764000000000000568,-0.331849619111722116
0.765000000000000568,-0.330399713750612500
0.766000000000000569,-0.329000802068987241
0.767000000000000570,-0.327651922352450664
0.768000000000000571,-0.326352123394565985
0.769000000000000572,-0.325100464458505378
0.770000000000000573,-0.323896015237269630
0.771000000000000574,-0.322737855812652297
0.772000000000000575,-0.321625076612891636
0.773000000000000576,-0.320556778369120221
0.774000000000000576,-0.319532072070595308
0.775000000000000577,-0.318550078918809154
0.776000000000000578,-0.317609930280447039
0.777000000000000579,-0.316710767639309609
0.778000000000000580,-0.315851742547155034
0.779000000000000581,-0.315032016573574158
0.780000000000000582,-0.314250761254871613
0.781000000000000583,-0.313507158042034551
0.782000000000000584,-0.312800398247795708
0.783000000000000584,-0.312129682992819735
0.784000000000000585,-0.311494223151090099
0.785000000000000586,-0.310893239294464330
0.786000000000000587,-0.310325961636487180
0.787000000000000588,-0.309791629975463945
0.788000000000000589,-0.309289493636807022
0.789000000000000590,-0.308818811414754868
0.790000000000000591,-0.308378851513402830
0.791000000000000592,-0.307968891487136465
0.792000000000000592,-0.307588218180487261
0.793000000000000593,-0.307236127667404324
0.794000000000000594,-0.306911925190016366
0.795000000000000595,-0.306614925096895585
0.796000000000000596,-0.306344450780791533
0.797000000000000597,-0.306099834615982780
0.798000000000000598,-0.305880417895147860
0.799000000000000599,-0.305685550765849690
0.800000000000000600,-0.305514592166645227
0.801000000000000600,-0.305366909762829652
0.802000000000000601,-0.305241879881849587
0.803000000000000602,-0.305138887448402729
0.804000000000000603,-0.305057325919260325
0.805000000000000604,-0.304996597217816467
0.806000000000000605,-0.304956111668362673
0.807000000000000606,-0.304935287930195920
0.808000000000000607,-0.304933552931464347
0.809000000000000608,-0.304950341802848468
0.810000000000000608,-0.304985097811099615
0.811000000000000609,-0.305037272292370709
0.812000000000000610,-0.305106324585489030
0.813000000000000611,-0.305191721965048401
0.814000000000000612,-0.305292939574457467
0.815000000000000613,-0.305409460358894713
0.816000000000000614,-0.305540774998182607
0.817000000000000615,-0.305686381839644139
0.818000000000000616,-0.305845786830923339
0.819000000000000616,-0.306018503452779866
0.820000000000000617,-0.306204052651891323
0.821000000000000618,-0.306401962773680536
0.822000000000000619,-0.306611769495171327
0.823000000000000620,-0.306833015757870309
0.824000000000000621,-0.307065251700718744
0.825000000000000622,-0.307308034593127777
0.826000000000000623,-0.307560928768078612
0.827000000000000624,-0.307823505555323895
0.828000000000000624,-0.308095343214700834
0.829000000000000625,-0.308376026869560282
0.830000000000000626,-0.308665148440332215
0.831000000000000627,-0.308962306578224710
0.832000000000000628,-0.309267106599099895
0.833000000000000629,-0.309579160417476129
0.834000000000000630,-0.309898086480736634
0.835000000000000631,-0.310223509703512312
0.836000000000000631,-0.310555061402249977
0.837000000000000632,-0.310892379230003180
0.838000000000000633,-0.311235107111411002
0.839000000000000634,-0.311582895177913544
0.840000000000000635,-0.311935399703205607
0.841000000000000636,-0.312292283038895335
0.842000000000000637,-0.312653213550453557
0.843000000000000638,-0.313017865553374908
0.844000000000000639,-0.313385919249624334
0.845000000000000639,-0.313757060664351328
0.846000000000000640,-0.314130981582857127
0.847000000000000641,-0.314507379487887706
0.848000000000000642,-0.314885957497159752
0.849000000000000643,-0.315266424301224313
0.850000000000000644,-0.315648494101621879
0.851000000000000645,-0.316031886549318963
0.852000000000000646,-0.316416326683500615
0.853000000000000647,-0.316801544870639606
0.854000000000000647,-0.317187276743908231
0.855000000000000648,-0.317573263142919560
0.856000000000000649,-0.317959250053795217
0.857000000000000650,-0.318344988549573493
0.858000000000000651,-0.318730234730951079
0.859000000000000652,-0.319114749667377851
0.860000000000000653,-0.319498299338513536
0.861000000000000654,-0.319880654576002565
0.862000000000000655,-0.320261591005649937
0.863000000000000655,-0.320640888989918216
0.864000000000000656,-0.321018333570823544
0.865000000000000657,-0.321393714413162945
0.866000000000000658,-0.321766825748148189
0.867000000000000659,-0.322137466317390986
0.868000000000000660,-0.322505439317262443
0.869000000000000661,-0.322870552343637096
0.870000000000000662,-0.323232617337023576
0.871000000000000663,-0.323591450528075142
0.872000000000000663,-0.323946872383465201
0.873000000000000664,-0.324298707552185761
0.874000000000000665,-0.324646784812199773
0.875000000000000666,-0.324990937017514248
0.876000000000000667,-0.325331001045618740
0.877000000000000668,-0.325666817745333570
0.878000000000000669,-0.325998231885056278
0.879000000000000670,-0.326325092101382053
0.880000000000000671,-0.326647250848149662
0.881000000000000671,-0.326964564345858077
0.882000000000000672,-0.327276892531509767
0.883000000000000673,-0.327584099008828011
0.884000000000000674,-0.327886050998894951
0.885000000000000675,-0.328182619291170763
0.886000000000000676,-0.328473678194934837
0.887000000000000677,-0.328759105491114367
0.888000000000000678,-0.329038782384513173
0.889000000000000679,-0.329312593456456693
0.890000000000000679,-0.329580426617827826
0.891000000000000680,-0.329842173062506017
0.892000000000000681,-0.330097727221210335
0.893000000000000682,-0.330346986715745028
0.894000000000000683,-0.330589852313637245
0.895000000000000684,-0.330826227883196822
0.896000000000000685,-0.331056020348951985
0.897000000000000686,-0.331279139647499610
0.898000000000000687,-0.331495498683757495
0.899000000000000687,-0.331705013287599992
0.900000000000000688,-0.331907602170909422
0.901000000000000689,-0.332103186885011614
0.902000000000000690,-0.332291691778518306
0.903000000000000691,-0.332473043955554159
0.904000000000000692,-0.332647173234391025
0.905000000000000693,-0.332814012106457779
0.906000000000000694,-0.332973495695772725
0.907000000000000695,-0.333125561718720209
0.908000000000000695,-0.333270150444272661
0.909000000000000696,-0.333407204654554035
0.910000000000000697,-0.333536669605821623
0.911000000000000698,-0.333658492989817590
0.912000000000000699,-0.333772624895509018
0.913000000000000700,-0.333879017771220865
0.914000000000000701,-0.333977626387125803
0.915000000000000702,-0.334068407798150446
0.916000000000000703,-0.334151321307221361
0.917000000000000703,-0.334226328428920971
0.918000000000000704,-0.334293392853496463
0.919000000000000705,-0.334352480411250208
0.920000000000000706,-0.334403559037308340
0.921000000000000707,-0.334446598736743483
0.922000000000000708,-0.334481571550080736
0.923000000000000709,-0.334508451519169914
0.924000000000000710,-0.334527214653402793
0.925000000000000711,-0.334537838896317719
0.926000000000000711,-0.334540304092550422
0.927000000000000712,-0.334534591955149341
0.928000000000000713,-0.334520686033238479
0.929000000000000714,-0.334498571680055423
0.930000000000000715,-0.334468236021313370
0.931000000000000716,-0.334429667923937080
0.932000000000000717,-0.334382857965140445
0.933000000000000718,-0.334327798401843290
0.934000000000000719,-0.334264483140442326
0.935000000000000719,-0.334192907706924947
0.936000000000000720,-0.334113069217305880
0.937000000000000721,-0.334024966348425156
0.938000000000000722,-0.333928599309070262
0.939000000000000723,-0.333823969811425925
0.940000000000000724,-0.333711081042868396
0.941000000000000725,-0.333589937638073875
0.942000000000000726,-0.333460545651475204
0.943000000000000727,-0.333322912530011728
0.944000000000000727,-0.333177047086235911
0.945000000000000728,-0.333022959471717006
0.946000000000000729,-0.332860661150763071
0.947000000000000730,-0.332690164874475669
0.948000000000000731,-0.332511484655091560
0.949000000000000732,-0.332324635740666785
0.950000000000000733,-0.332129634590032530
0.951000000000000734,-0.331926498848100993
0.952000000000000735,-0.331715247321430928
0.953000000000000735,-0.331495899954117157
0.954000000000000736,-0.331268477803986661
0.955000000000000737,-0.331033003019073846
0.956000000000000738,-0.330789498814400562
0.957000000000000739,-0.330537989449043335
0.958000000000000740,-0.330278500203498360
0.959000000000000741,-0.330011057357319670
0.960000000000000742,-0.329735688167061392
0.961000000000000743,-0.329452420844486504
0.962000000000000743,-0.329161284535060494
0.963000000000000744,-0.328862309296725164
0.964000000000000745,-0.328555526078958327
0.965000000000000746,-0.328240966702080472
0.966000000000000747,-0.327918663836858748
0.967000000000000748,-0.327588650984360241
0.968000000000000749,-0.327250962456097694
0.969000000000000750,-0.326905633354397873
0.970000000000000751,-0.326552699553084691
0.971000000000000751,-0.326192197678364049
0.972000000000000752,-0.325824165090009887
0.973000000000000753,-0.325448639862798317
0.974000000000000754,-0.325065660768166453
0.975000000000000755,-0.324675267256154976
0.976000000000000756,-0.324277499437581995
0.977000000000000757,-0.323872398066460343
0.978000000000000758,-0.323460004522662936
0.979000000000000759,-0.323040360794845216
0.980000000000000759,-0.322613509463562487
0.981000000000000760,-0.322179493684674245
0.982000000000000761,-0.321738357172957679
0.983000000000000762,-0.321290144185944482
0.984000000000000763,-0.320834899508005866
0.985000000000000764,-0.320372668434664498
0.986000000000000765,-0.319903496757116768
0.987000000000000766,-0.319427430746986818
0.988000000000000766,-0.318944517141304562
0.989000000000000767,-0.318454803127705632
0.990000000000000768,-0.317958336329836944
0.991000000000000769,-0.317455164792976974
0.992000000000000770,-0.316945336969877312
0.993000000000000771,-0.316428901706819088
0.994000000000000772,-0.315905908229852372
0.995000000000000773,-0.315376406131275711
0.996000000000000774,-0.314840445356286414
0.997000000000000774,-0.314298076189857223
0.998000000000000775,-0.313749349243800824
0.999000000000000776,-0.313194315444032201
1.000000000000000666,-0.312633026018032223
1.001000000000000778,-0.312065532482499575
1.002000000000000668,-0.311491886631196369
1.003000000000000780,-0.310912140522979497
1.004000000000000670,-0.310326346470023662
1.005000000000000782,-0.309734557026231982
1.006000000000000671,-0.309136824975826563
1.007000000000000783,-0.308533203322108207
1.008000000000000673,-0.307923745276424354
1.009000000000000785,-0.307308504247285064
1.010000000000000675,-0.306687533829675840
1.011000000000000787,-0.306060887794523950
1.012000000000000677,-0.305428620078361746
1.013000000000000789,-0.304790784773140033
1.014000000000000679,-0.304147436116202374
1.015000000000000790,-0.303498628480460220
1.016000000000000680,-0.302844416364697500
1.017000000000000792,-0.302184854384047186
1.018000000000000682,-0.301519997260637496
1.019000000000000794,-0.300849899814387478
1.020000000000000684,-0.300174616953962747
1.021000000000000796,-0.299494203667885317
1.022000000000000686,-0.298808715015795923
1.023000000000000798,-0.298118206119870222
1.024000000000000687,-0.297422732156379821
1.025000000000000799,-0.296722348347410902
1.026000000000000689,-0.296017109952717183
1.027000000000000801,-0.295307072261722536
1.028000000000000691,-0.294592290585673378
1.029000000000000803,-0.293872820249915123
1.030000000000000693,-0.293148716586326186
1.031000000000000805,-0.292420034925882422
1.032000000000000695,-0.291686830591345703
1.033000000000000806,-0.290949158890116966
1.034000000000000696,-0.290207075107187185
1.035000000000000808,-0.289460634498242109
1.036000000000000698,-0.288709892282884684
1.037000000000000810,-0.287954903638008963
1.038000000000000700,-0.287195723691258897
1.039000000000000812,-0.286432407514646159
1.040000000000000702,-0.285665010118284213
1.041000000000000814,-0.284893586444239344
1.042000000000000703,-0.284118191360492989
1.043000000000000815,-0.283338879655046338
1.044000000000000705,-0.282555706030128140
1.045000000000000817,-0.281768725096503247
1.046000000000000707,-0.280977991367932223
1.047000000000000819,-0.280183559255712589
1.048000000000000709,-0.279385483063339768
1.049000000000000821,-0.278583816981288312
1.050000000000000711,-0.277778615081881119
1.051000000000000822,-0.276969931314294537
1.052000000000000712,-0.276157819499640467
1.053000000000000824,-0.275342333326167532
1.054000000000000714,-0.274523526344568003
1.055000000000000826,-0.273701451963377473
1.056000000000000716,-0.272876163444482900
1.057000000000000828,-0.272047713898719290
1.058000000000000718,-0.271216156281578136
1.059000000000000830,-0.270381543388998113
1.060000000000000719,-0.269543927853265419
1.061000000000000831,-0.268703362138991486
1.062000000000000721,-0.267859898539196062
1.063000000000000833,-0.267013589171483490
1.064000000000000723,-0.266164485974290543
1.065000000000000835,-0.265312640703244507
1.066000000000000725,-0.264458104927605242
1.067000000000000837,-0.263600930026767932
1.068000000000000727,-0.262741167186899882
1.069000000000000838,-0.261878867397608350
1.070000000000000728,-0.261014081448732671
1.071000000000000840,-0.260146859927194218
1.072000000000000730,-0.259277253213938130
1.073000000000000842,-0.258405311480950917
1.074000000000000732,-0.257531084688347955
1.075000000000000844,-0.256654622581559799
1.076000000000000734,-0.255775974688575991
1.077000000000000846,-0.254895190317263654
1.078000000000000735,-0.254012318552779059
1.079000000000000847,-0.253127408255022113
1.080000000000000737,-0.252240508056201185
1.081000000000000849,-0.251351666358425763
1.082000000000000739,-0.250460931331402181
1.083000000000000851,-0.249568350910185754
1.084000000000000741,-0.248673972793001852
1.085000000000000853,-0.247777844439127148
1.086000000000000743,-0.246880013066848120
1.087000000000000854,-0.245980525651478210
1.088000000000000744,-0.245079428923445031
1.089000000000000856,-0.244176769366420521
1.090000000000000746,-0.243272593215538929
1.091000000000000858,-0.242366946455667615
1.092000000000000748,-0.241459874819724085
1.093000000000000860,-0.240551423787073754
1.094000000000000750,-0.239641638581962912
1.095000000000000862,-0.238730564172033505
1.096000000000000751,-0.237818245266879252
1.097000000000000863,-0.236904726316650077
1.098000000000000753,-0.235990051510738430
1.099000000000000865,-0.235074264776492958
1.100000000000000755,-0.234157409777993208
1.101000000000000867,-0.233239529914881366
1.102000000000000757,-0.232320668321245927
1.103000000000000869,-0.231400867864550497
1.104000000000000759,-0.230480171144603757
1.105000000000000870,-0.229558620492609833
1.106000000000000760,-0.228636257970222939
1.107000000000000872,-0.227713125368689567
1.108000000000000762,-0.226789264208014568
1.109000000000000874,-0.225864715736175420
1.110000000000000764,-0.224939520928390563
1.111000000000000876,-0.224013720486418322
1.112000000000000766,-0.223087354837916196
1.113000000000000878,-0.222160464135829822
1.114000000000000767,-0.221233088257832389
1.115000000000000879,-0.220305266805792599
1.116000000000000769,-0.219377039105305982
1.117000000000000881,-0.218448444205241177
1.118000000000000771,-0.217519520877343220
1.119000000000000883,-0.216590307615870531
1.120000000000000773,-0.215660842637268146
1.121000000000000885,-0.214731163879876202
1.122000000000000774,-0.213801309003681272
1.123000000000000886,-0.212871315390099319
1.124000000000000776,-0.211941220141803083
1.125000000000000888,-0.211011060082560681
1.126000000000000778,-0.210080871757137799
1.127000000000000890,-0.209150691431224584
1.128000000000000780,-0.208220555091371773
1.129000000000000892,-0.207290498444997029
1.130000000000000782,-0.206360556920398647
1.131000000000000894,-0.205430765666802129
1.132000000000000783,-0.204501159554448503
1.133000000000000895,-0.203571773174707843
1.134000000000000785,-0.202642640840203170
1.135000000000000897,-0.201713796585009236
1.136000000000000787,-0.200785274164824168
1.137000000000000899,-0.199857107057213407
1.138000000000000789,-0.198929328461851962
1.139000000000000901,-0.198001971300819618
1.140000000000000790,-0.197075068218895116
1.141000000000000902,-0.196148651583886002
1.142000000000000792,-0.195222753487005268
1.143000000000000904,-0.194297405743233037
1.144000000000000794,-0.193372639891743692
1.145000000000000906,-0.192448487196311996
1.146000000000000796,-0.191524978645795652
1.147000000000000908,-0.190602144954591157
1.148000000000000798,-0.189680016563143455
1.149000000000000909,-0.188758623638466377
1.150000000000000799,-0.187837996074676133
1.151000000000000689,-0.186918163493570433
1.152000000000000801,-0.185999155245202663
1.153000000000000913,-0.185081000408490015
1.154000000000000803,-0.184163727791838400
1.155000000000000693,-0.183247365933777023
1.156000000000000805,-0.182331943103641120
1.157000000000000917,-0.181417487302227481
1.158000000000000806,-0.180504026262515521
1.159000000000000696,-0.179591587450369433
1.160000000000000808,-0.178680198065276796
1.161000000000000920,-0.177769885041099723
1.162000000000000810,-0.176860675046844551
1.163000000000000700,-0.175952594487437830
1.164000000000000812,-0.175045669504532625
1.165000000000000924,-0.174139925977313703
1.166000000000000814,-0.173235389523340527
1.167000000000000703,-0.172332085499374260
1.168000000000000815,-0.171430039002251455
1.169000000000000927,-0.170529274869743425
1.170000000000000817,-0.169629817681451939
1.171000000000000707,-0.168731691759695324
1.172000000000000819,-0.167834921170436469
1.173000000000000931,-0.166939529724193625
1.174000000000000821,-0.166045540976979961
1.175000000000000711,-0.165152978231252967
1.176000000000000822,-0.164261864536878965
1.177000000000000934,-0.163372222692092478
1.178000000000000824,-0.162484075244491988
1.179000000000000714,-0.161597444492018349
1.180000000000000826,-0.160712352483972698
1.181000000000000938,-0.159828821022015871
1.182000000000000828,-0.158946871661199168
1.183000000000000718,-0.158066525710999300
1.184000000000000830,-0.157187804236352563
1.185000000000000941,-0.156310728058704329
1.186000000000000831,-0.155435317757079444
1.187000000000000721,-0.154561593669137493
1.188000000000000833,-0.153689575892257291
1.189000000000000945,-0.152819284284615581
1.190000000000000835,-0.151950738466282265
1.191000000000000725,-0.151083957820306730
1.192000000000000837,-0.150218961493849779
1.193000000000000949,-0.149355768399261263
1.194000000000000838,-0.148494397215232249
1.195000000000000728,-0.147634866387895441
1.196000000000000840,-0.146777194131972155
1.197000000000000952,-0.145921398431905935
1.198000000000000842,-0.145067497043000787
1.199000000000000732,-0.144215507492581274
1.200000000000000844,-0.143365447081128750
1.201000000000000956,-0.142517332883460385
1.202000000000000846,-0.141671181749879888
1.203000000000000735,-0.140827010307352285
1.204000000000000847,-0.139984834960667048
1.205000000000000959,-0.139144671893635774
1.206000000000000849,-0.138306537070250257
1.207000000000000739,-0.137470446235878591
1.208000000000000851,-0.136636414918457211
1.209000000000000963,-0.135804458429674119
1.210000000000000853,-0.134974591866172666
1.211000000000000743,-0.134146830110740523
1.212000000000000854,-0.133321187833521121
1.213000000000000966,-0.132497679493207149
1.214000000000000856,-0.131676319338261572
1.215000000000000746,-0.130857121408105292
1.216000000000000858,-0.130040099534351250
1.217000000000000970,-0.129225267342000238
1.218000000000000860,-0.128412638250662819
1.219000000000000750,-0.127602225475777209
1.220000000000000862,-0.126794042029824777
1.221000000000000973,-0.125988100723546825
1.222000000000000863,-0.125184414167176100
1.223000000000000753,-0.124382994771643010
1.224000000000000865,-0.123583854749812483
1.225000000000000977,-0.122787006117702102
1.226000000000000867,-0.121992460695702881
1.227000000000000757,-0.121200230109810320
1.228000000000000869,-0.120410325792840917
1.229000000000000981,-0.119622758985676647
1.230000000000000870,-0.118837540738462560
1.231000000000000760,-0.118054681911853449
1.232000000000000872,-0.117274193178237909
1.233000000000000984,-0.116496085022948989
1.234000000000000874,-0.115720367745506425
1.235000000000000764,-0.114947051460828550
1.236000000000000876,-0.114176146100461895
1.237000000000000988,-0.113407661413801542
1.238000000000000878,-0.112641606969318978
1.239000000000000767,-0.111877992155772626
1.240000000000000879,-0.111116826183437503
1.241000000000000991,-0.110358118085320506
1.242000000000000881,-0.109601876718375180
1.243000000000000771,-0.108848110764724865
1.244000000000000883,-0.108096828732867231
1.245000000000000995,-0.107348038958902284
1.246000000000000885,-0.106601749607728585
1.247000000000000774,-0.105857968674260866
1.248000000000000886,-0.105116703984636503
1.249000000000000998,-0.104377963197422208
1.250000000000000888,-0.103641753804818354
1.251000000000000778,-0.102908083133857423
1.252000000000000890,-0.102176958347606164
1.253000000000001002,-0.101448386446358674
1.254000000000000892,-0.100722374268843451
1.255000000000000782,-0.099998928493399863
1.256000000000000894,-0.099278055639174051
1.257000000000001005,-0.098559762067312442
1.258000000000000895,-0.097844053982139106
1.259000000000000785,-0.097130937432338443
1.260000000000000897,-0.096420418312134049
1.261000000000001009,-0.095712502362470156
1.262000000000000899,-0.095007195172174597
1.263000000000000789,-0.094304502179137661
1.264000000000000901,-0.093604428671475781
1.265000000000001013,-0.092906979788693222
1.266000000000000902,-0.092212160522846628
1.267000000000000792,-0.091519975719698249
1.268000000000000904,-0.090830430079872876
1.269000000000001016,-0.090143528160003303
1.270000000000000906,-0.089459274373888342
1.271000000000000796,-0.088777672993622381
1.272000000000000908,-0.088098728150741934
1.273000000000001020,-0.087422443837363112
1.274000000000000909,-0.086748823907314310
1.275000000000000799,-0.086077872077256729
1.276000000000000911,-0.085409591927823963
1.277000000000001023,-0.084743986904727453
1.278000000000000913,-0.084081060319885395
1.279000000000000803,-0.083420815352529945
1.280000000000000915,-0.082763255050324863
1.281000000000001027,-0.082108382330451909
1.282000000000000917,-0.081456199980736804
1.283000000000000806,-0.080806710660728046
1.284000000000000918,-0.080159916902800707
1.285000000000001030,-0.079515821113236448
1.286000000000000920,-0.078874425573317419
1.287000000000000810,-0.078235732440398012
1.288000000000000922,-0.077599743748991729
1.289000000000001034,-0.076966461411831416
1.290000000000000924,-0.076335887220941437
1.291000000000000814,-0.075708022848707146
1.292000000000000925,-0.075082869848921707
1.293000000000001037,-0.074460429657853114
1.294000000000000927,-0.073840703595285329
1.295000000000000817,-0.073223692865564627
1.296000000000000929,-0.072609398558644608
1.297000000000001041,-0.071997821651118357
1.298000000000000931,-0.071388963007253795
1.299000000000000821,-0.070782823380019913
1.300000000000000933,-0.070179403412105268
1.301000000000001044,-0.069578703636942324
1.302000000000000934,-0.068980724479713720
1.303000000000000824,-0.068385466258373523
1.304000000000000936,-0.067792929184631173
1.305000000000001048,-0.067203113364969438
1.306000000000000938,-0.066616018801633231
1.307000000000000828,-0.066031645393610797
1.308000000000000940,-0.065449992937627613
1.309000000000001052,-0.064871061129130381
1.310000000000000941,-0.064294849563250586
1.311000000000000831,-0.063721357735782455
1.312000000000000943,-0.063150585044143365
1.313000000000001055,-0.062582530788349661
1.314000000000000945,-0.062017194171951361
1.315000000000000835,-0.061454574302997035
1.316000000000000947,-0.060894670194975783
1.317000000000001059,-0.060337480767763810
1.318000000000000949,-0.059783004848550189
1.319000000000000838,-0.059231241172782521
1.320000000000000950,-0.058682188385081810
1.321000000000001062,-0.058135845040169241
1.322000000000000952,-0.057592209603784437
1.323000000000000842,-0.057051280453592590
1.324000000000000954,-0.056513055880100735
1.325000000000001066,-0.055977534087545334
1.326000000000000956,-0.055444713194805997
1.327000000000000846,-0.054914591236282208
1.328000000000000957,-0.054387166162796360
1.329000000000001069,-0.053862435842458714
1.330000000000000959,-0.053340398061561434
1.331000000000000849,-0.052821050525440637
1.332000000000000961,-0.052304390859343838
1.333000000000001073,-0.051790416609296751
1.334000000000000963,-0.051279125242962742
1.335000000000000853,-0.050770514150485523
1.336000000000000965,-0.050264580645347542
1.337000000000001076,-0.049761321965208008
1.338000000000000966,-0.049260735272738901
1.339000000000000856,-0.048762817656461753
1.340000000000000968,-0.048267566131572279
1.341000000000001080,-0.047774977640762092
1.342000000000000970,-0.047285049055043236
1.343000000000000860,-0.046797777174553024
1.344000000000000972,-0.046313158729365755
1.345000000000001084,-0.045831190380300771
1.346000000000000973,-0.045351868719710531
1.347000000000000863,-0.044875190272281616
1.348000000000000975,-0.044401151495817553
1.349000000000001087,-0.043929748782028467
1.350000000000000977,-0.043460978457305469
1.351000000000000867,-0.042994836783498351
1.352000000000000979,-0.042531319958670696
1.353000000000001091,-0.042070424117886390
1.354000000000000981,-0.041612145333953007
1.355000000000000870,-0.041156479618174993
1.356000000000000982,-0.040703422921111475
1.357000000000001094,-0.040252971133317342
1.358000000000000984,-0.039805120086081308
1.359000000000000874,-0.039359865552158500
1.360000000000000986,-0.038917203246507451
1.361000000000001098,-0.038477128827012444
1.362000000000000988,-0.038039637895197896
1.363000000000000878,-0.037604725996951367
1.364000000000000989,-0.037172388623235117
1.365000000000001101,-0.036742621210784566
1.366000000000000991,-0.036315419142814234
1.367000000000000881,-0.035890777749716614
1.368000000000000993,-0.035468692309748487
1.369000000000001105,-0.035049158049725304
1.370000000000000995,-0.034632170145694849
1.371000000000000885,-0.034217723723620454
1.372000000000000997,-0.033805813860054684
1.373000000000001108,-0.033396435582808984
1.374000000000000998,-0.032989583871602564
1.375000000000000888,-0.032585253658748210
1.376000000000001000,-0.032183439829782876
1.377000000000001112,-0.031784137224130385
1.378000000000001002,-0.031387340635742077
1.379000000000000892,-0.030993044813737179
1.380000000000001004,-0.030601244463040959
1.381000000000001116,-0.030211934245018408
1.382000000000001005,-0.029825108778095251
1.383000000000000895,-0.029440762638383623
1.384000000000001007,-0.029058890360301608
1.385000000000001119,-0.028679486437184581
1.386000000000001009,-0.028302545321896529
1.387000000000000899,-0.027928061427427785
1.388000000000001011,-0.027556029127512226
1.389000000000001123,-0.027186442757197993
1.390000000000001013,-0.026819296613460091
1.391000000000000902,-0.026454584955776968
1.392000000000001014,-0.026092302006714852
1.393000000000001126,-0.025732441952507353
1.394000000000001016,-0.025374998943630534
1.395000000000000906,-0.025019967095369088
1.396000000000001018,-0.024667340488378944
1.397000000000001130,-0.024317113169257911
1.398000000000001020,-0.023969279151093942
1.399000000000000909,-0.023623832414021433
1.400000000000001021,-0.023280766905763944
1.401000000000001133,-0.022940076542189342
1.402000000000001023,-0.022601755207835937
1.403000000000000913,-0.022265796756455195
1.404000000000001025,-0.021932195011547407
1.405000000000001137,-0.021600943766876678
1.406000000000001027,-0.021272036787005000
1.407000000000000917,-0.020945467807809946
1.408000000000001029,-0.020621230536989634
1.409000000000001140,-0.020299318654588078
1.410000000000001030,-0.019979725813489370
1.411000000000000920,-0.019662445639927407
1.412000000000001032,-0.019347471733982227
1.413000000000001144,-0.019034797670075897
1.414000000000001034,-0.018724416997460282
1.415000000000000924,-0.018416323240705423
1.416000000000001036,-0.018110509900184812
1.417000000000001148,-0.017806970452551391
1.418000000000001037,-0.017505698351210956
1.419000000000000927,-0.017206687026794225
1.420000000000001039,-0.016909929887626209
1.421000000000001151,-0.016615420320188038
1.422000000000001041,-0.016323151689575786
1.423000000000000931,-0.016033117339954127
1.424000000000001043,-0.015745310595012909
1.425000000000001155,-0.015459724758410148
1.426000000000001044,-0.015176353114220133
1.427000000000000934,-0.014895188927372538
1.428000000000001046,-0.014616225444087328
1.429000000000001158,-0.014339455892307760
1.430000000000001048,-0.014064873482135615
1.431000000000000938,-0.013792471406247448
1.432000000000001050,-0.013522242840324930
1.433000000000001162,-0.013254180943468908
1.434000000000001052,-0.012988278858612945
1.435000000000000941,-0.012724529712940750
1.436000000000001053,-0.012462926618285578
1.437000000000001165,-0.012203462671537066
1.438000000000001055,-0.011946130955047990
1.439000000000000945,-0.011690924537022255
1.440000000000001057,-0.011437836471914565
1.441000000000001169,-0.011186859800812942
1.442000000000001059,-0.010937987551834685
1.443000000000000949,-0.010691212740505381
1.444000000000001060,-0.010446528370135749
1.445000000000001172,-0.010203927432198714
1.446000000000001062,-0.009963402906709629
1.447000000000000952,-0.009724947762583666
1.448000000000001064,-0.009488554958010750
1.449000000000001176,-0.009254217440820287
1.450000000000001066,-0.009021928148827029
1.451000000000000956,-0.008791680010203116
1.452000000000001068,-0.008563465943822806
1.453000000000001180,-0.008337278859612138
1.454000000000001069,-0.008113111658899145
1.455000000000000959,-0.007890957234752883
1.456000000000001071,-0.007670808472325388
1.457000000000001183,-0.007452658249190664
1.458000000000001073,-0.007236499435676921
1.459000000000000963,-0.007022324895191004
1.460000000000001075,-0.006810127484556556
1.461000000000001187,-0.006599900054328775
1.462000000000001076,-0.006391635449126146
1.463000000000000966,-0.006185326507936728
1.464000000000001078,-0.005980966064439469
1.465000000000001190,-0.005778546947320263
1.466000000000001080,-0.005578061980571398
1.467000000000000970,-0.005379503983804582
1.468000000000001082,-0.005182865772554572
1.469000000000001194,-0.004988140158572406
1.470000000000001084,-0.004795319950131444
1.471000000000000973,-0.004604397952313390
1.472000000000001085,-0.004415366967308653
1.473000000000001197,-0.004228219794696860
1.474000000000001087,-0.004042949231736974
1.475000000000000977,-0.003859548073645437
1.476000000000001089,-0.003678009113883748
1.477000000000001201,-0.003498325144430910
1.478000000000001091,-0.003320488956054979
1.479000000000000981,-0.003144493338591529
1.480000000000001092,-0.002970331081205110
1.481000000000001204,-0.002797994972662234
1.482000000000001094,-0.002627477801590062
1.483000000000000984,-0.002458772356741060
1.484000000000001096,-0.002291871427247273
1.485000000000001208,-0.002126767802872289
1.486000000000001098,-0.001963454274276803
1.487000000000000988,-0.001801923633255681
1.488000000000001100,-0.001642168672987976
1.489000000000001211,-0.001484182188289657
1.490000000000001101,-0.001327956975846434
1.491000000000000991,-0.001173485834455849
1.492000000000001103,-0.001020761565269565
1.493000000000001215,-0.000869776972022081
1.494000000000001105,-0.000720524861263329
1.495000000000000995,-0.000572998042591700
1.496000000000001107,-0.000427189328878126
1.497000000000001219,-0.000283091536491517
1.498000000000001108,-0.000140697485523216
1.499000000000000998,0.000000000000000000
