#Generated by Parinaz Mosaddeghi Amini at University College Dublin, March 2023
#PMF between COM of side chain analogos ASN and Iron (fe-111) slab.
#
#z(nm), (KJ/mol)
0.212012,65.578417
0.213967,58.567776
0.215922,51.532902
0.217877,44.521345
0.219832,37.591918
0.221787,30.800450
0.223742,24.209020
0.225697,17.880645
0.227652,11.864352
0.229607,6.201441
0.231562,0.931371
0.233517,-3.920610
0.235472,-8.334742
0.237427,-12.304496
0.239382,-15.834510
0.241337,-18.938755
0.243292,-21.650228
0.245247,-24.020824
0.247202,-26.112877
0.249157,-27.989535
0.251112,-29.711304
0.253067,-31.317201
0.255022,-32.820423
0.256977,-34.224774
0.258932,-35.514508
0.260887,-36.675787
0.262842,-37.694835
0.264797,-38.570910
0.266752,-39.310422
0.268707,-39.926113
0.270662,-40.431055
0.272617,-40.836578
0.274572,-41.146418
0.276527,-41.357342
0.278482,-41.469934
0.280437,-41.475457
0.282392,-41.376659
0.284347,-41.174218
0.286302,-40.871608
0.288257,-40.472591
0.290212,-39.981751
0.292167,-39.395428
0.294122,-38.717434
0.296077,-37.959212
0.298032,-37.126946
0.299987,-36.250076
0.301942,-35.345599
0.303897,-34.446085
0.305852,-33.574388
0.307807,-32.745713
0.309762,-31.970335
0.311717,-31.249212
0.313672,-30.591604
0.315627,-29.989519
0.317582,-29.441407
0.319537,-28.939887
0.321492,-28.483657
0.323447,-28.059693
0.325402,-27.668333
0.327357,-27.302904
0.329312,-26.954843
0.331267,-26.614283
0.333222,-26.272704
0.335177,-25.919220
0.337132,-25.539801
0.339087,-25.133314
0.341042,-24.689358
0.342997,-24.213531
0.344952,-23.709015
0.346907,-23.182545
0.348862,-22.636112
0.350817,-22.077387
0.352772,-21.511922
0.354727,-20.936178
0.356682,-20.350257
0.358637,-19.746136
0.360592,-19.119135
0.362547,-18.469928
0.364502,-17.796135
0.366457,-17.106159
0.368412,-16.412697
0.370367,-15.717159
0.372322,-15.034751
0.374277,-14.365224
0.376232,-13.722524
0.378187,-13.108694
0.380142,-12.520421
0.382097,-11.970442
0.384052,-11.463255
0.386007,-10.995370
0.387962,-10.580789
0.389917,-10.223503
0.391872,-9.934106
0.393827,-9.707520
0.395782,-9.546961
0.397737,-9.457129
0.399692,-9.418428
0.401647,-9.427422
0.403602,-9.469314
0.405557,-9.542357
0.407512,-9.633441
0.409467,-9.743572
0.411422,-9.864303
0.413377,-9.994216
0.415332,-10.140067
0.417287,-10.295229
0.419242,-10.447693
0.421197,-10.580569
0.423152,-10.664167
0.425107,-10.664133
0.427062,-10.555387
0.429017,-10.333028
0.430972,-9.997621
0.432927,-9.574006
0.434882,-9.096717
0.436837,-8.598137
0.438792,-8.099768
0.440747,-7.610455
0.442702,-7.132288
0.444657,-6.657491
0.446612,-6.167450
0.448567,-5.652562
0.450522,-5.109742
0.452477,-4.532616
0.454432,-3.935037
0.456387,-3.320606
0.458342,-2.697248
0.460297,-2.075336
0.462252,-1.466996
0.464207,-0.871512
0.466162,-0.297637
0.468117,0.255733
0.470072,0.788446
0.472027,1.296449
0.473982,1.774949
0.475937,2.221292
0.477892,2.628768
0.479847,2.994492
0.481802,3.317327
0.483757,3.589816
0.485712,3.818746
0.487667,3.997320
0.489622,4.131490
0.491577,4.224861
0.493532,4.285970
0.495487,4.313897
0.497442,4.312596
0.499397,4.288461
0.501352,4.247896
0.503307,4.198349
0.505262,4.143326
0.507217,4.085942
0.509172,4.028501
0.511127,3.967065
0.513082,3.900700
0.515037,3.832592
0.516992,3.747020
0.518947,3.643655
0.520902,3.512858
0.522857,3.355139
0.524812,3.165792
0.526767,2.942928
0.528722,2.685806
0.530677,2.396681
0.532632,2.071013
0.534587,1.716103
0.536542,1.336736
0.538497,0.941182
0.540452,0.538595
0.542407,0.140932
0.544362,-0.243066
0.546316,-0.604786
0.548271,-0.928609
0.550226,-1.222003
0.552181,-1.476709
0.554136,-1.696183
0.556091,-1.887961
0.558046,-2.059390
0.560001,-2.223261
0.561956,-2.381305
0.563911,-2.544882
0.565866,-2.718130
0.567821,-2.898222
0.569776,-3.092935
0.571731,-3.293927
0.573686,-3.497675
0.575641,-3.700834
0.577596,-3.899372
0.579551,-4.081814
0.581506,-4.248675
0.583461,-4.392446
0.585416,-4.515582
0.587371,-4.612963
0.589326,-4.685819
0.591281,-4.741744
0.593236,-4.779595
0.595191,-4.799883
0.597146,-4.817833
0.599101,-4.824791
0.601056,-4.825224
0.603011,-4.822942
0.604966,-4.816120
0.606921,-4.806015
0.608876,-4.798053
0.610831,-4.793823
0.612786,-4.793108
0.614741,-4.793357
0.616696,-4.794479
0.618651,-4.806122
0.620606,-4.826683
0.622561,-4.853409
0.624516,-4.883481
0.626471,-4.917502
0.628426,-4.949736
0.630381,-4.973394
0.632336,-4.981841
0.634291,-4.975995
0.636246,-4.947921
0.638201,-4.895068
0.640156,-4.815607
0.642111,-4.718052
0.644066,-4.603769
0.646021,-4.478191
0.647976,-4.352378
0.649931,-4.225702
0.651886,-4.112024
0.653841,-4.003804
0.655796,-3.904976
0.657751,-3.811500
0.659706,-3.720008
0.661661,-3.631724
0.663616,-3.538691
0.665571,-3.446564
0.667526,-3.356506
0.669481,-3.258710
0.671436,-3.165015
0.673391,-3.069914
0.675346,-2.981217
0.677301,-2.901219
0.679256,-2.825824
0.681211,-2.756422
0.683166,-2.695076
0.685121,-2.637700
0.687076,-2.582662
0.689031,-2.529238
0.690986,-2.473115
0.692941,-2.409339
0.694896,-2.342696
0.696851,-2.264863
0.698806,-2.182973
0.700761,-2.099133
0.702716,-2.010001
0.704671,-1.918777
0.706626,-1.830801
0.708581,-1.745444
0.710536,-1.672875
0.712491,-1.609212
0.714446,-1.559764
0.716401,-1.524420
0.718356,-1.506359
0.720311,-1.497900
0.722266,-1.501093
0.724221,-1.506709
0.726176,-1.511272
0.728131,-1.513687
0.730086,-1.506599
0.732041,-1.486362
0.733996,-1.450757
0.735951,-1.394492
0.737906,-1.319900
0.739861,-1.224816
0.741816,-1.110519
0.743771,-0.982415
0.745726,-0.844765
0.747681,-0.699270
0.749636,-0.553126
0.751591,-0.403106
0.753546,-0.262754
0.755501,-0.132426
0.757456,-0.014945
0.759411,0.097397
0.761366,0.192374
0.763321,0.271419
0.765276,0.341267
0.767231,0.403696
0.769186,0.449832
0.771141,0.486966
0.773096,0.521149
0.775051,0.548176
0.777006,0.567184
0.778961,0.578312
0.780916,0.589670
0.782871,0.591112
0.784826,0.588843
0.786781,0.577067
0.788736,0.563140
0.790691,0.545506
0.792646,0.520277
0.794601,0.489072
0.796556,0.454820
0.798511,0.414707
0.800466,0.372427
0.802421,0.333347
0.804376,0.291934
0.806331,0.257751
0.808286,0.227152
0.810241,0.203245
0.812196,0.192459
0.814151,0.190585
0.816106,0.203058
0.818061,0.225047
0.820016,0.258335
0.821971,0.294383
0.823926,0.330438
0.825881,0.362480
0.827836,0.392498
0.829791,0.404538
0.831746,0.402533
0.833701,0.384501
0.835656,0.351623
0.837611,0.304091
0.839566,0.235387
0.841521,0.156129
0.843476,0.058999
0.845431,-0.045508
0.847386,-0.153659
0.849341,-0.266086
0.851296,-0.379863
0.853251,-0.487815
0.855206,-0.594642
0.857161,-0.688141
0.859116,-0.774160
0.861071,-0.846927
0.863026,-0.907979
0.864981,-0.950459
0.866936,-0.977098
0.868891,-0.985313
0.870846,-0.975867
0.872801,-0.950689
0.874756,-0.908603
0.876711,-0.860694
0.878666,-0.806437
0.880621,-0.749727
0.882576,-0.698425
0.884531,-0.661577
0.886486,-0.640500
0.888441,-0.633897
0.890396,-0.646537
0.892351,-0.671950
0.894306,-0.711499
0.896261,-0.763377
0.898216,-0.823380
0.900171,-0.887843
0.902126,-0.952882
0.904081,-1.016295
0.906036,-1.080319
0.907991,-1.141643
0.909946,-1.198749
0.911901,-1.250714
0.913856,-1.295098
0.915811,-1.334065
0.917766,-1.363915
0.919721,-1.386314
0.921676,-1.401247
0.923631,-1.404807
0.925586,-1.399735
0.927541,-1.386544
0.929496,-1.361685
0.931451,-1.326936
0.933406,-1.287872
0.935361,-1.240949
0.937316,-1.191367
0.939271,-1.141964
0.941226,-1.091487
0.943181,-1.045973
0.945136,-1.005812
0.947091,-0.971738
0.949046,-0.945163
0.951001,-0.926948
0.952956,-0.913369
0.954911,-0.907954
0.956866,-0.908313
0.958821,-0.914482
0.960776,-0.922543
0.962731,-0.934137
0.964686,-0.948377
0.966641,-0.963974
0.968596,-0.975578
0.970551,-0.989966
0.972506,-1.002171
0.974461,-1.013458
0.976416,-1.026044
0.978371,-1.032627
0.980326,-1.039793
0.982281,-1.044844
0.984236,-1.046760
0.986191,-1.047305
0.988146,-1.043600
0.990101,-1.034146
0.992056,-1.019824
0.994011,-1.005247
0.995966,-0.986328
0.997921,-0.961168
0.999876,-0.934899
1.001831,-0.906488
1.003786,-0.874535
1.005741,-0.839918
1.007696,-0.797979
1.009651,-0.752873
1.011606,-0.706154
1.013561,-0.654662
1.015516,-0.602937
1.017471,-0.549822
1.019426,-0.496662
1.021381,-0.446776
1.023336,-0.403345
1.025291,-0.365467
1.027246,-0.338093
1.029201,-0.313555
1.031156,-0.299972
1.033111,-0.290656
1.035066,-0.291843
1.037021,-0.302395
1.038976,-0.318642
1.040931,-0.340788
1.042886,-0.364593
1.044841,-0.391944
1.046796,-0.419158
1.048751,-0.447652
1.050706,-0.476106
1.052661,-0.496835
1.054616,-0.515097
1.056571,-0.526167
1.058526,-0.533808
1.060481,-0.534620
1.062436,-0.532497
1.064391,-0.523431
1.066346,-0.503175
1.068301,-0.475504
1.070256,-0.444496
1.072211,-0.408043
1.074166,-0.366082
1.076121,-0.320925
1.078076,-0.270995
1.080031,-0.218668
1.081986,-0.163976
1.083941,-0.108583
1.085896,-0.056138
1.087851,-0.002692
1.089806,0.041454
1.091761,0.080813
1.093716,0.113894
1.095671,0.143058
1.097626,0.162196
1.099581,0.177673
1.101536,0.182447
1.103491,0.179362
1.105446,0.169899
1.107401,0.154651
1.109356,0.133892
1.111311,0.108913
1.113266,0.081272
1.115221,0.055037
1.117176,0.027234
1.119131,-0.001886
1.121086,-0.029841
1.123041,-0.057517
1.124996,-0.084991
1.126951,-0.108435
1.128906,-0.128158
1.130861,-0.143122
1.132816,-0.156659
1.134771,-0.165200
1.136726,-0.168627
1.138681,-0.162778
1.140636,-0.154046
1.142591,-0.136644
1.144546,-0.117715
1.146501,-0.093173
1.148456,-0.067477
1.150411,-0.041834
1.152366,-0.014822
1.154321,0.009228
1.156276,0.025711
1.158231,0.037894
1.160186,0.044291
1.162141,0.043375
1.164096,0.033782
1.166051,0.019456
1.168006,-0.004988
1.169961,-0.033379
1.171916,-0.058462
1.173871,-0.091746
1.175826,-0.123558
1.177781,-0.153168
1.179736,-0.180708
1.181691,-0.204409
1.183646,-0.221784
1.185601,-0.232324
1.187556,-0.237807
1.189511,-0.236911
1.191466,-0.227899
1.193421,-0.213172
1.195376,-0.195889
1.197331,-0.174665
1.199286,-0.154172
1.201241,-0.133882
1.203196,-0.115032
1.205151,-0.099796
1.207106,-0.085529
1.209061,-0.074696
1.211016,-0.069258
1.212971,-0.073269
1.214926,-0.083923
1.216881,-0.093891
1.218836,-0.108375
1.220791,-0.124128
1.222746,-0.140169
1.224701,-0.159187
1.226656,-0.184585
1.228611,-0.213261
1.230566,-0.241167
1.232521,-0.269607
1.234476,-0.297196
1.236431,-0.328440
1.238386,-0.359712
1.240341,-0.385766
1.242296,-0.412238
1.244251,-0.430700
1.246206,-0.440741
1.248161,-0.451233
1.250116,-0.454084
1.252071,-0.452179
1.254026,-0.448391
1.255981,-0.437083
1.257936,-0.422644
1.259891,-0.408614
1.261846,-0.388839
1.263801,-0.369594
1.265756,-0.344649
1.267711,-0.319610
1.269666,-0.295349
1.271621,-0.270269
1.273576,-0.246759
1.275531,-0.222957
1.277486,-0.201795
1.279441,-0.185266
1.281396,-0.169186
1.283351,-0.155978
1.285306,-0.148273
1.287261,-0.140076
1.289216,-0.133831
1.291171,-0.132053
1.293126,-0.131070
1.295081,-0.132459
1.297036,-0.136562
1.298991,-0.144981
1.300946,-0.154215
1.302901,-0.168223
1.304856,-0.181466
1.306811,-0.196631
1.308766,-0.213030
1.310721,-0.231492
1.312676,-0.246893
1.314631,-0.260462
1.316586,-0.276013
1.318541,-0.281767
1.320496,-0.282950
1.322451,-0.283101
1.324406,-0.279927
1.326361,-0.275090
1.328316,-0.267072
1.330271,-0.255467
1.332226,-0.242269
1.334181,-0.229653
1.336136,-0.214450
1.338091,-0.201338
1.340046,-0.191241
1.342001,-0.184690
1.343956,-0.179087
1.345911,-0.172124
1.347866,-0.171273
1.349821,-0.175279
1.351776,-0.181472
1.353731,-0.189565
1.355686,-0.197980
1.357641,-0.210582
1.359596,-0.224982
1.361551,-0.240496
1.363506,-0.254794
1.365461,-0.266424
1.367416,-0.275103
1.369371,-0.279738
1.371326,-0.278515
1.373281,-0.275356
1.375236,-0.268828
1.377191,-0.258010
1.379146,-0.243112
1.381101,-0.229914
1.383056,-0.213894
1.385011,-0.204035
1.386966,-0.198982
1.388921,-0.200021
1.390876,-0.208194
1.392831,-0.221550
1.394786,-0.241190
1.396741,-0.267822
1.398696,-0.296459
1.400651,-0.329466
1.402606,-0.364406
1.404561,-0.395550
1.406516,-0.424714
1.408471,-0.448062
1.410426,-0.466629
1.412381,-0.476571
1.414336,-0.482600
1.416291,-0.478378
1.418246,-0.464397
1.420201,-0.444404
1.422156,-0.412446
1.424111,-0.376031
1.426066,-0.334994
1.428021,-0.290275
1.429976,-0.243793
1.431931,-0.197416
1.433886,-0.157831
1.435841,-0.123033
1.437796,-0.090392
1.439751,-0.067602
1.441706,-0.056279
1.443661,-0.054006
1.445616,-0.061523
1.447571,-0.080193
1.449526,-0.109120
1.451481,-0.145016
1.453436,-0.188412
1.455391,-0.238075
1.457346,-0.295631
1.459301,-0.352735
1.461256,-0.409772
1.463211,-0.463725
1.465166,-0.512136
1.467121,-0.550330
1.469076,-0.579070
1.471031,-0.597694
1.472986,-0.604101
1.474941,-0.596769
1.476896,-0.576956
1.478851,-0.545037
1.480806,-0.507233
1.482761,-0.458656
1.484716,-0.403612
1.486671,-0.348051
1.488626,-0.283490
1.490581,-0.224027
1.492536,-0.169745
1.494491,-0.120406
1.496446,-0.076771
1.498401,-0.042647
1.500356,-0.016732
1.502311,0.000000
