# TiO2-ana-101_CS-13854944-AC
# h[nm],U(h)[kJ/mol]
0.149999999999999994,126.936668977790390045
0.150999999999999995,124.455107259687935084
0.151999999999999996,122.703376825782626725
0.152999999999999997,121.162921187428082703
0.153999999999999998,119.619526362665325792
0.154999999999999999,118.012343275558606592
0.156000000000000000,116.348323661621563474
0.157000000000000001,114.656639114044608618
0.158000000000000002,112.966723365388318712
0.159000000000000002,111.299625680555138274
0.160000000000000003,109.666343411966067833
0.161000000000000004,108.069379865008727393
0.162000000000000005,106.505410654319604191
0.163000000000000006,104.967954853299005435
0.164000000000000007,103.449552888586893573
0.165000000000000008,101.943297617420171264
0.166000000000000009,100.443746133557112898
0.167000000000000010,98.947322031014749655
0.168000000000000010,97.452342871643821809
0.169000000000000011,95.958801913023961561
0.170000000000000012,94.468013036364169466
0.171000000000000013,92.982202876685761339
0.172000000000000014,91.504109718733801060
0.173000000000000015,90.036627416460007112
0.174000000000000016,88.582515434487248740
0.175000000000000017,87.144183180576717973
0.176000000000000018,85.723547695066699248
0.177000000000000018,84.321957868353337062
0.178000000000000019,82.940174999883751639
0.179000000000000020,81.578398057964164991
0.180000000000000021,80.236321896117232200
0.181000000000000022,78.913217473063440366
0.182000000000000023,77.608024451054234305
0.183000000000000024,76.319448140987631746
0.184000000000000025,75.046054427933142961
0.185000000000000026,73.786357914795331681
0.186000000000000026,72.538899981127045180
0.187000000000000027,71.302314721966311595
0.188000000000000028,70.075381788600992650
0.189000000000000029,68.857065998993107314
0.190000000000000030,67.646544232445421585
0.191000000000000031,66.443220590841178819
0.192000000000000032,65.246731121275317378
0.193000000000000033,64.056939577278768638
0.194000000000000034,62.873925772780694388
0.195000000000000034,61.697968077438233081
0.196000000000000035,60.529521534607553690
0.197000000000000036,59.369192971940307757
0.198000000000000037,58.217714334483865457
0.199000000000000038,57.075915313651627514
0.200000000000000039,55.944696182416194574
0.201000000000000040,54.825001585205768606
0.202000000000000041,53.717795875945149930
0.203000000000000042,52.624040453486067292
0.204000000000000042,51.544673412943190272
0.205000000000000043,50.480591715694437482
0.206000000000000044,49.432635980617419591
0.207000000000000045,48.401577914447187823
0.208000000000000046,47.388110329363726692
0.209000000000000047,46.392839640106487309
0.210000000000000048,45.416280689886590949
0.211000000000000049,44.458853722804441588
0.212000000000000050,43.520883298996821509
0.213000000000000050,42.602598935957672666
0.214000000000000051,41.704137254054181483
0.215000000000000052,40.825545404936015359
0.216000000000000053,39.966785567141620561
0.217000000000000054,39.127740302681161211
0.218000000000000055,38.308218580779744400
0.219000000000000056,37.507962289469148232
0.220000000000000057,36.726653071605184664
0.221000000000000058,35.963919338561183281
0.222000000000000058,35.219343331792764218
0.223000000000000059,34.492468119281397776
0.224000000000000060,33.782804430206965662
0.225000000000000061,33.089837246822746408
0.226000000000000062,32.413032087215270849
0.227000000000000063,31.751840926293699141
0.228000000000000064,31.105707714881276615
0.229000000000000065,30.474073468124835529
0.230000000000000066,29.856380904588100123
0.231000000000000066,29.252078626357111091
0.232000000000000067,28.660624838299895600
0.233000000000000068,28.081490611333720153
0.234000000000000069,27.514162700226233227
0.235000000000000070,26.958145931159911868
0.236000000000000071,26.412965178100268560
0.237000000000000072,25.878166950003095081
0.238000000000000073,25.353320613157176666
0.239000000000000073,24.838019274563237104
0.240000000000000074,24.331880353273010797
0.241000000000000075,23.834545867130170649
0.242000000000000076,23.345682462434343307
0.243000000000000077,22.864981213756077949
0.244000000000000078,22.392157220525440664
0.245000000000000079,21.926949026153632616
0.246000000000000080,21.469117884376792915
0.247000000000000081,21.018446896278462077
0.248000000000000081,20.574740040092663662
0.249000000000000082,20.137821114448954063
0.250000000000000111,19.707532614224724909
0.251000000000000112,19.283734556646592750
0.252000000000000113,18.866303273753565861
0.253000000000000114,18.455130185822042677
0.254000000000000115,18.050120568869761684
0.255000000000000115,17.651192327919225988
0.256000000000000116,17.258274786319148575
0.257000000000000117,16.871307500105295674
0.258000000000000118,16.490239105135731990
0.259000000000000119,16.115026203563505902
0.260000000000000120,15.745632295116223531
0.261000000000000121,15.382026757638243453
0.262000000000000122,15.024183880416689618
0.263000000000000123,14.672081952958183848
0.264000000000000123,14.325702411105357470
0.265000000000000124,13.985029041681443118
0.266000000000000125,13.650047246222030140
0.267000000000000126,13.320743363794665726
0.268000000000000127,12.997104052413742892
0.269000000000000128,12.679115728128589780
0.270000000000000129,12.366764060490975652
0.271000000000000130,12.060033522791416161
0.272000000000000131,11.758906995188073807
0.273000000000000131,11.463365418632667669
0.274000000000000132,11.173387497321879636
0.275000000000000133,10.888949447265513726
0.276000000000000134,10.610024788461249301
0.277000000000000135,10.336584178096494213
0.278000000000000136,10.068595282156671544
0.279000000000000137,9.806022682803845925
0.280000000000000138,9.548827818897084541
0.281000000000000139,9.296968957052005322
0.282000000000000139,9.050401190681309771
0.283000000000000140,8.809076464516056859
0.284000000000000141,8.572943622178572198
0.285000000000000142,8.341948474458614982
0.286000000000000143,8.116033886034257350
0.287000000000000144,7.895139878475113449
0.288000000000000145,7.679203747466758045
0.289000000000000146,7.468160192300915767
0.290000000000000147,7.261941455783109234
0.291000000000000147,7.060477472819229661
0.292000000000000148,6.863696026051526289
0.293000000000000149,6.671522907024169058
0.294000000000000150,6.483882081466189717
0.295000000000000151,6.300695857385862908
0.296000000000000152,6.121885054774315549
0.297000000000000153,5.947369175817142306
0.298000000000000154,5.777066574610274508
0.299000000000000155,5.610894625470635333
0.300000000000000155,5.448769889022194057
0.301000000000000156,5.290608275324619747
0.302000000000000157,5.136325203393425909
0.303000000000000158,4.985835756538852692
0.304000000000000159,4.839054833024016844
0.305000000000000160,4.695897291612436852
0.306000000000000161,4.556278091639876848
0.307000000000000162,4.420112427306403191
0.308000000000000163,4.287315855941134402
0.309000000000000163,4.157804420044828753
0.310000000000000164,4.031494762963960810
0.311000000000000165,3.908304238094808536
0.312000000000000166,3.788151011557101988
0.313000000000000167,3.670954158314300830
0.314000000000000168,3.556633751751716144
0.315000000000000169,3.445110946754456727
0.316000000000000170,3.336308056354890361
0.317000000000000171,3.230148622044251905
0.318000000000000171,3.126557477864938317
0.319000000000000172,3.025460808419348169
0.320000000000000173,2.926786200948245487
0.321000000000000174,2.830462691646141060
0.322000000000000175,2.736420806393614402
0.323000000000000176,2.644592596097081305
0.324000000000000177,2.554911666834990935
0.325000000000000178,2.467313205016499644
0.326000000000000179,2.381733997763675337
0.327000000000000179,2.298112448732442026
0.328000000000000180,2.216388589589779912
0.329000000000000181,2.136504087365954430
0.330000000000000182,2.058402247900954496
0.331000000000000183,1.982028015603133353
0.332000000000000184,1.907327969736696271
0.333000000000000185,1.834250317451900925
0.334000000000000186,1.762744883768692761
0.335000000000000187,1.692763098720616366
0.336000000000000187,1.624257981861318978
0.337000000000000188,1.557184124331331132
0.338000000000000189,1.491497668677084665
0.339000000000000190,1.427156286608746383
0.340000000000000191,1.364119154877495799
0.341000000000000192,1.302346929446425605
0.342000000000000193,1.241801718123166420
0.343000000000000194,1.182447051815482819
0.344000000000000195,1.124247854564907723
0.345000000000000195,1.067170412506191823
0.346000000000000196,1.011182341894238279
0.347000000000000197,0.956252556333031856
0.348000000000000198,0.902351233334623082
0.349000000000000199,0.849449780329528670
0.350000000000000200,0.797520800243344374
0.351000000000000201,0.746538056747963141
0.352000000000000202,0.696476439289477001
0.353000000000000203,0.647311927988558633
0.354000000000000203,0.599021558503113782
0.355000000000000204,0.551583386937197551
0.356000000000000205,0.504976454874291436
0.357000000000000206,0.459180754607501906
0.358000000000000207,0.414177194634092416
0.359000000000000208,0.369947565476257290
0.360000000000000209,0.326474505885202382
0.361000000000000210,0.283741469480890074
0.362000000000000210,0.241732691874913364
0.363000000000000211,0.200433158319858418
0.364000000000000212,0.159828571924017032
0.365000000000000213,0.119905322466476782
0.366000000000000214,0.080650455843635532
0.367000000000000215,0.042051644174650529
0.368000000000000216,0.004097156589685280
0.369000000000000217,-0.033224169278201911
0.370000000000000218,-0.069922955080106292
0.371000000000000218,-0.106009308802456154
0.372000000000000219,-0.141492851070549042
0.373000000000000220,-0.176382740695127993
0.374000000000000221,-0.210687699455132771
0.375000000000000222,-0.244416036111960944
0.376000000000000223,-0.277575669653006563
0.377000000000000224,-0.310174151763779826
0.378000000000000225,-0.342218688530137483
0.379000000000000226,-0.373716161373598976
0.380000000000000226,-0.404673147224541008
0.381000000000000227,-0.435095937939221689
0.382000000000000228,-0.464990558968228940
0.383000000000000229,-0.494362787284942928
0.384000000000000230,-0.523218168583757914
0.385000000000000231,-0.551562033758991266
0.386000000000000232,-0.579399514675983496
0.387000000000000233,-0.606735559247090661
0.388000000000000234,-0.633574945825632563
0.389000000000000234,-0.659922296931844010
0.390000000000000235,-0.685782092325131765
0.391000000000000236,-0.711158681437683238
0.392000000000000237,-0.736056295184696951
0.393000000000000238,-0.760479057167013139
0.394000000000000239,-0.784430994282069083
0.395000000000000240,-0.807916046759454609
0.396000000000000241,-0.830938077637463857
0.397000000000000242,-0.853500881697135449
0.398000000000000242,-0.875608193870453633
0.399000000000000243,-0.897263697139262795
0.400000000000000244,-0.918471029941597017
0.401000000000000245,-0.939233793102024150
0.402000000000000246,-0.959555556302401635
0.403000000000000247,-0.979439864109582281
0.404000000000000248,-0.998890241576209759
0.405000000000000249,-1.017910199430773766
0.406000000000000250,-1.036503238872723553
0.407000000000000250,-1.054672855988413538
0.408000000000000251,-1.072422545803233040
0.409000000000000252,-1.089755805985170856
0.410000000000000253,-1.106676140214686521
0.411000000000000254,-1.123187061235551454
0.412000000000000255,-1.139292093600940747
0.413000000000000256,-1.154994776128899003
0.414000000000000257,-1.170298664080755779
0.415000000000000258,-1.185207331076021831
0.416000000000000258,-1.199724370756675373
0.417000000000000259,-1.213853398213676105
0.418000000000000260,-1.227598051187985373
0.419000000000000261,-1.240961991058192382
0.420000000000000262,-1.253948903626364908
0.421000000000000263,-1.266562499713550505
0.422000000000000264,-1.278806515575782399
0.423000000000000265,-1.290684713151346141
0.424000000000000266,-1.302200880149582130
0.425000000000000266,-1.313358829991086552
0.426000000000000267,-1.324162401609032980
0.427000000000000268,-1.334615459120815029
0.428000000000000269,-1.344721891378942713
0.429000000000000270,-1.354485611409855572
0.430000000000000271,-1.363910555748832909
0.431000000000000272,-1.373000683679073575
0.432000000000000273,-1.381759976382472832
0.433000000000000274,-1.390192436009518584
0.434000000000000274,-1.398302084675280499
0.435000000000000275,-1.406092963388228645
0.436000000000000276,-1.413569130918351124
0.437000000000000277,-1.420734662610668053
0.438000000000000278,-1.427593649150060484
0.439000000000000279,-1.434150195283010243
0.440000000000000280,-1.440408418501557763
0.441000000000000281,-1.446372447694573404
0.442000000000000282,-1.452046421771215234
0.443000000000000282,-1.457434488261051042
0.444000000000000283,-1.462540801895319209
0.445000000000000284,-1.467369523173343016
0.446000000000000285,-1.471924816918022350
0.447000000000000286,-1.476210850824153820
0.448000000000000287,-1.480231794002905055
0.449000000000000288,-1.483991815525864011
0.450000000000000289,-1.487495082971616700
0.451000000000000290,-1.490745760977795653
0.452000000000000290,-1.493748009801326493
0.453000000000000291,-1.496505983889307778
0.454000000000000292,-1.499023830462986595
0.455000000000000293,-1.501305688116953307
0.456000000000000294,-1.503355685435627143
0.457000000000000295,-1.505177939628930650
0.458000000000000296,-1.506776555188860112
0.459000000000000297,-1.508155622568600362
0.460000000000000298,-1.509319216885640857
0.461000000000000298,-1.510271396650242126
0.462000000000000299,-1.511016202520483409
0.463000000000000300,-1.511557656084992374
0.464000000000000301,-1.511899758674377647
0.465000000000000302,-1.512046490202240800
0.466000000000000303,-1.512001808036559369
0.467000000000000304,-1.511769645902163450
0.468000000000000305,-1.511353912814882516
0.469000000000000306,-1.510758492047880708
0.470000000000000306,-1.509987240130687747
0.471000000000000307,-1.509043985881148187
0.472000000000000308,-1.507932529470715322
0.473000000000000309,-1.506656641523222762
0.474000000000000310,-1.505220062247293322
0.475000000000000311,-1.503626500602487814
0.476000000000000312,-1.501879633499213496
0.477000000000000313,-1.499983105032368425
0.478000000000000314,-1.497940525748596929
0.479000000000000314,-1.495755471947124216
0.480000000000000315,-1.493431485013865911
0.481000000000000316,-1.490972070788720183
0.482000000000000317,-1.488380698965671822
0.483000000000000318,-1.485660802525500479
0.484000000000000319,-1.482815777200698903
0.485000000000000320,-1.479848980972276795
0.486000000000000321,-1.476763733598037698
0.487000000000000322,-1.473563316171930149
0.488000000000000322,-1.470250970713958161
0.489000000000000323,-1.466829899790302871
0.490000000000000324,-1.463303266163058058
0.491000000000000325,-1.459674192469114784
0.492000000000000326,-1.455945760927652266
0.493000000000000327,-1.452121013075734712
0.494000000000000328,-1.448202949531388617
0.495000000000000329,-1.444194529783670911
0.496000000000000330,-1.440098672009056724
0.497000000000000330,-1.435918252913695348
0.498000000000000331,-1.431656107600744132
0.499000000000000332,-1.427315029462384866
0.500000000000000333,-1.422897770095786329
0.501000000000000334,-1.418407039242404188
0.502000000000000335,-1.413845504750078863
0.503000000000000336,-1.409215792557239277
0.504000000000000337,-1.404520486698642268
0.505000000000000338,-1.399762129331994176
0.506000000000000338,-1.394943220784870208
0.507000000000000339,-1.390066219621301835
0.508000000000000340,-1.385133542727381428
0.509000000000000341,-1.380147565415382305
0.510000000000000342,-1.375110621545640566
0.511000000000000343,-1.370025003665731766
0.512000000000000344,-1.364892963166244089
0.513000000000000345,-1.359716710452614663
0.514000000000000346,-1.354498415132447953
0.515000000000000346,-1.349240206217689364
0.516000000000000347,-1.343944172341104970
0.517000000000000348,-1.338612361986558197
0.518000000000000349,-1.333246783732403351
0.519000000000000350,-1.327849406507596086
0.520000000000000351,-1.322422159859829360
0.521000000000000352,-1.316966934235315412
0.522000000000000353,-1.311485581269545619
0.523000000000000353,-1.305979914088618354
0.524000000000000354,-1.300451707620594588
0.525000000000000355,-1.294902698916370998
0.526000000000000356,-1.289334587479591843
0.527000000000000357,-1.283749035605168176
0.528000000000000358,-1.278147668725845287
0.529000000000000359,-1.272532075766473314
0.530000000000000360,-1.266903809505427692
0.531000000000000361,-1.261264386942830606
0.532000000000000361,-1.255615289675084956
0.533000000000000362,-1.249957964275349775
0.534000000000000363,-1.244293822679504391
0.535000000000000364,-1.238624242577262446
0.536000000000000365,-1.232950567807982845
0.537000000000000366,-1.227274108760874949
0.538000000000000367,-1.221596142779137750
0.539000000000000368,-1.215917914567806735
0.540000000000000369,-1.210240636604805298
0.541000000000000369,-1.204565489555023294
0.542000000000000370,-1.198893622686951765
0.543000000000000371,-1.193226154291661567
0.544000000000000372,-1.187564172103767302
0.545000000000000373,-1.181908733724091665
0.546000000000000374,-1.176260867043738001
0.547000000000000375,-1.170621570669277522
0.548000000000000376,-1.164991814348823151
0.549000000000000377,-1.159372539398673352
0.550000000000000377,-1.153764659130315895
0.551000000000000378,-1.148169059277502235
0.552000000000000379,-1.142586598423224853
0.553000000000000380,-1.137018108426294249
0.554000000000000381,-1.131464394847327304
0.555000000000000382,-1.125926237373985561
0.556000000000000383,-1.120404390245141490
0.557000000000000384,-1.114899582673922751
0.558000000000000385,-1.109412519269308062
0.559000000000000385,-1.103943880456205839
0.560000000000000386,-1.098494322893774244
0.561000000000000387,-1.093064479891844964
0.562000000000000388,-1.087654961825268440
0.563000000000000389,-1.082266356546086161
0.564000000000000390,-1.076899229793298662
0.565000000000000391,-1.071554125600169494
0.566000000000000392,-1.066231566698875755
0.567000000000000393,-1.060932054922444578
0.568000000000000393,-1.055656071603763513
0.569000000000000394,-1.050404077971641037
0.570000000000000395,-1.045176515543774887
0.571000000000000396,-1.039973806516482302
0.572000000000000397,-1.034796354151207298
0.573000000000000398,-1.029644543157568481
0.574000000000000399,-1.024518740073006473
0.575000000000000400,-1.019419293638830215
0.576000000000000401,-1.014346535172656605
0.577000000000000401,-1.009300778937179510
0.578000000000000402,-1.004282322505140046
0.579000000000000403,-0.999291447120480014
0.580000000000000404,-0.994328418055654639
0.581000000000000405,-0.989393484964953496
0.582000000000000406,-0.984486882233899130
0.583000000000000407,-0.979608829324574493
0.584000000000000408,-0.974759531116916378
0.585000000000000409,-0.969939178245896372
0.586000000000000409,-0.965147947434553677
0.587000000000000410,-0.960386001822903679
0.588000000000000411,-0.955653491292597579
0.589000000000000412,-0.950950552787438452
0.590000000000000413,-0.946277310629602630
0.591000000000000414,-0.941633876831650563
0.592000000000000415,-0.937020351404276974
0.593000000000000416,-0.932436822659765907
0.594000000000000417,-0.927883367511173618
0.595000000000000417,-0.923360051767267542
0.596000000000000418,-0.918866930423100969
0.597000000000000419,-0.914404047946389076
0.598000000000000420,-0.909971438559522228
0.599000000000000421,-0.905569126517362655
0.600000000000000422,-0.901197126380735680
0.601000000000000423,-0.896855443285658360
0.602000000000000424,-0.892544073208334732
0.603000000000000425,-0.888263003225907122
0.604000000000000425,-0.884012211772967404
0.605000000000000426,-0.879791668893876055
0.606000000000000427,-0.875601336490921200
0.607000000000000428,-0.871441168568220959
0.608000000000000429,-0.867311111471614771
0.609000000000000430,-0.863211104124284256
0.610000000000000431,-0.859141078258398139
0.611000000000000432,-0.855100958642615594
0.612000000000000433,-0.851090663305550166
0.613000000000000433,-0.847110103755251864
0.614000000000000434,-0.843159185194667371
0.615000000000000435,-0.839237806733152070
0.616000000000000436,-0.835345861594046446
0.617000000000000437,-0.831483237318396795
0.618000000000000438,-0.827649815964778157
0.619000000000000439,-0.823845474305289649
0.620000000000000440,-0.820070084017793355
0.621000000000000441,-0.816323511874367469
0.622000000000000441,-0.812605619926061395
0.623000000000000442,-0.808916265683947366
0.624000000000000443,-0.805255302296546960
0.625000000000000444,-0.801622578723660495
0.626000000000000445,-0.798017939906594531
0.627000000000000446,-0.794441226934902822
0.628000000000000447,-0.790892277209619521
0.629000000000000448,-0.787370924603045808
0.630000000000000449,-0.783876999615128911
0.631000000000000449,-0.780410329526484481
0.632000000000000450,-0.776970738548080853
0.633000000000000451,-0.773558047967663365
0.634000000000000452,-0.770172076292895857
0.635000000000000453,-0.766812639391351025
0.636000000000000454,-0.763479550627293335
0.637000000000000455,-0.760172620995392956
0.638000000000000456,-0.756891659251319737
0.639000000000000457,-0.753636472039332150
0.640000000000000457,-0.750406864016884834
0.641000000000000458,-0.747202637976241979
0.642000000000000459,-0.744023594963246215
0.643000000000000460,-0.740869534393165274
0.644000000000000461,-0.737740254163760212
0.645000000000000462,-0.734635550765552980
0.646000000000000463,-0.731555219389350531
0.647000000000000464,-0.728499054031082283
0.648000000000000465,-0.725466847593990272
0.649000000000000465,-0.722458391988180626
0.650000000000000466,-0.719473478227637186
0.651000000000000467,-0.716511896524660963
0.652000000000000468,-0.713573436381864878
0.653000000000000469,-0.710657886681673956
0.654000000000000470,-0.707765035773458284
0.655000000000000471,-0.704894671558267683
0.656000000000000472,-0.702046581571245998
0.657000000000000473,-0.699220553061750238
0.658000000000000473,-0.696416373071236938
0.659000000000000474,-0.693633828508916750
0.660000000000000475,-0.690872706225249211
0.661000000000000476,-0.688132793083289784
0.662000000000000477,-0.685413876027962887
0.663000000000000478,-0.682715742153249150
0.664000000000000479,-0.680038178767389256
0.665000000000000480,-0.677380973456048308
0.666000000000000481,-0.674743914143604018
0.667000000000000481,-0.672126789152448723
0.668000000000000482,-0.669529387260492714
0.669000000000000483,-0.666951497756762435
0.670000000000000484,-0.664392910495238409
0.671000000000000485,-0.661853415946911605
0.672000000000000486,-0.659332805250088194
0.673000000000000487,-0.656830870259040411
0.674000000000000488,-0.654347403590935239
0.675000000000000488,-0.651882198671163815
0.676000000000000489,-0.649435049777080331
0.677000000000000490,-0.647005752080134444
0.678000000000000491,-0.644594101686513099
0.679000000000000492,-0.642199895676248911
0.680000000000000493,-0.639822932140863498
0.681000000000000494,-0.637463010219586623
0.682000000000000495,-0.635119930134132482
0.683000000000000496,-0.632793493222134518
0.684000000000000496,-0.630483501969202775
0.685000000000000497,-0.628189760039662981
0.686000000000000498,-0.625912072306025635
0.687000000000000499,-0.623650244877158477
0.688000000000000500,-0.621404085125247141
0.689000000000000501,-0.619173401711542004
0.690000000000000502,-0.616958004610928867
0.691000000000000503,-0.614757705135341781
0.692000000000000504,-0.612572315956034563
0.693000000000000504,-0.610401651124799050
0.694000000000000505,-0.608245526094036038
0.695000000000000506,-0.606103757735854898
0.696000000000000507,-0.603976164360091716
0.697000000000000508,-0.601862565731346111
0.698000000000000509,-0.599762783085050821
0.699000000000000510,-0.597676639142581734
0.700000000000000511,-0.595603958125431321
0.701000000000000512,-0.593544565768495125
0.702000000000000512,-0.591498289332455629
0.703000000000000513,-0.589464957615320140
0.704000000000000514,-0.587444400963114566
0.705000000000000515,-0.585436451279754966
0.706000000000000516,-0.583440942036133614
0.707000000000000517,-0.581457708278427909
0.708000000000000518,-0.579486586635625911
0.709000000000000519,-0.577527415326385629
0.710000000000000520,-0.575580034165089405
0.711000000000000520,-0.573644284567280449
0.712000000000000521,-0.571720009554380182
0.713000000000000522,-0.569807053757748094
0.714000000000000523,-0.567905263422132878
0.715000000000000524,-0.566014486408459083
0.716000000000000525,-0.564134572196048900
0.717000000000000526,-0.562265371884235976
0.718000000000000527,-0.560406738193404030
0.719000000000000528,-0.558558525465483791
0.720000000000000528,-0.556720589663932786
0.721000000000000529,-0.554892788373137491
0.722000000000000530,-0.553074980797380045
0.723000000000000531,-0.551267027759252848
0.724000000000000532,-0.549468791697648173
0.725000000000000533,-0.547680136665265715
0.726000000000000534,-0.545900928325663504
0.727000000000000535,-0.544131033949907472
0.728000000000000536,-0.542370322412778494
0.729000000000000536,-0.540618664188586617
0.730000000000000537,-0.538875931346607606
0.731000000000000538,-0.537141997546112693
0.732000000000000539,-0.535416738031066153
0.733000000000000540,-0.533700029624454175
0.734000000000000541,-0.531991750722281220
0.735000000000000542,-0.530291781287224651
0.736000000000000543,-0.528600002842008032
0.737000000000000544,-0.526916298462427046
0.738000000000000544,-0.525240552770127489
0.739000000000000545,-0.523572651925064081
0.740000000000000546,-0.521912483617713141
0.741000000000000547,-0.520259937061002264
0.742000000000000548,-0.518614902982045822
0.743000000000000549,-0.516977273613549948
0.744000000000000550,-0.515346942685069864
0.745000000000000551,-0.513723805414007639
0.746000000000000552,-0.512107758496407550
0.747000000000000552,-0.510498700097558378
0.748000000000000553,-0.508896529842382650
0.749000000000000554,-0.507301148805660462
0.750000000000000555,-0.505712459502077438
0.751000000000000556,-0.504130365876089614
0.752000000000000557,-0.502554773291666312
0.753000000000000558,-0.500985588521816960
0.754000000000000559,-0.499422719738058518
0.755000000000000560,-0.497866076499672627
0.756000000000000560,-0.496315569742898810
0.757000000000000561,-0.494771111769943317
0.758000000000000562,-0.493232616237922195
0.759000000000000563,-0.491699998147685502
0.760000000000000564,-0.490173173832535447
0.761000000000000565,-0.488652060946848987
0.762000000000000566,-0.487136578454625657
0.763000000000000567,-0.485626646617941027
0.764000000000000568,-0.484122186985326663
0.765000000000000568,-0.482623122380102632
0.766000000000000569,-0.481129376888609517
0.767000000000000570,-0.479640875848420134
0.768000000000000571,-0.478157545836459363
0.769000000000000572,-0.476679314657120212
0.770000000000000573,-0.475206111330299996
0.771000000000000574,-0.473737866079425973
0.772000000000000575,-0.472274510319434238
0.773000000000000576,-0.470815976644720302
0.774000000000000576,-0.469362198817074361
0.775000000000000577,-0.467913111753599953
0.776000000000000578,-0.466468651514599653
0.777000000000000579,-0.465028755291482021
0.778000000000000580,-0.463593361394626424
0.779000000000000581,-0.462162409241274219
0.780000000000000582,-0.460735839343403009
0.781000000000000583,-0.459313593295625822
0.782000000000000584,-0.457895613763077136
0.783000000000000584,-0.456481844469318887
0.784000000000000585,-0.455072230184280335
0.785000000000000586,-0.453666716712181117
0.786000000000000587,-0.452265250879513914
0.787000000000000588,-0.450867780523026507
0.788000000000000589,-0.449474254477733592
0.789000000000000590,-0.448084622564986046
0.790000000000000591,-0.446698835580535580
0.791000000000000592,-0.445316845282662244
0.792000000000000592,-0.443938604380335278
0.793000000000000593,-0.442564066521404897
0.794000000000000594,-0.441193186280852523
0.795000000000000595,-0.439825919149088196
0.796000000000000596,-0.438462221520266648
0.797000000000000597,-0.437102050680699239
0.798000000000000598,-0.435745364797285373
0.799000000000000599,-0.434392122906000100
0.800000000000000600,-0.433042284900467311
0.801000000000000600,-0.431695811520552808
0.802000000000000601,-0.430352664341038083
0.803000000000000602,-0.429012805760354499
0.804000000000000603,-0.427676198989380640
0.805000000000000604,-0.426342808040309940
0.806000000000000605,-0.425012597715550666
0.807000000000000606,-0.423685533596752595
0.808000000000000607,-0.422361582033851657
0.809000000000000608,-0.421040710134203189
0.810000000000000608,-0.419722885751809105
0.811000000000000609,-0.418408077476558671
0.812000000000000610,-0.417096254623623708
0.813000000000000611,-0.415787387222850302
0.814000000000000612,-0.414481446008276688
0.815000000000000613,-0.413178402407725354
0.816000000000000614,-0.411878228532438218
0.817000000000000615,-0.410580897166824776
0.818000000000000616,-0.409286381758283913
0.819000000000000616,-0.407994656407093870
0.820000000000000617,-0.406705695856379168
0.821000000000000618,-0.405419475482189484
0.822000000000000619,-0.404135971283632156
0.823000000000000620,-0.402855159873094948
0.824000000000000621,-0.401577018466546587
0.825000000000000622,-0.400301524873941161
0.826000000000000623,-0.399028657489688465
0.827000000000000624,-0.397758395283207999
0.828000000000000624,-0.396490717789584501
0.829000000000000625,-0.395225605100283484
0.830000000000000626,-0.393963037853981124
0.831000000000000627,-0.392702997227457440
0.832000000000000628,-0.391445464926592546
0.833000000000000629,-0.390190423177433243
0.834000000000000630,-0.388937854717354092
0.835000000000000631,-0.387687742786308409
0.836000000000000631,-0.386440071118159867
0.837000000000000632,-0.385194823932111685
0.838000000000000633,-0.383951985924200212
0.839000000000000634,-0.382711542258896031
0.840000000000000635,-0.381473478560795776
0.841000000000000636,-0.380237780906371226
0.842000000000000637,-0.379004435815843865
0.843000000000000638,-0.377773430245114283
0.844000000000000639,-0.376544751577796211
0.845000000000000639,-0.375318387617334048
0.846000000000000640,-0.374094326579188841
0.847000000000000641,-0.372872557083157807
0.848000000000000642,-0.371653068145714471
0.849000000000000643,-0.370435849172481790
0.850000000000000644,-0.369220889950792053
0.851000000000000645,-0.368008180642290239
0.852000000000000646,-0.366797711775668833
0.853000000000000647,-0.365589474239464862
0.854000000000000647,-0.364383459274936872
0.855000000000000648,-0.363179658469040434
0.856000000000000649,-0.361978063747482648
0.857000000000000650,-0.360778667367857075
0.858000000000000651,-0.359581461912858280
0.859000000000000652,-0.358386440283586294
0.860000000000000653,-0.357193595692943566
0.861000000000000654,-0.356002921659076099
0.862000000000000655,-0.354814411998949752
0.863000000000000655,-0.353628060821958079
0.864000000000000656,-0.352443862523648621
0.865000000000000657,-0.351261811779495059
0.866000000000000658,-0.350081903538783434
0.867000000000000659,-0.348904133018562879
0.868000000000000660,-0.347728495697660012
0.869000000000000661,-0.346554987310792650
0.870000000000000662,-0.345383603842753240
0.871000000000000663,-0.344214341522687095
0.872000000000000663,-0.343047196818400513
0.873000000000000664,-0.341882166430804824
0.874000000000000665,-0.340719247288390203
0.875000000000000666,-0.339558436541802955
0.876000000000000667,-0.338399731558482297
0.877000000000000668,-0.337243129917372375
0.878000000000000669,-0.336088629403724581
0.879000000000000670,-0.334936228003944236
0.880000000000000671,-0.333785923900542680
0.881000000000000671,-0.332637715467124784
0.882000000000000672,-0.331491601263491087
0.883000000000000673,-0.330347580030766919
0.884000000000000674,-0.329205650686640539
0.885000000000000675,-0.328065812320637196
0.886000000000000676,-0.326928064189492273
0.887000000000000677,-0.325792405712570010
0.888000000000000678,-0.324658836467360712
0.889000000000000679,-0.323527356185048631
0.890000000000000679,-0.322397964746139631
0.891000000000000680,-0.321270662176158683
0.892000000000000681,-0.320145448641412922
0.893000000000000682,-0.319022324444815875
0.894000000000000683,-0.317901290021779581
0.895000000000000684,-0.316782345936175880
0.896000000000000685,-0.315665492876352372
0.897000000000000686,-0.314550731651209503
0.898000000000000687,-0.313438063186354809
0.899000000000000687,-0.312327488520299457
0.900000000000000688,-0.311219008800728947
0.901000000000000689,-0.310112625280826282
0.902000000000000690,-0.309008339315665514
0.903000000000000691,-0.307906152358650320
0.904000000000000692,-0.306806065958021623
0.905000000000000693,-0.305708081753415906
0.906000000000000694,-0.304612201472494459
0.907000000000000695,-0.303518426927603058
0.908000000000000695,-0.302426760012523332
0.909000000000000696,-0.301337202699241524
0.910000000000000697,-0.300249757034809273
0.911000000000000698,-0.299164425138226053
0.912000000000000699,-0.298081209197396779
0.913000000000000700,-0.297000111466143357
0.914000000000000701,-0.295921134261240282
0.915000000000000702,-0.294844279959547984
0.916000000000000703,-0.293769550995155559
0.917000000000000703,-0.292696949856600996
0.918000000000000704,-0.291626479084129420
0.919000000000000705,-0.290558141267001357
0.920000000000000706,-0.289491939040862289
0.921000000000000707,-0.288427875085140006
0.922000000000000708,-0.287365952120504808
0.923000000000000709,-0.286306172906387157
0.924000000000000710,-0.285248540238505821
0.925000000000000711,-0.284193056946484446
0.926000000000000711,-0.283139725891486116
0.927000000000000712,-0.282088549963903423
0.928000000000000713,-0.281039532081088339
0.929000000000000714,-0.279992675185145090
0.930000000000000715,-0.278947982240730918
0.931000000000000716,-0.277905456232927894
0.932000000000000717,-0.276865100165157862
0.933000000000000718,-0.275826917057117260
0.934000000000000719,-0.274790909942778216
0.935000000000000719,-0.273757081868417518
0.936000000000000720,-0.272725435890681656
0.937000000000000721,-0.271695975074703777
0.938000000000000722,-0.270668702492258328
0.939000000000000723,-0.269643621219942453
0.940000000000000724,-0.268620734337407463
0.941000000000000725,-0.267600044925625613
0.942000000000000726,-0.266581556065198344
0.943000000000000727,-0.265565270834682177
0.944000000000000727,-0.264551192308982275
0.945000000000000728,-0.263539323557759220
0.946000000000000729,-0.262529667643864095
0.947000000000000730,-0.261522227621846792
0.948000000000000731,-0.260517006536447659
0.949000000000000732,-0.259514007421167814
0.950000000000000733,-0.258513233296838896
0.951000000000000734,-0.257514687170259049
0.952000000000000735,-0.256518372032830511
0.953000000000000735,-0.255524290859239167
0.954000000000000736,-0.254532446606181406
0.955000000000000737,-0.253542842211099961
0.956000000000000738,-0.252555480590966996
0.957000000000000739,-0.251570364641085065
0.958000000000000740,-0.250587497233930478
0.959000000000000741,-0.249606881218009058
0.960000000000000742,-0.248628519416766391
0.961000000000000743,-0.247652414627499790
0.962000000000000743,-0.246678569620312343
0.963000000000000744,-0.245706987137095212
0.964000000000000745,-0.244737669890539022
0.965000000000000746,-0.243770620563158291
0.966000000000000747,-0.242805841806362332
0.967000000000000748,-0.241843336239530082
0.968000000000000749,-0.240883106449140932
0.969000000000000750,-0.239925154987892408
0.970000000000000751,-0.238969484373883656
0.971000000000000751,-0.238016097089786743
0.972000000000000752,-0.237064995582059762
0.973000000000000753,-0.236116182260201674
0.974000000000000754,-0.235169659495987171
0.975000000000000755,-0.234225429622764908
0.976000000000000756,-0.233283494934757224
0.977000000000000757,-0.232343857686386490
0.978000000000000758,-0.231406520091624601
0.979000000000000759,-0.230471484323375331
0.980000000000000759,-0.229538752512846944
0.981000000000000760,-0.228608326748980101
0.982000000000000761,-0.227680209077883861
0.983000000000000762,-0.226754401502280295
0.984000000000000763,-0.225830905980980434
0.985000000000000764,-0.224909724428387525
0.986000000000000765,-0.223990858714002261
0.987000000000000766,-0.223074310661955350
0.988000000000000766,-0.222160082050559204
0.989000000000000767,-0.221248174611880039
0.990000000000000768,-0.220338590031329357
0.991000000000000769,-0.219431329947253007
0.992000000000000770,-0.218526395950565888
0.993000000000000771,-0.217623789584397487
0.994000000000000772,-0.216723512343728414
0.995000000000000773,-0.215825565675084624
0.996000000000000774,-0.214929950976210427
0.997000000000000774,-0.214036669595784185
0.998000000000000775,-0.213145722833132462
0.999000000000000776,-0.212257111937969423
1.000000000000000666,-0.211370838110144510
1.001000000000000778,-0.210486902499415013
1.002000000000000668,-0.209605306205219222
1.003000000000000780,-0.208726050276475117
1.004000000000000670,-0.207849135711386024
1.005000000000000782,-0.206974563457268890
1.006000000000000671,-0.206102334410388804
1.007000000000000783,-0.205232449415799406
1.008000000000000673,-0.204364909267217509
1.009000000000000785,-0.203499714706891488
1.010000000000000675,-0.202636866425490003
1.011000000000000787,-0.201776365061998947
1.012000000000000677,-0.200918211203638897
1.013000000000000789,-0.200062405385788955
1.014000000000000679,-0.199208948091908061
1.015000000000000790,-0.198357839753500687
1.016000000000000680,-0.197509080750064875
1.017000000000000792,-0.196662671409059797
1.018000000000000682,-0.195818612005883297
1.019000000000000794,-0.194976902763866755
1.020000000000000684,-0.194137543854275008
1.021000000000000796,-0.193300535396309064
1.022000000000000686,-0.192465877457131423
1.023000000000000798,-0.191633570051893770
1.024000000000000687,-0.190803613143773226
1.025000000000000799,-0.189976006644021950
1.026000000000000689,-0.189150750412026558
1.027000000000000801,-0.188327844255367111
1.028000000000000691,-0.187507287929895933
1.029000000000000803,-0.186689081139819552
1.030000000000000693,-0.185873223537783128
1.031000000000000805,-0.185059714724982810
1.032000000000000695,-0.184248554251256635
1.033000000000000806,-0.183439741615207985
1.034000000000000696,-0.182633276264328792
1.035000000000000808,-0.181829157595119362
1.036000000000000698,-0.181027384953229176
1.037000000000000810,-0.180227957633610852
1.038000000000000700,-0.179430874880652041
1.039000000000000812,-0.178636135888338932
1.040000000000000702,-0.177843739800427642
1.041000000000000814,-0.177053685710605119
1.042000000000000703,-0.176265972662661419
1.043000000000000815,-0.175480599650681995
1.044000000000000705,-0.174697565619232664
1.045000000000000817,-0.173916869463539403
1.046000000000000707,-0.173138510029707982
1.047000000000000819,-0.172362486114915642
1.048000000000000709,-0.171588796467623650
1.049000000000000821,-0.170817439787791819
1.050000000000000711,-0.170048414727094865
1.051000000000000822,-0.169281719889156801
1.052000000000000712,-0.168517353829768401
1.053000000000000824,-0.167755315057130316
1.054000000000000714,-0.166995602032085522
1.055000000000000826,-0.166238213168366872
1.056000000000000716,-0.165483146832840128
1.057000000000000828,-0.164730401345758920
1.058000000000000718,-0.163979974981014825
1.059000000000000830,-0.163231865966400241
1.060000000000000719,-0.162486072483870619
1.061000000000000831,-0.161742592669810781
1.062000000000000721,-0.161001424615298705
1.063000000000000833,-0.160262566366393161
1.064000000000000723,-0.159526015924394360
1.065000000000000835,-0.158791771246129365
1.066000000000000725,-0.158059830244244137
1.067000000000000837,-0.157330190787466712
1.068000000000000727,-0.156602850700924195
1.069000000000000838,-0.155877807766408499
1.070000000000000728,-0.155155059722686839
1.071000000000000840,-0.154434604265789643
1.072000000000000730,-0.153716439049315229
1.073000000000000842,-0.153000561684728476
1.074000000000000732,-0.152286969741657591
1.075000000000000844,-0.151575660748210855
1.076000000000000734,-0.150866632191282546
1.077000000000000846,-0.150159881516852167
1.078000000000000735,-0.149455406130311969
1.079000000000000847,-0.148753203396762013
1.080000000000000737,-0.148053270641347767
1.081000000000000849,-0.147355605149555979
1.082000000000000739,-0.146660204167542857
1.083000000000000851,-0.145967064902454563
1.084000000000000741,-0.145276184522748653
1.085000000000000853,-0.144587560158511236
1.086000000000000743,-0.143901188901784188
1.087000000000000854,-0.143217067806893944
1.088000000000000744,-0.142535193890776790
1.089000000000000856,-0.141855564133295642
1.090000000000000746,-0.141178175477580437
1.091000000000000858,-0.140503024830355844
1.092000000000000748,-0.139830109062262758
1.093000000000000860,-0.139159425008202497
1.094000000000000750,-0.138490969467650438
1.095000000000000862,-0.137824739205005070
1.096000000000000751,-0.137160730949915516
1.097000000000000863,-0.136498941397602325
1.098000000000000753,-0.135839367209211248
1.099000000000000865,-0.135182005012135648
1.100000000000000755,-0.134526851400348757
1.101000000000000867,-0.133873902934743716
1.102000000000000757,-0.133223156143466526
1.103000000000000869,-0.132574607522255195
1.104000000000000759,-0.131928253534761897
1.105000000000000870,-0.131284090612907467
1.106000000000000760,-0.130642115157194538
1.107000000000000872,-0.130002323537061981
1.108000000000000762,-0.129364712091210171
1.109000000000000874,-0.128729277127939579
1.110000000000000764,-0.128096014925480062
1.111000000000000876,-0.127464921732328734
1.112000000000000766,-0.126835993767586086
1.113000000000000878,-0.126209227221287551
1.114000000000000767,-0.125584618254739516
1.115000000000000879,-0.124962163000845589
1.116000000000000769,-0.124341857564447669
1.117000000000000881,-0.123723698022652012
1.118000000000000771,-0.123107680425163069
1.119000000000000883,-0.122493800794616872
1.120000000000000773,-0.121882055126908612
1.121000000000000885,-0.121272439391523171
1.122000000000000774,-0.120664949531861770
1.123000000000000886,-0.120059581465572357
1.124000000000000776,-0.119456331084885736
1.125000000000000888,-0.118855194256923064
1.126000000000000778,-0.118256166824035808
1.127000000000000890,-0.117659244604138055
1.128000000000000780,-0.117064423391007838
1.129000000000000892,-0.116471698954630498
1.130000000000000782,-0.115881067041516655
1.131000000000000894,-0.115292523375014569
1.132000000000000783,-0.114706063655641913
1.133000000000000895,-0.114121683561405327
1.134000000000000785,-0.113539378748102271
1.135000000000000897,-0.112959144849664267
1.136000000000000787,-0.112380977478449079
1.137000000000000899,-0.111804872225573518
1.138000000000000789,-0.111230824661211786
1.139000000000000901,-0.110658830334928210
1.140000000000000790,-0.110088884775970522
1.141000000000000902,-0.109520983493583662
1.142000000000000792,-0.108955121977328637
1.143000000000000904,-0.108391295697378848
1.144000000000000794,-0.107829500104840964
1.145000000000000906,-0.107269730632037152
1.146000000000000796,-0.106711982692835300
1.147000000000000908,-0.106156251682934050
1.148000000000000798,-0.105602532980170083
1.149000000000000909,-0.105050821944819489
1.150000000000000799,-0.104501113919888325
1.151000000000000689,-0.103953404231421145
1.152000000000000801,-0.103407688188788066
1.153000000000000913,-0.102863961084984856
1.154000000000000803,-0.102322218196920806
1.155000000000000693,-0.101782454785708326
1.156000000000000805,-0.101244666096966335
1.157000000000000917,-0.100708847361086790
1.158000000000000806,-0.100174993793541847
1.159000000000000696,-0.099643100595158157
1.160000000000000808,-0.099113162952400566
1.161000000000000920,-0.098585176037657721
1.162000000000000810,-0.098059135009526524
1.163000000000000700,-0.097535035013080862
1.164000000000000812,-0.097012871180157292
1.165000000000000924,-0.096492638629624400
1.166000000000000814,-0.095974332467668289
1.167000000000000703,-0.095457947788048808
1.168000000000000815,-0.094943479672389947
1.169000000000000927,-0.094430923190429478
1.170000000000000817,-0.093920273400303123
1.171000000000000707,-0.093411525348797000
1.172000000000000819,-0.092904674071628141
1.173000000000000931,-0.092399714593691604
1.174000000000000821,-0.091896641929329267
1.175000000000000711,-0.091395451082588924
1.176000000000000822,-0.090896137047483200
1.177000000000000934,-0.090398694808241739
1.178000000000000824,-0.089903119339571930
1.179000000000000714,-0.089409405606900111
1.180000000000000826,-0.088917548566641247
1.181000000000000938,-0.088427543166427619
1.182000000000000828,-0.087939384345371061
1.183000000000000718,-0.087453067034306137
1.184000000000000830,-0.086968586156032382
1.185000000000000941,-0.086485936625550638
1.186000000000000831,-0.086005113350320433
1.187000000000000721,-0.085526111230480567
1.188000000000000833,-0.085048925159100522
1.189000000000000945,-0.084573550022409238
1.190000000000000835,-0.084099980700034299
1.191000000000000725,-0.083628212065221322
1.192000000000000837,-0.083158238985088229
1.193000000000000949,-0.082690056320826100
1.194000000000000838,-0.082223658927950152
1.195000000000000728,-0.081759041656508852
1.196000000000000840,-0.081296199351314533
1.197000000000000952,-0.080835126852171285
1.198000000000000842,-0.080375818994078002
1.199000000000000732,-0.079918270607470782
1.200000000000000844,-0.079462476518412234
1.201000000000000956,-0.079008431548830291
1.202000000000000846,-0.078556130516720585
1.203000000000000735,-0.078105568236358738
1.204000000000000847,-0.077656739518506351
1.205000000000000959,-0.077209639170635003
1.206000000000000849,-0.076764261997113323
1.207000000000000739,-0.076320602799421614
1.208000000000000851,-0.075878656376356629
1.209000000000000963,-0.075438417524226101
1.210000000000000853,-0.074999881037057722
1.211000000000000743,-0.074563041706786098
1.212000000000000854,-0.074127894323459648
1.213000000000000966,-0.073694433675423471
1.214000000000000856,-0.073262654549529599
1.215000000000000746,-0.072832551731307177
1.216000000000000858,-0.072404120005170630
1.217000000000000970,-0.071977354154595205
1.218000000000000860,-0.071552248962308829
1.219000000000000750,-0.071128799210474491
1.220000000000000862,-0.070706999680876834
1.221000000000000973,-0.070286845155096506
1.222000000000000863,-0.069868330414699059
1.223000000000000753,-0.069451450241401300
1.224000000000000865,-0.069036199417258998
1.225000000000000977,-0.068622572724834477
1.226000000000000867,-0.068210564947373584
1.227000000000000757,-0.067800170868972845
1.228000000000000869,-0.067391385274748208
1.229000000000000981,-0.066984202951017882
1.230000000000000870,-0.066578618685443777
1.231000000000000760,-0.066174627267216429
1.232000000000000872,-0.065772223487217979
1.233000000000000984,-0.065371402138164114
1.234000000000000874,-0.064972158014790796
1.235000000000000764,-0.064574485913993437
1.236000000000000876,-0.064178380634991539
1.237000000000000988,-0.063783836979482450
1.238000000000000878,-0.063390849751798678
1.239000000000000767,-0.062999413759053186
1.240000000000000879,-0.062609523811297169
1.241000000000000991,-0.062221174721665731
1.242000000000000881,-0.061834361306524407
1.243000000000000771,-0.061449078385618083
1.244000000000000883,-0.061065320782212398
1.245000000000000995,-0.060683083323243327
1.246000000000000885,-0.060302360839450939
1.247000000000000774,-0.059923148165520926
1.248000000000000886,-0.059545440140228181
1.249000000000000998,-0.059169231606568576
1.250000000000000888,-0.058794517411899158
1.251000000000000778,-0.058421292408065352
1.252000000000000890,-0.058049551451541448
1.253000000000001002,-0.057679289403554677
1.254000000000000892,-0.057310501130223401
1.255000000000000782,-0.056943181502675522
1.256000000000000894,-0.056577325397180543
1.257000000000001005,-0.056212927695277325
1.258000000000000895,-0.055849983283893033
1.259000000000000785,-0.055488487055468626
1.260000000000000897,-0.055128433908077180
1.261000000000001009,-0.054769818745549335
1.262000000000000899,-0.054412636477584708
1.263000000000000789,-0.054056882019872562
1.264000000000000901,-0.053702550294208319
1.265000000000001013,-0.053349636228603912
1.266000000000000902,-0.052998134757405370
1.267000000000000792,-0.052648040821398581
1.268000000000000904,-0.052299349367925331
1.269000000000001016,-0.051952055350987417
1.270000000000000906,-0.051606153731358906
1.271000000000000796,-0.051261639476687847
1.272000000000000908,-0.050918507561600171
1.273000000000001020,-0.050576752967807871
1.274000000000000909,-0.050236370684210739
1.275000000000000799,-0.049897355706988965
1.276000000000000911,-0.049559703039717365
1.277000000000001023,-0.049223407693449142
1.278000000000000913,-0.048888464686820163
1.279000000000000803,-0.048554869046146018
1.280000000000000915,-0.048222615805517108
1.281000000000001027,-0.047891700006878646
1.282000000000000917,-0.047562116700145263
1.283000000000000806,-0.047233860943270291
1.284000000000000918,-0.046906927802352373
1.285000000000001030,-0.046581312351709779
1.286000000000000920,-0.046257009673978930
1.287000000000000810,-0.045934014860191150
1.288000000000000922,-0.045612323009867409
1.289000000000001034,-0.045291929231091710
1.290000000000000924,-0.044972828640596367
1.291000000000000814,-0.044655016363852454
1.292000000000000925,-0.044338487535131796
1.293000000000001037,-0.044023237297606557
1.294000000000000927,-0.043709260803413572
1.295000000000000817,-0.043396553213729240
1.296000000000000929,-0.043085109698858121
1.297000000000001041,-0.042774925438292297
1.298000000000000931,-0.042465995620796990
1.299000000000000821,-0.042158315444477144
1.300000000000000933,-0.041851880116843751
1.301000000000001044,-0.041546684854895065
1.302000000000000934,-0.041242724885174685
1.303000000000000824,-0.040939995443850415
1.304000000000000936,-0.040638491776766116
1.305000000000001048,-0.040338209139523441
1.306000000000000938,-0.040039142797536890
1.307000000000000828,-0.039741288026099608
1.308000000000000940,-0.039444640110442984
1.309000000000001052,-0.039149194345808692
1.310000000000000941,-0.038854946037495675
1.311000000000000831,-0.038561890500930035
1.312000000000000943,-0.038270023061712698
1.313000000000001055,-0.037979339055695019
1.314000000000000945,-0.037689833829015071
1.315000000000000835,-0.037401502738164186
1.316000000000000947,-0.037114341150041891
1.317000000000001059,-0.036828344442008408
1.318000000000000949,-0.036543508001928390
1.319000000000000838,-0.036259827228241927
1.320000000000000950,-0.035977297529997010
1.321000000000001062,-0.035695914326906594
1.322000000000000952,-0.035415673049401492
1.323000000000000842,-0.035136569138669492
1.324000000000000954,-0.034858598046710806
1.325000000000001066,-0.034581755236377500
1.326000000000000956,-0.034306036181425963
1.327000000000000846,-0.034031436366554237
1.328000000000000957,-0.033757951287452306
1.329000000000001069,-0.033485576450835497
1.330000000000000959,-0.033214307374499180
1.331000000000000849,-0.032944139587349895
1.332000000000000961,-0.032675068629444581
1.333000000000001073,-0.032407090052035570
1.334000000000000963,-0.032140199417610225
1.335000000000000853,-0.031874392299920409
1.336000000000000965,-0.031609664284025327
1.337000000000001076,-0.031346010966329232
1.338000000000000966,-0.031083427954607733
1.339000000000000856,-0.030821910868053130
1.340000000000000968,-0.030561455337299970
1.341000000000001080,-0.030302057004459215
1.342000000000000970,-0.030043711523153799
1.343000000000000860,-0.029786414558546991
1.344000000000000972,-0.029530161787370252
1.345000000000001084,-0.029274948897961350
1.346000000000000973,-0.029020771590283250
1.347000000000000863,-0.028767625575960399
1.348000000000000975,-0.028515506578297035
1.349000000000001087,-0.028264410332313233
1.350000000000000977,-0.028014332584767800
1.351000000000000867,-0.027765269094183552
1.352000000000000979,-0.027517215630862187
1.353000000000001091,-0.027270167976927513
1.354000000000000981,-0.027024121926334337
1.355000000000000870,-0.026779073284891052
1.356000000000000982,-0.026535017870287874
1.357000000000001094,-0.026291951512116142
1.358000000000000984,-0.026049870051883445
1.359000000000000874,-0.025808769343039023
1.360000000000000986,-0.025568645250988953
1.361000000000001098,-0.025329493653122471
1.362000000000000988,-0.025091310438816204
1.363000000000000878,-0.024854091509460812
1.364000000000000989,-0.024617832778481084
1.365000000000001101,-0.024382530171337076
1.366000000000000991,-0.024148179625552834
1.367000000000000881,-0.023914777090726404
1.368000000000000993,-0.023682318528544098
1.369000000000001105,-0.023450799912791403
1.370000000000000995,-0.023220217229369476
1.371000000000000885,-0.022990566476304507
1.372000000000000997,-0.022761843663759853
1.373000000000001108,-0.022534044814052266
1.374000000000000998,-0.022307165961647245
1.375000000000000888,-0.022081203153189847
1.376000000000001000,-0.021856152447499284
1.377000000000001112,-0.021632009915578593
1.378000000000001002,-0.021408771640630320
1.379000000000000892,-0.021186433718056438
1.380000000000001004,-0.020964992255467961
1.381000000000001116,-0.020744443372697628
1.382000000000001005,-0.020524783201793764
1.383000000000000895,-0.020306007887033996
1.384000000000001007,-0.020088113584929665
1.385000000000001119,-0.019871096464228473
1.386000000000001009,-0.019654952705921051
1.387000000000000899,-0.019439678503233242
1.388000000000001011,-0.019225270061653078
1.389000000000001123,-0.019011723598905121
1.390000000000001013,-0.018799035344970592
1.391000000000000902,-0.018587201542083501
1.392000000000001014,-0.018376218444729343
1.393000000000001126,-0.018166082319649741
1.394000000000001016,-0.017956789445843269
1.395000000000000906,-0.017748336114558314
1.396000000000001018,-0.017540718629296206
1.397000000000001130,-0.017333933305811629
1.398000000000001020,-0.017127976472110486
1.399000000000000909,-0.016922844468443519
1.400000000000001021,-0.016718533647306470
1.401000000000001133,-0.016515040373440457
1.402000000000001023,-0.016312361023821019
1.403000000000000913,-0.016110491987656506
1.404000000000001025,-0.015909429666391882
1.405000000000001137,-0.015709170473690297
1.406000000000001027,-0.015509710835437524
1.407000000000000917,-0.015311047189737581
1.408000000000001029,-0.015113175986895299
1.409000000000001140,-0.014916093689422417
1.410000000000001030,-0.014719796772025659
1.411000000000000920,-0.014524281721597693
1.412000000000001032,-0.014329545037211820
1.413000000000001144,-0.014135583230116882
1.414000000000001034,-0.013942392823721627
1.415000000000000924,-0.013749970353590563
1.416000000000001036,-0.013558312367439252
1.417000000000001148,-0.013367415425118484
1.418000000000001037,-0.013177276098603549
1.419000000000000927,-0.012987890971988148
1.420000000000001039,-0.012799256641473782
1.421000000000001151,-0.012611369715359788
1.422000000000001041,-0.012424226814026365
1.423000000000000931,-0.012237824569929378
1.424000000000001043,-0.012052159627587648
1.425000000000001155,-0.011867228643566121
1.426000000000001044,-0.011683028286470746
1.427000000000000934,-0.011499555236929648
1.428000000000001046,-0.011316806187584044
1.429000000000001158,-0.011134777843069611
1.430000000000001048,-0.010953466920012972
1.431000000000000938,-0.010772870147002891
1.432000000000001050,-0.010592984264591180
1.433000000000001162,-0.010413806025269647
1.434000000000001052,-0.010235332193453271
1.435000000000000941,-0.010057559545475065
1.436000000000001053,-0.009880484869559119
1.437000000000001165,-0.009704104965810324
1.438000000000001055,-0.009528416646202926
1.439000000000000945,-0.009353416734554604
1.440000000000001057,-0.009179102066519732
1.441000000000001169,-0.009005469489562216
1.442000000000001059,-0.008832515862948316
1.443000000000000949,-0.008660238057725107
1.444000000000001060,-0.008488632956701554
1.445000000000001172,-0.008317697454430858
1.446000000000001062,-0.008147428457200434
1.447000000000000952,-0.007977822882999312
1.448000000000001064,-0.007808877661512251
1.449000000000001176,-0.007640589734096688
1.450000000000001066,-0.007472956053760811
1.451000000000000956,-0.007305973585147419
1.452000000000001068,-0.007139639304515698
1.453000000000001180,-0.006973950199719468
1.454000000000001069,-0.006808903270185560
1.455000000000000959,-0.006644495526899508
1.456000000000001071,-0.006480723992379750
1.457000000000001183,-0.006317585700660440
1.458000000000001073,-0.006155077697270583
1.459000000000000963,-0.005993197039208449
1.460000000000001075,-0.005831940794927822
1.461000000000001187,-0.005671306044310543
1.462000000000001076,-0.005511289878651915
1.463000000000000966,-0.005351889400629912
1.464000000000001078,-0.005193101724290898
1.465000000000001190,-0.005034923975025887
1.466000000000001080,-0.004877353289545227
1.467000000000000970,-0.004720386815859704
1.468000000000001082,-0.004564021713257786
1.469000000000001194,-0.004408255152278346
1.470000000000001084,-0.004253084314695438
1.471000000000000973,-0.004098506393487589
1.472000000000001085,-0.003944518592823126
1.473000000000001197,-0.003791118128025585
1.474000000000001087,-0.003638302225562375
1.475000000000000977,-0.003486068123009895
1.476000000000001089,-0.003334413069037549
1.477000000000001201,-0.003183334323383245
1.478000000000001091,-0.003032829156823639
1.479000000000000981,-0.002882894851154480
1.480000000000001092,-0.002733528699165640
1.481000000000001204,-0.002584728004615244
1.482000000000001094,-0.002436490082206260
1.483000000000000984,-0.002288812257564338
1.484000000000001096,-0.002141691867204572
1.485000000000001208,-0.001995126258512317
1.486000000000001098,-0.001849112789721379
1.487000000000000988,-0.001703648829881663
1.488000000000001100,-0.001558731758833667
1.489000000000001211,-0.001414358967192602
1.490000000000001101,-0.001270527856311290
1.491000000000000991,-0.001127235838259390
1.492000000000001103,-0.000984480335797862
1.493000000000001215,-0.000842258782354872
1.494000000000001105,-0.000700568621991487
1.495000000000000995,-0.000559407309384824
1.496000000000001107,-0.000418772309796941
1.497000000000001219,-0.000278661099049704
1.498000000000001108,-0.000139071163497397
1.499000000000000998,0.000000000000000000
