# TiO2-ana-101_URACILLACTAM
# h[nm],U(h)[kJ/mol]
0.149999999999999994,118.162579425523929899
0.150999999999999995,116.235120281607606785
0.151999999999999996,114.743323241273316171
0.152999999999999997,113.324427063135729554
0.153999999999999998,111.859774098759046979
0.154999999999999999,110.339580899909677214
0.156000000000000000,108.791969542706709717
0.157000000000000001,107.249192294646334744
0.158000000000000002,105.734353921981025337
0.159000000000000002,104.258617637035399639
0.160000000000000003,102.823111033155583982
0.161000000000000004,101.422368694503774122
0.162000000000000005,100.047725553783593000
0.163000000000000006,98.689988207831987665
0.164000000000000007,97.341210467827437469
0.165000000000000008,95.995647533002667728
0.166000000000000009,94.650064976528597072
0.167000000000000010,93.303599989159380357
0.168000000000000010,91.957353283126352039
0.169000000000000011,90.613854447474366793
0.170000000000000012,89.276504620588568173
0.171000000000000013,87.949064874161265948
0.172000000000000014,86.635229572263398268
0.173000000000000015,85.338301855707882737
0.174000000000000016,84.060972818325794265
0.175000000000000017,82.805195874667802514
0.176000000000000018,81.572142099499075130
0.177000000000000018,80.362219827014911289
0.178000000000000019,79.175141555616065148
0.179000000000000020,78.010022416235898390
0.180000000000000021,76.865496512874955215
0.181000000000000022,75.739839879837290937
0.182000000000000023,74.631091304630402306
0.183000000000000024,73.537164631605293152
0.184000000000000025,72.455948266278568326
0.185000000000000026,71.385389382912222800
0.186000000000000026,70.323561780901371776
0.187000000000000027,69.268717450399691415
0.188000000000000028,68.219322723781687046
0.189000000000000029,67.174080445959504004
0.190000000000000030,66.131939935887743331
0.191000000000000031,65.092096676171252057
0.192000000000000032,64.053983697073419989
0.193000000000000033,63.017256550656369996
0.194000000000000034,61.981773630550222265
0.195000000000000034,60.947573408105007786
0.196000000000000035,59.914849946670855729
0.197000000000000036,58.883927838234626506
0.198000000000000037,57.855237492408306821
0.199000000000000038,56.829291505234515114
0.200000000000000039,55.806662650063756814
0.201000000000000040,54.787963868219129893
0.202000000000000041,53.773830494878666286
0.203000000000000042,52.764904835809353756
0.204000000000000042,51.761823112528375646
0.205000000000000043,50.765204715722582307
0.206000000000000044,49.775643647457052055
0.207000000000000045,48.793701989744661773
0.208000000000000046,47.819905208227098115
0.209000000000000047,46.854739082853363641
0.210000000000000048,45.898648050444279534
0.211000000000000049,44.952034744969736835
0.212000000000000050,44.015260528480624203
0.213000000000000050,43.088646817384557153
0.214000000000000051,42.172477023779734395
0.215000000000000052,41.266998948725586160
0.216000000000000053,40.372427482674581256
0.217000000000000054,39.488947487041095030
0.218000000000000055,38.616716749422330679
0.219000000000000056,37.755868922840861046
0.220000000000000057,36.906516376188939432
0.221000000000000058,36.068752898586872391
0.222000000000000058,35.242656214450363450
0.223000000000000059,34.428290278623151721
0.224000000000000060,33.625707331938386346
0.225000000000000061,32.834949707049766232
0.226000000000000062,32.056051382379912695
0.227000000000000063,31.289039288650162263
0.228000000000000064,30.533934377788277459
0.229000000000000065,29.790752468167891465
0.230000000000000066,29.059504883241846329
0.231000000000000066,28.340198902806076120
0.232000000000000067,27.632838047497649825
0.233000000000000068,26.937422217800968127
0.234000000000000069,26.253947708922954263
0.235000000000000070,25.582407122501013674
0.236000000000000071,24.922789195322735623
0.237000000000000072,24.275078564144163096
0.238000000000000073,23.639255484374643856
0.239000000000000073,23.015295518913770678
0.240000000000000074,22.403169211836985397
0.241000000000000075,21.802841759984566750
0.242000000000000076,21.214272693851107476
0.243000000000000077,20.637415577536593503
0.244000000000000078,20.072217735933300276
0.245000000000000079,19.518620015806327217
0.246000000000000080,18.976556585998878290
0.247000000000000081,18.445954780665136497
0.248000000000000081,17.926734988216502131
0.249000000000000082,17.418810587563037018
0.250000000000000111,16.922087932243961461
0.251000000000000112,16.436466382170042522
0.252000000000000113,15.961838381941529263
0.253000000000000114,15.498089584058444501
0.254000000000000115,15.045099014794928394
0.255000000000000115,14.602739280065046401
0.256000000000000116,14.170876808253595414
0.257000000000000117,13.749372126716579601
0.258000000000000118,13.338080168464770736
0.259000000000000119,12.936850605421525984
0.260000000000000120,12.545528204586094745
0.261000000000000121,12.163953203429365146
0.262000000000000122,11.791961700891391729
0.263000000000000123,11.429386060435115624
0.264000000000000123,11.076055321729093350
0.265000000000000124,10.731795617680885968
0.266000000000000125,10.396430593713823498
0.267000000000000126,10.069781826370544309
0.268000000000000127,9.751669238530059403
0.269000000000000128,9.441911508739440961
0.270000000000000129,9.140326472380822409
0.271000000000000130,8.846731512616823778
0.272000000000000131,8.560943939280534210
0.273000000000000131,8.282781354095750004
0.274000000000000132,8.012062000828855446
0.275000000000000133,7.748605099182421796
0.276000000000000134,7.492231161441461396
0.277000000000000135,7.242762291075450776
0.278000000000000136,7.000022462680396629
0.279000000000000137,6.763837782816383815
0.280000000000000138,6.534036731455723057
0.281000000000000139,6.310450383904400162
0.282000000000000139,6.092912613196010518
0.283000000000000140,5.881260273081450940
0.284000000000000141,5.675333361850424474
0.285000000000000142,5.474975167321935565
0.286000000000000143,5.280032393430751370
0.287000000000000144,5.090355268916343157
0.288000000000000145,4.905797638688962792
0.289000000000000146,4.726217038507189550
0.290000000000000147,4.551474753649948468
0.291000000000000147,4.381435862307354157
0.292000000000000148,4.215969264446546738
0.293000000000000149,4.054947696933783874
0.294000000000000150,3.898247735711373618
0.295000000000000151,3.745749785838959234
0.296000000000000152,3.597338060213762567
0.297000000000000153,3.452900547783829044
0.298000000000000154,3.312328972062860366
0.299000000000000155,3.175518740745404855
0.300000000000000155,3.042368887207415273
0.301000000000000156,2.912782004660052770
0.302000000000000157,2.786664173704163083
0.303000000000000158,2.663924884010404615
0.304000000000000159,2.544476950824579031
0.305000000000000160,2.428236426971387196
0.306000000000000161,2.315122511001094896
0.307000000000000162,2.205057452094377535
0.308000000000000163,2.097966452310244811
0.309000000000000163,1.993777566730985384
0.310000000000000164,1.892421602026735261
0.311000000000000165,1.793832013930964475
0.312000000000000166,1.697944804086637616
0.313000000000000167,1.604698416691801466
0.314000000000000168,1.514033635342547424
0.315000000000000169,1.425893480441134287
0.316000000000000170,1.340223107507371836
0.317000000000000171,1.256969706702796064
0.318000000000000171,1.176082403849066704
0.319000000000000172,1.097512163195008661
0.320000000000000173,1.021211692160768791
0.321000000000000174,0.947135348262593268
0.322000000000000175,0.875239048397670638
0.323000000000000176,0.805480180645883337
0.324000000000000177,0.737817518723452359
0.325000000000000178,0.672211139203134578
0.326000000000000179,0.608622341595922101
0.327000000000000179,0.547013571371256280
0.328000000000000180,0.487348345975465946
0.329000000000000181,0.429591183891970207
0.330000000000000182,0.373707536772255655
0.331000000000000183,0.319663724652239023
0.332000000000000184,0.267426874256260327
0.333000000000000185,0.216964860378857788
0.334000000000000186,0.168246250323706770
0.335000000000000187,0.121240251369245960
0.336000000000000187,0.075916661221386628
0.337000000000000188,0.032245821405842576
0.338000000000000189,-0.009801426454999217
0.339000000000000190,-0.050253781542066056
0.340000000000000191,-0.089139521983501030
0.341000000000000192,-0.126486540314827589
0.342000000000000193,-0.162322376331801438
0.343000000000000194,-0.196674247416396192
0.344000000000000195,-0.229569076419044421
0.345000000000000195,-0.261033517183423103
0.346000000000000196,-0.291093977801475501
0.347000000000000197,-0.319776641688376495
0.348000000000000198,-0.347107486568014767
0.349000000000000199,-0.373112301460235385
0.350000000000000200,-0.397816701761517233
0.351000000000000201,-0.421246142510488586
0.352000000000000202,-0.443425929929390450
0.353000000000000203,-0.464381231331928768
0.354000000000000203,-0.484137083486899100
0.355000000000000204,-0.502718399525743598
0.356000000000000205,-0.520149974480847432
0.357000000000000206,-0.536456489539756776
0.358000000000000207,-0.551662515098478190
0.359000000000000208,-0.565792512695357575
0.360000000000000209,-0.578870835904776504
0.361000000000000210,-0.590921730267639278
0.362000000000000210,-0.601969332333500251
0.363000000000000211,-0.612037667886603964
0.364000000000000212,-0.621150649425814549
0.365000000000000213,-0.629332072965782197
0.366000000000000214,-0.636605614224244998
0.367000000000000215,-0.642994824257704933
0.368000000000000216,-0.648523124605279833
0.369000000000000217,-0.653213801997732935
0.370000000000000218,-0.657090002686341990
0.371000000000000218,-0.660174726443440441
0.372000000000000219,-0.662490820284169724
0.373000000000000220,-0.664060971956282442
0.374000000000000221,-0.664907703242438197
0.375000000000000222,-0.665053363116870466
0.376000000000000223,-0.664520120796157299
0.377000000000000224,-0.663329958721167845
0.378000000000000225,-0.661504665505172618
0.379000000000000226,-0.659065828880758153
0.380000000000000226,-0.656034828676144932
0.381000000000000227,-0.652432829849140639
0.382000000000000228,-0.648280775605211801
0.383000000000000229,-0.643599380623943174
0.384000000000000230,-0.638409124416274620
0.385000000000000231,-0.632730244833236255
0.386000000000000232,-0.626582731744793842
0.387000000000000233,-0.619986320906056876
0.388000000000000234,-0.612960488026130013
0.389000000000000234,-0.605524443053620742
0.390000000000000235,-0.597697124691050075
0.391000000000000236,-0.589497195149158437
0.392000000000000237,-0.580943035150598641
0.393000000000000238,-0.572052739191345472
0.394000000000000239,-0.562844111066723718
0.395000000000000240,-0.553334659667996442
0.396000000000000241,-0.543541595054181426
0.397000000000000242,-0.533481824802752413
0.398000000000000242,-0.523171950641994066
0.399000000000000243,-0.512628265366674496
0.400000000000000244,-0.501866750037939235
0.401000000000000245,-0.490903071467584884
0.402000000000000246,-0.479752579985842420
0.403000000000000247,-0.468430307491400633
0.404000000000000248,-0.456950965781517116
0.405000000000000249,-0.445328945159563894
0.406000000000000250,-0.433578313316696995
0.407000000000000250,-0.421712814483936771
0.408000000000000251,-0.409745868850325490
0.409000000000000252,-0.397690572242512086
0.410000000000000253,-0.385559696060643664
0.411000000000000254,-0.373365687465092244
0.412000000000000255,-0.361120669808240036
0.413000000000000256,-0.348836443305273636
0.414000000000000257,-0.336524485937565065
0.415000000000000258,-0.324195954582208345
0.416000000000000258,-0.311861686360818902
0.417000000000000259,-0.299532200200768373
0.418000000000000260,-0.287217698601732685
0.419000000000000261,-0.274928069600394565
0.420000000000000262,-0.262672888925987613
0.421000000000000263,-0.250461422339395612
0.422000000000000264,-0.238302628148330753
0.423000000000000265,-0.226205159891192054
0.424000000000000266,-0.214177369182234012
0.425000000000000266,-0.202227308710464238
0.426000000000000267,-0.190362735385002535
0.427000000000000268,-0.178591113619444547
0.428000000000000269,-0.166919618747903176
0.429000000000000270,-0.155355140565549416
0.430000000000000271,-0.143904286986343610
0.431000000000000272,-0.132573387810971749
0.432000000000000273,-0.121368498597915181
0.433000000000000274,-0.110295404630801341
0.434000000000000274,-0.099359624975216845
0.435000000000000275,-0.088566416618357735
0.436000000000000276,-0.077920778684976350
0.437000000000000277,-0.067427456723210974
0.438000000000000278,-0.057090947054061349
0.439000000000000279,-0.046915501178416051
0.440000000000000280,-0.036905130235622433
0.441000000000000281,-0.027063609507813568
0.442000000000000282,-0.017394482964391590
0.443000000000000282,-0.007901067841043297
0.444000000000000283,0.001413540751896658
0.445000000000000284,0.010546465197012189
0.446000000000000285,0.019495040718321643
0.447000000000000286,0.028256810715467085
0.448000000000000287,0.036829522088444075
0.449000000000000288,0.045211120557216676
0.450000000000000289,0.053399745980712246
0.451000000000000290,0.061393727679319852
0.452000000000000290,0.069191579764922378
0.453000000000000291,0.076791996482386618
0.454000000000000292,0.084193847566171792
0.455000000000000293,0.091396173615646920
0.456000000000000294,0.098398181492509312
0.457000000000000295,0.105199239743531431
0.458000000000000296,0.111798874051780656
0.459000000000000297,0.118196762719205137
0.460000000000000298,0.124392732183429680
0.461000000000000298,0.130386752571392928
0.462000000000000299,0.136178933292344151
0.463000000000000300,0.141769518672621386
0.464000000000000301,0.147158883634376542
0.465000000000000302,0.152347529420418903
0.466000000000000303,0.157336079367156906
0.467000000000000304,0.162125274727458690
0.468000000000000305,0.166715970545193770
0.469000000000000306,0.171109131583078916
0.470000000000000306,0.175305828305263145
0.471000000000000307,0.179307232916146614
0.472000000000000308,0.183114615456591551
0.473000000000000309,0.186729339958770696
0.474000000000000310,0.190152860660689704
0.475000000000000311,0.193386718281358061
0.476000000000000312,0.196432536357449006
0.477000000000000313,0.199292017642265257
0.478000000000000314,0.201966940567680997
0.479000000000000314,0.204459155769612655
0.480000000000000315,0.206770582677615528
0.481000000000000316,0.208903206168942479
0.482000000000000317,0.210859073287512272
0.483000000000000318,0.212640290027980322
0.484000000000000319,0.214249018185193485
0.485000000000000320,0.215687472269103703
0.486000000000000321,0.216957916485252783
0.487000000000000322,0.218062661780816736
0.488000000000000322,0.219004062956196066
0.489000000000000323,0.219784515841954603
0.490000000000000324,0.220406454541046154
0.491000000000000325,0.220872348736032842
0.492000000000000326,0.221184701061083733
0.493000000000000327,0.221346044538379333
0.494000000000000328,0.221358940078620142
0.495000000000000329,0.221225974045188234
0.496000000000000330,0.220949755881562293
0.497000000000000330,0.220532915801433749
0.498000000000000331,0.219978102541125320
0.499000000000000332,0.219287981173610896
0.500000000000000333,0.218465230983660053
0.501000000000000334,0.217512543403480418
0.502000000000000335,0.216432620008151833
0.503000000000000336,0.215228170570266553
0.504000000000000337,0.213901911173016490
0.505000000000000338,0.212456562381062142
0.506000000000000338,0.210894847468402785
0.507000000000000339,0.209219490702532790
0.508000000000000340,0.207433215684098726
0.509000000000000341,0.205538743741229185
0.510000000000000342,0.203538792377811306
0.511000000000000343,0.201436073774816204
0.512000000000000344,0.199233293343915902
0.513000000000000345,0.196933148332501584
0.514000000000000346,0.194538326479259560
0.515000000000000346,0.192051504719491506
0.516000000000000347,0.189475347939278310
0.517000000000000348,0.186812507777599224
0.518000000000000349,0.184065621475599100
0.519000000000000350,0.181237310772062565
0.520000000000000351,0.178330180844257030
0.521000000000000352,0.175346819293220546
0.522000000000000353,0.172289795172671290
0.523000000000000353,0.169161658060599435
0.524000000000000354,0.165964937172687566
0.525000000000000355,0.162702140516676336
0.526000000000000356,0.159375754086810012
0.527000000000000357,0.155988241097443137
0.528000000000000358,0.152542041255004396
0.529000000000000359,0.149039570067375587
0.530000000000000360,0.145483218189904007
0.531000000000000361,0.141875350807118106
0.532000000000000361,0.138218307049346928
0.533000000000000362,0.134514399443366128
0.534000000000000363,0.130765913396273303
0.535000000000000364,0.126975106711707031
0.536000000000000365,0.123144209137646524
0.537000000000000366,0.119275421944931639
0.538000000000000367,0.115370917535745063
0.539000000000000368,0.111432839081186993
0.540000000000000369,0.107463300187258318
0.541000000000000369,0.103464384588362976
0.542000000000000370,0.099438145867661906
0.543000000000000371,0.095386607203450574
0.544000000000000372,0.091311761140839831
0.545000000000000373,0.087215569388004566
0.546000000000000374,0.083099962636269814
0.547000000000000375,0.078966840403317889
0.548000000000000376,0.074818070898797301
0.549000000000000377,0.070655490911674973
0.550000000000000377,0.066480905718603711
0.551000000000000378,0.062296089012672008
0.552000000000000379,0.058102782851852622
0.553000000000000380,0.053902697626496687
0.554000000000000381,0.049697512045271376
0.555000000000000382,0.045488873138846718
0.556000000000000383,0.041278396280809412
0.557000000000000384,0.037067665225092805
0.558000000000000385,0.032858232159436916
0.559000000000000385,0.028651617774207404
0.560000000000000386,0.024449311346066170
0.561000000000000387,0.020252770835897306
0.562000000000000388,0.016063423000485043
0.563000000000000389,0.011882663517330949
0.564000000000000390,0.007711857122189058
0.565000000000000391,0.003552337758712332
0.566000000000000392,-0.000594591260223487
0.567000000000000393,-0.004727657080061604
0.568000000000000393,-0.008845617121402739
0.569000000000000394,-0.012947258886654895
0.570000000000000395,-0.017031399756917052
0.571000000000000396,-0.021096886779549649
0.572000000000000397,-0.025142596446915817
0.573000000000000398,-0.029167434466625557
0.574000000000000399,-0.033170335523802982
0.575000000000000400,-0.037150263035699918
0.576000000000000401,-0.041106208899091022
0.577000000000000401,-0.045037193230852479
0.578000000000000402,-0.048942264102047370
0.579000000000000403,-0.052820497265912550
0.580000000000000404,-0.056670995880134870
0.581000000000000405,-0.060492890223693183
0.582000000000000406,-0.064285337408666682
0.583000000000000407,-0.068047521087302762
0.584000000000000408,-0.071778651154673051
0.585000000000000409,-0.075477963447228430
0.586000000000000409,-0.079144719437550873
0.587000000000000410,-0.082778205925608084
0.588000000000000411,-0.086377734726754557
0.589000000000000412,-0.089942642356828043
0.590000000000000413,-0.093472289714518569
0.591000000000000414,-0.096966061761336889
0.592000000000000415,-0.100423367199417468
0.593000000000000416,-0.103843638147374809
0.594000000000000417,-0.107226329814468085
0.595000000000000417,-0.110570920173328327
0.596000000000000418,-0.113876909631394657
0.597000000000000419,-0.117143820701368223
0.598000000000000420,-0.120371197670800872
0.599000000000000421,-0.123558606271086127
0.600000000000000422,-0.126705633346008650
0.601000000000000423,-0.129811886520034531
0.602000000000000424,-0.132876993866553467
0.603000000000000425,-0.135900603576226159
0.604000000000000425,-0.138882383625582723
0.605000000000000426,-0.141822021446067287
0.606000000000000427,-0.144719223593697793
0.607000000000000428,-0.147573715419378831
0.608000000000000429,-0.150385240740220999
0.609000000000000430,-0.153153561511734149
0.610000000000000431,-0.155878457501289258
0.611000000000000432,-0.158559725962788917
0.612000000000000433,-0.161197181312736471
0.613000000000000433,-0.163790654807855207
0.614000000000000434,-0.166339994224300680
0.615000000000000435,-0.168845063538601736
0.616000000000000436,-0.171305742610440626
0.617000000000000437,-0.173721926867385662
0.618000000000000438,-0.176093526991604354
0.619000000000000439,-0.178420468608708804
0.620000000000000440,-0.180702691978797070
0.621000000000000441,-0.182940151689761965
0.622000000000000441,-0.185132816352962110
0.623000000000000442,-0.187280668301282510
0.624000000000000443,-0.189383703289719929
0.625000000000000444,-0.191441930198519378
0.626000000000000445,-0.193455370738890797
0.627000000000000446,-0.195424059161441455
0.628000000000000447,-0.197348041967313620
0.629000000000000448,-0.199227377622092083
0.630000000000000449,-0.201062136272547765
0.631000000000000449,-0.202852399466246475
0.632000000000000450,-0.204598259874055832
0.633000000000000451,-0.206299821015628077
0.634000000000000452,-0.207957196987822668
0.635000000000000453,-0.209570512196185332
0.636000000000000454,-0.211139901089439697
0.637000000000000455,-0.212665507897078415
0.638000000000000456,-0.214147486370024343
0.639000000000000457,-0.215585999524426336
0.640000000000000457,-0.216981219388609203
0.641000000000000458,-0.218333326753131163
0.642000000000000459,-0.219642510924080214
0.643000000000000460,-0.220908969479489903
0.644000000000000461,-0.222132908029006038
0.645000000000000462,-0.223314539976728843
0.646000000000000463,-0.224454086287270205
0.647000000000000464,-0.225551775255039194
0.648000000000000465,-0.226607842276754401
0.649000000000000465,-0.227622529627158260
0.650000000000000466,-0.228596086237989660
0.651000000000000467,-0.229528767480142809
0.652000000000000468,-0.230420834949082665
0.653000000000000469,-0.231272556253439232
0.654000000000000470,-0.232084204806854488
0.655000000000000471,-0.232856059623000988
0.656000000000000472,-0.233588405113809461
0.657000000000000473,-0.234281530890866951
0.658000000000000473,-0.234935731570019568
0.659000000000000474,-0.235551306579109138
0.660000000000000475,-0.236128559968875218
0.661000000000000476,-0.236667800226975672
0.662000000000000477,-0.237169340095154085
0.663000000000000478,-0.237633496389476673
0.664000000000000479,-0.238060589823704483
0.665000000000000480,-0.238450944835661177
0.666000000000000481,-0.238804889416739829
0.667000000000000481,-0.239122754944348925
0.668000000000000482,-0.239404876017453333
0.669000000000000483,-0.239651590295033273
0.670000000000000484,-0.239863238337555101
0.671000000000000485,-0.240040163451367222
0.672000000000000486,-0.240182711536010368
0.673000000000000487,-0.240291230934458089
0.674000000000000488,-0.240366072286187060
0.675000000000000488,-0.240407588383117959
0.676000000000000489,-0.240416134028395762
0.677000000000000490,-0.240392065897926832
0.678000000000000491,-0.240335742404725522
0.679000000000000492,-0.240247523565985721
0.680000000000000493,-0.240127770872866048
0.681000000000000494,-0.239976847162992474
0.682000000000000495,-0.239795116495582133
0.683000000000000496,-0.239582944029248457
0.684000000000000496,-0.239340695902376582
0.685000000000000497,-0.239068739116094747
0.686000000000000498,-0.238767441419801191
0.687000000000000499,-0.238437171199194026
0.688000000000000500,-0.238078297366805774
0.689000000000000501,-0.237691189255000268
0.690000000000000502,-0.237276216511410037
0.691000000000000503,-0.236833748996764459
0.692000000000000504,-0.236364156685091364
0.693000000000000504,-0.235867809566301018
0.694000000000000505,-0.235345077551019355
0.695000000000000506,-0.234796330377783496
0.696000000000000507,-0.234221937522436308
0.697000000000000508,-0.233622268109773656
0.698000000000000509,-0.232997690827387111
0.699000000000000510,-0.232348573841672484
0.700000000000000511,-0.231675284715971180
0.701000000000000512,-0.230978190330830557
0.702000000000000512,-0.230257656806331562
0.703000000000000513,-0.229514049426475797
0.704000000000000514,-0.228747732565589418
0.705000000000000515,-0.227959069616710058
0.706000000000000516,-0.227148422921944870
0.707000000000000517,-0.226316153704767931
0.708000000000000518,-0.225462622004179380
0.709000000000000519,-0.224588186610815560
0.710000000000000520,-0.223693205004813322
0.711000000000000520,-0.222778033295567834
0.712000000000000521,-0.221843026163237311
0.713000000000000522,-0.220888536802008956
0.714000000000000523,-0.219914916865124793
0.715000000000000524,-0.218922516411573870
0.716000000000000525,-0.217911683854495386
0.717000000000000526,-0.216882765911209446
0.718000000000000527,-0.215836107554869289
0.719000000000000528,-0.214772051967712180
0.720000000000000528,-0.213690940495899151
0.721000000000000529,-0.212593112605836770
0.722000000000000530,-0.211478905842088200
0.723000000000000531,-0.210348655786701089
0.724000000000000532,-0.209202696020049039
0.725000000000000533,-0.208041358083088351
0.726000000000000534,-0.206864971441010181
0.727000000000000535,-0.205673863448305655
0.728000000000000536,-0.204468359315167186
0.729000000000000536,-0.203248782075229922
0.730000000000000537,-0.202015452554643066
0.731000000000000538,-0.200768689342382955
0.732000000000000539,-0.199508808761874157
0.733000000000000540,-0.198236124843813089
0.734000000000000541,-0.196950949300228023
0.735000000000000542,-0.195653591499699464
0.736000000000000543,-0.194344358443791887
0.737000000000000544,-0.193023554744574999
0.738000000000000544,-0.191691482603324553
0.739000000000000545,-0.190348441790262918
0.740000000000000546,-0.188994729625423158
0.741000000000000547,-0.187630640960527451
0.742000000000000548,-0.186256468161959621
0.743000000000000549,-0.184872501094664354
0.744000000000000550,-0.183479027107103454
0.745000000000000551,-0.182076331017159310
0.746000000000000552,-0.180664695098985417
0.747000000000000552,-0.179244399070791260
0.748000000000000553,-0.177815720083526335
0.749000000000000554,-0.176378932710459985
0.750000000000000555,-0.174934308937639782
0.751000000000000556,-0.173482118155169868
0.752000000000000557,-0.172022627149372109
0.753000000000000558,-0.170556100095686169
0.754000000000000559,-0.169082798552441876
0.755000000000000560,-0.167602981455348188
0.756000000000000560,-0.166116905112780350
0.757000000000000561,-0.164624823201769577
0.758000000000000562,-0.163126986764738385
0.759000000000000563,-0.161623644206946582
0.760000000000000564,-0.160115041294608573
0.761000000000000565,-0.158601421153690830
0.762000000000000566,-0.157083024269363575
0.763000000000000567,-0.155560088486090098
0.764000000000000568,-0.154032849008332751
0.765000000000000568,-0.152501538401892789
0.766000000000000569,-0.150966386595798779
0.767000000000000570,-0.149427620884819812
0.768000000000000571,-0.147885465932486831
0.769000000000000572,-0.146340143774715270
0.770000000000000573,-0.144791873823918338
0.771000000000000574,-0.143240872873666103
0.772000000000000575,-0.141687355103826296
0.773000000000000576,-0.140131532086211680
0.774000000000000576,-0.138573612790692052
0.775000000000000577,-0.137013803591785693
0.776000000000000578,-0.135452308275676031
0.777000000000000579,-0.133889328047696210
0.778000000000000580,-0.132325061540205458
0.779000000000000581,-0.130759704820906375
0.780000000000000582,-0.129193451401536208
0.781000000000000583,-0.127626492246974504
0.782000000000000584,-0.126059015784697775
0.783000000000000584,-0.124491207914611796
0.784000000000000585,-0.122923252019246559
0.785000000000000586,-0.121355328974265861
0.786000000000000587,-0.119787617159339013
0.787000000000000588,-0.118220292469309235
0.788000000000000589,-0.116653528325669151
0.789000000000000590,-0.115087495688367208
0.790000000000000591,-0.113522363067856874
0.791000000000000592,-0.111958296537458216
0.792000000000000592,-0.110395459745976351
0.793000000000000593,-0.108834013930572196
0.794000000000000594,-0.107274117929891749
0.795000000000000595,-0.105715928197444603
0.796000000000000596,-0.104159598815176141
0.797000000000000597,-0.102605281507310103
0.798000000000000598,-0.101053125654373105
0.799000000000000599,-0.099503278307423684
0.800000000000000600,-0.097955884202505145
0.801000000000000600,-0.096411085775245903
0.802000000000000601,-0.094869023175673473
0.803000000000000602,-0.093329834283179508
0.804000000000000603,-0.091793654721664619
0.805000000000000604,-0.090260617874834859
0.806000000000000605,-0.088730854901623468
0.807000000000000606,-0.087204494751803210
0.808000000000000607,-0.085681664181687947
0.809000000000000608,-0.084162487769978533
0.810000000000000608,-0.082647087933753721
0.811000000000000609,-0.081135584944512895
0.812000000000000610,-0.079628096944408228
0.813000000000000611,-0.078124739962500411
0.814000000000000612,-0.076625627931162330
0.815000000000000613,-0.075130872702559484
0.816000000000000614,-0.073640584065190251
0.817000000000000615,-0.072154869760529552
0.818000000000000616,-0.070673835499739698
0.819000000000000616,-0.069197584980434018
0.820000000000000617,-0.067726219903507051
0.821000000000000618,-0.066259839990026048
0.822000000000000619,-0.064798542998175446
0.823000000000000620,-0.063342424740224376
0.824000000000000621,-0.061891579099547088
0.825000000000000622,-0.060446098047689058
0.826000000000000623,-0.059006071661449534
0.827000000000000624,-0.057571588139985877
0.828000000000000624,-0.056142733821956656
0.829000000000000625,-0.054719593202654938
0.830000000000000626,-0.053302248951184308
0.831000000000000627,-0.051890781927617799
0.832000000000000628,-0.050485271200180627
0.833000000000000629,-0.049085794062413243
0.834000000000000630,-0.047692426050342906
0.835000000000000631,-0.046305240959653673
0.836000000000000631,-0.044924310862823176
0.837000000000000632,-0.043549706126274970
0.838000000000000633,-0.042181495427478274
0.839000000000000634,-0.040819745772054238
0.840000000000000635,-0.039464522510851530
0.841000000000000636,-0.038115889356971813
0.842000000000000637,-0.036773908402801481
0.843000000000000638,-0.035438640136975494
0.844000000000000639,-0.034110143461323669
0.845000000000000639,-0.032788475707768570
0.846000000000000640,-0.031473692655175210
0.847000000000000641,-0.030165848546184353
0.848000000000000642,-0.028864996103953922
0.849000000000000643,-0.027571186548873937
0.850000000000000644,-0.026284469615251771
0.851000000000000645,-0.025004893567879594
0.852000000000000646,-0.023732505218609729
0.853000000000000647,-0.022467349942831220
0.854000000000000647,-0.021209471695887792
0.855000000000000648,-0.019958913029448078
0.856000000000000649,-0.018715715107797678
0.857000000000000650,-0.017479917724066738
0.858000000000000651,-0.016251559316375324
0.859000000000000652,-0.015030676983926355
0.860000000000000653,-0.013817306503022254
0.861000000000000654,-0.012611482342978047
0.862000000000000655,-0.011413237682005483
0.863000000000000655,-0.010222604422969697
0.864000000000000656,-0.009039613209105212
0.865000000000000657,-0.007864293439616768
0.866000000000000658,-0.006696673285226553
0.867000000000000659,-0.005536779703627023
0.868000000000000660,-0.004384638454830160
0.869000000000000661,-0.003240274116453455
0.870000000000000662,-0.002103710098907817
0.871000000000000663,-0.000974968660508070
0.872000000000000663,0.000145929077537965
0.873000000000000664,0.001258963116193117
0.874000000000000665,0.002364114563776623
0.875000000000000666,0.003461365621219703
0.876000000000000667,0.004550699567439980
0.877000000000000668,0.005632100744793834
0.878000000000000669,0.006705554544618392
0.879000000000000670,0.007771047392901060
0.880000000000000671,0.008828566736005036
0.881000000000000671,0.009878101026536811
0.882000000000000672,0.010919639709267400
0.883000000000000673,0.011953173207191888
0.884000000000000674,0.012978692907663181
0.885000000000000675,0.013996191148643266
0.886000000000000676,0.015005661205040811
0.887000000000000677,0.016007097275161870
0.888000000000000678,0.017000494467260419
0.889000000000000679,0.017985848786182829
0.890000000000000679,0.018963157120127045
0.891000000000000680,0.019932417227493348
0.892000000000000681,0.020893627723848018
0.893000000000000682,0.021846788068986094
0.894000000000000683,0.022791898554104448
0.895000000000000684,0.023728960289060581
0.896000000000000685,0.024657975189760171
0.897000000000000686,0.025578945965633860
0.898000000000000687,0.026491876107216383
0.899000000000000687,0.027396769873848432
0.900000000000000688,0.028293632281458876
0.901000000000000689,0.029182469090476400
0.902000000000000690,0.030063286793819484
0.903000000000000691,0.030936092605017462
0.904000000000000692,0.031800894446419904
0.905000000000000693,0.032657700937517367
0.906000000000000694,0.033506521383359168
0.907000000000000695,0.034347365763095383
0.908000000000000695,0.035180244718590430
0.909000000000000696,0.036005169543183495
0.910000000000000697,0.036822152170508805
0.911000000000000698,0.037631205163457873
0.912000000000000699,0.038432341703224598
0.913000000000000700,0.039225575578448586
0.914000000000000701,0.040010921174499385
0.915000000000000702,0.040788393462807312
0.916000000000000703,0.041558007990349713
0.917000000000000703,0.042319780869206111
0.918000000000000704,0.043073728766232527
0.919000000000000705,0.043819868892839585
0.920000000000000706,0.044558218994849685
0.921000000000000707,0.045288797342493761
0.922000000000000708,0.046011622720478415
0.923000000000000709,0.046726714418154215
0.924000000000000710,0.047434092219817245
0.925000000000000711,0.048133776395070001
0.926000000000000711,0.048825787689307905
0.927000000000000712,0.049510147314299292
0.928000000000000713,0.050186876938860370
0.929000000000000714,0.050855998679628076
0.930000000000000715,0.051517535091943886
0.931000000000000716,0.052171509160823713
0.932000000000000717,0.052817944292019879
0.933000000000000718,0.053456864303201491
0.934000000000000719,0.054088293415206511
0.935000000000000719,0.054712256243404568
0.936000000000000720,0.055328777789155251
0.937000000000000721,0.055937883431357652
0.938000000000000722,0.056539598918084778
0.939000000000000723,0.057133950358337772
0.940000000000000724,0.057720964213866278
0.941000000000000725,0.058300667291100075
0.942000000000000726,0.058873086733156901
0.943000000000000727,0.059438250011967661
0.944000000000000727,0.059996184920461638
0.945000000000000728,0.060546919564859913
0.946000000000000729,0.061090482357072165
0.947000000000000730,0.061626902007145733
0.948000000000000731,0.062156207515848348
0.949000000000000732,0.062678428167298697
0.950000000000000733,0.063193593521720978
0.951000000000000734,0.063701733408247141
0.952000000000000735,0.064202877917851356
0.953000000000000735,0.064697057396338964
0.954000000000000736,0.065184302437426928
0.955000000000000737,0.065664643875916265
0.956000000000000738,0.066138112780944169
0.957000000000000739,0.066604740449324115
0.958000000000000740,0.067064558398960944
0.959000000000000741,0.067517598362362985
0.960000000000000742,0.067963892280216112
0.961000000000000743,0.068403472295060219
0.962000000000000743,0.068836370745036762
0.963000000000000744,0.069262620157713922
0.964000000000000745,0.069682253243990966
0.965000000000000746,0.070095302892098046
0.966000000000000747,0.070501802161647670
0.967000000000000748,0.070901784277794394
0.968000000000000749,0.071295282625436704
0.969000000000000750,0.071682330743534833
0.970000000000000751,0.072062962319464199
0.971000000000000751,0.072437211183483327
0.972000000000000752,0.072805111303255718
0.973000000000000753,0.073166696778427256
0.974000000000000754,0.073522001835328116
0.975000000000000755,0.073871060821696366
0.976000000000000756,0.074213908201504197
0.977000000000000757,0.074550578549847007
0.978000000000000758,0.074881106547905946
0.979000000000000759,0.075205526977964940
0.980000000000000759,0.075523874718534945
0.981000000000000760,0.075836184739507997
0.982000000000000761,0.076142492097393516
0.983000000000000762,0.076442831930638638
0.984000000000000763,0.076737239454997219
0.985000000000000764,0.077025749958964676
0.986000000000000765,0.077308398799294631
0.987000000000000766,0.077585221396571591
0.988000000000000766,0.077856253230847480
0.989000000000000767,0.078121529837343578
0.990000000000000768,0.078381086802213715
0.991000000000000769,0.078634959758389078
0.992000000000000770,0.078883184381462509
0.993000000000000771,0.079125796385633759
0.994000000000000772,0.079362831519746907
0.995000000000000773,0.079594325563349583
0.996000000000000774,0.079820314322843658
0.997000000000000774,0.080040833627675709
0.998000000000000775,0.080255919326596800
0.999000000000000776,0.080465607283978918
1.000000000000000666,0.080669933376187691
1.001000000000000778,0.080868933488012135
1.002000000000000668,0.081062643509154153
1.003000000000000780,0.081251099330773083
1.004000000000000670,0.081434336842088922
1.005000000000000782,0.081612391927028211
1.006000000000000671,0.081785300460940319
1.007000000000000783,0.081953098307365996
1.008000000000000673,0.082115821314844697
1.009000000000000785,0.082273505313791323
1.010000000000000675,0.082426186113416858
1.011000000000000787,0.082573899498708109
1.012000000000000677,0.082716681227444105
1.013000000000000789,0.082854567027276310
1.014000000000000679,0.082987592592867143
1.015000000000000790,0.083115793583048131
1.016000000000000680,0.083239205618056061
1.017000000000000792,0.083357864276805541
1.018000000000000682,0.083471805094214452
1.019000000000000794,0.083581063558570812
1.020000000000000684,0.083685675108947546
1.021000000000000796,0.083785675132670157
1.022000000000000686,0.083881098962828388
1.023000000000000798,0.083971981875824470
1.024000000000000687,0.084058359088982001
1.025000000000000799,0.084140265758184368
1.026000000000000689,0.084217736975564145
1.027000000000000801,0.084290807767240045
1.028000000000000691,0.084359513091086427
1.029000000000000803,0.084423887834553984
1.030000000000000693,0.084483966812534977
1.031000000000000805,0.084539784765250911
1.032000000000000695,0.084591376356212528
1.033000000000000806,0.084638776170186864
1.034000000000000696,0.084682018711230850
1.035000000000000808,0.084721138400753612
1.036000000000000698,0.084756169575617810
1.037000000000000810,0.084787146486268727
1.038000000000000700,0.084814103294935619
1.039000000000000812,0.084837074073835145
1.040000000000000702,0.084856092803424280
1.041000000000000814,0.084871193370693598
1.042000000000000703,0.084882409567505562
1.043000000000000815,0.084889775088942604
1.044000000000000705,0.084893323531712264
1.045000000000000817,0.084893088392591576
1.046000000000000707,0.084889103066880370
1.047000000000000819,0.084881400846914562
1.048000000000000709,0.084870014920602435
1.049000000000000821,0.084854978369993117
1.050000000000000711,0.084836324169888039
1.051000000000000822,0.084814085186464133
1.052000000000000712,0.084788294175955278
1.053000000000000824,0.084758983783349423
1.054000000000000714,0.084726186541115536
1.055000000000000826,0.084689934867974645
1.056000000000000716,0.084650261067686597
1.057000000000000828,0.084607197327878553
1.058000000000000718,0.084560775718896725
1.059000000000000830,0.084511028192692919
1.060000000000000719,0.084457986581728928
1.061000000000000831,0.084401682597926922
1.062000000000000721,0.084342147831634573
1.063000000000000833,0.084279413750616733
1.064000000000000723,0.084213511699091470
1.065000000000000835,0.084144472896774208
1.066000000000000725,0.084072328437952676
1.067000000000000837,0.083997109290610286
1.068000000000000727,0.083918846295530439
1.069000000000000838,0.083837570165480074
1.070000000000000728,0.083753311484372706
1.071000000000000840,0.083666100706488250
1.072000000000000730,0.083575968155696442
1.073000000000000842,0.083482944024718231
1.074000000000000732,0.083387058374411765
1.075000000000000844,0.083288341133065949
1.076000000000000734,0.083186822095732055
1.077000000000000846,0.083082530923582060
1.078000000000000735,0.082975497143269863
1.079000000000000847,0.082865750146340220
1.080000000000000737,0.082753319188633295
1.081000000000000849,0.082638233389737095
1.082000000000000739,0.082520521732441648
1.083000000000000851,0.082400213062224920
1.084000000000000741,0.082277336086750391
1.085000000000000853,0.082151919375400395
1.086000000000000743,0.082023991358814233
1.087000000000000854,0.081893580328452314
1.088000000000000744,0.081760714436176801
1.089000000000000856,0.081625421693868286
1.090000000000000746,0.081487729973033537
1.091000000000000858,0.081347667004451868
1.092000000000000748,0.081205260377837415
1.093000000000000860,0.081060537541510352
1.094000000000000750,0.080913525802103953
1.095000000000000862,0.080764252324264693
1.096000000000000751,0.080612744130390351
1.097000000000000863,0.080459028100384120
1.098000000000000753,0.080303130971406442
1.099000000000000865,0.080145079337663391
1.100000000000000755,0.079984899650208968
1.101000000000000867,0.079822618216752780
1.102000000000000757,0.079658261201493080
1.103000000000000869,0.079491854624958003
1.104000000000000759,0.079323424363877876
1.105000000000000870,0.079152996151045152
1.106000000000000760,0.078980595575223661
1.107000000000000872,0.078806248081038685
1.108000000000000762,0.078629978968903586
1.109000000000000874,0.078451813394955078
1.110000000000000764,0.078271776370999274
1.111000000000000876,0.078089892764479654
1.112000000000000766,0.077906187298440496
1.113000000000000878,0.077720684551526892
1.114000000000000767,0.077533408957979513
1.115000000000000879,0.077344384807655833
1.116000000000000769,0.077153636246050261
1.117000000000000881,0.076961187274338691
1.118000000000000771,0.076767061749429516
1.119000000000000883,0.076571283384024039
1.120000000000000773,0.076373875746693867
1.121000000000000885,0.076174862261971288
1.122000000000000774,0.075974266210445146
1.123000000000000886,0.075772110728869899
1.124000000000000776,0.075568418810281660
1.125000000000000888,0.075363213304143598
1.126000000000000778,0.075156516916476429
1.127000000000000890,0.074948352210004648
1.128000000000000780,0.074738741604339659
1.129000000000000892,0.074527707376133207
1.130000000000000782,0.074315271659268350
1.131000000000000894,0.074101456445051006
1.132000000000000783,0.073886283582411422
1.133000000000000895,0.073669774778108682
1.134000000000000785,0.073451951596965576
1.135000000000000897,0.073232835462076845
1.136000000000000787,0.073012447655068174
1.137000000000000899,0.072790809316322813
1.138000000000000789,0.072567941445257148
1.139000000000000901,0.072343864900557900
1.140000000000000790,0.072118600400476296
1.141000000000000902,0.071892168523101124
1.142000000000000792,0.071664589706634946
1.143000000000000904,0.071435884249702292
1.144000000000000794,0.071206072311638530
1.145000000000000906,0.070975173912818185
1.146000000000000796,0.070743208934947552
1.147000000000000908,0.070510197121405493
1.148000000000000798,0.070276158077569234
1.149000000000000909,0.070041111271147122
1.150000000000000799,0.069805076032531457
1.151000000000000689,0.069568071555139110
1.152000000000000801,0.069330116895773397
1.153000000000000913,0.069091230974984846
1.154000000000000803,0.068851432577438990
1.155000000000000693,0.068610740352298513
1.156000000000000805,0.068369172813588397
1.157000000000000917,0.068126748340600410
1.158000000000000806,0.067883485178269282
1.159000000000000696,0.067639401437576990
1.160000000000000808,0.067394515095957272
1.161000000000000920,0.067148843997695370
1.162000000000000810,0.066902405854345592
1.163000000000000700,0.066655218245148945
1.164000000000000812,0.066407298617450511
1.165000000000000924,0.066158664287134905
1.166000000000000814,0.065909332439045773
1.167000000000000703,0.065659320127431725
1.168000000000000815,0.065408644276379477
1.169000000000000927,0.065157321680263447
1.170000000000000817,0.064905369004189112
1.171000000000000707,0.064652802784451208
1.172000000000000819,0.064399639428980235
1.173000000000000931,0.064145895217811333
1.174000000000000821,0.063891586303548853
1.175000000000000711,0.063636728711823604
1.176000000000000822,0.063381338341771953
1.177000000000000934,0.063125430966507329
1.178000000000000824,0.062869022233595431
1.179000000000000714,0.062612127665543083
1.180000000000000826,0.062354762660266003
1.181000000000000938,0.062096942491592068
1.182000000000000828,0.061838682309742002
1.183000000000000718,0.061579997141819519
1.184000000000000830,0.061320901892309786
1.185000000000000941,0.061061411343583769
1.186000000000000831,0.060801540156382394
1.187000000000000721,0.060541302870334324
1.188000000000000833,0.060280713904451624
1.189000000000000945,0.060019787557639870
1.190000000000000835,0.059758538009204755
1.191000000000000725,0.059496979319375934
1.192000000000000837,0.059235125429795352
1.193000000000000949,0.058972990164063530
1.194000000000000838,0.058710587228229985
1.195000000000000728,0.058447930211331066
1.196000000000000840,0.058185032585901596
1.197000000000000952,0.057921907708495611
1.198000000000000842,0.057658568820221190
1.199000000000000732,0.057395029047248670
1.200000000000000844,0.057131301401361134
1.201000000000000956,0.056867398780459474
1.202000000000000846,0.056603333969107064
1.203000000000000735,0.056339119639053067
1.204000000000000847,0.056074768349774019
1.205000000000000959,0.055810292548989948
1.206000000000000849,0.055545704573216573
1.207000000000000739,0.055281016648292561
1.208000000000000851,0.055016240889913179
1.209000000000000963,0.054751389304172213
1.210000000000000853,0.054486473788095416
1.211000000000000743,0.054221506130184019
1.212000000000000854,0.053956498010948130
1.213000000000000966,0.053691461003453303
1.214000000000000856,0.053426406573849262
1.215000000000000746,0.053161346081928462
1.216000000000000858,0.052896290781646538
1.217000000000000970,0.052631251821681976
1.218000000000000860,0.052366240245968074
1.219000000000000750,0.052101266994237096
1.220000000000000862,0.051836342902561769
1.221000000000000973,0.051571478703903863
1.222000000000000863,0.051306685028646347
1.223000000000000753,0.051041972405147684
1.224000000000000865,0.050777351260277562
1.225000000000000977,0.050512831919958256
1.226000000000000867,0.050248424609714792
1.227000000000000757,0.049984139455211372
1.228000000000000869,0.049719986482800703
1.229000000000000981,0.049455975620049775
1.230000000000000870,0.049192116696309268
1.231000000000000760,0.048928419443231397
1.232000000000000872,0.048664893495315442
1.233000000000000984,0.048401548390466974
1.234000000000000874,0.048138393570511195
1.235000000000000764,0.047875438381756855
1.236000000000000876,0.047612692075519956
1.237000000000000988,0.047350163808675502
1.238000000000000878,0.047087862644183423
1.239000000000000767,0.046825797551639251
1.240000000000000879,0.046563977407802173
1.241000000000000991,0.046302410997136140
1.242000000000000881,0.046041107012347593
1.243000000000000771,0.045780074054916228
1.244000000000000883,0.045519320635634103
1.245000000000000995,0.045258855175136149
1.246000000000000885,0.044998686004433588
1.247000000000000774,0.044738821365450036
1.248000000000000886,0.044479269411547916
1.249000000000000998,0.044220038208060856
1.250000000000000888,0.043961135732821864
1.251000000000000778,0.043702569876694575
1.252000000000000890,0.043444348444096510
1.253000000000001002,0.043186479153533200
1.254000000000000892,0.042928969638108924
1.255000000000000782,0.042671827446067748
1.256000000000000894,0.042415060041306012
1.257000000000001005,0.042158674803896692
1.258000000000000895,0.041902679030609978
1.259000000000000785,0.041647079935434914
1.260000000000000897,0.041391884650096362
1.261000000000001009,0.041137100224567916
1.262000000000000899,0.040882733627597367
1.263000000000000789,0.040628791747212803
1.264000000000000901,0.040375281391236258
1.265000000000001013,0.040122209287802683
1.266000000000000902,0.039869582085862228
1.267000000000000792,0.039617406355694613
1.268000000000000904,0.039365688589414347
1.269000000000001016,0.039114435201479829
1.270000000000000906,0.038863652529192404
1.271000000000000796,0.038613346833206282
1.272000000000000908,0.038363524298029514
1.273000000000001020,0.038114191032521082
1.274000000000000909,0.037865353070390899
1.275000000000000799,0.037617016370703381
1.276000000000000911,0.037369186818360010
1.277000000000001023,0.037121870224610276
1.278000000000000913,0.036875072327531913
1.279000000000000803,0.036628798792527714
1.280000000000000915,0.036383055212809289
1.281000000000001027,0.036137847109900152
1.282000000000000917,0.035893179934100974
1.283000000000000806,0.035649059064992342
1.284000000000000918,0.035405489811904570
1.285000000000001030,0.035162477414410781
1.286000000000000920,0.034920027042796828
1.287000000000000810,0.034678143798547487
1.288000000000000922,0.034436832714812342
1.289000000000001034,0.034196098756891606
1.290000000000000924,0.033955946822706688
1.291000000000000814,0.033716381743260901
1.292000000000000925,0.033477408283126384
1.293000000000001037,0.033239031140894083
1.294000000000000927,0.033001254949649901
1.295000000000000817,0.032764084277440819
1.296000000000000929,0.032527523627726783
1.297000000000001041,0.032291577439852795
1.298000000000000931,0.032056250089498882
1.299000000000000821,0.031821545889138950
1.300000000000000933,0.031587469088502164
1.301000000000001044,0.031354023875016082
1.302000000000000934,0.031121214374268076
1.303000000000000824,0.030889044650442194
1.304000000000000936,0.030657518706783814
1.305000000000001048,0.030426640486029888
1.306000000000000938,0.030196413870858464
1.307000000000000828,0.029966842684336158
1.308000000000000940,0.029737930690353021
1.309000000000001052,0.029509681594055211
1.310000000000000941,0.029282099042293695
1.311000000000000831,0.029055186624049802
1.312000000000000943,0.028828947870876510
1.313000000000001055,0.028603386257312558
1.314000000000000945,0.028378505201330458
1.315000000000000835,0.028154308064754763
1.316000000000000947,0.027930798153683895
1.317000000000001059,0.027707978718916025
1.318000000000000949,0.027485852956378325
1.319000000000000838,0.027264424007528099
1.320000000000000950,0.027043694959786001
1.321000000000001062,0.026823668846948222
1.322000000000000952,0.026604348649592463
1.323000000000000842,0.026385737295499912
1.324000000000000954,0.026167837660054222
1.325000000000001066,0.025950652566659620
1.326000000000000956,0.025734184787136054
1.327000000000000846,0.025518437042133781
1.328000000000000957,0.025303412001522398
1.329000000000001069,0.025089112284807081
1.330000000000000959,0.024875540461507712
1.331000000000000849,0.024662699051567614
1.332000000000000961,0.024450590525747180
1.333000000000001073,0.024239217306011480
1.334000000000000963,0.024028581765917524
1.335000000000000853,0.023818686231012264
1.336000000000000965,0.023609532979208852
1.337000000000001076,0.023401124241175790
1.338000000000000966,0.023193462200720612
1.339000000000000856,0.022986548995164568
1.340000000000000968,0.022780386715726453
1.341000000000001080,0.022574977407897594
1.342000000000000970,0.022370323071813903
1.343000000000000860,0.022166425662631283
1.344000000000000972,0.021963287090895435
1.345000000000001084,0.021760909222906799
1.346000000000000973,0.021559293881094971
1.347000000000000863,0.021358442844375429
1.348000000000000975,0.021158357848519875
1.349000000000001087,0.020959040586510793
1.350000000000000977,0.020760492708901394
1.351000000000000867,0.020562715824174148
1.352000000000000979,0.020365711499102247
1.353000000000001091,0.020169481259086828
1.354000000000000981,0.019974026588521800
1.355000000000000870,0.019779348931140892
1.356000000000000982,0.019585449690360766
1.357000000000001094,0.019392330229627074
1.358000000000000984,0.019199991872762712
1.359000000000000874,0.019008435904306321
1.360000000000000986,0.018817663569851519
1.361000000000001098,0.018627676076382500
1.362000000000000988,0.018438474592617743
1.363000000000000878,0.018250060249338042
1.364000000000000989,0.018062434139713798
1.365000000000001101,0.017875597319649002
1.366000000000000991,0.017689550808099440
1.367000000000000881,0.017504295587399066
1.368000000000000993,0.017319832603589103
1.369000000000001105,0.017136162766737840
1.370000000000000995,0.016953286951262851
1.371000000000000885,0.016771205996250340
1.372000000000000997,0.016589920705770193
1.373000000000001108,0.016409431849189686
1.374000000000000998,0.016229740161499407
1.375000000000000888,0.016050846343603098
1.376000000000001000,0.015872751062645706
1.377000000000001112,0.015695454952315550
1.378000000000001002,0.015518958613147015
1.379000000000000892,0.015343262612830349
1.380000000000001004,0.015168367486509760
1.381000000000001116,0.014994273737083601
1.382000000000001005,0.014820981835509259
1.383000000000000895,0.014648492221092834
1.384000000000001007,0.014476805301789381
1.385000000000001119,0.014305921454493104
1.386000000000001009,0.014135841025327908
1.387000000000000899,0.013966564329948550
1.388000000000001011,0.013798091653804089
1.389000000000001123,0.013630423252453635
1.390000000000001013,0.013463559351829140
1.391000000000000902,0.013297500148528995
1.392000000000001014,0.013132245810094787
1.393000000000001126,0.012967796475291124
1.394000000000001016,0.012804152254381067
1.395000000000000906,0.012641313229406431
1.396000000000001018,0.012479279454460125
1.397000000000001130,0.012318050955955078
1.398000000000001020,0.012157627732898062
1.399000000000000909,0.011998009757157499
1.400000000000001021,0.011839196973732445
1.401000000000001133,0.011681189301011020
1.402000000000001023,0.011523986631044942
1.403000000000000913,0.011367588829804593
1.404000000000001025,0.011211995737435325
1.405000000000001137,0.011057207168527655
1.406000000000001027,0.010903222912365826
1.407000000000000917,0.010750042733178752
1.408000000000001029,0.010597666370409341
1.409000000000001140,0.010446093538949860
1.410000000000001030,0.010295323929401700
1.411000000000000920,0.010145357208320160
1.412000000000001032,0.009996193018464864
1.413000000000001144,0.009847830979039041
1.414000000000001034,0.009700270685941243
1.415000000000000924,0.009553511712003119
1.416000000000001036,0.009407553607225826
1.417000000000001148,0.009262395899025418
1.418000000000001037,0.009118038092468561
1.419000000000000927,0.008974479670508531
1.420000000000001039,0.008831720094218143
1.421000000000001151,0.008689758803018505
1.422000000000001041,0.008548595214918788
1.423000000000000931,0.008408228726738571
1.424000000000001043,0.008268658714338297
1.425000000000001155,0.008129884532845365
1.426000000000001044,0.007991905516878072
1.427000000000000934,0.007854720980769215
1.428000000000001046,0.007718330218788395
1.429000000000001158,0.007582732505363360
1.430000000000001048,0.007447927095291349
1.431000000000000938,0.007313913223969506
1.432000000000001050,0.007180690107596785
1.433000000000001162,0.007048256943394718
1.434000000000001052,0.006916612909823252
1.435000000000000941,0.006785757166781227
1.436000000000001053,0.006655688855827980
1.437000000000001165,0.006526407100386827
1.438000000000001055,0.006397911005945223
1.439000000000000945,0.006270199660271021
1.440000000000001057,0.006143272133607333
1.441000000000001169,0.006017127478882845
1.442000000000001059,0.005891764731907348
1.443000000000000949,0.005767182911568262
1.444000000000001060,0.005643381020036060
1.445000000000001172,0.005520358042960846
1.446000000000001062,0.005398112949655803
1.447000000000000952,0.005276644693308229
1.448000000000001064,0.005155952211157595
1.449000000000001176,0.005036034424692921
1.450000000000001066,0.004916890239843152
1.451000000000000956,0.004798518547164202
1.452000000000001068,0.004680918222022911
1.453000000000001180,0.004564088124787822
1.454000000000001069,0.004448027101010797
1.455000000000000959,0.004332733981606508
1.456000000000001071,0.004218207583041484
1.457000000000001183,0.004104446707505990
1.458000000000001073,0.003991450143097911
1.459000000000000963,0.003879216664001288
1.460000000000001075,0.003767745030656446
1.461000000000001187,0.003657033989944225
1.462000000000001076,0.003547082275345653
1.463000000000000966,0.003437888607129888
1.464000000000001078,0.003329451692514822
1.465000000000001190,0.003221770225837829
1.466000000000001080,0.003114842888729979
1.467000000000000970,0.003008668350276494
1.468000000000001082,0.002903245267184773
1.469000000000001194,0.002798572283953004
1.470000000000001084,0.002694648033026503
1.471000000000000973,0.002591471134966914
1.472000000000001085,0.002489040198603907
1.473000000000001197,0.002387353821206778
1.474000000000001087,0.002286410588632023
1.475000000000000977,0.002186209075489550
1.476000000000001089,0.002086747845289996
1.477000000000001201,0.001988025450604891
1.478000000000001091,0.001890040433221188
1.479000000000000981,0.001792791324289554
1.480000000000001092,0.001696276644479586
1.481000000000001204,0.001600494904125890
1.482000000000001094,0.001505444603381223
1.483000000000000984,0.001411124232359157
1.484000000000001096,0.001317532271284953
1.485000000000001208,0.001224667190643111
1.486000000000001098,0.001132527451311096
1.487000000000000988,0.001041111504714763
1.488000000000001100,0.000950417792965042
1.489000000000001211,0.000860444748994781
1.490000000000001101,0.000771190796706046
1.491000000000000991,0.000682654351105454
1.492000000000001103,0.000594833818438120
1.493000000000001215,0.000507727596329355
1.494000000000001105,0.000421334073920092
1.495000000000000995,0.000335651631996480
1.496000000000001107,0.000250678643126434
1.497000000000001219,0.000166413471790858
1.498000000000001108,0.000082854474515246
1.499000000000000998,0.000000000000000000
