# CNT15-COOH-30_CS-86862-AC
# h[nm],U(h)[kJ/mol]
0.149999999999999994,163.126849632002944190
0.150999999999999995,160.391445518841237572
0.151999999999999996,158.314065590408887374
0.152999999999999997,156.315960676917143246
0.153999999999999998,154.219224732439300851
0.154999999999999999,152.019195740458826549
0.156000000000000000,149.767772386681912167
0.157000000000000001,147.519688095310954168
0.158000000000000002,145.312651111335014775
0.159000000000000002,143.164239793762646968
0.160000000000000003,141.075904680342773645
0.161000000000000004,139.038964604581963158
0.162000000000000005,137.040153154741659591
0.163000000000000006,135.065772810122552983
0.164000000000000007,133.104302150907670921
0.165000000000000008,131.147668445551374816
0.166000000000000009,129.191527383518661054
0.167000000000000010,127.234896632763863522
0.168000000000000010,125.279437428357070416
0.169000000000000011,123.328606709641192651
0.170000000000000012,121.386831612373200073
0.171000000000000013,119.458797779570474518
0.172000000000000014,117.548896152706035423
0.173000000000000015,115.660839469749816999
0.174000000000000016,113.797437856076641083
0.175000000000000017,111.960510299714272264
0.176000000000000018,110.150903091467029071
0.177000000000000018,108.368585386703600193
0.178000000000000019,106.612794189311131277
0.179000000000000020,104.882204941761898453
0.180000000000000021,103.175108558602545372
0.181000000000000022,101.489580496305762836
0.182000000000000023,99.823631883688506150
0.183000000000000024,98.175336600539850451
0.184000000000000025,96.542931377117355396
0.185000000000000026,94.924888474642614256
0.186000000000000026,93.319962336688334403
0.187000000000000027,91.727212847622439540
0.188000000000000028,90.146008587862041850
0.189000000000000029,88.576013831625999728
0.190000000000000030,87.017163082346172587
0.191000000000000031,85.469626766388174133
0.192000000000000032,83.933771378512105343
0.193000000000000033,82.410116951742793390
0.194000000000000034,80.899294257327383662
0.195000000000000034,79.402003663571463221
0.196000000000000035,77.918977122205845376
0.197000000000000036,76.450944325942828073
0.198000000000000037,74.998603702629125678
0.199000000000000038,73.562598586069697149
0.200000000000000039,72.143498633197225445
0.201000000000000040,70.741786340708955549
0.202000000000000041,69.357848348338961841
0.203000000000000042,67.991971095911281964
0.204000000000000042,66.644340321741992739
0.205000000000000043,65.315043844987329180
0.206000000000000044,64.004077058332057959
0.207000000000000045,62.711350564383302242
0.208000000000000046,61.436699414101191508
0.209000000000000047,60.179893443903566208
0.210000000000000048,58.940648255642280162
0.211000000000000049,57.718636436975032211
0.212000000000000050,56.513498675825680095
0.213000000000000050,55.324854479278499753
0.214000000000000051,54.152312262507265928
0.215000000000000052,52.995478625784585347
0.216000000000000053,51.853966686219862936
0.217000000000000054,50.727403374941538061
0.218000000000000055,49.615435649564147980
0.219000000000000056,48.517735605787819964
0.220000000000000057,47.434004500867679610
0.221000000000000058,46.363975725630993452
0.222000000000000058,45.307416780956991431
0.223000000000000059,44.264130329521513829
0.224000000000000060,43.233954404526620863
0.225000000000000061,42.216761864510068847
0.226000000000000062,41.212459187587604958
0.227000000000000063,40.220984700054415839
0.228000000000000064,39.242306333573601762
0.229000000000000065,38.276419002601592467
0.230000000000000066,37.323341689612703931
0.231000000000000066,36.383114320416112264
0.232000000000000067,35.455794505717300069
0.233000000000000068,34.541454218322435565
0.234000000000000069,33.640176468258474074
0.235000000000000070,32.752052030780347991
0.236000000000000071,31.877176274932679689
0.237000000000000072,31.015646133164874954
0.238000000000000073,30.167557245581559044
0.239000000000000073,29.333001305836432948
0.240000000000000074,28.512063629508446638
0.241000000000000075,27.704820960093229587
0.242000000000000076,26.911339522524549750
0.243000000000000077,26.131673329431823305
0.244000000000000078,25.365862741145896564
0.245000000000000079,24.613933276780795012
0.246000000000000080,23.875894670534016484
0.247000000000000081,23.151740164638482611
0.248000000000000081,22.441446028146309288
0.249000000000000082,21.744971288896220329
0.250000000000000111,21.062257664583079020
0.251000000000000112,20.393229677777863884
0.252000000000000113,19.737794939003599382
0.253000000000000114,19.095844581529014761
0.254000000000000115,18.467253831356156724
0.255000000000000115,17.851882695927269395
0.256000000000000116,17.249576755322088673
0.257000000000000117,16.660168040134184508
0.258000000000000118,16.083475980775965297
0.259000000000000119,15.519308413638952970
0.260000000000000120,14.967462630307631244
0.261000000000000121,14.427726456869399030
0.262000000000000122,13.899879351259395222
0.263000000000000123,13.383693507511832621
0.264000000000000123,12.878934956740963003
0.265000000000000124,12.385364655633825492
0.266000000000000125,11.902739554189606608
0.267000000000000126,11.430813635378049398
0.268000000000000127,10.969338920301836993
0.269000000000000128,10.518066433330156784
0.270000000000000129,10.076747122514776223
0.271000000000000130,9.645132731402020099
0.272000000000000131,9.222976619111886265
0.273000000000000131,8.810034526263956778
0.274000000000000132,8.406065284989818309
0.275000000000000133,8.010831471880221599
0.276000000000000134,7.624100003273355242
0.277000000000000135,7.245642672798908279
0.278000000000000136,6.875236631549617172
0.279000000000000137,6.512664811662356001
0.280000000000000138,6.157716294453473793
0.281000000000000139,5.810186624570689240
0.282000000000000139,5.469878071899077376
0.283000000000000140,5.136599843192824366
0.284000000000000141,4.810168245600776160
0.285000000000000142,4.490406804413739295
0.286000000000000143,4.177146337488678363
0.287000000000000144,3.870224988901345142
0.288000000000000145,3.569488224446013991
0.289000000000000146,3.274788791644128061
0.290000000000000147,2.985986646941007017
0.291000000000000147,2.702948852768323196
0.292000000000000148,2.425549447127527181
0.293000000000000149,2.153669288312132668
0.294000000000000150,1.887195877333127214
0.295000000000000151,1.626023160546350210
0.296000000000000152,1.370051314903821371
0.297000000000000153,1.119186518165118827
0.298000000000000154,0.873340706310915316
0.299000000000000155,0.632431320301022781
0.300000000000000155,0.396381044214187017
0.301000000000000156,0.165117536698619727
0.302000000000000157,-0.061426842449439079
0.303000000000000158,-0.283315308873760885
0.304000000000000159,-0.500606931821325984
0.305000000000000160,-0.713356912401720833
0.306000000000000161,-0.921616860576245145
0.307000000000000162,-1.125435069620565720
0.308000000000000163,-1.324856786913040541
0.309000000000000163,-1.519924480006579426
0.310000000000000164,-1.710678097044573409
0.311000000000000165,-1.897155320680439461
0.312000000000000166,-2.079391814756099688
0.313000000000000167,-2.257421463085967250
0.314000000000000168,-2.431276599780636261
0.315000000000000169,-2.600988230627562015
0.316000000000000170,-2.766586245124904586
0.317000000000000171,-2.928099618839003604
0.318000000000000171,-3.085556605825905407
0.319000000000000172,-3.238984920923195343
0.320000000000000173,-3.388411911779120267
0.321000000000000174,-3.533864720543087312
0.322000000000000175,-3.675370435194204699
0.323000000000000176,-3.812956230532806412
0.324000000000000177,-3.946649498904506004
0.325000000000000178,-4.076477970766456238
0.326000000000000179,-4.202469825242761914
0.327000000000000179,-4.324653790848405954
0.328000000000000180,-4.443059236591095917
0.329000000000000181,-4.557716253686680652
0.330000000000000182,-4.668655728146504202
0.331000000000000183,-4.775909404515802592
0.332000000000000184,-4.879509941058907785
0.333000000000000185,-4.979490956701979165
0.334000000000000186,-5.075887070056014139
0.335000000000000187,-5.168733930852458691
0.336000000000000187,-5.258068244131582247
0.337000000000000188,-5.343927787528786055
0.338000000000000189,-5.426351422008155900
0.339000000000000190,-5.505379096394096727
0.340000000000000191,-5.581051846052026200
0.341000000000000192,-5.653411786068266665
0.342000000000000193,-5.722502099276247201
0.343000000000000194,-5.788367019472805630
0.344000000000000195,-5.851051810162816835
0.345000000000000195,-5.910602739165422115
0.346000000000000196,-5.967067049407424051
0.347000000000000197,-6.020492926222544838
0.348000000000000198,-6.070929461466772814
0.349000000000000199,-6.118426614751176551
0.350000000000000200,-6.163035172084477153
0.351000000000000201,-6.204806702207703140
0.352000000000000202,-6.243793510893294929
0.353000000000000203,-6.280048593470722196
0.354000000000000203,-6.313625585830073383
0.355000000000000204,-6.344578714144160081
0.356000000000000205,-6.372962743539191344
0.357000000000000206,-6.398832925933104931
0.358000000000000207,-6.422244947249422964
0.359000000000000208,-6.443254874204211724
0.360000000000000209,-6.461919100852621334
0.361000000000000210,-6.478294295070843312
0.362000000000000210,-6.492437345139030924
0.363000000000000211,-6.504405306580126833
0.364000000000000212,-6.514255349399713069
0.365000000000000213,-6.522044705861797631
0.366000000000000214,-6.527830618925977824
0.367000000000000215,-6.531670291461884048
0.368000000000000216,-6.533620836347827421
0.369000000000000217,-6.533739227551393469
0.370000000000000218,-6.532082252281559143
0.371000000000000218,-6.528706464293176914
0.372000000000000219,-6.523668138417107798
0.373000000000000220,-6.517023226381351897
0.374000000000000221,-6.508827313981275786
0.375000000000000222,-6.499135579649825800
0.376000000000000223,-6.488002754472292466
0.377000000000000224,-6.475483083683239549
0.378000000000000225,-6.461630289677503747
0.379000000000000226,-6.446497536561112796
0.380000000000000226,-6.430137396262774807
0.381000000000000227,-6.412601816220930395
0.382000000000000228,-6.393942088656951128
0.383000000000000229,-6.374208821440072725
0.384000000000000230,-6.353451910545456549
0.385000000000000231,-6.331720514102789465
0.386000000000000232,-6.309063028028775832
0.387000000000000233,-6.285527063233696587
0.388000000000000234,-6.261159424388469397
0.389000000000000234,-6.236006090236094757
0.390000000000000235,-6.210112195428089343
0.391000000000000236,-6.183522013864302558
0.392000000000000237,-6.156278943511842350
0.393000000000000238,-6.128425492676940145
0.394000000000000239,-6.100003267701360699
0.395000000000000240,-6.071052962053454571
0.396000000000000241,-6.041614346782187894
0.397000000000000242,-6.011726262301090529
0.398000000000000242,-5.981426611468014798
0.399000000000000243,-5.950752353925206961
0.400000000000000244,-5.919739501663492831
0.401000000000000245,-5.888423115773656846
0.402000000000000246,-5.856837304347065398
0.403000000000000247,-5.825015221487555905
0.404000000000000248,-5.792989067395849290
0.405000000000000249,-5.760790089487654697
0.406000000000000250,-5.728448584506297792
0.407000000000000250,-5.695993901590831854
0.408000000000000251,-5.663454446260383079
0.409000000000000252,-5.630857685275765689
0.410000000000000253,-5.598230152339474408
0.411000000000000254,-5.565597454595460292
0.412000000000000255,-5.532984279890425405
0.413000000000000256,-5.500414404758793729
0.414000000000000257,-5.467910703093856739
0.415000000000000258,-5.435495155468304418
0.416000000000000258,-5.403188859067644678
0.417000000000000259,-5.371012038200882799
0.418000000000000260,-5.338984055353259706
0.419000000000000261,-5.307123422746675701
0.420000000000000262,-5.275447814374026656
0.421000000000000263,-5.243974078474552769
0.422000000000000264,-5.212718250417867516
0.423000000000000265,-5.181695565965321215
0.424000000000000266,-5.150920474878126321
0.425000000000000266,-5.120406654842286187
0.426000000000000267,-5.090167025681529900
0.427000000000000268,-5.060213763830041067
0.428000000000000269,-5.030558317037726823
0.429000000000000270,-5.001211419281679227
0.430000000000000271,-4.972183105858182017
0.431000000000000272,-4.943482728630693046
0.432000000000000273,-4.915118971409895288
0.433000000000000274,-4.887099865442918301
0.434000000000000274,-4.859432804989581633
0.435000000000000275,-4.832124562964428272
0.436000000000000276,-4.805181306624167981
0.437000000000000277,-4.778608613280863615
0.438000000000000278,-4.752411486022208642
0.439000000000000279,-4.726594369420924480
0.440000000000000280,-4.701161165216102056
0.441000000000000281,-4.676115247950173526
0.442000000000000282,-4.651459480546011882
0.443000000000000282,-4.627196229809191763
0.444000000000000283,-4.603327381841546107
0.445000000000000284,-4.579854357352540539
0.446000000000000285,-4.556778126855891564
0.447000000000000286,-4.534099225739647743
0.448000000000000287,-4.511817769198268380
0.449000000000000288,-4.489933467016394175
0.450000000000000289,-4.468445638194217473
0.451000000000000290,-4.447353225405259458
0.452000000000000290,-4.426654809277914993
0.453000000000000291,-4.406348622492620493
0.454000000000000292,-4.386432563687243658
0.455000000000000293,-4.366904211163726401
0.456000000000000294,-4.347760836389615413
0.457000000000000295,-4.328999417288657448
0.458000000000000296,-4.310616651315060111
0.459000000000000297,-4.292608968306641515
0.460000000000000298,-4.274972543112419032
0.461000000000000298,-4.257703307990796660
0.462000000000000299,-4.240796964774832922
0.463000000000000300,-4.224248996801497569
0.464000000000000301,-4.208054680602383080
0.465000000000000302,-4.192209097353511105
0.466000000000000303,-4.176707144082397072
0.467000000000000304,-4.161543544630870173
0.468000000000000305,-4.146712860372437248
0.469000000000000306,-4.132209500683346803
0.470000000000000306,-4.118027733166917059
0.471000000000000307,-4.104161693630690166
0.472000000000000308,-4.090605395816693246
0.473000000000000309,-4.077352740884990112
0.474000000000000310,-4.064397526651127635
0.475000000000000311,-4.051733456578335613
0.476000000000000312,-4.039354148525542421
0.477000000000000313,-4.027253143252439216
0.478000000000000314,-4.015423912683099061
0.479000000000000314,-4.003859867929895344
0.480000000000000315,-3.992554367079457656
0.481000000000000316,-3.981500722742849607
0.482000000000000317,-3.970692209372041592
0.483000000000000318,-3.960122070345131640
0.484000000000000319,-3.949783524822738201
0.485000000000000320,-3.939669774378248057
0.486000000000000321,-3.929774009404624735
0.487000000000000322,-3.920089415300692881
0.488000000000000322,-3.910609178439756306
0.489000000000000323,-3.901326491923799100
0.490000000000000324,-3.892234561126232784
0.491000000000000325,-3.883326609026552578
0.492000000000000326,-3.874595881340118009
0.493000000000000327,-3.866035651446515065
0.494000000000000328,-3.857639225119850579
0.495000000000000329,-3.849399945064529760
0.496000000000000330,-3.841311195259944355
0.497000000000000330,-3.833366405117806686
0.498000000000000331,-3.825559053455489966
0.499000000000000332,-3.817882672289236723
0.500000000000000333,-3.810330850450760032
0.501000000000000334,-3.802897237030870681
0.502000000000000335,-3.795575544653931210
0.503000000000000336,-3.788359552586713086
0.504000000000000337,-3.781243109685414883
0.505000000000000338,-3.774220137184472801
0.506000000000000338,-3.767284631330916511
0.507000000000000339,-3.760430665867885658
0.508000000000000340,-3.753652394370970313
0.509000000000000341,-3.746944052441124828
0.510000000000000342,-3.740299959757602100
0.511000000000000343,-3.733714521994719426
0.512000000000000344,-3.727182232605867007
0.513000000000000345,-3.720697674478395722
0.514000000000000346,-3.714255521462975107
0.515000000000000346,-3.707850539780750410
0.516000000000000347,-3.701477589311893190
0.517000000000000348,-3.695131624768956957
0.518000000000000349,-3.688807696758348520
0.519000000000000350,-3.682500952733350541
0.520000000000000351,-3.676206637841916258
0.521000000000000352,-3.669920095672621674
0.522000000000000353,-3.663636768901829210
0.523000000000000353,-3.657352199845374852
0.524000000000000354,-3.651062030917857637
0.525000000000000355,-3.644762005002592620
0.526000000000000356,-3.638447965735261302
0.527000000000000357,-3.632115857704305562
0.528000000000000358,-3.625761726570885024
0.529000000000000359,-3.619381719111406603
0.530000000000000360,-3.612972083185321370
0.531000000000000361,-3.606529167631105537
0.532000000000000361,-3.600049422093045681
0.533000000000000362,-3.593529396781563801
0.534000000000000363,-3.586965742169666349
0.535000000000000364,-3.580355208628136943
0.536000000000000365,-3.573694646001931652
0.537000000000000366,-3.566981003130293537
0.538000000000000367,-3.560211327312936991
0.539000000000000368,-3.553382763724771021
0.540000000000000369,-3.546492554781316642
0.541000000000000369,-3.539538039457235108
0.542000000000000370,-3.532516652560016013
0.543000000000000371,-3.525425923961099439
0.544000000000000372,-3.518263477786478965
0.545000000000000373,-3.511027031568826118
0.546000000000000374,-3.503714395363142220
0.547000000000000375,-3.496323470827905400
0.548000000000000376,-3.488852250273592581
0.549000000000000377,-3.481298815680422987
0.550000000000000377,-3.473661337687132367
0.551000000000000378,-3.465938074552511239
0.552000000000000379,-3.458127371091447522
0.553000000000000380,-3.450227657587088714
0.554000000000000381,-3.442237448680734779
0.555000000000000382,-3.434155342241106190
0.556000000000000383,-3.425980018214334955
0.557000000000000384,-3.417710237456376809
0.558000000000000385,-3.409344840549047184
0.559000000000000385,-3.400882746601248563
0.560000000000000386,-3.392322952036624262
0.561000000000000387,-3.383664529368986429
0.562000000000000388,-3.374906625966742180
0.563000000000000389,-3.366048462807609276
0.564000000000000390,-3.357089333224691607
0.565000000000000391,-3.348028601645160585
0.566000000000000392,-3.338865702322570961
0.567000000000000393,-3.329600138063932402
0.568000000000000393,-3.320231478952492044
0.569000000000000394,-3.310759361067282303
0.570000000000000395,-3.301183485200393619
0.571000000000000396,-3.291503615572783925
0.572000000000000397,-3.281719578549697758
0.573000000000000398,-3.271831261356345610
0.574000000000000399,-3.261838610794824511
0.575000000000000400,-3.251741631962964618
0.576000000000000401,-3.241540386975883870
0.577000000000000401,-3.231234993691050050
0.578000000000000402,-3.220825624437417822
0.579000000000000403,-3.210312504749374796
0.580000000000000404,-3.199695912106203188
0.581000000000000405,-3.188976174677493614
0.582000000000000406,-3.178153670075298365
0.583000000000000407,-3.167228824113391017
0.584000000000000408,-3.156202109574317571
0.585000000000000409,-3.145074044984650374
0.586000000000000409,-3.133845193398936857
0.587000000000000410,-3.122516161192879558
0.588000000000000411,-3.111087596866032090
0.589000000000000412,-3.099560189854607017
0.590000000000000413,-3.087934669354603923
0.591000000000000414,-3.076211803155756819
0.592000000000000415,-3.064392396486613102
0.593000000000000416,-3.052477290871009608
0.594000000000000417,-3.040467362996333467
0.595000000000000417,-3.028363523593876838
0.596000000000000418,-3.016166716331373010
0.597000000000000419,-3.003877916718260543
0.598000000000000420,-2.991498131023605733
0.599000000000000421,-2.979028395207142577
0.600000000000000422,-2.966469773863479542
0.601000000000000423,-2.953823359179714281
0.602000000000000424,-2.941090269906648125
0.603000000000000425,-2.928271650343723387
0.604000000000000425,-2.915368669337802920
0.605000000000000426,-2.902382519295974905
0.606000000000000427,-2.889314415212511200
0.607000000000000428,-2.876165593709897994
0.608000000000000429,-2.862937312094376630
0.609000000000000430,-2.849630847425644209
0.610000000000000431,-2.836247495601175395
0.611000000000000432,-2.822788570454931367
0.612000000000000433,-2.809255402870621587
0.613000000000000433,-2.795649339909590303
0.614000000000000434,-2.781971743953238541
0.615000000000000435,-2.768223991860065514
0.616000000000000436,-2.754407474137291700
0.617000000000000437,-2.740523594127165730
0.618000000000000438,-2.726573767207773447
0.619000000000000439,-2.712559420008409994
0.620000000000000440,-2.698481989639555767
0.621000000000000441,-2.684342922937271947
0.622000000000000441,-2.670143675722104870
0.623000000000000442,-2.655885712072332261
0.624000000000000443,-2.641570503611568199
0.625000000000000444,-2.627199528810685969
0.626000000000000445,-2.612774272303839407
0.627000000000000446,-2.598296224218722195
0.628000000000000447,-2.583766879520783100
0.629000000000000448,-2.569187737371435354
0.630000000000000449,-2.554560300500110070
0.631000000000000449,-2.539886074590070653
0.632000000000000450,-2.525166567677898488
0.633000000000000451,-2.510403289566535801
0.634000000000000452,-2.495597751251739993
0.635000000000000453,-2.480751464361911296
0.636000000000000454,-2.465865940611084550
0.637000000000000455,-2.450942691265062479
0.638000000000000456,-2.435983226620462627
0.639000000000000457,-2.420989055496636233
0.640000000000000457,-2.405961684740304030
0.641000000000000458,-2.390902618742709596
0.642000000000000459,-2.375813358969307121
0.643000000000000460,-2.360695403501649192
0.644000000000000461,-2.345550246591523447
0.645000000000000462,-2.330379378227072973
0.646000000000000463,-2.315184283710782331
0.647000000000000464,-2.299966443249234160
0.648000000000000465,-2.284727331554445406
0.649000000000000465,-2.269468417456613984
0.650000000000000466,-2.254191163528221686
0.651000000000000467,-2.238897025719204237
0.652000000000000468,-2.223587453003188052
0.653000000000000469,-2.208263887034496609
0.654000000000000470,-2.192927761815928189
0.655000000000000471,-2.177580503377003929
0.656000000000000472,-2.162223529462631522
0.657000000000000473,-2.146858249231983873
0.658000000000000473,-2.131486062967492323
0.659000000000000474,-2.116108361793707093
0.660000000000000475,-2.100726527405997857
0.661000000000000476,-2.085341931808792459
0.662000000000000477,-2.069955937063356455
0.663000000000000478,-2.054569895044815908
0.664000000000000479,-2.039185147208415483
0.665000000000000480,-2.023803024364668524
0.666000000000000481,-2.008424846463503055
0.667000000000000481,-1.993051922386949615
0.668000000000000482,-1.977685549750539451
0.669000000000000483,-1.962327014712970996
0.670000000000000484,-1.946977591794099682
0.671000000000000485,-1.931638543701008626
0.672000000000000486,-1.916311121162006526
0.673000000000000487,-1.900996562768501263
0.674000000000000488,-1.885696094824445668
0.675000000000000488,-1.870410931203328575
0.676000000000000489,-1.855142273212600390
0.677000000000000490,-1.839891309465197411
0.678000000000000491,-1.824659215758265063
0.679000000000000492,-1.809447154958759185
0.680000000000000493,-1.794256276895860314
0.681000000000000494,-1.779087718260078388
0.682000000000000495,-1.763942602508831614
0.683000000000000496,-1.748822039778475723
0.684000000000000496,-1.733727126802540708
0.685000000000000497,-1.718658946836105983
0.686000000000000498,-1.703618569586169640
0.687000000000000499,-1.688607051147870353
0.688000000000000500,-1.673625433946413832
0.689000000000000501,-1.658674746684642543
0.690000000000000502,-1.643756004296053064
0.691000000000000503,-1.628870207903160949
0.692000000000000504,-1.614018344781070979
0.693000000000000504,-1.599201388326221274
0.694000000000000505,-1.584420298029988405
0.695000000000000506,-1.569676019457283411
0.696000000000000507,-1.554969484229788090
0.697000000000000508,-1.540301610013862899
0.698000000000000509,-1.525673300512983444
0.699000000000000510,-1.511085445464516841
0.700000000000000511,-1.496538920640846815
0.701000000000000512,-1.482034587854636376
0.702000000000000512,-1.467573294968159470
0.703000000000000513,-1.453155875906611882
0.704000000000000514,-1.438783150675256639
0.705000000000000515,-1.424455925380322174
0.706000000000000516,-1.410174992253555359
0.707000000000000517,-1.395941129680319692
0.708000000000000518,-1.381755102231098986
0.709000000000000519,-1.367617660696438753
0.710000000000000520,-1.353529542125028406
0.711000000000000520,-1.339491469865025763
0.712000000000000521,-1.325504153608396907
0.713000000000000522,-1.311568289438223456
0.714000000000000523,-1.297684559878942157
0.715000000000000524,-1.283853633949289419
0.716000000000000525,-1.270076167218026963
0.717000000000000526,-1.256352801862246960
0.718000000000000527,-1.242684166728186712
0.719000000000000528,-1.229070877394532912
0.720000000000000528,-1.215513536238095993
0.721000000000000529,-1.202012732501694270
0.722000000000000530,-1.188569042364359563
0.723000000000000531,-1.175183029013553426
0.724000000000000532,-1.161855242719538772
0.725000000000000533,-1.148586220911669509
0.726000000000000534,-1.135376488256587324
0.727000000000000535,-1.122226556738276315
0.728000000000000536,-1.109136925739859780
0.729000000000000536,-1.096108082127088990
0.730000000000000537,-1.083140500333491740
0.731000000000000538,-1.070234642447003948
0.732000000000000539,-1.057390958298183303
0.733000000000000540,-1.044609885549780959
0.734000000000000541,-1.031891849787723636
0.735000000000000542,-1.019237264613347183
0.736000000000000543,-1.006646531736959949
0.737000000000000544,-0.994120041072482530
0.738000000000000544,-0.981658170833324406
0.739000000000000545,-0.969261287629230472
0.740000000000000546,-0.956929746564218697
0.741000000000000547,-0.944663891335415173
0.742000000000000548,-0.932464054332889147
0.743000000000000549,-0.920330556740218797
0.744000000000000550,-0.908263708635953848
0.745000000000000551,-0.896263809095805941
0.746000000000000552,-0.884331146295547987
0.747000000000000552,-0.872465997614568778
0.748000000000000553,-0.860668629740032776
0.749000000000000554,-0.848939298771614559
0.750000000000000555,-0.837278250326772500
0.751000000000000556,-0.825685719646459981
0.752000000000000557,-0.814161931701343322
0.753000000000000558,-0.802707101298313908
0.754000000000000559,-0.791321433187470724
0.755000000000000560,-0.780005122169322274
0.756000000000000560,-0.768758353202354305
0.757000000000000561,-0.757581301510747984
0.758000000000000562,-0.746474132692363623
0.759000000000000563,-0.735437002826887287
0.760000000000000564,-0.724470058584104182
0.761000000000000565,-0.713573437332256311
0.762000000000000566,-0.702747267246494278
0.763000000000000567,-0.691991667417355738
0.764000000000000568,-0.681306747959228187
0.765000000000000568,-0.670692610118843846
0.766000000000000569,-0.660149346383644753
0.767000000000000570,-0.649677040590135535
0.768000000000000571,-0.639275768032051661
0.769000000000000572,-0.628945595568463744
0.770000000000000573,-0.618686581731665797
0.771000000000000574,-0.608498776834901833
0.772000000000000575,-0.598382223079858555
0.773000000000000576,-0.588336954663923328
0.774000000000000576,-0.578362997887190144
0.775000000000000577,-0.568460371259182806
0.776000000000000578,-0.558629085605234943
0.777000000000000579,-0.548869144172608125
0.778000000000000580,-0.539180542736186430
0.779000000000000581,-0.529563269703862360
0.780000000000000582,-0.520017306221494002
0.781000000000000583,-0.510542626277493694
0.782000000000000584,-0.501139196806950182
0.783000000000000584,-0.491806977795332556
0.784000000000000585,-0.482545922381749648
0.785000000000000586,-0.473355976961682967
0.786000000000000587,-0.464237081289293307
0.787000000000000588,-0.455189168579176240
0.788000000000000589,-0.446212165607587419
0.789000000000000590,-0.437305992813201538
0.790000000000000591,-0.428470564397232523
0.791000000000000592,-0.419705788423059556
0.792000000000000592,-0.411011566915248427
0.793000000000000593,-0.402387795957983574
0.794000000000000594,-0.393834365792925634
0.795000000000000595,-0.385351160916450441
0.796000000000000596,-0.376938060176241319
0.797000000000000597,-0.368594936867296441
0.798000000000000598,-0.360321658827272573
0.799000000000000599,-0.352118088531166495
0.800000000000000600,-0.343984083185386036
0.801000000000000600,-0.335919494821097619
0.802000000000000601,-0.327924170386941050
0.803000000000000602,-0.319997951841044459
0.804000000000000603,-0.312140676242359527
0.805000000000000604,-0.304352175841307415
0.806000000000000605,-0.296632278169678187
0.807000000000000606,-0.288980806129900625
0.808000000000000607,-0.281397578083522670
0.809000000000000608,-0.273882407939009531
0.810000000000000608,-0.266435105238843617
0.811000000000000609,-0.259055475245800082
0.812000000000000610,-0.251743319028629231
0.813000000000000611,-0.244498433546859989
0.814000000000000612,-0.237320611734959108
0.815000000000000613,-0.230209642585724072
0.816000000000000614,-0.223165311232888908
0.817000000000000615,-0.216187399033022670
0.818000000000000616,-0.209275683646667598
0.819000000000000616,-0.202429939118700108
0.820000000000000617,-0.195649935957944582
0.821000000000000618,-0.188935441216043470
0.822000000000000619,-0.182286218565554076
0.823000000000000620,-0.175702028377270419
0.824000000000000621,-0.169182627796788110
0.825000000000000622,-0.162727770820322026
0.826000000000000623,-0.156337208369745628
0.827000000000000624,-0.150010688366851275
0.828000000000000624,-0.143747955806876326
0.829000000000000625,-0.137548752831222115
0.830000000000000626,-0.131412818799448466
0.831000000000000627,-0.125339890360474243
0.832000000000000628,-0.119329701523040538
0.833000000000000629,-0.113381983725366745
0.834000000000000630,-0.107496465904090857
0.835000000000000631,-0.101672874562422105
0.836000000000000631,-0.095910933837525553
0.837000000000000632,-0.090210365567191086
0.838000000000000633,-0.084570889355676665
0.839000000000000634,-0.078992222638858606
0.840000000000000635,-0.073474080748603690
0.841000000000000636,-0.068016176976367873
0.842000000000000637,-0.062618222636098592
0.843000000000000638,-0.057279927126333473
0.844000000000000639,-0.052000997991590955
0.845000000000000639,-0.046781140983013433
0.846000000000000640,-0.041620060118238648
0.847000000000000641,-0.036517457740610285
0.848000000000000642,-0.031473034577562550
0.849000000000000643,-0.026486489798330282
0.850000000000000644,-0.021557521070951231
0.851000000000000645,-0.016685824618466689
0.852000000000000646,-0.011871095274486715
0.853000000000000647,-0.007113026537989925
0.854000000000000647,-0.002411310627412577
0.855000000000000648,0.002234361465952539
0.856000000000000649,0.006824299925272659
0.857000000000000650,0.011358816056192628
0.858000000000000651,0.015838222235561510
0.859000000000000652,0.020262831860840016
0.860000000000000653,0.024632959300184890
0.861000000000000654,0.028948919843265985
0.862000000000000655,0.033211029652702284
0.863000000000000655,0.037419605716232908
0.864000000000000656,0.041574965799511775
0.865000000000000657,0.045677428399625103
0.866000000000000658,0.049727312699214869
0.867000000000000659,0.053724938521289775
0.868000000000000660,0.057670626284713158
0.869000000000000661,0.061564696960308474
0.870000000000000662,0.065407472027615543
0.871000000000000663,0.069199273432287642
0.872000000000000663,0.072940423544161456
0.873000000000000664,0.076631245115891033
0.874000000000000665,0.080272061242281201
0.875000000000000666,0.083863195320173417
0.876000000000000667,0.087404971009016036
0.877000000000000668,0.090897712191998492
0.878000000000000669,0.094341742937802051
0.879000000000000670,0.097737387462982092
0.880000000000000671,0.101084970094899432
0.881000000000000671,0.104384815235305031
0.882000000000000672,0.107637247324437940
0.883000000000000673,0.110842590805780322
0.884000000000000674,0.114001170091334786
0.885000000000000675,0.117113309527509687
0.886000000000000676,0.120179333361546667
0.887000000000000677,0.123199565708526887
0.888000000000000678,0.126174330518934563
0.889000000000000679,0.129103951546758355
0.890000000000000679,0.131988752318156710
0.891000000000000680,0.134829056100651490
0.892000000000000681,0.137625185872868899
0.893000000000000682,0.140377464294809684
0.894000000000000683,0.143086213678651986
0.895000000000000684,0.145751755960051327
0.896000000000000685,0.148374412669989131
0.897000000000000686,0.150954504907120896
0.898000000000000687,0.153492353310615115
0.899000000000000687,0.155988278033524358
0.900000000000000688,0.158442598716623945
0.901000000000000689,0.160855634462763381
0.902000000000000690,0.163227703811682862
0.903000000000000691,0.165559124715333628
0.904000000000000692,0.167850214513660584
0.905000000000000693,0.170101289910862874
0.906000000000000694,0.172312666952103732
0.907000000000000695,0.174484661000718994
0.908000000000000695,0.176617586715832664
0.909000000000000696,0.178711758030474066
0.910000000000000697,0.180767488130093190
0.911000000000000698,0.182785089431558523
0.912000000000000699,0.184764873562571541
0.913000000000000700,0.186707151341497540
0.914000000000000701,0.188612232757674969
0.915000000000000702,0.190480426952080173
0.916000000000000703,0.192312042198461791
0.917000000000000703,0.194107385884861705
0.918000000000000704,0.195866764495546908
0.919000000000000705,0.197590483593359317
0.920000000000000706,0.199278847802434239
0.921000000000000707,0.200932160791344655
0.922000000000000708,0.202550725256619379
0.923000000000000709,0.204134842906625563
0.924000000000000710,0.205684814445877995
0.925000000000000711,0.207200939559678471
0.926000000000000711,0.208683516899146854
0.927000000000000712,0.210132844066617613
0.928000000000000713,0.211549217601392225
0.929000000000000714,0.212932932965838539
0.930000000000000715,0.214284284531874203
0.931000000000000716,0.215603565567768912
0.932000000000000717,0.216891068225289307
0.933000000000000718,0.218147083527209851
0.934000000000000719,0.219371901355126742
0.935000000000000719,0.220565810437620302
0.936000000000000720,0.221729098338748182
0.937000000000000721,0.222862051446840764
0.938000000000000722,0.223964954963627505
0.939000000000000723,0.225038092893681541
0.940000000000000724,0.226081748034158675
0.941000000000000725,0.227096201964856720
0.942000000000000726,0.228081735038554362
0.943000000000000727,0.229038626371682430
0.944000000000000727,0.229967153835247851
0.945000000000000728,0.230867594046068353
0.946000000000000729,0.231740222358303882
0.947000000000000730,0.232585312855229820
0.948000000000000731,0.233403138341336636
0.949000000000000732,0.234193970334653667
0.950000000000000733,0.234958079059391978
0.951000000000000734,0.235695733438791383
0.952000000000000735,0.236407201088295743
0.953000000000000735,0.237092748308945916
0.954000000000000736,0.237752640081028865
0.955000000000000737,0.238387140057989166
0.956000000000000738,0.238996510560580189
0.957000000000000739,0.239581012571264296
0.958000000000000740,0.240140905728842474
0.959000000000000741,0.240676448323335290
0.960000000000000742,0.241187897291075704
0.961000000000000743,0.241675508210050960
0.962000000000000743,0.242139535295462893
0.963000000000000744,0.242580231395506829
0.964000000000000745,0.242997847987362459
0.965000000000000746,0.243392635173423771
0.966000000000000747,0.243764841677717836
0.967000000000000748,0.244114714842549013
0.968000000000000749,0.244442500625320663
0.969000000000000750,0.244748443595606796
0.970000000000000751,0.245032786932364077
0.971000000000000751,0.245295772421396385
0.972000000000000752,0.245537640452981737
0.973000000000000753,0.245758630019668745
0.974000000000000754,0.245958978714315046
0.975000000000000755,0.246138922728258158
0.976000000000000756,0.246298696849693272
0.977000000000000757,0.246438534462221803
0.978000000000000758,0.246558667543576554
0.979000000000000759,0.246659326664500161
0.980000000000000759,0.246740740987833107
0.981000000000000760,0.246803138267727512
0.982000000000000761,0.246846744849029964
0.983000000000000762,0.246871785666854471
0.984000000000000763,0.246878484246282059
0.985000000000000764,0.246867062702215201
0.986000000000000765,0.246837741739408228
0.987000000000000766,0.246790740652624546
0.988000000000000766,0.246726277326953986
0.989000000000000767,0.246644568238258699
0.990000000000000768,0.246545828453771543
0.991000000000000769,0.246430271632845088
0.992000000000000770,0.246298110027815570
0.993000000000000771,0.246149554484992844
0.994000000000000772,0.245984814445829481
0.995000000000000773,0.245804097948155442
0.996000000000000774,0.245607611627592121
0.997000000000000774,0.245395560719057076
0.998000000000000775,0.245168149058407975
0.999000000000000776,0.244925579084196210
1.000000000000000666,0.244668051839545070
1.001000000000000778,0.244395766974133288
1.002000000000000668,0.244108922746302692
1.003000000000000780,0.243807716025268961
1.004000000000000670,0.243492342293440606
1.005000000000000782,0.243162995648842861
1.006000000000000671,0.242819868807646472
1.007000000000000783,0.242463153106810270
1.008000000000000673,0.242093038506796587
1.009000000000000785,0.241709713594410569
1.010000000000000675,0.241313365585719725
1.011000000000000787,0.240904180329073625
1.012000000000000677,0.240482342308208835
1.013000000000000789,0.240048034645445441
1.014000000000000679,0.239601439104990321
1.015000000000000790,0.239142736096281755
1.016000000000000680,0.238672104677460195
1.017000000000000792,0.238189722558905081
1.018000000000000682,0.237695766106852446
1.019000000000000794,0.237190410347082492
1.020000000000000684,0.236673828968696348
1.021000000000000796,0.236146194327962217
1.022000000000000686,0.235607677452237929
1.023000000000000798,0.235058448043951040
1.024000000000000687,0.234498674484672875
1.025000000000000799,0.233928523839233460
1.026000000000000689,0.233348161859920827
1.027000000000000801,0.232757752990742306
1.028000000000000691,0.232157460371736235
1.029000000000000803,0.231547445843363897
1.030000000000000693,0.230927869950954406
1.031000000000000805,0.230298891949184487
1.032000000000000695,0.229660669806666107
1.033000000000000806,0.229013360210530509
1.034000000000000696,0.228357118571109879
1.035000000000000808,0.227692099026655631
1.036000000000000698,0.227018454448105977
1.037000000000000810,0.226336336443887426
1.038000000000000700,0.225645895364810778
1.039000000000000812,0.224947280308966990
1.040000000000000702,0.224240639126680741
1.041000000000000814,0.223526118425519421
1.042000000000000703,0.222803863575347844
1.043000000000000815,0.222074018713394050
1.044000000000000705,0.221336726749381402
1.045000000000000817,0.220592129370711543
1.046000000000000707,0.219840367047638818
1.047000000000000819,0.219081579038522711
1.048000000000000709,0.218315903395104455
1.049000000000000821,0.217543476967803823
1.050000000000000711,0.216764435411073375
1.051000000000000822,0.215978913188751454
1.052000000000000712,0.215187043579479986
1.053000000000000824,0.214388958682128955
1.054000000000000714,0.213584789421254057
1.055000000000000826,0.212774665552589337
1.056000000000000716,0.211958715668550013
1.057000000000000828,0.211137067203777923
1.058000000000000718,0.210309846440701831
1.059000000000000830,0.209477178515119850
1.060000000000000719,0.208639187421801736
1.061000000000000831,0.207795996020125079
1.062000000000000721,0.206947726039717228
1.063000000000000833,0.206094498086113742
1.064000000000000723,0.205236431646459883
1.065000000000000835,0.204373645095196288
1.066000000000000725,0.203506255699777705
1.067000000000000837,0.202634379626424860
1.068000000000000727,0.201758131945837610
1.069000000000000838,0.200877626638990725
1.070000000000000728,0.199992976602883205
1.071000000000000840,0.199104293656335113
1.072000000000000730,0.198211688545777587
1.073000000000000842,0.197315270951061106
1.074000000000000732,0.196415149491284302
1.075000000000000844,0.195511431730596874
1.076000000000000734,0.194604224184046409
1.077000000000000846,0.193693632323417769
1.078000000000000735,0.192779760583071502
1.079000000000000847,0.191862712365811261
1.080000000000000737,0.190942590048716887
1.081000000000000849,0.190019494989029536
1.082000000000000739,0.189093527530006827
1.083000000000000851,0.188164787006785295
1.084000000000000741,0.187233371752254685
1.085000000000000853,0.186299379102935481
1.086000000000000743,0.185362905404844847
1.087000000000000854,0.184424046019368820
1.088000000000000744,0.183482895329130924
1.089000000000000856,0.182539546743880093
1.090000000000000746,0.181594092706344939
1.091000000000000858,0.180646624698103414
1.092000000000000748,0.179697233245455557
1.093000000000000860,0.178746007925275230
1.094000000000000750,0.177793037370883034
1.095000000000000862,0.176838409277881914
1.096000000000000751,0.175882210410015005
1.097000000000000863,0.174924526605019670
1.098000000000000753,0.173965442780443624
1.099000000000000865,0.173005042939487153
1.100000000000000755,0.172043410176834638
1.101000000000000867,0.171080626684459614
1.102000000000000757,0.170116773757437417
1.103000000000000869,0.169151931799743915
1.104000000000000759,0.168186180330059443
1.105000000000000870,0.167219597987527530
1.106000000000000760,0.166252262537559925
1.107000000000000872,0.165284250877568095
1.108000000000000762,0.164315639042734551
1.109000000000000874,0.163346502211746125
1.110000000000000764,0.162376914712530601
1.111000000000000876,0.161406950027975477
1.112000000000000766,0.160436680801623460
1.113000000000000878,0.159466178843378131
1.114000000000000767,0.158495515135177123
1.115000000000000879,0.157524759836668776
1.116000000000000769,0.156553982290859983
1.117000000000000881,0.155583251029757036
1.118000000000000771,0.154612633779995956
1.119000000000000883,0.153642197468449482
1.120000000000000773,0.152672008227824951
1.121000000000000885,0.151702131402249779
1.122000000000000774,0.150732631552838281
1.123000000000000886,0.149763572463236877
1.124000000000000776,0.148795017145156722
1.125000000000000888,0.147827027843905306
1.126000000000000778,0.146859666043881398
1.127000000000000890,0.145892992474040639
1.128000000000000780,0.144927067113401503
1.129000000000000892,0.143961949196461936
1.130000000000000782,0.142997697218647690
1.131000000000000894,0.142034368941724887
1.132000000000000783,0.141072021399196890
1.133000000000000895,0.140110710901674068
1.134000000000000785,0.139150493042254270
1.135000000000000897,0.138191422701834182
1.136000000000000787,0.137233554054461637
1.137000000000000899,0.136276940572612665
1.138000000000000789,0.135321635032499221
1.139000000000000901,0.134367689519302475
1.140000000000000790,0.133415155432446225
1.141000000000000902,0.132464083490808987
1.142000000000000792,0.131514523737922551
1.143000000000000904,0.130566525547164553
1.144000000000000794,0.129620137626909659
1.145000000000000906,0.128675408025694049
1.146000000000000796,0.127732384137307697
1.147000000000000908,0.126791112705917863
1.148000000000000798,0.125851639831140172
1.149000000000000909,0.124914010973091738
1.150000000000000799,0.123978270957444819
1.151000000000000689,0.123044463980423652
1.152000000000000801,0.122112633613806421
1.153000000000000913,0.121182822809896867
1.154000000000000803,0.120255073906474191
1.155000000000000693,0.119329428631726686
1.156000000000000805,0.118405928109142383
1.157000000000000917,0.117484612862413115
1.158000000000000806,0.116565522820280654
1.159000000000000696,0.115648697321379904
1.160000000000000808,0.114734175119063628
1.161000000000000920,0.113821994386186426
1.162000000000000810,0.112912192719876819
1.163000000000000700,0.112004807146295710
1.164000000000000812,0.111099874125348136
1.165000000000000924,0.110197429555403098
1.166000000000000814,0.109297508777956770
1.167000000000000703,0.108400146582302098
1.168000000000000815,0.107505377210154407
1.169000000000000927,0.106613234360270662
1.170000000000000817,0.105723751193028681
1.171000000000000707,0.104836960335001228
1.172000000000000819,0.103952893883482056
1.173000000000000931,0.103071583411019671
1.174000000000000821,0.102193059969908767
1.175000000000000711,0.101317354096652393
1.176000000000000822,0.100444495816414570
1.177000000000000934,0.099574514647449486
1.178000000000000824,0.098707439605492178
1.179000000000000714,0.097843299208150672
1.180000000000000826,0.096982121479237154
1.181000000000000938,0.096123933953122159
1.182000000000000828,0.095268763679026230
1.183000000000000718,0.094416637225302663
1.184000000000000830,0.093567580683701815
1.185000000000000941,0.092721619673611991
1.186000000000000831,0.091878779346255018
1.187000000000000721,0.091039084388891009
1.188000000000000833,0.090202559028973700
1.189000000000000945,0.089369227038293281
1.190000000000000835,0.088539111737092016
1.191000000000000725,0.087712235998172919
1.192000000000000837,0.086888622250936715
1.193000000000000949,0.086068292485472070
1.194000000000000838,0.085251268256537657
1.195000000000000728,0.084437570687591848
1.196000000000000840,0.083627220474751435
1.197000000000000952,0.082820237890747800
1.198000000000000842,0.082016642788862185
1.199000000000000732,0.081216454606814217
1.200000000000000844,0.080419692370673188
1.201000000000000956,0.079626374698682140
1.202000000000000846,0.078836519805119049
1.203000000000000735,0.078050145504092269
1.204000000000000847,0.077267269213346493
1.205000000000000959,0.076487907957999562
1.206000000000000849,0.075712078374313915
1.207000000000000739,0.074939796713399162
1.208000000000000851,0.074171078844908173
1.209000000000000963,0.073405940260713703
1.210000000000000853,0.072644396078550361
1.211000000000000743,0.071886461045653494
1.212000000000000854,0.071132149542345410
1.213000000000000966,0.070381475585630585
1.214000000000000856,0.069634452832736254
1.215000000000000746,0.068891094584668050
1.216000000000000858,0.068151413789697274
1.217000000000000970,0.067415423046869843
1.218000000000000860,0.066683134609461445
1.219000000000000750,0.065954560388421207
1.220000000000000862,0.065229711955792247
1.221000000000000973,0.064508600548116718
1.222000000000000863,0.063791237069800472
1.223000000000000753,0.063077632096475766
1.224000000000000865,0.062367795878327449
1.225000000000000977,0.061661738343395098
1.226000000000000867,0.060959469100874041
1.227000000000000757,0.060260997444367990
1.228000000000000869,0.059566332355137877
1.229000000000000981,0.058875482505307566
1.230000000000000870,0.058188456261087998
1.231000000000000760,0.057505261685927248
1.232000000000000872,0.056825906543671402
1.233000000000000984,0.056150398301716940
1.234000000000000874,0.055478744134087640
1.235000000000000764,0.054810950924554992
1.236000000000000876,0.054147025269683222
1.237000000000000988,0.053486973481893296
1.238000000000000878,0.052830801592469966
1.239000000000000767,0.052178515354582698
1.240000000000000879,0.051530120246254210
1.241000000000000991,0.050885621473331553
1.242000000000000881,0.050245023972419534
1.243000000000000771,0.049608332413801338
1.244000000000000883,0.048975551204342979
1.245000000000000995,0.048346684490359025
1.246000000000000885,0.047721736160476369
1.247000000000000774,0.047100709848471381
1.248000000000000886,0.046483608936084338
1.249000000000000998,0.045870436555810301
1.250000000000000888,0.045261195593675474
1.251000000000000778,0.044655888691994695
1.252000000000000890,0.044054518252098593
1.253000000000001002,0.043457086437060491
1.254000000000000892,0.042863595174368364
1.255000000000000782,0.042274046158620002
1.256000000000000894,0.041688440854164746
1.257000000000001005,0.041106780497739477
1.258000000000000895,0.040529066101083019
1.259000000000000785,0.039955298453532372
1.260000000000000897,0.039385478124598416
1.261000000000001009,0.038819605466510268
1.262000000000000899,0.038257680616773225
1.263000000000000789,0.037699703500662908
1.264000000000000901,0.037145673833734669
1.265000000000001013,0.036595591124303536
1.266000000000000902,0.036049454675894696
1.267000000000000792,0.035507263589693264
1.268000000000000904,0.034969016766960945
1.269000000000001016,0.034434712911440922
1.270000000000000906,0.033904350531736779
1.271000000000000796,0.033377927943685437
1.272000000000000908,0.032855443272704704
1.273000000000001020,0.032336894456113090
1.274000000000000909,0.031822279245448420
1.275000000000000799,0.031311595208761346
1.276000000000000911,0.030804839732877252
1.277000000000001023,0.030302010025668825
1.278000000000000913,0.029803103118284789
1.279000000000000803,0.029308115867370567
1.280000000000000915,0.028817044957268161
1.281000000000001027,0.028329886902215780
1.282000000000000917,0.027846638048496429
1.283000000000000806,0.027367294576599845
1.284000000000000918,0.026891852503347025
1.285000000000001030,0.026420307684017413
1.286000000000000920,0.025952655814433213
1.287000000000000810,0.025488892433050296
1.288000000000000922,0.025029012923015060
1.289000000000001034,0.024573012514216449
1.290000000000000924,0.024120886285321823
1.291000000000000814,0.023672629165769614
1.292000000000000925,0.023228235937797565
1.293000000000001037,0.022787701238388448
1.294000000000000927,0.022351019561260364
1.295000000000000817,0.021918185258807770
1.296000000000000929,0.021489192544022085
1.297000000000001041,0.021064035492423909
1.298000000000000931,0.020642708043946811
1.299000000000000821,0.020225204004824943
1.300000000000000933,0.019811517049468950
1.301000000000001044,0.019401640722306067
1.302000000000000934,0.018995568439623921
1.303000000000000824,0.018593293491375798
1.304000000000000936,0.018194809043011122
1.305000000000001048,0.017800108137239083
1.306000000000000938,0.017409183695812964
1.307000000000000828,0.017022028521293999
1.308000000000000940,0.016638635298787112
1.309000000000001052,0.016258996597665644
1.310000000000000941,0.015883104873296063
1.311000000000000831,0.015510952468724909
1.312000000000000943,0.015142531616377890
1.313000000000001055,0.014777834439704041
1.314000000000000945,0.014416852954853945
1.315000000000000835,0.014059579072308637
1.316000000000000947,0.013706004598504518
1.317000000000001059,0.013356121237443407
1.318000000000000949,0.013009920592300567
1.319000000000000838,0.012667394166985804
1.320000000000000950,0.012328533367729891
1.321000000000001062,0.011993329504637069
1.322000000000000952,0.011661773793215143
1.323000000000000842,0.011333857355912944
1.324000000000000954,0.011009571223626656
1.325000000000001066,0.010688906337204547
1.326000000000000956,0.010371853548923660
1.327000000000000846,0.010058403623975799
1.328000000000000957,0.009748547241908583
1.329000000000001069,0.009442274998093036
1.330000000000000959,0.009139577405132332
1.331000000000000849,0.008840444894296900
1.332000000000000961,0.008544867816930177
1.333000000000001073,0.008252836445835490
1.334000000000000963,0.007964340976654813
1.335000000000000853,0.007679371529247062
1.336000000000000965,0.007397918149031103
1.337000000000001076,0.007119970808335427
1.338000000000000966,0.006845519407727475
1.339000000000000856,0.006574553777324590
1.340000000000000968,0.006307063678108148
1.341000000000001080,0.006043038803210933
1.342000000000000970,0.005782468779197478
1.343000000000000860,0.005525343167332927
1.344000000000000972,0.005271651464843501
1.345000000000001084,0.005021383106149911
1.346000000000000973,0.004774527464113899
1.347000000000000863,0.004531073851247866
1.348000000000000975,0.004291011520933509
1.349000000000001087,0.004054329668610639
1.350000000000000977,0.003821017432965813
1.351000000000000867,0.003591063897104551
1.352000000000000979,0.003364458089729462
1.353000000000001091,0.003141188986265646
1.354000000000000981,0.002921245510019829
1.355000000000000870,0.002704616533309009
1.356000000000000982,0.002491290878572625
1.357000000000001094,0.002281257319478569
1.358000000000000984,0.002074504582027310
1.359000000000000874,0.001871021345633020
1.360000000000000986,0.001670796244198712
1.361000000000001098,0.001473817867174515
1.362000000000000988,0.001280074760625993
1.363000000000000878,0.001089555428264843
1.364000000000000989,0.000902248332476106
1.365000000000001101,0.000718141895363912
1.366000000000000991,0.000537224499738817
1.367000000000000881,0.000359484490130201
1.368000000000000993,0.000184910173777614
1.369000000000001105,0.000013489821610190
1.370000000000000995,-0.000154788330779795
1.371000000000000885,-0.000319936082176990
1.372000000000000997,-0.000481965264789776
1.373000000000001108,-0.000640887743318580
1.374000000000000998,-0.000796715413995527
1.375000000000000888,-0.000949460203701342
1.376000000000001000,-0.001099134069023663
1.377000000000001112,-0.001245748995359866
1.378000000000001002,-0.001389316996030638
1.379000000000000892,-0.001529850111386916
1.380000000000001004,-0.001667360407937551
1.381000000000001116,-0.001801859977487606
1.382000000000001005,-0.001933360936273087
1.383000000000000895,-0.002061875424116523
1.384000000000001007,-0.002187415603592308
1.385000000000001119,-0.002309993659189968
1.386000000000001009,-0.002429621796499790
1.387000000000000899,-0.002546312241386220
1.388000000000001011,-0.002660077239215382
1.389000000000001123,-0.002770929054018802
1.390000000000001013,-0.002878879967740473
1.391000000000000902,-0.002983942279441398
1.392000000000001014,-0.003086128304536929
1.393000000000001126,-0.003185450374033258
1.394000000000001016,-0.003281920833781059
1.395000000000000906,-0.003375552043722885
1.396000000000001018,-0.003466356377157613
1.397000000000001130,-0.003554346220021356
1.398000000000001020,-0.003639533970158243
1.399000000000000909,-0.003721932036614453
1.400000000000001021,-0.003801552838927487
1.401000000000001133,-0.003878408806442447
1.402000000000001023,-0.003952512377610250
1.403000000000000913,-0.004023875999311794
1.404000000000001025,-0.004092512126195084
1.405000000000001137,-0.004158433219993121
1.406000000000001027,-0.004221651748877798
1.407000000000000917,-0.004282180186815148
1.408000000000001029,-0.004340031012903407
1.409000000000001140,-0.004395216710757746
1.410000000000001030,-0.004447749767872133
1.411000000000000920,-0.004497642675002279
1.412000000000001032,-0.004544907925550294
1.413000000000001144,-0.004589558014963580
1.414000000000001034,-0.004631605440128563
1.415000000000000924,-0.004671062698781768
1.416000000000001036,-0.004707942288932766
1.417000000000001148,-0.004742256708275822
1.418000000000001037,-0.004774018453620155
1.419000000000000927,-0.004803240020330518
1.420000000000001039,-0.004829933901765544
1.421000000000001151,-0.004854112588733267
1.422000000000001041,-0.004875788568938018
1.423000000000000931,-0.004894974326449301
1.424000000000001043,-0.004911682341169087
1.425000000000001155,-0.004925925088307319
1.426000000000001044,-0.004937715037865146
1.427000000000000934,-0.004947064654122027
1.428000000000001046,-0.004953986395130523
1.429000000000001158,-0.004958492712213589
1.430000000000001048,-0.004960596049484313
1.431000000000000938,-0.004960308843341881
1.432000000000001050,-0.004957643522003979
1.433000000000001162,-0.004952612505031493
1.434000000000001052,-0.004945228202849386
1.435000000000000941,-0.004935503016300742
1.436000000000001053,-0.004923449336174164
1.437000000000001165,-0.004909079542761083
1.438000000000001055,-0.004892406005416379
1.439000000000000945,-0.004873441082107311
1.440000000000001057,-0.004852197118989708
1.441000000000001169,-0.004828686449972697
1.442000000000001059,-0.004802921396300749
1.443000000000000949,-0.004774914266143637
1.444000000000001060,-0.004744677354173455
1.445000000000001172,-0.004712222941160189
1.446000000000001062,-0.004677563293588705
1.447000000000000952,-0.004640710663238429
1.448000000000001064,-0.004601677286814744
1.449000000000001176,-0.004560475385556611
1.450000000000001066,-0.004517117164854820
1.451000000000000956,-0.004471614813883510
1.452000000000001068,-0.004423980505230967
1.453000000000001180,-0.004374226394534620
1.454000000000001069,-0.004322364620121213
1.455000000000000959,-0.004268407302660188
1.456000000000001071,-0.004212366544805087
1.457000000000001183,-0.004154254430861710
1.458000000000001073,-0.004094083026441658
1.459000000000000963,-0.004031864378127704
1.460000000000001075,-0.003967610513150454
1.461000000000001187,-0.003901333439059462
1.462000000000001076,-0.003833045143411532
1.463000000000000966,-0.003762757593443047
1.464000000000001078,-0.003690482735769932
1.465000000000001190,-0.003616232496082347
1.466000000000001080,-0.003540018778835523
1.467000000000000970,-0.003461853466958459
1.468000000000001082,-0.003381748421567092
1.469000000000001194,-0.003299715481662863
1.470000000000001084,-0.003215766463862901
1.471000000000000973,-0.003129913162111986
1.472000000000001085,-0.003042167347418139
1.473000000000001197,-0.002952540767568041
1.474000000000001087,-0.002861045146874580
1.475000000000000977,-0.002767692185902037
1.476000000000001089,-0.002672493561219631
1.477000000000001201,-0.002575460925144625
1.478000000000001091,-0.002476605905485467
1.479000000000000981,-0.002375940105304526
1.480000000000001092,-0.002273475102672603
1.481000000000001204,-0.002169222450432154
1.482000000000001094,-0.002063193675963440
1.483000000000000984,-0.001955400280956598
1.484000000000001096,-0.001845853741180504
1.485000000000001208,-0.001734565506260714
1.486000000000001098,-0.001621546999469994
1.487000000000000988,-0.001506809617502431
1.488000000000001100,-0.001390364730266017
1.489000000000001211,-0.001272223680679089
1.490000000000001101,-0.001152397784462548
1.491000000000000991,-0.001030898329937842
1.492000000000001103,-0.000907736577836915
1.493000000000001215,-0.000782923761103781
1.494000000000001105,-0.000656471084701926
1.495000000000000995,-0.000528389725437844
1.496000000000001107,-0.000398690831769427
1.497000000000001219,-0.000267385523630812
1.498000000000001108,-0.000134484892254971
1.499000000000000998,0.000000000000000000
