# SiO2-Quartz_CS-12139-AC
# h[nm],U(h)[kJ/mol]
0.149999999999999994,113.399293347371468599
0.150999999999999995,110.952581384638349959
0.151999999999999996,109.337091807683890465
0.152999999999999997,107.943107905769508648
0.153999999999999998,106.530002296346381740
0.154999999999999999,105.038073474835044863
0.156000000000000000,103.484008046818644289
0.157000000000000001,101.906615994237228051
0.158000000000000002,100.341703726690795406
0.159000000000000002,98.812980601512151679
0.160000000000000003,97.331100586160872012
0.161000000000000004,95.896258203103812434
0.162000000000000005,94.501826752625134986
0.163000000000000006,93.137781086703100186
0.164000000000000007,91.793378729815444217
0.165000000000000008,90.458976085251350696
0.166000000000000009,89.127058418130431505
0.167000000000000010,87.792645822732836791
0.168000000000000010,86.453254847041932862
0.169000000000000011,85.108579270212771917
0.170000000000000012,83.760023076570206513
0.171000000000000013,82.410184947119404342
0.172000000000000014,81.062362359771611864
0.173000000000000015,79.720117231927389412
0.174000000000000016,78.386924682977351608
0.175000000000000017,77.065911666172851824
0.176000000000000018,75.759682166730769382
0.177000000000000018,74.470219466283637644
0.178000000000000019,73.198852721101204111
0.179000000000000020,71.946273978214435374
0.180000000000000021,70.712592079007805523
0.181000000000000022,69.497411133751896273
0.182000000000000023,68.299922983134024435
0.183000000000000024,67.119004997079031227
0.184000000000000025,65.953316492625361889
0.185000000000000026,64.801388849913763579
0.186000000000000026,63.661705992388704090
0.187000000000000027,62.532773238451952125
0.188000000000000028,61.413173619613459664
0.189000000000000029,60.301611605880154343
0.190000000000000030,59.196944805287294855
0.191000000000000031,58.098204639682435868
0.192000000000000032,57.004607273862710315
0.193000000000000033,55.915556220275206556
0.194000000000000034,54.830638084997090687
0.195000000000000034,53.749612887881291101
0.196000000000000035,52.672400302402550665
0.197000000000000036,51.599063037134236254
0.198000000000000037,50.529788435782101885
0.199000000000000038,49.464869218018392871
0.200000000000000039,48.404684127943042427
0.201000000000000040,47.349679107399431643
0.202000000000000041,46.300349472140069906
0.203000000000000042,45.257223442887891451
0.204000000000000042,44.220847272275179307
0.205000000000000043,43.191772113069326622
0.206000000000000044,42.170542692848172805
0.207000000000000045,41.157687794670366088
0.208000000000000046,40.153712491222592007
0.209000000000000047,39.159092040115162092
0.210000000000000048,38.174267319018923672
0.211000000000000049,37.199641659736123245
0.212000000000000050,36.235578928643967345
0.213000000000000050,35.282402695890823452
0.214000000000000051,34.340396336001454358
0.215000000000000052,33.409803907026564218
0.216000000000000053,32.490831663045078415
0.217000000000000054,31.583650064815554259
0.218000000000000055,30.688396164927162602
0.219000000000000056,29.805176256289843906
0.220000000000000057,28.934068685705312873
0.221000000000000058,28.075126747164272700
0.222000000000000058,27.228381582083112988
0.223000000000000059,26.393845025685436667
0.224000000000000060,25.571512349961768251
0.225000000000000061,24.761364863985043883
0.226000000000000062,23.963372341743557570
0.227000000000000063,23.177495256040568705
0.228000000000000064,22.403686804398947885
0.229000000000000065,21.641894719317413376
0.230000000000000066,20.892062860697294013
0.231000000000000066,20.154132592843378546
0.232000000000000067,19.428043952208753353
0.233000000000000068,18.713736615066547841
0.234000000000000069,18.011150676626915157
0.235000000000000070,17.320227254847683440
0.236000000000000071,16.640908933385293977
0.237000000000000072,15.973140058866849955
0.238000000000000073,15.316866908003555992
0.239000000000000073,14.672037740071122158
0.240000000000000074,14.038602750009129494
0.241000000000000075,13.416513936895949399
0.242000000000000076,12.805724901880690680
0.243000000000000077,12.206190588843433886
0.244000000000000078,11.617866980146210665
0.245000000000000079,11.040710758861056462
0.246000000000000080,10.474678947847587906
0.247000000000000081,9.919728535021317128
0.248000000000000081,9.375816093128594986
0.249000000000000082,8.842897401338348118
0.250000000000000111,8.320927074988169636
0.251000000000000112,7.809858208894203457
0.252000000000000113,7.309642038755806759
0.253000000000000114,6.820227624367378283
0.254000000000000115,6.341561557588384801
0.255000000000000115,5.873587697327097956
0.256000000000000116,5.416246933159730936
0.257000000000000117,4.969476978636864217
0.258000000000000118,4.533212194821650165
0.259000000000000119,4.107383444156271324
0.260000000000000120,3.691917974362590282
0.261000000000000121,3.286739331747766890
0.262000000000000122,2.891767303000231326
0.263000000000000123,2.506917884325061241
0.264000000000000123,2.132103276574031092
0.265000000000000124,1.767231904873289405
0.266000000000000125,1.412208461134917048
0.267000000000000126,1.066933967755645973
0.268000000000000127,0.731305860751510162
0.269000000000000128,0.405218090549979426
0.270000000000000129,0.088561238655767122
0.271000000000000130,-0.218777351578837459
0.272000000000000131,-0.516913431815978819
0.273000000000000131,-0.805965694917616715
0.274000000000000132,-1.086055612086854527
0.275000000000000133,-1.357307262529903635
0.276000000000000134,-1.619847157127856319
0.277000000000000135,-1.873804057525186861
0.278000000000000136,-2.119308791956629356
0.279000000000000137,-2.356494069044859252
0.280000000000000138,-2.585494290710840026
0.281000000000000139,-2.806445365248241952
0.282000000000000139,-3.019484521522443732
0.283000000000000140,-3.224750125165899650
0.284000000000000141,-3.422381497554350283
0.285000000000000142,-3.612518738264038909
0.286000000000000143,-3.795302551628689347
0.287000000000000144,-3.970874077936895841
0.288000000000000145,-4.139374729736980285
0.289000000000000146,-4.300946033645379529
0.290000000000000147,-4.455729477989477161
0.291000000000000147,-4.603866366553238443
0.292000000000000148,-4.745497678637159211
0.293000000000000149,-4.880763935590104019
0.294000000000000150,-5.009805073922010799
0.295000000000000151,-5.132760325061329176
0.296000000000000152,-5.249768101780082574
0.297000000000000153,-5.360965891272495121
0.298000000000000154,-5.466490154839836357
0.299000000000000155,-5.566476234104415610
0.300000000000000155,-5.661058263649350053
0.301000000000000156,-5.750369089957613866
0.302000000000000157,-5.834540196504061527
0.303000000000000158,-5.913701634836568743
0.304000000000000159,-5.987981961468368475
0.305000000000000160,-6.057508180391129926
0.306000000000000161,-6.122405691009005224
0.307000000000000162,-6.182798241286005414
0.308000000000000163,-6.238807885893291605
0.309000000000000163,-6.290554949139202101
0.310000000000000164,-6.338157992462374324
0.311000000000000165,-6.381733786267315800
0.312000000000000166,-6.421397285882399331
0.313000000000000167,-6.457261611421555081
0.314000000000000168,-6.489438031333571999
0.315000000000000169,-6.518035949426360887
0.316000000000000170,-6.543162895157872860
0.317000000000000171,-6.564924516989995240
0.318000000000000171,-6.583424578607446342
0.319000000000000172,-6.598764957809559739
0.320000000000000173,-6.611045647889213228
0.321000000000000174,-6.620364761319588176
0.322000000000000175,-6.626818535576729730
0.323000000000000176,-6.630501340932537069
0.324000000000000177,-6.631505690060238933
0.325000000000000178,-6.629922249301460013
0.326000000000000179,-6.625839851451502227
0.327000000000000179,-6.619345509926350068
0.328000000000000180,-6.610524434182257991
0.329000000000000181,-6.599460046266007573
0.330000000000000182,-6.586233998380299326
0.331000000000000183,-6.570926191356309509
0.332000000000000184,-6.553614793931297200
0.333000000000000185,-6.534376262736076413
0.334000000000000186,-6.513285362903229903
0.335000000000000187,-6.490415189212797031
0.336000000000000187,-6.465837187698303623
0.337000000000000188,-6.439621177641051020
0.338000000000000189,-6.411835373886431100
0.339000000000000190,-6.382546409420718270
0.340000000000000191,-6.351819358151692185
0.341000000000000192,-6.319717757841265993
0.342000000000000193,-6.286303633142269476
0.343000000000000194,-6.251637518696119500
0.344000000000000195,-6.215778482251397286
0.345000000000000195,-6.178784147767741430
0.346000000000000196,-6.140710718472212726
0.347000000000000197,-6.101612999838975426
0.348000000000000198,-6.061544422465979132
0.349000000000000199,-6.020557064825101889
0.350000000000000200,-5.978701675865006671
0.351000000000000201,-5.936027697448147400
0.352000000000000202,-5.892583286605836967
0.353000000000000203,-5.848415337597311137
0.354000000000000203,-5.803569503760557247
0.355000000000000204,-5.758090219144512467
0.356000000000000205,-5.712020719913883049
0.357000000000000206,-5.665403065519330816
0.358000000000000207,-5.618278159626894919
0.359000000000000208,-5.570685770802124459
0.360000000000000209,-5.522664552945178329
0.361000000000000210,-5.474252065474301432
0.362000000000000210,-5.425484793255937355
0.363000000000000211,-5.376398166280544899
0.364000000000000212,-5.327026579083943503
0.365000000000000213,-5.277403409914516175
0.366000000000000214,-5.227561039647329544
0.367000000000000215,-5.177530870446481970
0.368000000000000216,-5.127343344177690554
0.369000000000000217,-5.077027960573189169
0.370000000000000218,-5.026613295151549643
0.371000000000000218,-4.976127016895084409
0.372000000000000219,-4.925595905687882414
0.373000000000000220,-4.875045869517536268
0.374000000000000221,-4.824501961443868225
0.375000000000000222,-4.773988396337861317
0.376000000000000223,-4.723528567394353672
0.377000000000000224,-4.673145062421795615
0.378000000000000225,-4.622859679912524555
0.379000000000000226,-4.572693444896970050
0.380000000000000226,-4.522666624585236050
0.381000000000000227,-4.472798743799232923
0.382000000000000228,-4.423108600198792928
0.383000000000000229,-4.373614279304880448
0.384000000000000230,-4.324333169322928327
0.385000000000000231,-4.275281975769489762
0.386000000000000232,-4.226476735904936000
0.387000000000000233,-4.177932832975133515
0.388000000000000234,-4.129665010264663927
0.389000000000000234,-4.081687384964336474
0.390000000000000235,-4.034013461855296079
0.391000000000000236,-3.986656146812217916
0.392000000000000237,-3.939627760127716094
0.393000000000000238,-3.892940049660217117
0.394000000000000239,-3.846604203807193922
0.395000000000000240,-3.800630864305782008
0.396000000000000241,-3.755030138862535782
0.397000000000000242,-3.709811613614011350
0.398000000000000242,-3.664984365419861057
0.399000000000000243,-3.620556973989897731
0.400000000000000244,-3.576537533846526173
0.401000000000000245,-3.532933666124042027
0.402000000000000246,-3.489752530205873171
0.403000000000000247,-3.447000835201075031
0.404000000000000248,-3.404684851261175815
0.405000000000000249,-3.362810420738448158
0.406000000000000250,-3.321382969186550405
0.407000000000000250,-3.280407516204577156
0.408000000000000251,-3.239888686125306894
0.409000000000000252,-3.199830718548619668
0.410000000000000253,-3.160237478720790527
0.411000000000000254,-3.121112467760506881
0.412000000000000255,-3.082458832732325682
0.413000000000000256,-3.044279376568333362
0.414000000000000257,-3.006576567838620484
0.415000000000000258,-2.969352550371387345
0.416000000000000258,-2.932609152723198775
0.417000000000000259,-2.896347897500187507
0.418000000000000260,-2.860570010530755880
0.419000000000000261,-2.825276429890469121
0.420000000000000262,-2.790467814779775235
0.421000000000000263,-2.756144554255240742
0.422000000000000264,-2.722306775814886670
0.423000000000000265,-2.688954353838312716
0.424000000000000266,-2.656086917882380494
0.425000000000000266,-2.623703860832966139
0.426000000000000267,-2.591804346913638923
0.427000000000000268,-2.560387319551905350
0.428000000000000269,-2.529451509103756823
0.429000000000000270,-2.498995440437340676
0.430000000000000271,-2.469017440376419348
0.431000000000000272,-2.439515645004534328
0.432000000000000273,-2.410488006830603158
0.433000000000000274,-2.381932301816868325
0.434000000000000274,-2.353846136269996059
0.435000000000000275,-2.326226953596286950
0.436000000000000276,-2.299072040921886106
0.437000000000000277,-2.272378535578922776
0.438000000000000278,-2.246143431458595963
0.439000000000000279,-2.220363585232179471
0.440000000000000280,-2.195035722440976222
0.441000000000000281,-2.170156443456250805
0.442000000000000282,-2.145722229310303764
0.443000000000000282,-2.121729447399647750
0.444000000000000283,-2.098174357061575623
0.445000000000000284,-2.075053115025167205
0.446000000000000285,-2.052361780737905317
0.447000000000000286,-2.030096321569234696
0.448000000000000287,-2.008252617892104741
0.449000000000000288,-1.986826468043918936
0.450000000000000289,-1.965813593168035611
0.451000000000000290,-1.945209641937173828
0.452000000000000290,-1.925010195160049120
0.453000000000000291,-1.905210770272505183
0.454000000000000292,-1.885806825714582136
0.455000000000000293,-1.866793765194799004
0.456000000000000294,-1.848166941843115696
0.457000000000000295,-1.829921662253927384
0.458000000000000296,-1.812053190420510607
0.459000000000000297,-1.794556751562383479
0.460000000000000298,-1.777427535846983320
0.461000000000000298,-1.760660702007142531
0.462000000000000299,-1.744251380855831979
0.463000000000000300,-1.728194678699606968
0.464000000000000301,-1.712485680652299891
0.465000000000000302,-1.697119453850419291
0.466000000000000303,-1.682091050571739688
0.467000000000000304,-1.667395511258619845
0.468000000000000305,-1.653027867447554700
0.469000000000000306,-1.638983144606432685
0.470000000000000306,-1.625256364881107585
0.471000000000000307,-1.611842549752680487
0.472000000000000308,-1.598736722607128957
0.473000000000000309,-1.585933911218730064
0.474000000000000310,-1.573429150148823563
0.475000000000000311,-1.561217483061422273
0.476000000000000312,-1.549293964957229708
0.477000000000000313,-1.537653664327502501
0.478000000000000314,-1.526291665229305927
0.479000000000000314,-1.515203069283718840
0.480000000000000315,-1.504382997598361804
0.481000000000000316,-1.493826592615882687
0.482000000000000317,-1.483529019889763934
0.483000000000000318,-1.473485469789014290
0.484000000000000319,-1.463691159133156061
0.485000000000000320,-1.454141332759018024
0.486000000000000321,-1.444831265020743105
0.487000000000000322,-1.435756261224483410
0.488000000000000322,-1.426911658999158616
0.489000000000000323,-1.418292829604781646
0.490000000000000324,-1.409895179179685432
0.491000000000000325,-1.401714149928073860
0.492000000000000326,-1.393745221249257371
0.493000000000000327,-1.385983910809988284
0.494000000000000328,-1.378425775561191724
0.495000000000000329,-1.371066412700474579
0.496000000000000330,-1.363901460581707692
0.497000000000000330,-1.356926599573040404
0.498000000000000331,-1.350137552864552504
0.499000000000000332,-1.343530087226937786
0.500000000000000333,-1.337100013722409830
0.501000000000000334,-1.330843188369070562
0.502000000000000335,-1.324755512760031895
0.503000000000000336,-1.318832934638453747
0.504000000000000337,-1.313071448429732557
0.505000000000000338,-1.307467095731981166
0.506000000000000338,-1.302015965766028627
0.507000000000000339,-1.296714195786014212
0.508000000000000340,-1.291557971451747999
0.509000000000000341,-1.286543527163978462
0.510000000000000342,-1.281667146363587362
0.511000000000000343,-1.276925161795859243
0.512000000000000344,-1.272313955740842939
0.513000000000000345,-1.267829960210867579
0.514000000000000346,-1.263469657116256029
0.515000000000000346,-1.259229578400186345
0.516000000000000347,-1.255106306143736639
0.517000000000000348,-1.251096472642104995
0.518000000000000349,-1.247196760452876418
0.519000000000000350,-1.243403902417361540
0.520000000000000351,-1.239714681655868178
0.521000000000000352,-1.236125931537843448
0.522000000000000353,-1.232634535627737282
0.523000000000000353,-1.229237427607466238
0.524000000000000354,-1.225931591176350643
0.525000000000000355,-1.222714059929315367
0.526000000000000356,-1.219581917214178635
0.527000000000000357,-1.216532295968868471
0.528000000000000358,-1.213562378539267961
0.529000000000000359,-1.210669396478545767
0.530000000000000360,-1.207850630328616504
0.531000000000000361,-1.205103409384564284
0.532000000000000361,-1.202425111442650962
0.533000000000000362,-1.199813162532683775
0.534000000000000363,-1.197265036635359881
0.535000000000000364,-1.194778255385298360
0.536000000000000365,-1.192350387760387154
0.537000000000000366,-1.189979049758086216
0.538000000000000367,-1.187661904059285733
0.539000000000000368,-1.185396659680385101
0.540000000000000369,-1.183181071614075153
0.541000000000000369,-1.181012940459521099
0.542000000000000370,-1.178890112042398686
0.543000000000000371,-1.176810477025384660
0.544000000000000372,-1.174771970509633556
0.545000000000000373,-1.172772571627732185
0.546000000000000374,-1.170810303128640539
0.547000000000000375,-1.168883230955118924
0.548000000000000376,-1.166989463814122052
0.549000000000000377,-1.165127152740597527
0.550000000000000377,-1.163294490655155888
0.551000000000000378,-1.161489711916049883
0.552000000000000379,-1.159711091865876842
0.553000000000000380,-1.157956946373431606
0.554000000000000381,-1.156225631371083251
0.555000000000000382,-1.154515542388105720
0.556000000000000383,-1.152825114080278324
0.557000000000000384,-1.151152819756192658
0.558000000000000385,-1.149497170900544818
0.559000000000000385,-1.147856716694828361
0.560000000000000386,-1.146230043535685805
0.561000000000000387,-1.144615774551314358
0.562000000000000388,-1.143012569116149457
0.563000000000000389,-1.141419122364236260
0.564000000000000390,-1.139834164701458707
0.565000000000000391,-1.138256461317000978
0.566000000000000392,-1.136684811694260056
0.567000000000000393,-1.135118049121497830
0.568000000000000393,-1.133555040202452791
0.569000000000000394,-1.131994684367198412
0.570000000000000395,-1.130435913383439406
0.571000000000000396,-1.128877690868488548
0.572000000000000397,-1.127319011802166759
0.573000000000000398,-1.125758902040772336
0.574000000000000399,-1.124196417832395545
0.575000000000000400,-1.122630645333700716
0.576000000000000401,-1.121060700128405418
0.577000000000000401,-1.119485726747642573
0.578000000000000402,-1.117904898192321195
0.579000000000000403,-1.116317415457694695
0.580000000000000404,-1.114722507060299739
0.581000000000000405,-1.113119428567363789
0.582000000000000406,-1.111507462128883406
0.583000000000000407,-1.109885916012461227
0.584000000000000408,-1.108254124141068608
0.585000000000000409,-1.106611445633821189
0.586000000000000409,-1.104957264349925250
0.587000000000000410,-1.103290988435874365
0.588000000000000411,-1.101612049876004473
0.589000000000000412,-1.099919904046549934
0.590000000000000413,-1.098214029273222758
0.591000000000000414,-1.096493926392464457
0.592000000000000415,-1.094759118316454671
0.593000000000000416,-1.093009149601897878
0.594000000000000417,-1.091243586022729861
0.595000000000000417,-1.089462014146799440
0.596000000000000418,-1.087664040916537678
0.597000000000000419,-1.085849293233773327
0.598000000000000420,-1.084017417548647888
0.599000000000000421,-1.082168079452764387
0.600000000000000422,-1.080300963276580095
0.601000000000000423,-1.078415771691083158
0.602000000000000424,-1.076512225313822846
0.603000000000000425,-1.074590062319318973
0.604000000000000425,-1.072649038053862469
0.605000000000000426,-1.070688924654765950
0.606000000000000427,-1.068709510674115570
0.607000000000000428,-1.066710600706931800
0.608000000000000429,-1.064692015023973148
0.609000000000000430,-1.062653589208927274
0.610000000000000431,-1.060595173800279678
0.611000000000000432,-1.058516633937669482
0.612000000000000433,-1.056417849012820875
0.613000000000000433,-1.054298712325095089
0.614000000000000434,-1.052159130741592952
0.615000000000000435,-1.049999024361837785
0.616000000000000436,-1.047818326187062388
0.617000000000000437,-1.045616981794092570
0.618000000000000438,-1.043394949013780826
0.619000000000000439,-1.041152197614022334
0.620000000000000440,-1.038888708987353970
0.621000000000000441,-1.036604475843090123
0.622000000000000441,-1.034299501904018426
0.623000000000000442,-1.031973801607597219
0.624000000000000443,-1.029627399811694932
0.625000000000000444,-1.027260331504828761
0.626000000000000445,-1.024872641520843342
0.627000000000000446,-1.022464384258094716
0.628000000000000447,-1.020035623403044989
0.629000000000000448,-1.017586431658271895
0.630000000000000449,-1.015116890474875078
0.631000000000000449,-1.012627089789238211
0.632000000000000450,-1.010117127764132983
0.633000000000000451,-1.007587110534144070
0.634000000000000452,-1.005037151955346930
0.635000000000000453,-1.002467373359264835
0.636000000000000454,-0.999877903311025884
0.637000000000000455,-0.997268877371727980
0.638000000000000456,-0.994640437864936167
0.639000000000000457,-0.991992733647314884
0.640000000000000457,-0.989325919883369709
0.641000000000000458,-0.986640157824187902
0.642000000000000459,-0.983935614590263796
0.643000000000000460,-0.981212462958246823
0.644000000000000461,-0.978470881151679905
0.645000000000000462,-0.975711052635623188
0.646000000000000463,-0.972933165915141451
0.647000000000000464,-0.970137414337643778
0.648000000000000465,-0.967323995899007749
0.649000000000000465,-0.964493113053448758
0.650000000000000466,-0.961644972527124664
0.651000000000000467,-0.958779785135388307
0.652000000000000468,-0.955897765603706318
0.653000000000000469,-0.952999132392131187
0.654000000000000470,-0.950084107523380239
0.655000000000000471,-0.947152916414379376
0.656000000000000472,-0.944205787711307587
0.657000000000000473,-0.941242953128053506
0.658000000000000473,-0.938264647288081677
0.659000000000000474,-0.935271107569633164
0.660000000000000475,-0.932262573954237839
0.661000000000000476,-0.929239288878480840
0.662000000000000477,-0.926201497089018333
0.663000000000000478,-0.923149445500735188
0.664000000000000479,-0.920083383058101445
0.665000000000000480,-0.917003560599549239
0.666000000000000481,-0.913910230724995110
0.667000000000000481,-0.910803647666287630
0.668000000000000482,-0.907684067160716146
0.669000000000000483,-0.904551746327384998
0.670000000000000484,-0.901406943546515516
0.671000000000000485,-0.898249918341588738
0.672000000000000486,-0.895080931264286450
0.673000000000000487,-0.891900243782238755
0.674000000000000488,-0.888708118169448391
0.675000000000000488,-0.885504817399434763
0.676000000000000489,-0.882290605041036846
0.677000000000000490,-0.879065745156781042
0.678000000000000491,-0.875830502203862826
0.679000000000000492,-0.872585140937633286
0.680000000000000493,-0.869329926317561452
0.681000000000000494,-0.866065123415692639
0.682000000000000495,-0.862790997327458342
0.683000000000000496,-0.859507813084913197
0.684000000000000496,-0.856215835572267658
0.685000000000000497,-0.852915329443735382
0.686000000000000498,-0.849606559043643350
0.687000000000000499,-0.846289788328743797
0.688000000000000500,-0.842965280792724592
0.689000000000000501,-0.839633299392865018
0.690000000000000502,-0.836294106478808308
0.691000000000000503,-0.832947963723392526
0.692000000000000504,-0.829595132055526596
0.693000000000000504,-0.826235871595095483
0.694000000000000505,-0.822870441589775181
0.695000000000000506,-0.819499100353851206
0.696000000000000507,-0.816122105208883175
0.697000000000000508,-0.812739712426252203
0.698000000000000509,-0.809352177171550502
0.699000000000000510,-0.805959753450745886
0.700000000000000511,-0.802562694058132964
0.701000000000000512,-0.799161250525996514
0.702000000000000512,-0.795755673075989711
0.703000000000000513,-0.792346210572170806
0.704000000000000514,-0.788933110475680044
0.705000000000000515,-0.785516618801016753
0.706000000000000516,-0.782096980073893611
0.707000000000000517,-0.778674437290640453
0.708000000000000518,-0.775249231879091116
0.709000000000000519,-0.771821603661010935
0.710000000000000520,-0.768391790815905029
0.711000000000000520,-0.764960029846318723
0.712000000000000521,-0.761526555544489225
0.713000000000000522,-0.758091600960376644
0.714000000000000523,-0.754655397371053915
0.715000000000000524,-0.751218174251367388
0.716000000000000525,-0.747780159245934106
0.717000000000000526,-0.744341578142353355
0.718000000000000527,-0.740902654845669639
0.719000000000000528,-0.737463611354031490
0.720000000000000528,-0.734024667735559300
0.721000000000000529,-0.730586042106304179
0.722000000000000530,-0.727147950609416283
0.723000000000000531,-0.723710607395343430
0.724000000000000532,-0.720274224603159596
0.725000000000000533,-0.716839012342934678
0.726000000000000534,-0.713405178679121565
0.727000000000000535,-0.709972929614974047
0.728000000000000536,-0.706542469077932056
0.729000000000000536,-0.703113998905986137
0.730000000000000537,-0.699687718834982375
0.731000000000000538,-0.696263826486818727
0.732000000000000539,-0.692842517358585708
0.733000000000000540,-0.689423984812541080
0.734000000000000541,-0.686008420066968272
0.735000000000000542,-0.682596012187842272
0.736000000000000543,-0.679186948081347608
0.737000000000000544,-0.675781412487145849
0.738000000000000544,-0.672379587972468773
0.739000000000000545,-0.668981654926912972
0.740000000000000546,-0.665587791558017838
0.741000000000000547,-0.662198173887518227
0.742000000000000548,-0.658812975748363727
0.743000000000000549,-0.655432368782330466
0.744000000000000550,-0.652056522438361652
0.745000000000000551,-0.648685603971539515
0.746000000000000552,-0.645319778442673297
0.747000000000000552,-0.641959208718520302
0.748000000000000553,-0.638604055472580034
0.749000000000000554,-0.635254477186476985
0.750000000000000555,-0.631910630151926833
0.751000000000000556,-0.628572668473205809
0.752000000000000557,-0.625240744070213461
0.753000000000000558,-0.621915006681978966
0.754000000000000559,-0.618595603870743860
0.755000000000000560,-0.615282681026474432
0.756000000000000560,-0.611976381371894140
0.757000000000000561,-0.608676845967931146
0.758000000000000562,-0.605384213719638575
0.759000000000000563,-0.602098621382548549
0.760000000000000564,-0.598820203569431997
0.761000000000000565,-0.595549092757471588
0.762000000000000566,-0.592285419295824456
0.763000000000000567,-0.589029311413566736
0.764000000000000568,-0.585780895227999032
0.765000000000000568,-0.582540294753331134
0.766000000000000569,-0.579307631909675824
0.767000000000000570,-0.576083026532411502
0.768000000000000571,-0.572866596381824800
0.769000000000000572,-0.569658457153108810
0.770000000000000573,-0.566458722486622324
0.771000000000000574,-0.563267503978465256
0.772000000000000575,-0.560084911191307433
0.773000000000000576,-0.556911051665505363
0.774000000000000576,-0.553746030930457045
0.775000000000000577,-0.550589952516234216
0.776000000000000578,-0.547442917965408560
0.777000000000000579,-0.544305026845156692
0.778000000000000580,-0.541176376759538003
0.779000000000000581,-0.538057063362015864
0.780000000000000582,-0.534947180368159358
0.781000000000000583,-0.531846819568555951
0.782000000000000584,-0.528756070841891357
0.783000000000000584,-0.525675022168207162
0.784000000000000585,-0.522603759642347621
0.785000000000000586,-0.519542367487530354
0.786000000000000587,-0.516490928069100796
0.787000000000000588,-0.513449521908418305
0.788000000000000589,-0.510418227696862958
0.789000000000000590,-0.507397122310015769
0.790000000000000591,-0.504386280821909616
0.791000000000000592,-0.501385776519432724
0.792000000000000592,-0.498395680916825512
0.793000000000000593,-0.495416063770282022
0.794000000000000594,-0.492446993092642948
0.795000000000000595,-0.489488535168203120
0.796000000000000596,-0.486540754567547751
0.797000000000000597,-0.483603714162532228
0.798000000000000598,-0.480677475141285115
0.799000000000000599,-0.477762097023293364
0.800000000000000600,-0.474857637674558686
0.801000000000000600,-0.471964153322782021
0.802000000000000601,-0.469081698572625272
0.803000000000000602,-0.466210326420992083
0.804000000000000603,-0.463350088272374616
0.805000000000000604,-0.460501033954217376
0.806000000000000605,-0.457663211732294350
0.807000000000000606,-0.454836668326159821
0.808000000000000607,-0.452021448924566638
0.809000000000000608,-0.449217597200926577
0.810000000000000608,-0.446425155328799061
0.811000000000000609,-0.443644163997329088
0.812000000000000610,-0.440874662426766317
0.813000000000000611,-0.438116688383909825
0.814000000000000612,-0.435370278197597660
0.815000000000000613,-0.432635466774177968
0.816000000000000614,-0.429912287612942923
0.817000000000000615,-0.427200772821577424
0.818000000000000616,-0.424500953131580705
0.819000000000000616,-0.421812857913653694
0.820000000000000617,-0.419136515193064940
0.821000000000000618,-0.416471951665001672
0.822000000000000619,-0.413819192709879768
0.823000000000000620,-0.411178262408611661
0.824000000000000621,-0.408549183557837536
0.825000000000000622,-0.405931977685132117
0.826000000000000623,-0.403326665064154155
0.827000000000000624,-0.400733264729748906
0.828000000000000624,-0.398151794493012690
0.829000000000000625,-0.395582270956289617
0.830000000000000626,-0.393024709528136673
0.831000000000000627,-0.390479124438211922
0.832000000000000628,-0.387945528752130675
0.833000000000000629,-0.385423934386226519
0.834000000000000630,-0.382914352122279422
0.835000000000000631,-0.380416791622175787
0.836000000000000631,-0.377931261442482125
0.837000000000000632,-0.375457769048983925
0.838000000000000633,-0.372996320831117445
0.839000000000000634,-0.370546922116361144
0.840000000000000635,-0.368109577184544901
0.841000000000000636,-0.365684289282065644
0.842000000000000637,-0.363271060636063681
0.843000000000000638,-0.360869892468486386
0.844000000000000639,-0.358480785010090730
0.845000000000000639,-0.356103737514364305
0.846000000000000640,-0.353738748271350933
0.847000000000000641,-0.351385814621426540
0.848000000000000642,-0.349044932968946675
0.849000000000000643,-0.346716098795830818
0.850000000000000644,-0.344399306675087225
0.851000000000000645,-0.342094550284182897
0.852000000000000646,-0.339801822418398847
0.853000000000000647,-0.337521115004044137
0.854000000000000647,-0.335252419111599198
0.855000000000000648,-0.332995724968769502
0.856000000000000649,-0.330751021973446468
0.857000000000000650,-0.328518298706573675
0.858000000000000651,-0.326297542944907648
0.859000000000000652,-0.324088741673707048
0.860000000000000653,-0.321891881099318655
0.861000000000000654,-0.319706946661650282
0.862000000000000655,-0.317533923046584010
0.863000000000000655,-0.315372794198250261
0.864000000000000656,-0.313223543331246301
0.865000000000000657,-0.311086152942718352
0.866000000000000658,-0.308960604824377927
0.867000000000000659,-0.306846880074412076
0.868000000000000660,-0.304744959109275959
0.869000000000000661,-0.302654821675404917
0.870000000000000662,-0.300576446860828961
0.871000000000000663,-0.298509813106686284
0.872000000000000663,-0.296454898218618201
0.873000000000000664,-0.294411679378095703
0.874000000000000665,-0.292380133153617328
0.875000000000000666,-0.290360235511834763
0.876000000000000667,-0.288351961828546000
0.877000000000000668,-0.286355286899618533
0.878000000000000669,-0.284370184951801164
0.879000000000000670,-0.282396629653418996
0.880000000000000671,-0.280434594125005154
0.881000000000000671,-0.278484050949786455
0.882000000000000672,-0.276544972184114946
0.883000000000000673,-0.274617329367763563
0.884000000000000674,-0.272701093534142847
0.885000000000000675,-0.270796235220405468
0.886000000000000676,-0.268902724477461219
0.887000000000000677,-0.267020530879886198
0.888000000000000678,-0.265149623535725354
0.889000000000000679,-0.263289971096220876
0.890000000000000679,-0.261441541765408847
0.891000000000000680,-0.259604303309646678
0.892000000000000681,-0.257778223067020640
0.893000000000000682,-0.255963267956666130
0.894000000000000683,-0.254159404487980911
0.895000000000000684,-0.252366598769761696
0.896000000000000685,-0.250584816519212272
0.897000000000000686,-0.248814023070879464
0.898000000000000687,-0.247054183385489179
0.899000000000000687,-0.245305262058664930
0.900000000000000688,-0.243567223329583277
0.901000000000000689,-0.241840031089502805
0.902000000000000690,-0.240123648890224695
0.903000000000000691,-0.238418039952435740
0.904000000000000692,-0.236723167173972238
0.905000000000000693,-0.235038993137980073
0.906000000000000694,-0.233365480120996199
0.907000000000000695,-0.231702590100908795
0.908000000000000695,-0.230050284764864721
0.909000000000000696,-0.228408525517040772
0.910000000000000697,-0.226777273486365172
0.911000000000000698,-0.225156489534113102
0.912000000000000699,-0.223546134261433549
0.913000000000000700,-0.221946168016785961
0.914000000000000701,-0.220356550903256648
0.915000000000000702,-0.218777242785840015
0.916000000000000703,-0.217208203298577540
0.917000000000000703,-0.215649391851645056
0.918000000000000704,-0.214100767638332107
0.919000000000000705,-0.212562289641941682
0.920000000000000706,-0.211033916642614117
0.921000000000000707,-0.209515607224035449
0.922000000000000708,-0.208007319780091071
0.923000000000000709,-0.206509012521429280
0.924000000000000710,-0.205020643481915787
0.925000000000000711,-0.203542170525036148
0.926000000000000711,-0.202073551350198694
0.927000000000000712,-0.200614743498955417
0.928000000000000713,-0.199165704361145501
0.929000000000000714,-0.197726391180958000
0.930000000000000715,-0.196296761062906527
0.931000000000000716,-0.194876770977726876
0.932000000000000717,-0.193466377768207604
0.933000000000000718,-0.192065538154914478
0.934000000000000719,-0.190674208741869633
0.935000000000000719,-0.189292346022125246
0.936000000000000720,-0.187919906383273327
0.937000000000000721,-0.186556846112876290
0.938000000000000722,-0.185203121403828941
0.939000000000000723,-0.183858688359625155
0.940000000000000724,-0.182523502999574844
0.941000000000000725,-0.181197521263925770
0.942000000000000726,-0.179880699018930917
0.943000000000000727,-0.178572992061819480
0.944000000000000727,-0.177274356125721400
0.945000000000000728,-0.175984746884508825
0.946000000000000729,-0.174704119957548559
0.947000000000000730,-0.173432430914424257
0.948000000000000731,-0.172169635279544736
0.949000000000000732,-0.170915688536722177
0.950000000000000733,-0.169670546133645378
0.951000000000000734,-0.168434163486327809
0.952000000000000735,-0.167206495983441117
0.953000000000000735,-0.165987498990611909
0.954000000000000736,-0.164777127854649985
0.955000000000000737,-0.163575337907702456
0.956000000000000738,-0.162382084471348831
0.957000000000000739,-0.161197322860625020
0.958000000000000740,-0.160021008387995933
0.959000000000000741,-0.158853096367249952
0.960000000000000742,-0.157693542117345459
0.961000000000000743,-0.156542300966184350
0.962000000000000743,-0.155399328254328006
0.963000000000000744,-0.154264579338652508
0.964000000000000745,-0.153138009595952501
0.965000000000000746,-0.152019574426466103
0.966000000000000747,-0.150909229257360750
0.967000000000000748,-0.149806929546141915
0.968000000000000749,-0.148712630784032213
0.969000000000000750,-0.147626288499254632
0.970000000000000751,-0.146547858260301450
0.971000000000000751,-0.145477295679106999
0.972000000000000752,-0.144414556414188766
0.973000000000000753,-0.143359596173745274
0.974000000000000754,-0.142312370718659209
0.975000000000000755,-0.141272835865488028
0.976000000000000756,-0.140240947489379930
0.977000000000000757,-0.139216661526938512
0.978000000000000758,-0.138199933979039319
0.979000000000000759,-0.137190720913608732
0.980000000000000759,-0.136188978468313321
0.981000000000000760,-0.135194662853239722
0.982000000000000761,-0.134207730353513272
0.983000000000000762,-0.133228137331848573
0.984000000000000763,-0.132255840231070676
0.985000000000000764,-0.131290795576591401
0.986000000000000765,-0.130332959978819829
0.987000000000000766,-0.129382290135537925
0.988000000000000766,-0.128438742834228459
0.989000000000000767,-0.127502274954359673
0.990000000000000768,-0.126572843469621749
0.991000000000000769,-0.125650405450105418
0.992000000000000770,-0.124734918064457384
0.993000000000000771,-0.123826338581991879
0.994000000000000772,-0.122924624374727731
0.995000000000000773,-0.122029732919427494
0.996000000000000774,-0.121141621799554969
0.997000000000000774,-0.120260248707215328
0.998000000000000775,-0.119385571445045649
0.999000000000000776,-0.118517547928060685
1.000000000000000666,-0.117656136185465332
1.001000000000000778,-0.116801294362427074
1.002000000000000668,-0.115952980721800339
1.003000000000000780,-0.115111153645822389
1.004000000000000670,-0.114275771637761814
1.005000000000000782,-0.113446793323541059
1.006000000000000671,-0.112624177453310576
1.007000000000000783,-0.111807882902981909
1.008000000000000673,-0.110997868675744835
1.009000000000000785,-0.110194093903525678
1.010000000000000675,-0.109396517848424968
1.011000000000000787,-0.108605099904105967
1.012000000000000677,-0.107819799597170626
1.013000000000000789,-0.107040576588481207
1.014000000000000679,-0.106267390674442172
1.015000000000000790,-0.105500201788283940
1.016000000000000680,-0.104738970001275938
1.017000000000000792,-0.103983655523923829
1.018000000000000682,-0.103234218707134923
1.019000000000000794,-0.102490620043345998
1.020000000000000684,-0.101752820167629682
1.021000000000000796,-0.101020779858759721
1.022000000000000686,-0.100294460040247446
1.023000000000000798,-0.099573821781356750
1.024000000000000687,-0.098858826298075561
1.025000000000000799,-0.098149434954072121
1.026000000000000689,-0.097445609261616065
1.027000000000000801,-0.096747310882463244
1.028000000000000691,-0.096054501628731845
1.029000000000000803,-0.095367143463729737
1.030000000000000693,-0.094685198502764245
1.031000000000000805,-0.094008629013937237
1.032000000000000695,-0.093337397418879559
1.033000000000000806,-0.092671466293505200
1.034000000000000696,-0.092010798368697647
1.035000000000000808,-0.091355356530993262
1.036000000000000698,-0.090705103823234878
1.037000000000000810,-0.090060003445213879
1.038000000000000700,-0.089420018754248903
1.039000000000000812,-0.088785113265785226
1.040000000000000702,-0.088155250653947997
1.041000000000000814,-0.087530394752079160
1.042000000000000703,-0.086910509553232734
1.043000000000000815,-0.086295559210682340
1.044000000000000705,-0.085685508038378891
1.045000000000000817,-0.085080320511386781
1.046000000000000707,-0.084479961266318709
1.047000000000000819,-0.083884395101731193
1.048000000000000709,-0.083293586978500367
1.049000000000000821,-0.082707502020190671
1.050000000000000711,-0.082126105513378150
1.051000000000000822,-0.081549362907988934
1.052000000000000712,-0.080977239817583910
1.053000000000000824,-0.080409702019639734
1.054000000000000714,-0.079846715455816883
1.055000000000000826,-0.079288246232193174
1.056000000000000716,-0.078734260619491847
1.057000000000000828,-0.078184725053283777
1.058000000000000718,-0.077639606134176059
1.059000000000000830,-0.077098870627977115
1.060000000000000719,-0.076562485465857200
1.061000000000000831,-0.076030417744472334
1.062000000000000721,-0.075502634726087717
1.063000000000000833,-0.074979103838685376
1.064000000000000723,-0.074459792676033004
1.065000000000000835,-0.073944668997768165
1.066000000000000725,-0.073433700729449519
1.067000000000000837,-0.072926855962578557
1.068000000000000727,-0.072424102954649322
1.069000000000000838,-0.071925410129128495
1.070000000000000728,-0.071430746075469051
1.071000000000000840,-0.070940079549075580
1.072000000000000730,-0.070453379471278610
1.073000000000000842,-0.069970614929275837
1.074000000000000732,-0.069491755176070841
1.075000000000000844,-0.069016769630399016
1.076000000000000734,-0.068545627876637802
1.077000000000000846,-0.068078299664695668
1.078000000000000735,-0.067614754909906566
1.079000000000000847,-0.067154963692890618
1.080000000000000737,-0.066698896259425725
1.081000000000000849,-0.066246523020278864
1.082000000000000739,-0.065797814551054185
1.083000000000000851,-0.065352741592007504
1.084000000000000741,-0.064911275047866215
1.085000000000000853,-0.064473385987620410
1.086000000000000743,-0.064039045644319378
1.087000000000000854,-0.063608225414844705
1.088000000000000744,-0.063180896859691416
1.089000000000000856,-0.062757031702701888
1.090000000000000746,-0.062336601830833116
1.091000000000000858,-0.061919579293889845
1.092000000000000748,-0.061505936304244925
1.093000000000000860,-0.061095645236567533
1.094000000000000750,-0.060688678627517853
1.095000000000000862,-0.060285009175459661
1.096000000000000751,-0.059884609740147102
1.097000000000000863,-0.059487453342394428
1.098000000000000753,-0.059093513163764363
1.099000000000000865,-0.058702762546225105
1.100000000000000755,-0.058315174991801479
1.101000000000000867,-0.057930724162227373
1.102000000000000757,-0.057549383878583812
1.103000000000000869,-0.057171128120933723
1.104000000000000759,-0.056795931027935079
1.105000000000000870,-0.056423766896472757
1.106000000000000760,-0.056054610181248819
1.107000000000000872,-0.055688435494400314
1.108000000000000762,-0.055325217605089926
1.109000000000000874,-0.054964931439086463
1.110000000000000764,-0.054607552078354202
1.111000000000000876,-0.054253054760618834
1.112000000000000766,-0.053901414878947486
1.113000000000000878,-0.053552607981298149
1.114000000000000767,-0.053206609770086212
1.115000000000000879,-0.052863396101722269
1.116000000000000769,-0.052522942986167567
1.117000000000000881,-0.052185226586464170
1.118000000000000771,-0.051850223218269896
1.119000000000000883,-0.051517909349388193
1.120000000000000773,-0.051188261599288985
1.121000000000000885,-0.050861256738619888
1.122000000000000774,-0.050536871688724672
1.123000000000000886,-0.050215083521146717
1.124000000000000776,-0.049895869457136366
1.125000000000000888,-0.049579206867136426
1.126000000000000778,-0.049265073270284912
1.127000000000000890,-0.048953446333910099
1.128000000000000780,-0.048644303872994135
1.129000000000000892,-0.048337623849671579
1.130000000000000782,-0.048033384372699862
1.131000000000000894,-0.047731563696927215
1.132000000000000783,-0.047432140222765908
1.133000000000000895,-0.047135092495660884
1.134000000000000785,-0.046840399205535163
1.135000000000000897,-0.046548039186270956
1.136000000000000787,-0.046257991415139414
1.137000000000000899,-0.045970235012274110
1.138000000000000789,-0.045684749240096488
1.139000000000000901,-0.045401513502787899
1.140000000000000790,-0.045120507345707495
1.141000000000000902,-0.044841710454836668
1.142000000000000792,-0.044565102656227949
1.143000000000000904,-0.044290663915423863
1.144000000000000794,-0.044018374336901478
1.145000000000000906,-0.043748214163482207
1.146000000000000796,-0.043480163775782246
1.147000000000000908,-0.043214203691618200
1.148000000000000798,-0.042950314565436715
1.149000000000000909,-0.042688477187735253
1.150000000000000799,-0.042428672484471727
1.151000000000000689,-0.042170881516492384
1.152000000000000801,-0.041915085478938290
1.153000000000000913,-0.041661265700659075
1.154000000000000803,-0.041409403643626774
1.155000000000000693,-0.041159480902334948
1.156000000000000805,-0.040911479203226464
1.157000000000000917,-0.040665380404073519
1.158000000000000806,-0.040421166493404839
1.159000000000000696,-0.040178819589898072
1.160000000000000808,-0.039938321941782852
1.161000000000000920,-0.039699655926245241
1.162000000000000810,-0.039462804048828272
1.163000000000000700,-0.039227748942826476
1.164000000000000812,-0.038994473368690726
1.165000000000000924,-0.038762960213417109
1.166000000000000814,-0.038533192489954883
1.167000000000000703,-0.038305153336591867
1.168000000000000815,-0.038078826016358466
1.169000000000000927,-0.037854193916413571
1.170000000000000817,-0.037631240547449728
1.171000000000000707,-0.037409949543073563
1.172000000000000819,-0.037190304659214954
1.173000000000000931,-0.036972289773508540
1.174000000000000821,-0.036755888884685457
1.175000000000000711,-0.036541086111976519
1.176000000000000822,-0.036327865694497245
1.177000000000000934,-0.036116211990640468
1.178000000000000824,-0.035906109477472616
1.179000000000000714,-0.035697542750118036
1.180000000000000826,-0.035490496521163609
1.181000000000000938,-0.035284955620039880
1.182000000000000828,-0.035080904992418852
1.183000000000000718,-0.034878329699608357
1.184000000000000830,-0.034677214917946113
1.185000000000000941,-0.034477545938180504
1.186000000000000831,-0.034279308164885267
1.187000000000000721,-0.034082487115836217
1.188000000000000833,-0.033887068421416269
1.189000000000000945,-0.033693037824005470
1.190000000000000835,-0.033500381177383305
1.191000000000000725,-0.033309084446108139
1.192000000000000837,-0.033119133704944466
1.193000000000000949,-0.032930515138224738
1.194000000000000838,-0.032743215039280307
1.195000000000000728,-0.032557219809814825
1.196000000000000840,-0.032372515959320176
1.197000000000000952,-0.032189090104475272
1.198000000000000842,-0.032006928968538670
1.199000000000000732,-0.031826019380766811
1.200000000000000844,-0.031646348275795412
1.201000000000000956,-0.031467902693067699
1.202000000000000846,-0.031290669776223266
1.203000000000000735,-0.031114636772515469
1.204000000000000847,-0.030939791032205111
1.205000000000000959,-0.030766120007990248
1.206000000000000849,-0.030593611254395782
1.207000000000000739,-0.030422252427193663
1.208000000000000851,-0.030252031282818032
1.209000000000000963,-0.030082935677773100
1.210000000000000853,-0.029914953568050649
1.211000000000000743,-0.029748073008546629
1.212000000000000854,-0.029582282152475825
1.213000000000000966,-0.029417569250793890
1.214000000000000856,-0.029253922651620034
1.215000000000000746,-0.029091330799647742
1.216000000000000858,-0.028929782235583033
1.217000000000000970,-0.028769265595556544
1.218000000000000860,-0.028609769610554441
1.219000000000000750,-0.028451283105848664
1.220000000000000862,-0.028293795000422679
1.221000000000000973,-0.028137294306399663
1.222000000000000863,-0.027981770128483109
1.223000000000000753,-0.027827211663380230
1.224000000000000865,-0.027673608199245147
1.225000000000000977,-0.027520949115115999
1.226000000000000867,-0.027369223880347786
1.227000000000000757,-0.027218422054058406
1.228000000000000869,-0.027068533284564111
1.229000000000000981,-0.026919547308840351
1.230000000000000870,-0.026771453951940603
1.231000000000000760,-0.026624243126465851
1.232000000000000872,-0.026477904832011373
1.233000000000000984,-0.026332429154600927
1.234000000000000874,-0.026187806266163894
1.235000000000000764,-0.026044026423968671
1.236000000000000876,-0.025901079970093090
1.237000000000000988,-0.025758957330874278
1.238000000000000878,-0.025617649016377069
1.239000000000000767,-0.025477145619847798
1.240000000000000879,-0.025337437817183756
1.241000000000000991,-0.025198516366398149
1.242000000000000881,-0.025060372107085109
1.243000000000000771,-0.024922995959894868
1.244000000000000883,-0.024786378925998005
1.245000000000000995,-0.024650512086568897
1.246000000000000885,-0.024515386602254174
1.247000000000000774,-0.024380993712652045
1.248000000000000886,-0.024247324735791727
1.249000000000000998,-0.024114371067618517
1.250000000000000888,-0.023982124181474856
1.251000000000000778,-0.023850575627584934
1.252000000000000890,-0.023719717032545551
1.253000000000001002,-0.023589540098809723
1.254000000000000892,-0.023460036604192526
1.255000000000000782,-0.023331198401347585
1.256000000000000894,-0.023203017417275745
1.257000000000001005,-0.023075485652817907
1.258000000000000895,-0.022948595182157701
1.259000000000000785,-0.022822338152321691
1.260000000000000897,-0.022696706782683047
1.261000000000001009,-0.022571693364476557
1.262000000000000899,-0.022447290260292387
1.263000000000000789,-0.022323489903599794
1.264000000000000901,-0.022200284798256802
1.265000000000001013,-0.022077667518020722
1.266000000000000902,-0.021955630706070789
1.267000000000000792,-0.021834167074525009
1.268000000000000904,-0.021713269403962593
1.269000000000001016,-0.021592930542944457
1.270000000000000906,-0.021473143407548113
1.271000000000000796,-0.021353900980884594
1.272000000000000908,-0.021235196312633015
1.273000000000001020,-0.021117022518575689
1.274000000000000909,-0.020999372780131271
1.275000000000000799,-0.020882240343884865
1.276000000000000911,-0.020765618521139305
1.277000000000001023,-0.020649500687444457
1.278000000000000913,-0.020533880282146626
1.279000000000000803,-0.020418750807933095
1.280000000000000915,-0.020304105830382786
1.281000000000001027,-0.020189938977502181
1.282000000000000917,-0.020076243939298501
1.283000000000000806,-0.019963014467315954
1.284000000000000918,-0.019850244374202373
1.285000000000001030,-0.019737927533261829
1.286000000000000920,-0.019626057878019691
1.287000000000000810,-0.019514629401780344
1.288000000000000922,-0.019403636157200765
1.289000000000001034,-0.019293072255849520
1.290000000000000924,-0.019182931867773794
1.291000000000000814,-0.019073209221086664
1.292000000000000925,-0.018963898601519820
1.293000000000001037,-0.018854994352018244
1.294000000000000927,-0.018746490872307252
1.295000000000000817,-0.018638382618473920
1.296000000000000929,-0.018530664102555865
1.297000000000001041,-0.018423329892115713
1.298000000000000931,-0.018316374609838836
1.299000000000000821,-0.018209792933117558
1.300000000000000933,-0.018103579593638307
1.301000000000001044,-0.017997729376981041
1.302000000000000934,-0.017892237122210917
1.303000000000000824,-0.017787097721483909
1.304000000000000936,-0.017682306119630724
1.305000000000001048,-0.017577857313775268
1.306000000000000938,-0.017473746352933545
1.307000000000000828,-0.017369968337612181
1.308000000000000940,-0.017266518419424781
1.309000000000001052,-0.017163391800706650
1.310000000000000941,-0.017060583734118145
1.311000000000000831,-0.016958089522262361
1.312000000000000943,-0.016855904517299715
1.313000000000001055,-0.016754024120582127
1.314000000000000945,-0.016652443782253244
1.315000000000000835,-0.016551159000881110
1.316000000000000947,-0.016450165323088232
1.317000000000001059,-0.016349458343174979
1.318000000000000949,-0.016249033702743020
1.319000000000000838,-0.016148887090342113
1.320000000000000950,-0.016049014241091113
1.321000000000001062,-0.015949410936316209
1.322000000000000952,-0.015850073003194843
1.323000000000000842,-0.015750996314389844
1.324000000000000954,-0.015652176787696030
1.325000000000001066,-0.015553610385679446
1.326000000000000956,-0.015455293115331831
1.327000000000000846,-0.015357221027707623
1.328000000000000957,-0.015259390217590480
1.329000000000001069,-0.015161796823125462
1.330000000000000959,-0.015064437025494731
1.331000000000000849,-0.014967307048560896
1.332000000000000961,-0.014870403158525836
1.333000000000001073,-0.014773721663597889
1.334000000000000963,-0.014677258913653573
1.335000000000000853,-0.014581011299894675
1.336000000000000965,-0.014484975254526907
1.337000000000001076,-0.014389147250419843
1.338000000000000966,-0.014293523800779289
1.339000000000000856,-0.014198101458824702
1.340000000000000968,-0.014102876817458787
1.341000000000001080,-0.014007846508943961
1.342000000000000970,-0.013913007204587727
1.343000000000000860,-0.013818355614414465
1.344000000000000972,-0.013723888486855643
1.345000000000001084,-0.013629602608432535
1.346000000000000973,-0.013535494803437808
1.347000000000000863,-0.013441561933632528
1.348000000000000975,-0.013347800897926365
1.349000000000001087,-0.013254208632080471
1.350000000000000977,-0.013160782108395146
1.351000000000000867,-0.013067518335411282
1.352000000000000979,-0.012974414357595859
1.353000000000001091,-0.012881467255061813
1.354000000000000981,-0.012788674143256412
1.355000000000000870,-0.012696032172663551
1.356000000000000982,-0.012603538528518005
1.357000000000001094,-0.012511190430510338
1.358000000000000984,-0.012418985132491909
1.359000000000000874,-0.012326919922188154
1.360000000000000986,-0.012234992120916197
1.361000000000001098,-0.012143199083296486
1.362000000000000988,-0.012051538196966465
1.363000000000000878,-0.011960006882302351
1.364000000000000989,-0.011868602592144954
1.365000000000001101,-0.011777322811510775
1.366000000000000991,-0.011686165057322263
1.367000000000000881,-0.011595126878136854
1.368000000000000993,-0.011504205853867794
1.369000000000001105,-0.011413399595518837
1.370000000000000995,-0.011322705744912809
1.371000000000000885,-0.011232121974423814
1.372000000000000997,-0.011141645986715985
1.373000000000001108,-0.011051275514479715
1.374000000000000998,-0.010961008320156921
1.375000000000000888,-0.010870842195705768
1.376000000000001000,-0.010780774962320414
1.377000000000001112,-0.010690804470183727
1.378000000000001002,-0.010600928598212418
1.379000000000000892,-0.010511145253801264
1.380000000000001004,-0.010421452372574025
1.381000000000001116,-0.010331847918134664
1.382000000000001005,-0.010242329881814165
1.383000000000000895,-0.010152896282428851
1.384000000000001007,-0.010063545166035290
1.385000000000001119,-0.009974274605685203
1.386000000000001009,-0.009885082701186465
1.387000000000000899,-0.009795967578857140
1.388000000000001011,-0.009706927391303537
1.389000000000001123,-0.009617960317160348
1.390000000000001013,-0.009529064560875478
1.391000000000000902,-0.009440238352465269
1.392000000000001014,-0.009351479947288553
1.393000000000001126,-0.009262787625814483
1.394000000000001016,-0.009174159693397872
1.395000000000000906,-0.009085594480045731
1.396000000000001018,-0.008997090340193919
1.397000000000001130,-0.008908645652488348
1.398000000000001020,-0.008820258819559487
1.399000000000000909,-0.008731928267799973
1.400000000000001021,-0.008643652447145688
1.401000000000001133,-0.008555429830866219
1.402000000000001023,-0.008467258915335094
1.403000000000000913,-0.008379138219825416
1.404000000000001025,-0.008291066286298086
1.405000000000001137,-0.008203041679180553
1.406000000000001027,-0.008115062985164826
1.407000000000000917,-0.008027128813002552
1.408000000000001029,-0.007939237793283798
1.409000000000001140,-0.007851388578246915
1.410000000000001030,-0.007763579841564975
1.411000000000000920,-0.007675810278148868
1.412000000000001032,-0.007588078603939741
1.413000000000001144,-0.007500383555717409
1.414000000000001034,-0.007412723890894504
1.415000000000000924,-0.007325098387324538
1.416000000000001036,-0.007237505843105563
1.417000000000001148,-0.007149945076387595
1.418000000000001037,-0.007062414925175256
1.419000000000000927,-0.006974914247140166
1.420000000000001039,-0.006887441919429846
1.421000000000001151,-0.006799996838484312
1.422000000000001041,-0.006712577919842764
1.423000000000000931,-0.006625184097957919
1.424000000000001043,-0.006537814326016747
1.425000000000001155,-0.006450467575754687
1.426000000000001044,-0.006363142837273622
1.427000000000000934,-0.006275839118864054
1.428000000000001046,-0.006188555446822465
1.429000000000001158,-0.006101290865274793
1.430000000000001048,-0.006014044436006965
1.431000000000000938,-0.005926815238277203
1.432000000000001050,-0.005839602368653876
1.433000000000001162,-0.005752404940838944
1.434000000000001052,-0.005665222085492449
1.435000000000000941,-0.005578052950074655
1.436000000000001053,-0.005490896698662867
1.437000000000001165,-0.005403752511792046
1.438000000000001055,-0.005316619586294082
1.439000000000000945,-0.005229497135120879
1.440000000000001057,-0.005142384387191798
1.441000000000001169,-0.005055280587222349
1.442000000000001059,-0.004968184995568311
1.443000000000000949,-0.004881096888070913
1.444000000000001060,-0.004794015555887643
1.445000000000001172,-0.004706940305337253
1.446000000000001062,-0.004619870457755400
1.447000000000000952,-0.004532805349321022
1.448000000000001064,-0.004445744330917639
1.449000000000001176,-0.004358686767976242
1.450000000000001066,-0.004271632040319222
1.451000000000000956,-0.004184579542014781
1.452000000000001068,-0.004097528681229360
1.453000000000001180,-0.004010478880073979
1.454000000000001069,-0.003923429574462902
1.455000000000000959,-0.003836380213966033
1.456000000000001071,-0.003749330261660961
1.457000000000001183,-0.003662279193997919
1.458000000000001073,-0.003575226500650549
1.459000000000000963,-0.003488171684373148
1.460000000000001075,-0.003401114260869800
1.461000000000001187,-0.003314053758642339
1.462000000000001076,-0.003226989718870127
1.463000000000000966,-0.003139921695254354
1.464000000000001078,-0.003052849253893189
1.465000000000001190,-0.002965771973148565
1.466000000000001080,-0.002878689443503853
1.467000000000000970,-0.002791601267439318
1.468000000000001082,-0.002704507059298990
1.469000000000001194,-0.002617406445156146
1.470000000000001084,-0.002530299062689269
1.471000000000000973,-0.002443184561048217
1.472000000000001085,-0.002356062600735561
1.473000000000001197,-0.002268932853470588
1.474000000000001087,-0.002181795002069527
1.475000000000000977,-0.002094648740317956
1.476000000000001089,-0.002007493772852929
1.477000000000001201,-0.001920329815036919
1.478000000000001091,-0.001833156592833942
1.479000000000000981,-0.001745973842695114
1.480000000000001092,-0.001658781311433848
1.481000000000001204,-0.001571578756113017
1.482000000000001094,-0.001484365943921502
1.483000000000000984,-0.001397142652064939
1.484000000000001096,-0.001309908667644057
1.485000000000001208,-0.001222663787537957
1.486000000000001098,-0.001135407818302394
1.487000000000000988,-0.001048140576045007
1.488000000000001100,-0.000960861886315420
1.489000000000001211,-0.000873571584003774
1.490000000000001101,-0.000786269513218502
1.491000000000000991,-0.000698955527182904
1.492000000000001103,-0.000611629488131615
1.493000000000001215,-0.000524291267194861
1.494000000000001105,-0.000436940744294509
1.495000000000000995,-0.000349577808043770
1.496000000000001107,-0.000262202355637216
1.497000000000001219,-0.000174814292748299
1.498000000000001108,-0.000087413533428109
1.499000000000000998,0.000000000000000000
