# Ag111_CYSSCA-AC
# h[nm],U(h)[kJ/mol]
0.149999999999999994,99.234081995666656439
0.150999999999999995,97.970304538015483331
0.151999999999999996,95.367196230745406638
0.152999999999999997,92.444551534191816700
0.153999999999999998,89.637493924321049121
0.154999999999999999,87.073256623303393553
0.156000000000000000,84.735336267298180246
0.157000000000000001,82.555592396219282136
0.158000000000000002,80.461633691825539927
0.159000000000000002,78.397572601448160867
0.160000000000000003,76.329832092976715785
0.161000000000000004,74.245332340315911779
0.162000000000000005,72.146471370380197641
0.163000000000000006,70.045406617702013818
0.164000000000000007,67.958930435051613017
0.165000000000000008,65.904488368410412136
0.166000000000000009,63.897456743615961727
0.167000000000000010,61.949565967335480821
0.168000000000000010,60.068252472053245583
0.169000000000000011,58.256694523048430767
0.170000000000000012,56.514301541142550889
0.171000000000000013,54.837461603496436169
0.172000000000000014,53.220394043955046470
0.173000000000000015,51.655995815442153685
0.174000000000000016,50.136607380201397177
0.175000000000000017,48.654654564439823616
0.176000000000000018,47.203146674419450335
0.177000000000000018,45.776028650874756920
0.178000000000000019,44.368396975128504778
0.179000000000000020,42.976596425207148400
0.180000000000000021,41.598218606924532992
0.181000000000000022,40.232024362591424449
0.182000000000000023,38.877811472634398626
0.183000000000000024,37.536247158032551852
0.184000000000000025,36.208682273648335581
0.185000000000000026,34.896961140854287464
0.186000000000000026,33.603237982980466825
0.187000000000000027,32.329808091899934652
0.188000000000000028,31.078959291199510062
0.189000000000000029,29.852847039241275695
0.190000000000000030,28.653394661888274442
0.191000000000000031,27.482218718633770749
0.192000000000000032,26.340578366548641043
0.193000000000000033,25.229346760721302445
0.194000000000000034,24.149001977860958590
0.195000000000000034,23.099634629028486188
0.196000000000000035,22.080969195997703025
0.197000000000000036,21.092396143836175781
0.198000000000000037,20.133011993856563038
0.199000000000000038,19.201664754351526199
0.200000000000000039,18.297002374274075720
0.201000000000000040,17.417522184578281497
0.202000000000000041,16.561619604900911895
0.203000000000000042,15.727634705185490560
0.204000000000000042,14.913895511759875490
0.205000000000000043,14.118757227351204975
0.206000000000000044,13.340636789194032730
0.207000000000000045,12.578042415532895149
0.208000000000000046,11.829597986926547293
0.209000000000000047,11.094062274674037383
0.210000000000000048,10.370343165276848296
0.211000000000000049,9.657507138760806242
0.212000000000000050,8.954784342053480728
0.213000000000000050,8.261569658934938332
0.214000000000000051,7.577420217998751539
0.215000000000000052,6.902049802283306335
0.216000000000000053,6.235320631416021442
0.217000000000000054,5.577232981795907207
0.218000000000000055,4.927913094899915691
0.219000000000000056,4.287599800413167905
0.220000000000000057,3.656630251509315421
0.221000000000000058,3.035425135986145495
0.222000000000000058,2.424473690592894304
0.223000000000000059,1.824318808070279019
0.224000000000000060,1.235542488238323244
0.225000000000000061,0.658751846806247987
0.226000000000000062,0.094565859157476242
0.227000000000000063,-0.456397018261617771
0.228000000000000064,-0.993530238729384729
0.229000000000000065,-1.516249487894376191
0.230000000000000066,-2.024001885160159553
0.231000000000000066,-2.516274035094816952
0.232000000000000067,-2.992598921728410577
0.233000000000000068,-3.452561657393208527
0.234000000000000069,-3.895804113848201577
0.235000000000000070,-4.322028476936069730
0.236000000000000071,-4.730999777096597469
0.237000000000000072,-5.122547456878852934
0.238000000000000073,-5.496566043337488772
0.239000000000000073,-5.853014998058297280
0.240000000000000074,-6.191917820730791888
0.241000000000000075,-6.513360483858534167
0.242000000000000076,-6.817489276562187506
0.243000000000000077,-7.104508134662822272
0.244000000000000078,-7.374675532504329389
0.245000000000000079,-7.628301009442543190
0.246000000000000080,-7.865741400742052747
0.247000000000000081,-8.087396838915303476
0.248000000000000081,-8.293706587433240074
0.249000000000000082,-8.485144764343841572
0.250000000000000111,-8.662216008751904894
0.251000000000000112,-8.825451138425467690
0.252000000000000113,-8.975402842078265664
0.253000000000000114,-9.112641445194695322
0.254000000000000115,-9.237750783672602495
0.255000000000000115,-9.351324215101154635
0.256000000000000116,-9.453960793206274360
0.257000000000000117,-9.546261626912755816
0.258000000000000118,-9.628826441612956089
0.259000000000000119,-9.702250356614225524
0.260000000000000120,-9.767120889372563397
0.261000000000000121,-9.824015194013250962
0.262000000000000122,-9.873497538795655615
0.263000000000000123,-9.916117024595534346
0.264000000000000123,-9.952405544152078676
0.265000000000000124,-9.982875979750589934
0.266000000000000125,-10.008020635178386470
0.267000000000000126,-10.028309896189266937
0.268000000000000127,-10.044191112331480653
0.269000000000000128,-10.056087691821337771
0.270000000000000129,-10.064398400168151682
0.271000000000000130,-10.069496852461561787
0.272000000000000131,-10.071731188606880991
0.273000000000000131,-10.071423920323272938
0.274000000000000132,-10.068871938391252385
0.275000000000000133,-10.064346668435957710
0.276000000000000134,-10.058094363448356390
0.277000000000000135,-10.050336521266229894
0.278000000000000136,-10.041270415348069633
0.279000000000000137,-10.031069727364618771
0.280000000000000138,-10.019885270395146648
0.281000000000000139,-10.007845791837020499
0.282000000000000139,-9.995058845510394363
0.283000000000000140,-9.981611722854504265
0.284000000000000141,-9.967572433561430856
0.285000000000000142,-9.952990726469488791
0.286000000000000143,-9.937899142034742894
0.287000000000000144,-9.922314088209850169
0.288000000000000145,-9.906236932079352187
0.289000000000000146,-9.889655100123409426
0.290000000000000147,-9.872543180505534366
0.291000000000000147,-9.854864021298185506
0.292000000000000148,-9.836569819071602438
0.293000000000000149,-9.817603192771574783
0.294000000000000150,-9.797898238299374896
0.295000000000000151,-9.777381559679831469
0.296000000000000152,-9.755973273158652148
0.297000000000000153,-9.733587981007692846
0.298000000000000154,-9.710135712234412964
0.299000000000000155,-9.685522827789478484
0.300000000000000155,-9.659652888242987956
0.301000000000000156,-9.632427482255202733
0.302000000000000157,-9.603747014501495372
0.303000000000000158,-9.573511452023554469
0.304000000000000159,-9.541621028270153460
0.305000000000000160,-9.507976904360209147
0.306000000000000161,-9.472481787350563565
0.307000000000000162,-9.435040505519598497
0.308000000000000163,-9.395560540887121448
0.309000000000000163,-9.353952519381293129
0.310000000000000164,-9.310130659235388961
0.311000000000000165,-9.264013178351239830
0.312000000000000166,-9.215522661504165214
0.313000000000000167,-9.164586388385345117
0.314000000000000168,-9.111136623584119576
0.315000000000000169,-9.055110869704554588
0.316000000000000170,-8.996452084889089207
0.317000000000000171,-8.935108866087736246
0.318000000000000171,-8.871035599465088239
0.319000000000000172,-8.804192579380101691
0.320000000000000173,-8.734546097406170162
0.321000000000000174,-8.662068502881558274
0.322000000000000175,-8.586738236494765530
0.323000000000000176,-8.508539838415121181
0.324000000000000177,-8.427463932477738950
0.325000000000000178,-8.343507187923755453
0.326000000000000179,-8.256672260183037793
0.327000000000000179,-8.166967712166558258
0.328000000000000180,-8.074407917511436494
0.329000000000000181,-7.979012947193188765
0.330000000000000182,-7.880808440886444721
0.331000000000000183,-7.779825464420378367
0.332000000000000184,-7.676100354635660317
0.333000000000000185,-7.569674552909063436
0.334000000000000186,-7.460594428568304792
0.335000000000000187,-7.348911093375032344
0.336000000000000187,-7.234680208207659113
0.337000000000000188,-7.117961783028384559
0.338000000000000189,-6.998819971171111654
0.339000000000000190,-6.877322858938406114
0.340000000000000191,-6.753542251447091971
0.341000000000000192,-6.627553455613947264
0.342000000000000193,-6.499435061124015256
0.343000000000000194,-6.369268720176979315
0.344000000000000195,-6.237138926759045354
0.345000000000000195,-6.103132796141840899
0.346000000000000196,-5.967339845263699871
0.347000000000000197,-5.829851774604191128
0.348000000000000198,-5.690762252119188958
0.349000000000000199,-5.550166699760959332
0.350000000000000200,-5.408162083066970993
0.351000000000000201,-5.264846704260609300
0.352000000000000202,-5.120319999268792444
0.353000000000000203,-4.974682339024066202
0.354000000000000203,-4.828034835382804424
0.355000000000000204,-4.680479151956914663
0.356000000000000205,-4.532117320123431270
0.357000000000000206,-4.383051560444816808
0.358000000000000207,-4.233384109702709175
0.359000000000000208,-4.083217053719428336
0.360000000000000209,-3.932652166114141146
0.361000000000000210,-3.781790753115020998
0.362000000000000210,-3.630733504524235489
0.363000000000000211,-3.479580350909744713
0.364000000000000212,-3.328430327076239426
0.365000000000000213,-3.177381441847134891
0.366000000000000214,-3.026530554170700160
0.367000000000000215,-2.875973255545474228
0.368000000000000216,-2.725803758743677641
0.369000000000000217,-2.576114792795924924
0.370000000000000218,-2.426997504186329202
0.371000000000000218,-2.278541364193905405
0.372000000000000219,-2.130834082304229327
0.373000000000000220,-1.983961525604110321
0.374000000000000221,-1.838007644062190638
0.375000000000000222,-1.693054401588963032
0.376000000000000223,-1.549181712761716456
0.377000000000000224,-1.406467385092411204
0.378000000000000225,-1.264987066709965413
0.379000000000000226,-1.124814199322613284
0.380000000000000226,-0.986019976321013791
0.381000000000000227,-0.848673305878300477
0.382000000000000228,-0.712840778899714977
0.383000000000000229,-0.578586641671369639
0.384000000000000230,-0.445972773054982230
0.385000000000000231,-0.315058666073897597
0.386000000000000232,-0.185901413733902288
0.387000000000000233,-0.058555698921612206
0.388000000000000234,0.066926211777327715
0.389000000000000234,0.190494470497962365
0.390000000000000235,0.312101646911295660
0.391000000000000236,0.431702723591641913
0.392000000000000237,0.549255088092086674
0.393000000000000238,0.664718521882181612
0.394000000000000239,0.778055186300834700
0.395000000000000240,0.889229605675176282
0.396000000000000241,0.998208647754175060
0.397000000000000242,1.104961501603456409
0.398000000000000242,1.209459653105127597
0.399000000000000243,1.311676858203788543
0.400000000000000244,1.411589114037200554
0.401000000000000245,1.509174628086593639
0.402000000000000246,1.604413785479055221
0.403000000000000247,1.697289114570892377
0.404000000000000248,1.787785250937505399
0.405000000000000249,1.875888899892112160
0.406000000000000250,1.961588797652064731
0.407000000000000250,2.044875671268026718
0.408000000000000251,2.125742197427833879
0.409000000000000252,2.204182960243048939
0.410000000000000253,2.280194408123005001
0.411000000000000254,2.353774809837137383
0.412000000000000255,2.424924209863152047
0.413000000000000256,2.493644383114764551
0.414000000000000257,2.559938789139356352
0.415000000000000258,2.623812525872193824
0.416000000000000258,2.685272283030510021
0.417000000000000259,2.744326295227149881
0.418000000000000260,2.800984294880118242
0.419000000000000261,2.855257464991033167
0.420000000000000262,2.907158391862015190
0.421000000000000263,2.956701017817434884
0.422000000000000264,3.003900593993609203
0.423000000000000265,3.048773633256524729
0.424000000000000266,3.091337863304320255
0.425000000000000266,3.131612180008596980
0.426000000000000267,3.169616601045370796
0.427000000000000268,3.205372219863765970
0.428000000000000269,3.238901160037707339
0.429000000000000270,3.270226530043120139
0.430000000000000271,3.299372378500495362
0.431000000000000272,3.326363649920152543
0.432000000000000273,3.351226140984913116
0.433000000000000274,3.373986457402616601
0.434000000000000274,3.394671971358413032
0.435000000000000275,3.413310779594604494
0.436000000000000276,3.429931662143566484
0.437000000000000277,3.444564041737136595
0.438000000000000278,3.457237943913851641
0.439000000000000279,3.467983957843409293
0.440000000000000280,3.476833197885841109
0.441000000000000281,3.483817265901111959
0.442000000000000282,3.488968214322943684
0.443000000000000282,3.492318510009250421
0.444000000000000283,3.493900998879623021
0.445000000000000284,3.493748871349060980
0.446000000000000285,3.491895628565527154
0.447000000000000286,3.488375049457415056
0.448000000000000287,3.483221158595878997
0.449000000000000288,3.476468194875495410
0.450000000000000289,3.468150581015599698
0.451000000000000290,3.458302893883478113
0.452000000000000290,3.446959835639471059
0.453000000000000291,3.434156205702970421
0.454000000000000292,3.419926873537376899
0.455000000000000293,3.404306752251058388
0.456000000000000294,3.387330773010538199
0.457000000000000295,3.369033860261296809
0.458000000000000296,3.349450907750686213
0.459000000000000297,3.328616755346941236
0.460000000000000298,3.306566166647271210
0.461000000000000298,3.283333807367743162
0.462000000000000299,3.258954224506649844
0.463000000000000300,3.233461826272907125
0.464000000000000301,3.206890862770173101
0.465000000000000302,3.179275407427115674
0.466000000000000303,3.150649339163668294
0.467000000000000304,3.121046325282871514
0.468000000000000305,3.090499805077288276
0.469000000000000306,3.059042974138885818
0.470000000000000306,3.026708769360850759
0.471000000000000307,2.993529854619448205
0.472000000000000308,2.959538607123985532
0.473000000000000309,2.924767104422546726
0.474000000000000310,2.889247112051086752
0.475000000000000311,2.853010071813133486
0.476000000000000312,2.816087090677549476
0.477000000000000313,2.778508930281201383
0.478000000000000314,2.740305997023763318
0.479000000000000314,2.701508332741439311
0.480000000000000315,2.662145605946579785
0.481000000000000316,2.622247103619977260
0.482000000000000317,2.581841723542677602
0.483000000000000318,2.540957967154139574
0.484000000000000319,2.499623932923556335
0.485000000000000320,2.457867310221215185
0.486000000000000321,2.415715373676785571
0.487000000000000322,2.373194978011535117
0.488000000000000322,2.330332553331438739
0.489000000000000323,2.287154100868401763
0.490000000000000324,2.243685189156699344
0.491000000000000325,2.199950950632011626
0.492000000000000326,2.155976078640452709
0.493000000000000327,2.111784824845187813
0.494000000000000328,2.067400997018233433
0.495000000000000329,2.022847957205375469
0.496000000000000330,1.978148620252061063
0.497000000000000330,1.933325452678478218
0.498000000000000331,1.888400471892003107
0.499000000000000332,1.843395245725612641
0.500000000000000333,1.798330892290687988
0.501000000000000334,1.753228080133140576
0.502000000000000335,1.708107028681765227
0.503000000000000336,1.662987508978011730
0.504000000000000337,1.617888844676448556
0.505000000000000338,1.572829913305512139
0.506000000000000338,1.527829147778220431
0.507000000000000339,1.482904538142751916
0.508000000000000340,1.438073633563016873
0.509000000000000341,1.393353544519541076
0.510000000000000342,1.348760945221089358
0.511000000000000343,1.304312076217807981
0.512000000000000344,1.260022747206714921
0.513000000000000345,1.215908340020703360
0.514000000000000346,1.171983811792260965
0.515000000000000346,1.128263698283497041
0.516000000000000347,1.084762117374106660
0.517000000000000348,1.041492772699180280
0.518000000000000349,0.998468957428934267
0.519000000000000350,0.955703558182712576
0.520000000000000351,0.913209059069603923
0.521000000000000352,0.870997545848505750
0.522000000000000353,0.829080710200396753
0.523000000000000353,0.787469854105873779
0.524000000000000354,0.746175894321298050
0.525000000000000355,0.705209366946821126
0.526000000000000356,0.664580432080078554
0.527000000000000357,0.624298878549234826
0.528000000000000358,0.584374128719351793
0.529000000000000359,0.544815243366374546
0.530000000000000360,0.505630926612887444
0.531000000000000361,0.466829530920286118
0.532000000000000361,0.428419062131956352
0.533000000000000362,0.390407184562372389
0.534000000000000363,0.352801226127073320
0.535000000000000364,0.315608183508717111
0.536000000000000365,0.278834727354545897
0.537000000000000366,0.242487207500756335
0.538000000000000367,0.206571658219401405
0.539000000000000368,0.171093803483660267
0.540000000000000369,0.136059062247366303
0.541000000000000369,0.101472553734959850
0.542000000000000370,0.067339102738029497
0.543000000000000371,0.033663244914872811
0.544000000000000372,0.000449232089549167
0.545000000000000373,-0.032298962452879942
0.546000000000000374,-0.064577638678200031
0.547000000000000375,-0.096383364525021040
0.548000000000000376,-0.127712970639890483
0.549000000000000377,-0.158563545128337202
0.550000000000000377,-0.188932428324627838
0.551000000000000378,-0.218817207582790829
0.552000000000000379,-0.248215712091408414
0.553000000000000380,-0.277126007714586509
0.554000000000000381,-0.305546391861325761
0.555000000000000382,-0.333475388385490290
0.556000000000000383,-0.360911742518425727
0.557000000000000384,-0.387854415836170419
0.558000000000000385,-0.414302581263141345
0.559000000000000385,-0.440255618114062830
0.560000000000000386,-0.465713107175766250
0.561000000000000387,-0.490674825830506811
0.562000000000000388,-0.515140743222236130
0.563000000000000389,-0.539111015467287902
0.564000000000000390,-0.562585980910736638
0.565000000000000391,-0.585566155429751656
0.566000000000000392,-0.608052227785057298
0.567000000000000393,-0.630045055021598799
0.568000000000000393,-0.651545657919449961
0.569000000000000394,-0.672555216495906105
0.570000000000000395,-0.693075065559609516
0.571000000000000396,-0.713106690317545588
0.572000000000000397,-0.732651722035661424
0.573000000000000398,-0.751711933753758887
0.574000000000000399,-0.770289236055297311
0.575000000000000400,-0.788385672892691902
0.576000000000000401,-0.806003417468567518
0.577000000000000401,-0.823144768173464492
0.578000000000000402,-0.839812144580376563
0.579000000000000403,-0.856008083496458072
0.580000000000000404,-0.871735235072218506
0.581000000000000405,-0.886996358968449861
0.582000000000000406,-0.901794320581088771
0.583000000000000407,-0.916132087324174060
0.584000000000000408,-0.930012724971039817
0.585000000000000409,-0.943439394053775748
0.586000000000000409,-0.956415346321062287
0.587000000000000410,-0.968943921254329155
0.588000000000000411,-0.981028542642212953
0.589000000000000412,-0.992672715213285706
0.590000000000000413,-1.003880021326887029
0.591000000000000414,-1.014654117721990323
0.592000000000000415,-1.024998732323903594
0.593000000000000416,-1.034917661108615938
0.594000000000000417,-1.044414765024596070
0.595000000000000417,-1.053493966971753792
0.596000000000000418,-1.062159248837333925
0.597000000000000419,-1.070414648588426942
0.598000000000000420,-1.078264257420777250
0.599000000000000421,-1.085712216963552912
0.600000000000000422,-1.092762716539728673
0.601000000000000423,-1.099419990481665943
0.602000000000000424,-1.105688315501528685
0.603000000000000425,-1.111572008116125110
0.604000000000000425,-1.117075422125674899
0.605000000000000426,-1.122202946146132252
0.606000000000000427,-1.126959001194570931
0.607000000000000428,-1.131348038327117722
0.608000000000000429,-1.135374536329028183
0.609000000000000430,-1.139042999456290284
0.610000000000000431,-1.142357955228362920
0.611000000000000432,-1.145323952271414703
0.612000000000000433,-1.147945558211596273
0.613000000000000433,-1.150227357617797264
0.614000000000000434,-1.152173949993299695
0.615000000000000435,-1.153789947815783368
0.616000000000000436,-1.155079974625155659
0.617000000000000437,-1.156048663158566692
0.618000000000000438,-1.156700653532074075
0.619000000000000439,-1.157040591468357027
0.620000000000000440,-1.157073126569895694
0.621000000000000441,-1.156802910637015680
0.622000000000000441,-1.156234596030218720
0.623000000000000442,-1.155372834076146660
0.624000000000000443,-1.154222273516659847
0.625000000000000444,-1.152787559000356010
0.626000000000000445,-1.151073329615927010
0.627000000000000446,-1.149084217466792790
0.628000000000000447,-1.146824846286360833
0.629000000000000448,-1.144299830093315373
0.630000000000000449,-1.141513771886304873
0.631000000000000449,-1.138471262377471760
0.632000000000000450,-1.135176878764154962
0.633000000000000451,-1.131635183538200362
0.634000000000000452,-1.127850723332253224
0.635000000000000453,-1.123828027802411089
0.636000000000000454,-1.119571608546690245
0.637000000000000455,-1.115085958058635196
0.638000000000000456,-1.110375548715524463
0.639000000000000457,-1.105444831800547867
0.640000000000000457,-1.100298236558389764
0.641000000000000458,-1.094940169283581621
0.642000000000000459,-1.089375012441103241
0.643000000000000460,-1.083607123818586704
0.644000000000000461,-1.077640835709593459
0.645000000000000462,-1.071480454127357484
0.646000000000000463,-1.065130258048426093
0.647000000000000464,-1.058594498685665686
0.648000000000000465,-1.051877398790028284
0.649000000000000465,-1.044983151980541702
0.650000000000000466,-1.037915922101980026
0.651000000000000467,-1.030679842609641961
0.652000000000000468,-1.023279015980727902
0.653000000000000469,-1.015717513151723761
0.654000000000000470,-1.007999372981355224
0.655000000000000471,-1.000128601738462963
0.656000000000000472,-0.992109172614392465
0.657000000000000473,-0.983945025259291617
0.658000000000000473,-0.975640065341877971
0.659000000000000474,-0.967198164132127780
0.660000000000000475,-0.958623158106400863
0.661000000000000476,-0.949918848574503039
0.662000000000000477,-0.941089001328221819
0.663000000000000478,-0.932137346310820347
0.664000000000000479,-0.923067577307049580
0.665000000000000480,-0.913883351653167475
0.666000000000000481,-0.904588289966573145
0.667000000000000481,-0.895185975894490782
0.668000000000000482,-0.885679955881372494
0.669000000000000483,-0.876073738954498027
0.670000000000000484,-0.866370796527342057
0.671000000000000485,-0.856574562220310476
0.672000000000000486,-0.846688431698366495
0.673000000000000487,-0.836715762525216733
0.674000000000000488,-0.826659874033506603
0.675000000000000488,-0.816524047210752890
0.676000000000000489,-0.806311524600541341
0.677000000000000490,-0.796025510218581034
0.678000000000000491,-0.785669169483289132
0.679000000000000492,-0.775245629160462468
0.680000000000000493,-0.764757977321669835
0.681000000000000494,-0.754209263316043876
0.682000000000000495,-0.743602497755017633
0.683000000000000496,-0.732940652509741164
0.684000000000000496,-0.722226660720746261
0.685000000000000497,-0.711463416819575256
0.686000000000000498,-0.700653776561972808
0.687000000000000499,-0.689800557072357545
0.688000000000000500,-0.678906536899205548
0.689000000000000501,-0.667974456081037227
0.690000000000000502,-0.657007016222708407
0.691000000000000503,-0.646006880581635023
0.692000000000000504,-0.634976674163705401
0.693000000000000504,-0.623918983828562701
0.694000000000000505,-0.612836358403911929
0.695000000000000506,-0.601731308808653331
0.696000000000000507,-0.590606308184456585
0.697000000000000508,-0.579463792035568859
0.698000000000000509,-0.568306158376563286
0.699000000000000510,-0.557135767887718680
0.700000000000000511,-0.545954944077840842
0.701000000000000512,-0.534765973454181198
0.702000000000000512,-0.523571105699281114
0.703000000000000513,-0.512372553854429036
0.704000000000000514,-0.501172494509516064
0.705000000000000515,-0.489973067999051881
0.706000000000000516,-0.478776378604097552
0.707000000000000517,-0.467584494759881952
0.708000000000000518,-0.456399449268893753
0.709000000000000519,-0.445223239519225267
0.710000000000000520,-0.434057827707918675
0.711000000000000520,-0.422905141069174539
0.712000000000000521,-0.411767072107130983
0.713000000000000522,-0.400645478833086155
0.714000000000000523,-0.389542185006926112
0.715000000000000524,-0.378458980382560817
0.716000000000000525,-0.367397620957222726
0.717000000000000526,-0.356359829224374924
0.718000000000000527,-0.345347294430129681
0.719000000000000528,-0.334361672832914514
0.720000000000000528,-0.323404587966308499
0.721000000000000529,-0.312477630904766601
0.722000000000000530,-0.301582360532199334
0.723000000000000531,-0.290720303813123970
0.724000000000000532,-0.279892956066313647
0.725000000000000533,-0.269101781240762783
0.726000000000000534,-0.258348212193806603
0.727000000000000535,-0.247633650971272490
0.728000000000000536,-0.236959469089509600
0.729000000000000536,-0.226327007819154657
0.730000000000000537,-0.215737578470526659
0.731000000000000538,-0.205192462680452298
0.732000000000000539,-0.194692912700493770
0.733000000000000540,-0.184240151686343834
0.734000000000000541,-0.173835373988369096
0.735000000000000542,-0.163479745443086882
0.736000000000000543,-0.153174403665563980
0.737000000000000544,-0.142920458342500473
0.738000000000000544,-0.132718991526037028
0.739000000000000545,-0.122571057928016855
0.740000000000000546,-0.112477685214755097
0.741000000000000547,-0.102439874302081277
0.742000000000000548,-0.092458599650680595
0.743000000000000549,-0.082534809561512892
0.744000000000000550,-0.072669426471312179
0.745000000000000551,-0.062863347248055826
0.746000000000000552,-0.053117443486273827
0.747000000000000552,-0.043432561802179415
0.748000000000000553,-0.033809524128477132
0.749000000000000554,-0.024249128008800171
0.750000000000000555,-0.014752146891728235
0.751000000000000556,-0.005319330424224633
0.752000000000000557,0.004048595255470355
0.753000000000000558,0.013350927225658759
0.754000000000000559,0.022586985489707508
0.755000000000000560,0.031756112685399039
0.756000000000000560,0.040857673795121070
0.757000000000000561,0.049891055857014310
0.758000000000000562,0.058855667677089787
0.759000000000000563,0.067750939542383135
0.760000000000000564,0.076576322935222124
0.761000000000000565,0.085331290248641750
0.762000000000000566,0.094015334503010584
0.763000000000000567,0.102627969063890156
0.764000000000000568,0.111168727361228917
0.765000000000000568,0.119637162609873254
0.766000000000000569,0.128032847531493216
0.767000000000000570,0.136355374077928693
0.768000000000000571,0.144604353156025933
0.769000000000000572,0.152779414353980819
0.770000000000000573,0.160880205669228837
0.771000000000000574,0.168906393237942404
0.772000000000000575,0.176857661066137511
0.773000000000000576,0.184733710762452014
0.774000000000000576,0.192534261272598067
0.775000000000000577,0.200259048615538171
0.776000000000000578,0.207907825621432618
0.777000000000000579,0.215480361671315512
0.778000000000000580,0.222976442438627492
0.779000000000000581,0.230395869632535805
0.780000000000000582,0.237738460743135871
0.781000000000000583,0.245004048788489193
0.782000000000000584,0.252192482063603063
0.783000000000000584,0.259303623891290358
0.784000000000000585,0.266337352374970471
0.785000000000000586,0.273293560153440307
0.786000000000000587,0.280172154157590725
0.787000000000000588,0.286973055369117769
0.788000000000000589,0.293696198581248624
0.789000000000000590,0.300341532161440772
0.790000000000000591,0.306909017816159424
0.791000000000000592,0.313398630357639540
0.792000000000000592,0.319810357472743612
0.793000000000000593,0.326144199493836051
0.794000000000000594,0.332400169171762128
0.795000000000000595,0.338578291450867541
0.796000000000000596,0.344678603246138193
0.797000000000000597,0.350701153222385265
0.798000000000000598,0.356646001575565419
0.799000000000000599,0.362513219816182120
0.800000000000000600,0.368302890554777995
0.801000000000000600,0.374015107289575710
0.802000000000000601,0.379649974196173856
0.803000000000000602,0.385207605919408280
0.804000000000000603,0.390688127367286531
0.805000000000000604,0.396091673507058539
0.806000000000000605,0.401418389163403444
0.807000000000000606,0.406668428818705685
0.808000000000000607,0.411841956415481936
0.809000000000000608,0.416939145160888924
0.810000000000000608,0.421960177333340458
0.811000000000000609,0.426905244091260738
0.812000000000000610,0.431774545283906019
0.813000000000000611,0.436568289264307130
0.814000000000000612,0.441286692704298544
0.815000000000000613,0.445929980411629068
0.816000000000000614,0.450498385149185332
0.817000000000000615,0.454992147456260210
0.818000000000000616,0.459411515471916942
0.819000000000000616,0.463756744760415285
0.820000000000000617,0.468028098138694393
0.821000000000000618,0.472225845505910791
0.822000000000000619,0.476350263675016816
0.823000000000000620,0.480401636206376437
0.824000000000000621,0.484380253243419823
0.825000000000000622,0.488286411350307703
0.826000000000000623,0.492120413351603059
0.827000000000000624,0.495882568173956872
0.828000000000000624,0.499573190689765134
0.829000000000000625,0.503192601562844288
0.830000000000000626,0.506741127096030475
0.831000000000000627,0.510219099080779670
0.832000000000000628,0.513626854648690956
0.833000000000000629,0.516964736124992830
0.834000000000000630,0.520233090883939986
0.835000000000000631,0.523432271206127786
0.836000000000000631,0.526562634137726859
0.837000000000000632,0.529624541351590761
0.838000000000000633,0.532618359010270326
0.839000000000000634,0.535544457630863557
0.840000000000000635,0.538403211951751226
0.841000000000000636,0.541195000801171666
0.842000000000000637,0.543920206967608011
0.843000000000000638,0.546579217072019619
0.844000000000000639,0.549172421441857184
0.845000000000000639,0.551700213986891841
0.846000000000000640,0.554162992076807748
0.847000000000000641,0.556561156420560033
0.848000000000000642,0.558895110947492446
0.849000000000000643,0.561165262690206168
0.850000000000000644,0.563372021669106604
0.851000000000000645,0.565515800778733313
0.852000000000000646,0.567597015675717964
0.853000000000000647,0.569616084668471911
0.854000000000000647,0.571573428608521561
0.855000000000000648,0.573469470783511515
0.856000000000000649,0.575304636811832637
0.857000000000000650,0.577079354538894029
0.858000000000000651,0.578794053935005381
0.859000000000000652,0.580449166994845167
0.860000000000000653,0.582045127638527449
0.861000000000000654,0.583582371614235429
0.862000000000000655,0.585061336402396104
0.863000000000000655,0.586482461121427545
0.864000000000000656,0.587846186434977103
0.865000000000000657,0.589152954460697154
0.866000000000000658,0.590403208680512659
0.867000000000000659,0.591597393852357656
0.868000000000000660,0.592735955923406777
0.869000000000000661,0.593819341944745505
0.870000000000000662,0.594847999987474951
0.871000000000000663,0.595822379060256480
0.872000000000000663,0.596742929028258540
0.873000000000000664,0.597610100533509714
0.874000000000000665,0.598424344916619999
0.875000000000000666,0.599186114139882653
0.876000000000000667,0.599895860711727735
0.877000000000000668,0.600554037612508584
0.878000000000000669,0.601161098221621892
0.879000000000000670,0.601717496245939509
0.880000000000000671,0.602223685649522444
0.881000000000000671,0.602680120584642820
0.882000000000000672,0.603087255324051497
0.883000000000000673,0.603445544194514349
0.884000000000000674,0.603755441511584445
0.885000000000000675,0.604017401515599017
0.886000000000000676,0.604231878308900128
0.887000000000000677,0.604399325794233944
0.888000000000000678,0.604520197614368704
0.889000000000000679,0.604594947092843116
0.890000000000000679,0.604624027175913570
0.891000000000000680,0.604607890375609025
0.892000000000000681,0.604546988713948075
0.893000000000000682,0.604441773668257243
0.894000000000000683,0.604292696117600281
0.895000000000000684,0.604100206290286934
0.896000000000000685,0.603864753712479607
0.897000000000000686,0.603586787157851079
0.898000000000000687,0.603266754598282162
0.899000000000000687,0.602905103155641497
0.900000000000000688,0.602502279054536682
0.901000000000000689,0.602058727576120889
0.902000000000000690,0.601574893012875700
0.903000000000000691,0.601051218624389816
0.904000000000000692,0.600488146594117866
0.905000000000000693,0.599886117987093570
0.906000000000000694,0.599245572708596574
0.907000000000000695,0.598566949463763320
0.908000000000000695,0.597850685718104846
0.909000000000000696,0.597097217658968837
0.910000000000000697,0.596306980157871314
0.911000000000000698,0.595480406733742917
0.912000000000000699,0.594617929517038735
0.913000000000000700,0.593719979214710425
0.914000000000000701,0.592786985076062867
0.915000000000000702,0.591819374859407388
0.916000000000000703,0.590817574799587408
0.917000000000000703,0.589782009576295563
0.918000000000000704,0.588713102283224265
0.919000000000000705,0.587611274397989436
0.920000000000000706,0.586476945752855472
0.921000000000000707,0.585310534506232272
0.922000000000000708,0.584112457114943417
0.923000000000000709,0.582883128307225107
0.924000000000000710,0.581622961056499244
0.925000000000000711,0.580332366555854740
0.926000000000000711,0.579011754193264006
0.927000000000000712,0.577661531527498884
0.928000000000000713,0.576282104264759454
0.929000000000000714,0.574873876235986514
0.930000000000000715,0.573437249374858737
0.931000000000000716,0.571972623696456850
0.932000000000000717,0.570480397276573958
0.933000000000000718,0.568960966231722431
0.934000000000000719,0.567414724699720208
0.935000000000000719,0.565842064820952784
0.936000000000000720,0.564243376720239498
0.937000000000000721,0.562619048489314322
0.938000000000000722,0.560969466169905728
0.939000000000000723,0.559295013737420188
0.940000000000000724,0.557596073085192545
0.941000000000000725,0.555873024009332029
0.942000000000000726,0.554126244194113160
0.943000000000000727,0.552356109197941647
0.944000000000000727,0.550562992439855625
0.945000000000000728,0.548747265186567468
0.946000000000000729,0.546909296540050827
0.947000000000000730,0.545049453425625829
0.948000000000000731,0.543168100580579294
0.949000000000000732,0.541265600543272773
0.950000000000000733,0.539342313642770077
0.951000000000000734,0.537398597988915760
0.952000000000000735,0.535434809462944084
0.953000000000000735,0.533451301708516512
0.954000000000000736,0.531448426123245499
0.955000000000000737,0.529426531850676008
0.956000000000000738,0.527385965772705134
0.957000000000000739,0.525327072502444925
0.958000000000000740,0.523250194377539612
0.959000000000000741,0.521155671453869207
0.960000000000000742,0.519043841499713610
0.961000000000000743,0.516915039990301972
0.962000000000000743,0.514769600102771618
0.963000000000000744,0.512607852711533973
0.964000000000000745,0.510430126384013416
0.965000000000000746,0.508236747376786147
0.966000000000000747,0.506028039632082205
0.967000000000000748,0.503804324774669077
0.968000000000000749,0.501565922109082463
0.969000000000000750,0.499313148617231306
0.970000000000000751,0.497046318956328725
0.971000000000000751,0.494765745457194595
0.972000000000000752,0.492471738122874314
0.973000000000000753,0.490164604627580769
0.974000000000000754,0.487844650315993611
0.975000000000000755,0.485512178202835376
0.976000000000000756,0.483167488972789883
0.977000000000000757,0.480810880980707178
0.978000000000000758,0.478442650252128288
0.979000000000000759,0.476063090484069196
0.980000000000000759,0.473672493046134235
0.981000000000000760,0.471271146981889377
0.982000000000000761,0.468859339010499476
0.983000000000000762,0.466437353528664667
0.984000000000000763,0.464005472612812997
0.985000000000000764,0.461563976021529321
0.986000000000000765,0.459113141198280228
0.987000000000000766,0.456653243274355192
0.988000000000000766,0.454184555072064788
0.989000000000000767,0.451707347108172452
0.990000000000000768,0.449221887597572700
0.991000000000000769,0.446728442457184904
0.992000000000000770,0.444227275310073111
0.993000000000000771,0.441718647489790783
0.994000000000000772,0.439202818044934440
0.995000000000000773,0.436680043743907842
0.996000000000000774,0.434150579079894794
0.997000000000000774,0.431614676276026787
0.998000000000000775,0.429072585290752428
0.999000000000000776,0.426524553823384722
1.000000000000000666,0.423970827319854304
1.001000000000000778,0.421411648978632147
1.002000000000000668,0.418847259756831014
1.003000000000000780,0.416277898376488653
1.004000000000000670,0.413703801331008258
1.005000000000000782,0.411125202891773178
1.006000000000000671,0.408542335114926103
1.007000000000000783,0.405955427848295081
1.008000000000000673,0.403364708738480959
1.009000000000000785,0.400770403238090545
1.010000000000000675,0.398172734613123969
1.011000000000000787,0.395571923950487736
1.012000000000000677,0.392968190165658648
1.013000000000000789,0.390361750010483899
1.014000000000000679,0.387752818081104345
1.015000000000000790,0.385141606826007121
1.016000000000000680,0.382528326554205100
1.017000000000000792,0.379913185443539247
1.018000000000000682,0.377296389549083677
1.019000000000000794,0.374678142811689985
1.020000000000000684,0.372058647066615233
1.021000000000000796,0.369438102052272122
1.022000000000000686,0.366816705419085620
1.023000000000000798,0.364194652738434654
1.024000000000000687,0.361572137511719238
1.025000000000000799,0.358949351179480292
1.026000000000000689,0.356326483130665561
1.027000000000000801,0.353703720711929681
1.028000000000000691,0.351081249237059856
1.029000000000000803,0.348459251996463437
1.030000000000000693,0.345837910266752979
1.031000000000000805,0.343217403320380754
1.032000000000000695,0.340597908435387620
1.033000000000000806,0.337979600905181532
1.034000000000000696,0.335362654048417252
1.035000000000000808,0.332747239218935564
1.036000000000000698,0.330133525815752227
1.037000000000000810,0.327521681293121980
1.038000000000000700,0.324911871170671385
1.039000000000000812,0.322304259043560803
1.040000000000000702,0.319699006592726931
1.041000000000000814,0.317096273595158018
1.042000000000000703,0.314496217934247535
1.043000000000000815,0.311898995610153551
1.044000000000000705,0.309304760750240659
1.045000000000000817,0.306713665619547660
1.046000000000000707,0.304125860631297928
1.047000000000000819,0.301541494357448758
1.048000000000000709,0.298960713539294376
1.049000000000000821,0.296383663098059358
1.050000000000000711,0.293810486145589356
1.051000000000000822,0.291241323995006351
1.052000000000000712,0.288676316171445624
1.053000000000000824,0.286115600422790994
1.054000000000000714,0.283559312730439383
1.055000000000000826,0.281007587320099783
1.056000000000000716,0.278460556672599613
1.057000000000000828,0.275918351534720052
1.058000000000000718,0.273381100930047694
1.059000000000000830,0.270848932169842960
1.060000000000000719,0.268321970863913684
1.061000000000000831,0.265800340931526935
1.062000000000000721,0.263284164612298421
1.063000000000000833,0.260773562477113530
1.064000000000000723,0.258268653439064466
1.065000000000000835,0.255769554764365248
1.066000000000000725,0.253276382083295282
1.067000000000000837,0.250789249401148162
1.068000000000000727,0.248308269109160124
1.069000000000000838,0.245833551995470856
1.070000000000000728,0.243365207256055177
1.071000000000000840,0.240903342505672663
1.072000000000000730,0.238448063788804676
1.073000000000000842,0.235999475590591201
1.074000000000000732,0.233557680847761878
1.075000000000000844,0.231122780959555463
1.076000000000000734,0.228694875798642616
1.077000000000000846,0.226274063722024799
1.078000000000000735,0.223860441581930969
1.079000000000000847,0.221454104736709428
1.080000000000000737,0.219055147061687217
1.081000000000000849,0.216663660960044968
1.082000000000000739,0.214279737373643281
1.083000000000000851,0.211903465793862628
1.084000000000000741,0.209534934272407602
1.085000000000000853,0.207174229432105228
1.086000000000000743,0.204821436477675478
1.087000000000000854,0.202476639206487896
1.088000000000000744,0.200139920019290762
1.089000000000000856,0.197811359930935071
1.090000000000000746,0.195491038581050824
1.091000000000000858,0.193179034244720910
1.092000000000000748,0.190875423843124420
1.093000000000000860,0.188580282954149414
1.094000000000000750,0.186293685822986360
1.095000000000000862,0.184015705372696514
1.096000000000000751,0.181746413214740110
1.097000000000000863,0.179485879659497416
1.098000000000000753,0.177234173726740080
1.099000000000000865,0.174991363156078605
1.100000000000000755,0.172757514417400226
1.101000000000000867,0.170532692721234419
1.102000000000000757,0.168316962029132267
1.103000000000000869,0.166110385063970745
1.104000000000000759,0.163913023320264528
1.105000000000000870,0.161724937074407549
1.106000000000000760,0.159546185394915829
1.107000000000000872,0.157376826152595101
1.108000000000000762,0.155216916030711000
1.109000000000000874,0.153066510535103145
1.110000000000000764,0.150925664004264770
1.111000000000000876,0.148794429619390545
1.112000000000000766,0.146672859414380297
1.113000000000000878,0.144561004285812700
1.114000000000000767,0.142458914002871501
1.115000000000000879,0.140366637217240825
1.116000000000000769,0.138284221472959656
1.117000000000000881,0.136211713216228214
1.118000000000000771,0.134149157805185798
1.119000000000000883,0.132096599519642838
1.120000000000000773,0.130054081570764285
1.121000000000000885,0.128021646110733939
1.122000000000000774,0.125999334242346328
1.123000000000000886,0.123987186028582011
1.124000000000000776,0.121985240502126155
1.125000000000000888,0.119993535674853408
1.126000000000000778,0.118012108547260408
1.127000000000000890,0.116040995117857967
1.128000000000000780,0.114080230392529722
1.129000000000000892,0.112129848393826365
1.130000000000000782,0.110189882170238868
1.131000000000000894,0.108260363805402021
1.132000000000000783,0.106341324427282682
1.133000000000000895,0.104432794217288752
1.134000000000000785,0.102534802419367077
1.135000000000000897,0.100647377349026221
1.136000000000000787,0.098770546402336762
1.137000000000000899,0.096904336064866259
1.138000000000000789,0.095048771920593772
1.139000000000000901,0.093203878660732903
1.140000000000000790,0.091369680092564645
1.141000000000000902,0.089546199148187983
1.142000000000000792,0.087733457893223732
1.143000000000000904,0.085931477535480472
1.144000000000000794,0.084140278433581225
1.145000000000000906,0.082359880105528943
1.146000000000000796,0.080590301237221787
1.147000000000000908,0.078831559690938469
1.148000000000000798,0.077083672513760956
1.149000000000000909,0.075346655945953286
1.150000000000000799,0.073620525429297645
1.151000000000000689,0.071905295615372553
1.152000000000000801,0.070200980373791994
1.153000000000000913,0.068507592800396380
1.154000000000000803,0.066825145225384450
1.155000000000000693,0.065153649221412840
1.156000000000000805,0.063493115611629486
1.157000000000000917,0.061843554477681438
1.158000000000000806,0.060204975167651775
1.159000000000000696,0.058577386303960269
1.160000000000000808,0.056960795791213513
1.161000000000000920,0.055355210824007559
1.162000000000000810,0.053760637894677762
1.163000000000000700,0.052177082801010868
1.164000000000000812,0.050604550653886624
1.165000000000000924,0.049043045884902138
1.166000000000000814,0.047492572253924184
1.167000000000000703,0.045953132856593512
1.168000000000000815,0.044424730131799359
1.169000000000000927,0.042907365869087097
1.170000000000000817,0.041401041216022463
1.171000000000000707,0.039905756685516866
1.172000000000000819,0.038421512163087417
1.173000000000000931,0.036948306914083240
1.174000000000000821,0.035486139590865523
1.175000000000000711,0.034035008239916453
1.176000000000000822,0.032594910308930525
1.177000000000000934,0.031165842653834923
1.178000000000000824,0.029747801545779350
1.179000000000000714,0.028340782678064041
1.180000000000000826,0.026944781173022070
1.181000000000000938,0.025559791588865843
1.182000000000000828,0.024185807926471875
1.183000000000000718,0.022822823636129842
1.184000000000000830,0.021470831624227898
1.185000000000000941,0.020129824259917876
1.186000000000000831,0.018799793381696583
1.187000000000000721,0.017480730303977749
1.188000000000000833,0.016172625823589172
1.189000000000000945,0.014875470226238707
1.190000000000000835,0.013589253292922418
1.191000000000000725,0.012313964306306175
1.192000000000000837,0.011049592057018342
1.193000000000000949,0.009796124849962382
1.194000000000000838,0.008553550510509217
1.195000000000000728,0.007321856390704947
1.196000000000000840,0.006101029375395500
1.197000000000000952,0.004891055888315479
1.198000000000000842,0.003691921898143271
1.199000000000000732,0.002503612924486684
1.200000000000000844,0.001326114043854802
1.201000000000000956,0.000159409895544763
1.202000000000000846,-0.000996515312473642
1.203000000000000735,-0.002141677797755474
1.204000000000000847,-0.003276094197594565
1.205000000000000959,-0.004399781563303148
1.206000000000000849,-0.005512757354520476
1.207000000000000739,-0.006615039433576872
1.208000000000000851,-0.007706646059893693
1.209000000000000963,-0.008787595884436181
1.210000000000000853,-0.009857907944195290
1.211000000000000743,-0.010917601656735724
1.212000000000000854,-0.011966696814759162
1.213000000000000966,-0.013005213580741897
1.214000000000000856,-0.014033172481586744
1.215000000000000746,-0.015050594403336805
1.216000000000000858,-0.016057500585929065
1.217000000000000970,-0.017053912617978294
1.218000000000000860,-0.018039852431617757
1.219000000000000750,-0.019015342297384108
1.220000000000000862,-0.019980404819125022
1.221000000000000973,-0.020935062928965759
1.222000000000000863,-0.021879339882316294
1.223000000000000753,-0.022813259252911292
1.224000000000000865,-0.023736844927894220
1.225000000000000977,-0.024650121102957036
1.226000000000000867,-0.025553112277492240
1.227000000000000757,-0.026445843249814409
1.228000000000000869,-0.027328339112396172
1.229000000000000981,-0.028200625247179107
1.230000000000000870,-0.029062727320879521
1.231000000000000760,-0.029914671280375272
1.232000000000000872,-0.030756483348112901
1.233000000000000984,-0.031588190017543816
1.234000000000000874,-0.032409818048637067
1.235000000000000764,-0.033221394463381140
1.236000000000000876,-0.034022946541370454
1.237000000000000988,-0.034814501815398857
1.238000000000000878,-0.035596088067109274
1.239000000000000767,-0.036367733322677016
1.240000000000000879,-0.037129465848528088
1.241000000000000991,-0.037881314147095183
1.242000000000000881,-0.038623306952619951
1.243000000000000771,-0.039355473226985592
1.244000000000000883,-0.040077842155581030
1.245000000000000995,-0.040790443143217607
1.246000000000000885,-0.041493305810075015
1.247000000000000774,-0.042186459987677664
1.248000000000000886,-0.042869935714914362
1.249000000000000998,-0.043543763234099017
1.250000000000000888,-0.044207972987056213
1.251000000000000778,-0.044862595611248404
1.252000000000000890,-0.045507661935943668
1.253000000000001002,-0.046143202978405407
1.254000000000000892,-0.046769249940138299
1.255000000000000782,-0.047385834203142914
1.256000000000000894,-0.047992987326234977
1.257000000000001005,-0.048590741041368075
1.258000000000000895,-0.049179127250019002
1.259000000000000785,-0.049758178019586381
1.260000000000000897,-0.050327925579838048
1.261000000000001009,-0.050888402319383783
1.262000000000000899,-0.051439640782180773
1.263000000000000789,-0.051981673664081331
1.264000000000000901,-0.052514533809409777
1.265000000000001013,-0.053038254207562273
1.266000000000000902,-0.053552867989653342
1.267000000000000792,-0.054058408425195201
1.268000000000000904,-0.054554908918794533
1.269000000000001016,-0.055042403006898374
1.270000000000000906,-0.055520924354562441
1.271000000000000796,-0.055990506752254629
1.272000000000000908,-0.056451184112685668
1.273000000000001020,-0.056902990467681880
1.274000000000000909,-0.057345959965075813
1.275000000000000799,-0.057780126865634676
1.276000000000000911,-0.058205525540026046
1.277000000000001023,-0.058622190465797253
1.278000000000000913,-0.059030156224403031
1.279000000000000803,-0.059429457498250279
1.280000000000000915,-0.059820129067785353
1.281000000000001027,-0.060202205808590571
1.282000000000000917,-0.060575722688540209
1.283000000000000806,-0.060940714764957285
1.284000000000000918,-0.061297217181815654
1.285000000000001030,-0.061645265166967736
1.286000000000000920,-0.061984894029402063
1.287000000000000810,-0.062316139156520192
1.288000000000000922,-0.062639036011462756
1.289000000000001034,-0.062953620130437635
1.290000000000000924,-0.063259927120093692
1.291000000000000814,-0.063557992654925163
1.292000000000000925,-0.063847852474682013
1.293000000000001037,-0.064129542381837240
1.294000000000000927,-0.064403098239054976
1.295000000000000817,-0.064668555966703734
1.296000000000000929,-0.064925951540387730
1.297000000000001041,-0.065175320988500360
1.298000000000000931,-0.065416700389826984
1.299000000000000821,-0.065650125871142551
1.300000000000000933,-0.065875633604853753
1.301000000000001044,-0.066093259806670995
1.302000000000000934,-0.066303040733289784
1.303000000000000824,-0.066505012680115924
1.304000000000000936,-0.066699211978995490
1.305000000000001048,-0.066885674995996222
1.306000000000000938,-0.067064438129188081
1.307000000000000828,-0.067235537806460965
1.308000000000000940,-0.067399010483369395
1.309000000000001052,-0.067554892640998093
1.310000000000000941,-0.067703220783852436
1.311000000000000831,-0.067844031437764754
1.312000000000000943,-0.067977361147836882
1.313000000000001055,-0.068103246476411375
1.314000000000000945,-0.068221724001042275
1.315000000000000835,-0.068332830312504228
1.316000000000000947,-0.068436602012836051
1.317000000000001059,-0.068533075713385266
1.318000000000000949,-0.068622288032885032
1.319000000000000838,-0.068704275595560943
1.320000000000000950,-0.068779075029251693
1.321000000000001062,-0.068846722963545798
1.322000000000000952,-0.068907256027957470
1.323000000000000842,-0.068960710850113724
1.324000000000000954,-0.069007124053963170
1.325000000000001066,-0.069046532258007082
1.326000000000000956,-0.069078972073559175
1.327000000000000846,-0.069104480103010305
1.328000000000000957,-0.069123092938135872
1.329000000000001069,-0.069134847158402693
1.330000000000000959,-0.069139779329316364
1.331000000000000849,-0.069137926000771621
1.332000000000000961,-0.069129323705433607
1.333000000000001073,-0.069114008957138415
1.334000000000000963,-0.069092018249311812
1.335000000000000853,-0.069063388053402799
1.336000000000000965,-0.069028154817355108
1.337000000000001076,-0.068986354964071253
1.338000000000000966,-0.068938024889919666
1.339000000000000856,-0.068883200963250291
1.340000000000000968,-0.068821919522926600
1.341000000000001080,-0.068754216876885252
1.342000000000000970,-0.068680129300710546
1.343000000000000860,-0.068599693036222334
1.344000000000000972,-0.068512944290093580
1.345000000000001084,-0.068419919232479767
1.346000000000000973,-0.068320653995656760
1.347000000000000863,-0.068215184672701518
1.348000000000000975,-0.068103547316162638
1.349000000000001087,-0.067985777936771269
1.350000000000000977,-0.067861912502156591
1.351000000000000867,-0.067731986935581801
1.352000000000000979,-0.067596037114697777
1.353000000000001091,-0.067454098870316434
1.354000000000000981,-0.067306207985201774
1.355000000000000870,-0.067152400192861353
1.356000000000000982,-0.066992711176384140
1.357000000000001094,-0.066827176567271884
1.358000000000000984,-0.066655831944288396
1.359000000000000874,-0.066478712832339609
1.360000000000000986,-0.066295854701355877
1.361000000000001098,-0.066107292965198086
1.362000000000000988,-0.065913062980568135
1.363000000000000878,-0.065713200045955350
1.364000000000000989,-0.065507739400581674
1.365000000000001101,-0.065296716223360710
1.366000000000000991,-0.065080165631889036
1.367000000000000881,-0.064858122681438757
1.368000000000000993,-0.064630622363965440
1.369000000000001105,-0.064397699607135886
1.370000000000000995,-0.064159389273372544
1.371000000000000885,-0.063915726158904923
1.372000000000000997,-0.063666744992839752
1.373000000000001108,-0.063412480436251653
1.374000000000000998,-0.063152967081263070
1.375000000000000888,-0.062888239450186872
1.376000000000001000,-0.062618331994625992
1.377000000000001112,-0.062343279094627245
1.378000000000001002,-0.062063115057832741
1.379000000000000892,-0.061777874118649281
1.380000000000001004,-0.061487590437425264
1.381000000000001116,-0.061192298099650808
1.382000000000001005,-0.060892031115162816
1.383000000000000895,-0.060586823417363801
1.384000000000001007,-0.060276708862464480
1.385000000000001119,-0.059961721228718609
1.386000000000001009,-0.059641894215693457
1.387000000000000899,-0.059317261443532276
1.388000000000001011,-0.058987856452253150
1.389000000000001123,-0.058653712701027316
1.390000000000001013,-0.058314863567505523
1.391000000000000902,-0.057971342347127731
1.392000000000001014,-0.057623182252465231
1.393000000000001126,-0.057270416412560962
1.394000000000001016,-0.056913077872290309
1.395000000000000906,-0.056551199591727552
1.396000000000001018,-0.056184814445524742
1.397000000000001130,-0.055813955222310786
1.398000000000001020,-0.055438654624090020
1.399000000000000909,-0.055058945265655065
1.400000000000001021,-0.054674859674015419
1.401000000000001133,-0.054286430287838569
1.402000000000001023,-0.053893689456889680
1.403000000000000913,-0.053496669441493630
1.404000000000001025,-0.053095402412007053
1.405000000000001137,-0.052689920448296387
1.406000000000001027,-0.052280255539222421
1.407000000000000917,-0.051866439582158960
1.408000000000001029,-0.051448504382478319
1.409000000000001140,-0.051026481653094223
1.410000000000001030,-0.050600403013985232
1.411000000000000920,-0.050170299991736236
1.412000000000001032,-0.049736204019083706
1.413000000000001144,-0.049298146434493789
1.414000000000001034,-0.048856158481714963
1.415000000000000924,-0.048410271309366530
1.416000000000001036,-0.047960515970530394
1.417000000000001148,-0.047506923422348607
1.418000000000001037,-0.047049524525630097
1.419000000000000927,-0.046588350044468506
1.420000000000001039,-0.046123430645871079
1.421000000000001151,-0.045654796899396853
1.422000000000001041,-0.045182479276797485
1.423000000000000931,-0.044706508151670613
1.424000000000001043,-0.044226913799123121
1.425000000000001155,-0.043743726395447408
1.426000000000001044,-0.043256976017794449
1.427000000000000934,-0.042766692643865581
1.428000000000001046,-0.042272906151606018
1.429000000000001158,-0.041775646318912049
1.430000000000001048,-0.041274942823344894
1.431000000000000938,-0.040770825241848878
1.432000000000001050,-0.040263323050483545
1.433000000000001162,-0.039752465624161529
1.434000000000001052,-0.039238282236384828
1.435000000000000941,-0.038720802059013022
1.436000000000001053,-0.038200054162009382
1.437000000000001165,-0.037676067513215492
1.438000000000001055,-0.037148870978129835
1.439000000000000945,-0.036618493319681970
1.440000000000001057,-0.036084963198033240
1.441000000000001169,-0.035548309170365319
1.442000000000001059,-0.035008559690686378
1.443000000000000949,-0.034465743109657818
1.444000000000001060,-0.033919887674391247
1.445000000000001172,-0.033371021528283626
1.446000000000001062,-0.032819172710862064
1.447000000000000952,-0.032264369157601065
1.448000000000001064,-0.031706638699787883
1.449000000000001176,-0.031146009064368291
1.450000000000001066,-0.030582507873805544
1.451000000000000956,-0.030016162645947569
1.452000000000001068,-0.029447000793900797
1.453000000000001180,-0.028875049625908079
1.454000000000001069,-0.028300336345236553
1.455000000000000959,-0.027722888050065279
1.456000000000001071,-0.027142731733382719
1.457000000000001183,-0.026559894282899288
1.458000000000001073,-0.025974402480944504
1.459000000000000963,-0.025386283004392031
1.460000000000001075,-0.024795562424579146
1.461000000000001187,-0.024202267207228657
1.462000000000001076,-0.023606423712395845
1.463000000000000966,-0.023008058194388080
1.464000000000001078,-0.022407196801725506
1.465000000000001190,-0.021803865577088424
1.466000000000001080,-0.021198090457259535
1.467000000000000970,-0.020589897273102918
1.468000000000001082,-0.019979311749520723
1.469000000000001194,-0.019366359505424289
1.470000000000001084,-0.018751066053713232
1.471000000000000973,-0.018133456801255811
1.472000000000001085,-0.017513557048880270
1.473000000000001197,-0.016891391991361530
1.474000000000001087,-0.016266986717418049
1.475000000000000977,-0.015640366209716455
1.476000000000001089,-0.015011555344880970
1.477000000000001201,-0.014380578893497498
1.478000000000001091,-0.013747461520133902
1.479000000000000981,-0.013112227783363049
1.480000000000001092,-0.012474902135780801
1.481000000000001204,-0.011835508924049059
1.482000000000001094,-0.011194072388913307
1.483000000000000984,-0.010550616665257615
1.484000000000001096,-0.009905165782140419
1.485000000000001208,-0.009257743662834755
1.486000000000001098,-0.008608374124898151
1.487000000000000988,-0.007957080880213546
1.488000000000001100,-0.007303887535054033
1.489000000000001211,-0.006648817590149303
1.490000000000001101,-0.005991894440754791
1.491000000000000991,-0.005333141376716109
1.492000000000001103,-0.004672581582559984
1.493000000000001215,-0.004010238137557551
1.494000000000001105,-0.003346134015820396
1.495000000000000995,-0.002680292086385583
1.496000000000001107,-0.002012735113306956
1.497000000000001219,-0.001343485755747112
1.498000000000001108,-0.000672566568082882
1.499000000000000998,0.000000000000000000
