# Al2O3-001_BSAI13
# h[nm],U(h)[kJ/mol]
0.149999999999999994,133.762043008861922999
0.150999999999999995,133.034263484670816524
0.151999999999999996,130.789166472946646991
0.152999999999999997,128.235973669912993955
0.153999999999999998,125.817557625205566296
0.154999999999999999,123.619766221161128783
0.156000000000000000,121.590344153322121201
0.157000000000000001,119.646705714501308648
0.158000000000000002,117.721630602402768773
0.159000000000000002,115.776479593631322018
0.160000000000000003,113.799169126442350830
0.161000000000000004,111.796464071088692549
0.162000000000000005,109.785502153765378353
0.163000000000000006,107.786753347563106331
0.164000000000000007,105.819117158237872900
0.165000000000000008,103.897096472721884197
0.166000000000000009,102.029654287542626889
0.167000000000000010,100.220267630888400845
0.168000000000000010,98.467723780526313249
0.169000000000000011,96.767287806324489452
0.170000000000000012,95.111968310361163503
0.171000000000000013,93.493699653800831584
0.172000000000000014,91.904334932514103684
0.173000000000000015,90.336401967053149065
0.174000000000000016,88.783615532613779919
0.175000000000000017,87.241165496200025586
0.176000000000000018,85.705815493781756231
0.177000000000000018,84.175853236106917166
0.178000000000000019,82.650934077630594743
0.179000000000000020,81.131856242063761897
0.180000000000000021,79.620300710105979647
0.181000000000000022,78.118562441988387945
0.182000000000000023,76.629293162344993107
0.183000000000000024,75.155269915180639373
0.184000000000000025,73.699198314049439773
0.185000000000000026,72.263555013546678651
0.186000000000000026,70.850470444236890444
0.187000000000000027,69.461650240062382977
0.188000000000000028,68.098331955675860172
0.189000000000000029,66.761272508483358479
0.190000000000000030,65.450761166464715757
0.191000000000000031,64.166652721039099561
0.192000000000000032,62.908415626836607260
0.193000000000000033,61.675190262779594264
0.194000000000000034,60.465852991523107107
0.195000000000000034,59.279082301867234150
0.196000000000000035,58.113423959902661409
0.197000000000000036,56.967352730510050662
0.198000000000000037,55.839328833353775394
0.199000000000000038,54.727847847744385490
0.200000000000000039,53.631483267174260732
0.201000000000000040,52.548921321314402633
0.202000000000000041,51.478988029665813997
0.203000000000000042,50.420668729062775526
0.204000000000000042,49.373120531319294457
0.205000000000000043,48.335678323491002573
0.206000000000000044,47.307855028325477065
0.207000000000000045,46.289336903680265323
0.208000000000000046,45.279974684142544561
0.209000000000000047,44.279771362621310971
0.210000000000000048,43.288867380644560967
0.211000000000000049,42.307523949209539182
0.212000000000000050,41.336105162359686460
0.213000000000000050,40.375059497570553901
0.214000000000000051,39.424901224204411676
0.215000000000000052,38.486192166788015356
0.216000000000000053,37.559524196130411156
0.217000000000000054,36.645502750239572265
0.218000000000000055,35.744731620054423615
0.219000000000000056,34.857799173206203136
0.220000000000000057,33.985266133025092472
0.221000000000000058,33.127654980198450119
0.222000000000000058,32.285441000987802340
0.223000000000000059,31.459044968674827913
0.224000000000000060,30.648827413714752055
0.225000000000000061,29.855084412610437994
0.226000000000000062,29.078044805379580140
0.227000000000000063,28.317868736214006020
0.228000000000000064,27.574647401041470829
0.229000000000000065,26.848403878695297209
0.230000000000000066,26.139094918785151123
0.231000000000000066,25.446613558658924603
0.232000000000000067,24.770792443597279942
0.233000000000000068,24.111407728156883934
0.234000000000000069,23.468183441983523352
0.235000000000000070,22.840796210091202312
0.236000000000000071,22.228880225225488232
0.237000000000000072,21.632032378212947776
0.238000000000000073,21.049817460894153953
0.239000000000000073,20.481773365130642617
0.240000000000000074,19.927416210280409103
0.241000000000000075,19.386245340305006124
0.242000000000000076,18.857748140173992368
0.243000000000000077,18.341404629372895840
0.244000000000000078,17.836691798021224287
0.245000000000000079,17.343087658309933374
0.246000000000000080,16.860074990635286696
0.247000000000000081,16.387144769910868547
0.248000000000000081,15.923799263074664978
0.249000000000000082,15.469554793769489720
0.250000000000000111,15.023944174573419019
0.251000000000000112,14.586518811008417629
0.252000000000000113,14.156850484880095564
0.253000000000000114,13.734532827330188098
0.254000000000000115,13.319182494340271461
0.255000000000000115,12.910440059347928710
0.256000000000000116,12.507970639155029602
0.257000000000000117,12.111464270458004222
0.258000000000000118,11.720636055146687937
0.259000000000000119,11.335226093033806904
0.260000000000000120,10.954999220925749626
0.261000000000000121,10.579744576959168256
0.262000000000000122,10.209275008935284390
0.263000000000000123,9.843426345016101919
0.264000000000000123,9.482056544628006733
0.265000000000000124,9.125044746775675009
0.266000000000000125,8.772290232223795670
0.267000000000000126,8.423711315178749715
0.268000000000000127,8.079244179213858956
0.269000000000000128,7.738841671249844012
0.270000000000000129,7.402472066439711895
0.271000000000000130,7.070117815829330077
0.272000000000000131,6.741774287683256262
0.273000000000000131,6.417448512389827719
0.274000000000000132,6.097157939899496171
0.275000000000000133,5.780929217713196344
0.276000000000000134,5.468796996529403209
0.277000000000000135,5.160802769785647115
0.278000000000000136,4.856993752494636496
0.279000000000000137,4.557421803982355968
0.280000000000000138,4.262142398386938424
0.281000000000000139,3.971213646073387338
0.282000000000000139,3.684695368463649423
0.283000000000000140,3.402648228172034273
0.284000000000000141,3.125132915774363696
0.285000000000000142,2.852209394023827116
0.286000000000000143,2.583936199856751159
0.287000000000000144,2.320369804106690026
0.288000000000000145,2.061564028462414377
0.289000000000000146,1.807569518865474123
0.290000000000000147,1.558433274240686783
0.291000000000000147,1.314198229189978306
0.292000000000000148,1.074902889050946220
0.293000000000000149,0.840581015527390507
0.294000000000000150,0.611261360934708509
0.295000000000000151,0.386967448969126604
0.296000000000000152,0.167717399801820821
0.297000000000000153,-0.046476202783255705
0.298000000000000154,-0.255606404549027499
0.299000000000000155,-0.459671936642298884
0.300000000000000155,-0.658677236507984265
0.301000000000000156,-0.852632436283010220
0.302000000000000157,-1.041553321060215254
0.303000000000000158,-1.225461259385890900
0.304000000000000159,-1.404383108316756168
0.305000000000000160,-1.578351095312974461
0.306000000000000161,-1.747402679186074170
0.307000000000000162,-1.911580392254706551
0.308000000000000163,-2.070931665788643183
0.309000000000000163,-2.225508640743463218
0.310000000000000164,-2.375367965706080664
0.311000000000000165,-2.520570583885205718
0.312000000000000166,-2.661181510892497659
0.313000000000000167,-2.797269604969733869
0.314000000000000168,-2.928907331225986788
0.315000000000000169,-3.056170521357034264
0.316000000000000170,-3.179138130227616266
0.317000000000000171,-3.297891990606073076
0.318000000000000171,-3.412516567251155486
0.319000000000000172,-3.523098711462685717
0.320000000000000173,-3.629727417121173083
0.321000000000000174,-3.732493579157390773
0.322000000000000175,-3.831489755311416445
0.323000000000000176,-3.926809931961402267
0.324000000000000177,-4.018549294726363463
0.325000000000000178,-4.106804004473933567
0.326000000000000179,-4.191670979294309873
0.327000000000000179,-4.273247682934355751
0.328000000000000180,-4.351631920122496666
0.329000000000000181,-4.426921639154660859
0.330000000000000182,-4.499214742054169491
0.331000000000000183,-4.568608902565147289
0.332000000000000184,-4.635201392187950020
0.333000000000000185,-4.699088914417974827
0.334000000000000186,-4.760367447305021038
0.335000000000000187,-4.819132094408880462
0.336000000000000187,-4.875476944189079731
0.337000000000000188,-4.929494937830813051
0.338000000000000189,-4.981277745477202146
0.339000000000000190,-5.030915650807919803
0.340000000000000191,-5.078497443876907269
0.341000000000000192,-5.124110322097690684
0.342000000000000193,-5.167839799242071486
0.343000000000000194,-5.209769622298360936
0.344000000000000195,-5.249981696017052002
0.345000000000000195,-5.288556014956727225
0.346000000000000196,-5.325570602828498146
0.347000000000000197,-5.361101458925867647
0.348000000000000198,-5.395222511416420730
0.349000000000000199,-5.428005577263240511
0.350000000000000200,-5.459520328536952682
0.351000000000000201,-5.489834264873620029
0.352000000000000202,-5.519012691829392026
0.353000000000000203,-5.547118704879919093
0.354000000000000203,-5.574213178810500935
0.355000000000000204,-5.600354762242057305
0.356000000000000205,-5.625599877038285790
0.357000000000000206,-5.650002722340392580
0.358000000000000207,-5.673615282977306329
0.359000000000000208,-5.696487342002269472
0.360000000000000209,-5.718666497109735403
0.361000000000000210,-5.740198180690240903
0.362000000000000210,-5.761125683285531984
0.363000000000000211,-5.781490180210875351
0.364000000000000212,-5.801330761116925139
0.365000000000000213,-5.820684462268979509
0.366000000000000214,-5.839586301327618578
0.367000000000000215,-5.858069314420733420
0.368000000000000216,-5.876164595303693616
0.369000000000000217,-5.893901336410668712
0.370000000000000218,-5.911306871607342472
0.371000000000000218,-5.928406720461731005
0.372000000000000219,-5.945224633857134400
0.373000000000000220,-5.961782640778176656
0.374000000000000221,-5.978101096107830692
0.375000000000000222,-5.994198729280457272
0.376000000000000223,-6.010092693643085404
0.377000000000000224,-6.025798616383772455
0.378000000000000225,-6.041330648893124433
0.379000000000000226,-6.056701517431636539
0.380000000000000226,-6.071922573982488913
0.381000000000000227,-6.087003847175716409
0.382000000000000228,-6.101954093176498617
0.383000000000000229,-6.116780846436414620
0.384000000000000230,-6.131490470212742849
0.385000000000000231,-6.146088206767101880
0.386000000000000232,-6.160578227160363518
0.387000000000000233,-6.174963680566682100
0.388000000000000234,-6.189246743034849452
0.389000000000000234,-6.203428665630790206
0.390000000000000235,-6.217509821899892763
0.391000000000000236,-6.231489754593193098
0.392000000000000237,-6.245367221605944152
0.393000000000000238,-6.259140241082063127
0.394000000000000239,-6.272806135642076342
0.395000000000000240,-6.286361575696745696
0.396000000000000241,-6.299802621812463421
0.397000000000000242,-6.313124766098486162
0.398000000000000242,-6.326322972589854210
0.399000000000000243,-6.339391716603282489
0.400000000000000244,-6.352325023046826225
0.401000000000000245,-6.365116503667340275
0.402000000000000246,-6.377759393222600437
0.403000000000000247,-6.390246584568179067
0.404000000000000248,-6.402570662651619671
0.405000000000000249,-6.414723937409182675
0.406000000000000250,-6.426698475562763413
0.407000000000000250,-6.438486131317004535
0.408000000000000251,-6.450078575958590577
0.409000000000000252,-6.461467326361902686
0.410000000000000253,-6.472643772406868834
0.411000000000000254,-6.483599203316833481
0.412000000000000255,-6.494324832925606472
0.413000000000000256,-6.504811823884679711
0.414000000000000257,-6.515051310822602026
0.415000000000000258,-6.525034422470177731
0.416000000000000258,-6.534752302765943099
0.417000000000000259,-6.544196130957770308
0.418000000000000260,-6.553357140717126939
0.419000000000000261,-6.562226638283663149
0.420000000000000262,-6.570796019658341258
0.421000000000000263,-6.579056786864279971
0.422000000000000264,-6.587000563294734157
0.423000000000000265,-6.594619108168684463
0.424000000000000266,-6.601904330114538588
0.425000000000000266,-6.608848299903023360
0.426000000000000267,-6.615443262350725107
0.427000000000000268,-6.621681647416020944
0.428000000000000269,-6.627556080509132919
0.429000000000000270,-6.633059392038593849
0.430000000000000271,-6.638184626216110829
0.431000000000000272,-6.642925049142251126
0.432000000000000273,-6.647274156195036809
0.433000000000000274,-6.651225678743851510
0.434000000000000274,-6.654773590210703915
0.435000000000000275,-6.657912111500992935
0.436000000000000276,-6.660635715825703684
0.437000000000000277,-6.662939132936763542
0.438000000000000278,-6.664817352797149042
0.439000000000000279,-6.666265628707134461
0.440000000000000280,-6.667279479907675110
0.441000000000000281,-6.667854693681829481
0.442000000000000282,-6.667987326974754936
0.443000000000000282,-6.667673707552376428
0.444000000000000283,-6.666910434718785083
0.445000000000000284,-6.665694379611740494
0.446000000000000285,-6.664022685095526199
0.447000000000000286,-6.661892765270037486
0.448000000000000287,-6.659302304614338475
0.449000000000000288,-6.656249256782915680
0.450000000000000289,-6.652731843072125173
0.451000000000000290,-6.648748550574085314
0.452000000000000290,-6.644298130034909100
0.453000000000000291,-6.639379593433512028
0.454000000000000292,-6.633992211297122132
0.455000000000000293,-6.628135509768926958
0.456000000000000294,-6.621809267443053315
0.457000000000000295,-6.615013511981556960
0.458000000000000296,-6.607748516527642835
0.459000000000000297,-6.600014795929074474
0.460000000000000298,-6.591813102785093470
0.461000000000000298,-6.583144423329902573
0.462000000000000299,-6.574009973165319209
0.463000000000000300,-6.564411192854696431
0.464000000000000301,-6.554349743389981775
0.465000000000000302,-6.543827501543165504
0.466000000000000303,-6.532846555113157372
0.467000000000000304,-6.521409198078588432
0.468000000000000305,-6.509517925666770566
0.469000000000000306,-6.497175429348492237
0.470000000000000306,-6.484384591768244555
0.471000000000000307,-6.471148481618667070
0.472000000000000308,-6.457470348468104859
0.473000000000000309,-6.443353617549466783
0.474000000000000310,-6.428801884518355436
0.475000000000000311,-6.413818910188131994
0.476000000000000312,-6.398408615249162601
0.477000000000000313,-6.382575074979212282
0.478000000000000314,-6.366322513951568673
0.479000000000000314,-6.349655300747336639
0.480000000000000315,-6.332577942677722227
0.481000000000000316,-6.315095080522238113
0.482000000000000317,-6.297211483288044143
0.483000000000000318,-6.278932042995721829
0.484000000000000319,-6.260261769496254125
0.485000000000000320,-6.241205785323842292
0.486000000000000321,-6.221769320588899532
0.487000000000000322,-6.201957707915298101
0.488000000000000322,-6.181776377425665103
0.489000000000000323,-6.161230851778450202
0.490000000000000324,-6.140326741260011545
0.491000000000000325,-6.119069738934955538
0.492000000000000326,-6.097465615857587728
0.493000000000000327,-6.075520216347344515
0.494000000000000328,-6.053239453330531816
0.495000000000000329,-6.030629303750954406
0.496000000000000330,-6.007695804051298438
0.497000000000000330,-5.984445045727562196
0.498000000000000331,-5.960883170957980148
0.499000000000000332,-5.937016368308396963
0.500000000000000333,-5.912850868515350022
0.501000000000000334,-5.888392940348216698
0.502000000000000335,-5.863648886551657391
0.503000000000000336,-5.838625039869318911
0.504000000000000337,-5.813327759149710339
0.505000000000000338,-5.787763425535005446
0.506000000000000338,-5.761938438733386292
0.507000000000000339,-5.735859213375507970
0.508000000000000340,-5.709532175455350966
0.509000000000000341,-5.682963758855962055
0.510000000000000342,-5.656160401960030448
0.511000000000000343,-5.629128544345591401
0.512000000000000344,-5.601874623566700961
0.513000000000000345,-5.574405072019084528
0.514000000000000346,-5.546726313890578908
0.515000000000000346,-5.518844762195987741
0.516000000000000347,-5.490766815896170883
0.517000000000000348,-5.462498857100883676
0.518000000000000349,-5.434047248354829662
0.519000000000000350,-5.405418330006532379
0.520000000000000351,-5.376618417659246418
0.521000000000000352,-5.347653799703422806
0.522000000000000353,-5.318530734929870718
0.523000000000000353,-5.289255450222908550
0.524000000000000354,-5.259834138332759146
0.525000000000000355,-5.230272955726187334
0.526000000000000356,-5.200578020514605271
0.527000000000000357,-5.170755410458705903
0.528000000000000358,-5.140811161048538303
0.529000000000000359,-5.110751263658208643
0.530000000000000360,-5.080581663773989121
0.531000000000000361,-5.050308259294931545
0.532000000000000361,-5.019936898904785672
0.533000000000000362,-4.989473380514197309
0.534000000000000363,-4.958923449772018266
0.535000000000000364,-4.928292798644607231
0.536000000000000365,-4.897587064061925233
0.537000000000000366,-4.866811826629332316
0.538000000000000367,-4.835972609403752287
0.539000000000000368,-4.805074876733220535
0.540000000000000369,-4.774124033158379632
0.541000000000000369,-4.743125422374919076
0.542000000000000370,-4.712084326255555844
0.543000000000000371,-4.681005963930489955
0.544000000000000372,-4.649895490924999208
0.545000000000000373,-4.618757998353031802
0.546000000000000374,-4.587598512165492082
0.547000000000000375,-4.556421992452029279
0.548000000000000376,-4.525233332795162156
0.549000000000000377,-4.494037359675408183
0.550000000000000377,-4.462838831926315031
0.551000000000000378,-4.431642440238061198
0.552000000000000379,-4.400452806708599063
0.553000000000000380,-4.369274484440949458
0.554000000000000381,-4.338111957185571299
0.555000000000000382,-4.306969639026683616
0.556000000000000383,-4.275851874111160633
0.557000000000000384,-4.244762936419122390
0.558000000000000385,-4.213707029574804253
0.559000000000000385,-4.182688286696771840
0.560000000000000386,-4.151710770286245911
0.561000000000000387,-4.120778472152464289
0.562000000000000388,-4.089895313373952845
0.563000000000000389,-4.059065144294676131
0.564000000000000390,-4.028291744553942344
0.565000000000000391,-3.997578823149004368
0.566000000000000392,-3.966930018529365221
0.567000000000000393,-3.936348898721724332
0.568000000000000393,-3.905838961484532579
0.569000000000000394,-3.875403634491169758
0.570000000000000395,-3.845046275540849656
0.571000000000000396,-3.814770172796085212
0.572000000000000397,-3.784578545046008546
0.573000000000000398,-3.754474541994405001
0.574000000000000399,-3.724461244571677376
0.575000000000000400,-3.694541665269754027
0.576000000000000401,-3.664718748499084633
0.577000000000000401,-3.634995370966927819
0.578000000000000402,-3.605374342075911898
0.579000000000000403,-3.575858404342171948
0.580000000000000404,-3.546450233832231014
0.581000000000000405,-3.517152440617734133
0.582000000000000406,-3.487967569247342858
0.583000000000000407,-3.458898099234949619
0.584000000000000408,-3.429946445563528012
0.585000000000000409,-3.401114959203813903
0.586000000000000409,-3.372405927647105450
0.587000000000000410,-3.343821575451558115
0.588000000000000411,-3.315364064801137545
0.589000000000000412,-3.287035496076720076
0.590000000000000413,-3.258837908438533049
0.591000000000000414,-3.230773280419396265
0.592000000000000415,-3.202843530528121985
0.593000000000000416,-3.175050517862390898
0.594000000000000417,-3.147396042730572940
0.595000000000000417,-3.119881847281980036
0.596000000000000418,-3.092509616144734075
0.597000000000000419,-3.065280977071068058
0.598000000000000420,-3.038197501589138927
0.599000000000000421,-3.011260705661144677
0.600000000000000422,-2.984472050347031225
0.601000000000000423,-2.957832942473397342
0.602000000000000424,-2.931344735307078508
0.603000000000000425,-2.905008729232966491
0.604000000000000425,-2.878826172435565933
0.605000000000000426,-2.852798261583900263
0.606000000000000427,-2.826926142519349927
0.607000000000000428,-2.801210910945866495
0.608000000000000429,-2.775653613122426755
0.609000000000000430,-2.750255246557016253
0.610000000000000431,-2.725016760702068996
0.611000000000000432,-2.699939057650768692
0.612000000000000433,-2.675022992833968605
0.613000000000000433,-2.650269375717385856
0.614000000000000434,-2.625678970498715348
0.615000000000000435,-2.601252496804313807
0.616000000000000436,-2.576990630385195935
0.617000000000000437,-2.552894003812077539
0.618000000000000438,-2.528963207169069971
0.619000000000000439,-2.505198788745789606
0.620000000000000440,-2.481601255727721611
0.621000000000000441,-2.458171074884397900
0.622000000000000441,-2.434908673255308464
0.623000000000000442,-2.411814438833183694
0.624000000000000443,-2.388888721244492253
0.625000000000000444,-2.366131832426938253
0.626000000000000445,-2.343544047303657951
0.627000000000000446,-2.321125604454058244
0.628000000000000447,-2.298876706780958123
0.629000000000000448,-2.276797522173954480
0.630000000000000449,-2.254888184168763132
0.631000000000000449,-2.233148792602414723
0.632000000000000450,-2.211579414264122967
0.633000000000000451,-2.190180083541677813
0.634000000000000452,-2.168950803063189436
0.635000000000000453,-2.147891544334106229
0.636000000000000454,-2.127002248369274540
0.637000000000000455,-2.106282826320053925
0.638000000000000456,-2.085733160096207683
0.639000000000000457,-2.065353102982589117
0.640000000000000457,-2.045142480250459194
0.641000000000000458,-2.025101089763304163
0.642000000000000459,-2.005228702577164235
0.643000000000000460,-1.985525063535231283
0.644000000000000461,-1.965989891856791960
0.645000000000000462,-1.946622881720328824
0.646000000000000463,-1.927423702840738162
0.647000000000000464,-1.908392001040609687
0.648000000000000465,-1.889527398815524561
0.649000000000000465,-1.870829495893235661
0.650000000000000466,-1.852297869786793783
0.651000000000000467,-1.833932076341443507
0.652000000000000468,-1.815731650275375531
0.653000000000000469,-1.797696105714169379
0.654000000000000470,-1.779824936719019757
0.655000000000000471,-1.762117617808604209
0.656000000000000472,-1.744573604474623618
0.657000000000000473,-1.727192333690982462
0.658000000000000473,-1.709973224416606374
0.659000000000000474,-1.692915678091820197
0.660000000000000475,-1.676019079128379996
0.661000000000000476,-1.659282795393012266
0.662000000000000477,-1.642706178684602891
0.663000000000000478,-1.626288565204892844
0.664000000000000479,-1.610029276022829858
0.665000000000000480,-1.593927617532392649
0.666000000000000481,-1.577982881904112400
0.667000000000000481,-1.562194347530073912
0.668000000000000482,-1.546561279462640659
0.669000000000000483,-1.531082929846685925
0.670000000000000484,-1.515758538345530981
0.671000000000000485,-1.500587332560510578
0.672000000000000486,-1.485568528444198400
0.673000000000000487,-1.470701330707379517
0.674000000000000488,-1.455984933219674593
0.675000000000000488,-1.441418519403948606
0.676000000000000489,-1.427001262624529421
0.677000000000000490,-1.412732326569158703
0.678000000000000491,-1.398610865624845490
0.679000000000000492,-1.384636025247567570
0.680000000000000493,-1.370806942325880851
0.681000000000000494,-1.357122745538485997
0.682000000000000495,-1.343582555705758130
0.683000000000000496,-1.330185486135335937
0.684000000000000496,-1.316930642961742226
0.685000000000000497,-1.303817125480123629
0.686000000000000498,-1.290844026474153416
0.687000000000000499,-1.278010432538111418
0.688000000000000500,-1.265315424393204546
0.689000000000000501,-1.252758077198193876
0.690000000000000502,-1.240337460854342044
0.691000000000000503,-1.228052640304748477
0.692000000000000504,-1.215902675828096191
0.693000000000000504,-1.203886623326938521
0.694000000000000505,-1.192003534610431625
0.695000000000000506,-1.180252457671739919
0.696000000000000507,-1.168632436960017174
0.697000000000000508,-1.157142513647091642
0.698000000000000509,-1.145781725888917801
0.699000000000000510,-1.134549109081775198
0.700000000000000511,-1.123443696113364920
0.701000000000000512,-1.112464517608781067
0.702000000000000512,-1.101610602171444464
0.703000000000000513,-1.090880976619051923
0.704000000000000514,-1.080274666214603219
0.705000000000000515,-1.069790694892533311
0.706000000000000516,-1.059428085480040638
0.707000000000000517,-1.049185859913655872
0.708000000000000518,-1.039063039451057602
0.709000000000000519,-1.029058644878326767
0.710000000000000520,-1.019171696712502406
0.711000000000000520,-1.009401215399675866
0.712000000000000521,-0.999746221508570287
0.713000000000000522,-0.990205735919685637
0.714000000000000523,-0.980778780010118312
0.715000000000000524,-0.971464375834003802
0.716000000000000525,-0.962261546298768922
0.717000000000000526,-0.953169315337150658
0.718000000000000527,-0.944186708075056003
0.719000000000000528,-0.935312750995367814
0.720000000000000528,-0.926546472097725671
0.721000000000000529,-0.917886901054272841
0.722000000000000530,-0.909333069361565771
0.723000000000000531,-0.900884010488537945
0.724000000000000532,-0.892538760020724409
0.725000000000000533,-0.884296355800700318
0.726000000000000534,-0.876155838064799908
0.727000000000000535,-0.868116249576238230
0.728000000000000536,-0.860176635754603458
0.729000000000000536,-0.852336044801829784
0.730000000000000537,-0.844593527824698098
0.731000000000000538,-0.836948138953870435
0.732000000000000539,-0.829398935459591535
0.733000000000000540,-0.821944977864039195
0.734000000000000541,-0.814585330050413559
0.735000000000000542,-0.807319059368784009
0.736000000000000543,-0.800145236738820875
0.737000000000000544,-0.793062936749340253
0.738000000000000544,-0.786071237754848440
0.739000000000000545,-0.779169221969017278
0.740000000000000546,-0.772355975555228946
0.741000000000000547,-0.765630588714169114
0.742000000000000548,-0.758992155768620447
0.743000000000000549,-0.752439775245341558
0.744000000000000550,-0.745972549954245889
0.745000000000000551,-0.739589587064835574
0.746000000000000552,-0.733289998179964542
0.747000000000000552,-0.727072899406966733
0.748000000000000553,-0.720937411426200603
0.749000000000000554,-0.714882659557060207
0.750000000000000555,-0.708907773821507936
0.751000000000000556,-0.703011889005134005
0.752000000000000557,-0.697194144715859720
0.753000000000000558,-0.691453685440213794
0.754000000000000559,-0.685789660597378337
0.755000000000000560,-0.680201224590895270
0.756000000000000560,-0.674687536858203929
0.757000000000000561,-0.669247761917931339
0.758000000000000562,-0.663881069415084513
0.759000000000000563,-0.658586634164137652
0.760000000000000564,-0.653363636190040564
0.761000000000000565,-0.648211260767210140
0.762000000000000566,-0.643128698456554515
0.763000000000000567,-0.638115145140535467
0.764000000000000568,-0.633169802056335440
0.765000000000000568,-0.628291875827183044
0.766000000000000569,-0.623480578491806936
0.767000000000000570,-0.618735127532148210
0.768000000000000571,-0.614054745899268672
0.769000000000000572,-0.609438662037600221
0.770000000000000573,-0.604886109907467717
0.771000000000000574,-0.600396329005999041
0.772000000000000575,-0.595968564386403998
0.773000000000000576,-0.591602066675691707
0.774000000000000576,-0.587296092090836219
0.775000000000000577,-0.583049902453460001
0.776000000000000578,-0.578862765203000729
0.777000000000000579,-0.574733953408490872
0.778000000000000580,-0.570662745778873215
0.779000000000000581,-0.566648426671984451
0.780000000000000582,-0.562690286102164650
0.781000000000000583,-0.558787619746569986
0.782000000000000584,-0.554939728950189171
0.783000000000000584,-0.551145920729605221
0.784000000000000585,-0.547405507775550970
0.785000000000000586,-0.543717808454233342
0.786000000000000587,-0.540082146807533636
0.787000000000000588,-0.536497852552036414
0.788000000000000589,-0.532964261076949941
0.789000000000000590,-0.529480713440972028
0.790000000000000591,-0.526046556368062523
0.791000000000000592,-0.522661142242204613
0.792000000000000592,-0.519323829101165257
0.793000000000000593,-0.516033980629255873
0.794000000000000594,-0.512790966149169192
0.795000000000000595,-0.509594160612878988
0.796000000000000596,-0.506442944591601885
0.797000000000000597,-0.503336704264938706
0.798000000000000598,-0.500274831409113663
0.799000000000000599,-0.497256723384394750
0.800000000000000600,-0.494281783121717777
0.801000000000000600,-0.491349419108499608
0.802000000000000601,-0.488459045373699496
0.803000000000000602,-0.485610081472136745
0.804000000000000603,-0.482801952468084383
0.805000000000000604,-0.480034088918172785
0.806000000000000605,-0.477305926853572537
0.807000000000000606,-0.474616907761579720
0.808000000000000607,-0.471966478566505976
0.809000000000000608,-0.469354091609975210
0.810000000000000608,-0.466779204630632549
0.811000000000000609,-0.464241280743206086
0.812000000000000610,-0.461739788417110830
0.813000000000000611,-0.459274201454390851
0.814000000000000612,-0.456843998967219445
0.815000000000000613,-0.454448665354861503
0.816000000000000614,-0.452087690280123078
0.817000000000000615,-0.449760568645348080
0.818000000000000616,-0.447466800567956402
0.819000000000000616,-0.445205891355527406
0.820000000000000617,-0.442977351480448145
0.821000000000000618,-0.440780696554177731
0.822000000000000619,-0.438615447301101302
0.823000000000000620,-0.436481129531987755
0.824000000000000621,-0.434377274117094092
0.825000000000000622,-0.432303416958931208
0.826000000000000623,-0.430259098964673126
0.827000000000000624,-0.428243866018241381
0.828000000000000624,-0.426257268952095536
0.829000000000000625,-0.424298863518706493
0.830000000000000626,-0.422368210361764085
0.831000000000000627,-0.420464874987102277
0.832000000000000628,-0.418588427733380286
0.833000000000000629,-0.416738443742489639
0.834000000000000630,-0.414914502929758899
0.835000000000000631,-0.413116189953916080
0.836000000000000631,-0.411343094186844005
0.837000000000000632,-0.409594809683153926
0.838000000000000633,-0.407870935149535707
0.839000000000000634,-0.406171073913958736
0.840000000000000635,-0.404494833894708194
0.841000000000000636,-0.402841827569235256
0.842000000000000637,-0.401211671942900139
0.843000000000000638,-0.399603988517543862
0.844000000000000639,-0.398018403259956965
0.845000000000000639,-0.396454546570224109
0.846000000000000640,-0.394912053249941830
0.847000000000000641,-0.393390562470388505
0.848000000000000642,-0.391889717740534882
0.849000000000000643,-0.390409166875025249
0.850000000000000644,-0.388948561962080552
0.851000000000000645,-0.387507559331300933
0.852000000000000646,-0.386085819521456874
0.853000000000000647,-0.384683007248203923
0.854000000000000647,-0.383298791371757264
0.855000000000000648,-0.381932844864548204
0.856000000000000649,-0.380584844778843967
0.857000000000000650,-0.379254472214347327
0.858000000000000651,-0.377941412285784928
0.859000000000000652,-0.376645354090490547
0.860000000000000653,-0.375365990676005346
0.861000000000000654,-0.374103019007645976
0.862000000000000655,-0.372856139936137143
0.863000000000000655,-0.371625058165219069
0.864000000000000656,-0.370409482219321018
0.865000000000000657,-0.369209124411221001
0.866000000000000658,-0.368023700809792020
0.867000000000000659,-0.366852931207765187
0.868000000000000660,-0.365696539089532202
0.869000000000000661,-0.364554251599016221
0.870000000000000662,-0.363425799507606562
0.871000000000000663,-0.362310917182154635
0.872000000000000663,-0.361209342553008572
0.873000000000000664,-0.360120817082172417
0.874000000000000665,-0.359045085731494740
0.875000000000000666,-0.357981896930979926
0.876000000000000667,-0.356931002547148046
0.877000000000000668,-0.355892157851512847
0.878000000000000669,-0.354865121489148116
0.879000000000000670,-0.353849655447338207
0.880000000000000671,-0.352845525024354623
0.881000000000000671,-0.351852498798306379
0.882000000000000672,-0.350870348596143578
0.883000000000000673,-0.349898849462726202
0.884000000000000674,-0.348937779630047185
0.885000000000000675,-0.347986920486550333
0.886000000000000676,-0.347046056546583825
0.887000000000000677,-0.346114975419974491
0.888000000000000678,-0.345193467781725716
0.889000000000000679,-0.344281327341859733
0.890000000000000679,-0.343378350815383260
0.891000000000000680,-0.342484337892390245
0.892000000000000681,-0.341599091208307892
0.893000000000000682,-0.340722416314281462
0.894000000000000683,-0.339854121647696739
0.895000000000000684,-0.338994018502868311
0.896000000000000685,-0.338141921001853363
0.897000000000000686,-0.337297646065425005
0.898000000000000687,-0.336461013384204422
0.899000000000000687,-0.335631845389934846
0.900000000000000688,-0.334809967226920135
0.901000000000000689,-0.333995206723616878
0.902000000000000690,-0.333187394364393985
0.903000000000000691,-0.332386363261438222
0.904000000000000692,-0.331591949126838537
0.905000000000000693,-0.330803990244818380
0.906000000000000694,-0.330022327444160324
0.907000000000000695,-0.329246804070752741
0.908000000000000695,-0.328477265960357201
0.909000000000000696,-0.327713561411498155
0.910000000000000697,-0.326955541158561735
0.911000000000000698,-0.326203058345034325
0.912000000000000699,-0.325455968496934200
0.913000000000000700,-0.324714129496414039
0.914000000000000701,-0.323977401555516464
0.915000000000000702,-0.323245647190144259
0.916000000000000703,-0.322518731194162966
0.917000000000000703,-0.321796520613716386
0.918000000000000704,-0.321078884721696878
0.919000000000000705,-0.320365694992396755
0.920000000000000706,-0.319656825076349960
0.921000000000000707,-0.318952150775337562
0.922000000000000708,-0.318251550017577656
0.923000000000000709,-0.317554902833111663
0.924000000000000710,-0.316862091329334072
0.925000000000000711,-0.316172999666738785
0.926000000000000711,-0.315487514034827998
0.927000000000000712,-0.314805522628204826
0.928000000000000713,-0.314126915622842950
0.929000000000000714,-0.313451585152561329
0.930000000000000715,-0.312779425285636237
0.931000000000000716,-0.312110332001634627
0.932000000000000717,-0.311444203168415257
0.933000000000000718,-0.310780938519302108
0.934000000000000719,-0.310120439630454381
0.935000000000000719,-0.309462609898413787
0.936000000000000720,-0.308807354517817712
0.937000000000000721,-0.308154580459318650
0.938000000000000722,-0.307504196447668854
0.939000000000000723,-0.306856112939987158
0.940000000000000724,-0.306210242104207109
0.941000000000000725,-0.305566497797708114
0.942000000000000726,-0.304924795546131777
0.943000000000000727,-0.304285052522354549
0.944000000000000727,-0.303647187525673767
0.945000000000000728,-0.303011120961146296
0.946000000000000729,-0.302376774819108907
0.947000000000000730,-0.301744072654897333
0.948000000000000731,-0.301112939568709215
0.949000000000000732,-0.300483302185679757
0.950000000000000733,-0.299855088636100997
0.951000000000000734,-0.299228228535849683
0.952000000000000735,-0.298602652966965476
0.953000000000000735,-0.297978294458406401
0.954000000000000736,-0.297355086966997972
0.955000000000000737,-0.296732965858532982
0.956000000000000738,-0.296111867889064517
0.957000000000000739,-0.295491731186351525
0.958000000000000740,-0.294872495231498166
0.959000000000000741,-0.294254100840738775
0.960000000000000742,-0.293636490147423268
0.961000000000000743,-0.293019606584144943
0.962000000000000743,-0.292403394865051680
0.963000000000000744,-0.291787800968323130
0.964000000000000745,-0.291172772118823031
0.965000000000000746,-0.290558256770895862
0.966000000000000747,-0.289944204591358112
0.967000000000000748,-0.289330566442626558
0.968000000000000749,-0.288717294366045096
0.969000000000000750,-0.288104341565333599
0.970000000000000751,-0.287491662390244929
0.971000000000000751,-0.286879212320338861
0.972000000000000752,-0.286266947948945250
0.973000000000000753,-0.285654826967296216
0.974000000000000754,-0.285042808148781801
0.975000000000000755,-0.284430851333395740
0.976000000000000756,-0.283818917412328731
0.977000000000000757,-0.283206968312712415
0.978000000000000758,-0.282594966982525175
0.979000000000000759,-0.281982877375665852
0.980000000000000759,-0.281370664437144591
0.981000000000000760,-0.280758294088466864
0.982000000000000761,-0.280145733213155224
0.983000000000000762,-0.279532949642407103
0.984000000000000763,-0.278919912140920323
0.985000000000000764,-0.278306590392873310
0.986000000000000765,-0.277692954988032148
0.987000000000000766,-0.277078977408019678
0.988000000000000766,-0.276464630012727752
0.989000000000000767,-0.275849886026880431
0.990000000000000768,-0.275234719526736948
0.991000000000000769,-0.274619105426925858
0.992000000000000770,-0.274003019467441877
0.993000000000000771,-0.273386438200786730
0.994000000000000772,-0.272769338979216847
0.995000000000000773,-0.272151699942178360
0.996000000000000774,-0.271533500003837192
0.997000000000000774,-0.270914718840777724
0.998000000000000775,-0.270295336879821491
0.999000000000000776,-0.269675335285985363
1.000000000000000666,-0.269054695950579403
1.001000000000000778,-0.268433401479433120
1.002000000000000668,-0.267811435181253610
1.003000000000000780,-0.267188781056118596
1.004000000000000670,-0.266565423784097810
1.005000000000000782,-0.265941348714008707
1.006000000000000671,-0.265316541852297749
1.007000000000000783,-0.264690989852042091
1.008000000000000673,-0.264064680002092822
1.009000000000000785,-0.263437600216330614
1.010000000000000675,-0.262809739023056543
1.011000000000000787,-0.262181085554493876
1.012000000000000677,-0.261551629536429298
1.013000000000000789,-0.260921361277964503
1.014000000000000679,-0.260290271661379691
1.015000000000000790,-0.259658352132146109
1.016000000000000680,-0.259025594689028416
1.017000000000000792,-0.258391991874318161
1.018000000000000682,-0.257757536764175732
1.019000000000000794,-0.257122222959104529
1.020000000000000684,-0.256486044574523953
1.021000000000000796,-0.255848996231460457
1.022000000000000686,-0.255211073047353243
1.023000000000000798,-0.254572270626973907
1.024000000000000687,-0.253932585053449844
1.025000000000000799,-0.253292012879408224
1.026000000000000689,-0.252650551118220268
1.027000000000000801,-0.252008197235352061
1.028000000000000691,-0.251364949139836591
1.029000000000000803,-0.250720805175832340
1.030000000000000693,-0.250075764114300658
1.031000000000000805,-0.249429825144788009
1.032000000000000695,-0.248782987867298855
1.033000000000000806,-0.248135252284286179
1.034000000000000696,-0.247486618792736479
1.035000000000000808,-0.246837088176349029
1.036000000000000698,-0.246186661597821155
1.037000000000000810,-0.245535340591249790
1.038000000000000700,-0.244883127054589783
1.039000000000000812,-0.244230023242239719
1.040000000000000702,-0.243576031757728462
1.041000000000000814,-0.242921155546471201
1.042000000000000703,-0.242265397888633244
1.043000000000000815,-0.241608762392095500
1.044000000000000705,-0.240951252985504155
1.045000000000000817,-0.240292873911394617
1.046000000000000707,-0.239633629719444963
1.047000000000000819,-0.238973525259786657
1.048000000000000709,-0.238312565676412985
1.049000000000000821,-0.237650756400680591
1.050000000000000711,-0.236988103144891493
1.051000000000000822,-0.236324611895969650
1.052000000000000712,-0.235660288909213200
1.053000000000000824,-0.234995140702137423
1.054000000000000714,-0.234329174048397787
1.055000000000000826,-0.233662395971802994
1.056000000000000716,-0.232994813740402540
1.057000000000000828,-0.232326434860655434
1.058000000000000718,-0.231657267071684242
1.059000000000000830,-0.230987318339605452
1.060000000000000719,-0.230316596851942890
1.061000000000000831,-0.229645111012112657
1.062000000000000721,-0.228972869433983511
1.063000000000000833,-0.228299880936534055
1.064000000000000723,-0.227626154538551978
1.065000000000000835,-0.226951699453434463
1.066000000000000725,-0.226276525084062458
1.067000000000000837,-0.225600641017715958
1.068000000000000727,-0.224924057021117063
1.069000000000000838,-0.224246783035486480
1.070000000000000728,-0.223568829171714334
1.071000000000000840,-0.222890205705577438
1.072000000000000730,-0.222210923073038413
1.073000000000000842,-0.221530991865608318
1.074000000000000732,-0.220850422825763809
1.075000000000000844,-0.220169226842467702
1.076000000000000734,-0.219487414946719861
1.077000000000000846,-0.218804998307186416
1.078000000000000735,-0.218121988225905922
1.079000000000000847,-0.217438396134031514
1.080000000000000737,-0.216754233587679090
1.081000000000000849,-0.216069512263792202
1.082000000000000739,-0.215384243956097343
1.083000000000000851,-0.214698440571119781
1.084000000000000741,-0.214012114124254360
1.085000000000000853,-0.213325276735886638
1.086000000000000743,-0.212637940627593419
1.087000000000000854,-0.211950118118392927
1.088000000000000744,-0.211261821621052975
1.089000000000000856,-0.210573063638450353
1.090000000000000746,-0.209883856759994547
1.091000000000000858,-0.209194213658120715
1.092000000000000748,-0.208504147084803776
1.093000000000000860,-0.207813669868167461
1.094000000000000750,-0.207122794909108510
1.095000000000000862,-0.206431535178014325
1.096000000000000751,-0.205739903711503802
1.097000000000000863,-0.205047913609223198
1.098000000000000753,-0.204355578030719798
1.099000000000000865,-0.203662910192337593
1.100000000000000755,-0.202969923364171828
1.101000000000000867,-0.202276630867081808
1.102000000000000757,-0.201583046069749416
1.103000000000000869,-0.200889182385784071
1.104000000000000759,-0.200195053270867451
1.105000000000000870,-0.199500672219974445
1.106000000000000760,-0.198806052764600866
1.107000000000000872,-0.198111208470077876
1.108000000000000762,-0.197416152932904682
1.109000000000000874,-0.196720899778140390
1.110000000000000764,-0.196025462656832378
1.111000000000000876,-0.195329855243491390
1.112000000000000766,-0.194634091233622408
1.113000000000000878,-0.193938184341281766
1.114000000000000767,-0.193242148296688565
1.115000000000000879,-0.192545996843866002
1.116000000000000769,-0.191849743738343126
1.117000000000000881,-0.191153402744879658
1.118000000000000771,-0.190456987635245850
1.119000000000000883,-0.189760512186032460
1.120000000000000773,-0.189063990176505853
1.121000000000000885,-0.188367435386501580
1.122000000000000774,-0.187670861594349647
1.123000000000000886,-0.186974282574852574
1.124000000000000776,-0.186277712097297210
1.125000000000000888,-0.185581163923481396
1.126000000000000778,-0.184884651805812317
1.127000000000000890,-0.184188189485429282
1.128000000000000780,-0.183491790690336110
1.129000000000000892,-0.182795469133611721
1.130000000000000782,-0.182099238511630901
1.131000000000000894,-0.181403112502313724
1.132000000000000783,-0.180707104763431214
1.133000000000000895,-0.180011228930932854
1.134000000000000785,-0.179315498617290847
1.135000000000000897,-0.178619927409919887
1.136000000000000787,-0.177924528869579046
1.137000000000000899,-0.177229316528846575
1.138000000000000789,-0.176534303890595434
1.139000000000000901,-0.175839504426532928
1.140000000000000790,-0.175144931575735047
1.141000000000000902,-0.174450598743230711
1.142000000000000792,-0.173756519298623846
1.143000000000000904,-0.173062706574721614
1.144000000000000794,-0.172369173866224218
1.145000000000000906,-0.171675934428393101
1.146000000000000796,-0.170983001475814078
1.147000000000000908,-0.170290388181127877
1.148000000000000798,-0.169598107673822357
1.149000000000000909,-0.168906173039047591
1.150000000000000799,-0.168214597316438091
1.151000000000000689,-0.167523393498994755
1.152000000000000801,-0.166832574531962319
1.153000000000000913,-0.166142153311756691
1.154000000000000803,-0.165452142684892806
1.155000000000000693,-0.164762555446955339
1.156000000000000805,-0.164073404341602280
1.157000000000000917,-0.163384702059557407
1.158000000000000806,-0.162696461237671730
1.159000000000000696,-0.162008694457974334
1.160000000000000808,-0.161321414246759665
1.161000000000000920,-0.160634633073700128
1.162000000000000810,-0.159948363350982475
1.163000000000000700,-0.159262617432453152
1.164000000000000812,-0.158577407612801924
1.165000000000000924,-0.157892746126753747
1.166000000000000814,-0.157208645148302295
1.167000000000000703,-0.156525116789932500
1.168000000000000815,-0.155842173101902265
1.169000000000000927,-0.155159826071506218
1.170000000000000817,-0.154478087622394566
1.171000000000000707,-0.153796969613881285
1.172000000000000819,-0.153116483840302658
1.173000000000000931,-0.152436642030365943
1.174000000000000821,-0.151757455846532829
1.175000000000000711,-0.151078936884423420
1.176000000000000822,-0.150401096672233753
1.177000000000000934,-0.149723946670166613
1.178000000000000824,-0.149047498269894996
1.179000000000000714,-0.148371762794020645
1.180000000000000826,-0.147696751495583090
1.181000000000000938,-0.147022475557543830
1.182000000000000828,-0.146348946092327820
1.183000000000000718,-0.145676174141359693
1.184000000000000830,-0.145004170674613242
1.185000000000000941,-0.144332946590187583
1.186000000000000831,-0.143662512713903234
1.187000000000000721,-0.142992879798894246
1.188000000000000833,-0.142324058525239161
1.189000000000000945,-0.141656059499588205
1.190000000000000835,-0.140988893254821224
1.191000000000000725,-0.140322570249694800
1.192000000000000837,-0.139657100868551709
1.193000000000000949,-0.138992495420979134
1.194000000000000838,-0.138328764141544214
1.195000000000000728,-0.137665917189496806
1.196000000000000840,-0.137003964648514276
1.197000000000000952,-0.136342916526449198
1.198000000000000842,-0.135682782755081721
1.199000000000000732,-0.135023573189908569
1.200000000000000844,-0.134365297609908424
1.201000000000000956,-0.133707965717364957
1.202000000000000846,-0.133051587137663019
1.203000000000000735,-0.132396171419115943
1.204000000000000847,-0.131741728032797517
1.205000000000000959,-0.131088266372404283
1.206000000000000849,-0.130435795754094169
1.207000000000000739,-0.129784325416367918
1.208000000000000851,-0.129133864519949376
1.209000000000000963,-0.128484422147672583
1.210000000000000853,-0.127836007304396870
1.211000000000000743,-0.127188628916900193
1.212000000000000854,-0.126542295833824397
1.213000000000000966,-0.125897016825588570
1.214000000000000856,-0.125252800584357088
1.215000000000000746,-0.124609655723966956
1.216000000000000858,-0.123967590779911568
1.217000000000000970,-0.123326614209305574
1.218000000000000860,-0.122686734390864277
1.219000000000000750,-0.122047959624901364
1.220000000000000862,-0.121410298133329111
1.221000000000000973,-0.120773758059658773
1.222000000000000863,-0.120138347469032555
1.223000000000000753,-0.119504074348235581
1.224000000000000865,-0.118870946605741462
1.225000000000000977,-0.118238972071752602
1.226000000000000867,-0.117608158498248641
1.227000000000000757,-0.116978513559046010
1.228000000000000869,-0.116350044849864248
1.229000000000000981,-0.115722759888411145
1.230000000000000870,-0.115096666114441165
1.231000000000000760,-0.114471770889866958
1.232000000000000872,-0.113848081498852657
1.233000000000000984,-0.113225605147896341
1.234000000000000874,-0.112604348965971685
1.235000000000000764,-0.111984320004619511
1.236000000000000876,-0.111365525238085156
1.237000000000000988,-0.110747971563440253
1.238000000000000878,-0.110131665800731887
1.239000000000000767,-0.109516614693107736
1.240000000000000879,-0.108902824906979973
1.241000000000000991,-0.108290303032173102
1.242000000000000881,-0.107679055582084945
1.243000000000000771,-0.107069088993854589
1.244000000000000883,-0.106460409628533315
1.245000000000000995,-0.105853023771265889
1.246000000000000885,-0.105246937631469528
1.247000000000000774,-0.104642157343020153
1.248000000000000886,-0.104038688964452342
1.249000000000000998,-0.103436538479152393
1.250000000000000888,-0.102835711795567247
1.251000000000000778,-0.102236214747405144
1.252000000000000890,-0.101638053093856359
1.253000000000001002,-0.101041232519801766
1.254000000000000892,-0.100445758636048585
1.255000000000000782,-0.099851636979542871
1.256000000000000894,-0.099258873013604615
1.257000000000001005,-0.098667472128169439
1.258000000000000895,-0.098077439640019928
1.259000000000000785,-0.097488780793032040
1.260000000000000897,-0.096901500758419787
1.261000000000001009,-0.096315604634990962
1.262000000000000899,-0.095731097449395647
1.263000000000000789,-0.095147984156388282
1.264000000000000901,-0.094566269639089706
1.265000000000001013,-0.093985958709248779
1.266000000000000902,-0.093407056107516276
1.267000000000000792,-0.092829566503709840
1.268000000000000904,-0.092253494497097493
1.269000000000001016,-0.091678844616665270
1.270000000000000906,-0.091105621321413005
1.271000000000000796,-0.090533829000621568
1.272000000000000908,-0.089963471974151471
1.273000000000001020,-0.089394554492728012
1.274000000000000909,-0.088827080738238348
1.275000000000000799,-0.088261054824015500
1.276000000000000911,-0.087696480795151813
1.277000000000001023,-0.087133362628785266
1.278000000000000913,-0.086571704234407257
1.279000000000000803,-0.086011509454169549
1.280000000000000915,-0.085452782063193136
1.281000000000001027,-0.084895525769862507
1.282000000000000917,-0.084339744216157961
1.283000000000000806,-0.083785440977952999
1.284000000000000918,-0.083232619565341642
1.285000000000001030,-0.082681283422943133
1.286000000000000920,-0.082131435930231353
1.287000000000000810,-0.081583080401850319
1.288000000000000922,-0.081036220087940869
1.289000000000001034,-0.080490858174460639
1.290000000000000924,-0.079946997783508028
1.291000000000000814,-0.079404641973662066
1.292000000000000925,-0.078863793740290053
1.293000000000001037,-0.078324456015902502
1.294000000000000927,-0.077786631670465956
1.295000000000000817,-0.077250323511740784
1.296000000000000929,-0.076715534285620057
1.297000000000001041,-0.076182266676459220
1.298000000000000931,-0.075650523307415923
1.299000000000000821,-0.075120306740788165
1.300000000000000933,-0.074591619478346236
1.301000000000001044,-0.074064463961681398
1.302000000000000934,-0.073538842572537871
1.303000000000000824,-0.073014757633165464
1.304000000000000936,-0.072492211406643747
1.305000000000001048,-0.071971206097243973
1.306000000000000938,-0.071451743850762695
1.307000000000000828,-0.070933826754865537
1.308000000000000940,-0.070417456839432513
1.309000000000001052,-0.069902636076912023
1.310000000000000941,-0.069389366382654000
1.311000000000000831,-0.068877649615266490
1.312000000000000943,-0.068367487576950922
1.313000000000001055,-0.067858882013870317
1.314000000000000945,-0.067351834616473344
1.315000000000000835,-0.066846347019856547
1.316000000000000947,-0.066342420804109029
1.317000000000001059,-0.065840057494664664
1.318000000000000949,-0.065339258562639599
1.319000000000000838,-0.064840025425199815
1.320000000000000950,-0.064342359445893560
1.321000000000001062,-0.063846261935006116
1.322000000000000952,-0.063351734149914976
1.323000000000000842,-0.062858777295428159
1.324000000000000954,-0.062367392524145859
1.325000000000001066,-0.061877580936796669
1.326000000000000956,-0.061389343582599953
1.327000000000000846,-0.060902681459603758
1.328000000000000957,-0.060417595515043485
1.329000000000001069,-0.059934086645679577
1.330000000000000959,-0.059452155698160015
1.331000000000000849,-0.058971803469357861
1.332000000000000961,-0.058493030706718685
1.333000000000001073,-0.058015838108615415
1.334000000000000963,-0.057540226324695999
1.335000000000000853,-0.057066195956221463
1.336000000000000965,-0.056593747556421159
1.337000000000001076,-0.056122881630838353
1.338000000000000966,-0.055653598637669964
1.339000000000000856,-0.055185898988120499
1.340000000000000968,-0.054719783046740078
1.341000000000001080,-0.054255251131770876
1.342000000000000970,-0.053792303515493314
1.343000000000000860,-0.053330940424568339
1.344000000000000972,-0.052871162040375411
1.345000000000001084,-0.052412968499365643
1.346000000000000973,-0.051956359893392180
1.347000000000000863,-0.051501336270056187
1.348000000000000975,-0.051047897633045160
1.349000000000001087,-0.050596043942473759
1.350000000000000977,-0.050145775115225291
1.351000000000000867,-0.049697091025287202
1.352000000000000979,-0.049249991504077939
1.353000000000001091,-0.048804476340806466
1.354000000000000981,-0.048360545282789602
1.355000000000000870,-0.047918198035790671
1.356000000000000982,-0.047477434264355321
1.357000000000001094,-0.047038253592148652
1.358000000000000984,-0.046600655602279585
1.359000000000000874,-0.046164639837636828
1.360000000000000986,-0.045730205801216638
1.361000000000001098,-0.045297352956461860
1.362000000000000988,-0.044866080727573553
1.363000000000000878,-0.044436388499853305
1.364000000000000989,-0.044008275620028563
1.365000000000001101,-0.043581741396566988
1.366000000000000991,-0.043156785100013098
1.367000000000000881,-0.042733405963309219
1.368000000000000993,-0.042311603182114320
1.369000000000001105,-0.041891375915130848
1.370000000000000995,-0.041472723284420067
1.371000000000000885,-0.041055644375726473
1.372000000000000997,-0.040640138238791867
1.373000000000001108,-0.040226203887680896
1.374000000000000998,-0.039813840301080670
1.375000000000000888,-0.039403046422636631
1.376000000000001000,-0.038993821161253550
1.377000000000001112,-0.038586163391409911
1.378000000000001002,-0.038180071953472505
1.379000000000000892,-0.037775545654005836
1.380000000000001004,-0.037372583266079180
1.381000000000001116,-0.036971183529581932
1.382000000000001005,-0.036571345151522702
1.383000000000000895,-0.036173066806336807
1.384000000000001007,-0.035776347136194916
1.385000000000001119,-0.035381184751302648
1.386000000000001009,-0.034987578230207594
1.387000000000000899,-0.034595526120086359
1.388000000000001011,-0.034205026937071441
1.389000000000001123,-0.033816079166517868
1.390000000000001013,-0.033428681263322477
1.391000000000000902,-0.033042831652211821
1.392000000000001014,-0.032658528728036582
1.393000000000001126,-0.032275770856067046
1.394000000000001016,-0.031894556372287039
1.395000000000000906,-0.031514883583680472
1.396000000000001018,-0.031136750768519506
1.397000000000001130,-0.030760156176660124
1.398000000000001020,-0.030385098029824208
1.399000000000000909,-0.030011574521885520
1.400000000000001021,-0.029639583819151417
1.401000000000001133,-0.029269124060655644
1.402000000000001023,-0.028900193358427050
1.403000000000000913,-0.028532789797774943
1.404000000000001025,-0.028166911437576592
1.405000000000001137,-0.027802556310539329
1.406000000000001027,-0.027439722423487699
1.407000000000000917,-0.027078407757641219
1.408000000000001029,-0.026718610268872633
1.409000000000001140,-0.026360327887997515
1.410000000000001030,-0.026003558521034503
1.411000000000000920,-0.025648300049477990
1.412000000000001032,-0.025294550330566580
1.413000000000001144,-0.024942307197551389
1.414000000000001034,-0.024591568459956432
1.415000000000000924,-0.024242331903844935
1.416000000000001036,-0.023894595292090384
1.417000000000001148,-0.023548356364624722
1.418000000000001037,-0.023203612838704292
1.419000000000000927,-0.022860362409168181
1.420000000000001039,-0.022518602748696475
1.421000000000001151,-0.022178331508067008
1.422000000000001041,-0.021839546316403207
1.423000000000000931,-0.021502244781434525
1.424000000000001043,-0.021166424489746198
1.425000000000001155,-0.020832083007025409
1.426000000000001044,-0.020499217878316094
1.427000000000000934,-0.020167826628264048
1.428000000000001046,-0.019837906761362149
1.429000000000001158,-0.019509455762192068
1.430000000000001048,-0.019182471095678263
1.431000000000000938,-0.018856950207315919
1.432000000000001050,-0.018532890523423311
1.433000000000001162,-0.018210289451375542
1.434000000000001052,-0.017889144379839801
1.435000000000000941,-0.017569452679020780
1.436000000000001053,-0.017251211700884186
1.437000000000001165,-0.016934418779396346
1.438000000000001055,-0.016619071230762505
1.439000000000000945,-0.016305166353645519
1.440000000000001057,-0.015992701429404777
1.441000000000001169,-0.015681673722316363
1.442000000000001059,-0.015372080479809152
1.443000000000000949,-0.015063918932683565
1.444000000000001060,-0.014757186295336958
1.445000000000001172,-0.014451879765985113
1.446000000000001062,-0.014147996526890447
1.447000000000000952,-0.013845533744569488
1.448000000000001064,-0.013544488570023119
1.449000000000001176,-0.013244858138950932
1.450000000000001066,-0.012946639571958135
1.451000000000000956,-0.012649829974782267
1.452000000000001068,-0.012354426438498784
1.453000000000001180,-0.012060426039736833
1.454000000000001069,-0.011767825840885046
1.455000000000000959,-0.011476622890305621
1.456000000000001071,-0.011186814222537476
1.457000000000001183,-0.010898396858507247
1.458000000000001073,-0.010611367805731658
1.459000000000000963,-0.010325724058516571
1.460000000000001075,-0.010041462598168656
1.461000000000001187,-0.009758580393188589
1.462000000000001076,-0.009477074399477382
1.463000000000000966,-0.009196941560526774
1.464000000000001078,-0.008918178807621979
1.465000000000001190,-0.008640783060037158
1.466000000000001080,-0.008364751225226627
1.467000000000000970,-0.008090080199018707
1.468000000000001082,-0.007816766865812265
1.469000000000001194,-0.007544808098756084
1.470000000000001084,-0.007274200759951746
1.471000000000000973,-0.007004941700629605
1.472000000000001085,-0.006737027761345413
1.473000000000001197,-0.006470455772154785
1.474000000000001087,-0.006205222552808247
1.475000000000000977,-0.005941324912921970
1.476000000000001089,-0.005678759652169927
1.477000000000001201,-0.005417523560459591
1.478000000000001091,-0.005157613418107461
1.479000000000000981,-0.004899025996021484
1.480000000000001092,-0.004641758055874832
1.481000000000001204,-0.004385806350280784
1.482000000000001094,-0.004131167622967764
1.483000000000000984,-0.003877838608954368
1.484000000000001096,-0.003625816034711613
1.485000000000001208,-0.003375096618340308
1.486000000000001098,-0.003125677069740426
1.487000000000000988,-0.002877554090774255
1.488000000000001100,-0.002630724375432947
1.489000000000001211,-0.002385184610006220
1.490000000000001101,-0.002140931473242762
1.491000000000000991,-0.001897961636509710
1.492000000000001103,-0.001656271763960517
1.493000000000001215,-0.001415858512693865
1.494000000000001105,-0.001176718532904517
1.495000000000000995,-0.000938848468051390
1.496000000000001107,-0.000702244955009914
1.497000000000001219,-0.000466904624226055
1.498000000000001108,-0.000232824099873177
1.499000000000000998,0.000000000000000000
