# Al2O3-001_BSAI19
# h[nm],U(h)[kJ/mol]
0.149999999999999994,133.429848566927802267
0.150999999999999995,132.530025623323950867
0.151999999999999996,130.047320415591315168
0.152999999999999997,127.224901751864535981
0.153999999999999998,124.528335064391143305
0.154999999999999999,122.056801362729260063
0.156000000000000000,119.764599330225365748
0.157000000000000001,117.571338471034479767
0.158000000000000002,115.409558177764978382
0.159000000000000002,113.239302821350150907
0.160000000000000003,111.046953574851571034
0.161000000000000004,108.837986044756945603
0.162000000000000005,106.628682523879348309
0.163000000000000006,104.439102971921556673
0.164000000000000007,102.288096596805388572
0.165000000000000008,100.190349358802947677
0.166000000000000009,98.155110894703540225
0.167000000000000010,96.186136890684650780
0.168000000000000010,94.282402335040913499
0.169000000000000011,92.439217226132171845
0.170000000000000012,90.649469291916844327
0.171000000000000013,88.904807042126350325
0.172000000000000014,87.196651370317667329
0.173000000000000015,85.516981897105210919
0.174000000000000016,83.858885811812143629
0.175000000000000017,82.216884348559830187
0.176000000000000018,80.587068053894014952
0.177000000000000018,78.967079492915402739
0.178000000000000019,77.355983515240950510
0.179000000000000020,75.754062741161561689
0.180000000000000021,74.162571157125000809
0.181000000000000022,72.583472834022614961
0.182000000000000023,71.019186649627442875
0.183000000000000024,69.472352066393625591
0.184000000000000025,67.945625822482796252
0.185000000000000026,66.441515006568721446
0.186000000000000026,64.962248457897828757
0.187000000000000027,63.509685736251846322
0.188000000000000028,62.085260967557964307
0.189000000000000029,60.689957589487470102
0.190000000000000030,59.324309286751976344
0.191000000000000031,57.988422107706490749
0.192000000000000032,56.682012789432619115
0.193000000000000033,55.404458596151279437
0.194000000000000034,54.154854417263415201
0.195000000000000034,52.932073411791449757
0.196000000000000035,51.734828073806987447
0.197000000000000036,50.561729188816919134
0.198000000000000037,49.411340724740959729
0.199000000000000038,48.282229232659148010
0.200000000000000039,47.173006808901014608
0.201000000000000040,46.082367084139107760
0.202000000000000041,45.009114054369000257
0.203000000000000042,43.952183853866173990
0.204000000000000042,42.910659794720231730
0.205000000000000043,41.883781166327210599
0.206000000000000044,40.870946407235358322
0.207000000000000045,39.871711337451330337
0.208000000000000046,38.885783178283077177
0.209000000000000047,37.913011095404428374
0.210000000000000048,36.953373985075707253
0.211000000000000049,36.006966188831988518
0.212000000000000050,35.073981773354816482
0.213000000000000050,34.154697953959257006
0.214000000000000051,33.249458175808968008
0.215000000000000052,32.358655299681871043
0.216000000000000053,31.482715271344790864
0.217000000000000054,30.622081587342659503
0.218000000000000055,29.777200806794155596
0.219000000000000056,28.948509299736560507
0.220000000000000057,28.136421368451948410
0.221000000000000058,27.341318829525853573
0.222000000000000058,26.563542101370593684
0.223000000000000059,25.803382804641927351
0.224000000000000060,25.061077851269320860
0.225000000000000061,24.336804971480319182
0.226000000000000062,23.630679606903974843
0.227000000000000063,22.942753081206753052
0.228000000000000064,22.273011947325386473
0.229000000000000065,21.621378401770392941
0.230000000000000066,20.987711651238601718
0.231000000000000066,20.371810114448017259
0.232000000000000067,19.773414342272360500
0.233000000000000068,19.192210541500823950
0.234000000000000069,18.627834591507870243
0.235000000000000070,18.079876448443346959
0.236000000000000071,17.547884837932862467
0.237000000000000072,17.031372144432658899
0.238000000000000073,16.529819413066540790
0.239000000000000073,16.042681387770628021
0.240000000000000074,15.569391517696733018
0.241000000000000075,15.109366871926614095
0.242000000000000076,14.662012910492302709
0.243000000000000077,14.226728067379005083
0.244000000000000078,13.802908108522554897
0.245000000000000079,13.389950234737966639
0.246000000000000080,12.987256905983050714
0.247000000000000081,12.594239369337643097
0.248000000000000081,12.210320878547777923
0.249000000000000082,11.834939597935463240
0.250000000000000111,11.467551187910423494
0.251000000000000112,11.107631073250390230
0.252000000000000113,10.754676398754011046
0.253000000000000114,10.408207679840273840
0.254000000000000115,10.067770158188853458
0.255000000000000115,9.732934874619360244
0.256000000000000116,9.403299473119666629
0.257000000000000117,9.078488751285595626
0.258000000000000118,8.758154973457836334
0.259000000000000119,8.441977963565674870
0.260000000000000120,8.129664995142560358
0.261000000000000121,7.820950496195618662
0.262000000000000122,7.515595586615612334
0.263000000000000123,7.213387465636278861
0.264000000000000123,6.914138666513816034
0.265000000000000124,6.617686195125732418
0.266000000000000125,6.323890568603241391
0.267000000000000126,6.032634769434547906
0.268000000000000127,5.743823129725197596
0.269000000000000128,5.457380159494899630
0.270000000000000129,5.173249332041281789
0.271000000000000130,4.891391838524599578
0.272000000000000131,4.611785323035974216
0.273000000000000131,4.334422608515025033
0.274000000000000132,4.059310422990939138
0.275000000000000133,3.786468134741664215
0.276000000000000134,3.515926504105888917
0.277000000000000135,3.247726458848481990
0.278000000000000136,2.981917899174685083
0.279000000000000137,2.718558537718041013
0.280000000000000138,2.457712779093077948
0.281000000000000139,2.199450642908459486
0.282000000000000139,1.943846733482562428
0.283000000000000140,1.690979258890321635
0.284000000000000141,1.440929101400099555
0.285000000000000142,1.193778940830701130
0.286000000000000143,0.949612431872198570
0.287000000000000144,0.708513435968878835
0.288000000000000145,0.470565307956735068
0.289000000000000146,0.235850237282231145
0.290000000000000147,0.004448643299059718
0.291000000000000147,-0.223561376152675795
0.292000000000000148,-0.448104543940124889
0.293000000000000149,-0.669108851885219735
0.294000000000000150,-0.886505959543540056
0.295000000000000151,-1.100231545158661728
0.296000000000000152,-1.310225610576530197
0.297000000000000153,-1.516432742019342195
0.298000000000000154,-1.718802328710581362
0.299000000000000155,-1.917288741413258890
0.300000000000000155,-2.111851472994533019
0.301000000000000156,-2.302455243162659038
0.302000000000000157,-2.489070069539516261
0.303000000000000158,-2.671671307233650428
0.304000000000000159,-2.850239659068085185
0.305000000000000160,-3.024761158594249988
0.306000000000000161,-3.195227127990430294
0.307000000000000162,-3.361634112900900195
0.308000000000000163,-3.523983796221841658
0.309000000000000163,-3.682282892783266703
0.310000000000000164,-3.836543026813734603
0.311000000000000165,-3.986780594007134138
0.312000000000000166,-4.133016609939730301
0.313000000000000167,-4.275276546511340925
0.314000000000000168,-4.413590158007847819
0.315000000000000169,-4.547991298304173036
0.316000000000000170,-4.678517730647545392
0.317000000000000171,-4.805210931381202144
0.318000000000000171,-4.928115888888937590
0.319000000000000172,-5.047280898962078766
0.320000000000000173,-5.162757357711888595
0.321000000000000174,-5.274599553073461955
0.322000000000000175,-5.382864455871917642
0.323000000000000176,-5.487611511347769699
0.324000000000000177,-5.588902431966873863
0.325000000000000178,-5.686800992270812038
0.326000000000000179,-5.781372826456754765
0.327000000000000179,-5.872685229310951271
0.328000000000000180,-5.960806961058340292
0.329000000000000181,-6.045808056631395644
0.330000000000000182,-6.127759639804594372
0.331000000000000183,-6.206733742587437597
0.332000000000000184,-6.282803130217509135
0.333000000000000185,-6.356041132046998499
0.334000000000000186,-6.426521478570563772
0.335000000000000187,-6.494318144799369641
0.336000000000000187,-6.559505200146314330
0.337000000000000188,-6.622156664949348404
0.338000000000000189,-6.682346373725390087
0.339000000000000190,-6.740147845214383260
0.340000000000000191,-6.795634159242956329
0.341000000000000192,-6.848877840409582696
0.342000000000000193,-6.899950748567354353
0.343000000000000194,-6.948923976057328034
0.344000000000000195,-6.995867751623618069
0.345000000000000195,-7.040851350922899599
0.346000000000000196,-7.083943013522606691
0.347000000000000197,-7.125209866267256942
0.348000000000000198,-7.164717852877889648
0.349000000000000199,-7.202531669637575185
0.350000000000000200,-7.238714707005110327
0.351000000000000201,-7.273328996989628870
0.352000000000000202,-7.306435166110899715
0.353000000000000203,-7.338092393763476551
0.354000000000000203,-7.368358375797273929
0.355000000000000204,-7.397289293122598863
0.356000000000000205,-7.424939785144614390
0.357000000000000206,-7.451362927829643823
0.358000000000000207,-7.476610216203971149
0.359000000000000208,-7.500731551085524806
0.360000000000000209,-7.523775229848624235
0.361000000000000210,-7.545787941022628509
0.362000000000000210,-7.566814762526900218
0.363000000000000211,-7.586899163346323860
0.364000000000000212,-7.606083008454071148
0.365000000000000213,-7.624406566791199324
0.366000000000000214,-7.641908522116091618
0.367000000000000215,-7.658625986540284813
0.368000000000000216,-7.674594516571550784
0.369000000000000217,-7.689848131488936644
0.370000000000000218,-7.704419333879584997
0.371000000000000218,-7.718339132171427863
0.372000000000000219,-7.731637065001072173
0.373000000000000220,-7.744341227261280380
0.374000000000000221,-7.756478297677459111
0.375000000000000222,-7.768073567767986631
0.376000000000000223,-7.779150972048702428
0.377000000000000224,-7.789733119346952783
0.378000000000000225,-7.799841325096269706
0.379000000000000226,-7.809495644488047894
0.380000000000000226,-7.818714906362101758
0.381000000000000227,-7.827516747723059609
0.382000000000000228,-7.835917648775326150
0.383000000000000229,-7.843932968374140557
0.384000000000000230,-7.851576979795628297
0.385000000000000231,-7.858862906734020548
0.386000000000000232,-7.865802959438790154
0.387000000000000233,-7.872408370909768749
0.388000000000000234,-7.878689433072773696
0.389000000000000234,-7.884655532863243721
0.390000000000000235,-7.890315188149578773
0.391000000000000236,-7.895676083432691783
0.392000000000000237,-7.900745105262201307
0.393000000000000238,-7.905528377314193555
0.394000000000000239,-7.910031295079173574
0.395000000000000240,-7.914258560113067276
0.396000000000000241,-7.918214213807571511
0.397000000000000242,-7.921901670639945436
0.398000000000000242,-7.925323750865824302
0.399000000000000243,-7.928482712621803152
0.400000000000000244,-7.931380283407949427
0.401000000000000245,-7.934017690923376165
0.402000000000000246,-7.936395693230818615
0.403000000000000247,-7.938514608229242597
0.404000000000000248,-7.940374342415839060
0.405000000000000249,-7.941974418921624590
0.406000000000000250,-7.943314004806973472
0.407000000000000250,-7.944391937605955079
0.408000000000000251,-7.945206751110366561
0.409000000000000252,-7.945756700386430005
0.410000000000000253,-7.946039786019090556
0.411000000000000254,-7.946053777580692312
0.412000000000000255,-7.945796236322360429
0.413000000000000256,-7.945264537088388757
0.414000000000000257,-7.944455889454944852
0.415000000000000258,-7.943367358096307562
0.416000000000000258,-7.941995882382809846
0.417000000000000259,-7.940338295216085029
0.418000000000000260,-7.938391341108231636
0.419000000000000261,-7.936151693512687011
0.420000000000000262,-7.933615971415408197
0.421000000000000263,-7.930780755196083831
0.422000000000000264,-7.927642601769560038
0.423000000000000265,-7.924198059018820572
0.424000000000000266,-7.920443679531293135
0.425000000000000266,-7.916376033650799116
0.426000000000000267,-7.911991721858271376
0.427000000000000268,-7.907287386494614267
0.428000000000000269,-7.902259722839643175
0.429000000000000270,-7.896905489561348190
0.430000000000000271,-7.891221518550102232
0.431000000000000272,-7.885204724152717226
0.432000000000000273,-7.878852111821371906
0.433000000000000274,-7.872160786192847759
0.434000000000000274,-7.865127958613387094
0.435000000000000275,-7.857750954124824716
0.436000000000000276,-7.850027217927608270
0.437000000000000277,-7.841954321336324085
0.438000000000000278,-7.833529967243505254
0.439000000000000279,-7.824751995107317448
0.440000000000000280,-7.815618385478735775
0.441000000000000281,-7.806127264083767336
0.442000000000000282,-7.796276905476202224
0.443000000000000282,-7.786065736276066573
0.444000000000000283,-7.775492338009168058
0.445000000000000284,-7.764555449562519307
0.446000000000000285,-7.753253969270616608
0.447000000000000286,-7.741586956647248385
0.448000000000000287,-7.729553633777085153
0.449000000000000288,-7.717153386381485625
0.450000000000000289,-7.704385764572331041
0.451000000000000290,-7.691250483307669583
0.452000000000000290,-7.677747422562731572
0.453000000000000291,-7.663876627229383232
0.454000000000000292,-7.649638306757104544
0.455000000000000293,-7.635032834548067804
0.456000000000000294,-7.620060747118756694
0.457000000000000295,-7.604722743040236210
0.458000000000000296,-7.589019681668816020
0.459000000000000297,-7.572952581678729089
0.460000000000000298,-7.556522619407952668
0.461000000000000298,-7.539731127028171720
0.462000000000000299,-7.522579590549478112
0.463000000000000300,-7.505069647670114641
0.464000000000000301,-7.487203085481345610
0.465000000000000302,-7.468981838037160870
0.466000000000000303,-7.450407983798210232
0.467000000000000304,-7.431483742959228422
0.468000000000000305,-7.412211474668623623
0.469000000000000306,-7.392593674148926652
0.470000000000000306,-7.372632969726380381
0.471000000000000307,-7.352332119777464925
0.472000000000000308,-7.331694009600331796
0.473000000000000309,-7.310721648218371449
0.474000000000000310,-7.289418165123132454
0.475000000000000311,-7.267786806963473900
0.476000000000000312,-7.245830934187621253
0.477000000000000313,-7.223554017644365999
0.478000000000000314,-7.200959635149587257
0.479000000000000314,-7.178051468023989301
0.480000000000000315,-7.154833297607500420
0.481000000000000316,-7.131309001755933075
0.482000000000000317,-7.107482551324755704
0.483000000000000318,-7.083358006645113392
0.484000000000000319,-7.058939513996632442
0.485000000000000320,-7.034231302081485282
0.486000000000000321,-7.009237678503997593
0.487000000000000322,-6.983963026259774942
0.488000000000000322,-6.958411800238136991
0.489000000000000323,-6.932588523741626929
0.490000000000000324,-6.906497785025868197
0.491000000000000325,-6.880144233863118686
0.492000000000000326,-6.853532578132496944
0.493000000000000327,-6.826667580439891303
0.494000000000000328,-6.799554054770109879
0.495000000000000329,-6.772196863173981285
0.496000000000000330,-6.744600912492620282
0.497000000000000330,-6.716771151121305294
0.498000000000000331,-6.688712565814762812
0.499000000000000332,-6.660430178536105750
0.500000000000000333,-6.631929043351014741
0.501000000000000334,-6.603214243368812575
0.502000000000000335,-6.574290887732106015
0.503000000000000336,-6.545164108656265967
0.504000000000000337,-6.515839058520100480
0.505000000000000338,-6.486320907008791714
0.506000000000000338,-6.456614838310254179
0.507000000000000339,-6.426726048365791755
0.508000000000000340,-6.396659742175864416
0.509000000000000341,-6.366421131161803970
0.510000000000000342,-6.336015430583991304
0.511000000000000343,-6.305447857017142610
0.512000000000000344,-6.274723625883102507
0.513000000000000345,-6.243847949041541057
0.514000000000000346,-6.212826032438907298
0.515000000000000346,-6.181663073815736986
0.516000000000000347,-6.150364260472558797
0.517000000000000348,-6.118934767094480698
0.518000000000000349,-6.087379753634364121
0.519000000000000350,-6.055704363254663214
0.520000000000000351,-6.023913720327700005
0.521000000000000352,-5.992012928494331092
0.522000000000000353,-5.960007068780633688
0.523000000000000353,-5.927901197772436959
0.524000000000000354,-5.895700345847389556
0.525000000000000355,-5.863409515464104160
0.526000000000000356,-5.831033679508019318
0.527000000000000357,-5.798577779693582457
0.528000000000000358,-5.766046725022108355
0.529000000000000359,-5.733445390294993338
0.530000000000000360,-5.700778614681516032
0.531000000000000361,-5.668051200340803675
0.532000000000000361,-5.635267911097235682
0.533000000000000362,-5.602433471168703605
0.534000000000000363,-5.569552563947000934
0.535000000000000364,-5.536629830829705945
0.536000000000000365,-5.503669870102791073
0.537000000000000366,-5.470677235873266930
0.538000000000000367,-5.437656437051034075
0.539000000000000368,-5.404611936379323467
0.540000000000000369,-5.371548149512724635
0.541000000000000369,-5.338469444142243781
0.542000000000000370,-5.305380139166367748
0.543000000000000371,-5.272284503907465947
0.544000000000000372,-5.239186757372643832
0.545000000000000373,-5.206091067558213936
0.546000000000000374,-5.173001550796949566
0.547000000000000375,-5.139922271147251642
0.548000000000000376,-5.106857239823451522
0.549000000000000377,-5.073810414666310109
0.550000000000000377,-5.040785699652897023
0.551000000000000378,-5.007786944444971411
0.552000000000000379,-4.974817943975086365
0.553000000000000380,-4.941882438069428396
0.554000000000000381,-4.908984111106613923
0.555000000000000382,-4.876126591711670955
0.556000000000000383,-4.843313452484121484
0.557000000000000384,-4.810548209759615723
0.558000000000000385,-4.777834323404001715
0.559000000000000385,-4.745175196639191739
0.560000000000000386,-4.712574175899905349
0.561000000000000387,-4.680034550720459485
0.562000000000000388,-4.647559553650806308
0.563000000000000389,-4.615152360201028259
0.564000000000000390,-4.582816088813443045
0.565000000000000391,-4.550553800861537823
0.566000000000000392,-4.518368500674950994
0.567000000000000393,-4.486263135589756423
0.568000000000000393,-4.454240596023178789
0.569000000000000394,-4.422303715572065030
0.570000000000000395,-4.390455271134397819
0.571000000000000396,-4.358697983052921110
0.572000000000000397,-4.327034515280419491
0.573000000000000398,-4.295467475565663662
0.574000000000000399,-4.263999415659521119
0.575000000000000400,-4.232632831540376728
0.576000000000000401,-4.201370163658260992
0.577000000000000401,-4.170213797197031447
0.578000000000000402,-4.139166062353821118
0.579000000000000403,-4.108229234635202509
0.580000000000000404,-4.077405535169427608
0.581000000000000405,-4.046697131034020956
0.582000000000000406,-4.016106135598192850
0.583000000000000407,-3.985634608879402574
0.584000000000000408,-3.955284557913526733
0.585000000000000409,-3.925057937138004327
0.586000000000000409,-3.894956648787366582
0.587000000000000410,-3.864982543300693241
0.588000000000000411,-3.835137419740259013
0.589000000000000412,-3.805423026221049554
0.590000000000000413,-3.775841060350412448
0.591000000000000414,-3.746393169677459500
0.592000000000000415,-3.717080952151692763
0.593000000000000416,-3.687905956590284084
0.594000000000000417,-3.658869683153586294
0.595000000000000417,-3.629973583828491890
0.596000000000000418,-3.601219062918892266
0.597000000000000419,-3.572607477543189525
0.598000000000000420,-3.544140138138021090
0.599000000000000421,-3.515818308968086114
0.600000000000000422,-3.487643208641443060
0.601000000000000423,-3.459616010629987581
0.602000000000000424,-3.431737843794674170
0.603000000000000425,-3.404009792915091648
0.604000000000000425,-3.376432899223010597
0.605000000000000426,-3.349008160939565215
0.606000000000000427,-3.321736533815735193
0.607000000000000428,-3.294618931675613371
0.608000000000000429,-3.267656226962436961
0.609000000000000430,-3.240849251286689103
0.610000000000000431,-3.214198795976283662
0.611000000000000432,-3.187705612628280782
0.612000000000000433,-3.161370413661952483
0.613000000000000433,-3.135193872872918952
0.614000000000000434,-3.109176625988016696
0.615000000000000435,-3.083319271220640534
0.616000000000000436,-3.057622369826300091
0.617000000000000437,-3.032086446658211809
0.618000000000000438,-3.006711990722540584
0.619000000000000439,-2.981499455733114701
0.620000000000000440,-2.956449260665463985
0.621000000000000441,-2.931561790309817006
0.622000000000000441,-2.906837395822951642
0.623000000000000442,-2.882276395278640102
0.624000000000000443,-2.857879074216477910
0.625000000000000444,-2.833645686188987156
0.626000000000000445,-2.809576453306669386
0.627000000000000446,-2.785671566780993480
0.628000000000000447,-2.761931187464986781
0.629000000000000448,-2.738355446391397052
0.630000000000000449,-2.714944445308181020
0.631000000000000449,-2.691698257211197820
0.632000000000000450,-2.668616926873986106
0.633000000000000451,-2.645700471374444973
0.634000000000000452,-2.622948880618288126
0.635000000000000453,-2.600362117859197131
0.636000000000000454,-2.577940120215459707
0.637000000000000455,-2.555682799183093046
0.638000000000000456,-2.533590041145218574
0.639000000000000457,-2.511661707877682392
0.640000000000000457,-2.489897637050782375
0.641000000000000458,-2.468297642726958507
0.642000000000000459,-2.446861515854505065
0.643000000000000460,-2.425589024756988010
0.644000000000000461,-2.404479915618538577
0.645000000000000462,-2.383533912964763690
0.646000000000000463,-2.362750720139268790
0.647000000000000464,-2.342130019775744643
0.648000000000000465,-2.321671474265529334
0.649000000000000465,-2.301374726220568157
0.650000000000000466,-2.281239398931790952
0.651000000000000467,-2.261265096822735465
0.652000000000000468,-2.241451405898509996
0.653000000000000469,-2.221797894189919909
0.654000000000000470,-2.202304112192837948
0.655000000000000471,-2.182969593302687805
0.656000000000000472,-2.163793854244045356
0.657000000000000473,-2.144776395495346488
0.658000000000000473,-2.125916701708649104
0.659000000000000474,-2.107214242124413772
0.660000000000000475,-2.088668470981352776
0.661000000000000476,-2.070278827921205433
0.662000000000000477,-2.052044738388570710
0.663000000000000478,-2.033965614025661672
0.664000000000000479,-2.016040853062075033
0.665000000000000480,-1.998269840699441247
0.666000000000000481,-1.980651949491131436
0.667000000000000481,-1.963186539716793799
0.668000000000000482,-1.945872959751979270
0.669000000000000483,-1.928710546432588657
0.670000000000000484,-1.911698625414369301
0.671000000000000485,-1.894836511527338674
0.672000000000000486,-1.878123509125179114
0.673000000000000487,-1.861558912429650992
0.674000000000000488,-1.845142005869955470
0.675000000000000488,-1.828872064417123466
0.676000000000000489,-1.812748353913480104
0.677000000000000490,-1.796770131397063652
0.678000000000000491,-1.780936645421185016
0.679000000000000492,-1.765247136369033187
0.680000000000000493,-1.749700836763391720
0.681000000000000494,-1.734296971571490875
0.682000000000000495,-1.719034758504999205
0.683000000000000496,-1.703913408315222977
0.684000000000000496,-1.688932125083475899
0.685000000000000497,-1.674090106506705755
0.686000000000000498,-1.659386544178389045
0.687000000000000499,-1.644820623864706066
0.688000000000000500,-1.630391525776040407
0.689000000000000501,-1.616098424833853242
0.690000000000000502,-1.601940490932941996
0.691000000000000503,-1.587916889199122217
0.692000000000000504,-1.574026780242353762
0.693000000000000504,-1.560269320405419657
0.694000000000000505,-1.546643662008049924
0.695000000000000506,-1.533148953586710439
0.696000000000000507,-1.519784340129928024
0.697000000000000508,-1.506548963309285893
0.698000000000000509,-1.493441961706131194
0.699000000000000510,-1.480462471033947569
0.700000000000000511,-1.467609624356556175
0.701000000000000512,-1.454882552302079635
0.702000000000000512,-1.442280383272763533
0.703000000000000513,-1.429802243650688531
0.704000000000000514,-1.417447257999416177
0.705000000000000515,-1.405214549261582402
0.706000000000000516,-1.393103238952533518
0.707000000000000517,-1.381112447350009598
0.708000000000000518,-1.369241293679884564
0.709000000000000519,-1.357488896298137515
0.710000000000000520,-1.345854372868905857
0.711000000000000520,-1.334336840538841606
0.712000000000000521,-1.322935416107704931
0.713000000000000522,-1.311649216195262868
0.714000000000000523,-1.300477357404594692
0.715000000000000524,-1.289418956481727330
0.716000000000000525,-1.278473130471787567
0.717000000000000526,-1.267638996871605084
0.718000000000000527,-1.256915673778838283
0.719000000000000528,-1.246302280037704158
0.720000000000000528,-1.235797935381342194
0.721000000000000529,-1.225401760570778542
0.722000000000000530,-1.215112877530680757
0.723000000000000531,-1.204930409481788089
0.724000000000000532,-1.194853481070201617
0.725000000000000533,-1.184881218493479382
0.726000000000000534,-1.175012749623602692
0.727000000000000535,-1.165247204126902414
0.728000000000000536,-1.155583713580922600
0.729000000000000536,-1.146021411588310057
0.730000000000000537,-1.136559433887767145
0.731000000000000538,-1.127196918462061603
0.732000000000000539,-1.117933005643226618
0.733000000000000540,-1.108766838214903405
0.734000000000000541,-1.099697561511919996
0.735000000000000542,-1.090724323517114680
0.736000000000000543,-1.081846274955514220
0.737000000000000544,-1.073062569385787590
0.738000000000000544,-1.064372363289149526
0.739000000000000545,-1.055774816155648832
0.740000000000000546,-1.047269090567943595
0.741000000000000547,-1.038854352282565952
0.742000000000000548,-1.030529770308784787
0.743000000000000549,-1.022294516984973090
0.744000000000000550,-1.014147768052660936
0.745000000000000551,-1.006088702728239692
0.746000000000000552,-0.998116503772360053
0.747000000000000552,-0.990230357557080110
0.748000000000000553,-0.982429454130780200
0.749000000000000554,-0.974712987280895726
0.750000000000000555,-0.967080154594519015
0.751000000000000556,-0.959530157516866211
0.752000000000000557,-0.952062201407704145
0.753000000000000558,-0.944675495595679093
0.754000000000000559,-0.937369253430725413
0.755000000000000560,-0.930142692334429144
0.756000000000000560,-0.922995033848529545
0.757000000000000561,-0.915925503681453534
0.758000000000000562,-0.908933331753040030
0.759000000000000563,-0.902017752237421755
0.760000000000000564,-0.895178003604104489
0.761000000000000565,-0.888413328657285506
0.762000000000000566,-0.881722974573449947
0.763000000000000567,-0.875106192937264438
0.764000000000000568,-0.868562239775798717
0.765000000000000568,-0.862090375591148983
0.766000000000000569,-0.855689865391407345
0.767000000000000570,-0.849359978720116815
0.768000000000000571,-0.843099989684125029
0.769000000000000572,-0.836909176979992231
0.770000000000000573,-0.830786823918871042
0.771000000000000574,-0.824732218449970134
0.772000000000000575,-0.818744653182574056
0.773000000000000576,-0.812823425406677735
0.774000000000000576,-0.806967837112263831
0.775000000000000577,-0.801177195007247045
0.776000000000000578,-0.795450810534086727
0.777000000000000579,-0.789787999885163461
0.778000000000000580,-0.784188084016850695
0.779000000000000581,-0.778650388662401882
0.780000000000000582,-0.773174244343614814
0.781000000000000583,-0.767758986381335773
0.782000000000000584,-0.762403954904798620
0.783000000000000584,-0.757108494859853209
0.784000000000000585,-0.751871956016098908
0.785000000000000586,-0.746693692972918099
0.786000000000000587,-0.741573065164503165
0.787000000000000588,-0.736509436863819311
0.788000000000000589,-0.731502177185567870
0.789000000000000590,-0.726550660088210121
0.790000000000000591,-0.721654264374981369
0.791000000000000592,-0.716812373694003524
0.792000000000000592,-0.712024376537480963
0.793000000000000593,-0.707289666239992898
0.794000000000000594,-0.702607640975936865
0.795000000000000595,-0.697977703756118895
0.796000000000000596,-0.693399262423494478
0.797000000000000597,-0.688871729648142250
0.798000000000000598,-0.684394522921422555
0.799000000000000599,-0.679967064549375944
0.800000000000000600,-0.675588781645388825
0.801000000000000600,-0.671259106122117144
0.802000000000000601,-0.666977474682695859
0.803000000000000602,-0.662743328811285504
0.804000000000000603,-0.658556114762920197
0.805000000000000604,-0.654415283552725824
0.806000000000000605,-0.650320290944466750
0.807000000000000606,-0.646270597438523664
0.808000000000000607,-0.642265668259227929
0.809000000000000608,-0.638304973341630277
0.810000000000000608,-0.634387987317721391
0.811000000000000609,-0.630514189502035194
0.812000000000000610,-0.626683063876820268
0.813000000000000611,-0.622894099076579222
0.814000000000000612,-0.619146788372191503
0.815000000000000613,-0.615440629654512072
0.816000000000000614,-0.611775125417485577
0.817000000000000615,-0.608149782740817990
0.818000000000000616,-0.604564113272215042
0.819000000000000616,-0.601017633209159463
0.820000000000000617,-0.597509863280286324
0.821000000000000618,-0.594040328726365141
0.822000000000000619,-0.590608559280891177
0.823000000000000620,-0.587214089150274621
0.824000000000000621,-0.583856456993687489
0.825000000000000622,-0.580535205902570128
0.826000000000000623,-0.577249883379779449
0.827000000000000624,-0.574000041318410981
0.828000000000000624,-0.570785235980323824
0.829000000000000625,-0.567605027974342979
0.830000000000000626,-0.564458982234184892
0.831000000000000627,-0.561346667996097670
0.832000000000000628,-0.558267658776243070
0.833000000000000629,-0.555221532347796143
0.834000000000000630,-0.552207870717823512
0.835000000000000631,-0.549226260103910402
0.836000000000000631,-0.546276290910565732
0.837000000000000632,-0.543357557705420602
0.838000000000000633,-0.540469659195197294
0.839000000000000634,-0.537612198201496305
0.840000000000000635,-0.534784781636407525
0.841000000000000636,-0.531987020477911576
0.842000000000000637,-0.529218529745148158
0.843000000000000638,-0.526478928473492980
0.844000000000000639,-0.523767839689501358
0.845000000000000639,-0.521084890385709709
0.846000000000000640,-0.518429711495277390
0.847000000000000641,-0.515801937866554150
0.848000000000000642,-0.513201208237460293
0.849000000000000643,-0.510627165209807332
0.850000000000000644,-0.508079455223509502
0.851000000000000645,-0.505557728530666384
0.852000000000000646,-0.503061639169598451
0.853000000000000647,-0.500590844938777146
0.854000000000000647,-0.498145007370677739
0.855000000000000648,-0.495723791705581118
0.856000000000000649,-0.493326866865308300
0.857000000000000650,-0.490953905426891435
0.858000000000000651,-0.488604583596207565
0.859000000000000652,-0.486278581181557368
0.860000000000000653,-0.483975581567241186
0.861000000000000654,-0.481695271687045623
0.862000000000000655,-0.479437341997774991
0.863000000000000655,-0.477201486452705215
0.864000000000000656,-0.474987402475071208
0.865000000000000657,-0.472794790931501452
0.866000000000000658,-0.470623356105495438
0.867000000000000659,-0.468472805670878067
0.868000000000000660,-0.466342850665256770
0.869000000000000661,-0.464233205463503662
0.870000000000000662,-0.462143587751255580
0.871000000000000663,-0.460073718498441309
0.872000000000000663,-0.458023321932800431
0.873000000000000664,-0.455992125513486335
0.874000000000000665,-0.453979859904654393
0.875000000000000666,-0.451986258949129471
0.876000000000000667,-0.450011059642086320
0.877000000000000668,-0.448054002104791516
0.878000000000000669,-0.446114829558403314
0.879000000000000670,-0.444193288297802635
0.880000000000000671,-0.442289127665510928
0.881000000000000671,-0.440402100025640120
0.882000000000000672,-0.438531960737943816
0.883000000000000673,-0.436678468131895869
0.884000000000000674,-0.434841383480879640
0.885000000000000675,-0.433020470976418159
0.886000000000000676,-0.431215497702511386
0.887000000000000677,-0.429426233610034846
0.888000000000000678,-0.427652451491223662
0.889000000000000679,-0.425893926954256485
0.890000000000000679,-0.424150438397918439
0.891000000000000680,-0.422421766986352254
0.892000000000000681,-0.420707696623913940
0.893000000000000682,-0.419008013930116718
0.894000000000000683,-0.417322508214675536
0.895000000000000684,-0.415650971452658946
0.896000000000000685,-0.413993198259742790
0.897000000000000686,-0.412348985867557194
0.898000000000000687,-0.410718134099159582
0.899000000000000687,-0.409100445344607100
0.900000000000000688,-0.407495724536640402
0.901000000000000689,-0.405903779126482678
0.902000000000000690,-0.404324419059760742
0.903000000000000691,-0.402757456752529830
0.904000000000000692,-0.401202707067426556
0.905000000000000693,-0.399659987289934460
0.906000000000000694,-0.398129117104789876
0.907000000000000695,-0.396609918572476960
0.908000000000000695,-0.395102216105885362
0.909000000000000696,-0.393605836447060653
0.910000000000000697,-0.392120608644113244
0.911000000000000698,-0.390646364028223780
0.912000000000000699,-0.389182936190800577
0.913000000000000700,-0.387730160960767067
0.914000000000000701,-0.386287876381957329
0.915000000000000702,-0.384855922690680086
0.916000000000000703,-0.383434142293384739
0.917000000000000703,-0.382022379744480389
0.918000000000000704,-0.380620481724288584
0.919000000000000705,-0.379228297017113858
0.920000000000000706,-0.377845676489484861
0.921000000000000707,-0.376472473068499847
0.922000000000000708,-0.375108541720326150
0.923000000000000709,-0.373753739428850928
0.924000000000000710,-0.372407925174436660
0.925000000000000711,-0.371070959912853882
0.926000000000000711,-0.369742706554330836
0.927000000000000712,-0.368423029942753888
0.928000000000000713,-0.367111796835001725
0.929000000000000714,-0.365808875880445417
0.930000000000000715,-0.364514137600547350
0.931000000000000716,-0.363227454368641345
0.932000000000000717,-0.361948700389843447
0.933000000000000718,-0.360677751681095615
0.934000000000000719,-0.359414486051369053
0.935000000000000719,-0.358158783082001997
0.936000000000000720,-0.356910524107176275
0.937000000000000721,-0.355669592194548079
0.938000000000000722,-0.354435872126022011
0.939000000000000723,-0.353209250378658191
0.940000000000000724,-0.351989615105729570
0.941000000000000725,-0.350776856117930413
0.942000000000000726,-0.349570864864720110
0.943000000000000727,-0.348371534415802930
0.944000000000000727,-0.347178759442776652
0.945000000000000728,-0.345992436200899867
0.946000000000000729,-0.344812462511007667
0.947000000000000730,-0.343638737741589595
0.948000000000000731,-0.342471162790980277
0.949000000000000732,-0.341309640069722087
0.950000000000000733,-0.340154073483043162
0.951000000000000734,-0.339004368413512558
0.952000000000000735,-0.337860431703801700
0.953000000000000735,-0.336722171639601442
0.954000000000000736,-0.335589497932694436
0.955000000000000737,-0.334462321704145304
0.956000000000000738,-0.333340555467655453
0.957000000000000739,-0.332224113113033126
0.958000000000000740,-0.331112909889832219
0.959000000000000741,-0.330006862391095057
0.960000000000000742,-0.328905888537279645
0.961000000000000743,-0.327809907560282554
0.962000000000000743,-0.326718839987625742
0.963000000000000744,-0.325632607626773152
0.964000000000000745,-0.324551133549594861
0.965000000000000746,-0.323474342076947474
0.966000000000000747,-0.322402158763413049
0.967000000000000748,-0.321334510382155936
0.968000000000000749,-0.320271324909938648
0.969000000000000750,-0.319212531512238828
0.970000000000000751,-0.318158060528542175
0.971000000000000751,-0.317107843457726524
0.972000000000000752,-0.316061812943605469
0.973000000000000753,-0.315019902760611981
0.974000000000000754,-0.313982047799586106
0.975000000000000755,-0.312948184053714051
0.976000000000000756,-0.311918248604596993
0.977000000000000757,-0.310892179608439956
0.978000000000000758,-0.309869916282380753
0.979000000000000759,-0.308851398890949924
0.980000000000000759,-0.307836568732640037
0.981000000000000760,-0.306825368126627918
0.982000000000000761,-0.305817740399611460
0.983000000000000762,-0.304813629872765501
0.984000000000000763,-0.303812981848832098
0.985000000000000764,-0.302815742599347681
0.986000000000000765,-0.301821859351967814
0.987000000000000766,-0.300831280277933988
0.988000000000000766,-0.299843954479658836
0.989000000000000767,-0.298859831978436241
0.990000000000000768,-0.297878863702273122
0.991000000000000769,-0.296901001473827419
0.992000000000000770,-0.295926197998484630
0.993000000000000771,-0.294954406852556916
0.994000000000000772,-0.293985582471568807
0.995000000000000773,-0.293019680138707383
0.996000000000000774,-0.292056655973345458
0.997000000000000774,-0.291096466919710695
0.998000000000000775,-0.290139070735658477
0.999000000000000776,-0.289184425981558857
1.000000000000000666,-0.288232492009302788
1.001000000000000778,-0.287283228951421610
1.002000000000000668,-0.286336597710309837
1.003000000000000780,-0.285392559947570790
1.004000000000000670,-0.284451078073468977
1.005000000000000782,-0.283512115236493167
1.006000000000000671,-0.282575635313032536
1.007000000000000783,-0.281641602897146348
1.008000000000000673,-0.280709983290466369
1.009000000000000785,-0.279780742492184153
1.010000000000000675,-0.278853847189161064
1.011000000000000787,-0.277929264746129112
1.012000000000000677,-0.277006963196012257
1.013000000000000789,-0.276086911230343790
1.014000000000000679,-0.275169078189775151
1.015000000000000790,-0.274253434054717471
1.016000000000000680,-0.273339949436060492
1.017000000000000792,-0.272428595565995413
1.018000000000000682,-0.271519344288942366
1.019000000000000794,-0.270612168052583368
1.020000000000000684,-0.269707039898986534
1.021000000000000796,-0.268803933455824651
1.022000000000000686,-0.267902822927698847
1.023000000000000798,-0.267003683087558341
1.024000000000000687,-0.266106489268207846
1.025000000000000799,-0.265211217353922835
1.026000000000000689,-0.264317843772148786
1.027000000000000801,-0.263426345485291868
1.028000000000000691,-0.262536699982617361
1.029000000000000803,-0.261648885272221854
1.030000000000000693,-0.260762879873105979
1.031000000000000805,-0.259878662807343175
1.032000000000000695,-0.258996213592321500
1.033000000000000806,-0.258115512233090372
1.034000000000000696,-0.257236539214793725
1.035000000000000808,-0.256359275495172401
1.036000000000000698,-0.255483702497175058
1.037000000000000810,-0.254609802101659288
1.038000000000000700,-0.253737556640144413
1.039000000000000812,-0.252866948887678189
1.040000000000000702,-0.251997962055789448
1.041000000000000814,-0.251130579785499186
1.042000000000000703,-0.250264786140433404
1.043000000000000815,-0.249400565600016139
1.044000000000000705,-0.248537903052739761
1.045000000000000817,-0.247676783789503141
1.046000000000000707,-0.246817193497059106
1.047000000000000819,-0.245959118251513731
1.048000000000000709,-0.245102544511911880
1.049000000000000821,-0.244247459113904691
1.050000000000000711,-0.243393849263486312
1.051000000000000822,-0.242541702530816389
1.052000000000000712,-0.241691006844106659
1.053000000000000824,-0.240841750483586831
1.054000000000000714,-0.239993922075546928
1.055000000000000826,-0.239147510586451478
1.056000000000000716,-0.238302505317123270
1.057000000000000828,-0.237458895897002475
1.058000000000000718,-0.236616672278470441
1.059000000000000830,-0.235775824731254469
1.060000000000000719,-0.234936343836894906
1.061000000000000831,-0.234098220483283909
1.062000000000000721,-0.233261445859265754
1.063000000000000833,-0.232426011449324760
1.064000000000000723,-0.231591909028311699
1.065000000000000835,-0.230759130656258804
1.066000000000000725,-0.229927668673260227
1.067000000000000837,-0.229097515694391657
1.068000000000000727,-0.228268664604740767
1.069000000000000838,-0.227441108554448712
1.070000000000000728,-0.226614840953860502
1.071000000000000840,-0.225789855468708028
1.072000000000000730,-0.224966146015371793
1.073000000000000842,-0.224143706756197991
1.074000000000000732,-0.223322532094864995
1.075000000000000844,-0.222502616671840625
1.076000000000000734,-0.221683955359870039
1.077000000000000846,-0.220866543259528786
1.078000000000000735,-0.220050375694851086
1.079000000000000847,-0.219235448208984829
1.080000000000000737,-0.218421756559948582
1.081000000000000849,-0.217609296716392953
1.082000000000000739,-0.216798064853456512
1.083000000000000851,-0.215988057348666551
1.084000000000000741,-0.215179270777893006
1.085000000000000853,-0.214371701911348633
1.086000000000000743,-0.213565347709658765
1.087000000000000854,-0.212760205319977830
1.088000000000000744,-0.211956272072158114
1.089000000000000856,-0.211153545474962401
1.090000000000000746,-0.210352023212340450
1.091000000000000858,-0.209551703139760459
1.092000000000000748,-0.208752583280569226
1.093000000000000860,-0.207954661822430081
1.094000000000000750,-0.207157937113779417
1.095000000000000862,-0.206362407660365677
1.096000000000000751,-0.205568072121814577
1.097000000000000863,-0.204774929308235654
1.098000000000000753,-0.203982978176909663
1.099000000000000865,-0.203192217828988081
1.100000000000000755,-0.202402647506251865
1.101000000000000867,-0.201614266587919699
1.102000000000000757,-0.200827074587502874
1.103000000000000869,-0.200041071149696853
1.104000000000000759,-0.199256256047312785
1.105000000000000870,-0.198472629178280929
1.106000000000000760,-0.197690190562654189
1.107000000000000872,-0.196908940339698552
1.108000000000000762,-0.196128878764994935
1.109000000000000874,-0.195350006207598570
1.110000000000000764,-0.194572323147231191
1.111000000000000876,-0.193795830171515970
1.112000000000000766,-0.193020527973263856
1.113000000000000878,-0.192246417347785969
1.114000000000000767,-0.191473499190255053
1.115000000000000879,-0.190701774493093057
1.116000000000000769,-0.189931244343418182
1.117000000000000881,-0.189161909920510796
1.118000000000000771,-0.188393772493331724
1.119000000000000883,-0.187626833418067740
1.120000000000000773,-0.186861094135719774
1.121000000000000885,-0.186096556169727145
1.122000000000000774,-0.185333221123619662
1.123000000000000886,-0.184571090678722100
1.124000000000000776,-0.183810166591888036
1.125000000000000888,-0.183050450693247435
1.126000000000000778,-0.182291944884022644
1.127000000000000890,-0.181534651134365621
1.128000000000000780,-0.180778571481208100
1.129000000000000892,-0.180023708026180507
1.130000000000000782,-0.179270062933540669
1.131000000000000894,-0.178517638428135755
1.132000000000000783,-0.177766436793408894
1.133000000000000895,-0.177016460369432888
1.134000000000000785,-0.176267711550954692
1.135000000000000897,-0.175520192785516366
1.136000000000000787,-0.174773906571555310
1.137000000000000899,-0.174028855456575093
1.138000000000000789,-0.173285042035317111
1.139000000000000901,-0.172542468947990052
1.140000000000000790,-0.171801138878504400
1.141000000000000902,-0.171061054552738290
1.142000000000000792,-0.170322218736853409
1.143000000000000904,-0.169584634235611820
1.144000000000000794,-0.168848303890749118
1.145000000000000906,-0.168113230579332418
1.146000000000000796,-0.167379417212202730
1.147000000000000908,-0.166646866732391402
1.148000000000000798,-0.165915582113595222
1.149000000000000909,-0.165185566358669794
1.150000000000000799,-0.164456822498133176
1.151000000000000689,-0.163729353588726145
1.152000000000000801,-0.163003162711969962
1.153000000000000913,-0.162278252972767184
1.154000000000000803,-0.161554627498006947
1.155000000000000693,-0.160832289435214743
1.156000000000000805,-0.160111241951224725
1.157000000000000917,-0.159391488230852224
1.158000000000000806,-0.158673031475625809
1.159000000000000696,-0.157955874902509924
1.160000000000000808,-0.157240021742666491
1.161000000000000920,-0.156525475240239603
1.162000000000000810,-0.155812238651160145
1.163000000000000700,-0.155100315241966130
1.164000000000000812,-0.154389708288652810
1.165000000000000924,-0.153680421075537033
1.166000000000000814,-0.152972456894159142
1.167000000000000703,-0.152265819042174677
1.168000000000000815,-0.151560510822306205
1.169000000000000927,-0.150856535541275594
1.170000000000000817,-0.150153896508790408
1.171000000000000707,-0.149452597036520529
1.172000000000000819,-0.148752640437126299
1.173000000000000931,-0.148054030023273275
1.174000000000000821,-0.147356769106686880
1.175000000000000711,-0.146660860997219505
1.176000000000000822,-0.145966309001940797
1.177000000000000934,-0.145273116424231602
1.178000000000000824,-0.144581286562920547
1.179000000000000714,-0.143890822711406352
1.180000000000000826,-0.143201728156836683
1.181000000000000938,-0.142514006179260522
1.182000000000000828,-0.141827660050837301
1.183000000000000718,-0.141142693035042177
1.184000000000000830,-0.140459108385883658
1.185000000000000941,-0.139776909347150841
1.186000000000000831,-0.139096099151673980
1.187000000000000721,-0.138416681020590959
1.188000000000000833,-0.137738658162644745
1.189000000000000945,-0.137062033773481862
1.190000000000000835,-0.136386811034980016
1.191000000000000725,-0.135712993114568692
1.192000000000000837,-0.135040583164603351
1.193000000000000949,-0.134369584321702540
1.194000000000000838,-0.133699999706150707
1.195000000000000728,-0.133031832421274393
1.196000000000000840,-0.132365085552860612
1.197000000000000952,-0.131699762168577761
1.198000000000000842,-0.131035865317399053
1.199000000000000732,-0.130373398029072024
1.200000000000000844,-0.129712363313552403
1.201000000000000956,-0.129052764160506095
1.202000000000000846,-0.128394603538779989
1.203000000000000735,-0.127737884395908857
1.204000000000000847,-0.127082609657620083
1.205000000000000959,-0.126428782227377356
1.206000000000000849,-0.125776404985896650
1.207000000000000739,-0.125125480790706678
1.208000000000000851,-0.124476012475710524
1.209000000000000963,-0.123828002850752905
1.210000000000000853,-0.123181454701213888
1.211000000000000743,-0.122536370787588306
1.212000000000000854,-0.121892753845113264
1.213000000000000966,-0.121250606583362869
1.214000000000000856,-0.120609931685901547
1.215000000000000746,-0.119970731809898007
1.216000000000000858,-0.119333009585795763
1.217000000000000970,-0.118696767616959797
1.218000000000000860,-0.118062008479349861
1.219000000000000750,-0.117428734721203049
1.220000000000000862,-0.116796948862723779
1.221000000000000973,-0.116166653395776406
1.222000000000000863,-0.115537850783605858
1.223000000000000753,-0.114910543460542719
1.224000000000000865,-0.114284733831743979
1.225000000000000977,-0.113660424272921307
1.226000000000000867,-0.113037617130091556
1.227000000000000757,-0.112416314719327934
1.228000000000000869,-0.111796519326520724
1.229000000000000981,-0.111178233207166216
1.230000000000000870,-0.110561458586121139
1.231000000000000760,-0.109946197657410288
1.232000000000000872,-0.109332452584024381
1.233000000000000984,-0.108720225497705242
1.234000000000000874,-0.108109518498784030
1.235000000000000764,-0.107500333655983590
1.236000000000000876,-0.106892673006254629
1.237000000000000988,-0.106286538554608276
1.238000000000000878,-0.105681932273966134
1.239000000000000767,-0.105078856104999591
1.240000000000000879,-0.104477311955996077
1.241000000000000991,-0.103877301702721539
1.242000000000000881,-0.103278827188290651
1.243000000000000771,-0.102681890223047523
1.244000000000000883,-0.102086492584446548
1.245000000000000995,-0.101492636016953103
1.246000000000000885,-0.100900322231932876
1.247000000000000774,-0.100309552907557900
1.248000000000000886,-0.099720329688720924
1.249000000000000998,-0.099132654186950456
1.250000000000000888,-0.098546527980336543
1.251000000000000778,-0.097961952613452655
1.252000000000000890,-0.097378929597301114
1.253000000000001002,-0.096797460409241171
1.254000000000000892,-0.096217546492948072
1.255000000000000782,-0.095639189258356697
1.256000000000000894,-0.095062390081617362
1.257000000000001005,-0.094487150305067630
1.258000000000000895,-0.093913471237192764
1.259000000000000785,-0.093341354152598685
1.260000000000000897,-0.092770800291992347
1.261000000000001009,-0.092201810862168027
1.262000000000000899,-0.091634387035985615
1.263000000000000789,-0.091068529952374466
1.264000000000000901,-0.090504240716323653
1.265000000000001013,-0.089941520398884520
1.266000000000000902,-0.089380370037183327
1.267000000000000792,-0.088820790634422581
1.268000000000000904,-0.088262783159905642
1.269000000000001016,-0.087706348549048990
1.270000000000000906,-0.087151487703416061
1.271000000000000796,-0.086598201490733343
1.272000000000000908,-0.086046490744927845
1.273000000000001020,-0.085496356266165627
1.274000000000000909,-0.084947798820890971
1.275000000000000799,-0.084400819141862010
1.276000000000000911,-0.083855417928213535
1.277000000000001023,-0.083311595845492817
1.278000000000000913,-0.082769353525721262
1.279000000000000803,-0.082228691567454867
1.280000000000000915,-0.081689610535846349
1.281000000000001027,-0.081152110962697629
1.282000000000000917,-0.080616193346546197
1.283000000000000806,-0.080081858152722646
1.284000000000000918,-0.079549105813437784
1.285000000000001030,-0.079017936727845600
1.286000000000000920,-0.078488351262138434
1.287000000000000810,-0.077960349749621294
1.288000000000000922,-0.077433932490805713
1.289000000000001034,-0.076909099753492888
1.290000000000000924,-0.076385851772866567
1.291000000000000814,-0.075864188751598782
1.292000000000000925,-0.075344110859928051
1.293000000000001037,-0.074825618235782640
1.294000000000000927,-0.074308710984867438
1.295000000000000817,-0.073793389180770413
1.296000000000000929,-0.073279652865080105
1.297000000000001041,-0.072767502047484459
1.298000000000000931,-0.072256936705893962
1.299000000000000821,-0.071747956786549411
1.300000000000000933,-0.071240562204138547
1.301000000000001044,-0.070734752841920406
1.302000000000000934,-0.070230528551841379
1.303000000000000824,-0.069727889154666572
1.304000000000000936,-0.069226834440089979
1.305000000000001048,-0.068727364166879037
1.306000000000000938,-0.068229478062994897
1.307000000000000828,-0.067733175825722289
1.308000000000000940,-0.067238457121803416
1.309000000000001052,-0.066745321587580092
1.310000000000000941,-0.066253768829118209
1.311000000000000831,-0.065763798422355024
1.312000000000000943,-0.065275409913228014
1.313000000000001055,-0.064788602817834523
1.314000000000000945,-0.064303376622553490
1.315000000000000835,-0.063819730784202625
1.316000000000000947,-0.063337664730179849
1.317000000000001059,-0.062857177858614305
1.318000000000000949,-0.062378269538503839
1.319000000000000838,-0.061900939109882626
1.320000000000000950,-0.061425185883954438
1.321000000000001062,-0.060951009143253951
1.322000000000000952,-0.060478408141801235
1.323000000000000842,-0.060007382105249696
1.324000000000000954,-0.059537930231050182
1.325000000000001066,-0.059070051688597539
1.326000000000000956,-0.058603745619401196
1.327000000000000846,-0.058139011137232299
1.328000000000000957,-0.057675847328291584
1.329000000000001069,-0.057214253251363111
1.330000000000000959,-0.056754227937985693
1.331000000000000849,-0.056295770392607067
1.332000000000000961,-0.055838879592747158
1.333000000000001073,-0.055383554489166396
1.334000000000000963,-0.054929794006033830
1.335000000000000853,-0.054477597041084222
1.336000000000000965,-0.054026962465788510
1.337000000000001076,-0.053577889125525635
1.338000000000000966,-0.053130375839740659
1.339000000000000856,-0.052684421402124502
1.340000000000000968,-0.052240024580773113
1.341000000000001080,-0.051797184118360172
1.342000000000000970,-0.051355898732310834
1.343000000000000860,-0.050916167114970566
1.344000000000000972,-0.050477987933769584
1.345000000000001084,-0.050041359831408262
1.346000000000000973,-0.049606281426016939
1.347000000000000863,-0.049172751311332683
1.348000000000000975,-0.048740768056870998
1.349000000000001087,-0.048310330208100785
1.350000000000000977,-0.047881436286619103
1.351000000000000867,-0.047454084790324279
1.352000000000000979,-0.047028274193577656
1.353000000000001091,-0.046604002947401649
1.354000000000000981,-0.046181269479637223
1.355000000000000870,-0.045760072195120002
1.356000000000000982,-0.045340409475859288
1.357000000000001094,-0.044922279681215385
1.358000000000000984,-0.044505681148067675
1.359000000000000874,-0.044090612190995082
1.360000000000000986,-0.043677071102447229
1.361000000000001098,-0.043265056152931448
1.362000000000000988,-0.042854565591169590
1.363000000000000878,-0.042445597644288478
1.364000000000000989,-0.042038150517995518
1.365000000000001101,-0.041632222396741823
1.366000000000000991,-0.041227811443910453
1.367000000000000881,-0.040824915801987618
1.368000000000000993,-0.040423533592737537
1.369000000000001105,-0.040023662917379167
1.370000000000000995,-0.039625301856760109
1.371000000000000885,-0.039228448471533325
1.372000000000000997,-0.038833100802331155
1.373000000000001108,-0.038439256869946523
1.374000000000000998,-0.038046914675490387
1.375000000000000888,-0.037656072200590973
1.376000000000001000,-0.037266727407550292
1.377000000000001112,-0.036878878239523037
1.378000000000001002,-0.036492522620694301
1.379000000000000892,-0.036107658456449643
1.380000000000001004,-0.035724283633546884
1.381000000000001116,-0.035342396020299691
1.382000000000001005,-0.034961993466738048
1.383000000000000895,-0.034583073804787090
1.384000000000001007,-0.034205634848439692
1.385000000000001119,-0.033829674393928068
1.386000000000001009,-0.033455190219898970
1.387000000000000899,-0.033082180087571522
1.388000000000001011,-0.032710641740935409
1.389000000000001123,-0.032340572906890221
1.390000000000001013,-0.031971971295437919
1.391000000000000902,-0.031604834599844388
1.392000000000001014,-0.031239160496809259
1.393000000000001126,-0.030874946646637723
1.394000000000001016,-0.030512190693410612
1.395000000000000906,-0.030150890265147424
1.396000000000001018,-0.029791042973975678
1.397000000000001130,-0.029432646416303852
1.398000000000001020,-0.029075698172982632
1.399000000000000909,-0.028720195809474526
1.400000000000001021,-0.028366136876017044
1.401000000000001133,-0.028013518907794476
1.402000000000001023,-0.027662339425094863
1.403000000000000913,-0.027312595933477936
1.404000000000001025,-0.026964285923945584
1.405000000000001137,-0.026617406873093396
1.406000000000001027,-0.026271956243283344
1.407000000000000917,-0.025927931482807233
1.408000000000001029,-0.025585330026036600
1.409000000000001140,-0.025244149293598840
1.410000000000001030,-0.024904386692528986
1.411000000000000920,-0.024566039616431237
1.412000000000001032,-0.024229105445643263
1.413000000000001144,-0.023893581547391955
1.414000000000001034,-0.023559465275949480
1.415000000000000924,-0.023226753972793546
1.416000000000001036,-0.022895444966771494
1.417000000000001148,-0.022565535574246676
1.418000000000001037,-0.022237023099257944
1.419000000000000927,-0.021909904833677447
1.420000000000001039,-0.021584178057364140
1.421000000000001151,-0.021259840038320290
1.422000000000001041,-0.020936888032839874
1.423000000000000931,-0.020615319285666317
1.424000000000001043,-0.020295131030144038
1.425000000000001155,-0.019976320488367619
1.426000000000001044,-0.019658884871337035
1.427000000000000934,-0.019342821379106083
1.428000000000001046,-0.019028127200931531
1.429000000000001158,-0.018714799515419316
1.430000000000001048,-0.018402835490681634
1.431000000000000938,-0.018092232284475377
1.432000000000001050,-0.017782987044355748
1.433000000000001162,-0.017475096907820033
1.434000000000001052,-0.017168559002451084
1.435000000000000941,-0.016863370446068664
1.436000000000001053,-0.016559528346866120
1.437000000000001165,-0.016257029803556537
1.438000000000001055,-0.015955871905523281
1.439000000000000945,-0.015656051732950604
1.440000000000001057,-0.015357566356973242
1.441000000000001169,-0.015060412839809235
1.442000000000001059,-0.014764588234910541
1.443000000000000949,-0.014470089587096219
1.444000000000001060,-0.014176913932689888
1.445000000000001172,-0.013885058299659154
1.446000000000001062,-0.013594519707758665
1.447000000000000952,-0.013305295168654968
1.448000000000001064,-0.013017381686072369
1.449000000000001176,-0.012730776255927093
1.450000000000001066,-0.012445475866452126
1.451000000000000956,-0.012161477498341965
1.452000000000001068,-0.011878778124881362
1.453000000000001180,-0.011597374712076563
1.454000000000001069,-0.011317264218786418
1.455000000000000959,-0.011038443596855848
1.456000000000001071,-0.010760909791243091
1.457000000000001183,-0.010484659740151558
1.458000000000001073,-0.010209690375156646
1.459000000000000963,-0.009935998621330867
1.460000000000001075,-0.009663581397375397
1.461000000000001187,-0.009392435615743794
1.462000000000001076,-0.009122558182771866
1.463000000000000966,-0.008853945998793576
1.464000000000001078,-0.008586595958272613
1.465000000000001190,-0.008320504949926047
1.466000000000001080,-0.008055669856839996
1.467000000000000970,-0.007792087556597391
1.468000000000001082,-0.007529754921401075
1.469000000000001194,-0.007268668818183045
1.470000000000001084,-0.007008826108737961
1.471000000000000973,-0.006750223649831135
1.472000000000001085,-0.006492858293325872
1.473000000000001197,-0.006236726886291568
1.474000000000001087,-0.005981826271129004
1.475000000000000977,-0.005728153285675884
1.476000000000001089,-0.005475704763333944
1.477000000000001201,-0.005224477533176208
1.478000000000001091,-0.004974468420060500
1.479000000000000981,-0.004725674244744291
1.480000000000001092,-0.004478091823996842
1.481000000000001204,-0.004231717970709249
1.482000000000001094,-0.003986549494006801
1.483000000000000984,-0.003742583199362112
1.484000000000001096,-0.003499815888694119
1.485000000000001208,-0.003258244360485056
1.486000000000001098,-0.003017865409889671
1.487000000000000988,-0.002778675828834729
1.488000000000001100,-0.002540672406130240
1.489000000000001211,-0.002303851927574250
1.490000000000001101,-0.002068211176060488
1.491000000000000991,-0.001833746931674771
1.492000000000001103,-0.001600455971805948
1.493000000000001215,-0.001368335071247246
1.494000000000001105,-0.001137381002293142
1.495000000000000995,-0.000907590534845899
1.496000000000001107,-0.000678960436514837
1.497000000000001219,-0.000451487472715929
1.498000000000001108,-0.000225168406769831
1.499000000000000998,0.000000000000000000
