0.115481 , 248.304000
0.115949 , 246.711000
0.116417 , 245.118000
0.116886 , 243.527000
0.117354 , 241.943000
0.117823 , 240.370000
0.118291 , 238.817000
0.118759 , 237.284000
0.119228 , 235.777000
0.119696 , 234.300000
0.120164 , 232.855000
0.120633 , 231.435000
0.121101 , 230.031000
0.121569 , 228.643000
0.122038 , 227.265000
0.122506 , 225.893000
0.122975 , 224.515000
0.123443 , 223.132000
0.123911 , 221.741000
0.124380 , 220.333000
0.124848 , 218.918000
0.125316 , 217.488000
0.125785 , 216.051000
0.126253 , 214.604000
0.126722 , 213.159000
0.127190 , 211.715000
0.127658 , 210.268000
0.128127 , 208.822000
0.128595 , 207.378000
0.129063 , 205.937000
0.129532 , 204.489000
0.130000 , 203.051000
0.130469 , 201.604000
0.130937 , 200.156000
0.131405 , 198.699000
0.131874 , 197.233000
0.132342 , 195.765000
0.132810 , 194.298000
0.133279 , 192.833000
0.133747 , 191.373000
0.134216 , 189.928000
0.134684 , 188.494000
0.135152 , 187.079000
0.135621 , 185.690000
0.136089 , 184.325000
0.136557 , 182.982000
0.137026 , 181.667000
0.137494 , 180.373000
0.137962 , 179.091000
0.138431 , 177.825000
0.138899 , 176.566000
0.139368 , 175.314000
0.139836 , 174.062000
0.140304 , 172.805000
0.140773 , 171.547000
0.141241 , 170.289000
0.141709 , 169.027000
0.142178 , 167.776000
0.142646 , 166.533000
0.143115 , 165.296000
0.143583 , 164.071000
0.144051 , 162.859000
0.144520 , 161.672000
0.144988 , 160.499000
0.145456 , 159.340000
0.145925 , 158.204000
0.146393 , 157.089000
0.146862 , 155.986000
0.147330 , 154.898000
0.147798 , 153.820000
0.148267 , 152.756000
0.148735 , 151.697000
0.149203 , 150.644000
0.149672 , 149.594000
0.150140 , 148.546000
0.150609 , 147.500000
0.151077 , 146.451000
0.151545 , 145.403000
0.152014 , 144.358000
0.152482 , 143.312000
0.152950 , 142.265000
0.153419 , 141.219000
0.153887 , 140.174000
0.154356 , 139.130000
0.154824 , 138.088000
0.155292 , 137.048000
0.155761 , 136.010000
0.156229 , 134.976000
0.156697 , 133.938000
0.157166 , 132.910000
0.157634 , 131.884000
0.158102 , 130.860000
0.158571 , 129.842000
0.159039 , 128.836000
0.159508 , 127.836000
0.159976 , 126.849000
0.160444 , 125.875000
0.160913 , 124.914000
0.161381 , 123.972000
0.161849 , 123.054000
0.162318 , 122.156000
0.162786 , 121.282000
0.163255 , 120.438000
0.163723 , 119.613000
0.164191 , 118.816000
0.164660 , 118.039000
0.165128 , 117.283000
0.165596 , 116.544000
0.166065 , 115.812000
0.166533 , 115.086000
0.167002 , 114.365000
0.167470 , 113.645000
0.167938 , 112.916000
0.168407 , 112.186000
0.168875 , 111.448000
0.169343 , 110.700000
0.169812 , 109.944000
0.170280 , 109.175000
0.170749 , 108.402000
0.171217 , 107.624000
0.171685 , 106.845000
0.172154 , 106.062000
0.172622 , 105.272000
0.173090 , 104.484000
0.173559 , 103.704000
0.174027 , 102.926000
0.174495 , 102.165000
0.174964 , 101.415000
0.175432 , 100.681000
0.175901 , 99.969800
0.176369 , 99.277100
0.176837 , 98.602100
0.177306 , 97.947800
0.177774 , 97.316300
0.178242 , 96.703500
0.178711 , 96.108400
0.179179 , 95.529100
0.179648 , 94.972600
0.180116 , 94.419700
0.180584 , 93.875700
0.181053 , 93.341000
0.181521 , 92.806700
0.181989 , 92.280800
0.182458 , 91.748200
0.182926 , 91.219700
0.183395 , 90.691000
0.183863 , 90.160000
0.184331 , 89.635500
0.184800 , 89.110700
0.185268 , 88.590000
0.185736 , 88.074200
0.186205 , 87.565700
0.186673 , 87.055800
0.187142 , 86.556400
0.187610 , 86.071000
0.188078 , 85.595800
0.188547 , 85.132200
0.189015 , 84.671200
0.189483 , 84.219800
0.189952 , 83.773100
0.190420 , 83.334500
0.190888 , 82.899100
0.191357 , 82.475700
0.191825 , 82.051900
0.192294 , 81.626000
0.192762 , 81.206100
0.193230 , 80.781500
0.193699 , 80.358800
0.194167 , 79.940300
0.194635 , 79.516300
0.195104 , 79.095300
0.195572 , 78.672200
0.196041 , 78.248400
0.196509 , 77.823700
0.196977 , 77.403400
0.197446 , 76.984100
0.197914 , 76.572300
0.198382 , 76.157600
0.198851 , 75.748900
0.199319 , 75.341900
0.199788 , 74.943800
0.200256 , 74.547000
0.200724 , 74.159200
0.201193 , 73.778400
0.201661 , 73.399400
0.202129 , 73.024400
0.202598 , 72.661500
0.203066 , 72.306100
0.203535 , 71.953700
0.204003 , 71.604900
0.204471 , 71.267500
0.204940 , 70.927600
0.205408 , 70.598500
0.205876 , 70.264000
0.206345 , 69.929300
0.206813 , 69.605200
0.207281 , 69.275800
0.207750 , 68.953700
0.208218 , 68.633900
0.208687 , 68.313700
0.209155 , 67.993400
0.209623 , 67.678600
0.210092 , 67.350800
0.210560 , 67.030800
0.211028 , 66.705600
0.211497 , 66.376500
0.211965 , 66.051100
0.212434 , 65.723900
0.212902 , 65.397000
0.213370 , 65.067700
0.213839 , 64.741900
0.214307 , 64.413800
0.214775 , 64.086900
0.215244 , 63.759100
0.215712 , 63.429800
0.216181 , 63.106100
0.216649 , 62.785900
0.217117 , 62.456600
0.217586 , 62.135400
0.218054 , 61.807900
0.218522 , 61.483100
0.218991 , 61.159900
0.219459 , 60.840100
0.219928 , 60.514300
0.220396 , 60.200600
0.220864 , 59.882900
0.221333 , 59.567900
0.221801 , 59.256000
0.222269 , 58.945300
0.222738 , 58.647300
0.223206 , 58.361200
0.223674 , 58.081000
0.224143 , 57.811000
0.224611 , 57.551700
0.225080 , 57.300100
0.225548 , 57.061400
0.226016 , 56.832700
0.226485 , 56.610900
0.226953 , 56.391300
0.227421 , 56.167000
0.227890 , 55.944600
0.228358 , 55.721500
0.228827 , 55.492000
0.229295 , 55.251900
0.229763 , 55.002700
0.230232 , 54.738300
0.230700 , 54.470000
0.231168 , 54.187000
0.231637 , 53.903700
0.232105 , 53.621400
0.232574 , 53.338200
0.233042 , 53.059100
0.233510 , 52.786200
0.233979 , 52.527700
0.234447 , 52.283100
0.234915 , 52.050300
0.235384 , 51.831400
0.235852 , 51.620100
0.236321 , 51.412000
0.236789 , 51.215100
0.237257 , 51.019100
0.237726 , 50.831800
0.238194 , 50.637300
0.238662 , 50.461400
0.239131 , 50.299500
0.239599 , 50.150600
0.240067 , 50.005500
0.240536 , 49.867000
0.241004 , 49.724900
0.241473 , 49.594500
0.241941 , 49.455600
0.242409 , 49.297900
0.242878 , 49.121600
0.243346 , 48.922100
0.243814 , 48.682500
0.244283 , 48.426500
0.244751 , 48.139400
0.245220 , 47.822800
0.245688 , 47.482300
0.246156 , 47.130200
0.246625 , 46.761000
0.247093 , 46.399400
0.247561 , 46.026900
0.248030 , 45.668700
0.248498 , 45.339200
0.248967 , 45.020000
0.249435 , 44.730700
0.249903 , 44.461300
0.250372 , 44.206700
0.250840 , 43.964300
0.251308 , 43.720100
0.251777 , 43.474000
0.252245 , 43.217600
0.252714 , 42.937100
0.253182 , 42.642500
0.253650 , 42.314700
0.254119 , 41.977200
0.254587 , 41.614600
0.255055 , 41.223100
0.255524 , 40.815300
0.255992 , 40.391400
0.256460 , 39.959500
0.256929 , 39.521400
0.257397 , 39.070700
0.257866 , 38.634900
0.258334 , 38.210800
0.258802 , 37.817000
0.259271 , 37.452800
0.259739 , 37.113800
0.260207 , 36.790800
0.260676 , 36.465800
0.261144 , 36.135200
0.261613 , 35.803700
0.262081 , 35.457200
0.262549 , 35.109400
0.263018 , 34.754500
0.263486 , 34.396100
0.263954 , 34.036500
0.264423 , 33.688100
0.264891 , 33.359500
0.265360 , 33.049900
0.265828 , 32.763200
0.266296 , 32.495400
0.266765 , 32.242900
0.267233 , 31.997900
0.267701 , 31.760100
0.268170 , 31.513100
0.268638 , 31.264800
0.269107 , 31.009100
0.269575 , 30.735300
0.270043 , 30.448100
0.270512 , 30.145400
0.270980 , 29.826900
0.271448 , 29.503600
0.271917 , 29.160700
0.272385 , 28.820700
0.272853 , 28.476100
0.273322 , 28.130500
0.273790 , 27.787000
0.274259 , 27.443900
0.274727 , 27.116000
0.275195 , 26.796600
0.275664 , 26.487300
0.276132 , 26.199600
0.276600 , 25.906900
0.277069 , 25.626800
0.277537 , 25.358200
0.278006 , 25.097900
0.278474 , 24.835100
0.278942 , 24.573500
0.279411 , 24.305800
0.279879 , 24.025000
0.280347 , 23.729400
0.280816 , 23.418300
0.281284 , 23.086700
0.281753 , 22.730200
0.282221 , 22.359500
0.282689 , 21.972000
0.283158 , 21.585300
0.283626 , 21.199700
0.284094 , 20.814300
0.284563 , 20.450700
0.285031 , 20.100800
0.285500 , 19.780900
0.285968 , 19.487000
0.286436 , 19.218600
0.286905 , 18.965300
0.287373 , 18.725000
0.287841 , 18.491100
0.288310 , 18.252200
0.288778 , 18.007700
0.289246 , 17.750500
0.289715 , 17.480300
0.290183 , 17.198600
0.290652 , 16.893600
0.291120 , 16.583400
0.291588 , 16.265300
0.292057 , 15.953800
0.292525 , 15.650100
0.292993 , 15.350700
0.293462 , 15.066200
0.293930 , 14.801300
0.294399 , 14.549200
0.294867 , 14.319400
0.295335 , 14.103400
0.295804 , 13.887600
0.296272 , 13.677800
0.296740 , 13.469600
0.297209 , 13.261500
0.297677 , 13.041500
0.298146 , 12.824900
0.298614 , 12.594900
0.299082 , 12.360100
0.299551 , 12.125000
0.300019 , 11.885100
0.300487 , 11.648900
0.300956 , 11.412300
0.301424 , 11.184200
0.301893 , 10.959800
0.302361 , 10.746000
0.302829 , 10.543900
0.303298 , 10.342400
0.303766 , 10.156200
0.304234 , 9.970910
0.304703 , 9.789960
0.305171 , 9.616580
0.305640 , 9.447950
0.306108 , 9.267620
0.306576 , 9.087160
0.307045 , 8.902750
0.307513 , 8.713610
0.307981 , 8.515640
0.308450 , 8.307630
0.308918 , 8.096850
0.309386 , 7.863620
0.309855 , 7.621570
0.310323 , 7.373250
0.310792 , 7.115570
0.311260 , 6.853610
0.311728 , 6.574770
0.312197 , 6.293820
0.312665 , 6.005320
0.313133 , 5.706050
0.313602 , 5.399250
0.314070 , 5.088930
0.314539 , 4.772130
0.315007 , 4.453030
0.315475 , 4.128710
0.315944 , 3.807120
0.316412 , 3.471620
0.316880 , 3.141260
0.317349 , 2.804300
0.317817 , 2.455510
0.318286 , 2.100790
0.318754 , 1.740060
0.319222 , 1.372560
0.319691 , 0.999512
0.320159 , 0.625615
0.320627 , 0.251875
0.321096 , -0.113699
0.321564 , -0.474228
0.322033 , -0.824280
0.322501 , -1.157210
0.322969 , -1.479480
0.323438 , -1.786340
0.323906 , -2.080700
0.324374 , -2.374880
0.324843 , -2.664140
0.325311 , -2.966340
0.325779 , -3.278470
0.326248 , -3.607980
0.326716 , -3.961050
0.327185 , -4.333630
0.327653 , -4.727280
0.328121 , -5.142810
0.328590 , -5.565280
0.329058 , -6.002140
0.329526 , -6.437640
0.329995 , -6.864060
0.330463 , -7.270590
0.330932 , -7.666120
0.331400 , -8.034720
0.331868 , -8.387910
0.332337 , -8.724310
0.332805 , -9.038050
0.333273 , -9.331070
0.333742 , -9.621780
0.334210 , -9.895900
0.334679 , -10.169000
0.335147 , -10.442600
0.335615 , -10.724700
0.336084 , -11.011900
0.336552 , -11.308200
0.337020 , -11.616900
0.337489 , -11.918700
0.337957 , -12.230200
0.338426 , -12.541300
0.338894 , -12.854400
0.339362 , -13.164500
0.339831 , -13.472200
0.340299 , -13.777000
0.340767 , -14.072100
0.341236 , -14.361500
0.341704 , -14.638300
0.342172 , -14.909100
0.342641 , -15.164500
0.343109 , -15.412400
0.343578 , -15.645200
0.344046 , -15.870600
0.344514 , -16.088900
0.344983 , -16.293900
0.345451 , -16.488700
0.345919 , -16.677600
0.346388 , -16.853400
0.346856 , -17.033700
0.347325 , -17.197000
0.347793 , -17.354800
0.348261 , -17.508400
0.348730 , -17.664700
0.349198 , -17.814300
0.349666 , -17.957900
0.350135 , -18.102900
0.350603 , -18.250800
0.351072 , -18.403600
0.351540 , -18.550100
0.352008 , -18.704200
0.352477 , -18.850900
0.352945 , -19.010100
0.353413 , -19.163000
0.353882 , -19.318000
0.354350 , -19.468900
0.354819 , -19.620400
0.355287 , -19.780200
0.355755 , -19.940500
0.356224 , -20.097000
0.356692 , -20.247300
0.357160 , -20.389900
0.357629 , -20.533400
0.358097 , -20.667500
0.358565 , -20.798200
0.359034 , -20.917000
0.359502 , -21.031900
0.359971 , -21.136800
0.360439 , -21.229000
0.360907 , -21.314600
0.361376 , -21.387700
0.361844 , -21.455700
0.362312 , -21.510500
0.362781 , -21.554200
0.363249 , -21.594800
0.363718 , -21.623500
0.364186 , -21.646100
0.364654 , -21.663400
0.365123 , -21.675600
0.365591 , -21.683600
0.366059 , -21.687100
0.366528 , -21.689600
0.366996 , -21.687500
0.367465 , -21.678900
0.367933 , -21.673300
0.368401 , -21.660900
0.368870 , -21.649900
0.369338 , -21.632300
0.369806 , -21.612000
0.370275 , -21.589600
0.370743 , -21.567300
0.371212 , -21.549900
0.371680 , -21.533000
0.372148 , -21.521700
0.372617 , -21.519100
0.373085 , -21.523000
0.373553 , -21.534800
0.374022 , -21.556700
0.374490 , -21.583900
0.374958 , -21.619000
0.375427 , -21.645700
0.375895 , -21.678200
0.376364 , -21.700800
0.376832 , -21.711400
0.377300 , -21.704600
0.377769 , -21.681600
0.378237 , -21.639700
0.378705 , -21.586700
0.379174 , -21.519000
0.379642 , -21.429600
0.380111 , -21.338600
0.380579 , -21.243300
0.381047 , -21.158600
0.381516 , -21.073600
0.381984 , -20.994800
0.382452 , -20.929000
0.382921 , -20.868500
0.383389 , -20.817400
0.383858 , -20.772400
0.384326 , -20.731100
0.384794 , -20.697500
0.385263 , -20.658300
0.385731 , -20.619700
0.386199 , -20.572500
0.386668 , -20.521600
0.387136 , -20.459500
0.387605 , -20.394700
0.388073 , -20.318800
0.388541 , -20.233900
0.389010 , -20.144300
0.389478 , -20.044300
0.389946 , -19.940900
0.390415 , -19.827200
0.390883 , -19.713200
0.391351 , -19.592400
0.391820 , -19.474500
0.392288 , -19.354200
0.392757 , -19.232900
0.393225 , -19.106400
0.393693 , -18.985200
0.394162 , -18.876800
0.394630 , -18.761400
0.395098 , -18.657500
0.395567 , -18.556900
0.396035 , -18.462700
0.396504 , -18.372200
0.396972 , -18.285500
0.397440 , -18.203500
0.397909 , -18.125500
0.398377 , -18.044100
0.398845 , -17.970100
0.399314 , -17.900000
0.399782 , -17.823600
0.400251 , -17.744600
0.400719 , -17.662800
0.401187 , -17.586300
0.401656 , -17.498300
0.402124 , -17.411300
0.402592 , -17.317500
0.403061 , -17.216600
0.403529 , -17.109900
0.403998 , -16.995100
0.404466 , -16.877400
0.404934 , -16.762500
0.405403 , -16.642100
0.405871 , -16.519800
0.406339 , -16.395300
0.406808 , -16.277400
0.407276 , -16.164800
0.407744 , -16.050700
0.408213 , -15.938800
0.408681 , -15.832300
0.409150 , -15.722900
0.409618 , -15.615000
0.410086 , -15.513000
0.410555 , -15.416700
0.411023 , -15.318400
0.411491 , -15.224300
0.411960 , -15.130900
0.412428 , -15.038600
0.412897 , -14.953300
0.413365 , -14.876200
0.413833 , -14.787400
0.414302 , -14.712300
0.414770 , -14.643500
0.415238 , -14.576600
0.415707 , -14.511100
0.416175 , -14.447500
0.416644 , -14.383400
0.417112 , -14.319200
0.417580 , -14.265200
0.418049 , -14.209200
0.418517 , -14.151000
0.418985 , -14.097300
0.419454 , -14.051400
0.419922 , -14.004400
0.420391 , -13.954900
0.420859 , -13.905100
0.421327 , -13.860000
0.421796 , -13.817400
0.422264 , -13.775600
0.422732 , -13.730800
0.423201 , -13.692500
0.423669 , -13.650500
0.424137 , -13.605400
0.424606 , -13.562400
0.425074 , -13.513700
0.425543 , -13.471600
0.426011 , -13.416200
0.426479 , -13.361400
0.426948 , -13.306600
0.427416 , -13.252300
0.427884 , -13.181900
0.428353 , -13.108400
0.428821 , -13.035100
0.429290 , -12.959900
0.429758 , -12.879400
0.430226 , -12.798000
0.430695 , -12.712400
0.431163 , -12.626300
0.431631 , -12.537600
0.432100 , -12.446300
0.432568 , -12.362900
0.433037 , -12.282400
0.433505 , -12.207300
0.433973 , -12.133300
0.434442 , -12.064100
0.434910 , -11.996500
0.435378 , -11.941700
0.435847 , -11.879900
0.436315 , -11.828200
0.436784 , -11.777800
0.437252 , -11.735600
0.437720 , -11.689400
0.438189 , -11.644200
0.438657 , -11.602200
0.439125 , -11.554300
0.439594 , -11.502500
0.440062 , -11.454200
0.440530 , -11.396900
0.440999 , -11.333300
0.441467 , -11.263100
0.441936 , -11.190200
0.442404 , -11.112200
0.442872 , -11.031700
0.443341 , -10.935300
0.443809 , -10.844100
0.444277 , -10.745200
0.444746 , -10.646300
0.445214 , -10.538700
0.445683 , -10.436200
0.446151 , -10.331800
0.446619 , -10.233000
0.447088 , -10.132000
0.447556 , -10.032600
0.448024 , -9.936190
0.448493 , -9.842720
0.448961 , -9.750990
0.449430 , -9.661110
0.449898 , -9.574350
0.450366 , -9.488540
0.450835 , -9.403620
0.451303 , -9.318520
0.451771 , -9.238790
0.452240 , -9.160680
0.452708 , -9.079770
0.453177 , -9.008230
0.453645 , -8.929200
0.454113 , -8.854590
0.454582 , -8.781870
0.455050 , -8.710530
0.455518 , -8.646680
0.455987 , -8.575930
0.456455 , -8.510250
0.456924 , -8.449250
0.457392 , -8.378950
0.457860 , -8.312640
0.458329 , -8.236800
0.458797 , -8.156390
0.459265 , -8.076640
0.459734 , -7.997920
0.460202 , -7.905300
0.460670 , -7.798870
0.461139 , -7.679800
0.461607 , -7.552450
0.462076 , -7.420950
0.462544 , -7.280040
0.463012 , -7.137970
0.463481 , -6.992520
0.463949 , -6.852500
0.464417 , -6.717870
0.464886 , -6.595210
0.465354 , -6.480410
0.465823 , -6.377980
0.466291 , -6.286070
0.466759 , -6.216310
0.467228 , -6.160080
0.467696 , -6.119050
0.468164 , -6.088390
0.468633 , -6.056210
0.469101 , -6.036910
0.469570 , -6.017580
0.470038 , -6.003020
0.470506 , -5.976680
0.470975 , -5.949990
0.471443 , -5.915730
0.471911 , -5.877710
0.472380 , -5.834100
0.472848 , -5.782560
0.473317 , -5.725480
0.473785 , -5.652540
0.474253 , -5.575860
0.474722 , -5.486790
0.475190 , -5.396130
0.475658 , -5.301840
0.476127 , -5.215130
0.476595 , -5.123810
0.477063 , -5.029430
0.477532 , -4.936540
0.478000 , -4.851380
0.478469 , -4.766240
0.478937 , -4.696620
0.479405 , -4.630820
0.479874 , -4.569430
0.480342 , -4.512400
0.480810 , -4.464950
0.481279 , -4.426060
0.481747 , -4.394160
0.482216 , -4.369150
0.482684 , -4.353300
0.483152 , -4.338780
0.483621 , -4.334630
0.484089 , -4.325480
0.484557 , -4.319890
0.485026 , -4.322930
0.485494 , -4.320680
0.485963 , -4.322240
0.486431 , -4.323440
0.486899 , -4.330880
0.487368 , -4.339000
0.487836 , -4.349710
0.488304 , -4.358660
0.488773 , -4.368090
0.489241 , -4.381730
0.489710 , -4.390490
0.490178 , -4.405110
0.490646 , -4.424450
0.491115 , -4.442990
0.491583 , -4.462950
0.492051 , -4.483440
0.492520 , -4.504360
0.492988 , -4.529910
0.493456 , -4.555100
0.493925 , -4.571340
0.494393 , -4.588630
0.494862 , -4.599910
0.495330 , -4.609060
0.495798 , -4.613830
0.496267 , -4.615210
0.496735 , -4.611360
0.497203 , -4.604820
0.497672 , -4.596340
0.498140 , -4.583860
0.498609 , -4.569760
0.499077 , -4.553860
0.499545 , -4.539820
0.500014 , -4.529280
0.500482 , -4.522910
0.500950 , -4.518030
0.501419 , -4.519790
0.501887 , -4.523730
0.502356 , -4.529480
0.502824 , -4.546500
0.503292 , -4.564090
0.503761 , -4.587310
0.504229 , -4.610030
0.504697 , -4.633440
0.505166 , -4.657300
0.505634 , -4.679920
0.506103 , -4.701340
0.506571 , -4.722270
0.507039 , -4.730970
0.507508 , -4.742730
0.507976 , -4.751980
0.508444 , -4.757400
0.508913 , -4.758530
0.509381 , -4.750680
0.509849 , -4.738920
0.510318 , -4.722680
0.510786 , -4.705330
0.511255 , -4.682590
0.511723 , -4.654760
0.512191 , -4.627080
0.512660 , -4.602250
0.513128 , -4.571850
0.513596 , -4.535330
0.514065 , -4.503360
0.514533 , -4.464240
0.515002 , -4.427900
0.515470 , -4.387830
0.515938 , -4.350570
0.516407 , -4.314030
0.516875 , -4.275050
0.517343 , -4.232870
0.517812 , -4.188700
0.518280 , -4.143620
0.518749 , -4.100320
0.519217 , -4.046690
0.519685 , -3.987680
0.520154 , -3.928630
0.520622 , -3.862920
0.521090 , -3.800630
0.521559 , -3.732030
0.522027 , -3.663540
0.522496 , -3.597210
0.522964 , -3.529610
0.523432 , -3.457830
0.523901 , -3.390020
0.524369 , -3.322340
0.524837 , -3.258850
0.525306 , -3.194060
0.525774 , -3.133060
0.526242 , -3.073410
0.526711 , -3.015610
0.527179 , -2.957250
0.527648 , -2.902770
0.528116 , -2.850510
0.528584 , -2.792950
0.529053 , -2.735770
0.529521 , -2.674040
0.529989 , -2.620290
0.530458 , -2.556960
0.530926 , -2.490480
0.531395 , -2.424070
0.531863 , -2.351920
0.532331 , -2.278320
0.532800 , -2.203800
0.533268 , -2.121390
0.533736 , -2.039090
0.534205 , -1.953350
0.534673 , -1.861300
0.535142 , -1.769120
0.535610 , -1.679450
0.536078 , -1.581340
0.536547 , -1.486430
0.537015 , -1.388980
0.537483 , -1.299170
0.537952 , -1.204650
0.538420 , -1.117370
0.538889 , -1.025700
0.539357 , -0.940202
0.539825 , -0.859839
0.540294 , -0.776690
0.540762 , -0.698949
0.541230 , -0.621526
0.541699 , -0.546690
0.542167 , -0.476069
0.542635 , -0.402411
0.543104 , -0.334884
0.543572 , -0.268285
0.544041 , -0.201914
0.544509 , -0.132760
0.544977 , -0.063166
0.545446 , 0.004060
0.545914 , 0.077825
0.546382 , 0.153439
0.546851 , 0.230723
0.547319 , 0.311624
0.547788 , 0.394327
0.548256 , 0.487511
0.548724 , 0.580246
0.549193 , 0.681860
0.549661 , 0.781124
0.550129 , 0.884837
0.550598 , 0.992478
0.551066 , 1.096710
0.551535 , 1.202440
0.552003 , 1.310510
0.552471 , 1.408050
0.552940 , 1.509580
0.553408 , 1.608550
0.553876 , 1.703930
0.554345 , 1.791030
0.554813 , 1.875590
0.555282 , 1.959090
0.555750 , 2.027550
0.556218 , 2.091450
0.556687 , 2.145450
0.557155 , 2.197950
0.557623 , 2.246120
0.558092 , 2.287400
0.558560 , 2.318560
0.559028 , 2.359640
0.559497 , 2.391720
0.559965 , 2.421430
0.560434 , 2.450910
0.560902 , 2.482870
0.561370 , 2.521610
0.561839 , 2.557520
0.562307 , 2.601820
0.562775 , 2.646840
0.563244 , 2.698580
0.563712 , 2.752180
0.564181 , 2.814870
0.564649 , 2.881400
0.565117 , 2.955860
0.565586 , 3.035320
0.566054 , 3.122230
0.566522 , 3.211370
0.566991 , 3.291600
0.567459 , 3.376300
0.567928 , 3.457190
0.568396 , 3.533860
0.568864 , 3.601960
0.569333 , 3.663750
0.569801 , 3.715040
0.570269 , 3.763570
0.570738 , 3.800410
0.571206 , 3.829120
0.571675 , 3.848210
0.572143 , 3.856960
0.572611 , 3.857320
0.573080 , 3.854210
0.573548 , 3.841410
0.574016 , 3.831850
0.574485 , 3.816680
0.574953 , 3.805370
0.575421 , 3.802720
0.575890 , 3.808560
0.576358 , 3.826540
0.576827 , 3.854210
0.577295 , 3.889610
0.577763 , 3.936110
0.578232 , 3.986850
0.578700 , 4.044290
0.579168 , 4.105420
0.579637 , 4.164410
0.580105 , 4.225780
0.580574 , 4.282800
0.581042 , 4.330010
0.581510 , 4.373320
0.581979 , 4.404440
0.582447 , 4.425140
0.582915 , 4.430230
0.583384 , 4.423430
0.583852 , 4.414790
0.584321 , 4.397510
0.584789 , 4.373030
0.585257 , 4.345670
0.585726 , 4.321500
0.586194 , 4.302550
0.586662 , 4.280620
0.587131 , 4.258320
0.587599 , 4.252450
0.588068 , 4.254560
0.588536 , 4.267330
0.589004 , 4.288660
0.589473 , 4.319950
0.589941 , 4.359250
0.590409 , 4.401170
0.590878 , 4.452500
0.591346 , 4.508690
0.591815 , 4.565030
0.592283 , 4.620930
0.592751 , 4.673190
0.593220 , 4.718760
0.593688 , 4.756740
0.594156 , 4.788810
0.594625 , 4.808660
0.595093 , 4.817610
0.595561 , 4.813190
0.596030 , 4.804730
0.596498 , 4.785010
0.596967 , 4.757420
0.597435 , 4.726710
0.597903 , 4.684270
0.598372 , 4.637450
0.598840 , 4.596080
0.599308 , 4.550810
0.599777 , 4.506920
0.600245 , 4.461520
0.600714 , 4.423090
0.601182 , 4.388130
0.601650 , 4.366670
0.602119 , 4.337120
0.602587 , 4.314210
0.603055 , 4.290700
0.603524 , 4.273900
0.603992 , 4.261690
0.604461 , 4.248110
0.604929 , 4.239140
0.605397 , 4.223340
0.605866 , 4.214190
0.606334 , 4.192180
0.606802 , 4.175280
0.607271 , 4.154080
0.607739 , 4.129060
0.608208 , 4.103600
0.608676 , 4.082960
0.609144 , 4.054860
0.609613 , 4.029660
0.610081 , 4.004230
0.610549 , 3.977080
0.611018 , 3.942240
0.611486 , 3.912330
0.611954 , 3.879290
0.612423 , 3.849030
0.612891 , 3.815370
0.613360 , 3.771980
0.613828 , 3.730360
0.614296 , 3.690770
0.614765 , 3.649110
0.615233 , 3.604430
0.615701 , 3.559930
0.616170 , 3.508750
0.616638 , 3.453320
0.617107 , 3.400420
0.617575 , 3.349690
0.618043 , 3.291270
0.618512 , 3.237640
0.618980 , 3.174130
0.619448 , 3.114890
0.619917 , 3.051700
0.620385 , 2.989120
0.620854 , 2.928320
0.621322 , 2.871100
0.621790 , 2.816120
0.622259 , 2.760960
0.622727 , 2.709380
0.623195 , 2.655740
0.623664 , 2.605940
0.624132 , 2.558490
0.624601 , 2.509950
0.625069 , 2.467570
0.625537 , 2.420710
0.626006 , 2.372530
0.626474 , 2.332370
0.626942 , 2.291370
0.627411 , 2.247010
0.627879 , 2.193130
0.628347 , 2.140390
0.628816 , 2.090190
0.629284 , 2.035800
0.629753 , 1.981710
0.630221 , 1.921230
0.630689 , 1.861490
0.631158 , 1.793300
0.631626 , 1.724920
0.632094 , 1.653980
0.632563 , 1.580310
0.633031 , 1.509390
0.633500 , 1.437630
0.633968 , 1.367530
0.634436 , 1.301290
0.634905 , 1.232520
0.635373 , 1.165720
0.635841 , 1.101260
0.636310 , 1.039000
0.636778 , 0.983048
0.637247 , 0.928561
0.637715 , 0.878054
0.638183 , 0.829792
0.638652 , 0.783814
0.639120 , 0.741996
0.639588 , 0.700165
0.640057 , 0.658091
0.640525 , 0.615816
0.640994 , 0.578874
0.641462 , 0.542824
0.641930 , 0.498790
0.642399 , 0.457397
0.642867 , 0.409578
0.643335 , 0.361068
0.643804 , 0.307229
0.644272 , 0.258769
0.644740 , 0.200467
0.645209 , 0.136870
0.645677 , 0.076229
0.646146 , 0.007398
0.646614 , -0.060705
0.647082 , -0.128125
0.647551 , -0.203493
0.648019 , -0.278617
0.648487 , -0.349655
0.648956 , -0.417653
0.649424 , -0.492718
0.649893 , -0.561025
0.650361 , -0.621843
0.650829 , -0.684173
0.651298 , -0.742320
0.651766 , -0.794777
0.652234 , -0.840402
0.652703 , -0.885013
0.653171 , -0.919136
0.653640 , -0.955756
0.654108 , -0.988572
0.654576 , -1.014360
0.655045 , -1.040700
0.655513 , -1.062280
0.655981 , -1.078390
0.656450 , -1.093640
0.656918 , -1.108630
0.657387 , -1.117970
0.657855 , -1.132020
0.658323 , -1.149360
0.658792 , -1.165360
0.659260 , -1.191430
0.659728 , -1.213880
0.660197 , -1.237400
0.660665 , -1.262640
0.661133 , -1.290130
0.661602 , -1.320710
0.662070 , -1.358820
0.662539 , -1.397750
0.663007 , -1.439310
0.663475 , -1.483230
0.663944 , -1.530390
0.664412 , -1.579530
0.664880 , -1.628490
0.665349 , -1.675540
0.665817 , -1.724370
0.666286 , -1.771900
0.666754 , -1.814190
0.667222 , -1.853260
0.667691 , -1.893890
0.668159 , -1.934110
0.668627 , -1.970790
0.669096 , -2.002690
0.669564 , -2.034970
0.670033 , -2.066050
0.670501 , -2.085270
0.670969 , -2.099610
0.671438 , -2.116440
0.671906 , -2.124360
0.672374 , -2.124570
0.672843 , -2.120770
0.673311 , -2.115840
0.673780 , -2.104610
0.674248 , -2.087200
0.674716 , -2.062340
0.675185 , -2.043700
0.675653 , -2.018060
0.676121 , -1.993930
0.676590 , -1.974670
0.677058 , -1.956170
0.677526 , -1.942610
0.677995 , -1.933000
0.678463 , -1.926340
0.678932 , -1.925550
0.679400 , -1.935620
0.679868 , -1.953760
0.680337 , -1.975280
0.680805 , -2.001010
0.681273 , -2.031010
0.681742 , -2.063510
0.682210 , -2.097530
0.682679 , -2.134740
0.683147 , -2.173310
0.683615 , -2.213800
0.684084 , -2.252930
0.684552 , -2.291340
0.685020 , -2.326920
0.685489 , -2.360730
0.685957 , -2.392940
0.686426 , -2.418550
0.686894 , -2.443470
0.687362 , -2.465310
0.687831 , -2.483220
0.688299 , -2.492990
0.688767 , -2.500040
0.689236 , -2.502670
0.689704 , -2.498190
0.690173 , -2.493290
0.690641 , -2.481840
0.691109 , -2.472250
0.691578 , -2.453360
0.692046 , -2.437400
0.692514 , -2.417770
0.692983 , -2.400220
0.693451 , -2.373710
0.693919 , -2.358620
0.694388 , -2.343800
0.694856 , -2.325520
0.695325 , -2.310280
0.695793 , -2.299620
0.696261 , -2.286350
0.696730 , -2.277350
0.697198 , -2.275300
0.697666 , -2.272800
0.698135 , -2.271760
0.698603 , -2.279260
0.699072 , -2.285000
0.699540 , -2.298070
0.700008 , -2.310800
0.700477 , -2.329360
0.700945 , -2.350170
0.701413 , -2.370880
0.701882 , -2.388410
0.702350 , -2.414590
0.702819 , -2.442320
0.703287 , -2.464810
0.703755 , -2.486660
0.704224 , -2.506750
0.704692 , -2.523430
0.705160 , -2.541690
0.705629 , -2.555780
0.706097 , -2.564220
0.706566 , -2.571490
0.707034 , -2.574630
0.707502 , -2.565080
0.707971 , -2.550830
0.708439 , -2.537300
0.708907 , -2.513190
0.709376 , -2.488060
0.709844 , -2.457140
0.710312 , -2.422000
0.710781 , -2.381990
0.711249 , -2.341680
0.711718 , -2.300800
0.712186 , -2.256800
0.712654 , -2.215800
0.713123 , -2.173680
0.713591 , -2.132770
0.714059 , -2.100830
0.714528 , -2.067980
0.714996 , -2.039850
0.715465 , -2.017150
0.715933 , -2.006120
0.716401 , -1.999080
0.716870 , -1.994440
0.717338 , -1.999560
0.717806 , -2.005490
0.718275 , -2.019300
0.718743 , -2.037560
0.719212 , -2.059550
0.719680 , -2.082670
0.720148 , -2.107550
0.720617 , -2.133130
0.721085 , -2.155670
0.721553 , -2.180310
0.722022 , -2.200580
0.722490 , -2.218920
0.722959 , -2.231060
0.723427 , -2.240180
0.723895 , -2.238130
0.724364 , -2.234070
0.724832 , -2.229930
0.725300 , -2.221820
0.725769 , -2.205630
0.726237 , -2.180470
0.726705 , -2.148380
0.727174 , -2.118440
0.727642 , -2.089470
0.728111 , -2.054380
0.728579 , -2.017550
0.729047 , -1.979710
0.729516 , -1.942060
0.729984 , -1.899260
0.730452 , -1.860390
0.730921 , -1.823070
0.731389 , -1.784100
0.731858 , -1.749150
0.732326 , -1.718110
0.732794 , -1.685320
0.733263 , -1.655210
0.733731 , -1.628120
0.734199 , -1.602150
0.734668 , -1.578990
0.735136 , -1.558240
0.735605 , -1.538750
0.736073 , -1.523100
0.736541 , -1.506560
0.737010 , -1.496910
0.737478 , -1.490380
0.737946 , -1.485540
0.738415 , -1.484250
0.738883 , -1.488850
0.739352 , -1.496510
0.739820 , -1.507350
0.740288 , -1.519200
0.740757 , -1.537070
0.741225 , -1.548840
0.741693 , -1.561860
0.742162 , -1.574320
0.742630 , -1.590110
0.743099 , -1.590760
0.743567 , -1.589910
0.744035 , -1.587420
0.744504 , -1.583030
0.744972 , -1.567080
0.745440 , -1.549820
0.745909 , -1.524460
0.746377 , -1.502250
0.746845 , -1.462310
0.747314 , -1.417380
0.747782 , -1.365230
0.748251 , -1.310690
0.748719 , -1.263570
0.749187 , -1.215560
0.749656 , -1.167600
0.750124 , -1.120700
0.750592 , -1.077210
0.751061 , -1.037630
0.751529 , -1.008650
0.751998 , -0.980146
0.752466 , -0.957926
0.752934 , -0.945166
0.753403 , -0.935665
0.753871 , -0.929273
0.754339 , -0.934539
0.754808 , -0.939613
0.755276 , -0.949051
0.755745 , -0.961337
0.756213 , -0.975331
0.756681 , -0.991260
0.757150 , -1.008010
0.757618 , -1.020060
0.758086 , -1.042630
0.758555 , -1.059910
0.759023 , -1.078230
0.759492 , -1.095250
0.759960 , -1.105310
0.760428 , -1.114890
0.760897 , -1.119220
0.761365 , -1.118770
0.761833 , -1.111650
0.762302 , -1.105140
0.762770 , -1.090000
0.763238 , -1.073300
0.763707 , -1.059790
0.764175 , -1.037050
0.764644 , -1.010720
0.765112 , -0.984066
0.765580 , -0.954884
0.766049 , -0.920766
0.766517 , -0.883452
0.766985 , -0.846807
0.767454 , -0.810308
0.767922 , -0.777752
0.768391 , -0.750655
0.768859 , -0.721393
0.769327 , -0.694845
0.769796 , -0.672438
0.770264 , -0.649193
0.770732 , -0.630549
0.771201 , -0.620101
0.771669 , -0.611139
0.772138 , -0.605412
0.772606 , -0.604829
0.773074 , -0.608397
0.773543 , -0.615542
0.774011 , -0.623302
0.774479 , -0.639156
0.774948 , -0.651682
0.775416 , -0.665270
0.775885 , -0.691648
0.776353 , -0.708889
0.776821 , -0.724018
0.777290 , -0.742961
0.777758 , -0.753945
0.778226 , -0.762418
0.778695 , -0.767906
0.779163 , -0.772064
0.779631 , -0.777796
0.780100 , -0.780564
0.780568 , -0.772552
0.781037 , -0.767830
0.781505 , -0.762144
0.781973 , -0.752683
0.782442 , -0.740237
0.782910 , -0.721786
0.783378 , -0.707885
0.783847 , -0.696683
0.784315 , -0.682087
0.784784 , -0.667301
0.785252 , -0.654235
0.785720 , -0.634930
0.786189 , -0.622068
0.786657 , -0.612137
0.787125 , -0.603933
0.787594 , -0.594088
0.788062 , -0.584908
0.788531 , -0.581369
0.788999 , -0.576950
0.789467 , -0.571744
0.789936 , -0.568205
0.790404 , -0.565503
0.790872 , -0.567284
0.791341 , -0.571572
0.791809 , -0.570877
0.792278 , -0.568920
0.792746 , -0.565555
0.793214 , -0.563525
0.793683 , -0.554382
0.794151 , -0.546259
0.794619 , -0.535822
0.795088 , -0.523618
0.795556 , -0.507430
0.796024 , -0.494616
0.796493 , -0.478503
0.796961 , -0.460584
0.797430 , -0.441907
0.797898 , -0.429964
0.798366 , -0.423598
0.798835 , -0.413310
0.799303 , -0.403569
0.799771 , -0.398051
0.800240 , -0.393409
0.800708 , -0.391732
0.801177 , -0.391652
0.801645 , -0.401829
0.802113 , -0.412912
0.802582 , -0.418869
0.803050 , -0.429905
0.803518 , -0.446205
0.803987 , -0.462691
0.804455 , -0.473415
0.804924 , -0.484964
0.805392 , -0.497296
0.805860 , -0.498923
0.806329 , -0.505339
0.806797 , -0.503747
0.807265 , -0.502994
0.807734 , -0.497072
0.808202 , -0.491232
0.808671 , -0.481061
0.809139 , -0.465758
0.809607 , -0.443762
0.810076 , -0.429677
0.810544 , -0.403325
0.811012 , -0.369469
0.811481 , -0.337548
0.811949 , -0.306857
0.812417 , -0.271668
0.812886 , -0.237170
0.813354 , -0.205982
0.813823 , -0.171200
0.814291 , -0.135821
0.814759 , -0.099899
0.815228 , -0.063123
0.815696 , -0.032112
0.816164 , -0.005916
0.816633 , 0.020324
0.817101 , 0.045277
0.817570 , 0.063848
0.818038 , 0.085547
0.818506 , 0.098671
0.818975 , 0.110706
0.819443 , 0.113122
0.819911 , 0.119856
0.820380 , 0.121191
0.820848 , 0.123383
0.821317 , 0.117806
0.821785 , 0.114346
0.822253 , 0.107782
0.822722 , 0.097923
0.823190 , 0.090906
0.823658 , 0.082479
0.824127 , 0.077360
0.824595 , 0.072665
0.825064 , 0.072164
0.825532 , 0.071621
0.826000 , 0.076275
0.826469 , 0.081442
0.826937 , 0.091906
0.827405 , 0.105279
0.827874 , 0.120145
0.828342 , 0.138591
0.828810 , 0.162729
0.829279 , 0.190996
0.829747 , 0.219244
0.830216 , 0.259195
0.830684 , 0.299458
0.831152 , 0.335972
0.831621 , 0.372330
0.832089 , 0.412145
0.832557 , 0.454410
0.833026 , 0.499327
0.833494 , 0.534931
0.833963 , 0.567515
0.834431 , 0.597260
0.834899 , 0.624105
0.835368 , 0.648107
0.835836 , 0.669248
0.836304 , 0.686981
0.836773 , 0.701777
0.837241 , 0.716561
0.837710 , 0.728689
0.838178 , 0.736666
0.838646 , 0.740456
0.839115 , 0.742143
0.839583 , 0.743644
0.840051 , 0.741341
0.840520 , 0.737534
0.840988 , 0.734179
0.841457 , 0.731626
0.841925 , 0.731860
0.842393 , 0.726011
0.842862 , 0.723664
0.843330 , 0.722688
0.843798 , 0.723153
0.844267 , 0.719552
0.844735 , 0.720425
0.845203 , 0.726468
0.845672 , 0.732699
0.846140 , 0.738464
0.846609 , 0.753598
0.847077 , 0.762577
0.847545 , 0.774613
0.848014 , 0.782055
0.848482 , 0.796360
0.848950 , 0.807027
0.849419 , 0.814752
0.849887 , 0.825995
0.850356 , 0.836025
0.850824 , 0.844211
0.851292 , 0.854624
0.851761 , 0.865274
0.852229 , 0.875332
0.852697 , 0.880247
0.853166 , 0.885726
0.853634 , 0.889808
0.854103 , 0.892611
0.854571 , 0.896453
0.855039 , 0.906675
0.855508 , 0.913103
0.855976 , 0.916991
0.856444 , 0.926025
0.856913 , 0.928855
0.857381 , 0.937932
0.857850 , 0.946707
0.858318 , 0.955217
0.858786 , 0.960349
0.859255 , 0.968804
0.859723 , 0.976107
0.860191 , 0.979454
0.860660 , 0.985223
0.861128 , 0.990599
0.861596 , 0.992125
0.862065 , 0.994272
0.862533 , 0.999121
0.863002 , 0.999383
0.863470 , 0.996542
0.863938 , 0.995418
0.864407 , 0.998281
0.864875 , 0.999567
0.865343 , 1.001160
0.865812 , 0.997826
0.866280 , 0.997752
0.866749 , 0.998057
0.867217 , 0.992342
0.867685 , 0.990965
0.868154 , 0.986606
0.868622 , 0.987518
0.869090 , 0.989676
0.869559 , 0.992942
0.870027 , 0.994949
0.870496 , 0.991768
0.870964 , 0.993817
0.871432 , 0.993297
0.871901 , 0.990675
0.872369 , 0.979293
0.872837 , 0.974880
0.873306 , 0.971317
0.873774 , 0.968198
0.874243 , 0.965928
0.874711 , 0.963590
0.875179 , 0.963113
0.875648 , 0.960797
0.876116 , 0.960959
0.876584 , 0.959954
0.877053 , 0.964762
0.877521 , 0.969954
0.877989 , 0.975999
0.878458 , 0.983324
0.878926 , 0.995805
0.879395 , 1.011320
0.879863 , 1.027230
0.880331 , 1.045200
0.880800 , 1.062230
0.881268 , 1.084170
0.881736 , 1.105410
0.882205 , 1.128220
0.882673 , 1.155140
0.883142 , 1.174620
0.883610 , 1.193140
0.884078 , 1.210060
0.884547 , 1.225590
0.885015 , 1.237640
0.885483 , 1.245360
0.885952 , 1.254900
0.886420 , 1.266270
0.886889 , 1.258900
0.887357 , 1.246630
0.887825 , 1.237200
0.888294 , 1.230270
0.888762 , 1.215770
0.889230 , 1.197460
0.889699 , 1.182340
0.890167 , 1.165560
0.890636 , 1.148430
0.891104 , 1.132150
0.891572 , 1.111310
0.892041 , 1.094640
0.892509 , 1.075170
0.892977 , 1.060620
0.893446 , 1.041500
0.893914 , 1.026800
0.894383 , 1.015610
0.894851 , 1.003600
0.895319 , 0.989819
0.895788 , 0.974209
0.896256 , 0.957856
0.896724 , 0.944186
0.897193 , 0.936828
0.897661 , 0.928532
0.898129 , 0.923643
0.898598 , 0.917728
0.899066 , 0.915725
0.899535 , 0.910364
0.900003 , 0.911744
0.900471 , 0.912827
0.900940 , 0.919126
0.901408 , 0.917041
0.901876 , 0.915852
0.902345 , 0.921955
0.902813 , 0.931857
0.903282 , 0.934429
0.903750 , 0.931761
0.904218 , 0.931557
0.904687 , 0.927624
0.905155 , 0.923710
0.905623 , 0.917638
0.906092 , 0.905399
0.906560 , 0.895456
0.907029 , 0.877627
0.907497 , 0.859485
0.907965 , 0.837993
0.908434 , 0.818868
0.908902 , 0.799826
0.909370 , 0.777008
0.909839 , 0.749869
0.910307 , 0.725166
0.910776 , 0.696989
0.911244 , 0.677027
0.911712 , 0.652686
0.912181 , 0.627630
0.912649 , 0.604297
0.913117 , 0.584126
0.913586 , 0.572028
0.914054 , 0.554197
0.914522 , 0.542248
0.914991 , 0.533424
0.915459 , 0.523549
0.915928 , 0.521871
0.916396 , 0.514815
0.916864 , 0.507663
0.917333 , 0.503374
0.917801 , 0.501592
0.918269 , 0.501226
0.918738 , 0.500367
0.919206 , 0.496283
0.919675 , 0.499428
0.920143 , 0.498819
0.920611 , 0.503473
0.921080 , 0.498130
0.921548 , 0.498879
0.922016 , 0.496358
0.922485 , 0.490489
0.922953 , 0.487548
0.923422 , 0.480762
0.923890 , 0.470582
0.924358 , 0.458125
0.924827 , 0.446163
0.925295 , 0.423371
0.925763 , 0.406080
0.926232 , 0.388213
0.926700 , 0.365895
0.927169 , 0.343604
0.927637 , 0.322934
0.928105 , 0.298220
0.928574 , 0.274246
0.929042 , 0.253402
0.929510 , 0.233492
0.929979 , 0.216942
0.930447 , 0.204033
0.930915 , 0.191325
0.931384 , 0.178915
0.931852 , 0.171893
0.932321 , 0.170876
0.932789 , 0.169031
0.933257 , 0.174269
0.933726 , 0.175497
0.934194 , 0.179135
0.934662 , 0.186255
0.935131 , 0.187897
0.935599 , 0.192104
0.936068 , 0.197986
0.936536 , 0.198563
0.937004 , 0.203860
0.937473 , 0.209784
0.937941 , 0.207931
0.938409 , 0.207721
0.938878 , 0.204562
0.939346 , 0.199208
0.939815 , 0.194138
0.940283 , 0.183384
0.940751 , 0.166213
0.941220 , 0.152132
0.941688 , 0.137739
0.942156 , 0.126438
0.942625 , 0.106658
0.943093 , 0.089597
0.943562 , 0.072068
0.944030 , 0.058160
0.944498 , 0.043175
0.944967 , 0.029050
0.945435 , 0.016039
0.945903 , 0.005450
0.946372 , -0.011281
0.946840 , -0.017900
0.947308 , -0.027030
0.947777 , -0.034647
0.948245 , -0.037698
0.948714 , -0.034185
0.949182 , -0.039474
0.949650 , -0.042576
0.950119 , -0.043926
0.950587 , -0.049473
0.951055 , -0.053478
0.951524 , -0.059355
0.951992 , -0.065457
0.952461 , -0.072114
0.952929 , -0.077506
0.953397 , -0.091132
0.953866 , -0.105443
0.954334 , -0.120282
0.954802 , -0.133343
0.955271 , -0.150072
0.955739 , -0.171562
0.956208 , -0.183668
0.956676 , -0.198434
0.957144 , -0.214211
0.957613 , -0.226303
0.958081 , -0.245840
0.958549 , -0.260130
0.959018 , -0.274843
0.959486 , -0.287690
0.959955 , -0.300009
0.960423 , -0.308652
0.960891 , -0.317832
0.961360 , -0.321292
0.961828 , -0.326071
0.962296 , -0.328113
0.962765 , -0.327034
0.963233 , -0.322716
0.963701 , -0.310042
0.964170 , -0.303305
0.964638 , -0.299084
0.965107 , -0.292001
0.965575 , -0.282365
0.966043 , -0.270132
0.966512 , -0.266346
0.966980 , -0.255533
0.967448 , -0.243480
0.967917 , -0.232603
0.968385 , -0.228054
0.968854 , -0.215650
0.969322 , -0.206819
0.969790 , -0.208324
0.970259 , -0.206122
0.970727 , -0.206906
0.971195 , -0.211074
0.971664 , -0.221255
0.972132 , -0.230260
0.972601 , -0.242893
0.973069 , -0.253293
0.973537 , -0.269168
0.974006 , -0.284057
0.974474 , -0.303753
0.974942 , -0.319884
0.975411 , -0.339081
0.975879 , -0.360763
0.976348 , -0.384577
0.976816 , -0.408778
0.977284 , -0.429239
0.977753 , -0.452379
0.978221 , -0.472255
0.978689 , -0.484076
0.979158 , -0.497467
0.979626 , -0.513948
0.980094 , -0.520433
0.980563 , -0.523239
0.981031 , -0.525290
0.981500 , -0.523354
0.981968 , -0.516752
0.982436 , -0.508503
0.982905 , -0.500239
0.983373 , -0.497682
0.983841 , -0.486742
0.984310 , -0.477003
0.984778 , -0.467731
0.985247 , -0.453893
0.985715 , -0.430383
0.986183 , -0.416931
0.986652 , -0.406211
0.987120 , -0.395275
0.987588 , -0.386383
0.988057 , -0.375233
0.988525 , -0.364032
0.988994 , -0.356717
0.989462 , -0.353213
0.989930 , -0.346346
0.990399 , -0.341327
0.990867 , -0.338034
0.991335 , -0.333212
0.991804 , -0.331224
0.992272 , -0.328952
0.992741 , -0.329360
0.993209 , -0.331916
0.993677 , -0.329292
0.994146 , -0.326670
0.994614 , -0.331451
0.995082 , -0.338907
0.995551 , -0.344585
0.996019 , -0.348310
0.996487 , -0.362911
0.996956 , -0.375416
0.997424 , -0.386676
0.997893 , -0.400102
0.998361 , -0.408990
0.998829 , -0.425639
0.999298 , -0.440132
0.999766 , -0.458216
1.000230 , -0.473362
1.000700 , -0.494462
1.001170 , -0.512464
1.001640 , -0.529237
1.002110 , -0.546861
1.002580 , -0.563019
1.003040 , -0.576675
1.003510 , -0.585316
1.003980 , -0.596927
1.004450 , -0.611522
1.004920 , -0.617221
1.005390 , -0.626365
1.005850 , -0.630947
1.006320 , -0.629479
1.006790 , -0.625331
1.007260 , -0.615136
1.007730 , -0.594346
1.008200 , -0.568391
1.008670 , -0.539029
1.009130 , -0.509714
1.009600 , -0.472034
1.010070 , -0.437818
1.010540 , -0.397650
1.011010 , -0.360584
1.011480 , -0.320761
1.011940 , -0.282861
1.012410 , -0.246820
1.012880 , -0.219199
1.013350 , -0.195965
1.013820 , -0.175388
1.014290 , -0.166176
1.014750 , -0.159761
1.015220 , -0.159174
1.015690 , -0.167180
1.016160 , -0.179963
1.016630 , -0.200174
1.017100 , -0.222326
1.017560 , -0.249556
1.018030 , -0.273323
1.018500 , -0.297172
1.018970 , -0.322519
1.019440 , -0.339825
1.019910 , -0.354596
1.020370 , -0.369114
1.020840 , -0.379835
1.021310 , -0.384175
1.021780 , -0.383457
1.022250 , -0.379021
1.022720 , -0.370548
1.023180 , -0.360416
1.023650 , -0.347177
1.024120 , -0.335672
1.024590 , -0.322783
1.025060 , -0.322067
1.025530 , -0.315255
1.025990 , -0.309930
1.026460 , -0.308547
1.026930 , -0.311036
1.027400 , -0.318985
1.027870 , -0.328835
1.028340 , -0.338155
1.028810 , -0.353466
1.029270 , -0.371666
1.029740 , -0.395755
1.030210 , -0.416375
1.030680 , -0.439860
1.031150 , -0.459268
1.031620 , -0.482320
1.032080 , -0.501455
1.032550 , -0.519243
1.033020 , -0.532254
1.033490 , -0.547919
1.033960 , -0.557651
1.034430 , -0.569190
1.034890 , -0.576806
1.035360 , -0.579865
1.035830 , -0.577771
1.036300 , -0.574016
1.036770 , -0.567909
1.037240 , -0.561677
1.037700 , -0.552357
1.038170 , -0.543687
1.038640 , -0.532231
1.039110 , -0.516983
1.039580 , -0.499235
1.040050 , -0.483712
1.040510 , -0.469729
1.040980 , -0.457992
1.041450 , -0.445933
1.041920 , -0.437505
1.042390 , -0.422337
1.042860 , -0.412501
1.043320 , -0.398749
1.043790 , -0.385862
1.044260 , -0.372871
1.044730 , -0.357932
1.045200 , -0.346225
1.045670 , -0.338327
1.046130 , -0.335452
1.046600 , -0.331127
1.047070 , -0.329136
1.047540 , -0.323591
1.048010 , -0.322973
1.048480 , -0.321108
1.048950 , -0.325889
1.049410 , -0.328832
1.049880 , -0.332582
1.050350 , -0.340957
1.050820 , -0.344061
1.051290 , -0.349228
1.051760 , -0.359683
1.052220 , -0.360512
1.052690 , -0.365828
1.053160 , -0.372342
1.053630 , -0.370632
1.054100 , -0.373714
1.054570 , -0.376313
1.055030 , -0.377311
1.055500 , -0.377364
1.055970 , -0.378177
1.056440 , -0.375138
1.056910 , -0.373633
1.057380 , -0.373725
1.057840 , -0.369433
1.058310 , -0.364797
1.058780 , -0.354901
1.059250 , -0.350377
1.059720 , -0.342405
1.060190 , -0.335521
1.060650 , -0.330389
1.061120 , -0.325875
1.061590 , -0.321898
1.062060 , -0.323442
1.062530 , -0.316971
1.063000 , -0.311525
1.063460 , -0.309462
1.063930 , -0.312031
1.064400 , -0.313701
1.064870 , -0.309679
1.065340 , -0.311655
1.065810 , -0.307701
1.066270 , -0.305511
1.066740 , -0.306547
1.067210 , -0.304751
1.067680 , -0.307044
1.068150 , -0.309060
1.068620 , -0.307220
1.069090 , -0.307997
1.069550 , -0.309255
1.070020 , -0.310372
1.070490 , -0.306646
1.070960 , -0.304432
1.071430 , -0.304133
1.071900 , -0.300422
1.072360 , -0.295436
1.072830 , -0.289538
1.073300 , -0.287849
1.073770 , -0.280592
1.074240 , -0.273647
1.074710 , -0.268303
1.075170 , -0.258308
1.075640 , -0.249935
1.076110 , -0.236842
1.076580 , -0.221991
1.077050 , -0.211235
1.077520 , -0.196145
1.077980 , -0.180154
1.078450 , -0.164863
1.078920 , -0.150831
1.079390 , -0.136131
1.079860 , -0.117160
1.080330 , -0.098190
1.080790 , -0.079445
1.081260 , -0.060983
1.081730 , -0.041687
1.082200 , -0.028014
1.082670 , -0.012686
1.083140 , 0.006779
1.083600 , 0.022795
1.084070 , 0.042437
1.084540 , 0.056277
1.085010 , 0.071158
1.085480 , 0.084755
1.085950 , 0.096948
1.086410 , 0.112905
1.086880 , 0.117208
1.087350 , 0.120301
1.087820 , 0.125244
1.088290 , 0.126907
1.088760 , 0.125518
1.089230 , 0.129395
1.089690 , 0.122308
1.090160 , 0.116683
1.090630 , 0.103125
1.091100 , 0.093004
1.091570 , 0.087733
1.092040 , 0.072358
1.092500 , 0.060298
1.092970 , 0.047537
1.093440 , 0.035468
1.093910 , 0.027500
1.094380 , 0.015441
1.094850 , 0.013400
1.095310 , 0.008567
1.095780 , 0.008551
1.096250 , 0.005768
1.096720 , 0.013834
1.097190 , 0.020192
1.097660 , 0.026920
1.098120 , 0.028948
1.098590 , 0.039052
1.099060 , 0.047067
1.099530 , 0.066357
1.100000 , 0.083534
1.100470 , 0.098263
1.100930 , 0.119589
1.101400 , 0.139870
1.101870 , 0.162446
1.102340 , 0.181948
1.102810 , 0.204241
1.103280 , 0.222432
1.103740 , 0.243175
1.104210 , 0.256968
1.104680 , 0.268345
1.105150 , 0.268469
1.105620 , 0.265290
1.106090 , 0.251151
1.106550 , 0.230873
1.107020 , 0.196640
1.107490 , 0.157537
1.107960 , 0.113039
1.108430 , 0.063068
1.108900 , 0.013976
1.109370 , -0.031046
1.109830 , -0.081926
1.110300 , -0.118503
1.110770 , -0.145457
1.111240 , -0.160249
1.111710 , -0.159825
1.112180 , -0.146381
1.112640 , -0.118977
1.113110 , -0.081221
1.113580 , -0.026073
1.114050 , 0.035330
1.114520 , 0.106653
1.114990 , 0.176042
1.115450 , 0.244509
1.115920 , 0.306563
1.116390 , 0.362156
1.116860 , 0.407554
1.117330 , 0.435131
1.117800 , 0.446693
1.118260 , 0.439408
1.118730 , 0.420388
1.119200 , 0.382722
1.119670 , 0.339653
1.120140 , 0.289152
1.120610 , 0.234162
1.121070 , 0.177397
1.121540 , 0.123050
1.122010 , 0.075474
1.122480 , 0.034923
1.122950 , 0.000075
1.123420 , -0.020095
1.123880 , -0.023821
1.124350 , -0.022289
1.124820 , -0.013433
1.125290 , 0.007515
1.125760 , 0.048114
1.126230 , 0.090339
1.126690 , 0.132710
1.127160 , 0.181717
1.127630 , 0.227037
1.128100 , 0.274675
1.128570 , 0.319850
1.129040 , 0.358503
1.129510 , 0.391104
1.129970 , 0.417977
1.130440 , 0.435512
1.130910 , 0.451215
1.131380 , 0.458084
1.131850 , 0.464044
1.132320 , 0.467766
1.132780 , 0.461544
1.133250 , 0.455472
1.133720 , 0.443703
1.134190 , 0.432330
1.134660 , 0.417949
1.135130 , 0.402923
1.135590 , 0.382817
1.136060 , 0.368406
1.136530 , 0.356096
1.137000 , 0.347588
1.137470 , 0.341822
1.137940 , 0.329470
1.138400 , 0.318797
1.138870 , 0.311302
1.139340 , 0.302565
1.139810 , 0.294755
1.140280 , 0.290653
1.140750 , 0.286583
1.141210 , 0.281717
1.141680 , 0.276666
1.142150 , 0.275110
1.142620 , 0.276720
1.143090 , 0.277884
1.143560 , 0.281088
1.144020 , 0.285780
1.144490 , 0.287883
1.144960 , 0.295084
1.145430 , 0.306878
1.145900 , 0.319964
1.146370 , 0.340494
1.146830 , 0.352709
1.147300 , 0.363744
1.147770 , 0.380898
1.148240 , 0.398200
1.148710 , 0.419591
1.149180 , 0.434026
1.149640 , 0.451469
1.150110 , 0.463411
1.150580 , 0.477990
1.151050 , 0.486147
1.151520 , 0.497921
1.151990 , 0.505211
1.152460 , 0.506435
1.152920 , 0.508146
1.153390 , 0.498453
1.153860 , 0.492876
1.154330 , 0.479540
1.154800 , 0.462854
1.155270 , 0.446541
1.155730 , 0.425024
1.156200 , 0.397706
1.156670 , 0.377986
1.157140 , 0.348272
1.157610 , 0.318734
1.158080 , 0.292309
1.158540 , 0.264242
1.159010 , 0.239177
1.159480 , 0.215387
1.159950 , 0.194831
1.160420 , 0.175554
1.160890 , 0.155492
1.161350 , 0.145468
1.161820 , 0.136656
1.162290 , 0.130410
1.162760 , 0.131133
1.163230 , 0.132486
1.163700 , 0.136470
1.164160 , 0.146386
1.164630 , 0.153256
1.165100 , 0.167482
1.165570 , 0.181253
1.166040 , 0.199985
1.166510 , 0.216435
1.166970 , 0.234824
1.167440 , 0.250961
1.167910 , 0.266897
1.168380 , 0.289558
1.168850 , 0.308989
1.169320 , 0.325350
1.169780 , 0.349477
1.170250 , 0.369471
1.170720 , 0.387679
1.171190 , 0.402487
1.171660 , 0.414058
1.172130 , 0.428566
1.172600 , 0.449110
1.173060 , 0.460798
1.173530 , 0.471614
1.174000 , 0.483329
1.174470 , 0.494545
1.174940 , 0.501367
1.175410 , 0.506006
1.175870 , 0.502690
1.176340 , 0.496910
1.176810 , 0.489590
1.177280 , 0.480008
1.177750 , 0.464280
1.178220 , 0.448676
1.178680 , 0.427199
1.179150 , 0.405250
1.179620 , 0.376107
1.180090 , 0.348865
1.180560 , 0.322213
1.181030 , 0.294335
1.181490 , 0.269081
1.181960 , 0.248089
1.182430 , 0.226331
1.182900 , 0.204326
1.183370 , 0.189406
1.183840 , 0.180775
1.184300 , 0.173079
1.184770 , 0.177830
1.185240 , 0.182267
1.185710 , 0.195415
1.186180 , 0.202892
1.186650 , 0.219680
1.187110 , 0.240528
1.187580 , 0.264861
1.188050 , 0.282828
1.188520 , 0.304374
1.188990 , 0.328314
1.189460 , 0.346924
1.189920 , 0.364216
1.190390 , 0.377464
1.190860 , 0.391711
1.191330 , 0.403446
1.191800 , 0.407775
1.192270 , 0.413218
1.192740 , 0.410002
1.193200 , 0.412224
1.193670 , 0.414266
1.194140 , 0.422838
1.194610 , 0.425326
1.195080 , 0.429107
1.195550 , 0.430893
1.196010 , 0.429122
1.196480 , 0.431654
1.196950 , 0.432818
1.197420 , 0.433737
1.197890 , 0.433335
1.198360 , 0.436501
1.198820 , 0.430077
1.199290 , 0.431321
1.199760 , 0.424738
1.200230 , 0.411674
1.200700 , 0.402407
1.201170 , 0.389902
1.201630 , 0.375545
1.202100 , 0.360755
1.202570 , 0.346436
1.203040 , 0.327269
1.203510 , 0.316578
1.203980 , 0.301513
1.204440 , 0.290143
1.204910 , 0.281177
1.205380 , 0.274696
1.205850 , 0.272234
1.206320 , 0.268079
1.206790 , 0.265487
1.207250 , 0.261172
1.207720 , 0.266619
1.208190 , 0.276851
1.208660 , 0.283401
1.209130 , 0.292258
1.209600 , 0.301972
1.210060 , 0.315985
1.210530 , 0.326507
1.211000 , 0.341431
1.211470 , 0.347038
1.211940 , 0.354720
1.212410 , 0.358856
1.212880 , 0.369943
1.213340 , 0.373280
1.213810 , 0.372169
1.214280 , 0.369832
1.214750 , 0.367571
1.215220 , 0.364830
1.215690 , 0.364192
1.216150 , 0.352741
1.216620 , 0.341679
1.217090 , 0.333885
1.217560 , 0.321701
1.218030 , 0.308454
1.218500 , 0.293740
1.218960 , 0.280866
1.219430 , 0.275120
1.219900 , 0.262509
1.220370 , 0.251316
1.220840 , 0.237575
1.221310 , 0.229603
1.221770 , 0.224811
1.222240 , 0.214902
1.222710 , 0.210050
1.223180 , 0.204241
1.223650 , 0.206545
1.224120 , 0.202724
1.224580 , 0.202223
1.225050 , 0.202671
1.225520 , 0.205080
1.225990 , 0.208792
1.226460 , 0.213575
1.226930 , 0.220959
1.227390 , 0.226725
1.227860 , 0.231837
1.228330 , 0.240607
1.228800 , 0.246554
1.229270 , 0.255554
1.229740 , 0.259984
1.230200 , 0.267923
1.230670 , 0.276760
1.231140 , 0.282581
1.231610 , 0.289974
1.232080 , 0.292427
1.232550 , 0.294998
1.233020 , 0.300369
1.233480 , 0.303653
1.233950 , 0.305182
1.234420 , 0.310643
1.234890 , 0.314011
1.235360 , 0.321539
1.235830 , 0.320726
1.236290 , 0.323702
1.236760 , 0.331204
1.237230 , 0.340334
1.237700 , 0.355199
1.238170 , 0.368393
1.238640 , 0.378420
1.239100 , 0.388987
1.239570 , 0.392836
1.240040 , 0.402678
1.240510 , 0.403261
1.240980 , 0.410612
1.241450 , 0.412206
1.241910 , 0.401825
1.242380 , 0.385581
1.242850 , 0.367278
1.243320 , 0.348984
1.243790 , 0.321153
1.244260 , 0.285432
1.244720 , 0.250236
1.245190 , 0.204779
1.245660 , 0.156121
1.246130 , 0.101767
1.246600 , 0.049274
1.247070 , -0.002146
1.247530 , -0.052776
1.248000 , -0.100426
1.248470 , -0.145583
1.248940 , -0.178917
1.249410 , -0.204367
1.249880 , -0.220659
1.250340 , -0.227616
1.250810 , -0.227562
1.251280 , -0.208305
1.251750 , -0.191813
1.252220 , -0.166808
1.252690 , -0.134123
1.253160 , -0.092182
1.253620 , -0.039024
1.254090 , 0.011193
1.254560 , 0.061702
1.255030 , 0.114708
1.255500 , 0.162672
1.255970 , 0.213211
1.256430 , 0.259508
1.256900 , 0.295678
1.257370 , 0.333443
1.257840 , 0.356260
1.258310 , 0.374568
1.258780 , 0.386401
1.259240 , 0.389962
1.259710 , 0.390428
1.260180 , 0.377169
1.260650 , 0.359402
1.261120 , 0.337712
1.261590 , 0.309786
1.262050 , 0.277084
1.262520 , 0.242971
1.262990 , 0.204083
1.263460 , 0.173598
1.263930 , 0.137318
1.264400 , 0.106854
1.264860 , 0.083139
1.265330 , 0.058318
1.265800 , 0.036198
1.266270 , 0.016517
1.266740 , 0.006493
1.267210 , 0.002903
1.267670 , 0.002551
1.268140 , 0.003722
1.268610 , 0.012455
1.269080 , 0.018464
1.269550 , 0.027948
1.270020 , 0.034917
1.270480 , 0.046825
1.270950 , 0.059678
1.271420 , 0.068797
1.271890 , 0.073058
1.272360 , 0.077717
1.272830 , 0.075315
1.273300 , 0.062860
1.273760 , 0.050748
1.274230 , 0.037001
1.274700 , 0.018259
1.275170 , -0.001837
1.275640 , -0.020066
1.276110 , -0.049083
1.276570 , -0.073515
1.277040 , -0.097708
1.277510 , -0.122054
1.277980 , -0.137106
1.278450 , -0.145821
1.278920 , -0.151667
1.279380 , -0.154413
1.279850 , -0.146779
1.280320 , -0.128172
1.280790 , -0.109500
1.281260 , -0.085697
1.281730 , -0.057894
1.282190 , -0.011351
1.282660 , 0.038460
1.283130 , 0.089308
1.283600 , 0.143880
1.284070 , 0.199256
1.284540 , 0.251099
1.285000 , 0.302833
1.285470 , 0.349052
1.285940 , 0.384554
1.286410 , 0.410455
1.286880 , 0.422025
1.287350 , 0.417517
1.287810 , 0.397038
1.288280 , 0.357601
1.288750 , 0.302783
1.289220 , 0.236170
1.289690 , 0.160157
1.290160 , 0.080856
1.290620 , 0.005931
1.291090 , -0.058034
1.291560 , -0.117665
1.292030 , -0.160824
1.292500 , -0.192242
1.292970 , -0.207787
1.293440 , -0.208426
1.293900 , -0.198831
1.294370 , -0.180433
1.294840 , -0.147958
1.295310 , -0.119260
1.295780 , -0.090900
1.296250 , -0.062601
1.296710 , -0.036704
1.297180 , -0.009536
1.297650 , 0.007571
1.298120 , 0.022769
1.298590 , 0.039879
1.299060 , 0.057573
1.299520 , 0.082076
1.299990 , 0.098711
1.300460 , 0.121541
1.300930 , 0.148503
1.301400 , 0.170035
1.301870 , 0.193851
1.302330 , 0.224967
1.302800 , 0.246273
1.303270 , 0.261249
1.303740 , 0.273267
1.304210 , 0.280707
1.304680 , 0.287128
1.305140 , 0.290948
1.305610 , 0.285938
1.306080 , 0.276927
1.306550 , 0.266533
1.307020 , 0.250708
1.307490 , 0.231623
1.307950 , 0.209236
1.308420 , 0.185407
1.308890 , 0.159074
1.309360 , 0.133699
1.309830 , 0.102683
1.310300 , 0.075184
1.310760 , 0.047970
1.311230 , 0.018706
1.311700 , -0.011352
1.312170 , -0.033482
1.312640 , -0.053837
1.313110 , -0.071300
1.313580 , -0.084309
1.314040 , -0.092447
1.314510 , -0.088475
1.314980 , -0.079191
1.315450 , -0.073075
1.315920 , -0.061709
1.316390 , -0.053904
1.316850 , -0.031975
1.317320 , -0.005553
1.317790 , 0.021001
1.318260 , 0.051645
1.318730 , 0.080928
1.319200 , 0.114665
1.319660 , 0.149009
1.320130 , 0.180842
1.320600 , 0.212393
1.321070 , 0.233713
1.321540 , 0.254721
1.322010 , 0.279747
1.322470 , 0.298051
1.322940 , 0.320520
1.323410 , 0.338189
1.323880 , 0.349495
1.324350 , 0.364969
1.324820 , 0.377602
1.325280 , 0.388289
1.325750 , 0.393722
1.326220 , 0.401319
1.326690 , 0.406371
1.327160 , 0.403437
1.327630 , 0.402544
1.328090 , 0.397179
1.328560 , 0.382114
1.329030 , 0.367691
1.329500 , 0.351940
1.329970 , 0.335427
1.330440 , 0.308792
1.330900 , 0.281961
1.331370 , 0.251662
1.331840 , 0.215598
1.332310 , 0.177253
1.332780 , 0.143741
1.333250 , 0.103803
1.333710 , 0.068374
1.334180 , 0.028691
1.334650 , -0.004568
1.335120 , -0.037538
1.335590 , -0.065491
1.336060 , -0.092553
1.336530 , -0.111800
1.336990 , -0.126093
1.337460 , -0.133122
1.337930 , -0.141938
1.338400 , -0.136690
1.338870 , -0.123654
1.339340 , -0.106606
1.339800 , -0.079350
1.340270 , -0.050856
1.340740 , -0.017752
1.341210 , 0.013425
1.341680 , 0.053801
1.342150 , 0.090877
1.342610 , 0.126544
1.343080 , 0.164935
1.343550 , 0.203154
1.344020 , 0.238137
1.344490 , 0.266305
1.344960 , 0.286793
1.345420 , 0.305576
1.345890 , 0.316667
1.346360 , 0.324823
1.346830 , 0.326792
1.347300 , 0.319207
1.347770 , 0.302106
1.348230 , 0.283432
1.348700 , 0.256106
1.349170 , 0.226282
1.349640 , 0.195623
1.350110 , 0.161704
1.350580 , 0.121887
1.351040 , 0.081584
1.351510 , 0.043346
1.351980 , 0.006279
1.352450 , -0.034229
1.352920 , -0.064460
1.353390 , -0.098517
1.353850 , -0.126457
1.354320 , -0.150783
1.354790 , -0.170488
1.355260 , -0.188660
1.355730 , -0.199283
1.356200 , -0.205445
1.356670 , -0.203793
1.357130 , -0.194639
1.357600 , -0.184680
1.358070 , -0.168587
1.358540 , -0.150965
1.359010 , -0.133650
1.359480 , -0.112267
1.359940 , -0.089520
1.360410 , -0.062701
1.360880 , -0.035431
1.361350 , -0.007008
1.361820 , 0.025414
1.362290 , 0.054712
1.362750 , 0.082851
1.363220 , 0.109131
1.363690 , 0.138435
1.364160 , 0.162220
1.364630 , 0.184055
1.365100 , 0.204197
1.365560 , 0.224974
1.366030 , 0.250971
1.366500 , 0.268347
1.366970 , 0.284055
1.367440 , 0.301039
1.367910 , 0.317872
1.368370 , 0.328839
1.368840 , 0.337076
1.369310 , 0.343196
1.369780 , 0.342754
1.370250 , 0.340297
1.370720 , 0.342296
1.371180 , 0.337534
1.371650 , 0.329098
1.372120 , 0.319864
1.372590 , 0.303735
1.373060 , 0.286437
1.373530 , 0.268103
1.373990 , 0.245202
1.374460 , 0.215371
1.374930 , 0.185429
1.375400 , 0.155677
1.375870 , 0.119979
1.376340 , 0.087138
1.376810 , 0.055137
1.377270 , 0.023797
1.377740 , -0.004290
1.378210 , -0.030630
1.378680 , -0.053241
1.379150 , -0.069823
1.379620 , -0.080240
1.380080 , -0.090327
1.380550 , -0.090982
1.381020 , -0.084618
1.381490 , -0.070107
1.381960 , -0.050790
1.382430 , -0.033687
1.382890 , -0.002855
1.383360 , 0.033863
1.383830 , 0.074252
1.384300 , 0.111837
1.384770 , 0.157282
1.385240 , 0.199414
1.385700 , 0.245582
1.386170 , 0.289514
1.386640 , 0.323390
1.387110 , 0.362893
1.387580 , 0.393954
1.388050 , 0.418085
1.388510 , 0.432332
1.388980 , 0.441657
1.389450 , 0.444959
1.389920 , 0.446472
1.390390 , 0.436747
1.390860 , 0.418573
1.391320 , 0.395394
1.391790 , 0.369454
1.392260 , 0.342437
1.392730 , 0.307138
1.393200 , 0.276083
1.393670 , 0.242304
1.394130 , 0.207422
1.394600 , 0.175964
1.395070 , 0.150211
1.395540 , 0.120481
1.396010 , 0.094476
1.396480 , 0.075288
1.396950 , 0.052561
1.397410 , 0.037895
1.397880 , 0.023461
1.398350 , 0.012725
1.398820 , 0.006425
1.399290 , 0.005657
1.399760 , 0.001948
1.400220 , 0.005783
1.400690 , 0.018304
1.401160 , 0.026654
1.401630 , 0.037728
1.402100 , 0.046878
1.402570 , 0.060214
1.403030 , 0.076549
1.403500 , 0.092613
1.403970 , 0.112314
1.404440 , 0.134669
1.404910 , 0.153279
1.405380 , 0.171150
1.405840 , 0.188860
1.406310 , 0.205587
1.406780 , 0.218847
1.407250 , 0.231435
1.407720 , 0.237766
1.408190 , 0.245529
1.408650 , 0.252701
1.409120 , 0.257058
1.409590 , 0.258809
1.410060 , 0.260768
1.410530 , 0.260887
1.411000 , 0.256514
1.411460 , 0.250920
1.411930 , 0.251786
1.412400 , 0.245470
1.412870 , 0.240571
1.413340 , 0.230931
1.413810 , 0.226613
1.414270 , 0.216869
1.414740 , 0.207770
1.415210 , 0.199107
1.415680 , 0.189838
1.416150 , 0.184613
1.416620 , 0.177273
1.417090 , 0.171576
1.417550 , 0.172840
1.418020 , 0.173210
1.418490 , 0.178266
1.418960 , 0.182651
1.419430 , 0.185330
1.419900 , 0.189980
1.420360 , 0.195898
1.420830 , 0.207241
1.421300 , 0.210587
1.421770 , 0.220092
1.422240 , 0.228616
1.422710 , 0.236461
1.423170 , 0.243792
1.423640 , 0.249690
1.424110 , 0.258036
1.424580 , 0.268313
1.425050 , 0.273834
1.425520 , 0.285113
1.425980 , 0.281532
1.426450 , 0.282692
1.426920 , 0.280219
1.427390 , 0.275499
1.427860 , 0.264579
1.428330 , 0.261854
1.428790 , 0.254251
1.429260 , 0.247871
1.429730 , 0.239697
1.430200 , 0.227397
1.430670 , 0.218854
1.431140 , 0.202352
1.431600 , 0.188602
1.432070 , 0.177451
1.432540 , 0.167080
1.433010 , 0.156671
1.433480 , 0.148038
1.433950 , 0.140957
1.434410 , 0.134481
1.434880 , 0.123010
1.435350 , 0.112511
1.435820 , 0.105899
1.436290 , 0.105086
1.436760 , 0.101931
1.437230 , 0.101753
1.437690 , 0.103035
1.438160 , 0.105648
1.438630 , 0.113611
1.439100 , 0.122586
1.439570 , 0.134289
1.440040 , 0.147315
1.440500 , 0.163994
1.440970 , 0.180023
1.441440 , 0.199543
1.441910 , 0.216967
1.442380 , 0.234042
1.442850 , 0.252671
1.443310 , 0.269488
1.443780 , 0.289209
1.444250 , 0.303140
1.444720 , 0.310071
1.445190 , 0.317205
1.445660 , 0.326671
1.446120 , 0.327297
1.446590 , 0.324505
1.447060 , 0.325035
1.447530 , 0.316384
1.448000 , 0.302628
1.448470 , 0.287560
1.448930 , 0.271486
1.449400 , 0.252390
1.449870 , 0.234054
1.450340 , 0.213262
1.450810 , 0.191376
1.451280 , 0.171112
1.451740 , 0.147546
1.452210 , 0.124720
1.452680 , 0.101861
1.453150 , 0.079576
1.453620 , 0.056863
1.454090 , 0.034945
1.454550 , 0.008446
1.455020 , -0.011351
1.455490 , -0.028369
1.455960 , -0.049403
1.456430 , -0.063615
1.456900 , -0.076395
1.457370 , -0.080379
1.457830 , -0.083646
1.458300 , -0.081784
1.458770 , -0.078837
1.459240 , -0.067071
1.459710 , -0.054100
1.460180 , -0.025912
1.460640 , 0.001967
1.461110 , 0.035524
1.461580 , 0.070126
1.462050 , 0.107121
1.462520 , 0.152858
1.462990 , 0.185998
1.463450 , 0.227233
1.463920 , 0.257586
1.464390 , 0.294557
1.464860 , 0.322685
1.465330 , 0.343313
1.465800 , 0.363456
1.466260 , 0.376519
1.466730 , 0.384729
1.467200 , 0.390793
1.467670 , 0.397077
1.468140 , 0.389166
1.468610 , 0.377492
1.469070 , 0.352686
1.469540 , 0.327089
1.470010 , 0.298039
1.470480 , 0.263227
1.470950 , 0.224482
1.471420 , 0.181678
1.471880 , 0.136447
1.472350 , 0.089283
1.472820 , 0.041587
1.473290 , -0.010219
1.473760 , -0.054497
1.474230 , -0.100447
1.474690 , -0.140223
1.475160 , -0.177016
1.475630 , -0.204509
1.476100 , -0.229835
1.476570 , -0.250425
1.477040 , -0.261027
1.477510 , -0.263237
1.477970 , -0.259094
1.478440 , -0.246795
1.478910 , -0.230045
1.479380 , -0.201101
1.479850 , -0.168364
1.480320 , -0.131886
1.480780 , -0.098444
1.481250 , -0.055207
1.481720 , -0.014624
1.482190 , 0.036388
1.482660 , 0.089061
1.483130 , 0.139914
1.483590 , 0.186634
1.484060 , 0.234986
1.484530 , 0.281151
1.485000 , 0.320415
1.485470 , 0.365474
1.485940 , 0.400171
1.486400 , 0.426217
1.486870 , 0.454068
1.487340 , 0.470882
1.487810 , 0.475621
1.488280 , 0.482579
1.488750 , 0.480249
1.489210 , 0.473935
1.489680 , 0.464074
1.490150 , 0.448153
1.490620 , 0.429413
1.491090 , 0.405165
1.491560 , 0.375970
1.492020 , 0.346809
1.492490 , 0.316215
1.492960 , 0.280345
1.493430 , 0.251603
1.493900 , 0.221447
1.494370 , 0.185210
1.494830 , 0.150672
1.495300 , 0.115276
1.495770 , 0.084757
1.496240 , 0.060365
1.496710 , 0.036652
1.497180 , 0.020164
1.497650 , 0.003523
1.498110 , -0.013032
1.498580 , -0.017917
1.499050 , -0.019183
1.499520 , -0.009275
1.499990 , 0.000000
