0.147981 , 246.213000
0.148458 , 244.309000
0.148936 , 242.409000
0.149413 , 240.511000
0.149891 , 238.628000
0.150368 , 236.760000
0.150846 , 234.919000
0.151323 , 233.105000
0.151800 , 231.327000
0.152278 , 229.589000
0.152755 , 227.905000
0.153233 , 226.276000
0.153710 , 224.697000
0.154188 , 223.168000
0.154665 , 221.693000
0.155142 , 220.252000
0.155620 , 218.831000
0.156097 , 217.419000
0.156575 , 215.996000
0.157052 , 214.544000
0.157530 , 213.047000
0.158007 , 211.498000
0.158485 , 209.894000
0.158962 , 208.237000
0.159439 , 206.555000
0.159917 , 204.866000
0.160394 , 203.199000
0.160872 , 201.566000
0.161349 , 200.007000
0.161827 , 198.529000
0.162304 , 197.133000
0.162782 , 195.814000
0.163259 , 194.554000
0.163736 , 193.333000
0.164214 , 192.131000
0.164691 , 190.932000
0.165169 , 189.726000
0.165646 , 188.493000
0.166124 , 187.242000
0.166601 , 185.978000
0.167079 , 184.706000
0.167556 , 183.428000
0.168033 , 182.165000
0.168511 , 180.904000
0.168988 , 179.664000
0.169466 , 178.435000
0.169943 , 177.219000
0.170421 , 176.007000
0.170898 , 174.807000
0.171376 , 173.613000
0.171853 , 172.420000
0.172330 , 171.231000
0.172808 , 170.045000
0.173285 , 168.863000
0.173763 , 167.677000
0.174240 , 166.500000
0.174718 , 165.321000
0.175195 , 164.150000
0.175673 , 162.981000
0.176150 , 161.813000
0.176627 , 160.657000
0.177105 , 159.514000
0.177582 , 158.377000
0.178060 , 157.255000
0.178537 , 156.141000
0.179015 , 155.045000
0.179492 , 153.968000
0.179970 , 152.911000
0.180447 , 151.881000
0.180924 , 150.864000
0.181402 , 149.862000
0.181879 , 148.890000
0.182357 , 147.931000
0.182834 , 146.991000
0.183312 , 146.059000
0.183789 , 145.138000
0.184266 , 144.216000
0.184744 , 143.293000
0.185221 , 142.367000
0.185699 , 141.426000
0.186176 , 140.466000
0.186654 , 139.494000
0.187131 , 138.507000
0.187609 , 137.500000
0.188086 , 136.483000
0.188563 , 135.449000
0.189041 , 134.408000
0.189518 , 133.359000
0.189996 , 132.322000
0.190473 , 131.297000
0.190951 , 130.292000
0.191428 , 129.313000
0.191906 , 128.366000
0.192383 , 127.461000
0.192860 , 126.599000
0.193338 , 125.778000
0.193815 , 125.005000
0.194293 , 124.261000
0.194770 , 123.554000
0.195248 , 122.870000
0.195725 , 122.208000
0.196203 , 121.539000
0.196680 , 120.870000
0.197157 , 120.188000
0.197635 , 119.495000
0.198112 , 118.772000
0.198590 , 118.027000
0.199067 , 117.260000
0.199545 , 116.470000
0.200022 , 115.663000
0.200500 , 114.843000
0.200977 , 114.008000
0.201454 , 113.164000
0.201932 , 112.314000
0.202409 , 111.473000
0.202887 , 110.627000
0.203364 , 109.797000
0.203842 , 108.973000
0.204319 , 108.176000
0.204797 , 107.390000
0.205274 , 106.631000
0.205751 , 105.908000
0.206229 , 105.199000
0.206706 , 104.521000
0.207184 , 103.867000
0.207661 , 103.227000
0.208139 , 102.601000
0.208616 , 101.983000
0.209093 , 101.372000
0.209571 , 100.754000
0.210048 , 100.120000
0.210526 , 99.473800
0.211003 , 98.792600
0.211481 , 98.092700
0.211958 , 97.376800
0.212436 , 96.637800
0.212913 , 95.886200
0.213390 , 95.133800
0.213868 , 94.385400
0.214345 , 93.650100
0.214823 , 92.930100
0.215300 , 92.236400
0.215778 , 91.567100
0.216255 , 90.929000
0.216733 , 90.310900
0.217210 , 89.714000
0.217687 , 89.136400
0.218165 , 88.569800
0.218642 , 87.998700
0.219120 , 87.417700
0.219597 , 86.825700
0.220075 , 86.214900
0.220552 , 85.576500
0.221030 , 84.922900
0.221507 , 84.255200
0.221984 , 83.571400
0.222462 , 82.895600
0.222939 , 82.205900
0.223417 , 81.534100
0.223894 , 80.880900
0.224372 , 80.256200
0.224849 , 79.648100
0.225327 , 79.066700
0.225804 , 78.493500
0.226281 , 77.937600
0.226759 , 77.391100
0.227236 , 76.848200
0.227714 , 76.302500
0.228191 , 75.754800
0.228669 , 75.198800
0.229146 , 74.625000
0.229624 , 74.033100
0.230101 , 73.431200
0.230578 , 72.815000
0.231056 , 72.185900
0.231533 , 71.547900
0.232011 , 70.917100
0.232488 , 70.281100
0.232966 , 69.648200
0.233443 , 69.023000
0.233921 , 68.395900
0.234398 , 67.784400
0.234875 , 67.176400
0.235353 , 66.580200
0.235830 , 65.994800
0.236308 , 65.428600
0.236785 , 64.878600
0.237263 , 64.327400
0.237740 , 63.795100
0.238217 , 63.263000
0.238695 , 62.739700
0.239172 , 62.200800
0.239650 , 61.664700
0.240127 , 61.094100
0.240605 , 60.503900
0.241082 , 59.884200
0.241560 , 59.230700
0.242037 , 58.558400
0.242514 , 57.875800
0.242992 , 57.196300
0.243469 , 56.546400
0.243947 , 55.917100
0.244424 , 55.327500
0.244902 , 54.781000
0.245379 , 54.268500
0.245857 , 53.773900
0.246334 , 53.295100
0.246811 , 52.813200
0.247289 , 52.306500
0.247766 , 51.770000
0.248244 , 51.184700
0.248721 , 50.562700
0.249199 , 49.915000
0.249676 , 49.249800
0.250154 , 48.581600
0.250631 , 47.930200
0.251108 , 47.295800
0.251586 , 46.688600
0.252063 , 46.123000
0.252541 , 45.586900
0.253018 , 45.089100
0.253496 , 44.617100
0.253973 , 44.160100
0.254451 , 43.676100
0.254928 , 43.122400
0.255405 , 42.484300
0.255883 , 41.737000
0.256360 , 40.911000
0.256838 , 40.076300
0.257315 , 39.316000
0.257793 , 38.688400
0.258270 , 38.210900
0.258748 , 37.833700
0.259225 , 37.478800
0.259702 , 37.077400
0.260180 , 36.603000
0.260657 , 36.072900
0.261135 , 35.491800
0.261612 , 34.895700
0.262090 , 34.289400
0.262567 , 33.683400
0.263044 , 33.090700
0.263522 , 32.509700
0.263999 , 31.945600
0.264477 , 31.391000
0.264954 , 30.854400
0.265432 , 30.345600
0.265909 , 29.856900
0.266387 , 29.386800
0.266864 , 28.914500
0.267341 , 28.454600
0.267819 , 27.980800
0.268296 , 27.503500
0.268774 , 26.993900
0.269251 , 26.462400
0.269729 , 25.905900
0.270206 , 25.330900
0.270684 , 24.749100
0.271161 , 24.160900
0.271638 , 23.572200
0.272116 , 22.998600
0.272593 , 22.448000
0.273071 , 21.926200
0.273548 , 21.447200
0.274026 , 20.998300
0.274503 , 20.581500
0.274981 , 20.196800
0.275458 , 19.826000
0.275935 , 19.462200
0.276413 , 19.094100
0.276890 , 18.713700
0.277368 , 18.332000
0.277845 , 17.944500
0.278323 , 17.544300
0.278800 , 17.144100
0.279278 , 16.752100
0.279755 , 16.363000
0.280232 , 15.974800
0.280710 , 15.579100
0.281187 , 15.177400
0.281665 , 14.762300
0.282142 , 14.351500
0.282620 , 13.937900
0.283097 , 13.525300
0.283575 , 13.117600
0.284052 , 12.722200
0.284529 , 12.341600
0.285007 , 11.970400
0.285484 , 11.619300
0.285962 , 11.266800
0.286439 , 10.916300
0.286917 , 10.576100
0.287394 , 10.241200
0.287872 , 9.904850
0.288349 , 9.571150
0.288826 , 9.244150
0.289304 , 8.924070
0.289781 , 8.612290
0.290259 , 8.309010
0.290736 , 8.007600
0.291214 , 7.714450
0.291691 , 7.421490
0.292168 , 7.131660
0.292646 , 6.844180
0.293123 , 6.555070
0.293601 , 6.269290
0.294078 , 5.985480
0.294556 , 5.697330
0.295033 , 5.410120
0.295511 , 5.117150
0.295988 , 4.827390
0.296465 , 4.541420
0.296943 , 4.256950
0.297420 , 3.971340
0.297898 , 3.694970
0.298375 , 3.418870
0.298853 , 3.155910
0.299330 , 2.894380
0.299808 , 2.642860
0.300285 , 2.395020
0.300762 , 2.157280
0.301240 , 1.919600
0.301717 , 1.685520
0.302195 , 1.454560
0.302672 , 1.222780
0.303150 , 0.982605
0.303627 , 0.738588
0.304105 , 0.488297
0.304582 , 0.228032
0.305059 , -0.041536
0.305537 , -0.313269
0.306014 , -0.588375
0.306492 , -0.866238
0.306969 , -1.147490
0.307447 , -1.423750
0.307924 , -1.685270
0.308402 , -1.940680
0.308879 , -2.183670
0.309356 , -2.418760
0.309834 , -2.632280
0.310311 , -2.836060
0.310789 , -3.030370
0.311266 , -3.211190
0.311744 , -3.392190
0.312221 , -3.573010
0.312699 , -3.758600
0.313176 , -3.953410
0.313653 , -4.164800
0.314131 , -4.386550
0.314608 , -4.621840
0.315086 , -4.865120
0.315563 , -5.117440
0.316041 , -5.373090
0.316518 , -5.637020
0.316995 , -5.898210
0.317473 , -6.156970
0.317950 , -6.405330
0.318428 , -6.637290
0.318905 , -6.859190
0.319383 , -7.067590
0.319860 , -7.266290
0.320338 , -7.453540
0.320815 , -7.627520
0.321292 , -7.790590
0.321770 , -7.950580
0.322247 , -8.105300
0.322725 , -8.259330
0.323202 , -8.417270
0.323680 , -8.580420
0.324157 , -8.745330
0.324635 , -8.907690
0.325112 , -9.079700
0.325589 , -9.252670
0.326067 , -9.438540
0.326544 , -9.616630
0.327022 , -9.804370
0.327499 , -9.992670
0.327977 , -10.174300
0.328454 , -10.360000
0.328932 , -10.548100
0.329409 , -10.732600
0.329886 , -10.915600
0.330364 , -11.099000
0.330841 , -11.277100
0.331319 , -11.458100
0.331796 , -11.633800
0.332274 , -11.796900
0.332751 , -11.953000
0.333229 , -12.102700
0.333706 , -12.246900
0.334183 , -12.378800
0.334661 , -12.492600
0.335138 , -12.611900
0.335616 , -12.719800
0.336093 , -12.824000
0.336571 , -12.921800
0.337048 , -13.019900
0.337526 , -13.119900
0.338003 , -13.222500
0.338480 , -13.323500
0.338958 , -13.431700
0.339435 , -13.539600
0.339913 , -13.667900
0.340390 , -13.797800
0.340868 , -13.940800
0.341345 , -14.095600
0.341823 , -14.250500
0.342300 , -14.408800
0.342777 , -14.570000
0.343255 , -14.725500
0.343732 , -14.872900
0.344210 , -15.010200
0.344687 , -15.132600
0.345165 , -15.237900
0.345642 , -15.319700
0.346119 , -15.384900
0.346597 , -15.426000
0.347074 , -15.452400
0.347552 , -15.467000
0.348029 , -15.475600
0.348507 , -15.469600
0.348984 , -15.467400
0.349462 , -15.472600
0.349939 , -15.480200
0.350416 , -15.509100
0.350894 , -15.551100
0.351371 , -15.617400
0.351849 , -15.702900
0.352326 , -15.808200
0.352804 , -15.932600
0.353281 , -16.065400
0.353759 , -16.207600
0.354236 , -16.355900
0.354713 , -16.513600
0.355191 , -16.656600
0.355668 , -16.785100
0.356146 , -16.896900
0.356623 , -16.979100
0.357101 , -17.039800
0.357578 , -17.071800
0.358056 , -17.065000
0.358533 , -17.040900
0.359010 , -16.997600
0.359488 , -16.944800
0.359965 , -16.880200
0.360443 , -16.822600
0.360920 , -16.765500
0.361398 , -16.729400
0.361875 , -16.708500
0.362353 , -16.710500
0.362830 , -16.731400
0.363307 , -16.772600
0.363785 , -16.832400
0.364262 , -16.900000
0.364740 , -16.990500
0.365217 , -17.078200
0.365695 , -17.162700
0.366172 , -17.242400
0.366650 , -17.323600
0.367127 , -17.394800
0.367604 , -17.453600
0.368082 , -17.497800
0.368559 , -17.528900
0.369037 , -17.544500
0.369514 , -17.543900
0.369992 , -17.529100
0.370469 , -17.517500
0.370947 , -17.490200
0.371424 , -17.449900
0.371901 , -17.420100
0.372379 , -17.385500
0.372856 , -17.356300
0.373334 , -17.324800
0.373811 , -17.302900
0.374289 , -17.287400
0.374766 , -17.278200
0.375243 , -17.279800
0.375721 , -17.295900
0.376198 , -17.320200
0.376676 , -17.354900
0.377153 , -17.401900
0.377631 , -17.448800
0.378108 , -17.509700
0.378586 , -17.566200
0.379063 , -17.618300
0.379540 , -17.658500
0.380018 , -17.708300
0.380495 , -17.748300
0.380973 , -17.770100
0.381450 , -17.790800
0.381928 , -17.795000
0.382405 , -17.786700
0.382883 , -17.772200
0.383360 , -17.749900
0.383837 , -17.721300
0.384315 , -17.699000
0.384792 , -17.677700
0.385270 , -17.661000
0.385747 , -17.652800
0.386225 , -17.654500
0.386702 , -17.672000
0.387180 , -17.696100
0.387657 , -17.727500
0.388134 , -17.772800
0.388612 , -17.828600
0.389089 , -17.894100
0.389567 , -17.961900
0.390044 , -18.035100
0.390522 , -18.104800
0.390999 , -18.176200
0.391477 , -18.242600
0.391954 , -18.314200
0.392431 , -18.373400
0.392909 , -18.444100
0.393386 , -18.504600
0.393864 , -18.562200
0.394341 , -18.614600
0.394819 , -18.665700
0.395296 , -18.718000
0.395774 , -18.768300
0.396251 , -18.815300
0.396728 , -18.862500
0.397206 , -18.913100
0.397683 , -18.966600
0.398161 , -19.021800
0.398638 , -19.074600
0.399116 , -19.122700
0.399593 , -19.176000
0.400070 , -19.230300
0.400548 , -19.273800
0.401025 , -19.323000
0.401503 , -19.372600
0.401980 , -19.418100
0.402458 , -19.467100
0.402935 , -19.517700
0.403413 , -19.572700
0.403890 , -19.624400
0.404367 , -19.672900
0.404845 , -19.717600
0.405322 , -19.768600
0.405800 , -19.822400
0.406277 , -19.882300
0.406755 , -19.931500
0.407232 , -19.984100
0.407710 , -20.033500
0.408187 , -20.084500
0.408664 , -20.133100
0.409142 , -20.176700
0.409619 , -20.217900
0.410097 , -20.254500
0.410574 , -20.287900
0.411052 , -20.316900
0.411529 , -20.343800
0.412007 , -20.361400
0.412484 , -20.381200
0.412961 , -20.401000
0.413439 , -20.414800
0.413916 , -20.430200
0.414394 , -20.448300
0.414871 , -20.457700
0.415349 , -20.471200
0.415826 , -20.483800
0.416304 , -20.493400
0.416781 , -20.499200
0.417258 , -20.509200
0.417736 , -20.511700
0.418213 , -20.512200
0.418691 , -20.510700
0.419168 , -20.511700
0.419646 , -20.504400
0.420123 , -20.495600
0.420601 , -20.487100
0.421078 , -20.476000
0.421555 , -20.455600
0.422033 , -20.438300
0.422510 , -20.428400
0.422988 , -20.422300
0.423465 , -20.411600
0.423943 , -20.399000
0.424420 , -20.391700
0.424898 , -20.395000
0.425375 , -20.403000
0.425852 , -20.408800
0.426330 , -20.414600
0.426807 , -20.427700
0.427285 , -20.429300
0.427762 , -20.437400
0.428240 , -20.433800
0.428717 , -20.427700
0.429194 , -20.414000
0.429672 , -20.394100
0.430149 , -20.366400
0.430627 , -20.328000
0.431104 , -20.282100
0.431582 , -20.235300
0.432059 , -20.182500
0.432537 , -20.130900
0.433014 , -20.081700
0.433491 , -20.035800
0.433969 , -19.993500
0.434446 , -19.958000
0.434924 , -19.929300
0.435401 , -19.905900
0.435879 , -19.882400
0.436356 , -19.868800
0.436834 , -19.860100
0.437311 , -19.854200
0.437788 , -19.852500
0.438266 , -19.850400
0.438743 , -19.848200
0.439221 , -19.838900
0.439698 , -19.824600
0.440176 , -19.803600
0.440653 , -19.779600
0.441131 , -19.740900
0.441608 , -19.688100
0.442085 , -19.640700
0.442563 , -19.579500
0.443040 , -19.511900
0.443518 , -19.442000
0.443995 , -19.378000
0.444473 , -19.306500
0.444950 , -19.236200
0.445428 , -19.173700
0.445905 , -19.114900
0.446382 , -19.061100
0.446860 , -19.009000
0.447337 , -18.960200
0.447815 , -18.925200
0.448292 , -18.895400
0.448770 , -18.875200
0.449247 , -18.851000
0.449725 , -18.838600
0.450202 , -18.816800
0.450679 , -18.803700
0.451157 , -18.790700
0.451634 , -18.777600
0.452112 , -18.759900
0.452589 , -18.739100
0.453067 , -18.711600
0.453544 , -18.681900
0.454021 , -18.654200
0.454499 , -18.616800
0.454976 , -18.582100
0.455454 , -18.545100
0.455931 , -18.501400
0.456409 , -18.454700
0.456886 , -18.406000
0.457364 , -18.351300
0.457841 , -18.292000
0.458318 , -18.236300
0.458796 , -18.171300
0.459273 , -18.107900
0.459751 , -18.051600
0.460228 , -17.991200
0.460706 , -17.930900
0.461183 , -17.868900
0.461661 , -17.809200
0.462138 , -17.751500
0.462615 , -17.696000
0.463093 , -17.639900
0.463570 , -17.592900
0.464048 , -17.552300
0.464525 , -17.512600
0.465003 , -17.493900
0.465480 , -17.469000
0.465958 , -17.467500
0.466435 , -17.470600
0.466912 , -17.476700
0.467390 , -17.485400
0.467867 , -17.506200
0.468345 , -17.519400
0.468822 , -17.532900
0.469300 , -17.549600
0.469777 , -17.565200
0.470255 , -17.579500
0.470732 , -17.589300
0.471209 , -17.591100
0.471687 , -17.588600
0.472164 , -17.576300
0.472642 , -17.557300
0.473119 , -17.525800
0.473597 , -17.496000
0.474074 , -17.452300
0.474552 , -17.404800
0.475029 , -17.352300
0.475506 , -17.305700
0.475984 , -17.259000
0.476461 , -17.210700
0.476939 , -17.174300
0.477416 , -17.141000
0.477894 , -17.111900
0.478371 , -17.089200
0.478849 , -17.064500
0.479326 , -17.047400
0.479803 , -17.028100
0.480281 , -17.018300
0.480758 , -17.011100
0.481236 , -16.999900
0.481713 , -16.987000
0.482191 , -16.975100
0.482668 , -16.960900
0.483145 , -16.938000
0.483623 , -16.920800
0.484100 , -16.902900
0.484578 , -16.878700
0.485055 , -16.852700
0.485533 , -16.821600
0.486010 , -16.793400
0.486488 , -16.760300
0.486965 , -16.726200
0.487442 , -16.694800
0.487920 , -16.671700
0.488397 , -16.648400
0.488875 , -16.629200
0.489352 , -16.608400
0.489830 , -16.593200
0.490307 , -16.578400
0.490785 , -16.564300
0.491262 , -16.553300
0.491739 , -16.545200
0.492217 , -16.538700
0.492694 , -16.529700
0.493172 , -16.518700
0.493649 , -16.504700
0.494127 , -16.484500
0.494604 , -16.463800
0.495082 , -16.435500
0.495559 , -16.403100
0.496036 , -16.365200
0.496514 , -16.316700
0.496991 , -16.274400
0.497469 , -16.232000
0.497946 , -16.180800
0.498424 , -16.130700
0.498901 , -16.083200
0.499379 , -16.035200
0.499856 , -15.990900
0.500333 , -15.948200
0.500811 , -15.904200
0.501288 , -15.866100
0.501766 , -15.833500
0.502243 , -15.806600
0.502721 , -15.782600
0.503198 , -15.763900
0.503676 , -15.745000
0.504153 , -15.729700
0.504630 , -15.724700
0.505108 , -15.715200
0.505585 , -15.704600
0.506063 , -15.692500
0.506540 , -15.673400
0.507018 , -15.652000
0.507495 , -15.621400
0.507972 , -15.591600
0.508450 , -15.555900
0.508927 , -15.505500
0.509405 , -15.442200
0.509882 , -15.375900
0.510360 , -15.298700
0.510837 , -15.223400
0.511315 , -15.137900
0.511792 , -15.050800
0.512269 , -14.976700
0.512747 , -14.914600
0.513224 , -14.863600
0.513702 , -14.832200
0.514179 , -14.821800
0.514657 , -14.832400
0.515134 , -14.856600
0.515612 , -14.890900
0.516089 , -14.923100
0.516566 , -14.951900
0.517044 , -14.967700
0.517521 , -14.965800
0.517999 , -14.932000
0.518476 , -14.877800
0.518954 , -14.814800
0.519431 , -14.731900
0.519909 , -14.642200
0.520386 , -14.556100
0.520863 , -14.475100
0.521341 , -14.410100
0.521818 , -14.363700
0.522296 , -14.325700
0.522773 , -14.299800
0.523251 , -14.287000
0.523728 , -14.272500
0.524206 , -14.251800
0.524683 , -14.221500
0.525160 , -14.194800
0.525638 , -14.155800
0.526115 , -14.114600
0.526593 , -14.062000
0.527070 , -14.000600
0.527548 , -13.932800
0.528025 , -13.867400
0.528503 , -13.795700
0.528980 , -13.730200
0.529457 , -13.666000
0.529935 , -13.607100
0.530412 , -13.569900
0.530890 , -13.539900
0.531367 , -13.523400
0.531845 , -13.526000
0.532322 , -13.531400
0.532800 , -13.553200
0.533277 , -13.584300
0.533754 , -13.625600
0.534232 , -13.663000
0.534709 , -13.698900
0.535187 , -13.724100
0.535664 , -13.739500
0.536142 , -13.756400
0.536619 , -13.753400
0.537096 , -13.733400
0.537574 , -13.701900
0.538051 , -13.649200
0.538529 , -13.585600
0.539006 , -13.509600
0.539484 , -13.422100
0.539961 , -13.334100
0.540439 , -13.243500
0.540916 , -13.157200
0.541393 , -13.071500
0.541871 , -12.993300
0.542348 , -12.927200
0.542826 , -12.869700
0.543303 , -12.830200
0.543781 , -12.797600
0.544258 , -12.780800
0.544736 , -12.768300
0.545213 , -12.760700
0.545690 , -12.761800
0.546168 , -12.774600
0.546645 , -12.785200
0.547123 , -12.800100
0.547600 , -12.809100
0.548078 , -12.822200
0.548555 , -12.827200
0.549033 , -12.831900
0.549510 , -12.832100
0.549987 , -12.825000
0.550465 , -12.813200
0.550942 , -12.797300
0.551420 , -12.775700
0.551897 , -12.750400
0.552375 , -12.719200
0.552852 , -12.685600
0.553330 , -12.638000
0.553807 , -12.599900
0.554284 , -12.558200
0.554762 , -12.512600
0.555239 , -12.472300
0.555717 , -12.424800
0.556194 , -12.374200
0.556672 , -12.336600
0.557149 , -12.298900
0.557627 , -12.267500
0.558104 , -12.236500
0.558581 , -12.214500
0.559059 , -12.190100
0.559536 , -12.171800
0.560014 , -12.154300
0.560491 , -12.144600
0.560969 , -12.138400
0.561446 , -12.128800
0.561924 , -12.113600
0.562401 , -12.107200
0.562878 , -12.098700
0.563356 , -12.085000
0.563833 , -12.067300
0.564311 , -12.051200
0.564788 , -12.030500
0.565266 , -11.999700
0.565743 , -11.977600
0.566220 , -11.947600
0.566698 , -11.910100
0.567175 , -11.874600
0.567653 , -11.831700
0.568130 , -11.790100
0.568608 , -11.740400
0.569085 , -11.692800
0.569563 , -11.637400
0.570040 , -11.589700
0.570517 , -11.539200
0.570995 , -11.493500
0.571472 , -11.442400
0.571950 , -11.402400
0.572427 , -11.365500
0.572905 , -11.328000
0.573382 , -11.298500
0.573860 , -11.278800
0.574337 , -11.258200
0.574814 , -11.232500
0.575292 , -11.212800
0.575769 , -11.202300
0.576247 , -11.187000
0.576724 , -11.171700
0.577202 , -11.151200
0.577679 , -11.135200
0.578157 , -11.115800
0.578634 , -11.084400
0.579111 , -11.051900
0.579589 , -11.011600
0.580066 , -10.969300
0.580544 , -10.918900
0.581021 , -10.866900
0.581499 , -10.814400
0.581976 , -10.748400
0.582454 , -10.687800
0.582931 , -10.618100
0.583408 , -10.547800
0.583886 , -10.480600
0.584363 , -10.414500
0.584841 , -10.359000
0.585318 , -10.310500
0.585796 , -10.268200
0.586273 , -10.227600
0.586751 , -10.193600
0.587228 , -10.163500
0.587705 , -10.137800
0.588183 , -10.108500
0.588660 , -10.074700
0.589138 , -10.051800
0.589615 , -10.030400
0.590093 , -10.006800
0.590570 , -9.979000
0.591047 , -9.944860
0.591525 , -9.914110
0.592002 , -9.881960
0.592480 , -9.850100
0.592957 , -9.815980
0.593435 , -9.776780
0.593912 , -9.729220
0.594390 , -9.690220
0.594867 , -9.642460
0.595344 , -9.597080
0.595822 , -9.556620
0.596299 , -9.514090
0.596777 , -9.468930
0.597254 , -9.437780
0.597732 , -9.407080
0.598209 , -9.389920
0.598687 , -9.368960
0.599164 , -9.353400
0.599641 , -9.342200
0.600119 , -9.335900
0.600596 , -9.330400
0.601074 , -9.327210
0.601551 , -9.318970
0.602029 , -9.309270
0.602506 , -9.292700
0.602984 , -9.277190
0.603461 , -9.258840
0.603938 , -9.231390
0.604416 , -9.196230
0.604893 , -9.149030
0.605371 , -9.101770
0.605848 , -9.042820
0.606326 , -8.979520
0.606803 , -8.910300
0.607281 , -8.840050
0.607758 , -8.766050
0.608235 , -8.684670
0.608713 , -8.604080
0.609190 , -8.527360
0.609668 , -8.448350
0.610145 , -8.377440
0.610623 , -8.316420
0.611100 , -8.251130
0.611578 , -8.195000
0.612055 , -8.144510
0.612532 , -8.106010
0.613010 , -8.068730
0.613487 , -8.042120
0.613965 , -8.015070
0.614442 , -7.998080
0.614920 , -7.991500
0.615397 , -7.976360
0.615875 , -7.971980
0.616352 , -7.968060
0.616829 , -7.967210
0.617307 , -7.962190
0.617784 , -7.956690
0.618262 , -7.938750
0.618739 , -7.929670
0.619217 , -7.901920
0.619694 , -7.874910
0.620171 , -7.839430
0.620649 , -7.796090
0.621126 , -7.742190
0.621604 , -7.675910
0.622081 , -7.607960
0.622559 , -7.530940
0.623036 , -7.446450
0.623514 , -7.353480
0.623991 , -7.258700
0.624468 , -7.169670
0.624946 , -7.080620
0.625423 , -6.998590
0.625901 , -6.915870
0.626378 , -6.852860
0.626856 , -6.788530
0.627333 , -6.741300
0.627811 , -6.696860
0.628288 , -6.671670
0.628765 , -6.656170
0.629243 , -6.650680
0.629720 , -6.653300
0.630198 , -6.663880
0.630675 , -6.672960
0.631153 , -6.687560
0.631630 , -6.697280
0.632108 , -6.703640
0.632585 , -6.709930
0.633062 , -6.699400
0.633540 , -6.678490
0.634017 , -6.650020
0.634495 , -6.610450
0.634972 , -6.559060
0.635450 , -6.492400
0.635927 , -6.417760
0.636405 , -6.345820
0.636882 , -6.257990
0.637359 , -6.181090
0.637837 , -6.105180
0.638314 , -6.029680
0.638792 , -5.964300
0.639269 , -5.905310
0.639747 , -5.855970
0.640224 , -5.824550
0.640702 , -5.802240
0.641179 , -5.786640
0.641656 , -5.783150
0.642134 , -5.794690
0.642611 , -5.810780
0.643089 , -5.826550
0.643566 , -5.849220
0.644044 , -5.872970
0.644521 , -5.888440
0.644998 , -5.900210
0.645476 , -5.901800
0.645953 , -5.890370
0.646431 , -5.879150
0.646908 , -5.852260
0.647386 , -5.821660
0.647863 , -5.789220
0.648341 , -5.742070
0.648818 , -5.694590
0.649295 , -5.648770
0.649773 , -5.600420
0.650250 , -5.548830
0.650728 , -5.499850
0.651205 , -5.453800
0.651683 , -5.416100
0.652160 , -5.375040
0.652638 , -5.337720
0.653115 , -5.305180
0.653592 , -5.288810
0.654070 , -5.266520
0.654547 , -5.248570
0.655025 , -5.236180
0.655502 , -5.224640
0.655980 , -5.218560
0.656457 , -5.213710
0.656935 , -5.208700
0.657412 , -5.208510
0.657889 , -5.207560
0.658367 , -5.203650
0.658844 , -5.199050
0.659322 , -5.198440
0.659799 , -5.191980
0.660277 , -5.185360
0.660754 , -5.182280
0.661232 , -5.173600
0.661709 , -5.172440
0.662186 , -5.169780
0.662664 , -5.161940
0.663141 , -5.154520
0.663619 , -5.142770
0.664096 , -5.132360
0.664574 , -5.124030
0.665051 , -5.116700
0.665529 , -5.106630
0.666006 , -5.095790
0.666483 , -5.081050
0.666961 , -5.075770
0.667438 , -5.060910
0.667916 , -5.046880
0.668393 , -5.037450
0.668871 , -5.027370
0.669348 , -5.012360
0.669826 , -4.989320
0.670303 , -4.975710
0.670780 , -4.959960
0.671258 , -4.942030
0.671735 , -4.918650
0.672213 , -4.893290
0.672690 , -4.861660
0.673168 , -4.827170
0.673645 , -4.791090
0.674122 , -4.752870
0.674600 , -4.710290
0.675077 , -4.663370
0.675555 , -4.618330
0.676032 , -4.575200
0.676510 , -4.534020
0.676987 , -4.494890
0.677465 , -4.464000
0.677942 , -4.439080
0.678419 , -4.419970
0.678897 , -4.402430
0.679374 , -4.395130
0.679852 , -4.393930
0.680329 , -4.389960
0.680807 , -4.405420
0.681284 , -4.415370
0.681762 , -4.436940
0.682239 , -4.455620
0.682716 , -4.471100
0.683194 , -4.487400
0.683671 , -4.501280
0.684149 , -4.513250
0.684626 , -4.517010
0.685104 , -4.518300
0.685581 , -4.511430
0.686059 , -4.506230
0.686536 , -4.491610
0.687013 , -4.472360
0.687491 , -4.446180
0.687968 , -4.417980
0.688446 , -4.395740
0.688923 , -4.367480
0.689401 , -4.336690
0.689878 , -4.307990
0.690356 , -4.275070
0.690833 , -4.252550
0.691310 , -4.227950
0.691788 , -4.209090
0.692265 , -4.190570
0.692743 , -4.171790
0.693220 , -4.154560
0.693698 , -4.138780
0.694175 , -4.132050
0.694653 , -4.119680
0.695130 , -4.103420
0.695607 , -4.092930
0.696085 , -4.084680
0.696562 , -4.078270
0.697040 , -4.066630
0.697517 , -4.054290
0.697995 , -4.040860
0.698472 , -4.026460
0.698949 , -4.007760
0.699427 , -3.983710
0.699904 , -3.962090
0.700382 , -3.934760
0.700859 , -3.915820
0.701337 , -3.883570
0.701814 , -3.857500
0.702292 , -3.827850
0.702769 , -3.796720
0.703246 , -3.765210
0.703724 , -3.736230
0.704201 , -3.714180
0.704679 , -3.691310
0.705156 , -3.667770
0.705634 , -3.650270
0.706111 , -3.634480
0.706589 , -3.623560
0.707066 , -3.616440
0.707543 , -3.615190
0.708021 , -3.611520
0.708498 , -3.618860
0.708976 , -3.620940
0.709453 , -3.623690
0.709931 , -3.632160
0.710408 , -3.633060
0.710886 , -3.631870
0.711363 , -3.634080
0.711840 , -3.634520
0.712318 , -3.617410
0.712795 , -3.608760
0.713273 , -3.591760
0.713750 , -3.573570
0.714228 , -3.548350
0.714705 , -3.522670
0.715183 , -3.490850
0.715660 , -3.457460
0.716137 , -3.428460
0.716615 , -3.397570
0.717092 , -3.366900
0.717570 , -3.337650
0.718047 , -3.311890
0.718525 , -3.285330
0.719002 , -3.260860
0.719480 , -3.248180
0.719957 , -3.230480
0.720434 , -3.216380
0.720912 , -3.204860
0.721389 , -3.194860
0.721867 , -3.187580
0.722344 , -3.183520
0.722822 , -3.185590
0.723299 , -3.183670
0.723777 , -3.182090
0.724254 , -3.179540
0.724731 , -3.173350
0.725209 , -3.163330
0.725686 , -3.162110
0.726164 , -3.147960
0.726641 , -3.146470
0.727119 , -3.141420
0.727596 , -3.133840
0.728073 , -3.116540
0.728551 , -3.106680
0.729028 , -3.091060
0.729506 , -3.083130
0.729983 , -3.074210
0.730461 , -3.063540
0.730938 , -3.045310
0.731416 , -3.029930
0.731893 , -3.013490
0.732370 , -2.993190
0.732848 , -2.976050
0.733325 , -2.965550
0.733803 , -2.952400
0.734280 , -2.934030
0.734758 , -2.917470
0.735235 , -2.900430
0.735713 , -2.890380
0.736190 , -2.876230
0.736667 , -2.873240
0.737145 , -2.857940
0.737622 , -2.847740
0.738100 , -2.835550
0.738577 , -2.824380
0.739055 , -2.819520
0.739532 , -2.806430
0.740010 , -2.796920
0.740487 , -2.789930
0.740964 , -2.781090
0.741442 , -2.771620
0.741919 , -2.761570
0.742397 , -2.748660
0.742874 , -2.736530
0.743352 , -2.723320
0.743829 , -2.703650
0.744307 , -2.688860
0.744784 , -2.676070
0.745261 , -2.665810
0.745739 , -2.655400
0.746216 , -2.643500
0.746694 , -2.627760
0.747171 , -2.617320
0.747649 , -2.610900
0.748126 , -2.602520
0.748604 , -2.595440
0.749081 , -2.586630
0.749558 , -2.582960
0.750036 , -2.576350
0.750513 , -2.564630
0.750991 , -2.555910
0.751468 , -2.549520
0.751946 , -2.538690
0.752423 , -2.530390
0.752901 , -2.521270
0.753378 , -2.512940
0.753855 , -2.507970
0.754333 , -2.501580
0.754810 , -2.498370
0.755288 , -2.493070
0.755765 , -2.489730
0.756243 , -2.488790
0.756720 , -2.483680
0.757197 , -2.481770
0.757675 , -2.480050
0.758152 , -2.476030
0.758630 , -2.473470
0.759107 , -2.467700
0.759585 , -2.466070
0.760062 , -2.460000
0.760540 , -2.453710
0.761017 , -2.448410
0.761494 , -2.439890
0.761972 , -2.425420
0.762449 , -2.416640
0.762927 , -2.407330
0.763404 , -2.394190
0.763882 , -2.386350
0.764359 , -2.373120
0.764837 , -2.356900
0.765314 , -2.343490
0.765791 , -2.328830
0.766269 , -2.319000
0.766746 , -2.306180
0.767224 , -2.303380
0.767701 , -2.293540
0.768179 , -2.285540
0.768656 , -2.279240
0.769134 , -2.270110
0.769611 , -2.271960
0.770088 , -2.269150
0.770566 , -2.270090
0.771043 , -2.273860
0.771521 , -2.281470
0.771998 , -2.288740
0.772476 , -2.295950
0.772953 , -2.303100
0.773431 , -2.310620
0.773908 , -2.311180
0.774385 , -2.308640
0.774863 , -2.301740
0.775340 , -2.293810
0.775818 , -2.273950
0.776295 , -2.242800
0.776773 , -2.209790
0.777250 , -2.177710
0.777728 , -2.132590
0.778205 , -2.085010
0.778682 , -2.041270
0.779160 , -1.999730
0.779637 , -1.967850
0.780115 , -1.946690
0.780592 , -1.933100
0.781070 , -1.938730
0.781547 , -1.960610
0.782024 , -1.988360
0.782502 , -2.028360
0.782979 , -2.073560
0.783457 , -2.124280
0.783934 , -2.175550
0.784412 , -2.226320
0.784889 , -2.269660
0.785367 , -2.304150
0.785844 , -2.324450
0.786321 , -2.341820
0.786799 , -2.342810
0.787276 , -2.332960
0.787754 , -2.314300
0.788231 , -2.286830
0.788709 , -2.246440
0.789186 , -2.207770
0.789664 , -2.164290
0.790141 , -2.115480
0.790618 , -2.073190
0.791096 , -2.035380
0.791573 , -1.997710
0.792051 , -1.968030
0.792528 , -1.943300
0.793006 , -1.928350
0.793483 , -1.914650
0.793961 , -1.904710
0.794438 , -1.909010
0.794915 , -1.909690
0.795393 , -1.917660
0.795870 , -1.930000
0.796348 , -1.942650
0.796825 , -1.957640
0.797303 , -1.973030
0.797780 , -1.987530
0.798258 , -1.999650
0.798735 , -2.001680
0.799212 , -2.006580
0.799690 , -2.008190
0.800167 , -2.006340
0.800645 , -1.992850
0.801122 , -1.985080
0.801600 , -1.973290
0.802077 , -1.956510
0.802555 , -1.937110
0.803032 , -1.913790
0.803509 , -1.888560
0.803987 , -1.860640
0.804464 , -1.834060
0.804942 , -1.804970
0.805419 , -1.785500
0.805897 , -1.762200
0.806374 , -1.743870
0.806852 , -1.721360
0.807329 , -1.701480
0.807806 , -1.683170
0.808284 , -1.672800
0.808761 , -1.654370
0.809239 , -1.640720
0.809716 , -1.629890
0.810194 , -1.627480
0.810671 , -1.629400
0.811148 , -1.631340
0.811626 , -1.622340
0.812103 , -1.628930
0.812581 , -1.635880
0.813058 , -1.641450
0.813536 , -1.650620
0.814013 , -1.659500
0.814491 , -1.673010
0.814968 , -1.690860
0.815445 , -1.706460
0.815923 , -1.719490
0.816400 , -1.737360
0.816878 , -1.751170
0.817355 , -1.757100
0.817833 , -1.763840
0.818310 , -1.763450
0.818788 , -1.762470
0.819265 , -1.753880
0.819742 , -1.736430
0.820220 , -1.719690
0.820697 , -1.700610
0.821175 , -1.675200
0.821652 , -1.646780
0.822130 , -1.612630
0.822607 , -1.578700
0.823085 , -1.540290
0.823562 , -1.502570
0.824039 , -1.461750
0.824517 , -1.429350
0.824994 , -1.393550
0.825472 , -1.363180
0.825949 , -1.332440
0.826427 , -1.313290
0.826904 , -1.294580
0.827382 , -1.281030
0.827859 , -1.274330
0.828336 , -1.271770
0.828814 , -1.269740
0.829291 , -1.268860
0.829769 , -1.276120
0.830246 , -1.282280
0.830724 , -1.292270
0.831201 , -1.299500
0.831679 , -1.299700
0.832156 , -1.303570
0.832633 , -1.303870
0.833111 , -1.300030
0.833588 , -1.287560
0.834066 , -1.284660
0.834543 , -1.270720
0.835021 , -1.258440
0.835498 , -1.243220
0.835975 , -1.221910
0.836453 , -1.198500
0.836930 , -1.179230
0.837408 , -1.158500
0.837885 , -1.140210
0.838363 , -1.120840
0.838840 , -1.108550
0.839318 , -1.096700
0.839795 , -1.088370
0.840272 , -1.074370
0.840750 , -1.067180
0.841227 , -1.059000
0.841705 , -1.054550
0.842182 , -1.048770
0.842660 , -1.039630
0.843137 , -1.038790
0.843615 , -1.041300
0.844092 , -1.034500
0.844569 , -1.033940
0.845047 , -1.033530
0.845524 , -1.031310
0.846002 , -1.029890
0.846479 , -1.037590
0.846957 , -1.039150
0.847434 , -1.043900
0.847912 , -1.045090
0.848389 , -1.050730
0.848866 , -1.055510
0.849344 , -1.057540
0.849821 , -1.059150
0.850299 , -1.057590
0.850776 , -1.057640
0.851254 , -1.056350
0.851731 , -1.052940
0.852209 , -1.051390
0.852686 , -1.051510
0.853163 , -1.046250
0.853641 , -1.038190
0.854118 , -1.028990
0.854596 , -1.015130
0.855073 , -1.009430
0.855551 , -1.001010
0.856028 , -0.994570
0.856506 , -0.986706
0.856983 , -0.980656
0.857460 , -0.977067
0.857938 , -0.968013
0.858415 , -0.953955
0.858893 , -0.940669
0.859370 , -0.929374
0.859848 , -0.927591
0.860325 , -0.926536
0.860803 , -0.923272
0.861280 , -0.922481
0.861757 , -0.925318
0.862235 , -0.933600
0.862712 , -0.939699
0.863190 , -0.941408
0.863667 , -0.947001
0.864145 , -0.951412
0.864622 , -0.956749
0.865099 , -0.971996
0.865577 , -0.980161
0.866054 , -0.981440
0.866532 , -0.984366
0.867009 , -0.988104
0.867487 , -0.992434
0.867964 , -0.994500
0.868442 , -0.997977
0.868919 , -0.998742
0.869396 , -0.991193
0.869874 , -0.989120
0.870351 , -0.984837
0.870829 , -0.982373
0.871306 , -0.984353
0.871784 , -0.984340
0.872261 , -0.987656
0.872739 , -0.992752
0.873216 , -0.993399
0.873693 , -0.997459
0.874171 , -1.010490
0.874648 , -1.018550
0.875126 , -1.030390
0.875603 , -1.042870
0.876081 , -1.053270
0.876558 , -1.061290
0.877036 , -1.074350
0.877513 , -1.079870
0.877990 , -1.082580
0.878468 , -1.082710
0.878945 , -1.079720
0.879423 , -1.069160
0.879900 , -1.054010
0.880378 , -1.043080
0.880855 , -1.031650
0.881333 , -1.017420
0.881810 , -1.001020
0.882287 , -0.981236
0.882765 , -0.962121
0.883242 , -0.943316
0.883720 , -0.928404
0.884197 , -0.915619
0.884675 , -0.905942
0.885152 , -0.901541
0.885630 , -0.903981
0.886107 , -0.906150
0.886584 , -0.913433
0.887062 , -0.922788
0.887539 , -0.942792
0.888017 , -0.954724
0.888494 , -0.968036
0.888972 , -0.985607
0.889449 , -0.996656
0.889926 , -1.011830
0.890404 , -1.021770
0.890881 , -1.021640
0.891359 , -1.019970
0.891836 , -1.010970
0.892314 , -1.006270
0.892791 , -0.993641
0.893269 , -0.984332
0.893746 , -0.966130
0.894223 , -0.952547
0.894701 , -0.936178
0.895178 , -0.927830
0.895656 , -0.919761
0.896133 , -0.918359
0.896611 , -0.918774
0.897088 , -0.918738
0.897566 , -0.926903
0.898043 , -0.934590
0.898520 , -0.937060
0.898998 , -0.939792
0.899475 , -0.934903
0.899953 , -0.924518
0.900430 , -0.904984
0.900908 , -0.880801
0.901385 , -0.850725
0.901863 , -0.813682
0.902340 , -0.772250
0.902817 , -0.725205
0.903295 , -0.679524
0.903772 , -0.632011
0.904250 , -0.591997
0.904727 , -0.555090
0.905205 , -0.522245
0.905682 , -0.497088
0.906160 , -0.484024
0.906637 , -0.483586
0.907114 , -0.493514
0.907592 , -0.498901
0.908069 , -0.523327
0.908547 , -0.553306
0.909024 , -0.583718
0.909502 , -0.618870
0.909979 , -0.657725
0.910457 , -0.697607
0.910934 , -0.737850
0.911411 , -0.774000
0.911889 , -0.806706
0.912366 , -0.829742
0.912844 , -0.856996
0.913321 , -0.872227
0.913799 , -0.877644
0.914276 , -0.875964
0.914754 , -0.875365
0.915231 , -0.868878
0.915708 , -0.851096
0.916186 , -0.833503
0.916663 , -0.808106
0.917141 , -0.782694
0.917618 , -0.761760
0.918096 , -0.736273
0.918573 , -0.712586
0.919050 , -0.693747
0.919528 , -0.670912
0.920005 , -0.651525
0.920483 , -0.645814
0.920960 , -0.638803
0.921438 , -0.634873
0.921915 , -0.638017
0.922393 , -0.643765
0.922870 , -0.652196
0.923347 , -0.657493
0.923825 , -0.665740
0.924302 , -0.672974
0.924780 , -0.680717
0.925257 , -0.682388
0.925735 , -0.688897
0.926212 , -0.689572
0.926690 , -0.689020
0.927167 , -0.684266
0.927644 , -0.676564
0.928122 , -0.668803
0.928599 , -0.652355
0.929077 , -0.632895
0.929554 , -0.609899
0.930032 , -0.585563
0.930509 , -0.558692
0.930987 , -0.530828
0.931464 , -0.508025
0.931941 , -0.488916
0.932419 , -0.474489
0.932896 , -0.460212
0.933374 , -0.453933
0.933851 , -0.447228
0.934329 , -0.447131
0.934806 , -0.450272
0.935284 , -0.461928
0.935761 , -0.476165
0.936238 , -0.493538
0.936716 , -0.516319
0.937193 , -0.544097
0.937671 , -0.569014
0.938148 , -0.604245
0.938626 , -0.641097
0.939103 , -0.676756
0.939581 , -0.712501
0.940058 , -0.748183
0.940535 , -0.785142
0.941013 , -0.808032
0.941490 , -0.834182
0.941968 , -0.854009
0.942445 , -0.864294
0.942923 , -0.875309
0.943400 , -0.873566
0.943878 , -0.867305
0.944355 , -0.851058
0.944832 , -0.825604
0.945310 , -0.791190
0.945787 , -0.751106
0.946265 , -0.697052
0.946742 , -0.636893
0.947220 , -0.573929
0.947697 , -0.505402
0.948174 , -0.437521
0.948652 , -0.375465
0.949129 , -0.310928
0.949607 , -0.250744
0.950084 , -0.199940
0.950562 , -0.155676
0.951039 , -0.127366
0.951517 , -0.108318
0.951994 , -0.103470
0.952471 , -0.112183
0.952949 , -0.131084
0.953426 , -0.165302
0.953904 , -0.205909
0.954381 , -0.251737
0.954859 , -0.307673
0.955336 , -0.374927
0.955814 , -0.434122
0.956291 , -0.494220
0.956768 , -0.548244
0.957246 , -0.600688
0.957723 , -0.652557
0.958201 , -0.690603
0.958678 , -0.716287
0.959156 , -0.739438
0.959633 , -0.743671
0.960111 , -0.724778
0.960588 , -0.706024
0.961065 , -0.670418
0.961543 , -0.626345
0.962020 , -0.574447
0.962498 , -0.517782
0.962975 , -0.448623
0.963453 , -0.378257
0.963930 , -0.306357
0.964408 , -0.236931
0.964885 , -0.172736
0.965362 , -0.104952
0.965840 , -0.053578
0.966317 , -0.014796
0.966795 , 0.016930
0.967272 , 0.038852
0.967750 , 0.047902
0.968227 , 0.039048
0.968705 , 0.014749
0.969182 , -0.022572
0.969659 , -0.070319
0.970137 , -0.126701
0.970614 , -0.196204
0.971092 , -0.271818
0.971569 , -0.343666
0.972047 , -0.417950
0.972524 , -0.492211
0.973001 , -0.561731
0.973479 , -0.625588
0.973956 , -0.679467
0.974434 , -0.727280
0.974911 , -0.756146
0.975389 , -0.779322
0.975866 , -0.792601
0.976344 , -0.790947
0.976821 , -0.780195
0.977298 , -0.759249
0.977776 , -0.731096
0.978253 , -0.692337
0.978731 , -0.650599
0.979208 , -0.601313
0.979686 , -0.544230
0.980163 , -0.494886
0.980641 , -0.443363
0.981118 , -0.394474
0.981595 , -0.348082
0.982073 , -0.303386
0.982550 , -0.272116
0.983028 , -0.249338
0.983505 , -0.227175
0.983983 , -0.205783
0.984460 , -0.192498
0.984938 , -0.179830
0.985415 , -0.178616
0.985892 , -0.175282
0.986370 , -0.176659
0.986847 , -0.178763
0.987325 , -0.182558
0.987802 , -0.189230
0.988280 , -0.195188
0.988757 , -0.206941
0.989235 , -0.217942
0.989712 , -0.231956
0.990189 , -0.246593
0.990667 , -0.272143
0.991144 , -0.298937
0.991622 , -0.325254
0.992099 , -0.362358
0.992577 , -0.393442
0.993054 , -0.428705
0.993532 , -0.461417
0.994009 , -0.493382
0.994486 , -0.513360
0.994964 , -0.532998
0.995441 , -0.549485
0.995919 , -0.558537
0.996396 , -0.561302
0.996874 , -0.556819
0.997351 , -0.556777
0.997829 , -0.549708
0.998306 , -0.537601
0.998783 , -0.518857
0.999261 , -0.502840
0.999738 , -0.487736
1.000220 , -0.465695
1.000690 , -0.447545
1.001170 , -0.428200
1.001650 , -0.404497
1.002130 , -0.387076
1.002600 , -0.370953
1.003080 , -0.354982
1.003560 , -0.337670
1.004040 , -0.317411
1.004510 , -0.301269
1.004990 , -0.278687
1.005470 , -0.271708
1.005950 , -0.266720
1.006420 , -0.261683
1.006900 , -0.259232
1.007380 , -0.261283
1.007850 , -0.262160
1.008330 , -0.261551
1.008810 , -0.267946
1.009290 , -0.273217
1.009760 , -0.279841
1.010240 , -0.284434
1.010720 , -0.290611
1.011200 , -0.298605
1.011670 , -0.306660
1.012150 , -0.313843
1.012630 , -0.324284
1.013110 , -0.332480
1.013580 , -0.342658
1.014060 , -0.348817
1.014540 , -0.358409
1.015020 , -0.373133
1.015490 , -0.386887
1.015970 , -0.398329
1.016450 , -0.415343
1.016930 , -0.432122
1.017400 , -0.448455
1.017880 , -0.461294
1.018360 , -0.474574
1.018840 , -0.482464
1.019310 , -0.486249
1.019790 , -0.485049
1.020270 , -0.475082
1.020750 , -0.463206
1.021220 , -0.442003
1.021700 , -0.417320
1.022180 , -0.386607
1.022660 , -0.357989
1.023130 , -0.322519
1.023610 , -0.286428
1.024090 , -0.255955
1.024570 , -0.226665
1.025040 , -0.203156
1.025520 , -0.179371
1.026000 , -0.167632
1.026480 , -0.168575
1.026950 , -0.175314
1.027430 , -0.197414
1.027910 , -0.222283
1.028380 , -0.247816
1.028860 , -0.278280
1.029340 , -0.316703
1.029820 , -0.357792
1.030290 , -0.396030
1.030770 , -0.426988
1.031250 , -0.457577
1.031730 , -0.483034
1.032200 , -0.501790
1.032680 , -0.519212
1.033160 , -0.523706
1.033640 , -0.522318
1.034110 , -0.505548
1.034590 , -0.489387
1.035070 , -0.473234
1.035550 , -0.451559
1.036020 , -0.424127
1.036500 , -0.388493
1.036980 , -0.356264
1.037460 , -0.327672
1.037930 , -0.294873
1.038410 , -0.270465
1.038890 , -0.246807
1.039370 , -0.227681
1.039840 , -0.216122
1.040320 , -0.208610
1.040800 , -0.213762
1.041280 , -0.224560
1.041750 , -0.237543
1.042230 , -0.251343
1.042710 , -0.271234
1.043190 , -0.295732
1.043660 , -0.321722
1.044140 , -0.347599
1.044620 , -0.372475
1.045100 , -0.387091
1.045570 , -0.408615
1.046050 , -0.423430
1.046530 , -0.436996
1.047010 , -0.437715
1.047480 , -0.433865
1.047960 , -0.418140
1.048440 , -0.406288
1.048910 , -0.390871
1.049390 , -0.361627
1.049870 , -0.334612
1.050350 , -0.304286
1.050820 , -0.274039
1.051300 , -0.249934
1.051780 , -0.225006
1.052260 , -0.200155
1.052730 , -0.176482
1.053210 , -0.157875
1.053690 , -0.144195
1.054170 , -0.135228
1.054640 , -0.129089
1.055120 , -0.130104
1.055600 , -0.135812
1.056080 , -0.151723
1.056550 , -0.169560
1.057030 , -0.189900
1.057510 , -0.218099
1.057990 , -0.247831
1.058460 , -0.282355
1.058940 , -0.323110
1.059420 , -0.362199
1.059900 , -0.399087
1.060370 , -0.440495
1.060850 , -0.479854
1.061330 , -0.514568
1.061810 , -0.545939
1.062280 , -0.573337
1.062760 , -0.592837
1.063240 , -0.603291
1.063720 , -0.610906
1.064190 , -0.605323
1.064670 , -0.598048
1.065150 , -0.581264
1.065630 , -0.562771
1.066100 , -0.537486
1.066580 , -0.506712
1.067060 , -0.471505
1.067540 , -0.438896
1.068010 , -0.403806
1.068490 , -0.365917
1.068970 , -0.338366
1.069440 , -0.313716
1.069920 , -0.295444
1.070400 , -0.284175
1.070880 , -0.281485
1.071350 , -0.285409
1.071830 , -0.298170
1.072310 , -0.320235
1.072790 , -0.351382
1.073260 , -0.383955
1.073740 , -0.416596
1.074220 , -0.459373
1.074700 , -0.501670
1.075170 , -0.538859
1.075650 , -0.582559
1.076130 , -0.622799
1.076610 , -0.652231
1.077080 , -0.672476
1.077560 , -0.690626
1.078040 , -0.698843
1.078520 , -0.696914
1.078990 , -0.684982
1.079470 , -0.663509
1.079950 , -0.640129
1.080430 , -0.611343
1.080900 , -0.571250
1.081380 , -0.535097
1.081860 , -0.494185
1.082340 , -0.443450
1.082810 , -0.391060
1.083290 , -0.341207
1.083770 , -0.300379
1.084250 , -0.259304
1.084720 , -0.222292
1.085200 , -0.185737
1.085680 , -0.153622
1.086160 , -0.127266
1.086630 , -0.109060
1.087110 , -0.099556
1.087590 , -0.098235
1.088070 , -0.096443
1.088540 , -0.101700
1.089020 , -0.116244
1.089500 , -0.129010
1.089970 , -0.147473
1.090450 , -0.168519
1.090930 , -0.192953
1.091410 , -0.215869
1.091880 , -0.235094
1.092360 , -0.256028
1.092840 , -0.278159
1.093320 , -0.293220
1.093790 , -0.306314
1.094270 , -0.310965
1.094750 , -0.316464
1.095230 , -0.312746
1.095700 , -0.309359
1.096180 , -0.303315
1.096660 , -0.286582
1.097140 , -0.271062
1.097610 , -0.253862
1.098090 , -0.235916
1.098570 , -0.212117
1.099050 , -0.192605
1.099520 , -0.170633
1.100000 , -0.154656
1.100480 , -0.136829
1.100960 , -0.129061
1.101430 , -0.123628
1.101910 , -0.124464
1.102390 , -0.128907
1.102870 , -0.129578
1.103340 , -0.138626
1.103820 , -0.152135
1.104300 , -0.172216
1.104780 , -0.184079
1.105250 , -0.204956
1.105730 , -0.216745
1.106210 , -0.222105
1.106690 , -0.230681
1.107160 , -0.234832
1.107640 , -0.239708
1.108120 , -0.240579
1.108600 , -0.240480
1.109070 , -0.239030
1.109550 , -0.236388
1.110030 , -0.230436
1.110500 , -0.220726
1.110980 , -0.213656
1.111460 , -0.204079
1.111940 , -0.193546
1.112410 , -0.182755
1.112890 , -0.173655
1.113370 , -0.166624
1.113850 , -0.161293
1.114320 , -0.148501
1.114800 , -0.137696
1.115280 , -0.125964
1.115760 , -0.113648
1.116230 , -0.103451
1.116710 , -0.095330
1.117190 , -0.089258
1.117670 , -0.078784
1.118140 , -0.068094
1.118620 , -0.066393
1.119100 , -0.069008
1.119580 , -0.073535
1.120050 , -0.076609
1.120530 , -0.086186
1.121010 , -0.103139
1.121490 , -0.121279
1.121960 , -0.148713
1.122440 , -0.178099
1.122920 , -0.212188
1.123400 , -0.247276
1.123870 , -0.284344
1.124350 , -0.323223
1.124830 , -0.365137
1.125310 , -0.401398
1.125780 , -0.435694
1.126260 , -0.462103
1.126740 , -0.478510
1.127220 , -0.493895
1.127690 , -0.500958
1.128170 , -0.496926
1.128650 , -0.488603
1.129130 , -0.471136
1.129600 , -0.447413
1.130080 , -0.421890
1.130560 , -0.398257
1.131030 , -0.371371
1.131510 , -0.335612
1.131990 , -0.304617
1.132470 , -0.269346
1.132940 , -0.242614
1.133420 , -0.216846
1.133900 , -0.196348
1.134380 , -0.182254
1.134850 , -0.161987
1.135330 , -0.151354
1.135810 , -0.149816
1.136290 , -0.152754
1.136760 , -0.154442
1.137240 , -0.162758
1.137720 , -0.173657
1.138200 , -0.190132
1.138670 , -0.206893
1.139150 , -0.219896
1.139630 , -0.234833
1.140110 , -0.254599
1.140580 , -0.272203
1.141060 , -0.298556
1.141540 , -0.315288
1.142020 , -0.330212
1.142490 , -0.340039
1.142970 , -0.353525
1.143450 , -0.361002
1.143930 , -0.365735
1.144400 , -0.372650
1.144880 , -0.369349
1.145360 , -0.384594
1.145840 , -0.386068
1.146310 , -0.382234
1.146790 , -0.375709
1.147270 , -0.365730
1.147750 , -0.355757
1.148220 , -0.343508
1.148700 , -0.332889
1.149180 , -0.317623
1.149660 , -0.307320
1.150130 , -0.303328
1.150610 , -0.298436
1.151090 , -0.297818
1.151560 , -0.288765
1.152040 , -0.285352
1.152520 , -0.282170
1.153000 , -0.277603
1.153470 , -0.272490
1.153950 , -0.270523
1.154430 , -0.266308
1.154910 , -0.261339
1.155380 , -0.257906
1.155860 , -0.245057
1.156340 , -0.232502
1.156820 , -0.216151
1.157290 , -0.192744
1.157770 , -0.176719
1.158250 , -0.160911
1.158730 , -0.142626
1.159200 , -0.125998
1.159680 , -0.108813
1.160160 , -0.094016
1.160640 , -0.082031
1.161110 , -0.069770
1.161590 , -0.054594
1.162070 , -0.051447
1.162550 , -0.046793
1.163020 , -0.047166
1.163500 , -0.051076
1.163980 , -0.059901
1.164460 , -0.074615
1.164930 , -0.088164
1.165410 , -0.095493
1.165890 , -0.110504
1.166370 , -0.128056
1.166840 , -0.140985
1.167320 , -0.157695
1.167800 , -0.166540
1.168280 , -0.174055
1.168750 , -0.181908
1.169230 , -0.186647
1.169710 , -0.186589
1.170190 , -0.191883
1.170660 , -0.187591
1.171140 , -0.184678
1.171620 , -0.176634
1.172100 , -0.169725
1.172570 , -0.158664
1.173050 , -0.145249
1.173530 , -0.130637
1.174000 , -0.113768
1.174480 , -0.103722
1.174960 , -0.090276
1.175440 , -0.080084
1.175910 , -0.067429
1.176390 , -0.059309
1.176870 , -0.052352
1.177350 , -0.050696
1.177820 , -0.057229
1.178300 , -0.064011
1.178780 , -0.070512
1.179260 , -0.073014
1.179730 , -0.079020
1.180210 , -0.085609
1.180690 , -0.095691
1.181170 , -0.105034
1.181640 , -0.113895
1.182120 , -0.121625
1.182600 , -0.127986
1.183080 , -0.129186
1.183550 , -0.136616
1.184030 , -0.138308
1.184510 , -0.140359
1.184990 , -0.134061
1.185460 , -0.120700
1.185940 , -0.113342
1.186420 , -0.097060
1.186900 , -0.077817
1.187370 , -0.060109
1.187850 , -0.038691
1.188330 , -0.015057
1.188810 , 0.009432
1.189280 , 0.039806
1.189760 , 0.063519
1.190240 , 0.085712
1.190720 , 0.105466
1.191190 , 0.127785
1.191670 , 0.144224
1.192150 , 0.158669
1.192630 , 0.175024
1.193100 , 0.185238
1.193580 , 0.200119
1.194060 , 0.205806
1.194530 , 0.209668
1.195010 , 0.207438
1.195490 , 0.210134
1.195970 , 0.215424
1.196440 , 0.210600
1.196920 , 0.203381
1.197400 , 0.196316
1.197880 , 0.183863
1.198350 , 0.173187
1.198830 , 0.155025
1.199310 , 0.142980
1.199790 , 0.126559
1.200260 , 0.099813
1.200740 , 0.085557
1.201220 , 0.067457
1.201700 , 0.054590
1.202170 , 0.039113
1.202650 , 0.023818
1.203130 , 0.010321
1.203610 , 0.007745
1.204080 , 0.007951
1.204560 , 0.012112
1.205040 , 0.018783
1.205520 , 0.020909
1.205990 , 0.032689
1.206470 , 0.042008
1.206950 , 0.057569
1.207430 , 0.073444
1.207900 , 0.089676
1.208380 , 0.112764
1.208860 , 0.130637
1.209340 , 0.143502
1.209810 , 0.156854
1.210290 , 0.169313
1.210770 , 0.179333
1.211250 , 0.184779
1.211720 , 0.190187
1.212200 , 0.186193
1.212680 , 0.181541
1.213160 , 0.172857
1.213630 , 0.172231
1.214110 , 0.159288
1.214590 , 0.146499
1.215060 , 0.130349
1.215540 , 0.115883
1.216020 , 0.096770
1.216500 , 0.077872
1.216970 , 0.063082
1.217450 , 0.043819
1.217930 , 0.022236
1.218410 , 0.000931
1.218880 , -0.011578
1.219360 , -0.024862
1.219840 , -0.036064
1.220320 , -0.042043
1.220790 , -0.045861
1.221270 , -0.044163
1.221750 , -0.047663
1.222230 , -0.042300
1.222700 , -0.044162
1.223180 , -0.042342
1.223660 , -0.033488
1.224140 , -0.025549
1.224610 , -0.011507
1.225090 , -0.000901
1.225570 , 0.015265
1.226050 , 0.023683
1.226520 , 0.037831
1.227000 , 0.050628
1.227480 , 0.066456
1.227960 , 0.080356
1.228430 , 0.097611
1.228910 , 0.111205
1.229390 , 0.120172
1.229870 , 0.126928
1.230340 , 0.132917
1.230820 , 0.142986
1.231300 , 0.149823
1.231780 , 0.158489
1.232250 , 0.158726
1.232730 , 0.158939
1.233210 , 0.150311
1.233690 , 0.138795
1.234160 , 0.131575
1.234640 , 0.121655
1.235120 , 0.107563
1.235590 , 0.082864
1.236070 , 0.057822
1.236550 , 0.031354
1.237030 , 0.003872
1.237500 , -0.018347
1.237980 , -0.041643
1.238460 , -0.061006
1.238940 , -0.076380
1.239410 , -0.084246
1.239890 , -0.084761
1.240370 , -0.082936
1.240850 , -0.073352
1.241320 , -0.058294
1.241800 , -0.032145
1.242280 , -0.002459
1.242760 , 0.033828
1.243230 , 0.074244
1.243710 , 0.117437
1.244190 , 0.165000
1.244670 , 0.209564
1.245140 , 0.255826
1.245620 , 0.291945
1.246100 , 0.325237
1.246580 , 0.352737
1.247050 , 0.370097
1.247530 , 0.378031
1.248010 , 0.382571
1.248490 , 0.373904
1.248960 , 0.362866
1.249440 , 0.338291
1.249920 , 0.308186
1.250400 , 0.272905
1.250870 , 0.234283
1.251350 , 0.195134
1.251830 , 0.159608
1.252310 , 0.116943
1.252780 , 0.082956
1.253260 , 0.049995
1.253740 , 0.018788
1.254220 , -0.003921
1.254690 , -0.016466
1.255170 , -0.028996
1.255650 , -0.030889
1.256120 , -0.027985
1.256600 , -0.014353
1.257080 , 0.004158
1.257560 , 0.029377
1.258030 , 0.063159
1.258510 , 0.101535
1.258990 , 0.136843
1.259470 , 0.187555
1.259940 , 0.221505
1.260420 , 0.254914
1.260900 , 0.288564
1.261380 , 0.316797
1.261850 , 0.344633
1.262330 , 0.363103
1.262810 , 0.373046
1.263290 , 0.383943
1.263760 , 0.374906
1.264240 , 0.365534
1.264720 , 0.346896
1.265200 , 0.321597
1.265670 , 0.288320
1.266150 , 0.251460
1.266630 , 0.214215
1.267110 , 0.170494
1.267580 , 0.127721
1.268060 , 0.083297
1.268540 , 0.044477
1.269020 , 0.005398
1.269490 , -0.023374
1.269970 , -0.053253
1.270450 , -0.072188
1.270930 , -0.085777
1.271400 , -0.090324
1.271880 , -0.087381
1.272360 , -0.078679
1.272840 , -0.058866
1.273310 , -0.035877
1.273790 , -0.008670
1.274270 , 0.025409
1.274750 , 0.068218
1.275220 , 0.109208
1.275700 , 0.153899
1.276180 , 0.196575
1.276650 , 0.232411
1.277130 , 0.258754
1.277610 , 0.286926
1.278090 , 0.313171
1.278560 , 0.330538
1.279040 , 0.337528
1.279520 , 0.338426
1.280000 , 0.329512
1.280470 , 0.319259
1.280950 , 0.297758
1.281430 , 0.275748
1.281910 , 0.239034
1.282380 , 0.206811
1.282860 , 0.166113
1.283340 , 0.132588
1.283820 , 0.108674
1.284290 , 0.087976
1.284770 , 0.070744
1.285250 , 0.063457
1.285730 , 0.062817
1.286200 , 0.071844
1.286680 , 0.078763
1.287160 , 0.093212
1.287640 , 0.101925
1.288110 , 0.115299
1.288590 , 0.124537
1.289070 , 0.138034
1.289550 , 0.140188
1.290020 , 0.140179
1.290500 , 0.133124
1.290980 , 0.120644
1.291460 , 0.106134
1.291930 , 0.088220
1.292410 , 0.071420
1.292890 , 0.049988
1.293370 , 0.024137
1.293840 , 0.001041
1.294320 , -0.022077
1.294800 , -0.039971
1.295280 , -0.056996
1.295750 , -0.064277
1.296230 , -0.066784
1.296710 , -0.059760
1.297180 , -0.052197
1.297660 , -0.036662
1.298140 , -0.017573
1.298620 , 0.006766
1.299090 , 0.024114
1.299570 , 0.040373
1.300050 , 0.062562
1.300530 , 0.080292
1.301000 , 0.098960
1.301480 , 0.121352
1.301960 , 0.137345
1.302440 , 0.151695
1.302910 , 0.163313
1.303390 , 0.175966
1.303870 , 0.185556
1.304350 , 0.191878
1.304820 , 0.195358
1.305300 , 0.197446
1.305780 , 0.193341
1.306260 , 0.186197
1.306730 , 0.180096
1.307210 , 0.173596
1.307690 , 0.162482
1.308170 , 0.151112
1.308640 , 0.137317
1.309120 , 0.120369
1.309600 , 0.099151
1.310080 , 0.082362
1.310550 , 0.060369
1.311030 , 0.033293
1.311510 , 0.012382
1.311990 , -0.010420
1.312460 , -0.037636
1.312940 , -0.060206
1.313420 , -0.079527
1.313900 , -0.100513
1.314370 , -0.119439
1.314850 , -0.144275
1.315330 , -0.158864
1.315810 , -0.169361
1.316280 , -0.179983
1.316760 , -0.190485
1.317240 , -0.201051
1.317710 , -0.207334
1.318190 , -0.211418
1.318670 , -0.204902
1.319150 , -0.203688
1.319620 , -0.201228
1.320100 , -0.186938
1.320580 , -0.181421
1.321060 , -0.167046
1.321530 , -0.155989
1.322010 , -0.148342
1.322490 , -0.135204
1.322970 , -0.125359
1.323440 , -0.107046
1.323920 , -0.098103
1.324400 , -0.084247
1.324880 , -0.070709
1.325350 , -0.062537
1.325830 , -0.045216
1.326310 , -0.036394
1.326790 , -0.019616
1.327260 , -0.015461
1.327740 , -0.006156
1.328220 , 0.002693
1.328700 , 0.011392
1.329170 , 0.010817
1.329650 , 0.016494
1.330130 , 0.020451
1.330610 , 0.016585
1.331080 , 0.012298
1.331560 , 0.009915
1.332040 , 0.000169
1.332520 , -0.009157
1.332990 , -0.019590
1.333470 , -0.031083
1.333950 , -0.042256
1.334430 , -0.058912
1.334900 , -0.073315
1.335380 , -0.089620
1.335860 , -0.104309
1.336340 , -0.120174
1.336810 , -0.138862
1.337290 , -0.159407
1.337770 , -0.177844
1.338250 , -0.193092
1.338720 , -0.203189
1.339200 , -0.214030
1.339680 , -0.221278
1.340150 , -0.233331
1.340630 , -0.241472
1.341110 , -0.240739
1.341590 , -0.239104
1.342060 , -0.236729
1.342540 , -0.228389
1.343020 , -0.211482
1.343500 , -0.191180
1.343970 , -0.172543
1.344450 , -0.150038
1.344930 , -0.119987
1.345410 , -0.089903
1.345880 , -0.061323
1.346360 , -0.031390
1.346840 , -0.001577
1.347320 , 0.028010
1.347790 , 0.051673
1.348270 , 0.080714
1.348750 , 0.104654
1.349230 , 0.127429
1.349700 , 0.139980
1.350180 , 0.153471
1.350660 , 0.162038
1.351140 , 0.167782
1.351610 , 0.164850
1.352090 , 0.155725
1.352570 , 0.141530
1.353050 , 0.124547
1.353520 , 0.104074
1.354000 , 0.089600
1.354480 , 0.063364
1.354960 , 0.039668
1.355430 , 0.018566
1.355910 , -0.006286
1.356390 , -0.028696
1.356870 , -0.046946
1.357340 , -0.063860
1.357820 , -0.077117
1.358300 , -0.087546
1.358780 , -0.094639
1.359250 , -0.094713
1.359730 , -0.097841
1.360210 , -0.099070
1.360680 , -0.104600
1.361160 , -0.109256
1.361640 , -0.110957
1.362120 , -0.109520
1.362590 , -0.113836
1.363070 , -0.113995
1.363550 , -0.116196
1.364030 , -0.116177
1.364500 , -0.111811
1.364980 , -0.104415
1.365460 , -0.094705
1.365940 , -0.085942
1.366410 , -0.074054
1.366890 , -0.057235
1.367370 , -0.037792
1.367850 , -0.016660
1.368320 , 0.003031
1.368800 , 0.022110
1.369280 , 0.043545
1.369760 , 0.065203
1.370230 , 0.078578
1.370710 , 0.097313
1.371190 , 0.107468
1.371670 , 0.116736
1.372140 , 0.124930
1.372620 , 0.126809
1.373100 , 0.132230
1.373580 , 0.136417
1.374050 , 0.135618
1.374530 , 0.132064
1.375010 , 0.131413
1.375490 , 0.123485
1.375960 , 0.120616
1.376440 , 0.118868
1.376920 , 0.116193
1.377400 , 0.112561
1.377870 , 0.113170
1.378350 , 0.111935
1.378830 , 0.112575
1.379310 , 0.114926
1.379780 , 0.116584
1.380260 , 0.118413
1.380740 , 0.120210
1.381210 , 0.119223
1.381690 , 0.121843
1.382170 , 0.124220
1.382650 , 0.123621
1.383120 , 0.124830
1.383600 , 0.120258
1.384080 , 0.117410
1.384560 , 0.116311
1.385030 , 0.106688
1.385510 , 0.096583
1.385990 , 0.084296
1.386470 , 0.075675
1.386940 , 0.068295
1.387420 , 0.050037
1.387900 , 0.028951
1.388380 , 0.007715
1.388850 , -0.005167
1.389330 , -0.027709
1.389810 , -0.046969
1.390290 , -0.066570
1.390760 , -0.085089
1.391240 , -0.098173
1.391720 , -0.114882
1.392200 , -0.126904
1.392670 , -0.140885
1.393150 , -0.146494
1.393630 , -0.158511
1.394110 , -0.163836
1.394580 , -0.169655
1.395060 , -0.181133
1.395540 , -0.186474
1.396020 , -0.184906
1.396490 , -0.183175
1.396970 , -0.180337
1.397450 , -0.173917
1.397930 , -0.168745
1.398400 , -0.157057
1.398880 , -0.151390
1.399360 , -0.141718
1.399840 , -0.132270
1.400310 , -0.120422
1.400790 , -0.104105
1.401270 , -0.083669
1.401740 , -0.067093
1.402220 , -0.041897
1.402700 , -0.024281
1.403180 , -0.008881
1.403650 , 0.012873
1.404130 , 0.026209
1.404610 , 0.043525
1.405090 , 0.051885
1.405560 , 0.059253
1.406040 , 0.064108
1.406520 , 0.063636
1.407000 , 0.059728
1.407470 , 0.051674
1.407950 , 0.040588
1.408430 , 0.027472
1.408910 , 0.016114
1.409380 , -0.002128
1.409860 , -0.018036
1.410340 , -0.039578
1.410820 , -0.064200
1.411290 , -0.088077
1.411770 , -0.106836
1.412250 , -0.138246
1.412730 , -0.167751
1.413200 , -0.198730
1.413680 , -0.225283
1.414160 , -0.255548
1.414640 , -0.286334
1.415110 , -0.307723
1.415590 , -0.323481
1.416070 , -0.333367
1.416550 , -0.337078
1.417020 , -0.325432
1.417500 , -0.305056
1.417980 , -0.276793
1.418460 , -0.236557
1.418930 , -0.188299
1.419410 , -0.137146
1.419890 , -0.082120
1.420370 , -0.027752
1.420840 , 0.027202
1.421320 , 0.066999
1.421800 , 0.098366
1.422270 , 0.125620
1.422750 , 0.140090
1.423230 , 0.143190
1.423710 , 0.139256
1.424180 , 0.124647
1.424660 , 0.099167
1.425140 , 0.069513
1.425620 , 0.030286
1.426090 , -0.009382
1.426570 , -0.048477
1.427050 , -0.089035
1.427530 , -0.118798
1.428000 , -0.155306
1.428480 , -0.190535
1.428960 , -0.219922
1.429440 , -0.240056
1.429910 , -0.256587
1.430390 , -0.262110
1.430870 , -0.261429
1.431350 , -0.257341
1.431820 , -0.243575
1.432300 , -0.224885
1.432780 , -0.209711
1.433260 , -0.183063
1.433730 , -0.149915
1.434210 , -0.116032
1.434690 , -0.083372
1.435170 , -0.050624
1.435640 , -0.008450
1.436120 , 0.030980
1.436600 , 0.062484
1.437080 , 0.094944
1.437550 , 0.126932
1.438030 , 0.158557
1.438510 , 0.189682
1.438990 , 0.222128
1.439460 , 0.248555
1.439940 , 0.279358
1.440420 , 0.298464
1.440900 , 0.316399
1.441370 , 0.331165
1.441850 , 0.342099
1.442330 , 0.341280
1.442800 , 0.329902
1.443280 , 0.308042
1.443760 , 0.276084
1.444240 , 0.229206
1.444710 , 0.172559
1.445190 , 0.109497
1.445670 , 0.047082
1.446150 , -0.022330
1.446620 , -0.092144
1.447100 , -0.155553
1.447580 , -0.208562
1.448060 , -0.249799
1.448530 , -0.279888
1.449010 , -0.291176
1.449490 , -0.288444
1.449970 , -0.264929
1.450440 , -0.226338
1.450920 , -0.171628
1.451400 , -0.106539
1.451880 , -0.031651
1.452350 , 0.050199
1.452830 , 0.137322
1.453310 , 0.220587
1.453790 , 0.302660
1.454260 , 0.373731
1.454740 , 0.427866
1.455220 , 0.484283
1.455700 , 0.518369
1.456170 , 0.533080
1.456650 , 0.537884
1.457130 , 0.527085
1.457610 , 0.494219
1.458080 , 0.446610
1.458560 , 0.400676
1.459040 , 0.346881
1.459520 , 0.282422
1.459990 , 0.217927
1.460470 , 0.152283
1.460950 , 0.089807
1.461430 , 0.035013
1.461900 , -0.024877
1.462380 , -0.072345
1.462860 , -0.111666
1.463330 , -0.145374
1.463810 , -0.170923
1.464290 , -0.187583
1.464770 , -0.203206
1.465240 , -0.211108
1.465720 , -0.204250
1.466200 , -0.194984
1.466680 , -0.182048
1.467150 , -0.167302
1.467630 , -0.146213
1.468110 , -0.120560
1.468590 , -0.099542
1.469060 , -0.072986
1.469540 , -0.044687
1.470020 , -0.018107
1.470500 , 0.011128
1.470970 , 0.042498
1.471450 , 0.075257
1.471930 , 0.101537
1.472410 , 0.126769
1.472880 , 0.149191
1.473360 , 0.171430
1.473840 , 0.186049
1.474320 , 0.200446
1.474790 , 0.211211
1.475270 , 0.223268
1.475750 , 0.233828
1.476230 , 0.238852
1.476700 , 0.238644
1.477180 , 0.233747
1.477660 , 0.229605
1.478140 , 0.221775
1.478610 , 0.211123
1.479090 , 0.197836
1.479570 , 0.179723
1.480050 , 0.162342
1.480520 , 0.143631
1.481000 , 0.119284
1.481480 , 0.096267
1.481960 , 0.070035
1.482430 , 0.045644
1.482910 , 0.021813
1.483390 , -0.001706
1.483860 , -0.027318
1.484340 , -0.049820
1.484820 , -0.070336
1.485300 , -0.090624
1.485770 , -0.105807
1.486250 , -0.116840
1.486730 , -0.122124
1.487210 , -0.128731
1.487680 , -0.134684
1.488160 , -0.135728
1.488640 , -0.131143
1.489120 , -0.126970
1.489590 , -0.115312
1.490070 , -0.097764
1.490550 , -0.080103
1.491030 , -0.063329
1.491500 , -0.045665
1.491980 , -0.029769
1.492460 , -0.018366
1.492940 , -0.000876
1.493410 , 0.010925
1.493890 , 0.021253
1.494370 , 0.029544
1.494850 , 0.033375
1.495320 , 0.039790
1.495800 , 0.041478
1.496280 , 0.039685
1.496760 , 0.038310
1.497230 , 0.036703
1.497710 , 0.035434
1.498190 , 0.032266
1.498670 , 0.023009
1.499140 , 0.012618
1.499620 , 0.000000
