# ZnS-NP_HIPSCA-JS
# h[nm],U(h)[kJ/mol]
0.149999999999999994,124.161985919700072145
0.150999999999999995,123.152133660727741926
0.151999999999999996,122.062073947040602206
0.152999999999999997,120.988184682675409931
0.153999999999999998,119.946792901768120032
0.154999999999999999,118.924967661745341729
0.156000000000000000,117.904773805732332903
0.157000000000000001,116.872986773876391453
0.158000000000000002,115.823410089988527716
0.159000000000000002,114.755884273936658246
0.160000000000000003,113.674200996876308523
0.161000000000000004,112.584018712969822218
0.162000000000000005,111.491236685324452083
0.163000000000000006,110.400940222027017512
0.164000000000000007,109.316862655933505266
0.165000000000000008,108.241243883732707332
0.166000000000000009,107.174954337841057850
0.167000000000000010,106.117768849269324960
0.168000000000000010,105.068700596472851316
0.169000000000000011,104.026332299946119520
0.170000000000000012,102.989105636967025248
0.171000000000000013,101.955548807877022455
0.172000000000000014,100.924436058480452516
0.173000000000000015,99.894882273094509628
0.174000000000000016,98.866381328071014423
0.175000000000000017,97.838799624049840986
0.176000000000000018,96.812336913844831088
0.177000000000000018,95.787465900259746832
0.178000000000000019,94.764860638579023089
0.179000000000000020,93.745321949042548226
0.180000000000000021,92.729706113109372723
0.181000000000000022,91.718861284083558871
0.182000000000000023,90.713574402283484233
0.183000000000000024,89.714530025628135945
0.184000000000000025,88.722281386661506986
0.185000000000000026,87.737233158354527518
0.186000000000000026,86.759634828775020310
0.187000000000000027,85.789583215312575248
0.188000000000000028,84.827032455543616152
0.189000000000000029,83.871809757219764947
0.190000000000000030,82.923635240015954651
0.191000000000000031,81.982144326248814536
0.192000000000000032,81.046911310949298013
0.193000000000000033,80.117472942268250335
0.194000000000000034,79.193351054457735927
0.195000000000000034,78.274073504879098095
0.196000000000000035,77.359192864435016190
0.197000000000000036,76.448302491273722126
0.198000000000000037,75.541049776774940483
0.199000000000000038,74.637146488839078984
0.200000000000000039,73.736376249994833643
0.201000000000000040,72.838599277542670052
0.202000000000000041,71.943754581359456779
0.203000000000000042,71.051859864102283382
0.204000000000000042,70.163009400648405745
0.205000000000000043,69.277370191091293350
0.206000000000000044,68.395176686870271965
0.207000000000000045,67.516724384929744929
0.208000000000000046,66.642362572309437496
0.209000000000000047,65.772486485180593263
0.210000000000000048,64.907529123763794132
0.211000000000000049,64.047952939262543737
0.212000000000000050,63.194241582161154724
0.213000000000000050,62.346891873998217193
0.214000000000000051,61.506406137859947592
0.215000000000000052,60.673284996990126672
0.216000000000000053,59.848020726570645422
0.217000000000000054,59.031091221233467081
0.218000000000000055,58.222954620452377128
0.219000000000000056,57.424044615752734444
0.220000000000000057,56.634766447720338078
0.221000000000000058,55.855493587063030247
0.222000000000000058,55.086565082408888827
0.223000000000000059,54.328283548004250747
0.224000000000000060,53.580913756862948105
0.225000000000000061,52.844681799058477623
0.226000000000000062,52.119774760577669781
0.227000000000000063,51.406340875290482018
0.228000000000000064,50.704490100970723176
0.229000000000000065,50.014295069751675271
0.230000000000000066,49.335792363764603863
0.231000000000000066,48.668984067833015672
0.232000000000000067,48.013839552842931369
0.233000000000000068,47.370297445650820123
0.234000000000000069,46.738267744012610194
0.235000000000000070,46.117634037914811529
0.236000000000000071,45.508255801773216831
0.237000000000000072,44.909970725156583171
0.238000000000000073,44.322597052924038508
0.239000000000000073,43.745935908882088938
0.240000000000000074,43.179773580216334494
0.241000000000000075,42.623883743003624147
0.242000000000000076,42.078029612025247275
0.243000000000000077,41.541966000861485497
0.244000000000000078,41.015441280833208282
0.245000000000000079,40.498199229756721707
0.246000000000000080,39.989980763685856857
0.247000000000000081,39.490525546827441872
0.248000000000000081,38.999573476634246560
0.249000000000000082,38.516866042705103723
0.250000000000000111,38.042147559561499293
0.251000000000000112,37.575166274631015995
0.252000000000000113,37.115675353857852770
0.253000000000000114,36.663433748292042935
0.254000000000000115,36.218206945788153917
0.255000000000000115,35.779767612586354630
0.256000000000000116,35.347896130061990050
0.257000000000000117,34.922381032325993999
0.258000000000000118,34.503019350650426134
0.259000000000000119,34.089616870888576727
0.260000000000000120,33.681988310170730472
0.261000000000000121,33.279957419193372914
0.262000000000000122,32.883357016390398542
0.263000000000000123,32.492028960190040721
0.264000000000000123,32.105824065426944003
0.265000000000000124,31.724601969804485435
0.266000000000000125,31.348230956094425892
0.267000000000000126,30.976587735525061618
0.268000000000000127,30.609557197551897190
0.269000000000000128,30.247032130932108629
0.270000000000000129,29.888912920738334833
0.271000000000000130,29.535107225655661267
0.272000000000000131,29.185529639609303132
0.273000000000000131,28.840101341474234431
0.274000000000000132,28.498749736323599535
0.275000000000000133,28.161408091383655972
0.276000000000000134,27.828015169579611410
0.277000000000000135,27.498514863283304521
0.278000000000000136,27.172855830608348526
0.279000000000000137,26.850991136345037091
0.280000000000000138,26.532877899385859166
0.281000000000000139,26.218476948262161130
0.282000000000000139,25.907752486196841346
0.283000000000000140,25.600671766873666968
0.284000000000000141,25.297204781933949391
0.285000000000000142,24.997323961034020101
0.286000000000000143,24.701003885132820415
0.287000000000000144,24.408221013527818144
0.288000000000000145,24.118953425018339942
0.289000000000000146,23.833180573449343598
0.290000000000000147,23.550883057772928453
0.291000000000000147,23.272042406661878289
0.292000000000000148,22.996640877615721621
0.293000000000000149,22.724661270417474412
0.294000000000000150,22.456086754725600230
0.295000000000000151,22.190900711521454269
0.296000000000000152,21.929086588076749820
0.297000000000000153,21.670627766057879882
0.298000000000000154,21.415507442342992306
0.299000000000000155,21.163708522094559328
0.300000000000000155,20.915213523602375290
0.301000000000000156,20.670004494390784799
0.302000000000000157,20.428062938066997134
0.303000000000000158,20.189369751376620599
0.304000000000000159,19.953905170924837620
0.305000000000000160,19.721648729018731672
0.306000000000000161,19.492579218086678594
0.307000000000000162,19.266674663133890988
0.308000000000000163,19.043912301699890577
0.309000000000000163,18.824268570792035860
0.310000000000000164,18.607719100280355917
0.311000000000000165,18.394238712251230083
0.312000000000000166,18.183801425832232468
0.313000000000000167,17.976380467015378173
0.314000000000000168,17.771948283023135673
0.315000000000000169,17.570476560778725883
0.316000000000000170,17.371936249060485835
0.317000000000000171,17.176297583938740843
0.318000000000000171,16.983530117112628943
0.319000000000000172,16.793602746783335533
0.320000000000000173,16.606483750719611692
0.321000000000000174,16.422140821190630788
0.322000000000000175,16.240541101460120643
0.323000000000000176,16.061651223554626711
0.324000000000000177,15.885437347037258959
0.325000000000000178,15.711865198536262511
0.326000000000000179,15.540900111795442839
0.327000000000000179,15.372507068030676791
0.328000000000000180,15.206650736393262591
0.329000000000000181,15.043295514356936238
0.330000000000000182,14.882405567860953255
0.331000000000000183,14.723944871056200867
0.332000000000000184,14.567877245515751028
0.333000000000000185,14.414166398784852063
0.334000000000000186,14.262775962157968834
0.335000000000000187,14.113669527583118324
0.336000000000000187,13.966810683605164201
0.337000000000000188,13.822163050270802387
0.338000000000000189,13.679690312928297402
0.339000000000000190,13.539356254864809870
0.340000000000000191,13.401124788733216775
0.341000000000000192,13.264959986729099484
0.342000000000000193,13.130826109486211095
0.343000000000000194,12.998687633666349939
0.344000000000000195,12.868509278226616388
0.345000000000000195,12.740256029352924116
0.346000000000000196,12.613893164054982066
0.347000000000000197,12.489386272423107727
0.348000000000000198,12.366701278552088894
0.349000000000000199,12.245804460142048598
0.350000000000000200,12.126662466790124384
0.351000000000000201,12.009242336990514133
0.352000000000000202,11.893511513863803231
0.353000000000000203,11.779437859639358521
0.354000000000000203,11.666989668917185696
0.355000000000000204,11.556135680738066185
0.356000000000000205,11.446845089492626357
0.357000000000000206,11.339087554701739791
0.358000000000000207,11.232833209702320687
0.359000000000000208,11.128052669273520436
0.360000000000000209,11.024717036239419343
0.361000000000000210,10.922797907085300295
0.362000000000000210,10.822267376624782997
0.363000000000000211,10.723098041755864784
0.364000000000000212,10.625263004343965534
0.365000000000000213,10.528735873270230528
0.366000000000000214,10.433490765683254509
0.367000000000000215,10.339502307492329791
0.368000000000000216,10.246745633139813236
0.369000000000000217,10.155196384690071909
0.370000000000000218,10.064830710271783332
0.371000000000000218,9.975625261909915054
0.372000000000000219,9.887557192782967519
0.373000000000000220,9.800604153940417618
0.374000000000000221,9.714744290514511604
0.375000000000000222,9.629956237459802892
0.376000000000000223,9.546219114852709353
0.377000000000000224,9.463512522782897562
0.378000000000000225,9.381816535866912332
0.379000000000000226,9.301111697413912083
0.380000000000000226,9.221379013272045455
0.381000000000000227,9.142599945383292237
0.382000000000000228,9.064756405073492118
0.383000000000000229,8.987830746103140811
0.384000000000000230,8.911805757503850955
0.385000000000000231,8.836664656223984338
0.386000000000000232,8.762391079606306477
0.387000000000000233,8.688969077719226775
0.388000000000000234,8.616383105562496425
0.389000000000000234,8.544618015166962621
0.390000000000000235,8.473659047607275951
0.391000000000000236,8.403491824945357180
0.392000000000000237,8.334102342121560980
0.393000000000000238,8.265476958809552244
0.394000000000000239,8.197602391250075726
0.395000000000000240,8.130465704077838751
0.396000000000000241,8.064054302155003739
0.397000000000000242,7.998355922423902697
0.398000000000000242,7.933358625790788210
0.399000000000000243,7.869050789051743600
0.400000000000000244,7.805421096871012487
0.401000000000000245,7.742458533821367617
0.402000000000000246,7.680152376495568589
0.403000000000000247,7.618492185696894126
0.404000000000000248,7.557467798716627883
0.405000000000000249,7.497069321705295053
0.406000000000000250,7.437287122144182305
0.407000000000000250,7.378111821422846717
0.408000000000000251,7.319534287528012939
0.409000000000000252,7.261545627848538409
0.410000000000000253,7.204137182100754266
0.411000000000000254,7.147300515377982499
0.412000000000000255,7.091027411327570640
0.413000000000000256,7.035309865458333256
0.414000000000000257,6.980140078580949314
0.415000000000000258,6.925510450383415950
0.416000000000000258,6.871413573143337672
0.417000000000000259,6.817842225578429449
0.418000000000000260,6.764789366836384765
0.419000000000000261,6.712248130624796083
0.420000000000000262,6.660211819481732576
0.421000000000000263,6.608673899187091472
0.422000000000000264,6.557627993314776305
0.423000000000000265,6.507067877925377886
0.424000000000000266,6.456987476398855286
0.425000000000000266,6.407380854406605764
0.426000000000000267,6.358242215021909338
0.427000000000000268,6.309565893967763905
0.428000000000000269,6.261346355000864783
0.429000000000000270,6.213578185430302270
0.430000000000000271,6.166256091769516168
0.431000000000000272,6.119374895519768209
0.432000000000000273,6.072929529083469724
0.433000000000000274,6.026915031805396339
0.434000000000000274,5.981326546139856148
0.435000000000000275,5.936159313941778315
0.436000000000000276,5.891408672879553166
0.437000000000000277,5.847070052967426435
0.438000000000000278,5.803138973215223650
0.439000000000000279,5.759611038393057214
0.440000000000000280,5.716481935908656276
0.441000000000000281,5.673747432794998602
0.442000000000000282,5.631403372805690921
0.443000000000000282,5.589445673615817789
0.444000000000000283,5.547870324125621089
0.445000000000000284,5.506673381864688466
0.446000000000000285,5.465850970494064320
0.447000000000000286,5.425399277403816889
0.448000000000000287,5.385314551403623362
0.449000000000000288,5.345593100503826633
0.450000000000000289,5.306231289784534511
0.451000000000000290,5.267225539350315344
0.452000000000000290,5.228572322367995184
0.453000000000000291,5.190268163185210781
0.454000000000000292,5.152309635527268838
0.455000000000000293,5.114693360769953401
0.456000000000000294,5.077416006285970340
0.457000000000000295,5.040474283862655724
0.458000000000000296,5.003864948188732953
0.459000000000000297,4.967584795407824494
0.460000000000000298,4.931630661736532417
0.461000000000000298,4.895999422144912572
0.462000000000000299,4.860687989097177919
0.463000000000000300,4.825693311350599757
0.464000000000000301,4.791012372810460107
0.465000000000000302,4.756642191439138578
0.466000000000000303,4.722579818217279346
0.467000000000000304,4.688822336155153536
0.468000000000000305,4.655366859352316311
0.469000000000000306,4.622210532103737890
0.470000000000000306,4.589350528050541556
0.471000000000000307,4.556784049373683310
0.472000000000000308,4.524508326028810146
0.473000000000000309,4.492520615020597852
0.474000000000000310,4.460818199715030907
0.475000000000000311,4.429398389187951146
0.476000000000000312,4.398258517608420348
0.477000000000000313,4.367395943655309587
0.478000000000000314,4.336808049965776846
0.479000000000000314,4.306492242614105237
0.480000000000000315,4.276445950619637948
0.481000000000000316,4.246666625482410140
0.482000000000000317,4.217151740745240573
0.483000000000000318,4.187898791581006641
0.484000000000000319,4.158905294403923314
0.485000000000000320,4.130168786503650935
0.486000000000000321,4.101686825701106542
0.487000000000000322,4.073456990024872937
0.488000000000000322,4.045476877407207184
0.489000000000000323,4.017744105398565857
0.490000000000000324,3.990256310899729986
0.491000000000000325,3.963011149910532716
0.492000000000000326,3.936006297294340150
0.493000000000000327,3.909239446557351449
0.494000000000000328,3.882708309641920152
0.495000000000000329,3.856410616733061403
0.496000000000000330,3.830344116077399441
0.497000000000000330,3.804506573813729808
0.498000000000000331,3.778895773814610060
0.499000000000000332,3.753509517538169860
0.500000000000000333,3.728345623889494753
0.501000000000000334,3.703401929091073352
0.502000000000000335,3.678676286561508135
0.503000000000000336,3.654166566802089733
0.504000000000000337,3.629870657290559244
0.505000000000000338,3.605786462381593172
0.506000000000000338,3.581911903213482073
0.507000000000000339,3.558244917620510872
0.508000000000000340,3.534783460050635817
0.509000000000000341,3.511525501487906986
0.510000000000000342,3.488469029379377417
0.511000000000000343,3.465612047565933551
0.512000000000000344,3.442952576216813387
0.513000000000000345,3.420488651767370492
0.514000000000000346,3.398218326859748117
0.515000000000000346,3.376139670286197436
0.516000000000000347,3.354250766934678829
0.517000000000000348,3.332549717736478900
0.518000000000000349,3.311034639615577646
0.519000000000000350,3.289703665439490443
0.520000000000000351,3.268554943971389459
0.521000000000000352,3.247586639823191401
0.522000000000000353,3.226796933409505463
0.523000000000000353,3.206184020902141274
0.524000000000000354,3.185746114185069366
0.525000000000000355,3.165481440809587266
0.526000000000000356,3.145388243949613027
0.527000000000000357,3.125464782356853988
0.528000000000000358,3.105709330315793437
0.529000000000000359,3.086120177598309589
0.530000000000000360,3.066695629417846014
0.531000000000000361,3.047434006382986560
0.532000000000000361,3.028333644450350359
0.533000000000000362,3.009392894876704805
0.534000000000000363,2.990610124170232975
0.535000000000000364,2.971983714040823621
0.536000000000000365,2.953512061349391704
0.537000000000000366,2.935193578056073616
0.538000000000000367,2.917026691167346364
0.539000000000000368,2.899009842681901539
0.540000000000000369,2.881141489535341549
0.541000000000000369,2.863420103543568018
0.542000000000000370,2.845844171344916962
0.543000000000000371,2.828412194340919505
0.544000000000000372,2.811122688635753875
0.545000000000000373,2.793974184974295838
0.546000000000000374,2.776965228678817343
0.547000000000000375,2.760094379584279611
0.548000000000000376,2.743360211972231344
0.549000000000000377,2.726761314503329370
0.550000000000000377,2.710296290148423104
0.551000000000000378,2.693963756118305408
0.552000000000000379,2.677762343792037036
0.553000000000000380,2.661690698643917052
0.554000000000000381,2.645747480169119203
0.555000000000000382,2.629931361807938739
0.556000000000000383,2.614241030868784232
0.557000000000000384,2.598675188449802054
0.558000000000000385,2.583232549359279151
0.559000000000000385,2.567911842034769965
0.560000000000000386,2.552711808460990106
0.561000000000000387,2.537631204086529202
0.562000000000000388,2.522668797739403335
0.563000000000000389,2.507823371541436419
0.564000000000000390,2.493093720821569548
0.565000000000000391,2.478478654028082762
0.566000000000000392,2.463976992639794084
0.567000000000000393,2.449587571076224268
0.568000000000000393,2.435309236606831185
0.569000000000000394,2.421140849259284966
0.570000000000000395,2.407081281726864308
0.571000000000000396,2.393129419274990788
0.572000000000000397,2.379284159646931407
0.573000000000000398,2.365544412968743959
0.574000000000000399,2.351909101653445688
0.575000000000000400,2.338377160304508262
0.576000000000000401,2.324947535618671957
0.577000000000000401,2.311619186288111472
0.578000000000000402,2.298391082902039972
0.579000000000000403,2.285262207847760241
0.580000000000000404,2.272231555211160270
0.581000000000000405,2.259298130676790528
0.582000000000000406,2.246460951427453168
0.583000000000000407,2.233719046043414203
0.584000000000000408,2.221071454401248424
0.585000000000000409,2.208517227572350361
0.586000000000000409,2.196055427721163689
0.587000000000000410,2.183685128003122866
0.588000000000000411,2.171405412462440232
0.589000000000000412,2.159215375929625313
0.590000000000000413,2.147114123918913542
0.591000000000000414,2.135100772525563961
0.592000000000000415,2.123174448323046803
0.593000000000000416,2.111334288260215963
0.594000000000000417,2.099579439558453053
0.595000000000000417,2.087909059608791473
0.596000000000000418,2.076322315869141732
0.597000000000000419,2.064818385761534536
0.598000000000000420,2.053396456569516637
0.599000000000000421,2.042055725335637284
0.600000000000000422,2.030795398759115855
0.601000000000000423,2.019614693093714219
0.602000000000000424,2.008512834045796502
0.603000000000000425,1.997489056672630214
0.604000000000000425,1.986542605280990914
0.605000000000000426,1.975672733326031105
0.606000000000000427,1.964878703310450447
0.607000000000000428,1.954159786684076305
0.608000000000000429,1.943515263743698984
0.609000000000000430,1.932944423533413003
0.610000000000000431,1.922446563745274561
0.611000000000000432,1.912020990620426186
0.612000000000000433,1.901667018850683233
0.613000000000000433,1.891383971480547377
0.614000000000000434,1.881171179809745908
0.615000000000000435,1.871027983296256192
0.616000000000000436,1.860953729459878137
0.617000000000000437,1.850947773786294048
0.618000000000000438,1.841009479631745993
0.619000000000000439,1.831138218128251838
0.620000000000000440,1.821333368089411264
0.621000000000000441,1.811594315916818854
0.622000000000000441,1.801920455507082908
0.623000000000000442,1.792311188159495527
0.624000000000000443,1.782765922484318200
0.625000000000000444,1.773284074311723968
0.626000000000000445,1.763865066601423504
0.627000000000000446,1.754508329352946649
0.628000000000000447,1.745213299516608974
0.629000000000000448,1.735979420905186199
0.630000000000000449,1.726806144106295848
0.631000000000000449,1.717692926395465447
0.632000000000000450,1.708639231649954793
0.633000000000000451,1.699644530263276110
0.634000000000000452,1.690708299060484476
0.635000000000000453,1.681830021214172133
0.636000000000000454,1.673009186161251716
0.637000000000000455,1.664245289520450033
0.638000000000000456,1.655537833010608084
0.639000000000000457,1.646886324369716492
0.640000000000000457,1.638290277274707218
0.641000000000000458,1.629749211262069064
0.642000000000000459,1.621262651649179487
0.643000000000000460,1.612830129456461092
0.644000000000000461,1.604451181330293297
0.645000000000000462,1.596125349466718912
0.646000000000000463,1.587852181535943874
0.647000000000000464,1.579631230607617676
0.648000000000000465,1.571462055076890962
0.649000000000000465,1.563344218591292689
0.650000000000000466,1.555277289978361122
0.651000000000000467,1.547260843174111944
0.652000000000000468,1.539294457152244444
0.653000000000000469,1.531377715854191912
0.654000000000000470,1.523510208119916332
0.655000000000000471,1.515691527619517531
0.656000000000000472,1.507921272785624600
0.657000000000000473,1.500199046746585996
0.658000000000000473,1.492524457260409276
0.659000000000000474,1.484897116649522619
0.660000000000000475,1.477316641736291736
0.661000000000000476,1.469782653779331927
0.662000000000000477,1.462294778410578200
0.663000000000000478,1.454852645573148084
0.664000000000000479,1.447455889459938749
0.665000000000000480,1.440104148453048349
0.666000000000000481,1.432797065063886155
0.667000000000000481,1.425534285874116680
0.668000000000000482,1.418315461477287709
0.669000000000000483,1.411140246421273448
0.670000000000000484,1.404008299151412897
0.671000000000000485,1.396919281954416725
0.672000000000000486,1.389872860903020202
0.673000000000000487,1.382868705801329812
0.674000000000000488,1.375906490130949456
0.675000000000000488,1.368985890997791888
0.676000000000000489,1.362106589079616903
0.677000000000000490,1.355268268574298496
0.678000000000000491,1.348470617148776141
0.679000000000000492,1.341713325888730157
0.680000000000000493,1.334996089248940754
0.681000000000000494,1.328318605004334740
0.682000000000000495,1.321680574201740566
0.683000000000000496,1.315081701112296830
0.684000000000000496,1.308521693184540480
0.685000000000000497,1.302000260998190884
0.686000000000000498,1.295517118218544095
0.687000000000000499,1.289071981551581203
0.688000000000000500,1.282664570699684203
0.689000000000000501,1.276294608318019552
0.690000000000000502,1.269961819971539452
0.691000000000000503,1.263665934092631726
0.692000000000000504,1.257406681939402082
0.693000000000000504,1.251183797554538568
0.694000000000000505,1.244997017724842614
0.695000000000000506,1.238846081941310739
0.696000000000000507,1.232730732359855974
0.697000000000000508,1.226650713762612810
0.698000000000000509,1.220605773519823023
0.699000000000000510,1.214595661552291705
0.700000000000000511,1.208620130294460138
0.701000000000000512,1.202678934657987586
0.702000000000000512,1.196771831995947055
0.703000000000000513,1.190898582067542399
0.704000000000000514,1.185058947003382546
0.705000000000000515,1.179252691271309494
0.706000000000000516,1.173479581642747016
0.707000000000000517,1.167739387159572484
0.708000000000000518,1.162031879101554477
0.709000000000000519,1.156356830954229142
0.710000000000000520,1.150714018377373193
0.711000000000000520,1.145103219173910336
0.712000000000000521,1.139524213259352603
0.713000000000000522,1.133976782631730407
0.714000000000000523,1.128460711341983114
0.715000000000000524,1.122975785464856546
0.716000000000000525,1.117521793070251901
0.717000000000000526,1.112098524195044069
0.718000000000000527,1.106705770815370027
0.719000000000000528,1.101343326819369306
0.720000000000000528,1.096010987980334805
0.721000000000000529,1.090708551930369419
0.722000000000000530,1.085435818134416808
0.723000000000000531,1.080192587864764464
0.724000000000000532,1.074978664175936238
0.725000000000000533,1.069793851880016522
0.726000000000000534,1.064637957522398093
0.727000000000000535,1.059510789357909877
0.728000000000000536,1.054412157327356159
0.729000000000000536,1.049341873034460138
0.730000000000000537,1.044299749723164528
0.731000000000000538,1.039285602255347829
0.732000000000000539,1.034299247088894536
0.733000000000000540,1.029340502256148149
0.734000000000000541,1.024409187342711247
0.735000000000000542,1.019505123466640129
0.736000000000000543,1.014628133257947873
0.737000000000000544,1.009778040838499091
0.738000000000000544,1.004954671802213095
0.739000000000000545,1.000157853195628777
0.740000000000000546,0.995387413498791340
0.741000000000000547,0.990643182606484429
0.742000000000000548,0.985924991809724482
0.743000000000000549,0.981232673777674647
0.744000000000000550,0.976566062539777846
0.745000000000000551,0.971924993468245013
0.746000000000000552,0.967309303260828535
0.747000000000000552,0.962718829923900232
0.748000000000000553,0.958153412755823330
0.749000000000000554,0.953612892330610196
0.750000000000000555,0.949097110481853967
0.751000000000000556,0.944605910286962058
0.752000000000000557,0.940139136051621582
0.753000000000000558,0.935696633294605062
0.754000000000000559,0.931278248732752445
0.755000000000000560,0.926883830266291064
0.756000000000000560,0.922513226964350230
0.757000000000000561,0.918166289050785678
0.758000000000000562,0.913842867890211630
0.759000000000000563,0.909542815974277885
0.760000000000000564,0.905265986908201592
0.761000000000000565,0.901012235397532280
0.762000000000000566,0.896781417235131828
0.763000000000000567,0.892573389288407126
0.764000000000000568,0.888388009486741792
0.765000000000000568,0.884225136809149381
0.766000000000000569,0.880084631272167739
0.767000000000000570,0.875966353917921881
0.768000000000000571,0.871870166802441560
0.769000000000000572,0.867795932984146368
0.770000000000000573,0.863743516512543552
0.771000000000000574,0.859712782417129007
0.772000000000000575,0.855703596696469559
0.773000000000000576,0.851715826307486656
0.774000000000000576,0.847749339154921344
0.775000000000000577,0.843804004080974890
0.776000000000000578,0.839879690855142358
0.777000000000000579,0.835976270164207724
0.778000000000000580,0.832093613602430060
0.779000000000000581,0.828231593661880261
0.780000000000000582,0.824390083722962963
0.781000000000000583,0.820568958045080565
0.782000000000000584,0.816768091757475667
0.783000000000000584,0.812987360850232932
0.784000000000000585,0.809226642165411625
0.785000000000000586,0.805485813388360783
0.786000000000000587,0.801764753039155509
0.787000000000000588,0.798063340464201354
0.788000000000000589,0.794381455827971927
0.789000000000000590,0.790718980104878399
0.790000000000000591,0.787075795071292994
0.791000000000000592,0.783451783297702264
0.792000000000000592,0.779846828140985160
0.793000000000000593,0.776260813736827537
0.794000000000000594,0.772693624992271233
0.795000000000000595,0.769145147578363275
0.796000000000000596,0.765615267922964970
0.797000000000000597,0.762103873203648474
0.798000000000000598,0.758610851340719483
0.799000000000000599,0.755136090990376485
0.800000000000000600,0.751679481537940730
0.801000000000000600,0.748240913091247295
0.802000000000000601,0.744820276474101872
0.803000000000000602,0.741417463219874673
0.804000000000000603,0.738032365565176596
0.805000000000000604,0.734664876443645865
0.806000000000000605,0.731314889479853569
0.807000000000000606,0.727982298983269049
0.808000000000000607,0.724666999942354728
0.809000000000000608,0.721368888018746213
0.810000000000000608,0.718087859541501339
0.811000000000000609,0.714823811501499207
0.812000000000000610,0.711576641545845101
0.813000000000000611,0.708346247972441168
0.814000000000000612,0.705132529724593171
0.815000000000000613,0.701935386385709958
0.816000000000000614,0.698754718174099176
0.817000000000000615,0.695590425937834489
0.818000000000000616,0.692442411149693737
0.819000000000000616,0.689310575902179701
0.820000000000000617,0.686194822902630563
0.821000000000000618,0.683095055468375234
0.822000000000000619,0.680011177521978594
0.823000000000000620,0.676943093586556466
0.824000000000000621,0.673890708781167413
0.825000000000000622,0.670853928816244949
0.826000000000000623,0.667832659989122224
0.827000000000000624,0.664826809179618894
0.828000000000000624,0.661836283845669615
0.829000000000000625,0.658860992019055014
0.830000000000000626,0.655900842301143649
0.831000000000000627,0.652955743858734894
0.832000000000000628,0.650025606419938784
0.833000000000000629,0.647110340270118156
0.834000000000000630,0.644209856247891177
0.835000000000000631,0.641324065741181393
0.836000000000000631,0.638452880683323953
0.837000000000000632,0.635596213549222466
0.838000000000000633,0.632753977351567021
0.839000000000000634,0.629926085637090738
0.840000000000000635,0.627112452482871063
0.841000000000000636,0.624312992492703112
0.842000000000000637,0.621527620793491331
0.843000000000000638,0.618756253031706782
0.844000000000000639,0.615998805369878499
0.845000000000000639,0.613255194483138921
0.846000000000000640,0.610525337555807956
0.847000000000000641,0.607809152278002807
0.848000000000000642,0.605106556842325838
0.849000000000000643,0.602417469940563999
0.850000000000000644,0.599741810760421101
0.851000000000000645,0.597079498982323709
0.852000000000000646,0.594430454776235684
0.853000000000000647,0.591794598798512483
0.854000000000000647,0.589171852188809853
0.855000000000000648,0.586562136567007286
0.856000000000000649,0.583965374030176010
0.857000000000000650,0.581381487149577825
0.858000000000000651,0.578810398967704032
0.859000000000000652,0.576252032995342889
0.860000000000000653,0.573706313208663721
0.861000000000000654,0.571173164046369086
0.862000000000000655,0.568652510406832956
0.863000000000000655,0.566144277645304062
0.864000000000000656,0.563648391571116125
0.865000000000000657,0.561164778444949386
0.866000000000000658,0.558693364976089679
0.867000000000000659,0.556234078319734038
0.868000000000000660,0.553786846074329153
0.869000000000000661,0.551351596278924938
0.870000000000000662,0.548928257410553844
0.871000000000000663,0.546516758381625722
0.872000000000000663,0.544117028537385083
0.873000000000000664,0.541728997653342370
0.874000000000000665,0.539352595932767853
0.875000000000000666,0.536987754004181417
0.876000000000000667,0.534634402918888529
0.877000000000000668,0.532292474148523764
0.878000000000000669,0.529961899582608531
0.879000000000000670,0.527642611526159766
0.880000000000000671,0.525334542697279194
0.881000000000000671,0.523037626224804875
0.882000000000000672,0.520751795645944870
0.883000000000000673,0.518476984903955773
0.884000000000000674,0.516213128345827221
0.885000000000000675,0.513960160719995174
0.886000000000000676,0.511718017174064399
0.887000000000000677,0.509486633252552279
0.888000000000000678,0.507265944894656373
0.889000000000000679,0.505055888432024980
0.890000000000000679,0.502856400586559671
0.891000000000000680,0.500667418468224490
0.892000000000000681,0.498488879572873966
0.893000000000000682,0.496320721780102503
0.894000000000000683,0.494162883351106252
0.895000000000000684,0.492015302926548159
0.896000000000000685,0.489877919524457250
0.897000000000000686,0.487750672538136698
0.898000000000000687,0.485633501734075490
0.899000000000000687,0.483526347249890964
0.900000000000000688,0.481429149592269012
0.901000000000000689,0.479341849634935646
0.902000000000000690,0.477264388616621571
0.903000000000000691,0.475196708139060675
0.904000000000000692,0.473138750164983357
0.905000000000000693,0.471090457016139053
0.906000000000000694,0.469051771371310988
0.907000000000000695,0.467022636264370294
0.908000000000000695,0.465002995082313020
0.909000000000000696,0.462992791563336170
0.910000000000000697,0.460991969794895706
0.911000000000000698,0.459000474211810616
0.912000000000000699,0.457018249594348891
0.913000000000000700,0.455045241066332096
0.914000000000000701,0.453081394093273082
0.915000000000000702,0.451126654480482947
0.916000000000000703,0.449180968371228784
0.917000000000000703,0.447244282244873115
0.918000000000000704,0.445316542915042135
0.919000000000000705,0.443397697527795676
0.920000000000000706,0.441487693559803440
0.921000000000000707,0.439586478816540005
0.922000000000000708,0.437694001430489255
0.923000000000000709,0.435810209859339881
0.924000000000000710,0.433935052884220851
0.925000000000000711,0.432068479607920053
0.926000000000000711,0.430210439453123983
0.927000000000000712,0.428360882160663814
0.928000000000000713,0.426519757787777010
0.929000000000000714,0.424687016706353837
0.930000000000000715,0.422862609601229344
0.931000000000000716,0.421046487468457353
0.932000000000000717,0.419238601613592443
0.933000000000000718,0.417438903649999193
0.934000000000000719,0.415647345497149989
0.935000000000000719,0.413863879378938093
0.936000000000000720,0.412088457822008369
0.937000000000000721,0.410321033654081124
0.938000000000000722,0.408561560002280888
0.939000000000000723,0.406809990291501222
0.940000000000000724,0.405066278242741107
0.941000000000000725,0.403330377871473966
0.942000000000000726,0.401602243486005761
0.943000000000000727,0.399881829685866053
0.944000000000000727,0.398169091360175975
0.945000000000000728,0.396463983686038968
0.946000000000000729,0.394766462126954154
0.947000000000000730,0.393076482431194418
0.948000000000000731,0.391394000630243988
0.949000000000000732,0.389718973037194383
0.950000000000000733,0.388051356245189383
0.951000000000000734,0.386391107125832800
0.952000000000000735,0.384738182827649156
0.953000000000000735,0.383092540774521262
0.954000000000000736,0.381454138664139020
0.955000000000000737,0.379822934466462592
0.956000000000000738,0.378198886422184855
0.957000000000000739,0.376581953041206230
0.958000000000000740,0.374972093101107407
0.959000000000000741,0.373369265645644433
0.960000000000000742,0.371773429983228265
0.961000000000000743,0.370184545685427857
0.962000000000000743,0.368602572585478516
0.963000000000000744,0.367027470776785325
0.964000000000000745,0.365459200611439272
0.965000000000000746,0.363897722698746928
0.966000000000000747,0.362342997903750796
0.967000000000000748,0.360794987345775808
0.968000000000000749,0.359253652396954726
0.969000000000000750,0.357718954680792067
0.970000000000000751,0.356190856070700279
0.971000000000000751,0.354669318688574597
0.972000000000000752,0.353154304903355087
0.973000000000000753,0.351645777329585241
0.974000000000000754,0.350143698826005212
0.975000000000000755,0.348648032494125626
0.976000000000000756,0.347158741676820815
0.977000000000000757,0.345675789956921553
0.978000000000000758,0.344199141155820176
0.979000000000000759,0.342728759332064037
0.980000000000000759,0.341264608779988043
0.981000000000000760,0.339806654028318333
0.982000000000000761,0.338354859838793876
0.983000000000000762,0.336909191204808778
0.984000000000000763,0.335469613350041551
0.985000000000000764,0.334036091727089535
0.986000000000000765,0.332608592016125137
0.987000000000000766,0.331187080123545585
0.988000000000000766,0.329771522180629661
0.989000000000000767,0.328361884542203553
0.990000000000000768,0.326958133785298033
0.991000000000000769,0.325560236707846951
0.992000000000000770,0.324168160327351740
0.993000000000000771,0.322781871879560034
0.994000000000000772,0.321401338817182913
0.995000000000000773,0.320026528808562749
0.996000000000000774,0.318657409736399166
0.997000000000000774,0.317293949696443645
0.998000000000000775,0.315936116996218597
0.999000000000000776,0.314583880153735285
1.000000000000000666,0.313237207896220948
1.001000000000000778,0.311896069158843381
1.002000000000000668,0.310560433083454379
1.003000000000000780,0.309230269017321924
1.004000000000000670,0.307905546511889061
1.005000000000000782,0.306586235321511746
1.006000000000000671,0.305272305402224164
1.007000000000000783,0.303963726910504273
1.008000000000000673,0.302660470202034904
1.009000000000000785,0.301362505830481797
1.010000000000000675,0.300069804546273411
1.011000000000000787,0.298782337295384504
1.012000000000000677,0.297500075218122828
1.013000000000000789,0.296222989647925039
1.014000000000000679,0.294951052110168921
1.015000000000000790,0.293684234320959914
1.016000000000000680,0.292422508185956553
1.017000000000000792,0.291165845799177536
1.018000000000000682,0.289914219441838428
1.019000000000000794,0.288667601581163613
1.020000000000000684,0.287425964869222283
1.021000000000000796,0.286189282141771750
1.022000000000000686,0.284957526417098816
1.023000000000000798,0.283730670894862147
1.024000000000000687,0.282508688954957343
1.025000000000000799,0.281291554156366641
1.026000000000000689,0.280079240236022708
1.027000000000000801,0.278871721107686210
1.028000000000000691,0.277668970860813269
1.029000000000000803,0.276470963759438859
1.030000000000000693,0.275277674241066861
1.031000000000000805,0.274089076915543073
1.032000000000000695,0.272905146563974244
1.033000000000000806,0.271725858137613741
1.034000000000000696,0.270551186756769035
1.035000000000000808,0.269381107709720902
1.036000000000000698,0.268215596451635840
1.037000000000000810,0.267054628603477284
1.038000000000000700,0.265898179950951885
1.039000000000000812,0.264746226443430932
1.040000000000000702,0.263598744192883094
1.041000000000000814,0.262455709472824705
1.042000000000000703,0.261317098717269214
1.043000000000000815,0.260182888519670308
1.044000000000000705,0.259053055631884355
1.045000000000000817,0.257927576963140615
1.046000000000000707,0.256806429578996354
1.047000000000000819,0.255689590700319325
1.048000000000000709,0.254577037702259479
1.049000000000000821,0.253468748113238496
1.050000000000000711,0.252364699613938370
1.051000000000000822,0.251264870036285171
1.052000000000000712,0.250169237362461494
1.053000000000000824,0.249077779723899356
1.054000000000000714,0.247990475400292482
1.055000000000000826,0.246907302818611063
1.056000000000000716,0.245828240552120297
1.057000000000000828,0.244753267319399892
1.058000000000000718,0.243682361983380613
1.059000000000000830,0.242615503550372147
1.060000000000000719,0.241552671169103700
1.061000000000000831,0.240493844129763573
1.062000000000000721,0.239439001863061357
1.063000000000000833,0.238388123939258983
1.064000000000000723,0.237341190067251961
1.065000000000000835,0.236298180093621385
1.066000000000000725,0.235259074001697988
1.067000000000000837,0.234223851910654313
1.068000000000000727,0.233192494074556084
1.069000000000000838,0.232164980881471333
1.070000000000000728,0.231141292852540536
1.071000000000000840,0.230121410641079743
1.072000000000000730,0.229105315031670947
1.073000000000000842,0.228092986939267883
1.074000000000000732,0.227084407408312400
1.075000000000000844,0.226079557611830906
1.076000000000000734,0.225078418850559320
1.077000000000000846,0.224080972552070212
1.078000000000000735,0.223087200269888764
1.079000000000000847,0.222097083682636892
1.080000000000000737,0.221110604593154125
1.081000000000000849,0.220127744927652719
1.082000000000000739,0.219148486734860481
1.083000000000000851,0.218172812185165321
1.084000000000000741,0.217200703569771614
1.085000000000000853,0.216232143299869506
1.086000000000000743,0.215267113905792951
1.087000000000000854,0.214305598036185152
1.088000000000000744,0.213347578457177056
1.089000000000000856,0.212393038051569061
1.090000000000000746,0.211441959818013447
1.091000000000000858,0.210494326870195453
1.092000000000000748,0.209550122436036323
1.093000000000000860,0.208609329856877940
1.094000000000000750,0.207671932586704966
1.095000000000000862,0.206737914191326450
1.096000000000000751,0.205807258347603467
1.097000000000000863,0.204879948842665444
1.098000000000000753,0.203955969573120205
1.099000000000000865,0.203035304544283507
1.100000000000000755,0.202117937869413122
1.101000000000000867,0.201203853768935653
1.102000000000000757,0.200293036569689720
1.103000000000000869,0.199385470704161405
1.104000000000000759,0.198481140709744569
1.105000000000000870,0.197580031227975406
1.106000000000000760,0.196682127003809576
1.107000000000000872,0.195787412884859735
1.108000000000000762,0.194895873820677940
1.109000000000000874,0.194007494862013435
1.110000000000000764,0.193122261160097008
1.111000000000000876,0.192240157965913844
1.112000000000000766,0.191361170629481020
1.113000000000000878,0.190485284599142657
1.114000000000000767,0.189612485420853349
1.115000000000000879,0.188742758737482863
1.116000000000000769,0.187876090288106645
1.117000000000000881,0.187012465907315129
1.118000000000000771,0.186151871524521367
1.119000000000000883,0.185294293163269952
1.120000000000000773,0.184439716940555914
1.121000000000000885,0.183588129066145883
1.122000000000000774,0.182739515841906008
1.123000000000000886,0.181893863661128197
1.124000000000000776,0.181051159007855678
1.125000000000000888,0.180211388456239907
1.126000000000000778,0.179374538669866329
1.127000000000000890,0.178540596401098206
1.128000000000000780,0.177709548490443542
1.129000000000000892,0.176881381865890946
1.130000000000000782,0.176056083542276504
1.131000000000000894,0.175233640620648917
1.132000000000000783,0.174414040287628247
1.133000000000000895,0.173597269814775773
1.134000000000000785,0.172783316557979988
1.135000000000000897,0.171972167956818078
1.136000000000000787,0.171163811533952548
1.137000000000000899,0.170358234894505550
1.138000000000000789,0.169555425725463671
1.139000000000000901,0.168755371795050235
1.140000000000000790,0.167958060952144134
1.141000000000000902,0.167163481125672309
1.142000000000000792,0.166371620324015174
1.143000000000000904,0.165582466634419362
1.144000000000000794,0.164796008222401508
1.145000000000000906,0.164012233331184920
1.146000000000000796,0.163231130281097481
1.147000000000000908,0.162452687469011842
1.148000000000000798,0.161676893367770330
1.149000000000000909,0.160903736525613517
1.150000000000000799,0.160133205565623882
1.151000000000000689,0.159365289185156772
1.152000000000000801,0.158599976155290978
1.153000000000000913,0.157837255320267517
1.154000000000000803,0.157077115596951644
1.155000000000000693,0.156319545974281437
1.156000000000000805,0.155564535512718954
1.157000000000000917,0.154812073343729512
1.158000000000000806,0.154062148669228571
1.159000000000000696,0.153314750761062241
1.160000000000000808,0.152569868960476196
1.161000000000000920,0.151827492677593268
1.162000000000000810,0.151087611390887833
1.163000000000000700,0.150350214646675584
1.164000000000000812,0.149615292058597887
1.165000000000000924,0.148882833307111884
1.166000000000000814,0.148152828138981563
1.167000000000000703,0.147425266366781049
1.168000000000000815,0.146700137868384289
1.169000000000000927,0.145977432586484657
1.170000000000000817,0.145257140528088163
1.171000000000000707,0.144539251764033205
1.172000000000000819,0.143823756428494598
1.173000000000000931,0.143110644718514202
1.174000000000000821,0.142399906893514505
1.175000000000000711,0.141691533274821868
1.176000000000000822,0.140985514245193233
1.177000000000000934,0.140281840248353995
1.178000000000000824,0.139580501788521105
1.179000000000000714,0.138881489429954902
1.180000000000000826,0.138184793796482269
1.181000000000000938,0.137490405571055935
1.182000000000000828,0.136798315495292089
1.183000000000000718,0.136108514369020106
1.184000000000000830,0.135420993049841260
1.185000000000000941,0.134735742452685991
1.186000000000000831,0.134052753549364245
1.187000000000000721,0.133372017368139029
1.188000000000000833,0.132693524993285100
1.189000000000000945,0.132017267564660035
1.190000000000000835,0.131343236277274261
1.191000000000000725,0.130671422380874425
1.192000000000000837,0.130001817179504708
1.193000000000000949,0.129334412031109208
1.194000000000000838,0.128669198347097280
1.195000000000000728,0.128006167591942527
1.196000000000000840,0.127345311282768547
1.197000000000000952,0.126686620988937654
1.198000000000000842,0.126030088331658185
1.199000000000000732,0.125375704983566039
1.200000000000000844,0.124723462668350438
1.201000000000000956,0.124073353160334784
1.202000000000000846,0.123425368284095477
1.203000000000000735,0.122779499914075135
1.204000000000000847,0.122135739974192609
1.205000000000000959,0.121494080437450649
1.206000000000000849,0.120854513325569152
1.207000000000000739,0.120217030708599612
1.208000000000000851,0.119581624704546252
1.209000000000000963,0.118948287479002393
1.210000000000000853,0.118317011244769746
1.211000000000000743,0.117687788261499907
1.212000000000000854,0.117060610835323292
1.213000000000000966,0.116435471318496991
1.214000000000000856,0.115812362109027900
1.215000000000000746,0.115191275650336461
1.216000000000000858,0.114572204430887586
1.217000000000000970,0.113955140983847111
1.218000000000000860,0.113340077886732310
1.219000000000000750,0.112727007761063994
1.220000000000000862,0.112115923272020607
1.221000000000000973,0.111506817128104910
1.222000000000000863,0.110899682080797951
1.223000000000000753,0.110294510924227845
1.224000000000000865,0.109691296494837151
1.225000000000000977,0.109090031671044960
1.226000000000000867,0.108490709372927860
1.227000000000000757,0.107893322561888633
1.228000000000000869,0.107297864240338228
1.229000000000000981,0.106704327451360603
1.230000000000000870,0.106112705278419608
1.231000000000000760,0.105522990845019191
1.232000000000000872,0.104935177314394029
1.233000000000000984,0.104349257889217270
1.234000000000000874,0.103765225811265155
1.235000000000000764,0.103183074361128529
1.236000000000000876,0.102602796857901121
1.237000000000000988,0.102024386658882249
1.238000000000000878,0.101447837159271526
1.239000000000000767,0.100873141791879159
1.240000000000000879,0.100300294026823084
1.241000000000000991,0.099729287371241121
1.242000000000000881,0.099160115369001892
1.243000000000000771,0.098592771600413617
1.244000000000000883,0.098027249681938405
1.245000000000000995,0.097463543265909530
1.246000000000000885,0.096901646040249201
1.247000000000000774,0.096341551728193170
1.248000000000000886,0.095783254088006711
1.249000000000000998,0.095226746912716556
1.250000000000000888,0.094672024029831991
1.251000000000000778,0.094119079301079947
1.252000000000000890,0.093567906622130423
1.253000000000001002,0.093018499922338987
1.254000000000000892,0.092470853164468597
1.255000000000000782,0.091924960344443474
1.256000000000000894,0.091380815491076836
1.257000000000001005,0.090838412665818033
1.258000000000000895,0.090297745962495332
1.259000000000000785,0.089758809507059972
1.260000000000000897,0.089221597457340179
1.261000000000001009,0.088686104002780472
1.262000000000000899,0.088152323364206503
1.263000000000000789,0.087620249793568361
1.264000000000000901,0.087089877573698904
1.265000000000001013,0.086561201018078709
1.266000000000000902,0.086034214470584389
1.267000000000000792,0.085508912305259616
1.268000000000000904,0.084985288926071934
1.269000000000001016,0.084463338766684104
1.270000000000000906,0.083943056290214008
1.271000000000000796,0.083424435989010851
1.272000000000000908,0.082907472384425349
1.273000000000001020,0.082392160026576206
1.274000000000000909,0.081878493494131788
1.275000000000000799,0.081366467394086067
1.276000000000000911,0.080856076361528945
1.277000000000001023,0.080347315059437305
1.278000000000000913,0.079840178178453153
1.279000000000000803,0.079334660436659016
1.280000000000000915,0.078830756579372940
1.281000000000001027,0.078328461378938383
1.282000000000000917,0.077827769634499402
1.283000000000000806,0.077328676171805305
1.284000000000000918,0.076831175842990956
1.285000000000001030,0.076335263526382729
1.286000000000000920,0.075840934126283857
1.287000000000000810,0.075348182572779018
1.288000000000000922,0.074857003821524715
1.289000000000001034,0.074367392853559672
1.290000000000000924,0.073879344675105443
1.291000000000000814,0.073392854317357842
1.292000000000000925,0.072907916836315062
1.293000000000001037,0.072424527312559939
1.294000000000000927,0.071942680851083601
1.295000000000000817,0.071462372581099554
1.296000000000000929,0.070983597655837227
1.297000000000001041,0.070506351252375282
1.298000000000000931,0.070030628571443446
1.299000000000000821,0.069556424837241532
1.300000000000000933,0.069083735297264165
1.301000000000001044,0.068612555222110919
1.302000000000000934,0.068142879905314729
1.303000000000000824,0.067674704663153534
1.304000000000000936,0.067208024834492203
1.305000000000001048,0.066742835780588677
1.306000000000000938,0.066279132884932840
1.307000000000000828,0.065816911553071331
1.308000000000000940,0.065356167212438088
1.309000000000001052,0.064896895312180472
1.310000000000000941,0.064439091323001407
1.311000000000000831,0.063982750736981703
1.312000000000000943,0.063527869067429951
1.313000000000001055,0.063074441848700952
1.314000000000000945,0.062622464636049910
1.315000000000000835,0.062171933005466751
1.316000000000000947,0.061722842553509884
1.317000000000001059,0.061275188897156975
1.318000000000000949,0.060828967673651459
1.319000000000000838,0.060384174540330494
1.320000000000000950,0.059940805174489284
1.321000000000001062,0.059498855273220741
1.322000000000000952,0.059058320553260865
1.323000000000000842,0.058619196750847910
1.324000000000000954,0.058181479621564301
1.325000000000001066,0.057745164940195860
1.326000000000000956,0.057310248500580016
1.327000000000000846,0.056876726115465695
1.328000000000000957,0.056444593616364683
1.329000000000001069,0.056013846853416573
1.330000000000000959,0.055584481695237761
1.331000000000000849,0.055156494028786231
1.332000000000000961,0.054729879759228106
1.333000000000001073,0.054304634809791474
1.334000000000000963,0.053880755121630861
1.335000000000000853,0.053458236653695625
1.336000000000000965,0.053037075382594681
1.337000000000001076,0.052617267302459539
1.338000000000000966,0.052198808424820234
1.339000000000000856,0.051781694778465524
1.340000000000000968,0.051365922409318712
1.341000000000001080,0.050951487380309635
1.342000000000000970,0.050538385771244941
1.343000000000000860,0.050126613678678197
1.344000000000000972,0.049716167215795103
1.345000000000001084,0.049307042512277501
1.346000000000000973,0.048899235714188839
1.347000000000000863,0.048492742983845802
1.348000000000000975,0.048087560499705050
1.349000000000001087,0.047683684456237253
1.350000000000000977,0.047281111063805059
1.351000000000000867,0.046879836548553044
1.352000000000000979,0.046479857152293066
1.353000000000001091,0.046081169132373888
1.354000000000000981,0.045683768761579938
1.355000000000000870,0.045287652328013780
1.356000000000000982,0.044892816134981306
1.357000000000001094,0.044499256500880470
1.358000000000000984,0.044106969759092153
1.359000000000000874,0.043715952257869742
1.360000000000000986,0.043326200360231423
1.361000000000001098,0.042937710443844299
1.362000000000000988,0.042550478900929022
1.363000000000000878,0.042164502138149117
1.364000000000000989,0.041779776576497410
1.365000000000001101,0.041396298651208828
1.366000000000000991,0.041014064811642902
1.367000000000000881,0.040633071521185241
1.368000000000000993,0.040253315257148148
1.369000000000001105,0.039874792510668458
1.370000000000000995,0.039497499786607708
1.371000000000000885,0.039121433603454429
1.372000000000000997,0.038746590493224646
1.373000000000001108,0.038372967001363903
1.374000000000000998,0.038000559686658164
1.375000000000000888,0.037629365121125594
1.376000000000001000,0.037259379889930555
1.377000000000001112,0.036890600591295251
1.378000000000001002,0.036523023836391139
1.379000000000000892,0.036156646249261626
1.380000000000001004,0.035791464466723676
1.381000000000001116,0.035427475138275537
1.382000000000001005,0.035064674926014359
1.383000000000000895,0.034703060504541521
1.384000000000001007,0.034342628560876109
1.385000000000001119,0.033983375794369310
1.386000000000001009,0.033625298916611576
1.387000000000000899,0.033268394651362408
1.388000000000001011,0.032912659734439999
1.389000000000001123,0.032558090913662671
1.390000000000001013,0.032204684948751408
1.391000000000000902,0.031852438611249416
1.392000000000001014,0.031501348684443972
1.393000000000001126,0.031151411963278659
1.394000000000001016,0.030802625254276277
1.395000000000000906,0.030454985375462117
1.396000000000001018,0.030108489156281039
1.397000000000001130,0.029763133437518553
1.398000000000001020,0.029418915071226254
1.399000000000000909,0.029075830920642486
1.400000000000001021,0.028733877860118308
1.401000000000001133,0.028393052775036658
1.402000000000001023,0.028053352561745144
1.403000000000000913,0.027714774127479719
1.404000000000001025,0.027377314390281536
1.405000000000001137,0.027040970278940379
1.406000000000001027,0.026705738732910163
1.407000000000000917,0.026371616702237477
1.408000000000001029,0.026038601147500912
1.409000000000001140,0.025706689039731577
1.410000000000001030,0.025375877360343475
1.411000000000000920,0.025046163101069607
1.412000000000001032,0.024717543263891757
1.413000000000001144,0.024390014860966695
1.414000000000001034,0.024063574914571641
1.415000000000000924,0.023738220457025956
1.416000000000001036,0.023413948530627490
1.417000000000001148,0.023090756187590669
1.418000000000001037,0.022768640489982363
1.419000000000000927,0.022447598509654585
1.420000000000001039,0.022127627328180258
1.421000000000001151,0.021808724036790978
1.422000000000001041,0.021490885736320013
1.423000000000000931,0.021174109537130604
1.424000000000001043,0.020858392559060367
1.425000000000001155,0.020543731931363652
1.426000000000001044,0.020230124792642579
1.427000000000000934,0.019917568290795828
1.428000000000001046,0.019606059582953576
1.429000000000001158,0.019295595835424905
1.430000000000001048,0.018986174223629384
1.431000000000000938,0.018677791932055578
1.432000000000001050,0.018370446154187859
1.433000000000001162,0.018064134092456829
1.434000000000001052,0.017758852958188201
1.435000000000000941,0.017454599971536845
1.436000000000001053,0.017151372361442329
1.437000000000001165,0.016849167365567179
1.438000000000001055,0.016547982230244750
1.439000000000000945,0.016247814210428150
1.440000000000001057,0.015948660569632810
1.441000000000001169,0.015650518579890048
1.442000000000001059,0.015353385521690846
1.443000000000000949,0.015057258683932184
1.444000000000001060,0.014762135363872464
1.445000000000001172,0.014468012867078144
1.446000000000001062,0.014174888507366973
1.447000000000000952,0.013882759606770923
1.448000000000001064,0.013591623495476846
1.449000000000001176,0.013301477511780940
1.450000000000001066,0.013012319002040810
1.451000000000000956,0.012724145320629848
1.452000000000001068,0.012436953829883784
1.453000000000001180,0.012150741900058720
1.454000000000001069,0.011865506909286075
1.455000000000000959,0.011581246243517697
1.456000000000001071,0.011297957296489839
1.457000000000001183,0.011015637469672592
1.458000000000001073,0.010734284172225573
1.459000000000000963,0.010453894820956745
1.460000000000001075,0.010174466840273825
1.461000000000001187,0.009895997662143061
1.462000000000001076,0.009618484726044148
1.463000000000000966,0.009341925478931808
1.464000000000001078,0.009066317375186697
1.465000000000001190,0.008791657876580180
1.466000000000001080,0.008517944452225501
1.467000000000000970,0.008245174578544210
1.468000000000001082,0.007973345739216830
1.469000000000001194,0.007702455425152360
1.470000000000001084,0.007432501134438710
1.471000000000000973,0.007163480372307790
1.472000000000001085,0.006895390651091371
1.473000000000001197,0.006628229490193436
1.474000000000001087,0.006361994416034303
1.475000000000000977,0.006096682962029386
1.476000000000001089,0.005832292668539565
1.477000000000001201,0.005568821082835726
1.478000000000001091,0.005306265759065958
1.479000000000000981,0.005044624258215164
1.480000000000001092,0.004783894148067446
1.481000000000001204,0.004524073003173242
1.482000000000001094,0.004265158404809034
1.483000000000000984,0.004007147940942021
1.484000000000001096,0.003750039206203241
1.485000000000001208,0.003493829801841525
1.486000000000001098,0.003238517335692985
1.487000000000000988,0.002984099422149335
1.488000000000001100,0.002730573682120816
1.489000000000001211,0.002477937743001991
1.490000000000001101,0.002226189238640425
1.491000000000000991,0.001975325809302890
1.492000000000001103,0.001725345101642797
1.493000000000001215,0.001476244768663576
1.494000000000001105,0.001228022469696095
1.495000000000000995,0.000980675870357363
1.496000000000001107,0.000734202642522048
1.497000000000001219,0.000488600464290908
1.498000000000001108,0.000243867019963046
1.499000000000000998,0.000000000000000000
