# AuFCC100-Ablate75_CS-110510-AC
# h[nm],U(h)[kJ/mol]
0.149999999999999994,113.542503880446744802
0.150999999999999995,111.421730516212818429
0.151999999999999996,107.420361338969172493
0.152999999999999997,103.052871638046141811
0.153999999999999998,98.914761313059528902
0.154999999999999999,95.146257666822023680
0.156000000000000000,91.693167317356028434
0.157000000000000001,88.444219619915429575
0.158000000000000002,85.295825230883963286
0.159000000000000002,82.176252909749834430
0.160000000000000003,79.048798594952728536
0.161000000000000004,75.905488767527884875
0.162000000000000005,72.757775132719373801
0.163000000000000006,69.627542967647315209
0.164000000000000007,66.539891608655949540
0.165000000000000008,63.518093783273798181
0.166000000000000009,60.580594794325222097
0.167000000000000010,57.739671666298661989
0.168000000000000010,55.001306244616877450
0.169000000000000011,52.365852816046199791
0.170000000000000012,49.829149853678970317
0.171000000000000013,47.383807553666414947
0.172000000000000014,45.020481818468880419
0.173000000000000015,42.729013450592319145
0.174000000000000016,40.499365730693170917
0.175000000000000017,38.322334267644549755
0.176000000000000018,36.190031483675625168
0.177000000000000018,34.096166406405700400
0.178000000000000019,32.036150772044905466
0.179000000000000020,30.007066840183448164
0.180000000000000021,28.007532541242518676
0.181000000000000022,26.037497061459724534
0.182000000000000023,24.097995839961193099
0.183000000000000024,22.190889046731712142
0.184000000000000025,20.318602526836176736
0.185000000000000026,18.483885337112827330
0.186000000000000026,16.689593615903099533
0.187000000000000027,14.938506748202211583
0.188000000000000028,13.233178668499482100
0.189000000000000029,11.575824674488401911
0.190000000000000030,9.968242262301329148
0.191000000000000031,8.411763171479211820
0.192000000000000032,6.907232968338226087
0.193000000000000033,5.455014019892954202
0.194000000000000034,4.055007539959763818
0.195000000000000034,2.706690453584608580
0.196000000000000035,1.409163062733415961
0.197000000000000036,0.161203851401020032
0.198000000000000037,-1.038671802880415829
0.199000000000000038,-2.192151777937735968
0.200000000000000039,-3.301068507812456865
0.201000000000000040,-4.367343264242894207
0.202000000000000041,-5.392934812323949778
0.203000000000000042,-6.379793436940262907
0.204000000000000042,-7.329820984059547406
0.205000000000000043,-8.244837255919064134
0.206000000000000044,-9.126552842026487866
0.207000000000000045,-9.976548257310719592
0.208000000000000046,-10.796259091942166819
0.209000000000000047,-11.586966750627398781
0.210000000000000048,-12.349794268364869154
0.211000000000000049,-13.085706630260668604
0.212000000000000050,-13.795514990550467260
0.213000000000000050,-14.479884176078403613
0.214000000000000051,-15.139342868023561550
0.215000000000000052,-15.774295878831225082
0.216000000000000053,-16.385037975665461829
0.217000000000000054,-16.971768744210777413
0.218000000000000055,-17.534608034667854781
0.219000000000000056,-18.073611583054709939
0.220000000000000057,-18.588786453554110523
0.221000000000000058,-19.080106000086750839
0.222000000000000058,-19.547524096310695541
0.223000000000000059,-19.990988431883010890
0.224000000000000060,-20.410452718363224278
0.225000000000000061,-20.805887690086919406
0.226000000000000062,-21.177290823370803707
0.227000000000000063,-21.524694731362380651
0.228000000000000064,-21.848174221672369555
0.229000000000000065,-22.147852029687886244
0.230000000000000066,-22.423903262291695171
0.231000000000000066,-22.676558604810189479
0.232000000000000067,-22.906106358617428498
0.233000000000000068,-23.112893388209169387
0.234000000000000069,-23.297325065017219003
0.235000000000000070,-23.459864301059390357
0.236000000000000071,-23.601029769012185966
0.237000000000000072,-23.721393406745370669
0.238000000000000073,-23.821577304051050561
0.239000000000000073,-23.902250067501558561
0.240000000000000074,-23.964122756333186004
0.241000000000000075,-24.007944478204940708
0.242000000000000076,-24.034497728835798824
0.243000000000000077,-24.044593554072569930
0.244000000000000078,-24.039066607052493652
0.245000000000000079,-24.018770166951547651
0.246000000000000080,-23.984571179484220238
0.247000000000000081,-23.937345372955295630
0.248000000000000081,-23.877972497357237813
0.249000000000000082,-23.807331727837969026
0.250000000000000111,-23.726297267901369281
0.251000000000000112,-23.635734181998003578
0.252000000000000113,-23.536494481761472741
0.253000000000000114,-23.429413485073087742
0.254000000000000115,-23.315306462421041545
0.255000000000000115,-23.194965580669581584
0.256000000000000116,-23.069157150378341470
0.257000000000000117,-22.938619179211052312
0.258000000000000118,-22.804059230742819153
0.259000000000000119,-22.666152585106843276
0.260000000000000120,-22.525540695403940106
0.261000000000000121,-22.382829931614551811
0.262000000000000122,-22.238590601889381304
0.263000000000000123,-22.093356239529377660
0.264000000000000123,-21.947623142682363806
0.265000000000000124,-21.801850152759080004
0.266000000000000125,-21.656458656787592076
0.267000000000000126,-21.511832798359588281
0.268000000000000127,-21.368319881456102394
0.269000000000000128,-21.226230951253214130
0.270000000000000129,-21.085841535981263206
0.271000000000000130,-20.947392534025716770
0.272000000000000131,-20.811091230696739274
0.273000000000000131,-20.677112429440864361
0.274000000000000132,-20.545599682706615852
0.275000000000000133,-20.416666608192151955
0.276000000000000134,-20.290398276783161435
0.277000000000000135,-20.166852659121495606
0.278000000000000136,-20.046062118417374620
0.279000000000000137,-19.928034937820985562
0.280000000000000138,-19.812756871392856795
0.281000000000000139,-19.700192708448376777
0.282000000000000139,-19.590287841793404766
0.283000000000000140,-19.482969831107070036
0.284000000000000141,-19.378149953460670929
0.285000000000000142,-19.275724733681300904
0.286000000000000143,-19.175577447972347755
0.287000000000000144,-19.077579594885751391
0.288000000000000145,-18.981592328401209357
0.289000000000000146,-18.887467848500641310
0.290000000000000147,-18.795050745232853018
0.291000000000000147,-18.704179292839448578
0.292000000000000148,-18.614686691059759482
0.293000000000000149,-18.526402251247077402
0.294000000000000150,-18.439152525411824257
0.295000000000000151,-18.352762376759237384
0.296000000000000152,-18.267055990708389146
0.297000000000000153,-18.181857825768808823
0.298000000000000154,-18.096993504008182185
0.299000000000000155,-18.012290641173184014
0.300000000000000155,-17.927579616823937414
0.301000000000000156,-17.842694285113427810
0.302000000000000157,-17.757472627086766437
0.303000000000000158,-17.671757345592723709
0.304000000000000159,-17.585396404093042833
0.305000000000000160,-17.498243510823908053
0.306000000000000161,-17.410158549911557202
0.307000000000000162,-17.321007961169648581
0.308000000000000163,-17.230665070412413797
0.309000000000000163,-17.139010372205660815
0.310000000000000164,-17.045931767048223548
0.311000000000000165,-16.951324755031087932
0.312000000000000166,-16.855092588061612702
0.313000000000000167,-16.757146382766308079
0.314000000000000168,-16.657405196199778885
0.315000000000000169,-16.555796066489602225
0.316000000000000170,-16.452254020539431423
0.317000000000000171,-16.346722050895206024
0.318000000000000171,-16.239151063853736190
0.319000000000000172,-16.129499800860084946
0.320000000000000173,-16.017734735200406249
0.321000000000000174,-15.903829945951258651
0.322000000000000175,-15.787766971096155899
0.323000000000000176,-15.669534641664942143
0.324000000000000177,-15.549128898693222567
0.325000000000000178,-15.426552594737064084
0.326000000000000179,-15.301815281614540964
0.327000000000000179,-15.174932985979060263
0.328000000000000180,-15.045927974261966042
0.329000000000000181,-14.914828508453615186
0.330000000000000182,-14.781668594122066906
0.331000000000000183,-14.646487721999823961
0.332000000000000184,-14.509330604399128362
0.333000000000000185,-14.370246907647295842
0.334000000000000186,-14.229290981665490889
0.335000000000000187,-14.086521587746352324
0.336000000000000187,-13.942001625520083152
0.337000000000000188,-13.795797860033033544
0.338000000000000189,-13.647980649799697161
0.339000000000000190,-13.498623676626802848
0.340000000000000191,-13.347803677947842615
0.341000000000000192,-13.195600182348758977
0.342000000000000193,-13.042095248907884297
0.343000000000000194,-12.887373210920094024
0.344000000000000195,-12.731520424521615809
0.345000000000000195,-12.574625022682534237
0.346000000000000196,-12.416776674985271711
0.347000000000000197,-12.258066353561499540
0.348000000000000198,-12.098586105516114131
0.349000000000000199,-11.938428832124790446
0.350000000000000200,-11.777688075052431316
0.351000000000000201,-11.616457809801646661
0.352000000000000202,-11.454832246565413101
0.353000000000000203,-11.292905638624180398
0.354000000000000203,-11.130772098396265690
0.355000000000000204,-10.968525421220835625
0.356000000000000205,-10.806258916925028046
0.357000000000000206,-10.644065249200860279
0.358000000000000207,-10.482036282793460558
0.359000000000000208,-10.320262938479947579
0.360000000000000209,-10.158835055797393210
0.361000000000000210,-9.997841263459303462
0.362000000000000210,-9.837368857382482901
0.363000000000000211,-9.677503686230053859
0.364000000000000212,-9.518330044361874798
0.365000000000000213,-9.359930572070032540
0.366000000000000214,-9.202386162965463967
0.367000000000000215,-9.045775878370607259
0.368000000000000216,-8.890176868563791857
0.369000000000000217,-8.735664300712205232
0.370000000000000218,-8.582311293323238388
0.371000000000000218,-8.430188857037274275
0.372000000000000219,-8.279365841579732432
0.373000000000000220,-8.129908888685459800
0.374000000000000221,-7.981882390804946326
0.375000000000000222,-7.835348455398682965
0.376000000000000223,-7.690366874623899562
0.377000000000000224,-7.546995100216328467
0.378000000000000225,-7.405288223368698297
0.379000000000000226,-7.265298959407312296
0.380000000000000226,-7.127077637068450322
0.381000000000000227,-6.990672192176785593
0.382000000000000228,-6.856128165529514540
0.383000000000000229,-6.723488704791368953
0.384000000000000230,-6.592794570207597182
0.385000000000000231,-6.464084143944711869
0.386000000000000232,-6.337393442871179339
0.387000000000000233,-6.212756134593378832
0.388000000000000234,-6.090203556565409571
0.389000000000000234,-5.969764738094933243
0.390000000000000235,-5.851466425070612765
0.391000000000000236,-5.735333107241131323
0.392000000000000237,-5.621387047879259136
0.393000000000000238,-5.509648315669141816
0.394000000000000239,-5.400134818658887781
0.395000000000000240,-5.292862340125235043
0.396000000000000241,-5.187844576201396940
0.397000000000000242,-5.085093175123756026
0.398000000000000242,-4.984617777957792484
0.399000000000000243,-4.886426060668108029
0.400000000000000244,-4.790523777401970662
0.401000000000000245,-4.696914804860896631
0.402000000000000246,-4.605601187638809435
0.403000000000000247,-4.516583184410318808
0.404000000000000248,-4.429859314857227837
0.405000000000000249,-4.345426407225771115
0.406000000000000250,-4.263279646411693768
0.407000000000000250,-4.183412622474729226
0.408000000000000251,-4.105817379488300389
0.409000000000000252,-4.030484464634844777
0.410000000000000253,-3.957402977461005555
0.411000000000000254,-3.886560619211554268
0.412000000000000255,-3.817943742164577436
0.413000000000000256,-3.751537398894787767
0.414000000000000257,-3.687325391395428476
0.415000000000000258,-3.625290319993326627
0.416000000000000258,-3.565413631995151267
0.417000000000000259,-3.507675670006663804
0.418000000000000260,-3.452055719870259054
0.419000000000000261,-3.398532058169408288
0.420000000000000262,-3.347081999252130124
0.421000000000000263,-3.297681941728671351
0.422000000000000264,-3.250307414401679473
0.423000000000000265,-3.204933121590276990
0.424000000000000266,-3.161532987812351259
0.425000000000000266,-3.120080201792016616
0.426000000000000267,-3.080547259762075107
0.427000000000000268,-3.042906008033910759
0.428000000000000269,-3.007127684809629553
0.429000000000000270,-2.973182961213781006
0.430000000000000271,-2.941041981524316729
0.431000000000000272,-2.910674402584549902
0.432000000000000273,-2.882049432380141774
0.433000000000000274,-2.855135867767064184
0.434000000000000274,-2.829902131338541516
0.435000000000000275,-2.806316307420688272
0.436000000000000276,-2.784346177188485871
0.437000000000000277,-2.763959252895300089
0.438000000000000278,-2.745122811210815694
0.439000000000000279,-2.727803925663784490
0.440000000000000280,-2.711969498187390748
0.441000000000000281,-2.697586289766389367
0.442000000000000282,-2.684620950186634936
0.443000000000000282,-2.673040046888536914
0.444000000000000283,-2.662810092927469618
0.445000000000000284,-2.653897574044997931
0.446000000000000285,-2.646268974855881417
0.447000000000000286,-2.639890804156904913
0.448000000000000287,-2.634729619364194697
0.449000000000000288,-2.630752050086839322
0.450000000000000289,-2.627924820845188414
0.451000000000000290,-2.626214772942998987
0.452000000000000290,-2.625588885503317815
0.453000000000000291,-2.626014295678535948
0.454000000000000292,-2.627458318045675423
0.455000000000000293,-2.629888463198476689
0.456000000000000294,-2.633272455548349100
0.457000000000000295,-2.637578250346625630
0.458000000000000296,-2.642774049941112313
0.459000000000000297,-2.648828319280037924
0.460000000000000298,-2.655709800677144905
0.461000000000000298,-2.663387527851544867
0.462000000000000299,-2.671830839256691181
0.463000000000000300,-2.681009390712564056
0.464000000000000301,-2.690893167355710602
0.465000000000000302,-2.701452494921693148
0.466000000000000303,-2.712658050374841423
0.467000000000000304,-2.724480871900042622
0.468000000000000305,-2.736892368271663933
0.469000000000000306,-2.749864327614525372
0.470000000000000306,-2.763368925571980217
0.471000000000000307,-2.777378732896130575
0.472000000000000308,-2.791866722475245588
0.473000000000000309,-2.806806275813320539
0.474000000000000310,-2.822171188976673850
0.475000000000000311,-2.837935678022632580
0.476000000000000312,-2.854074383924829483
0.477000000000000313,-2.870562377010036137
0.478000000000000314,-2.887375160920927275
0.479000000000000314,-2.904488676119352242
0.480000000000000315,-2.921879302944305756
0.481000000000000316,-2.939523864238863915
0.482000000000000317,-2.957399627559998301
0.483000000000000318,-2.975484306985140215
0.484000000000000319,-2.993756064529130789
0.485000000000000320,-3.012193511185041306
0.486000000000000321,-3.030775707602109570
0.487000000000000322,-3.049482164413876539
0.488000000000000322,-3.068292842229413342
0.489000000000000323,-3.087188151300224170
0.490000000000000324,-3.106148950875364356
0.491000000000000325,-3.125156548256915023
0.492000000000000326,-3.144192697567844252
0.493000000000000327,-3.163239598244003581
0.494000000000000328,-3.182279893261836357
0.495000000000000329,-3.201296667113067151
0.496000000000000330,-3.220273443537458036
0.497000000000000330,-3.239194183024492357
0.498000000000000331,-3.258043280094567784
0.499000000000000332,-3.276805560370042336
0.500000000000000333,-3.295466277446318593
0.501000000000000334,-3.314011109572830627
0.502000000000000335,-3.332426156153569075
0.503000000000000336,-3.350697934076583895
0.504000000000000337,-3.368813373881672568
0.505000000000000338,-3.386759815775146620
0.506000000000000338,-3.404525005500437906
0.507000000000000339,-3.422097090073030756
0.508000000000000340,-3.439464613387952063
0.509000000000000341,-3.456616511707852002
0.510000000000000342,-3.473542109039511327
0.511000000000000343,-3.490231112406307457
0.512000000000000344,-3.506673607024049399
0.513000000000000345,-3.522860051387259883
0.514000000000000346,-3.538781272272924383
0.515000000000000346,-3.554428459668317775
0.516000000000000347,-3.569793161629487344
0.517000000000000348,-3.584867279076673352
0.518000000000000349,-3.599643060532732530
0.519000000000000350,-3.614113096810494419
0.520000000000000351,-3.628270315654758882
0.521000000000000352,-3.642107976344388653
0.522000000000000353,-3.655619664259845969
0.523000000000000353,-3.668799285421322054
0.524000000000000354,-3.681641061002358217
0.525000000000000355,-3.694139521823759598
0.526000000000000356,-3.706289502832365912
0.527000000000000357,-3.718086137569105887
0.528000000000000358,-3.729524852630638154
0.529000000000000359,-3.740601362128518126
0.530000000000000360,-3.751311662149980464
0.531000000000000361,-3.761652025223977347
0.532000000000000361,-3.771618994796161140
0.533000000000000362,-3.781209379716183427
0.534000000000000363,-3.790420248740714815
0.535000000000000364,-3.799248925055271009
0.536000000000000365,-3.807692980817913853
0.537000000000000366,-3.815750231727701447
0.538000000000000367,-3.823418731620630062
0.539000000000000368,-3.830696767095722155
0.540000000000000369,-3.837582852173709203
0.541000000000000369,-3.844075722990734967
0.542000000000000370,-3.850174332529294752
0.543000000000000371,-3.855877845388548941
0.544000000000000372,-3.861185632596066508
0.545000000000000373,-3.866097266462856119
0.546000000000000374,-3.870612515483551341
0.547000000000000375,-3.874731339283373099
0.548000000000000376,-3.878453883613575126
0.549000000000000377,-3.881780475396752195
0.550000000000000377,-3.884711617823519703
0.551000000000000378,-3.887247985501802727
0.552000000000000379,-3.889390419660027298
0.553000000000000380,-3.891139923405285028
0.554000000000000381,-3.892497657037567116
0.555000000000000382,-3.893464933421061147
0.556000000000000383,-3.894043213413317606
0.557000000000000384,-3.894234101353220900
0.558000000000000385,-3.894039340608418165
0.559000000000000385,-3.893460809182943017
0.560000000000000386,-3.892500515385590720
0.561000000000000387,-3.891160593559635394
0.562000000000000388,-3.889443299874333348
0.563000000000000389,-3.887351008178648648
0.564000000000000390,-3.884886205917537971
0.565000000000000391,-3.882051490111128711
0.566000000000000392,-3.878849563397011480
0.567000000000000393,-3.875283230135852186
0.568000000000000393,-3.871355392580464461
0.569000000000000394,-3.867069047108433466
0.570000000000000395,-3.862427280518387906
0.571000000000000396,-3.857433266389824755
0.572000000000000397,-3.852090261506566637
0.573000000000000398,-3.846401602343699544
0.574000000000000399,-3.840370701617884297
0.575000000000000400,-3.834001044900920530
0.576000000000000401,-3.827296187296322039
0.577000000000000401,-3.820259750178746749
0.578000000000000402,-3.812895417995949110
0.579000000000000403,-3.805206935133028878
0.580000000000000404,-3.797198102838631684
0.581000000000000405,-3.788872776212758087
0.582000000000000406,-3.780234861255828527
0.583000000000000407,-3.771288311978561403
0.584000000000000408,-3.762037127572324557
0.585000000000000409,-3.752485349639423706
0.586000000000000409,-3.742637059482929462
0.587000000000000410,-3.732496375455557569
0.588000000000000411,-3.722067450367033903
0.589000000000000412,-3.711354468949524144
0.590000000000000413,-3.700361645380497500
0.591000000000000414,-3.689093220862516453
0.592000000000000415,-3.677553461259409406
0.593000000000000416,-3.665746654788159198
0.594000000000000417,-3.653677109766013675
0.595000000000000417,-3.641349152412157508
0.596000000000000418,-3.628767124703300873
0.597000000000000419,-3.615935382282656096
0.598000000000000420,-3.602858292421539765
0.599000000000000421,-3.589540232033070932
0.600000000000000422,-3.575985585737233130
0.601000000000000423,-3.562198743976671356
0.602000000000000424,-3.548184101182570771
0.603000000000000425,-3.533946053989939884
0.604000000000000425,-3.519488999501580118
0.605000000000000426,-3.504817333600141804
0.606000000000000427,-3.489935449307524973
0.607000000000000428,-3.474847735190935261
0.608000000000000429,-3.459558573814967897
0.609000000000000430,-3.444072340238937269
0.610000000000000431,-3.428393400558873871
0.611000000000000432,-3.412526110493369291
0.612000000000000433,-3.396474814012690135
0.613000000000000433,-3.380243842010401956
0.614000000000000434,-3.363837511016843251
0.615000000000000435,-3.347260121953714140
0.616000000000000436,-3.330515958929163300
0.617000000000000437,-3.313609288072630221
0.618000000000000438,-3.296544356408765530
0.619000000000000439,-3.279325390769754822
0.620000000000000440,-3.261956596745384296
0.621000000000000441,-3.244442157670130111
0.622000000000000441,-3.226786233646644853
0.623000000000000442,-3.208992960604920341
0.624000000000000443,-3.191066449396517068
0.625000000000000444,-3.173010784923165684
0.626000000000000445,-3.154830025299071306
0.627000000000000446,-3.136528201046316244
0.628000000000000447,-3.118109314322671910
0.629000000000000448,-3.099577338181206176
0.630000000000000449,-3.080936215861004079
0.631000000000000449,-3.062189860108444073
0.632000000000000450,-3.043342152528346389
0.633000000000000451,-3.024396942964399315
0.634000000000000452,-3.005358048908243873
0.635000000000000453,-2.986229254936596966
0.636000000000000454,-2.967014312175853430
0.637000000000000455,-2.947716937793527503
0.638000000000000456,-2.928340814515969726
0.639000000000000457,-2.908889590171773953
0.640000000000000457,-2.889366877260305166
0.641000000000000458,-2.869776252544751216
0.642000000000000459,-2.850121256669209124
0.643000000000000460,-2.830405393799153568
0.644000000000000461,-2.810632131284825252
0.645000000000000462,-2.790804899346964962
0.646000000000000463,-2.770927090784334634
0.647000000000000464,-2.751002060702564034
0.648000000000000465,-2.731033126263750166
0.649000000000000465,-2.711023566456309375
0.650000000000000466,-2.690976621884611397
0.651000000000000467,-2.670895494577841589
0.652000000000000468,-2.650783347817662339
0.653000000000000469,-2.630643305984121660
0.654000000000000470,-2.610478454419436378
0.655000000000000471,-2.590291839309055710
0.656000000000000472,-2.570086467579650424
0.657000000000000473,-2.549865306813513310
0.658000000000000473,-2.529631285178951750
0.659000000000000474,-2.509387291376229179
0.660000000000000475,-2.489136174598615803
0.661000000000000476,-2.468880744508116010
0.662000000000000477,-2.448623771225497237
0.663000000000000478,-2.428367985334148216
0.664000000000000479,-2.408116077897415330
0.665000000000000480,-2.387870700488978759
0.666000000000000481,-2.367634465235941565
0.667000000000000481,-2.347409944874135679
0.668000000000000482,-2.327199672815413400
0.669000000000000483,-2.307006143226442596
0.670000000000000484,-2.286831811118682278
0.671000000000000485,-2.266679092449197519
0.672000000000000486,-2.246550364231927777
0.673000000000000487,-2.226447964659134193
0.674000000000000488,-2.206374193232577774
0.675000000000000488,-2.186331310904210845
0.676000000000000489,-2.166321540226015863
0.677000000000000490,-2.146347065508634078
0.678000000000000491,-2.126410032988547361
0.679000000000000492,-2.106512551003459688
0.680000000000000493,-2.086656690175583417
0.681000000000000494,-2.066844483602564342
0.682000000000000495,-2.047077927055717783
0.683000000000000496,-2.027358979185360788
0.684000000000000496,-2.007689561732874939
0.685000000000000497,-1.988071559749329920
0.686000000000000498,-1.968506821820313224
0.687000000000000499,-1.948997160296791931
0.688000000000000500,-1.929544351531680135
0.689000000000000501,-1.910150136121918418
0.690000000000000502,-1.890816219155820432
0.691000000000000503,-1.871544270465400617
0.692000000000000504,-1.852335924883517837
0.693000000000000504,-1.833192782505593810
0.694000000000000505,-1.814116408955624760
0.695000000000000506,-1.795108335656385945
0.696000000000000507,-1.776170060103499537
0.697000000000000508,-1.757303046143247727
0.698000000000000509,-1.738508724253908344
0.699000000000000510,-1.719788491830360311
0.700000000000000511,-1.701143713471890750
0.701000000000000512,-1.682575721272869584
0.702000000000000512,-1.664085815116247646
0.703000000000000513,-1.645675262969597430
0.704000000000000514,-1.627345301183591886
0.705000000000000515,-1.609097134792708328
0.706000000000000516,-1.590931937818034214
0.707000000000000517,-1.572850853571964302
0.708000000000000518,-1.554854994964689929
0.709000000000000519,-1.536945444812300332
0.710000000000000520,-1.519123256146320378
0.711000000000000520,-1.501389452524617640
0.712000000000000521,-1.483745028343448791
0.713000000000000522,-1.466190949150580014
0.714000000000000523,-1.448728151959323807
0.715000000000000524,-1.431357545563335387
0.716000000000000525,-1.414080010852113212
0.717000000000000526,-1.396896401126996867
0.718000000000000527,-1.379807542417620603
0.719000000000000528,-1.362814233798647745
0.720000000000000528,-1.345917247706740483
0.721000000000000529,-1.329117330257561402
0.722000000000000530,-1.312415201562820988
0.723000000000000531,-1.295811556047160140
0.724000000000000532,-1.279307062764840630
0.725000000000000533,-1.262902365716126685
0.726000000000000534,-1.246598084163241360
0.727000000000000535,-1.230394812945850180
0.728000000000000536,-1.214293122795956581
0.729000000000000536,-1.198293560652125889
0.730000000000000537,-1.182396649972988545
0.731000000000000538,-1.166602891049878243
0.732000000000000539,-1.150912761318619193
0.733000000000000540,-1.135326715670292419
0.734000000000000541,-1.119845186760994649
0.735000000000000542,-1.104468585320455665
0.736000000000000543,-1.089197300459514128
0.737000000000000544,-1.074031699976295773
0.738000000000000544,-1.058972130661155031
0.739000000000000545,-1.044018918600189583
0.740000000000000546,-1.029172369477384885
0.741000000000000547,-1.014432768875246582
0.742000000000000548,-0.999800382573949320
0.743000000000000549,-0.985275456848863307
0.744000000000000550,-0.970858218766472825
0.745000000000000551,-0.956548876478642951
0.746000000000000552,-0.942347619515127688
0.747000000000000552,-0.928254619074366238
0.748000000000000553,-0.914270028312439864
0.749000000000000554,-0.900393982630195211
0.750000000000000555,-0.886626599958523998
0.751000000000000556,-0.872967981041681940
0.752000000000000557,-0.859418209718701753
0.753000000000000558,-0.845977353202794546
0.754000000000000559,-0.832645462358775568
0.755000000000000560,-0.819422571978419612
0.756000000000000560,-0.806308701053779386
0.757000000000000561,-0.793303853048381691
0.758000000000000562,-0.780408016166326268
0.759000000000000563,-0.767621163619248592
0.760000000000000564,-0.754943253891104060
0.761000000000000565,-0.742374231000781259
0.762000000000000566,-0.729914024762501668
0.763000000000000567,-0.717562551044024000
0.764000000000000568,-0.705319712022575040
0.765000000000000568,-0.693185396438563473
0.766000000000000569,-0.681159479847005755
0.767000000000000570,-0.669241824866679602
0.768000000000000571,-0.657432281426977072
0.769000000000000572,-0.645730687012468829
0.770000000000000573,-0.634136866905146257
0.771000000000000574,-0.622650634424338101
0.772000000000000575,-0.611271791164311851
0.773000000000000576,-0.600000127229507241
0.774000000000000576,-0.588835421467463704
0.775000000000000577,-0.577777441699383498
0.776000000000000578,-0.566825944948315397
0.777000000000000579,-0.555980677665044221
0.778000000000000580,-0.545241375951550866
0.779000000000000581,-0.534607765782164845
0.780000000000000582,-0.524079563222317857
0.781000000000000583,-0.513656474644975325
0.782000000000000584,-0.503338196944658867
0.783000000000000584,-0.493124417749144672
0.784000000000000585,-0.483014815628795280
0.785000000000000586,-0.473009060303515638
0.786000000000000587,-0.463106812847388638
0.787000000000000588,-0.453307725890937874
0.788000000000000589,-0.443611443821042506
0.789000000000000590,-0.434017602978543415
0.790000000000000591,-0.424525831853472813
0.791000000000000592,-0.415135751277996679
0.792000000000000592,-0.405846974617000644
0.793000000000000593,-0.396659107956389201
0.794000000000000594,-0.387571750289062655
0.795000000000000595,-0.378584493698603974
0.796000000000000596,-0.369696923540660805
0.797000000000000597,-0.360908618622079014
0.798000000000000598,-0.352219151377727413
0.799000000000000599,-0.343628088045081492
0.800000000000000600,-0.335134988836562953
0.801000000000000600,-0.326739408109616492
0.802000000000000601,-0.318440894534575691
0.803000000000000602,-0.310238991260306407
0.804000000000000603,-0.302133236077639811
0.805000000000000604,-0.294123161580616410
0.806000000000000605,-0.286208295325537987
0.807000000000000606,-0.278388159987874861
0.808000000000000607,-0.270662273516975138
0.809000000000000608,-0.263030149288675463
0.810000000000000608,-0.255491296255761113
0.811000000000000609,-0.248045219096296454
0.812000000000000610,-0.240691418359882642
0.813000000000000611,-0.233429390611801096
0.814000000000000612,-0.226258628575097653
0.815000000000000613,-0.219178621270616686
0.816000000000000614,-0.212188854154954420
0.817000000000000615,-0.205288809256423566
0.818000000000000616,-0.198477965308988563
0.819000000000000616,-0.191755797884188894
0.820000000000000617,-0.185121779521092100
0.821000000000000618,-0.178575379854276739
0.822000000000000619,-0.172116065739866375
0.823000000000000620,-0.165743301379617985
0.824000000000000621,-0.159456548443090013
0.825000000000000622,-0.153255266187912798
0.826000000000000623,-0.147138911578166692
0.827000000000000624,-0.141106939400882758
0.828000000000000624,-0.135158802380702547
0.829000000000000625,-0.129293951292665021
0.830000000000000626,-0.123511835073212201
0.831000000000000627,-0.117811900929355604
0.832000000000000628,-0.112193594446072173
0.833000000000000629,-0.106656359691903124
0.834000000000000630,-0.101199639322821985
0.835000000000000631,-0.095822874684343098
0.836000000000000631,-0.090525505911913176
0.837000000000000632,-0.085306972029599387
0.838000000000000633,-0.080166711047067379
0.839000000000000634,-0.075104160054915756
0.840000000000000635,-0.070118755318330728
0.841000000000000636,-0.065209932369099180
0.842000000000000637,-0.060377126096020473
0.843000000000000638,-0.055619770833679708
0.844000000000000639,-0.050937300449662527
0.845000000000000639,-0.046329148430168818
0.846000000000000640,-0.041794747964082446
0.847000000000000641,-0.037333532025506731
0.848000000000000642,-0.032944933454765492
0.849000000000000643,-0.028628385037888681
0.850000000000000644,-0.024383319584645190
0.851000000000000645,-0.020209170005043717
0.852000000000000646,-0.016105369384430267
0.853000000000000647,-0.012071351057111008
0.854000000000000647,-0.008106548678565136
0.855000000000000648,-0.004210396296235004
0.856000000000000649,-0.000382328418948633
0.857000000000000650,0.003378219915063821
0.858000000000000651,0.007071813071495782
0.859000000000000652,0.010699014754634611
0.860000000000000653,0.014260387943365416
0.861000000000000654,0.017756494828494479
0.862000000000000655,0.021187896751340814
0.863000000000000655,0.024555154143651746
0.864000000000000656,0.027858826468743179
0.865000000000000657,0.031099472163912241
0.866000000000000658,0.034277648584084969
0.867000000000000659,0.037393911946660210
0.868000000000000660,0.040448817277590414
0.869000000000000661,0.043442918358625349
0.870000000000000662,0.046376767675738451
0.871000000000000663,0.049250916368705086
0.872000000000000663,0.052065914181835593
0.873000000000000664,0.054822309415828649
0.874000000000000665,0.057520648880735270
0.875000000000000666,0.060161477850033410
0.876000000000000667,0.062745340015771894
0.877000000000000668,0.065272777444795191
0.878000000000000669,0.067744330536022870
0.879000000000000670,0.070160537978769769
0.880000000000000671,0.072521936712083693
0.881000000000000671,0.074829061885114984
0.882000000000000672,0.077082446818469458
0.883000000000000673,0.079282622966558428
0.884000000000000674,0.081430119880907731
0.885000000000000675,0.083525465174439747
0.886000000000000676,0.085569184486691915
0.887000000000000677,0.087561801449958995
0.888000000000000678,0.089503837656383992
0.889000000000000679,0.091395812625910511
0.890000000000000679,0.093238243775164056
0.891000000000000680,0.095031646387189334
0.892000000000000681,0.096776533582068530
0.893000000000000682,0.098473416288389043
0.894000000000000683,0.100122803215546979
0.895000000000000684,0.101725200826885367
0.896000000000000685,0.103281113313645506
0.897000000000000686,0.104791042569731083
0.898000000000000687,0.106255488167238579
0.899000000000000687,0.107674947332810328
0.900000000000000688,0.109049914924715746
0.901000000000000689,0.110380883410711089
0.902000000000000690,0.111668342846635224
0.903000000000000691,0.112912780855736944
0.904000000000000692,0.114114682608737958
0.905000000000000693,0.115274530804589936
0.906000000000000694,0.116392805651935882
0.907000000000000695,0.117469984851269332
0.908000000000000695,0.118506543577749771
0.909000000000000696,0.119502954464709404
0.910000000000000697,0.120459687587794323
0.911000000000000698,0.121377210449766459
0.912000000000000699,0.122255987965927876
0.913000000000000700,0.123096482450168951
0.914000000000000701,0.123899153601652934
0.915000000000000702,0.124664458492067892
0.916000000000000703,0.125392851553501133
0.917000000000000703,0.126084784566879715
0.918000000000000704,0.126740706650999596
0.919000000000000705,0.127361064252104500
0.920000000000000706,0.127946301134025137
0.921000000000000707,0.128496858368862932
0.922000000000000708,0.129013174328217961
0.923000000000000709,0.129495684674915512
0.924000000000000710,0.129944822355287981
0.925000000000000711,0.130361017591927725
0.926000000000000711,0.130744697876968352
0.927000000000000712,0.131096287965831892
0.928000000000000713,0.131416209871476147
0.929000000000000714,0.131704882859094985
0.930000000000000715,0.131962723441308466
0.931000000000000716,0.132190145373782680
0.932000000000000717,0.132387559651297837
0.933000000000000718,0.132555374504290141
0.934000000000000719,0.132693995395773312
0.935000000000000719,0.132803825018717042
0.936000000000000720,0.132885263293828687
0.937000000000000721,0.132938707367743103
0.938000000000000722,0.132964551611610166
0.939000000000000723,0.132963187620073864
0.940000000000000724,0.132935004210636309
0.941000000000000725,0.132880387423393420
0.942000000000000726,0.132799720521147691
0.943000000000000727,0.132693383989870128
0.944000000000000727,0.132561755539530285
0.945000000000000728,0.132405210105259741
0.946000000000000729,0.132224119848868671
0.947000000000000730,0.132018854160684873
0.948000000000000731,0.131789779661723783
0.949000000000000732,0.131537260206176204
0.950000000000000733,0.131261656884219452
0.951000000000000734,0.130963328025109654
0.952000000000000735,0.130642629200604210
0.953000000000000735,0.130299913228657249
0.954000000000000736,0.129935530177409969
0.955000000000000737,0.129549827369462911
0.956000000000000738,0.129143149386416495
0.957000000000000739,0.128715838073682781
0.958000000000000740,0.128268232545575123
0.959000000000000741,0.127800669190625216
0.960000000000000742,0.127313481677177320
0.961000000000000743,0.126807000959220040
0.962000000000000743,0.126281555282449387
0.963000000000000744,0.125737470190580347
0.964000000000000745,0.125175068531874156
0.965000000000000746,0.124594670465898158
0.966000000000000747,0.123996593470501959
0.967000000000000748,0.123381152349003681
0.968000000000000749,0.122748659237582630
0.969000000000000750,0.122099423612885422
0.970000000000000751,0.121433752299810169
0.971000000000000751,0.120751949479503268
0.972000000000000752,0.120054316697539701
0.973000000000000753,0.119341152872265571
0.974000000000000754,0.118612754303353718
0.975000000000000755,0.117869414680503021
0.976000000000000756,0.117111425092324598
0.977000000000000757,0.116339074035381879
0.978000000000000758,0.115552647423403848
0.979000000000000759,0.114752428596633038
0.980000000000000759,0.113938698331344027
0.981000000000000760,0.113111734849509940
0.982000000000000761,0.112271813828587239
0.983000000000000762,0.111419208411468379
0.984000000000000763,0.110554189216562015
0.985000000000000764,0.109677024347979588
0.986000000000000765,0.108787979405890939
0.987000000000000766,0.107887317496968269
0.988000000000000766,0.106975299244964142
0.989000000000000767,0.106052182801398026
0.990000000000000768,0.105118223856370194
0.991000000000000769,0.104173675649462491
0.992000000000000770,0.103218788980757314
0.993000000000000771,0.102253812221954704
0.994000000000000772,0.101278991327586304
0.995000000000000773,0.100294569846320597
0.996000000000000774,0.099300788932369433
0.997000000000000774,0.098297887356968511
0.998000000000000775,0.097286101519956397
0.999000000000000776,0.096265665461414546
1.000000000000000666,0.095236810873413000
1.001000000000000778,0.094199767111805527
1.002000000000000668,0.093154761208113765
1.003000000000000780,0.092102017881475901
1.004000000000000670,0.091041759550648832
1.005000000000000782,0.089974206346098040
1.006000000000000671,0.088899576122126539
1.007000000000000783,0.087818084469073660
1.008000000000000673,0.086729944725564376
1.009000000000000785,0.085635367990808411
1.010000000000000675,0.084534563136960270
1.011000000000000787,0.083427736821507878
1.012000000000000677,0.082315093499721687
1.013000000000000789,0.081196835437145773
1.014000000000000679,0.080073162722111998
1.015000000000000790,0.078944273278315852
1.016000000000000680,0.077810362877401090
1.017000000000000792,0.076671625151606193
1.018000000000000682,0.075528251606408678
1.019000000000000794,0.074380431633228133
1.020000000000000684,0.073228352522133389
1.021000000000000796,0.072072199474584694
1.022000000000000686,0.070912155616195835
1.023000000000000798,0.069748402009508853
1.024000000000000687,0.068581117666806052
1.025000000000000799,0.067410479562901957
1.026000000000000689,0.066236662647997033
1.027000000000000801,0.065059839860494267
1.028000000000000691,0.063880182139865196
1.029000000000000803,0.062697858439496185
1.030000000000000693,0.061513035739562780
1.031000000000000805,0.060325879059888322
1.032000000000000695,0.059136551472826225
1.033000000000000806,0.057945214116124258
1.034000000000000696,0.056752026205794712
1.035000000000000808,0.055557145049000445
1.036000000000000698,0.054360726056902689
1.037000000000000810,0.053162922757530470
1.038000000000000700,0.051963886808638490
1.039000000000000812,0.050763768010547397
1.040000000000000702,0.049562714318981863
1.041000000000000814,0.048360871857893901
1.042000000000000703,0.047158384932287009
1.043000000000000815,0.045955396040997590
1.044000000000000705,0.044752045889491734
1.045000000000000817,0.043548473402625396
1.046000000000000707,0.042344815737397450
1.047000000000000819,0.041141208295670015
1.048000000000000709,0.039937784736903494
1.049000000000000821,0.038734676990808362
1.050000000000000711,0.037532015270042220
1.051000000000000822,0.036329928082829789
1.052000000000000712,0.035128542245593156
1.053000000000000824,0.033927982895537133
1.054000000000000714,0.032728373503209521
1.055000000000000826,0.031529835885044065
1.056000000000000716,0.030332490215856139
1.057000000000000828,0.029136455041327881
1.058000000000000718,0.027941847290448706
1.059000000000000830,0.026748782287928190
1.060000000000000719,0.025557373766572477
1.061000000000000831,0.024367733879640686
1.062000000000000721,0.023179973213140991
1.063000000000000833,0.021994200798111974
1.064000000000000723,0.020810524122867359
1.065000000000000835,0.019629049145190775
1.066000000000000725,0.018449880304495497
1.067000000000000837,0.017273120533961184
1.068000000000000727,0.016098871272603545
1.069000000000000838,0.014927232477333305
1.070000000000000728,0.013758302634949529
1.071000000000000840,0.012592178774104535
1.072000000000000730,0.011428956477225064
1.073000000000000842,0.010268729892384598
1.074000000000000732,0.009111591745143121
1.075000000000000844,0.007957633350324787
1.076000000000000734,0.006806944623772823
1.077000000000000846,0.005659614094040926
1.078000000000000735,0.004515728914043574
1.079000000000000847,0.003375374872671746
1.080000000000000737,0.002238636406333523
1.081000000000000849,0.001105596610487850
1.082000000000000739,-0.000023662748913241
1.083000000000000851,-0.001149061223997431
1.084000000000000741,-0.002270519673615420
1.085000000000000853,-0.003387960252016191
1.086000000000000743,-0.004501306397589928
1.087000000000000854,-0.005610482821646803
1.088000000000000744,-0.006715415497257017
1.089000000000000856,-0.007816031648126892
1.090000000000000746,-0.008912259737549963
1.091000000000000858,-0.010004029457389600
1.092000000000000748,-0.011091271717116713
1.093000000000000860,-0.012173918632911991
1.094000000000000750,-0.013251903516809049
1.095000000000000862,-0.014325160865890202
1.096000000000000751,-0.015393626351550060
1.097000000000000863,-0.016457236808790826
1.098000000000000753,-0.017515930225592211
1.099000000000000865,-0.018569645732327923
1.100000000000000755,-0.019618323591219570
1.101000000000000867,-0.020661905185882169
1.102000000000000757,-0.021700333010888719
1.103000000000000869,-0.022733550661413325
1.104000000000000759,-0.023761502822910251
1.105000000000000870,-0.024784135260872510
1.106000000000000760,-0.025801394810615920
1.107000000000000872,-0.026813229367154225
1.108000000000000762,-0.027819587875097244
1.109000000000000874,-0.028820420318625851
1.110000000000000764,-0.029815677711514145
1.111000000000000876,-0.030805312087212218
1.112000000000000766,-0.031789276488979966
1.113000000000000878,-0.032767524960087821
1.114000000000000767,-0.033740012534063980
1.115000000000000879,-0.034706695225001291
1.116000000000000769,-0.035667530017918170
1.117000000000000881,-0.036622474859188597
1.118000000000000771,-0.037571488647015365
1.119000000000000883,-0.038514531221962453
1.120000000000000773,-0.039451563357555904
1.121000000000000885,-0.040382546750922316
1.122000000000000774,-0.041307444013503128
1.123000000000000886,-0.042226218661816736
1.124000000000000776,-0.043138835108279351
1.125000000000000888,-0.044045258652079436
1.126000000000000778,-0.044945455470118030
1.127000000000000890,-0.045839392607999921
1.128000000000000780,-0.046727037971078238
1.129000000000000892,-0.047608360315569878
1.130000000000000782,-0.048483329239707808
1.131000000000000894,-0.049351915174975253
1.132000000000000783,-0.050214089377368001
1.133000000000000895,-0.051069823918746295
1.134000000000000785,-0.051919091678208670
1.135000000000000897,-0.052761866333555910
1.136000000000000787,-0.053598122352787034
1.137000000000000899,-0.054427834985664190
1.138000000000000789,-0.055250980255324308
1.139000000000000901,-0.056067534949973331
1.140000000000000790,-0.056877476614599506
1.141000000000000902,-0.057680783542759170
1.142000000000000792,-0.058477434768436434
1.143000000000000904,-0.059267410057939007
1.144000000000000794,-0.060050689901847046
1.145000000000000906,-0.060827255507026959
1.146000000000000796,-0.061597088788709897
1.147000000000000908,-0.062360172362604327
1.148000000000000798,-0.063116489537081572
1.149000000000000909,-0.063866024305409413
1.150000000000000799,-0.064608761338040333
1.151000000000000689,-0.065344685974960820
1.152000000000000801,-0.066073784218091611
1.153000000000000913,-0.066796042723739388
1.154000000000000803,-0.067511448795108869
1.155000000000000693,-0.068219990374869185
1.156000000000000805,-0.068921656037776335
1.157000000000000917,-0.069616434983334391
1.158000000000000806,-0.070304317028537580
1.159000000000000696,-0.070985292600642957
1.160000000000000808,-0.071659352730009854
1.161000000000000920,-0.072326489042985651
1.162000000000000810,-0.072986693754853907
1.163000000000000700,-0.073639959662820054
1.164000000000000812,-0.074286280139074026
1.165000000000000924,-0.074925649123877558
1.166000000000000814,-0.075558061118726733
1.167000000000000703,-0.076183511179558988
1.168000000000000815,-0.076801994910009608
1.169000000000000927,-0.077413508454721364
1.170000000000000817,-0.078018048492715847
1.171000000000000707,-0.078615612230794302
1.172000000000000819,-0.079206197397018091
1.173000000000000931,-0.079789802234220483
1.174000000000000821,-0.080366425493570412
1.175000000000000711,-0.080936066428202419
1.176000000000000822,-0.081498724786879181
1.177000000000000934,-0.082054400807717184
1.178000000000000824,-0.082603095211951194
1.179000000000000714,-0.083144809197760031
1.180000000000000826,-0.083679544434143355
1.181000000000000938,-0.084207303054828875
1.182000000000000828,-0.084728087652252967
1.183000000000000718,-0.085241901271574633
1.184000000000000830,-0.085748747404745182
1.185000000000000941,-0.086248629984622197
1.186000000000000831,-0.086741553379143022
1.187000000000000721,-0.087227522385525350
1.188000000000000833,-0.087706542224541023
1.189000000000000945,-0.088178618534816372
1.190000000000000835,-0.088643757367196124
1.191000000000000725,-0.089101965179133907
1.192000000000000837,-0.089553248829170123
1.193000000000000949,-0.089997615571395961
1.194000000000000838,-0.090435073050026210
1.195000000000000728,-0.090865629293974681
1.196000000000000840,-0.091289292711495509
1.197000000000000952,-0.091706072084872831
1.198000000000000842,-0.092115976565133900
1.199000000000000732,-0.092519015666843257
1.200000000000000844,-0.092915199262900289
1.201000000000000956,-0.093304537579425834
1.202000000000000846,-0.093687041190652715
1.203000000000000735,-0.094062721013891543
1.204000000000000847,-0.094431588304519504
1.205000000000000959,-0.094793654651029846
1.206000000000000849,-0.095148931970110609
1.207000000000000739,-0.095497432501778778
1.208000000000000851,-0.095839168804547237
1.209000000000000963,-0.096174153750646543
1.210000000000000853,-0.096502400521276413
1.211000000000000743,-0.096823922601909557
1.212000000000000854,-0.097138733777632533
1.213000000000000966,-0.097446848128531410
1.214000000000000856,-0.097748280025120288
1.215000000000000746,-0.098043044123802298
1.216000000000000858,-0.098331155362390413
1.217000000000000970,-0.098612628955645959
1.218000000000000860,-0.098887480390872140
1.219000000000000750,-0.099155725423556523
1.220000000000000862,-0.099417380073027167
1.221000000000000973,-0.099672460618174280
1.222000000000000863,-0.099920983593200688
1.223000000000000753,-0.100162965783409108
1.224000000000000865,-0.100398424221037202
1.225000000000000977,-0.100627376181126271
1.226000000000000867,-0.100849839177429151
1.227000000000000757,-0.101065830958358707
1.228000000000000869,-0.101275369502964369
1.229000000000000981,-0.101478473016973950
1.230000000000000870,-0.101675159928836384
1.231000000000000760,-0.101865448885831572
1.232000000000000872,-0.102049358750205418
1.233000000000000984,-0.102226908595332761
1.234000000000000874,-0.102398117701950689
1.235000000000000764,-0.102563005554378001
1.236000000000000876,-0.102721591836819254
1.237000000000000988,-0.102873896429672637
1.238000000000000878,-0.103019939405891686
1.239000000000000767,-0.103159741027374505
1.240000000000000879,-0.103293321741390762
1.241000000000000991,-0.103420702177037388
1.242000000000000881,-0.103541903141746230
1.243000000000000771,-0.103656945617809762
1.244000000000000883,-0.103765850758939668
1.245000000000000995,-0.103868639886879846
1.246000000000000885,-0.103965334488035840
1.247000000000000774,-0.104055956210138745
1.248000000000000886,-0.104140526858948965
1.249000000000000998,-0.104219068394993328
1.250000000000000888,-0.104291602930332822
1.251000000000000778,-0.104358152725355827
1.252000000000000890,-0.104418740185624165
1.253000000000001002,-0.104473387858724065
1.254000000000000892,-0.104522118431177022
1.255000000000000782,-0.104564954725360496
1.256000000000000894,-0.104601919696476101
1.257000000000001005,-0.104633036429535392
1.258000000000000895,-0.104658328136392531
1.259000000000000785,-0.104677818152786942
1.260000000000000897,-0.104691529935445213
1.261000000000001009,-0.104699487059181889
1.262000000000000899,-0.104701713214057038
1.263000000000000789,-0.104698232202546815
1.264000000000000901,-0.104689067936757835
1.265000000000001013,-0.104674244435653763
1.266000000000000902,-0.104653785822324902
1.267000000000000792,-0.104627716321288977
1.268000000000000904,-0.104596060255806811
1.269000000000001016,-0.104558842045241171
1.270000000000000906,-0.104516086202434549
1.271000000000000796,-0.104467817331122495
1.272000000000000908,-0.104414060123365002
1.273000000000001020,-0.104354839357022541
1.274000000000000909,-0.104290179893240256
1.275000000000000799,-0.104220106673971344
1.276000000000000911,-0.104144644719532747
1.277000000000001023,-0.104063819126168508
1.278000000000000913,-0.103977655063662813
1.279000000000000803,-0.103886177772959790
1.280000000000000915,-0.103789412563831868
1.281000000000001027,-0.103687384812542319
1.282000000000000917,-0.103580119959572683
1.283000000000000806,-0.103467643507342874
1.284000000000000918,-0.103349981017976350
1.285000000000001030,-0.103227158111083156
1.286000000000000920,-0.103099200461573906
1.287000000000000810,-0.102966133797483025
1.288000000000000922,-0.102827983897845004
1.289000000000001034,-0.102684776590564103
1.290000000000000924,-0.102536537750329407
1.291000000000000814,-0.102383293296553671
1.292000000000000925,-0.102225069191313758
1.293000000000001037,-0.102061891437352309
1.294000000000000927,-0.101893786076065321
1.295000000000000817,-0.101720779185541788
1.296000000000000929,-0.101542896878606112
1.297000000000001041,-0.101360165300893687
1.298000000000000931,-0.101172610628960546
1.299000000000000821,-0.100980259068386397
1.300000000000000933,-0.100783136851923222
1.301000000000001044,-0.100581270237666567
1.302000000000000934,-0.100374685507232969
1.303000000000000824,-0.100163408963975020
1.304000000000000936,-0.099947466931204432
1.305000000000001048,-0.099726885750458433
1.306000000000000938,-0.099501691779759885
1.307000000000000828,-0.099271911391916073
1.308000000000000940,-0.099037570972835304
1.309000000000001052,-0.098798696919866105
1.310000000000000941,-0.098555315640154656
1.311000000000000831,-0.098307453549013615
1.312000000000000943,-0.098055137068328302
1.313000000000001055,-0.097798392624981509
1.314000000000000945,-0.097537246649281109
1.315000000000000835,-0.097271725573417095
1.316000000000000947,-0.097001855829949482
1.317000000000001059,-0.096727663850301820
1.318000000000000949,-0.096449176063271219
1.319000000000000838,-0.096166418893574843
1.320000000000000950,-0.095879418760399890
1.321000000000001062,-0.095588202075973350
1.322000000000000952,-0.095292795244160261
1.323000000000000842,-0.094993224659072978
1.324000000000000954,-0.094689516703700571
1.325000000000001066,-0.094381697748550916
1.326000000000000956,-0.094069794150326486
1.327000000000000846,-0.093753832250597219
1.328000000000000957,-0.093433838374505598
1.329000000000001069,-0.093109838829484329
1.330000000000000959,-0.092781859903998121
1.331000000000000849,-0.092449927866284948
1.332000000000000961,-0.092114068963132886
1.333000000000001073,-0.091774309418667696
1.334000000000000963,-0.091430675433155750
1.335000000000000853,-0.091083193181818359
1.336000000000000965,-0.090731888813679384
1.337000000000001076,-0.090376788450408266
1.338000000000000966,-0.090017918185193807
1.339000000000000856,-0.089655304081632498
1.340000000000000968,-0.089288972172617193
1.341000000000001080,-0.088918948459268204
1.342000000000000970,-0.088545258909857122
1.343000000000000860,-0.088167929458755637
1.344000000000000972,-0.087786986005398332
1.345000000000001084,-0.087402454413268785
1.346000000000000973,-0.087014360508875982
1.347000000000000863,-0.086622730080778379
1.348000000000000975,-0.086227588878594247
1.349000000000001087,-0.085828962612048448
1.350000000000000977,-0.085426876950017550
1.351000000000000867,-0.085021357519601160
1.352000000000000979,-0.084612429905193562
1.353000000000001091,-0.084200119647585864
1.354000000000000981,-0.083784452243075749
1.355000000000000870,-0.083365453142574583
1.356000000000000982,-0.082943147750760907
1.357000000000001094,-0.082517561425220556
1.358000000000000984,-0.082088719475603145
1.359000000000000874,-0.081656647162812901
1.360000000000000986,-0.081221369698180709
1.361000000000001098,-0.080782912242682609
1.362000000000000988,-0.080341299906132230
1.363000000000000878,-0.079896557746432062
1.364000000000000989,-0.079448710768801403
1.365000000000001101,-0.078997783925020465
1.366000000000000991,-0.078543802112713432
1.367000000000000881,-0.078086790174612661
1.368000000000000993,-0.077626772897851082
1.369000000000001105,-0.077163775013262353
1.370000000000000995,-0.076697821194695551
1.371000000000000885,-0.076228936058342300
1.372000000000000997,-0.075757144162065845
1.373000000000001108,-0.075282470004760571
1.374000000000000998,-0.074804938025689355
1.375000000000000888,-0.074324572603886391
1.376000000000001000,-0.073841398057511026
1.377000000000001112,-0.073355438643255985
1.378000000000001002,-0.072866718555744461
1.379000000000000892,-0.072375261926951123
1.380000000000001004,-0.071881092825617499
1.381000000000001116,-0.071384235256701775
1.382000000000001005,-0.070884713160814766
1.383000000000000895,-0.070382550413677775
1.384000000000001007,-0.069877770825601232
1.385000000000001119,-0.069370398140946560
1.386000000000001009,-0.068860456037627832
1.387000000000000899,-0.068347968126595174
1.388000000000001011,-0.067832957951363862
1.389000000000001123,-0.067315448987505494
1.390000000000001013,-0.066795464642197613
1.391000000000000902,-0.066273028253745037
1.392000000000001014,-0.065748163091138206
1.393000000000001126,-0.065220892353600193
1.394000000000001016,-0.064691239170157303
1.395000000000000906,-0.064159226599209446
1.396000000000001018,-0.063624877628112947
1.397000000000001130,-0.063088215172778420
1.398000000000001020,-0.062549262077269158
1.399000000000000909,-0.062008041113405930
1.400000000000001021,-0.061464574980393163
1.401000000000001133,-0.060918886304445453
1.402000000000001023,-0.060370997638420389
1.403000000000000913,-0.059820931461462001
1.404000000000001025,-0.059268710178656814
1.405000000000001137,-0.058714356120697885
1.406000000000001027,-0.058157891543540299
1.407000000000000917,-0.057599338628103146
1.408000000000001029,-0.057038719479923741
1.409000000000001140,-0.056476056128876573
1.410000000000001030,-0.055911370528864045
1.411000000000000920,-0.055344684557523706
1.412000000000001032,-0.054776020015943117
1.413000000000001144,-0.054205398628395830
1.414000000000001034,-0.053632842042059037
1.415000000000000924,-0.053058371826755338
1.416000000000001036,-0.052482009474707533
1.417000000000001148,-0.051903776400283083
1.418000000000001037,-0.051323693939757074
1.419000000000000927,-0.050741783351080427
1.420000000000001039,-0.050158065813652786
1.421000000000001151,-0.049572562428110450
1.422000000000001041,-0.048985294216105570
1.423000000000000931,-0.048396282120106895
1.424000000000001043,-0.047805547003198903
1.425000000000001155,-0.047213109648893151
1.426000000000001044,-0.046618990760941954
1.427000000000000934,-0.046023210963160976
1.428000000000001046,-0.045425790799253810
1.429000000000001158,-0.044826750732645970
1.430000000000001048,-0.044226111146328580
1.431000000000000938,-0.043623892342705146
1.432000000000001050,-0.043020114543441172
1.433000000000001162,-0.042414797889325687
1.434000000000001052,-0.041807962440128105
1.435000000000000941,-0.041199628174481986
1.436000000000001053,-0.040589814989749846
1.437000000000001165,-0.039978542701907691
1.438000000000001055,-0.039365831045440398
1.439000000000000945,-0.038751699673222499
1.440000000000001057,-0.038136168156426960
1.441000000000001169,-0.037519255984420678
1.442000000000001059,-0.036900982564681370
1.443000000000000949,-0.036281367222715057
1.444000000000001060,-0.035660429201963995
1.445000000000001172,-0.035038187663740915
1.446000000000001062,-0.034414661687164547
1.447000000000000952,-0.033789870269079612
1.448000000000001064,-0.033163832324011801
1.449000000000001176,-0.032536566684111382
1.450000000000001066,-0.031908092099093767
1.451000000000000956,-0.031278427236206718
1.452000000000001068,-0.030647590680183391
1.453000000000001180,-0.030015600933211463
1.454000000000001069,-0.029382476414899682
1.455000000000000959,-0.028748235462252608
1.456000000000001071,-0.028112896329646413
1.457000000000001183,-0.027476477188822783
1.458000000000001073,-0.026838996128862341
1.459000000000000963,-0.026200471156184096
1.460000000000001075,-0.025560920194542834
1.461000000000001187,-0.024920361085023622
1.462000000000001076,-0.024278811586056527
1.463000000000000966,-0.023636289373410963
1.464000000000001078,-0.022992812040220106
1.465000000000001190,-0.022348397097001777
1.466000000000001080,-0.021703061971656595
1.467000000000000970,-0.021056824009520626
1.468000000000001082,-0.020409700473379054
1.469000000000001194,-0.019761708543497635
1.470000000000001084,-0.019112865317665876
1.471000000000000973,-0.018463187811231498
1.472000000000001085,-0.017812692957150295
1.473000000000001197,-0.017161397606028202
1.474000000000001087,-0.016509318526172156
1.475000000000000977,-0.015856472403646172
1.476000000000001089,-0.015202875842333114
1.477000000000001201,-0.014548545363988927
1.478000000000001091,-0.013893497408310463
1.479000000000000981,-0.013237748333006786
1.480000000000001092,-0.012581314413861556
1.481000000000001204,-0.011924211844821826
1.482000000000001094,-0.011266456738059030
1.483000000000000984,-0.010608065124066254
1.484000000000001096,-0.009949052951732699
1.485000000000001208,-0.009289436088426353
1.486000000000001098,-0.008629230320098779
1.487000000000000988,-0.007968451351366328
1.488000000000001100,-0.007307114805608998
1.489000000000001211,-0.006645236225069767
1.490000000000001101,-0.005982831070963100
1.491000000000000991,-0.005319914723562998
1.492000000000001103,-0.004656502482330436
1.493000000000001215,-0.003992609566007526
1.494000000000001105,-0.003328251112737992
1.495000000000000995,-0.002663442180181081
1.496000000000001107,-0.001998197745631677
1.497000000000001219,-0.001332532706134622
1.498000000000001108,-0.000666461878616947
1.499000000000000998,0.000000000000000000
